{
  "evidence": ["miR-145 directly binds to c-Myc  and insulin receptor substrate-1","Regarding the target genes, there are only three earlier studies showing that miR-145 directly binds to c-Myc  and insulin receptor substrate-1 , which are associated with cell proliferation and that miR-133a/b directly binds to pyruvate kinase type M2 expression, which is a potent oncogene in solid cancers ."],
  "extracted_information": {
    "interaction_type": "binds",
    "negative_information": false,
    "participant_a": {
      "entity_text": "c-Myc  and insulin receptor substrate-1",
      "entity_type": "protein",
      "identifier": "Uniprot:B4E1N7",
      "in_model": true
    },
    "participant_b": {
      "entity_text": "miR-145",
      "entity_type": "protein",
      "identifier": "NCBI:406937",
      "in_model": false
    }
  },
  "fries_provenance": [
    {
      "cmu-sentence-epistemic-status": "implication",
      "cmu-sentence-epistemic-value": 0.6,
      "component": "MedScan",
      "frame-file": "PMC2833258.cmu.medscan",
      "frame-id": "relm-PMC2833258-cmu-medscan-215",
      "passage-id": "pass-PMC2833258-UAZ-r1-72",
      "passage-number": 72,
      "passage-section-id": "N/A",
      "passage-section-name": "N/A",
      "sentence": "Regarding the target genes, there are only three earlier studies showing that miR-145 directly binds to c-Myc  and insulin receptor substrate-1 , which are associated with cell proliferation and that miR-133a/b directly binds to pyruvate kinase type M2 expression, which is a potent oncogene in solid cancers .",
      "text": "miR-145 directly binds to c-Myc  and insulin receptor substrate-1",
      "uaz-sentence": "Regarding the target genes , there are only three earlier studies showing that miR-145 directly binds to c-Myc                        and insulin receptor substrate-1                  , which are associated with cell proliferation and that miR-133a / b directly binds to pyruvate kinase type M2 expression , which is a potent oncogene in solid cancers                    .",
      "uaz-sentence-start": 1217
    }
  ],
  "model_relation": "extension",
  "pmc_id": "PMC2833258",
  "reader_type": "machine",
  "reading_complete": "2015-06-15T21:10:01Z",
  "reading_started": "2015-06-15T21:09:56Z",
  "submitter": "FRIES"
}
