{
  "evidence": ["arrestin-2 binding to STAM-1","arrestin-2 binds selectively to STAM-1","Arrestin-2 then interacts with STAM-1","Because the STAM-1 GGA and TOM1 homologous domain has been shown recently to bind to HRS and is predicted to be required for the assembly of endosomal sorting complex required for transport-0 , it is conceivable that arrestin-2 binding to STAM-1 displaces its interaction with HRS and promotes disassembly of endosomal sorting complex required for transport-0, which somehow negatively regulates the amount of CXCR4 that is targeted for lysosomal degradation.","Because ubiquitination of HRS is markedly reduced by expression of the GAT domain , it is likely that STAM-1 via its interaction with arrestin-2 regulates the ubiquitination status of HRS to control CXCR4 degradation .","CXCR4 is subsequently committed to downstream interactions with endosomal sorting complex required for transport-I-III, whereas arrestin-2, STAM-1, AIP4, and autoinhibited HRS are recycled such that another round of sorting can take place.","However, the arrestin-2/STAM-1 interaction may not be linked to STAM-1 ubiquitination ( B).","interaction between STAM-1 and arrestin-2","its interaction with arrestin-2","STAM-1 and arrestin-2","STAM-1 binding to arrestin-2","STAM-1 binding to arrestin-2            , and the GAT domain","STAM-1 binding to arrestin-2 was significantly increased upon agonist treatment as compared with vehicle .","To assess the effect of the STAM-1-GAT minigene on the interaction between STAM-1 and arrestin-2 , lysates from HeLa cells transfected with HA-arrestin-2 and FLAG-STAM-1-GAT or pCMV were incubated with an anti-HA or isotype control antibody and immunoprecipitates were analyzed for the presence of endogenous STAM-1 .","To determine whether the interaction between STAM-1 and arrestin-2 is important for CXCR4 trafficking , we initially expressed the GAT domain as a minigene in cells and assessed whether it disrupted the arrestin-2 / STAM-1 interaction .","To further confirm that the GAT domain mediates binding to arrestin-2 , deletion of the GAT domain abrogated STAM-1 binding to arrestin-2            , and the GAT domain alone fused to GST was able to bind to arrestin-2            .","Together these data further indicate that the interaction between STAM-1 and arrestin-2 attenuates CXCR4 trafficking into the degradative pathway ."],
  "extracted_information": {
    "interaction_type": "binds",
    "negative_information": false,
    "participant_a": {
      "entity_text": "STAM-1",
      "entity_type": "protein",
      "identifier": "Uniprot:Q92783",
      "in_model": false
    },
    "participant_b": {
      "entity_text": "arrestin-2",
      "entity_type": "protein",
      "identifier": "Uniprot:P19108",
      "in_model": true
    }
  },
  "fries_provenance": [
    {
      "cmu-sentence-epistemic-status": "implication",
      "cmu-sentence-epistemic-value": 0.6,
      "component": "REACH",
      "frame-file": "PMC2903679.uaz.events",
      "frame-id": "evem-PMC2903679-UAZ-r1-28-4-23",
      "passage-id": "pass-PMC2903679-UAZ-r1-28",
      "passage-number": 28,
      "passage-section-id": "N/A",
      "passage-section-name": "N/A",
      "sentence": "To assess the effect of the STAM-1-GAT minigene on the interaction between STAM-1 and arrestin-2 , lysates from HeLa cells transfected with HA-arrestin-2 and FLAG-STAM-1-GAT or pCMV were incubated with an anti-HA or isotype control antibody and immunoprecipitates were analyzed for the presence of endogenous STAM-1 .",
      "text": "interaction between STAM-1 and arrestin-2",
      "uaz-sentence": "To assess the effect of the STAM-1-GAT minigene on the interaction between STAM-1 and arrestin-2 , lysates from HeLa cells transfected with HA-arrestin-2 and FLAG-STAM-1-GAT or pCMV were incubated with an anti-HA or isotype control antibody and immunoprecipitates were analyzed for the presence of endogenous STAM-1 .",
      "uaz-sentence-start": 840
    },
    {
      "component": "REACH",
      "frame-file": "PMC2903679.uaz.events",
      "frame-id": "evem-PMC2903679-UAZ-r1-52-5-49",
      "passage-id": "pass-PMC2903679-UAZ-r1-52",
      "passage-number": 52,
      "passage-section-id": "fig-2",
      "passage-section-name": "fig-2",
      "sentence": "STAM-1 binding to arrestin-2 was significantly increased upon agonist treatment as compared with vehicle .",
      "text": "STAM-1 binding to arrestin-2",
      "uaz-sentence": "STAM-1 binding to arrestin-2 was significantly increased upon agonist treatment as compared with vehicle .",
      "uaz-sentence-start": 639
    },
    {
      "cmu-sentence-epistemic-status": "implication",
      "cmu-sentence-epistemic-value": 0.6,
      "component": "REACH",
      "frame-file": "PMC2903679.uaz.events",
      "frame-id": "evem-PMC2903679-UAZ-r1-63-9-54",
      "passage-id": "pass-PMC2903679-UAZ-r1-63",
      "passage-number": 63,
      "passage-section-id": "N/A",
      "passage-section-name": "N/A",
      "sentence": "To further confirm that the GAT domain mediates binding to arrestin-2 , deletion of the GAT domain abrogated STAM-1 binding to arrestin-2            , and the GAT domain alone fused to GST was able to bind to arrestin-2            .",
      "text": "STAM-1 binding to arrestin-2            , and the GAT domain",
      "uaz-sentence": "To further confirm that the GAT domain mediates binding to arrestin-2 , deletion of the GAT domain abrogated STAM-1 binding to arrestin-2            , and the GAT domain alone fused to GST was able to bind to arrestin-2            .",
      "uaz-sentence-start": 1447
    },
    {
      "cmu-sentence-epistemic-status": "implication",
      "cmu-sentence-epistemic-value": 0.6,
      "component": "REACH",
      "frame-file": "PMC2903679.uaz.events",
      "frame-id": "evem-PMC2903679-UAZ-r1-66-0-56",
      "passage-id": "pass-PMC2903679-UAZ-r1-66",
      "passage-number": 66,
      "passage-section-id": "N/A",
      "passage-section-name": "N/A",
      "sentence": "To determine whether the interaction between STAM-1 and arrestin-2 is important for CXCR4 trafficking , we initially expressed the GAT domain as a minigene in cells and assessed whether it disrupted the arrestin-2 / STAM-1 interaction .",
      "text": "interaction between STAM-1 and arrestin-2",
      "uaz-event-epistemic-status": "hypothesis",
      "uaz-sentence": "To determine whether the interaction between STAM-1 and arrestin-2 is important for CXCR4 trafficking , we initially expressed the GAT domain as a minigene in cells and assessed whether it disrupted the arrestin-2 / STAM-1 interaction .",
      "uaz-sentence-start": 0
    },
    {
      "cmu-sentence-epistemic-status": "implication",
      "cmu-sentence-epistemic-value": 0.6,
      "component": "REACH",
      "frame-file": "PMC2903679.uaz.events",
      "frame-id": "evem-PMC2903679-UAZ-r1-71-14-60",
      "passage-id": "pass-PMC2903679-UAZ-r1-71",
      "passage-number": 71,
      "passage-section-id": "N/A",
      "passage-section-name": "N/A",
      "sentence": "Together these data further indicate that the interaction between STAM-1 and arrestin-2 attenuates CXCR4 trafficking into the degradative pathway .",
      "text": "STAM-1 and arrestin-2",
      "uaz-sentence": "Together these data further indicate that the interaction between STAM-1 and arrestin-2 attenuates CXCR4 trafficking into the degradative pathway .",
      "uaz-sentence-start": 2507
    },
    {
      "cmu-sentence-epistemic-status": "implication",
      "cmu-sentence-epistemic-value": 0.6,
      "component": "REACH",
      "frame-file": "PMC2903679.uaz.events",
      "frame-id": "evem-PMC2903679-UAZ-r1-71-14-62",
      "passage-id": "pass-PMC2903679-UAZ-r1-71",
      "passage-number": 71,
      "passage-section-id": "N/A",
      "passage-section-name": "N/A",
      "sentence": "Together these data further indicate that the interaction between STAM-1 and arrestin-2 attenuates CXCR4 trafficking into the degradative pathway .",
      "text": "interaction between STAM-1 and arrestin-2",
      "uaz-event-epistemic-status": "hypothesis",
      "uaz-sentence": "Together these data further indicate that the interaction between STAM-1 and arrestin-2 attenuates CXCR4 trafficking into the degradative pathway .",
      "uaz-sentence-start": 2507
    },
    {
      "cmu-sentence-epistemic-status": "implication",
      "cmu-sentence-epistemic-value": 0.6,
      "component": "REACH",
      "frame-file": "PMC2903679.uaz.events",
      "frame-id": "evem-PMC2903679-UAZ-r1-87-1-95",
      "passage-id": "pass-PMC2903679-UAZ-r1-87",
      "passage-number": 87,
      "passage-section-id": "fig-9",
      "passage-section-name": "fig-9",
      "sentence": "Because ubiquitination of HRS is markedly reduced by expression of the GAT domain , it is likely that STAM-1 via its interaction with arrestin-2 regulates the ubiquitination status of HRS to control CXCR4 degradation .",
      "text": "its interaction with arrestin-2",
      "uaz-sentence": "Because ubiquitination of HRS is markedly reduced by expression of the GAT domain , it is likely that STAM-1 via its interaction with arrestin-2 regulates the ubiquitination status of HRS to control CXCR4 degradation .",
      "uaz-sentence-start": 80
    },
    {
      "component": "MedScan",
      "frame-file": "PMC2903679.cmu.medscan",
      "frame-id": "relm-PMC2903679-cmu-medscan-918",
      "sentence": "Because the STAM-1 GGA and TOM1 homologous domain has been shown recently to bind to HRS and is predicted to be required for the assembly of endosomal sorting complex required for transport-0 , it is conceivable that arrestin-2 binding to STAM-1 displaces its interaction with HRS and promotes disassembly of endosomal sorting complex required for transport-0, which somehow negatively regulates the amount of CXCR4 that is targeted for lysosomal degradation.",
      "text": "arrestin-2 binding to STAM-1"
    },
    {
      "component": "MedScan",
      "frame-file": "PMC2903679.cmu.medscan",
      "frame-id": "relm-PMC2903679-cmu-medscan-932",
      "sentence": "CXCR4 is subsequently committed to downstream interactions with endosomal sorting complex required for transport-I-III, whereas arrestin-2, STAM-1, AIP4, and autoinhibited HRS are recycled such that another round of sorting can take place.",
      "text": "Arrestin-2 then interacts with STAM-1"
    },
    {
      "cmu-sentence-epistemic-status": "implication",
      "cmu-sentence-epistemic-value": 0.6,
      "component": "MedScan",
      "frame-file": "PMC2903679.cmu.medscan",
      "frame-id": "relm-PMC2903679-cmu-medscan-957",
      "passage-id": "pass-PMC2903679-UAZ-r1-89",
      "passage-number": 89,
      "passage-section-id": "fig-8",
      "passage-section-name": "fig-8",
      "sentence": "However, the arrestin-2/STAM-1 interaction may not be linked to STAM-1 ubiquitination ( B).",
      "text": "arrestin-2 binds selectively to STAM-1",
      "uaz-sentence": "However , the arrestin-2 / STAM-1 interaction may not be linked to STAM-1 ubiquitination            .",
      "uaz-sentence-start": 408
    }
  ],
  "model_relation": "extension",
  "pmc_id": "PMC2903679",
  "reader_type": "machine",
  "reading_complete": "2015-06-15T21:21:37Z",
  "reading_started": "2015-06-15T21:21:32Z",
  "submitter": "FRIES"
}
