{
  "evidence": ["Finally , we mutated tyrosine 1006 to phenylalanine in the Grb2 binding site of Shank3 ( Shank3-Pro1 Y1006F ) , which does not interact with Grb2                  .","phenylalanine in the Grb2-binding site of Shank3 (Shank3-Pro1 Y1006F), which does not interact with Grb2","tyrosine 1006 to phenylalanine in the Grb2-binding site of Shank3 (Shank3-Pro1 Y1006F), which does not interact with Grb2"],
  "extracted_information": {
    "interaction_type": "binds",
    "negative_information": true,
    "participant_a": {
      "features": [
        {
          "feature_type": "mutation",
          "from_base": "Y",
          "site": 1006,
          "to_base": "F"
        }
      ],
      "entity_text": "Shank3",
      "entity_type": "protein",
      "identifier": "Uniprot:Q9BYB0",
      "in_model": false
    },
    "participant_b": {
      "entity_text": "Grb2",
      "entity_type": "protein",
      "identifier": "Uniprot:P62993",
      "in_model": true
    }
  },
  "fries_provenance": [
    {
      "cmu-sentence-epistemic-status": "implication",
      "cmu-sentence-epistemic-value": 0.6,
      "component": "REACH",
      "frame-file": "PMC2172453.uaz.events",
      "frame-id": "evem-PMC2172453-UAZ-r1-44-6-31",
      "passage-id": "pass-PMC2172453-UAZ-r1-44",
      "passage-number": 44,
      "passage-section-id": "N/A",
      "passage-section-name": "N/A",
      "sentence": "Finally , we mutated tyrosine 1006 to phenylalanine in the Grb2 binding site of Shank3 ( Shank3-Pro1 Y1006F ) , which does not interact with Grb2                  .",
      "text": "tyrosine 1006 to phenylalanine in the Grb2-binding site of Shank3 (Shank3-Pro1 Y1006F), which does not interact with Grb2",
      "uaz-sentence": "Finally , we mutated tyrosine 1006 to phenylalanine in the Grb2 binding site of Shank3 ( Shank3-Pro1 Y1006F ) , which does not interact with Grb2                  .",
      "uaz-sentence-start": 977
    },
    {
      "cmu-sentence-epistemic-status": "implication",
      "cmu-sentence-epistemic-value": 0.6,
      "component": "REACH",
      "frame-file": "PMC2172453.uaz.events",
      "frame-id": "evem-PMC2172453-UAZ-r1-44-6-32",
      "passage-id": "pass-PMC2172453-UAZ-r1-44",
      "passage-number": 44,
      "passage-section-id": "N/A",
      "passage-section-name": "N/A",
      "sentence": "Finally , we mutated tyrosine 1006 to phenylalanine in the Grb2 binding site of Shank3 ( Shank3-Pro1 Y1006F ) , which does not interact with Grb2                  .",
      "text": "phenylalanine in the Grb2-binding site of Shank3 (Shank3-Pro1 Y1006F), which does not interact with Grb2",
      "uaz-sentence": "Finally , we mutated tyrosine 1006 to phenylalanine in the Grb2 binding site of Shank3 ( Shank3-Pro1 Y1006F ) , which does not interact with Grb2                  .",
      "uaz-sentence-start": 977
    }
  ],
  "model_relation": "extension",
  "pmc_id": "PMC2172453",
  "reader_type": "machine",
  "reading_complete": "2015-06-15T19:40:09Z",
  "reading_started": "2015-06-15T19:40:04Z",
  "submitter": "FRIES"
}
