{
  "evidence": ["trastuzumab, which downregulates HER2","The increase in the levels of Ser473//473-phosphorylated Akt1 in MCF7neo and MCF7HER2 cells by doxorubicin was markedly diminished by pretreatment with trastuzumab, which downregulates HER2 in these cells (Fig. , compare lanes 1 to 3 with lanes 4 to 6, and lanes 7 to 9 with lanes 10 to 12)."],
  "extracted_information": {
    "interaction_type": "decreases",
    "negative_information": false,
    "participant_a": {
      "entity_text": "trastuzumab",
      "entity_type": "chemical",
      "identifier": "ungrounded",
      "in_model": false
    },
    "participant_b": {
      "entity_text": "HER2",
      "entity_type": "protein",
      "identifier": "Uniprot:P04626",
      "in_model": true
    }
  },
  "fries_provenance": [
    {
      "cmu-sentence-epistemic-status": "implication",
      "cmu-sentence-epistemic-value": 0.6,
      "component": "MedScan",
      "frame-file": "PMC1242125.cmu.medscan",
      "frame-id": "relm-PMC1242125-cmu-medscan-524",
      "passage-id": "pass-PMC1242125-UAZ-r1-52",
      "passage-number": 52,
      "passage-section-id": "N/A",
      "passage-section-name": "N/A",
      "sentence": "The increase in the levels of Ser473//473-phosphorylated Akt1 in MCF7neo and MCF7HER2 cells by doxorubicin was markedly diminished by pretreatment with trastuzumab, which downregulates HER2 in these cells (Fig. , compare lanes 1 to 3 with lanes 4 to 6, and lanes 7 to 9 with lanes 10 to 12).",
      "text": "trastuzumab, which downregulates HER2",
      "uaz-sentence": "The increase in the levels of p-Akt in MCF7neo and MCF7HER2 cells by doxorubicin was markedly diminished by pretreatment with trastuzumab , which downregulates HER2 in these cells                                                                                       .",
      "uaz-sentence-start": 1451
    }
  ],
  "model_relation": "extension",
  "pmc_id": "PMC1242125",
  "reader_type": "machine",
  "reading_complete": "2015-06-15T18:43:56Z",
  "reading_started": "2015-06-15T18:43:51Z",
  "submitter": "FRIES"
}
