{
  "evidence": ["Consistent with previous reports , we found that TNF\\u03b1 treatment increased TRAF2 interaction with ASK1 and stimulated activation of ASK1 as measured by phosphorylation of ASK1 at threonine 845//845 in wild-type mouse embryo fibroblasts .","Deletion of FIP200 significantly reduced TNF\\u03b1-stimulated TRAF2-ASK1 interaction and ASK1 phosphorylation in FIP200 double-knockout mouse embryo fibroblasts compared with that in wild-type mouse embryo fibroblasts, which could be rescued by reexpression of FIP200 in FIP200 double-knockout mouse embryo fibroblasts.","TNF\\u03b1 treatment increased TRAF2 interaction with ASK1 and stimulated activation of ASK1 as measured by phosphorylation of ASK1","TNF\\u03b1-induced TRAF2-ASK1 interaction and ASK1","TNF\\u03b1-stimulated TRAF2-ASK1 interaction and ASK1"],
  "extracted_information": {
    "interaction_type": "increases",
    "negative_information": false,
    "participant_a": {
      "entity_text": "TNF\\u03b1",
      "entity_type": "protein",
      "identifier": "Uniprot:C1K3N5",
      "in_model": false
    },
    "participant_b": {
      "entity_text": "ASK1",
      "entity_type": "protein",
      "identifier": "Uniprot:Q99683",
      "in_model": true
    }
  },
  "fries_provenance": [
    {
      "component": "MedScan",
      "frame-file": "PMC2064504.cmu.medscan",
      "frame-id": "relm-PMC2064504-cmu-medscan-1006",
      "sentence": "Consistent with previous reports , we found that TNF\\u03b1 treatment increased TRAF2 interaction with ASK1 and stimulated activation of ASK1 as measured by phosphorylation of ASK1 at threonine 845//845 in wild-type mouse embryo fibroblasts .",
      "text": "TNF\\u03b1-induced TRAF2-ASK1 interaction and ASK1"
    },
    {
      "component": "MedScan",
      "frame-file": "PMC2064504.cmu.medscan",
      "frame-id": "relm-PMC2064504-cmu-medscan-1007",
      "sentence": "Consistent with previous reports , we found that TNF\\u03b1 treatment increased TRAF2 interaction with ASK1 and stimulated activation of ASK1 as measured by phosphorylation of ASK1 at threonine 845//845 in wild-type mouse embryo fibroblasts .",
      "text": "TNF\\u03b1-induced TRAF2-ASK1 interaction and ASK1"
    },
    {
      "cmu-sentence-epistemic-status": "belief",
      "cmu-sentence-epistemic-value": 0.9,
      "component": "MedScan",
      "frame-file": "PMC2064504.cmu.medscan",
      "frame-id": "relm-PMC2064504-cmu-medscan-1009",
      "passage-id": "pass-PMC2064504-UAZ-r1-60",
      "passage-number": 60,
      "passage-section-id": "N/A",
      "passage-section-name": "N/A",
      "sentence": "Deletion of FIP200 significantly reduced TNF\\u03b1-stimulated TRAF2-ASK1 interaction and ASK1 phosphorylation in FIP200 double-knockout mouse embryo fibroblasts compared with that in wild-type mouse embryo fibroblasts, which could be rescued by reexpression of FIP200 in FIP200 double-knockout mouse embryo fibroblasts.",
      "text": "TNF\\u03b1 treatment increased TRAF2 interaction with ASK1 and stimulated activation of ASK1 as measured by phosphorylation of ASK1",
      "uaz-sentence": "Deletion of FIP200 significantly reduced TNFalpha stimulated TRAF2-ASK1 interaction and ASK1 phosphorylation in FIP200 KO MEFs compared with that in WT MEFs , which could be rescued by reexpression of FIP200 in FIP200 KO MEFs .",
      "uaz-sentence-start": 899
    },
    {
      "cmu-sentence-epistemic-status": "belief",
      "cmu-sentence-epistemic-value": 0.9,
      "component": "MedScan",
      "frame-file": "PMC2064504.cmu.medscan",
      "frame-id": "relm-PMC2064504-cmu-medscan-1012",
      "passage-id": "pass-PMC2064504-UAZ-r1-60",
      "passage-number": 60,
      "passage-section-id": "N/A",
      "passage-section-name": "N/A",
      "sentence": "Deletion of FIP200 significantly reduced TNF\\u03b1-stimulated TRAF2-ASK1 interaction and ASK1 phosphorylation in FIP200 double-knockout mouse embryo fibroblasts compared with that in wild-type mouse embryo fibroblasts, which could be rescued by reexpression of FIP200 in FIP200 double-knockout mouse embryo fibroblasts.",
      "text": "TNF\\u03b1-stimulated TRAF2-ASK1 interaction and ASK1",
      "uaz-sentence": "Deletion of FIP200 significantly reduced TNFalpha stimulated TRAF2-ASK1 interaction and ASK1 phosphorylation in FIP200 KO MEFs compared with that in WT MEFs , which could be rescued by reexpression of FIP200 in FIP200 KO MEFs .",
      "uaz-sentence-start": 899
    }
  ],
  "model_relation": "extension",
  "pmc_id": "PMC2064504",
  "reader_type": "machine",
  "reading_complete": "2015-06-15T19:08:18Z",
  "reading_started": "2015-06-15T19:08:13Z",
  "submitter": "FRIES"
}
