{
  "evidence": ["Other inflammatory cytokines (e.g. IL-1\\u03b2. IL-6), have also been implicated in age-related diseases, so the following experiment was conducted to determine whether resveratrol, pterostilbene, morin hydrate, and nicotinic acid have the capacity to suppress expression of IL-6, in addition to TNF-\\u03b1 and iNOS genes, in lipopolysaccharide-stimulated RAW 264.7 cells.","quercetin inhibit expression of TNF-\\u03b1, IL-1\\u03b2, IL-6, and iNOS","quercetin, riboflavin, and \\u03b4-tocotrienol) suppress expression of TNF-\\u03b1 and iNOS","quercetin, riboflavin, resveratrol, pterostilbene, morin hydrate and nicotinic acid to inhibit TNF-\\u03b1","Resveratrol, pterostilbene, morin hydrate, nicotinic acid, and quercetin inhibit expression of TNF-\\u03b1, IL-1\\u03b2, IL-6, and iNOS genes in lipopolysaccharide-stimulated RAW 264.7 cells 1 1RAW 264.7 cells were treated with resveratrol, pterostilbene, morin hydrate, nicotinic acid, or quercetin (16 \\u03bcM) for 1 h, followed by treatment with lipopolysaccharide (10 ng/well) for 4 h.","Resveratrol, pterostilbene, morin hydrate, nicotinic acid, and quercetin inhibit expression of TNF-\\u03b1, IL-1\\u03b2, IL-6, and iNOS genes in peritoneal macrophages from BALB/c mice 1 1Thioglycolate-elicited peritoneal macrophages from 8-week-old BALB/c mice were treated with resveratrol, pterostilbene, morin hydrate, nicotinic acid, or quercetin (40 \\u03bcM) for 1 h, followed by treatment with lipopolysaccharide (10 ng/well) for 4 h.","Resveratrol, pterostilbene, morin hydrate, nicotinic acid, and quercetin inhibit expression of TNF-\\u03b1, IL-1\\u03b2, IL-6, and iNOS genes in peritoneal macrophages from C57BL/6 mice 1 1Thioglycolate-elicited peritoneal macrophages from 8-week-old C57BL/6 mice were treated with resveratrol, pterostilbene, morin hydrate, Cell viability was >95% in all the treatments.","Thus, we wanted to determine whether combined treatment of lipopolysaccharide-stimulated peritoneal macrophages with \\u03b4-tocotrienol plus resveratrol, pterostilbene, morin hydrate, quercetin, riboflavin or nicotinic acid would produce further reductions in TNF-\\u03b1 secretion and nitric oxide production compared to treatment with each of these agents alone.","TNF-\\u03b1, IL-1\\u03b2, IL-6, and iNOS genes in peritoneal macrophages from BALB/c mice 1 1Thioglycolate-elicited peritoneal macrophages from 8-week-old BALB/c mice were treated with resveratrol, pterostilbene, morin hydrate, nicotinic acid, or quercetin (40 \\u03bcM)"],
  "extracted_information": {
    "interaction_type": "decreases_activity",
    "negative_information": false,
    "participant_a": {
      "entity_text": "quercetin",
      "entity_type": "chemical",
      "identifier": "CHEBI:57694",
      "in_model": true
    },
    "participant_b": {
      "entity_text": "TNF-\\u03b1 and iNOS",
      "entity_type": "protein",
      "identifier": "Uniprot:C1K3N5",
      "in_model": false
    }
  },
  "fries_provenance": [
    {
      "component": "MedScan",
      "frame-file": "PMC3393619.cmu.medscan",
      "frame-id": "relm-PMC3393619-cmu-medscan-1143",
      "passage-id": "pass-PMC3393619-UAZ-r1-84",
      "passage-number": 84,
      "passage-section-id": "N/A",
      "passage-section-name": "N/A",
      "sentence": "Other inflammatory cytokines (e.g. IL-1\\u03b2. IL-6), have also been implicated in age-related diseases, so the following experiment was conducted to determine whether resveratrol, pterostilbene, morin hydrate, and nicotinic acid have the capacity to suppress expression of IL-6, in addition to TNF-\\u03b1 and iNOS genes, in lipopolysaccharide-stimulated RAW 264.7 cells.",
      "text": "quercetin, riboflavin, and \\u03b4-tocotrienol) suppress expression of TNF-\\u03b1 and iNOS",
      "uaz-sentence": "Other inflammatory cytokines ( e.g. IL-1beta .",
      "uaz-sentence-start": 293
    },
    {
      "component": "MedScan",
      "frame-file": "PMC3393619.cmu.medscan",
      "frame-id": "relm-PMC3393619-cmu-medscan-1150",
      "sentence": "Resveratrol, pterostilbene, morin hydrate, nicotinic acid, and quercetin inhibit expression of TNF-\\u03b1, IL-1\\u03b2, IL-6, and iNOS genes in lipopolysaccharide-stimulated RAW 264.7 cells 1 1RAW 264.7 cells were treated with resveratrol, pterostilbene, morin hydrate, nicotinic acid, or quercetin (16 \\u03bcM) for 1 h, followed by treatment with lipopolysaccharide (10 ng/well) for 4 h.",
      "text": "quercetin inhibit expression of TNF-\\u03b1, IL-1\\u03b2, IL-6, and iNOS"
    },
    {
      "component": "MedScan",
      "frame-file": "PMC3393619.cmu.medscan",
      "frame-id": "relm-PMC3393619-cmu-medscan-1160",
      "sentence": "Resveratrol, pterostilbene, morin hydrate, nicotinic acid, and quercetin inhibit expression of TNF-\\u03b1, IL-1\\u03b2, IL-6, and iNOS genes in peritoneal macrophages from C57BL/6 mice 1 1Thioglycolate-elicited peritoneal macrophages from 8-week-old C57BL/6 mice were treated with resveratrol, pterostilbene, morin hydrate, Cell viability was >95% in all the treatments.",
      "text": "quercetin inhibit expression of TNF-\\u03b1, IL-1\\u03b2, IL-6, and iNOS"
    },
    {
      "component": "MedScan",
      "frame-file": "PMC3393619.cmu.medscan",
      "frame-id": "relm-PMC3393619-cmu-medscan-1167",
      "sentence": "Resveratrol, pterostilbene, morin hydrate, nicotinic acid, and quercetin inhibit expression of TNF-\\u03b1, IL-1\\u03b2, IL-6, and iNOS genes in peritoneal macrophages from BALB/c mice 1 1Thioglycolate-elicited peritoneal macrophages from 8-week-old BALB/c mice were treated with resveratrol, pterostilbene, morin hydrate, nicotinic acid, or quercetin (40 \\u03bcM) for 1 h, followed by treatment with lipopolysaccharide (10 ng/well) for 4 h.",
      "text": "TNF-\\u03b1, IL-1\\u03b2, IL-6, and iNOS genes in peritoneal macrophages from BALB/c mice 1 1Thioglycolate-elicited peritoneal macrophages from 8-week-old BALB/c mice were treated with resveratrol, pterostilbene, morin hydrate, nicotinic acid, or quercetin (40 \\u03bcM)"
    },
    {
      "component": "MedScan",
      "frame-file": "PMC3393619.cmu.medscan",
      "frame-id": "relm-PMC3393619-cmu-medscan-1180",
      "passage-id": "pass-PMC3393619-UAZ-r1-115",
      "passage-number": 115,
      "passage-section-id": "N/A",
      "passage-section-name": "N/A",
      "sentence": "Thus, we wanted to determine whether combined treatment of lipopolysaccharide-stimulated peritoneal macrophages with \\u03b4-tocotrienol plus resveratrol, pterostilbene, morin hydrate, quercetin, riboflavin or nicotinic acid would produce further reductions in TNF-\\u03b1 secretion and nitric oxide production compared to treatment with each of these agents alone.",
      "text": "quercetin, riboflavin, resveratrol, pterostilbene, morin hydrate and nicotinic acid to inhibit TNF-\\u03b1",
      "uaz-sentence": "Thus , we wanted to determine whether combined treatment of LPS stimulated peritoneal macrophages with delta-tocotrienol plus resveratrol , pterostilbene , morin hydrate , quercetin , riboflavin or nicotinic acid would produce further reductions in TNF-alpha secretion and NO production compared to treatment with each of these agents alone .",
      "uaz-sentence-start": 534
    }
  ],
  "model_relation": "extension",
  "pmc_id": "PMC3393619",
  "reader_type": "machine",
  "reading_complete": "2015-06-15T22:51:48Z",
  "reading_started": "2015-06-15T22:51:43Z",
  "submitter": "FRIES"
}
