{
    "frames": [
        {
            "frame-id": "smap-PMC2940320-cmu-1", 
            "frame-type": "sentence-map", 
            "list1-meta": {
                "component": "nxml2fries", 
                "object-type": "meta-info", 
                "organization": "UAZ"
            }, 
            "list2-meta": {
                "component": "Nicolas-NXML-Parser", 
                "object-type": "meta-info", 
                "organization": "CMU"
            }, 
            "map": [
                {
                    "from": "sent-PMC2940320-UAZ-r1-26-3", 
                    "object-type": "map-range", 
                    "to": "sent-PMC2940320-cmu-91"
                }, 
                {
                    "from": "sent-PMC2940320-UAZ-r1-47-1", 
                    "object-type": "map-range", 
                    "to": "sent-PMC2940320-cmu-207"
                }, 
                {
                    "from": "sent-PMC2940320-UAZ-r1-28-5", 
                    "object-type": "map-range", 
                    "to": "sent-PMC2940320-cmu-106"
                }, 
                {
                    "from": "sent-PMC2940320-UAZ-r1-18-0", 
                    "object-type": "map-range", 
                    "to": "sent-PMC2940320-cmu-39"
                }, 
                {
                    "from": "sent-PMC2940320-UAZ-r1-21-14", 
                    "object-type": "map-range", 
                    "to": "sent-PMC2940320-cmu-66"
                }, 
                {
                    "from": "sent-PMC2940320-UAZ-r1-32-8", 
                    "object-type": "map-range", 
                    "to": "sent-PMC2940320-cmu-127"
                }, 
                {
                    "from": "sent-PMC2940320-UAZ-r1-49-5", 
                    "object-type": "map-range", 
                    "to": "sent-PMC2940320-cmu-222"
                }, 
                {
                    "from": "sent-PMC2940320-UAZ-r1-49-1", 
                    "object-type": "map-range", 
                    "to": "sent-PMC2940320-cmu-218"
                }, 
                {
                    "from": "sent-PMC2940320-UAZ-r1-21-4", 
                    "object-type": "map-range", 
                    "to": "sent-PMC2940320-cmu-49"
                }, 
                {
                    "from": "sent-PMC2940320-UAZ-r1-28-2", 
                    "object-type": "map-range", 
                    "to": "sent-PMC2940320-cmu-101"
                }, 
                {
                    "from": "sent-PMC2940320-UAZ-r1-20-0", 
                    "object-type": "map-range", 
                    "to": "sent-PMC2940320-cmu-45"
                }, 
                {
                    "from": "sent-PMC2940320-UAZ-r1-47-2", 
                    "object-type": "map-range", 
                    "to": "sent-PMC2940320-cmu-208"
                }, 
                {
                    "from": "sent-PMC2940320-UAZ-r1-28-4", 
                    "object-type": "map-range", 
                    "to": "sent-PMC2940320-cmu-105"
                }, 
                {
                    "from": "sent-PMC2940320-UAZ-r1-56-1", 
                    "object-type": "map-range", 
                    "to": "sent-PMC2940320-cmu-237"
                }, 
                {
                    "from": "sent-PMC2940320-UAZ-r1-46-3", 
                    "object-type": "map-range", 
                    "to": "sent-PMC2940320-cmu-203"
                }, 
                {
                    "from": "sent-PMC2940320-UAZ-r1-32-4", 
                    "object-type": "map-range", 
                    "to": "sent-PMC2940320-cmu-121"
                }, 
                {
                    "from": "sent-PMC2940320-UAZ-r1-56-4", 
                    "object-type": "map-range", 
                    "to": "sent-PMC2940320-cmu-242"
                }, 
                {
                    "from": "sent-PMC2940320-UAZ-r1-16-2", 
                    "object-type": "map-range", 
                    "to": "sent-PMC2940320-cmu-30"
                }, 
                {
                    "from": "sent-PMC2940320-UAZ-r1-32-7", 
                    "object-type": "map-range", 
                    "to": "sent-PMC2940320-cmu-125"
                }, 
                {
                    "from": "sent-PMC2940320-UAZ-r1-41-1", 
                    "object-type": "map-range", 
                    "to": "sent-PMC2940320-cmu-175"
                }, 
                {
                    "from": "sent-PMC2940320-UAZ-r1-32-6", 
                    "object-type": "map-range", 
                    "to": "sent-PMC2940320-cmu-123"
                }, 
                {
                    "from": "sent-PMC2940320-UAZ-r1-74-4", 
                    "object-type": "map-range", 
                    "to": "sent-PMC2940320-cmu-274"
                }, 
                {
                    "from": "sent-PMC2940320-UAZ-r1-48-3", 
                    "object-type": "map-range", 
                    "to": "sent-PMC2940320-cmu-215"
                }, 
                {
                    "from": "sent-PMC2940320-UAZ-r1-49-9", 
                    "object-type": "map-range", 
                    "to": "sent-PMC2940320-cmu-227"
                }, 
                {
                    "from": "sent-PMC2940320-UAZ-r1-45-0", 
                    "object-type": "map-range", 
                    "to": "sent-PMC2940320-cmu-194"
                }, 
                {
                    "from": "sent-PMC2940320-UAZ-r1-21-1", 
                    "object-type": "map-range", 
                    "to": "sent-PMC2940320-cmu-47"
                }, 
                {
                    "from": "sent-PMC2940320-UAZ-r1-25-2", 
                    "object-type": "map-range", 
                    "to": "sent-PMC2940320-cmu-82"
                }, 
                {
                    "from": "sent-PMC2940320-UAZ-r1-25-0", 
                    "object-type": "map-range", 
                    "to": "sent-PMC2940320-cmu-86"
                }, 
                {
                    "from": "sent-PMC2940320-UAZ-r1-44-0", 
                    "object-type": "map-range", 
                    "to": "sent-PMC2940320-cmu-189"
                }, 
                {
                    "from": "sent-PMC2940320-UAZ-r1-71-0", 
                    "object-type": "map-range", 
                    "to": "sent-PMC2940320-cmu-261"
                }, 
                {
                    "from": "sent-PMC2940320-UAZ-r1-49-0", 
                    "object-type": "map-range", 
                    "to": "sent-PMC2940320-cmu-217"
                }, 
                {
                    "from": "sent-PMC2940320-UAZ-r1-74-6", 
                    "object-type": "map-range", 
                    "to": "sent-PMC2940320-cmu-276"
                }, 
                {
                    "from": "sent-PMC2940320-UAZ-r1-59-2", 
                    "object-type": "map-range", 
                    "to": "sent-PMC2940320-cmu-246"
                }, 
                {
                    "from": "sent-PMC2940320-UAZ-r1-21-7", 
                    "object-type": "map-range", 
                    "to": "sent-PMC2940320-cmu-56"
                }, 
                {
                    "from": "sent-PMC2940320-UAZ-r1-41-9", 
                    "object-type": "map-range", 
                    "to": "sent-PMC2940320-cmu-187"
                }, 
                {
                    "from": "sent-PMC2940320-UAZ-r1-32-0", 
                    "object-type": "map-range", 
                    "to": "sent-PMC2940320-cmu-117"
                }, 
                {
                    "from": "sent-PMC2940320-UAZ-r1-74-2", 
                    "object-type": "map-range", 
                    "to": "sent-PMC2940320-cmu-272"
                }, 
                {
                    "from": "sent-PMC2940320-UAZ-r1-22-5", 
                    "object-type": "map-range", 
                    "to": "sent-PMC2940320-cmu-73"
                }, 
                {
                    "from": "sent-PMC2940320-UAZ-r1-28-0", 
                    "object-type": "map-range", 
                    "to": "sent-PMC2940320-cmu-99"
                }, 
                {
                    "from": "sent-PMC2940320-UAZ-r1-41-0", 
                    "object-type": "map-range", 
                    "to": "sent-PMC2940320-cmu-174"
                }, 
                {
                    "from": "sent-PMC2940320-UAZ-r1-41-4", 
                    "object-type": "map-range", 
                    "to": "sent-PMC2940320-cmu-179"
                }, 
                {
                    "from": "sent-PMC2940320-UAZ-r1-22-0", 
                    "object-type": "map-range", 
                    "to": "sent-PMC2940320-cmu-67"
                }, 
                {
                    "from": "sent-PMC2940320-UAZ-r1-70-0", 
                    "object-type": "map-range", 
                    "to": "sent-PMC2940320-cmu-260"
                }, 
                {
                    "from": "sent-PMC2940320-UAZ-r1-46-1", 
                    "object-type": "map-range", 
                    "to": "sent-PMC2940320-cmu-201"
                }, 
                {
                    "from": "sent-PMC2940320-UAZ-r1-16-3", 
                    "object-type": "map-range", 
                    "to": "sent-PMC2940320-cmu-32"
                }, 
                {
                    "from": "sent-PMC2940320-UAZ-r1-71-2", 
                    "object-type": "map-range", 
                    "to": "sent-PMC2940320-cmu-263"
                }, 
                {
                    "from": "sent-PMC2940320-UAZ-r1-86-1", 
                    "object-type": "map-range", 
                    "to": "sent-PMC2940320-cmu-290"
                }, 
                {
                    "from": "sent-PMC2940320-UAZ-r1-48-1", 
                    "object-type": "map-range", 
                    "to": "sent-PMC2940320-cmu-213"
                }, 
                {
                    "from": "sent-PMC2940320-UAZ-r1-31-1", 
                    "object-type": "map-range", 
                    "to": "sent-PMC2940320-cmu-109"
                }, 
                {
                    "from": "sent-PMC2940320-UAZ-r1-33-0", 
                    "object-type": "map-range", 
                    "to": "sent-PMC2940320-cmu-130"
                }, 
                {
                    "from": "sent-PMC2940320-UAZ-r1-46-0", 
                    "object-type": "map-range", 
                    "to": "sent-PMC2940320-cmu-200"
                }, 
                {
                    "from": "sent-PMC2940320-UAZ-r1-48-2", 
                    "object-type": "map-range", 
                    "to": "sent-PMC2940320-cmu-214"
                }, 
                {
                    "from": "sent-PMC2940320-UAZ-r1-37-0", 
                    "object-type": "map-range", 
                    "to": "sent-PMC2940320-cmu-149"
                }, 
                {
                    "from": "sent-PMC2940320-UAZ-r1-25-1", 
                    "object-type": "map-range", 
                    "to": "sent-PMC2940320-cmu-81"
                }, 
                {
                    "from": "sent-PMC2940320-UAZ-r1-27-1", 
                    "object-type": "map-range", 
                    "to": "sent-PMC2940320-cmu-93"
                }, 
                {
                    "from": "sent-PMC2940320-UAZ-r1-17-2", 
                    "object-type": "map-range", 
                    "to": "sent-PMC2940320-cmu-35"
                }, 
                {
                    "from": "sent-PMC2940320-UAZ-r1-47-4", 
                    "object-type": "map-range", 
                    "to": "sent-PMC2940320-cmu-210"
                }, 
                {
                    "from": "sent-PMC2940320-UAZ-r1-37-5", 
                    "object-type": "map-range", 
                    "to": "sent-PMC2940320-cmu-155"
                }, 
                {
                    "from": "sent-PMC2940320-UAZ-r1-37-11", 
                    "object-type": "map-range", 
                    "to": "sent-PMC2940320-cmu-164"
                }, 
                {
                    "from": "sent-PMC2940320-UAZ-r1-45-1", 
                    "object-type": "map-range", 
                    "to": "sent-PMC2940320-cmu-195"
                }, 
                {
                    "from": "sent-PMC2940320-UAZ-r1-26-2", 
                    "object-type": "map-range", 
                    "to": "sent-PMC2940320-cmu-89"
                }, 
                {
                    "from": "sent-PMC2940320-UAZ-r1-45-5", 
                    "object-type": "map-range", 
                    "to": "sent-PMC2940320-cmu-199"
                }, 
                {
                    "from": "sent-PMC2940320-UAZ-r1-21-0", 
                    "object-type": "map-range", 
                    "to": "sent-PMC2940320-cmu-46"
                }, 
                {
                    "from": "sent-PMC2940320-UAZ-r1-27-4", 
                    "object-type": "map-range", 
                    "to": "sent-PMC2940320-cmu-98"
                }, 
                {
                    "from": "sent-PMC2940320-UAZ-r1-27-2", 
                    "object-type": "map-range", 
                    "to": "sent-PMC2940320-cmu-94"
                }, 
                {
                    "from": "sent-PMC2940320-UAZ-r1-65-3", 
                    "object-type": "map-range", 
                    "to": "sent-PMC2940320-cmu-255"
                }, 
                {
                    "from": "sent-PMC2940320-UAZ-r1-16-0", 
                    "object-type": "map-range", 
                    "to": "sent-PMC2940320-cmu-27"
                }, 
                {
                    "from": "sent-PMC2940320-UAZ-r1-36-0", 
                    "object-type": "map-range", 
                    "to": "sent-PMC2940320-cmu-148"
                }, 
                {
                    "from": "sent-PMC2940320-UAZ-r1-18-4", 
                    "object-type": "map-range", 
                    "to": "sent-PMC2940320-cmu-44"
                }, 
                {
                    "from": "sent-PMC2940320-UAZ-r1-44-4", 
                    "object-type": "map-range", 
                    "to": "sent-PMC2940320-cmu-193"
                }, 
                {
                    "from": "sent-PMC2940320-UAZ-r1-21-8", 
                    "object-type": "map-range", 
                    "to": "sent-PMC2940320-cmu-57"
                }, 
                {
                    "from": "sent-PMC2940320-UAZ-r1-37-9", 
                    "object-type": "map-range", 
                    "to": "sent-PMC2940320-cmu-160"
                }, 
                {
                    "from": "sent-PMC2940320-UAZ-r1-22-4", 
                    "object-type": "map-range", 
                    "to": "sent-PMC2940320-cmu-72"
                }, 
                {
                    "from": "sent-PMC2940320-UAZ-r1-80-0", 
                    "object-type": "map-range", 
                    "to": "sent-PMC2940320-cmu-282"
                }, 
                {
                    "from": "sent-PMC2940320-UAZ-r1-68-1", 
                    "object-type": "map-range", 
                    "to": "sent-PMC2940320-cmu-258"
                }, 
                {
                    "from": "sent-PMC2940320-UAZ-r1-48-0", 
                    "object-type": "map-range", 
                    "to": "sent-PMC2940320-cmu-212"
                }, 
                {
                    "from": "sent-PMC2940320-UAZ-r1-40-3", 
                    "object-type": "map-range", 
                    "to": "sent-PMC2940320-cmu-171"
                }, 
                {
                    "from": "sent-PMC2940320-UAZ-r1-65-2", 
                    "object-type": "map-range", 
                    "to": "sent-PMC2940320-cmu-254"
                }, 
                {
                    "from": "sent-PMC2940320-UAZ-r1-40-1", 
                    "object-type": "map-range", 
                    "to": "sent-PMC2940320-cmu-169"
                }, 
                {
                    "from": "sent-PMC2940320-UAZ-r1-49-8", 
                    "object-type": "map-range", 
                    "to": "sent-PMC2940320-cmu-226"
                }, 
                {
                    "from": "sent-PMC2940320-UAZ-r1-77-1", 
                    "object-type": "map-range", 
                    "to": "sent-PMC2940320-cmu-279"
                }, 
                {
                    "from": "sent-PMC2940320-UAZ-r1-17-1", 
                    "object-type": "map-range", 
                    "to": "sent-PMC2940320-cmu-34"
                }, 
                {
                    "from": "sent-PMC2940320-UAZ-r1-34-3", 
                    "object-type": "map-range", 
                    "to": "sent-PMC2940320-cmu-143"
                }, 
                {
                    "from": "sent-PMC2940320-UAZ-r1-37-2", 
                    "object-type": "map-range", 
                    "to": "sent-PMC2940320-cmu-152"
                }, 
                {
                    "from": "sent-PMC2940320-UAZ-r1-30-0", 
                    "object-type": "map-range", 
                    "to": "sent-PMC2940320-cmu-107"
                }, 
                {
                    "from": "sent-PMC2940320-UAZ-r1-18-2", 
                    "object-type": "map-range", 
                    "to": "sent-PMC2940320-cmu-41"
                }, 
                {
                    "from": "sent-PMC2940320-UAZ-r1-41-5", 
                    "object-type": "map-range", 
                    "to": "sent-PMC2940320-cmu-181"
                }, 
                {
                    "from": "sent-PMC2940320-UAZ-r1-49-2", 
                    "object-type": "map-range", 
                    "to": "sent-PMC2940320-cmu-219"
                }, 
                {
                    "from": "sent-PMC2940320-UAZ-r1-46-2", 
                    "object-type": "map-range", 
                    "to": "sent-PMC2940320-cmu-202"
                }, 
                {
                    "from": "sent-PMC2940320-UAZ-r1-45-2", 
                    "object-type": "map-range", 
                    "to": "sent-PMC2940320-cmu-196"
                }, 
                {
                    "from": "sent-PMC2940320-UAZ-r1-26-1", 
                    "object-type": "map-range", 
                    "to": "sent-PMC2940320-cmu-87"
                }, 
                {
                    "from": "sent-PMC2940320-UAZ-r1-59-3", 
                    "object-type": "map-range", 
                    "to": "sent-PMC2940320-cmu-247"
                }, 
                {
                    "from": "sent-PMC2940320-UAZ-r1-21-5", 
                    "object-type": "map-range", 
                    "to": "sent-PMC2940320-cmu-84"
                }, 
                {
                    "from": "sent-PMC2940320-UAZ-r1-16-1", 
                    "object-type": "map-range", 
                    "to": "sent-PMC2940320-cmu-29"
                }, 
                {
                    "from": "sent-PMC2940320-UAZ-r1-37-7", 
                    "object-type": "map-range", 
                    "to": "sent-PMC2940320-cmu-157"
                }, 
                {
                    "from": "sent-PMC2940320-UAZ-r1-68-2", 
                    "object-type": "map-range", 
                    "to": "sent-PMC2940320-cmu-259"
                }, 
                {
                    "from": "sent-PMC2940320-UAZ-r1-74-1", 
                    "object-type": "map-range", 
                    "to": "sent-PMC2940320-cmu-271"
                }, 
                {
                    "from": "sent-PMC2940320-UAZ-r1-83-1", 
                    "object-type": "map-range", 
                    "to": "sent-PMC2940320-cmu-285"
                }, 
                {
                    "from": "sent-PMC2940320-UAZ-r1-33-3", 
                    "object-type": "map-range", 
                    "to": "sent-PMC2940320-cmu-134"
                }, 
                {
                    "from": "sent-PMC2940320-UAZ-r1-37-12", 
                    "object-type": "map-range", 
                    "to": "sent-PMC2940320-cmu-166"
                }, 
                {
                    "from": "sent-PMC2940320-UAZ-r1-34-1", 
                    "object-type": "map-range", 
                    "to": "sent-PMC2940320-cmu-141"
                }, 
                {
                    "from": "sent-PMC2940320-UAZ-r1-33-4", 
                    "object-type": "map-range", 
                    "to": "sent-PMC2940320-cmu-136"
                }, 
                {
                    "from": "sent-PMC2940320-UAZ-r1-28-1", 
                    "object-type": "map-range", 
                    "to": "sent-PMC2940320-cmu-100"
                }, 
                {
                    "from": "sent-PMC2940320-UAZ-r1-28-2", 
                    "object-type": "map-range", 
                    "to": "sent-PMC2940320-cmu-62"
                }, 
                {
                    "from": "sent-PMC2940320-UAZ-r1-40-0", 
                    "object-type": "map-range", 
                    "to": "sent-PMC2940320-cmu-168"
                }, 
                {
                    "from": "sent-PMC2940320-UAZ-r1-49-10", 
                    "object-type": "map-range", 
                    "to": "sent-PMC2940320-cmu-228"
                }, 
                {
                    "from": "sent-PMC2940320-UAZ-r1-41-7", 
                    "object-type": "map-range", 
                    "to": "sent-PMC2940320-cmu-184"
                }, 
                {
                    "from": "sent-PMC2940320-UAZ-r1-65-1", 
                    "object-type": "map-range", 
                    "to": "sent-PMC2940320-cmu-253"
                }, 
                {
                    "from": "sent-PMC2940320-UAZ-r1-22-8", 
                    "object-type": "map-range", 
                    "to": "sent-PMC2940320-cmu-77"
                }, 
                {
                    "from": "sent-PMC2940320-UAZ-r1-15-2", 
                    "object-type": "map-range", 
                    "to": "sent-PMC2940320-cmu-26"
                }, 
                {
                    "from": "sent-PMC2940320-UAZ-r1-21-13", 
                    "object-type": "map-range", 
                    "to": "sent-PMC2940320-cmu-64"
                }, 
                {
                    "from": "sent-PMC2940320-UAZ-r1-46-4", 
                    "object-type": "map-range", 
                    "to": "sent-PMC2940320-cmu-204"
                }, 
                {
                    "from": "sent-PMC2940320-UAZ-r1-21-2", 
                    "object-type": "map-range", 
                    "to": "sent-PMC2940320-cmu-48"
                }, 
                {
                    "from": "sent-PMC2940320-UAZ-r1-47-0", 
                    "object-type": "map-range", 
                    "to": "sent-PMC2940320-cmu-206"
                }, 
                {
                    "from": "sent-PMC2940320-UAZ-r1-37-10", 
                    "object-type": "map-range", 
                    "to": "sent-PMC2940320-cmu-162"
                }, 
                {
                    "from": "sent-PMC2940320-UAZ-r1-46-5", 
                    "object-type": "map-range", 
                    "to": "sent-PMC2940320-cmu-205"
                }, 
                {
                    "from": "sent-PMC2940320-UAZ-r1-71-4", 
                    "object-type": "map-range", 
                    "to": "sent-PMC2940320-cmu-265"
                }, 
                {
                    "from": "sent-PMC2940320-UAZ-r1-50-0", 
                    "object-type": "map-range", 
                    "to": "sent-PMC2940320-cmu-230"
                }, 
                {
                    "from": "sent-PMC2940320-UAZ-r1-18-1", 
                    "object-type": "map-range", 
                    "to": "sent-PMC2940320-cmu-40"
                }, 
                {
                    "from": "sent-PMC2940320-UAZ-r1-28-3", 
                    "object-type": "map-range", 
                    "to": "sent-PMC2940320-cmu-103"
                }, 
                {
                    "from": "sent-PMC2940320-UAZ-r1-24-0", 
                    "object-type": "map-range", 
                    "to": "sent-PMC2940320-cmu-79"
                }, 
                {
                    "from": "sent-PMC2940320-UAZ-r1-49-6", 
                    "object-type": "map-range", 
                    "to": "sent-PMC2940320-cmu-224"
                }, 
                {
                    "from": "sent-PMC2940320-UAZ-r1-18-3", 
                    "object-type": "map-range", 
                    "to": "sent-PMC2940320-cmu-42"
                }, 
                {
                    "from": "sent-PMC2940320-UAZ-r1-71-5", 
                    "object-type": "map-range", 
                    "to": "sent-PMC2940320-cmu-266"
                }, 
                {
                    "from": "sent-PMC2940320-UAZ-r1-15-1", 
                    "object-type": "map-range", 
                    "to": "sent-PMC2940320-cmu-24"
                }, 
                {
                    "from": "sent-PMC2940320-UAZ-r1-41-2", 
                    "object-type": "map-range", 
                    "to": "sent-PMC2940320-cmu-176"
                }, 
                {
                    "from": "sent-PMC2940320-UAZ-r1-44-2", 
                    "object-type": "map-range", 
                    "to": "sent-PMC2940320-cmu-191"
                }, 
                {
                    "from": "sent-PMC2940320-UAZ-r1-40-4", 
                    "object-type": "map-range", 
                    "to": "sent-PMC2940320-cmu-172"
                }, 
                {
                    "from": "sent-PMC2940320-UAZ-r1-21-9", 
                    "object-type": "map-range", 
                    "to": "sent-PMC2940320-cmu-58"
                }, 
                {
                    "from": "sent-PMC2940320-UAZ-r1-21-11", 
                    "object-type": "map-range", 
                    "to": "sent-PMC2940320-cmu-61"
                }, 
                {
                    "from": "sent-PMC2940320-UAZ-r1-48-4", 
                    "object-type": "map-range", 
                    "to": "sent-PMC2940320-cmu-216"
                }, 
                {
                    "from": "sent-PMC2940320-UAZ-r1-65-0", 
                    "object-type": "map-range", 
                    "to": "sent-PMC2940320-cmu-252"
                }, 
                {
                    "from": "sent-PMC2940320-UAZ-r1-17-3", 
                    "object-type": "map-range", 
                    "to": "sent-PMC2940320-cmu-37"
                }, 
                {
                    "from": "sent-PMC2940320-UAZ-r1-37-4", 
                    "object-type": "map-range", 
                    "to": "sent-PMC2940320-cmu-153"
                }, 
                {
                    "from": "sent-PMC2940320-UAZ-r1-68-0", 
                    "object-type": "map-range", 
                    "to": "sent-PMC2940320-cmu-257"
                }, 
                {
                    "from": "sent-PMC2940320-UAZ-r1-89-1", 
                    "object-type": "map-range", 
                    "to": "sent-PMC2940320-cmu-293"
                }, 
                {
                    "from": "sent-PMC2940320-UAZ-r1-49-7", 
                    "object-type": "map-range", 
                    "to": "sent-PMC2940320-cmu-225"
                }, 
                {
                    "from": "sent-PMC2940320-UAZ-r1-22-1", 
                    "object-type": "map-range", 
                    "to": "sent-PMC2940320-cmu-68"
                }, 
                {
                    "from": "sent-PMC2940320-UAZ-r1-33-2", 
                    "object-type": "map-range", 
                    "to": "sent-PMC2940320-cmu-132"
                }, 
                {
                    "from": "sent-PMC2940320-UAZ-r1-44-3", 
                    "object-type": "map-range", 
                    "to": "sent-PMC2940320-cmu-192"
                }, 
                {
                    "from": "sent-PMC2940320-UAZ-r1-49-4", 
                    "object-type": "map-range", 
                    "to": "sent-PMC2940320-cmu-221"
                }, 
                {
                    "from": "sent-PMC2940320-UAZ-r1-21-6", 
                    "object-type": "map-range", 
                    "to": "sent-PMC2940320-cmu-54"
                }, 
                {
                    "from": "sent-PMC2940320-UAZ-r1-58-0", 
                    "object-type": "map-range", 
                    "to": "sent-PMC2940320-cmu-243"
                }, 
                {
                    "from": "sent-PMC2940320-UAZ-r1-89-0", 
                    "object-type": "map-range", 
                    "to": "sent-PMC2940320-cmu-292"
                }, 
                {
                    "from": "sent-PMC2940320-UAZ-r1-31-4", 
                    "object-type": "map-range", 
                    "to": "sent-PMC2940320-cmu-114"
                }, 
                {
                    "from": "sent-PMC2940320-UAZ-r1-34-5", 
                    "object-type": "map-range", 
                    "to": "sent-PMC2940320-cmu-147"
                }, 
                {
                    "from": "sent-PMC2940320-UAZ-r1-71-6", 
                    "object-type": "map-range", 
                    "to": "sent-PMC2940320-cmu-267"
                }, 
                {
                    "from": "sent-PMC2940320-UAZ-r1-56-0", 
                    "object-type": "map-range", 
                    "to": "sent-PMC2940320-cmu-236"
                }, 
                {
                    "from": "sent-PMC2940320-UAZ-r1-32-9", 
                    "object-type": "map-range", 
                    "to": "sent-PMC2940320-cmu-129"
                }, 
                {
                    "from": "sent-PMC2940320-UAZ-r1-49-11", 
                    "object-type": "map-range", 
                    "to": "sent-PMC2940320-cmu-229"
                }, 
                {
                    "from": "sent-PMC2940320-UAZ-r1-71-1", 
                    "object-type": "map-range", 
                    "to": "sent-PMC2940320-cmu-262"
                }, 
                {
                    "from": "sent-PMC2940320-UAZ-r1-39-0", 
                    "object-type": "map-range", 
                    "to": "sent-PMC2940320-cmu-167"
                }, 
                {
                    "from": "sent-PMC2940320-UAZ-r1-47-5", 
                    "object-type": "map-range", 
                    "to": "sent-PMC2940320-cmu-211"
                }, 
                {
                    "from": "sent-PMC2940320-UAZ-r1-32-5", 
                    "object-type": "map-range", 
                    "to": "sent-PMC2940320-cmu-122"
                }, 
                {
                    "from": "sent-PMC2940320-UAZ-r1-25-0", 
                    "object-type": "map-range", 
                    "to": "sent-PMC2940320-cmu-80"
                }, 
                {
                    "from": "sent-PMC2940320-UAZ-r1-31-2", 
                    "object-type": "map-range", 
                    "to": "sent-PMC2940320-cmu-110"
                }, 
                {
                    "from": "sent-PMC2940320-UAZ-r1-22-2", 
                    "object-type": "map-range", 
                    "to": "sent-PMC2940320-cmu-70"
                }, 
                {
                    "from": "sent-PMC2940320-UAZ-r1-44-1", 
                    "object-type": "map-range", 
                    "to": "sent-PMC2940320-cmu-190"
                }, 
                {
                    "from": "sent-PMC2940320-UAZ-r1-33-1", 
                    "object-type": "map-range", 
                    "to": "sent-PMC2940320-cmu-131"
                }, 
                {
                    "from": "sent-PMC2940320-UAZ-r1-37-8", 
                    "object-type": "map-range", 
                    "to": "sent-PMC2940320-cmu-158"
                }, 
                {
                    "from": "sent-PMC2940320-UAZ-r1-21-5", 
                    "object-type": "map-range", 
                    "to": "sent-PMC2940320-cmu-52"
                }, 
                {
                    "from": "sent-PMC2940320-UAZ-r1-34-2", 
                    "object-type": "map-range", 
                    "to": "sent-PMC2940320-cmu-142"
                }, 
                {
                    "from": "sent-PMC2940320-UAZ-r1-40-2", 
                    "object-type": "map-range", 
                    "to": "sent-PMC2940320-cmu-170"
                }, 
                {
                    "from": "sent-PMC2940320-UAZ-r1-31-3", 
                    "object-type": "map-range", 
                    "to": "sent-PMC2940320-cmu-111"
                }, 
                {
                    "from": "sent-PMC2940320-UAZ-r1-41-8", 
                    "object-type": "map-range", 
                    "to": "sent-PMC2940320-cmu-185"
                }, 
                {
                    "from": "sent-PMC2940320-UAZ-r1-56-2", 
                    "object-type": "map-range", 
                    "to": "sent-PMC2940320-cmu-238"
                }, 
                {
                    "from": "sent-PMC2940320-UAZ-r1-15-0", 
                    "object-type": "map-range", 
                    "to": "sent-PMC2940320-cmu-23"
                }, 
                {
                    "from": "sent-PMC2940320-UAZ-r1-77-2", 
                    "object-type": "map-range", 
                    "to": "sent-PMC2940320-cmu-280"
                }, 
                {
                    "from": "sent-PMC2940320-UAZ-r1-14-0", 
                    "object-type": "map-range", 
                    "to": "sent-PMC2940320-cmu-22"
                }, 
                {
                    "from": "sent-PMC2940320-UAZ-r1-71-7", 
                    "object-type": "map-range", 
                    "to": "sent-PMC2940320-cmu-268"
                }, 
                {
                    "from": "sent-PMC2940320-UAZ-r1-22-6", 
                    "object-type": "map-range", 
                    "to": "sent-PMC2940320-cmu-74"
                }, 
                {
                    "from": "sent-PMC2940320-UAZ-r1-47-3", 
                    "object-type": "map-range", 
                    "to": "sent-PMC2940320-cmu-209"
                }, 
                {
                    "from": "sent-PMC2940320-UAZ-r1-32-3", 
                    "object-type": "map-range", 
                    "to": "sent-PMC2940320-cmu-120"
                }, 
                {
                    "from": "sent-PMC2940320-UAZ-r1-41-6", 
                    "object-type": "map-range", 
                    "to": "sent-PMC2940320-cmu-182"
                }, 
                {
                    "from": "sent-PMC2940320-UAZ-r1-50-1", 
                    "object-type": "map-range", 
                    "to": "sent-PMC2940320-cmu-231"
                }, 
                {
                    "from": "sent-PMC2940320-UAZ-r1-37-1", 
                    "object-type": "map-range", 
                    "to": "sent-PMC2940320-cmu-150"
                }, 
                {
                    "from": "sent-PMC2940320-UAZ-r1-22-3", 
                    "object-type": "map-range", 
                    "to": "sent-PMC2940320-cmu-71"
                }, 
                {
                    "from": "sent-PMC2940320-UAZ-r1-17-0", 
                    "object-type": "map-range", 
                    "to": "sent-PMC2940320-cmu-33"
                }, 
                {
                    "from": "sent-PMC2940320-UAZ-r1-31-0", 
                    "object-type": "map-range", 
                    "to": "sent-PMC2940320-cmu-108"
                }, 
                {
                    "from": "sent-PMC2940320-UAZ-r1-62-0", 
                    "object-type": "map-range", 
                    "to": "sent-PMC2940320-cmu-249"
                }, 
                {
                    "from": "sent-PMC2940320-UAZ-r1-27-3", 
                    "object-type": "map-range", 
                    "to": "sent-PMC2940320-cmu-96"
                }, 
                {
                    "from": "sent-PMC2940320-UAZ-r1-32-1", 
                    "object-type": "map-range", 
                    "to": "sent-PMC2940320-cmu-118"
                }, 
                {
                    "from": "sent-PMC2940320-UAZ-r1-34-4", 
                    "object-type": "map-range", 
                    "to": "sent-PMC2940320-cmu-145"
                }, 
                {
                    "from": "sent-PMC2940320-UAZ-r1-37-6", 
                    "object-type": "map-range", 
                    "to": "sent-PMC2940320-cmu-156"
                }, 
                {
                    "from": "sent-PMC2940320-UAZ-r1-41-3", 
                    "object-type": "map-range", 
                    "to": "sent-PMC2940320-cmu-177"
                }, 
                {
                    "from": "sent-PMC2940320-UAZ-r1-34-0", 
                    "object-type": "map-range", 
                    "to": "sent-PMC2940320-cmu-138"
                }
            ], 
            "object-meta": {
                "component": "Pradeep-Matcher", 
                "object-type": "meta-info", 
                "organization": "CMU"
            }, 
            "object-type": "frame"
        }, 
        {
            "frame-id": "smap-PMC2940320-cmu-2", 
            "frame-type": "sentence-map", 
            "list1-meta": {
                "component": "MedScan", 
                "object-type": "meta-info", 
                "organization": "CMU"
            }, 
            "list2-meta": {
                "component": "Nicolas-NXML-Parser", 
                "object-type": "meta-info", 
                "organization": "CMU"
            }, 
            "map": [
                {
                    "from": "sent-PMC2940320-medscan-66", 
                    "object-type": "map-range", 
                    "to": "sent-PMC2940320-cmu-91"
                }, 
                {
                    "from": "sent-PMC2940320-medscan-148", 
                    "object-type": "map-range", 
                    "to": "sent-PMC2940320-cmu-207"
                }, 
                {
                    "from": "sent-PMC2940320-medscan-77", 
                    "object-type": "map-range", 
                    "to": "sent-PMC2940320-cmu-106"
                }, 
                {
                    "from": "sent-PMC2940320-medscan-31", 
                    "object-type": "map-range", 
                    "to": "sent-PMC2940320-cmu-39"
                }, 
                {
                    "from": "sent-PMC2940320-medscan-49", 
                    "object-type": "map-range", 
                    "to": "sent-PMC2940320-cmu-66"
                }, 
                {
                    "from": "sent-PMC2940320-medscan-90", 
                    "object-type": "map-range", 
                    "to": "sent-PMC2940320-cmu-127"
                }, 
                {
                    "from": "sent-PMC2940320-medscan-16", 
                    "object-type": "map-range", 
                    "to": "sent-PMC2940320-cmu-17"
                }, 
                {
                    "from": "sent-PMC2940320-medscan-163", 
                    "object-type": "map-range", 
                    "to": "sent-PMC2940320-cmu-222"
                }, 
                {
                    "from": "sent-PMC2940320-medscan-74", 
                    "object-type": "map-range", 
                    "to": "sent-PMC2940320-cmu-101"
                }, 
                {
                    "from": "sent-PMC2940320-medscan-74", 
                    "object-type": "map-range", 
                    "to": "sent-PMC2940320-cmu-101"
                }, 
                {
                    "from": "sent-PMC2940320-medscan-149", 
                    "object-type": "map-range", 
                    "to": "sent-PMC2940320-cmu-208"
                }, 
                {
                    "from": "sent-PMC2940320-medscan-76", 
                    "object-type": "map-range", 
                    "to": "sent-PMC2940320-cmu-105"
                }, 
                {
                    "from": "sent-PMC2940320-medscan-175", 
                    "object-type": "map-range", 
                    "to": "sent-PMC2940320-cmu-237"
                }, 
                {
                    "from": "sent-PMC2940320-medscan-144", 
                    "object-type": "map-range", 
                    "to": "sent-PMC2940320-cmu-203"
                }, 
                {
                    "from": "sent-PMC2940320-medscan-11", 
                    "object-type": "map-range", 
                    "to": "sent-PMC2940320-cmu-12"
                }, 
                {
                    "from": "sent-PMC2940320-medscan-86", 
                    "object-type": "map-range", 
                    "to": "sent-PMC2940320-cmu-121"
                }, 
                {
                    "from": "sent-PMC2940320-medscan-177", 
                    "object-type": "map-range", 
                    "to": "sent-PMC2940320-cmu-242"
                }, 
                {
                    "from": "sent-PMC2940320-medscan-25", 
                    "object-type": "map-range", 
                    "to": "sent-PMC2940320-cmu-30"
                }, 
                {
                    "from": "sent-PMC2940320-medscan-121", 
                    "object-type": "map-range", 
                    "to": "sent-PMC2940320-cmu-175"
                }, 
                {
                    "from": "sent-PMC2940320-medscan-14", 
                    "object-type": "map-range", 
                    "to": "sent-PMC2940320-cmu-15"
                }, 
                {
                    "from": "sent-PMC2940320-medscan-173", 
                    "object-type": "map-range", 
                    "to": "sent-PMC2940320-cmu-235"
                }, 
                {
                    "from": "sent-PMC2940320-medscan-88", 
                    "object-type": "map-range", 
                    "to": "sent-PMC2940320-cmu-123"
                }, 
                {
                    "from": "sent-PMC2940320-medscan-194", 
                    "object-type": "map-range", 
                    "to": "sent-PMC2940320-cmu-264"
                }, 
                {
                    "from": "sent-PMC2940320-medscan-203", 
                    "object-type": "map-range", 
                    "to": "sent-PMC2940320-cmu-274"
                }, 
                {
                    "from": "sent-PMC2940320-medscan-156", 
                    "object-type": "map-range", 
                    "to": "sent-PMC2940320-cmu-215"
                }, 
                {
                    "from": "sent-PMC2940320-medscan-202", 
                    "object-type": "map-range", 
                    "to": "sent-PMC2940320-cmu-273"
                }, 
                {
                    "from": "sent-PMC2940320-medscan-167", 
                    "object-type": "map-range", 
                    "to": "sent-PMC2940320-cmu-227"
                }, 
                {
                    "from": "sent-PMC2940320-medscan-135", 
                    "object-type": "map-range", 
                    "to": "sent-PMC2940320-cmu-194"
                }, 
                {
                    "from": "sent-PMC2940320-medscan-37", 
                    "object-type": "map-range", 
                    "to": "sent-PMC2940320-cmu-47"
                }, 
                {
                    "from": "sent-PMC2940320-medscan-183", 
                    "object-type": "map-range", 
                    "to": "sent-PMC2940320-cmu-250"
                }, 
                {
                    "from": "sent-PMC2940320-medscan-59", 
                    "object-type": "map-range", 
                    "to": "sent-PMC2940320-cmu-86"
                }, 
                {
                    "from": "sent-PMC2940320-medscan-59", 
                    "object-type": "map-range", 
                    "to": "sent-PMC2940320-cmu-86"
                }, 
                {
                    "from": "sent-PMC2940320-medscan-130", 
                    "object-type": "map-range", 
                    "to": "sent-PMC2940320-cmu-189"
                }, 
                {
                    "from": "sent-PMC2940320-medscan-191", 
                    "object-type": "map-range", 
                    "to": "sent-PMC2940320-cmu-261"
                }, 
                {
                    "from": "sent-PMC2940320-medscan-158", 
                    "object-type": "map-range", 
                    "to": "sent-PMC2940320-cmu-217"
                }, 
                {
                    "from": "sent-PMC2940320-medscan-205", 
                    "object-type": "map-range", 
                    "to": "sent-PMC2940320-cmu-276"
                }, 
                {
                    "from": "sent-PMC2940320-medscan-42", 
                    "object-type": "map-range", 
                    "to": "sent-PMC2940320-cmu-56"
                }, 
                {
                    "from": "sent-PMC2940320-medscan-129", 
                    "object-type": "map-range", 
                    "to": "sent-PMC2940320-cmu-187"
                }, 
                {
                    "from": "sent-PMC2940320-medscan-82", 
                    "object-type": "map-range", 
                    "to": "sent-PMC2940320-cmu-117"
                }, 
                {
                    "from": "sent-PMC2940320-medscan-2", 
                    "object-type": "map-range", 
                    "to": "sent-PMC2940320-cmu-3"
                }, 
                {
                    "from": "sent-PMC2940320-medscan-201", 
                    "object-type": "map-range", 
                    "to": "sent-PMC2940320-cmu-272"
                }, 
                {
                    "from": "sent-PMC2940320-medscan-55", 
                    "object-type": "map-range", 
                    "to": "sent-PMC2940320-cmu-73"
                }, 
                {
                    "from": "sent-PMC2940320-medscan-72", 
                    "object-type": "map-range", 
                    "to": "sent-PMC2940320-cmu-99"
                }, 
                {
                    "from": "sent-PMC2940320-medscan-120", 
                    "object-type": "map-range", 
                    "to": "sent-PMC2940320-cmu-174"
                }, 
                {
                    "from": "sent-PMC2940320-medscan-124", 
                    "object-type": "map-range", 
                    "to": "sent-PMC2940320-cmu-179"
                }, 
                {
                    "from": "sent-PMC2940320-medscan-50", 
                    "object-type": "map-range", 
                    "to": "sent-PMC2940320-cmu-67"
                }, 
                {
                    "from": "sent-PMC2940320-medscan-142", 
                    "object-type": "map-range", 
                    "to": "sent-PMC2940320-cmu-201"
                }, 
                {
                    "from": "sent-PMC2940320-medscan-26", 
                    "object-type": "map-range", 
                    "to": "sent-PMC2940320-cmu-32"
                }, 
                {
                    "from": "sent-PMC2940320-medscan-193", 
                    "object-type": "map-range", 
                    "to": "sent-PMC2940320-cmu-263"
                }, 
                {
                    "from": "sent-PMC2940320-medscan-67", 
                    "object-type": "map-range", 
                    "to": "sent-PMC2940320-cmu-92"
                }, 
                {
                    "from": "sent-PMC2940320-medscan-213", 
                    "object-type": "map-range", 
                    "to": "sent-PMC2940320-cmu-290"
                }, 
                {
                    "from": "sent-PMC2940320-medscan-154", 
                    "object-type": "map-range", 
                    "to": "sent-PMC2940320-cmu-213"
                }, 
                {
                    "from": "sent-PMC2940320-medscan-78", 
                    "object-type": "map-range", 
                    "to": "sent-PMC2940320-cmu-109"
                }, 
                {
                    "from": "sent-PMC2940320-medscan-92", 
                    "object-type": "map-range", 
                    "to": "sent-PMC2940320-cmu-130"
                }, 
                {
                    "from": "sent-PMC2940320-medscan-141", 
                    "object-type": "map-range", 
                    "to": "sent-PMC2940320-cmu-200"
                }, 
                {
                    "from": "sent-PMC2940320-medscan-155", 
                    "object-type": "map-range", 
                    "to": "sent-PMC2940320-cmu-214"
                }, 
                {
                    "from": "sent-PMC2940320-medscan-103", 
                    "object-type": "map-range", 
                    "to": "sent-PMC2940320-cmu-149"
                }, 
                {
                    "from": "sent-PMC2940320-medscan-179", 
                    "object-type": "map-range", 
                    "to": "sent-PMC2940320-cmu-245"
                }, 
                {
                    "from": "sent-PMC2940320-medscan-60", 
                    "object-type": "map-range", 
                    "to": "sent-PMC2940320-cmu-81"
                }, 
                {
                    "from": "sent-PMC2940320-medscan-199", 
                    "object-type": "map-range", 
                    "to": "sent-PMC2940320-cmu-270"
                }, 
                {
                    "from": "sent-PMC2940320-medscan-6", 
                    "object-type": "map-range", 
                    "to": "sent-PMC2940320-cmu-7"
                }, 
                {
                    "from": "sent-PMC2940320-medscan-68", 
                    "object-type": "map-range", 
                    "to": "sent-PMC2940320-cmu-93"
                }, 
                {
                    "from": "sent-PMC2940320-medscan-29", 
                    "object-type": "map-range", 
                    "to": "sent-PMC2940320-cmu-35"
                }, 
                {
                    "from": "sent-PMC2940320-medscan-13", 
                    "object-type": "map-range", 
                    "to": "sent-PMC2940320-cmu-14"
                }, 
                {
                    "from": "sent-PMC2940320-medscan-151", 
                    "object-type": "map-range", 
                    "to": "sent-PMC2940320-cmu-210"
                }, 
                {
                    "from": "sent-PMC2940320-medscan-107", 
                    "object-type": "map-range", 
                    "to": "sent-PMC2940320-cmu-155"
                }, 
                {
                    "from": "sent-PMC2940320-medscan-113", 
                    "object-type": "map-range", 
                    "to": "sent-PMC2940320-cmu-164"
                }, 
                {
                    "from": "sent-PMC2940320-medscan-136", 
                    "object-type": "map-range", 
                    "to": "sent-PMC2940320-cmu-195"
                }, 
                {
                    "from": "sent-PMC2940320-medscan-65", 
                    "object-type": "map-range", 
                    "to": "sent-PMC2940320-cmu-89"
                }, 
                {
                    "from": "sent-PMC2940320-medscan-140", 
                    "object-type": "map-range", 
                    "to": "sent-PMC2940320-cmu-199"
                }, 
                {
                    "from": "sent-PMC2940320-medscan-71", 
                    "object-type": "map-range", 
                    "to": "sent-PMC2940320-cmu-98"
                }, 
                {
                    "from": "sent-PMC2940320-medscan-71", 
                    "object-type": "map-range", 
                    "to": "sent-PMC2940320-cmu-98"
                }, 
                {
                    "from": "sent-PMC2940320-medscan-69", 
                    "object-type": "map-range", 
                    "to": "sent-PMC2940320-cmu-94"
                }, 
                {
                    "from": "sent-PMC2940320-medscan-178", 
                    "object-type": "map-range", 
                    "to": "sent-PMC2940320-cmu-244"
                }, 
                {
                    "from": "sent-PMC2940320-medscan-187", 
                    "object-type": "map-range", 
                    "to": "sent-PMC2940320-cmu-255"
                }, 
                {
                    "from": "sent-PMC2940320-medscan-23", 
                    "object-type": "map-range", 
                    "to": "sent-PMC2940320-cmu-27"
                }, 
                {
                    "from": "sent-PMC2940320-medscan-35", 
                    "object-type": "map-range", 
                    "to": "sent-PMC2940320-cmu-44"
                }, 
                {
                    "from": "sent-PMC2940320-medscan-134", 
                    "object-type": "map-range", 
                    "to": "sent-PMC2940320-cmu-193"
                }, 
                {
                    "from": "sent-PMC2940320-medscan-43", 
                    "object-type": "map-range", 
                    "to": "sent-PMC2940320-cmu-57"
                }, 
                {
                    "from": "sent-PMC2940320-medscan-111", 
                    "object-type": "map-range", 
                    "to": "sent-PMC2940320-cmu-160"
                }, 
                {
                    "from": "sent-PMC2940320-medscan-54", 
                    "object-type": "map-range", 
                    "to": "sent-PMC2940320-cmu-72"
                }, 
                {
                    "from": "sent-PMC2940320-medscan-189", 
                    "object-type": "map-range", 
                    "to": "sent-PMC2940320-cmu-258"
                }, 
                {
                    "from": "sent-PMC2940320-medscan-153", 
                    "object-type": "map-range", 
                    "to": "sent-PMC2940320-cmu-212"
                }, 
                {
                    "from": "sent-PMC2940320-medscan-118", 
                    "object-type": "map-range", 
                    "to": "sent-PMC2940320-cmu-171"
                }, 
                {
                    "from": "sent-PMC2940320-medscan-186", 
                    "object-type": "map-range", 
                    "to": "sent-PMC2940320-cmu-254"
                }, 
                {
                    "from": "sent-PMC2940320-medscan-116", 
                    "object-type": "map-range", 
                    "to": "sent-PMC2940320-cmu-169"
                }, 
                {
                    "from": "sent-PMC2940320-medscan-166", 
                    "object-type": "map-range", 
                    "to": "sent-PMC2940320-cmu-226"
                }, 
                {
                    "from": "sent-PMC2940320-medscan-207", 
                    "object-type": "map-range", 
                    "to": "sent-PMC2940320-cmu-279"
                }, 
                {
                    "from": "sent-PMC2940320-medscan-28", 
                    "object-type": "map-range", 
                    "to": "sent-PMC2940320-cmu-34"
                }, 
                {
                    "from": "sent-PMC2940320-medscan-4", 
                    "object-type": "map-range", 
                    "to": "sent-PMC2940320-cmu-5"
                }, 
                {
                    "from": "sent-PMC2940320-medscan-100", 
                    "object-type": "map-range", 
                    "to": "sent-PMC2940320-cmu-143"
                }, 
                {
                    "from": "sent-PMC2940320-medscan-105", 
                    "object-type": "map-range", 
                    "to": "sent-PMC2940320-cmu-152"
                }, 
                {
                    "from": "sent-PMC2940320-medscan-33", 
                    "object-type": "map-range", 
                    "to": "sent-PMC2940320-cmu-41"
                }, 
                {
                    "from": "sent-PMC2940320-medscan-125", 
                    "object-type": "map-range", 
                    "to": "sent-PMC2940320-cmu-181"
                }, 
                {
                    "from": "sent-PMC2940320-medscan-160", 
                    "object-type": "map-range", 
                    "to": "sent-PMC2940320-cmu-219"
                }, 
                {
                    "from": "sent-PMC2940320-medscan-143", 
                    "object-type": "map-range", 
                    "to": "sent-PMC2940320-cmu-202"
                }, 
                {
                    "from": "sent-PMC2940320-medscan-137", 
                    "object-type": "map-range", 
                    "to": "sent-PMC2940320-cmu-196"
                }, 
                {
                    "from": "sent-PMC2940320-medscan-64", 
                    "object-type": "map-range", 
                    "to": "sent-PMC2940320-cmu-87"
                }, 
                {
                    "from": "sent-PMC2940320-medscan-40", 
                    "object-type": "map-range", 
                    "to": "sent-PMC2940320-cmu-84"
                }, 
                {
                    "from": "sent-PMC2940320-medscan-40", 
                    "object-type": "map-range", 
                    "to": "sent-PMC2940320-cmu-84"
                }, 
                {
                    "from": "sent-PMC2940320-medscan-15", 
                    "object-type": "map-range", 
                    "to": "sent-PMC2940320-cmu-16"
                }, 
                {
                    "from": "sent-PMC2940320-medscan-24", 
                    "object-type": "map-range", 
                    "to": "sent-PMC2940320-cmu-29"
                }, 
                {
                    "from": "sent-PMC2940320-medscan-18", 
                    "object-type": "map-range", 
                    "to": "sent-PMC2940320-cmu-19"
                }, 
                {
                    "from": "sent-PMC2940320-medscan-19", 
                    "object-type": "map-range", 
                    "to": "sent-PMC2940320-cmu-20"
                }, 
                {
                    "from": "sent-PMC2940320-medscan-109", 
                    "object-type": "map-range", 
                    "to": "sent-PMC2940320-cmu-157"
                }, 
                {
                    "from": "sent-PMC2940320-medscan-190", 
                    "object-type": "map-range", 
                    "to": "sent-PMC2940320-cmu-259"
                }, 
                {
                    "from": "sent-PMC2940320-medscan-200", 
                    "object-type": "map-range", 
                    "to": "sent-PMC2940320-cmu-271"
                }, 
                {
                    "from": "sent-PMC2940320-medscan-210", 
                    "object-type": "map-range", 
                    "to": "sent-PMC2940320-cmu-285"
                }, 
                {
                    "from": "sent-PMC2940320-medscan-95", 
                    "object-type": "map-range", 
                    "to": "sent-PMC2940320-cmu-134"
                }, 
                {
                    "from": "sent-PMC2940320-medscan-114", 
                    "object-type": "map-range", 
                    "to": "sent-PMC2940320-cmu-166"
                }, 
                {
                    "from": "sent-PMC2940320-medscan-98", 
                    "object-type": "map-range", 
                    "to": "sent-PMC2940320-cmu-141"
                }, 
                {
                    "from": "sent-PMC2940320-medscan-96", 
                    "object-type": "map-range", 
                    "to": "sent-PMC2940320-cmu-136"
                }, 
                {
                    "from": "sent-PMC2940320-medscan-74", 
                    "object-type": "map-range", 
                    "to": "sent-PMC2940320-cmu-62"
                }, 
                {
                    "from": "sent-PMC2940320-medscan-74", 
                    "object-type": "map-range", 
                    "to": "sent-PMC2940320-cmu-62"
                }, 
                {
                    "from": "sent-PMC2940320-medscan-115", 
                    "object-type": "map-range", 
                    "to": "sent-PMC2940320-cmu-168"
                }, 
                {
                    "from": "sent-PMC2940320-medscan-168", 
                    "object-type": "map-range", 
                    "to": "sent-PMC2940320-cmu-228"
                }, 
                {
                    "from": "sent-PMC2940320-medscan-127", 
                    "object-type": "map-range", 
                    "to": "sent-PMC2940320-cmu-184"
                }, 
                {
                    "from": "sent-PMC2940320-medscan-185", 
                    "object-type": "map-range", 
                    "to": "sent-PMC2940320-cmu-253"
                }, 
                {
                    "from": "sent-PMC2940320-medscan-58", 
                    "object-type": "map-range", 
                    "to": "sent-PMC2940320-cmu-77"
                }, 
                {
                    "from": "sent-PMC2940320-medscan-3", 
                    "object-type": "map-range", 
                    "to": "sent-PMC2940320-cmu-4"
                }, 
                {
                    "from": "sent-PMC2940320-medscan-22", 
                    "object-type": "map-range", 
                    "to": "sent-PMC2940320-cmu-26"
                }, 
                {
                    "from": "sent-PMC2940320-medscan-48", 
                    "object-type": "map-range", 
                    "to": "sent-PMC2940320-cmu-64"
                }, 
                {
                    "from": "sent-PMC2940320-medscan-145", 
                    "object-type": "map-range", 
                    "to": "sent-PMC2940320-cmu-204"
                }, 
                {
                    "from": "sent-PMC2940320-medscan-38", 
                    "object-type": "map-range", 
                    "to": "sent-PMC2940320-cmu-48"
                }, 
                {
                    "from": "sent-PMC2940320-medscan-0", 
                    "object-type": "map-range", 
                    "to": "sent-PMC2940320-cmu-1"
                }, 
                {
                    "from": "sent-PMC2940320-medscan-147", 
                    "object-type": "map-range", 
                    "to": "sent-PMC2940320-cmu-206"
                }, 
                {
                    "from": "sent-PMC2940320-medscan-112", 
                    "object-type": "map-range", 
                    "to": "sent-PMC2940320-cmu-162"
                }, 
                {
                    "from": "sent-PMC2940320-medscan-195", 
                    "object-type": "map-range", 
                    "to": "sent-PMC2940320-cmu-265"
                }, 
                {
                    "from": "sent-PMC2940320-medscan-170", 
                    "object-type": "map-range", 
                    "to": "sent-PMC2940320-cmu-230"
                }, 
                {
                    "from": "sent-PMC2940320-medscan-32", 
                    "object-type": "map-range", 
                    "to": "sent-PMC2940320-cmu-40"
                }, 
                {
                    "from": "sent-PMC2940320-medscan-75", 
                    "object-type": "map-range", 
                    "to": "sent-PMC2940320-cmu-103"
                }, 
                {
                    "from": "sent-PMC2940320-medscan-164", 
                    "object-type": "map-range", 
                    "to": "sent-PMC2940320-cmu-224"
                }, 
                {
                    "from": "sent-PMC2940320-medscan-45", 
                    "object-type": "map-range", 
                    "to": "sent-PMC2940320-cmu-59"
                }, 
                {
                    "from": "sent-PMC2940320-medscan-34", 
                    "object-type": "map-range", 
                    "to": "sent-PMC2940320-cmu-42"
                }, 
                {
                    "from": "sent-PMC2940320-medscan-12", 
                    "object-type": "map-range", 
                    "to": "sent-PMC2940320-cmu-13"
                }, 
                {
                    "from": "sent-PMC2940320-medscan-21", 
                    "object-type": "map-range", 
                    "to": "sent-PMC2940320-cmu-24"
                }, 
                {
                    "from": "sent-PMC2940320-medscan-211", 
                    "object-type": "map-range", 
                    "to": "sent-PMC2940320-cmu-286"
                }, 
                {
                    "from": "sent-PMC2940320-medscan-122", 
                    "object-type": "map-range", 
                    "to": "sent-PMC2940320-cmu-176"
                }, 
                {
                    "from": "sent-PMC2940320-medscan-132", 
                    "object-type": "map-range", 
                    "to": "sent-PMC2940320-cmu-191"
                }, 
                {
                    "from": "sent-PMC2940320-medscan-119", 
                    "object-type": "map-range", 
                    "to": "sent-PMC2940320-cmu-172"
                }, 
                {
                    "from": "sent-PMC2940320-medscan-44", 
                    "object-type": "map-range", 
                    "to": "sent-PMC2940320-cmu-58"
                }, 
                {
                    "from": "sent-PMC2940320-medscan-46", 
                    "object-type": "map-range", 
                    "to": "sent-PMC2940320-cmu-61"
                }, 
                {
                    "from": "sent-PMC2940320-medscan-157", 
                    "object-type": "map-range", 
                    "to": "sent-PMC2940320-cmu-216"
                }, 
                {
                    "from": "sent-PMC2940320-medscan-184", 
                    "object-type": "map-range", 
                    "to": "sent-PMC2940320-cmu-252"
                }, 
                {
                    "from": "sent-PMC2940320-medscan-30", 
                    "object-type": "map-range", 
                    "to": "sent-PMC2940320-cmu-37"
                }, 
                {
                    "from": "sent-PMC2940320-medscan-106", 
                    "object-type": "map-range", 
                    "to": "sent-PMC2940320-cmu-153"
                }, 
                {
                    "from": "sent-PMC2940320-medscan-188", 
                    "object-type": "map-range", 
                    "to": "sent-PMC2940320-cmu-257"
                }, 
                {
                    "from": "sent-PMC2940320-medscan-215", 
                    "object-type": "map-range", 
                    "to": "sent-PMC2940320-cmu-293"
                }, 
                {
                    "from": "sent-PMC2940320-medscan-165", 
                    "object-type": "map-range", 
                    "to": "sent-PMC2940320-cmu-225"
                }, 
                {
                    "from": "sent-PMC2940320-medscan-51", 
                    "object-type": "map-range", 
                    "to": "sent-PMC2940320-cmu-68"
                }, 
                {
                    "from": "sent-PMC2940320-medscan-94", 
                    "object-type": "map-range", 
                    "to": "sent-PMC2940320-cmu-132"
                }, 
                {
                    "from": "sent-PMC2940320-medscan-133", 
                    "object-type": "map-range", 
                    "to": "sent-PMC2940320-cmu-192"
                }, 
                {
                    "from": "sent-PMC2940320-medscan-162", 
                    "object-type": "map-range", 
                    "to": "sent-PMC2940320-cmu-221"
                }, 
                {
                    "from": "sent-PMC2940320-medscan-214", 
                    "object-type": "map-range", 
                    "to": "sent-PMC2940320-cmu-292"
                }, 
                {
                    "from": "sent-PMC2940320-medscan-81", 
                    "object-type": "map-range", 
                    "to": "sent-PMC2940320-cmu-114"
                }, 
                {
                    "from": "sent-PMC2940320-medscan-102", 
                    "object-type": "map-range", 
                    "to": "sent-PMC2940320-cmu-147"
                }, 
                {
                    "from": "sent-PMC2940320-medscan-197", 
                    "object-type": "map-range", 
                    "to": "sent-PMC2940320-cmu-267"
                }, 
                {
                    "from": "sent-PMC2940320-medscan-9", 
                    "object-type": "map-range", 
                    "to": "sent-PMC2940320-cmu-10"
                }, 
                {
                    "from": "sent-PMC2940320-medscan-91", 
                    "object-type": "map-range", 
                    "to": "sent-PMC2940320-cmu-129"
                }, 
                {
                    "from": "sent-PMC2940320-medscan-169", 
                    "object-type": "map-range", 
                    "to": "sent-PMC2940320-cmu-229"
                }, 
                {
                    "from": "sent-PMC2940320-medscan-1", 
                    "object-type": "map-range", 
                    "to": "sent-PMC2940320-cmu-2"
                }, 
                {
                    "from": "sent-PMC2940320-medscan-192", 
                    "object-type": "map-range", 
                    "to": "sent-PMC2940320-cmu-262"
                }, 
                {
                    "from": "sent-PMC2940320-medscan-152", 
                    "object-type": "map-range", 
                    "to": "sent-PMC2940320-cmu-211"
                }, 
                {
                    "from": "sent-PMC2940320-medscan-59", 
                    "object-type": "map-range", 
                    "to": "sent-PMC2940320-cmu-80"
                }, 
                {
                    "from": "sent-PMC2940320-medscan-59", 
                    "object-type": "map-range", 
                    "to": "sent-PMC2940320-cmu-80"
                }, 
                {
                    "from": "sent-PMC2940320-medscan-71", 
                    "object-type": "map-range", 
                    "to": "sent-PMC2940320-cmu-70"
                }, 
                {
                    "from": "sent-PMC2940320-medscan-71", 
                    "object-type": "map-range", 
                    "to": "sent-PMC2940320-cmu-70"
                }, 
                {
                    "from": "sent-PMC2940320-medscan-131", 
                    "object-type": "map-range", 
                    "to": "sent-PMC2940320-cmu-190"
                }, 
                {
                    "from": "sent-PMC2940320-medscan-93", 
                    "object-type": "map-range", 
                    "to": "sent-PMC2940320-cmu-131"
                }, 
                {
                    "from": "sent-PMC2940320-medscan-40", 
                    "object-type": "map-range", 
                    "to": "sent-PMC2940320-cmu-52"
                }, 
                {
                    "from": "sent-PMC2940320-medscan-40", 
                    "object-type": "map-range", 
                    "to": "sent-PMC2940320-cmu-52"
                }, 
                {
                    "from": "sent-PMC2940320-medscan-99", 
                    "object-type": "map-range", 
                    "to": "sent-PMC2940320-cmu-142"
                }, 
                {
                    "from": "sent-PMC2940320-medscan-7", 
                    "object-type": "map-range", 
                    "to": "sent-PMC2940320-cmu-8"
                }, 
                {
                    "from": "sent-PMC2940320-medscan-117", 
                    "object-type": "map-range", 
                    "to": "sent-PMC2940320-cmu-170"
                }, 
                {
                    "from": "sent-PMC2940320-medscan-80", 
                    "object-type": "map-range", 
                    "to": "sent-PMC2940320-cmu-111"
                }, 
                {
                    "from": "sent-PMC2940320-medscan-128", 
                    "object-type": "map-range", 
                    "to": "sent-PMC2940320-cmu-185"
                }, 
                {
                    "from": "sent-PMC2940320-medscan-176", 
                    "object-type": "map-range", 
                    "to": "sent-PMC2940320-cmu-238"
                }, 
                {
                    "from": "sent-PMC2940320-medscan-20", 
                    "object-type": "map-range", 
                    "to": "sent-PMC2940320-cmu-23"
                }, 
                {
                    "from": "sent-PMC2940320-medscan-208", 
                    "object-type": "map-range", 
                    "to": "sent-PMC2940320-cmu-280"
                }, 
                {
                    "from": "sent-PMC2940320-medscan-198", 
                    "object-type": "map-range", 
                    "to": "sent-PMC2940320-cmu-268"
                }, 
                {
                    "from": "sent-PMC2940320-medscan-56", 
                    "object-type": "map-range", 
                    "to": "sent-PMC2940320-cmu-74"
                }, 
                {
                    "from": "sent-PMC2940320-medscan-10", 
                    "object-type": "map-range", 
                    "to": "sent-PMC2940320-cmu-11"
                }, 
                {
                    "from": "sent-PMC2940320-medscan-150", 
                    "object-type": "map-range", 
                    "to": "sent-PMC2940320-cmu-209"
                }, 
                {
                    "from": "sent-PMC2940320-medscan-85", 
                    "object-type": "map-range", 
                    "to": "sent-PMC2940320-cmu-120"
                }, 
                {
                    "from": "sent-PMC2940320-medscan-8", 
                    "object-type": "map-range", 
                    "to": "sent-PMC2940320-cmu-9"
                }, 
                {
                    "from": "sent-PMC2940320-medscan-171", 
                    "object-type": "map-range", 
                    "to": "sent-PMC2940320-cmu-231"
                }, 
                {
                    "from": "sent-PMC2940320-medscan-104", 
                    "object-type": "map-range", 
                    "to": "sent-PMC2940320-cmu-150"
                }, 
                {
                    "from": "sent-PMC2940320-medscan-53", 
                    "object-type": "map-range", 
                    "to": "sent-PMC2940320-cmu-71"
                }, 
                {
                    "from": "sent-PMC2940320-medscan-27", 
                    "object-type": "map-range", 
                    "to": "sent-PMC2940320-cmu-33"
                }, 
                {
                    "from": "sent-PMC2940320-medscan-182", 
                    "object-type": "map-range", 
                    "to": "sent-PMC2940320-cmu-249"
                }, 
                {
                    "from": "sent-PMC2940320-medscan-70", 
                    "object-type": "map-range", 
                    "to": "sent-PMC2940320-cmu-96"
                }, 
                {
                    "from": "sent-PMC2940320-medscan-17", 
                    "object-type": "map-range", 
                    "to": "sent-PMC2940320-cmu-18"
                }, 
                {
                    "from": "sent-PMC2940320-medscan-206", 
                    "object-type": "map-range", 
                    "to": "sent-PMC2940320-cmu-278"
                }, 
                {
                    "from": "sent-PMC2940320-medscan-83", 
                    "object-type": "map-range", 
                    "to": "sent-PMC2940320-cmu-118"
                }, 
                {
                    "from": "sent-PMC2940320-medscan-101", 
                    "object-type": "map-range", 
                    "to": "sent-PMC2940320-cmu-145"
                }, 
                {
                    "from": "sent-PMC2940320-medscan-108", 
                    "object-type": "map-range", 
                    "to": "sent-PMC2940320-cmu-156"
                }, 
                {
                    "from": "sent-PMC2940320-medscan-123", 
                    "object-type": "map-range", 
                    "to": "sent-PMC2940320-cmu-177"
                }, 
                {
                    "from": "sent-PMC2940320-medscan-97", 
                    "object-type": "map-range", 
                    "to": "sent-PMC2940320-cmu-138"
                }, 
                {
                    "from": "sent-PMC2940320-medscan-84", 
                    "object-type": "map-range", 
                    "to": "sent-PMC2940320-cmu-119"
                }
            ], 
            "object-meta": {
                "component": "Pradeep-Matcher", 
                "object-type": "meta-info", 
                "organization": "CMU"
            }, 
            "object-type": "frame"
        }
    ], 
    "object-meta": {
        "component": "Pradeep-Matcher", 
        "component-type": "machine", 
        "doc-id": "PMC2940320", 
        "object-type": "meta-info", 
        "organization": "CMU"
    }, 
    "object-type": "frame-collection"
}
