{
  "evidence": ["As a consensus ( PXXPXR ) , Cas SH3 binding site                           lies within the Dock180 COOH-terminal domain and Crk SH3 binding to Dock180 facilitates both Rac and JNK activation                        , we speculate that Dock180 may function as both a Crk dependent and -independent guanine nucleotide exchange factor promoting v-Src-stimulated Rac activation .","guanine nucleotide exchange factor promoting v-Src-stimulated Rac"],
  "extracted_information": {
    "interaction_type": "increases_activity",
    "negative_information": false,
    "participant_a": {
      "entity_text": "guanine",
      "entity_type": "chemical",
      "identifier": "CHEBI:16235",
      "in_model": true
    },
    "participant_b": {
      "entity_text": "Rac",
      "entity_type": "protein",
      "identifier": "Uniprot:P31749",
      "in_model": true
    }
  },
  "fries_provenance": [
    {
      "component": "REACH",
      "frame-file": "PMC2173366.uaz.events",
      "frame-id": "evem-PMC2173366-UAZ-r1-89-3-118",
      "passage-id": "pass-PMC2173366-UAZ-r1-89",
      "passage-number": 89,
      "passage-section-id": "N/A",
      "passage-section-name": "N/A",
      "sentence": "As a consensus ( PXXPXR ) , Cas SH3 binding site                           lies within the Dock180 COOH-terminal domain and Crk SH3 binding to Dock180 facilitates both Rac and JNK activation                        , we speculate that Dock180 may function as both a Crk dependent and -independent guanine nucleotide exchange factor promoting v-Src-stimulated Rac activation .",
      "text": "guanine nucleotide exchange factor promoting v-Src-stimulated Rac",
      "uaz-event-epistemic-status": "hypothesis",
      "uaz-sentence": "As a consensus ( PXXPXR ) , Cas SH3 binding site                           lies within the Dock180 COOH-terminal domain and Crk SH3 binding to Dock180 facilitates both Rac and JNK activation                        , we speculate that Dock180 may function as both a Crk dependent and -independent guanine nucleotide exchange factor promoting v-Src-stimulated Rac activation .",
      "uaz-sentence-start": 702
    }
  ],
  "model_relation": "extension",
  "pmc_id": "PMC2173366",
  "reader_type": "machine",
  "reading_complete": "2015-06-15T19:45:45Z",
  "reading_started": "2015-06-15T19:45:40Z",
  "submitter": "FRIES"
}
