{
    "frames": [
        {
            "binds-constituent2": [
                "PDK1"
            ], 
            "frame-id": "imp-PMC2845649-cmu-pradsys-851", 
            "frame-type": "implication", 
            "implication-type": "binds", 
            "object-meta": {
                "object-type": "meta-info", 
                "organization": "CMU"
            }, 
            "object-type": "frame", 
            "sentence": "sent-PMC2845649-cmu-29"
        }, 
        {
            "binds-site": [
                "An IFP N-terminal portion of amino acid 1-158 ( IFPN ) and an IFP C-terminal portion of amino acid 159-239"
            ], 
            "frame-id": "imp-PMC2845649-cmu-pradsys-852", 
            "frame-type": "implication", 
            "implication-type": "binds", 
            "object-meta": {
                "object-type": "meta-info", 
                "organization": "CMU"
            }, 
            "object-type": "frame", 
            "sentence": "sent-PMC2845649-cmu-32"
        }, 
        {
            "binds-constituent1": [
                "IFPN"
            ], 
            "frame-id": "imp-PMC2845649-cmu-pradsys-853", 
            "frame-type": "implication", 
            "implication-type": "binds", 
            "object-meta": {
                "object-type": "meta-info", 
                "organization": "CMU"
            }, 
            "object-type": "frame", 
            "sentence": "sent-PMC2845649-cmu-34", 
            "transfection-molecule": [
                "PDK1 ( Fig"
            ]
        }, 
        {
            "cell-type": [
                "HeLa cells , PDK1-IFPC"
            ], 
            "frame-id": "imp-PMC2845649-cmu-pradsys-854", 
            "frame-type": "implication", 
            "implication-type": "binds", 
            "ip-molecule": [
                "anti-PDK1"
            ], 
            "object-meta": {
                "object-type": "meta-info", 
                "organization": "CMU"
            }, 
            "object-type": "frame", 
            "process": [
                "immunoprecipitated by anti-AKT antibody", 
                "detected"
            ], 
            "sentence": "sent-PMC2845649-cmu-36"
        }, 
        {
            "binds-constituent1": [
                "PDK1"
            ], 
            "binds-site": [
                "was"
            ], 
            "frame-id": "imp-PMC2845649-cmu-pradsys-855", 
            "frame-type": "implication", 
            "implication-type": "binds", 
            "object-meta": {
                "object-type": "meta-info", 
                "organization": "CMU"
            }, 
            "object-type": "frame", 
            "sentence": "sent-PMC2845649-cmu-37"
        }, 
        {
            "binds-constituent1": [
                "PDK1-IFPC"
            ], 
            "frame-id": "imp-PMC2845649-cmu-pradsys-856", 
            "frame-type": "implication", 
            "implication-type": "binds", 
            "object-meta": {
                "object-type": "meta-info", 
                "organization": "CMU"
            }, 
            "object-type": "frame", 
            "sentence": "sent-PMC2845649-cmu-39", 
            "transfection-molecule": [
                "the reconstituted IFP"
            ]
        }, 
        {
            "binds-constituent1": [
                "PDK1-IFPC"
            ], 
            "frame-id": "imp-PMC2845649-cmu-pradsys-857", 
            "frame-type": "implication", 
            "implication-type": "binds", 
            "object-meta": {
                "object-type": "meta-info", 
                "organization": "CMU"
            }, 
            "object-type": "frame", 
            "sentence": "sent-PMC2845649-cmu-40"
        }, 
        {
            "binds-constituent1": [
                "AKT1", 
                "PDK1", 
                "IFP"
            ], 
            "binds-site": [
                "brought the two"
            ], 
            "frame-id": "imp-PMC2845649-cmu-pradsys-858", 
            "frame-type": "implication", 
            "implication-type": "binds", 
            "object-meta": {
                "object-type": "meta-info", 
                "organization": "CMU"
            }, 
            "object-type": "frame", 
            "sentence": "sent-PMC2845649-cmu-41"
        }, 
        {
            "binds-constituent1": [
                "IFPN-AKT1"
            ], 
            "frame-id": "imp-PMC2845649-cmu-pradsys-859", 
            "frame-type": "implication", 
            "implication-type": "binds", 
            "object-meta": {
                "object-type": "meta-info", 
                "organization": "CMU"
            }, 
            "object-type": "frame", 
            "sentence": "sent-PMC2845649-cmu-43"
        }, 
        {
            "binds-constituent1": [
                "IFPN-AKT1"
            ], 
            "frame-id": "imp-PMC2845649-cmu-pradsys-860", 
            "frame-type": "implication", 
            "implication-type": "binds", 
            "object-meta": {
                "object-type": "meta-info", 
                "organization": "CMU"
            }, 
            "object-type": "frame", 
            "sentence": "sent-PMC2845649-cmu-44"
        }, 
        {
            "cell-type": [
                "serum-starved cells"
            ], 
            "frame-id": "imp-PMC2845649-cmu-pradsys-861", 
            "frame-type": "implication", 
            "implication-type": "binds", 
            "object-meta": {
                "object-type": "meta-info", 
                "organization": "CMU"
            }, 
            "object-type": "frame", 
            "sentence": "sent-PMC2845649-cmu-46"
        }, 
        {
            "frame-id": "imp-PMC2845649-cmu-pradsys-862", 
            "frame-type": "implication", 
            "implication-type": "binds", 
            "incubation-reagent": [
                "the cell membrane upon serum stimulation"
            ], 
            "object-meta": {
                "object-type": "meta-info", 
                "organization": "CMU"
            }, 
            "object-type": "frame", 
            "sentence": "sent-PMC2845649-cmu-48"
        }, 
        {
            "binds-controller": [
                "PI3K inhibitor LY294002"
            ], 
            "frame-id": "imp-PMC2845649-cmu-pradsys-863", 
            "frame-type": "implication", 
            "implication-type": "binds", 
            "object-meta": {
                "object-type": "meta-info", 
                "organization": "CMU"
            }, 
            "object-type": "frame", 
            "sentence": "sent-PMC2845649-cmu-49"
        }, 
        {
            "binds-controller": [
                "LY294002 treatment ( Fig"
            ], 
            "frame-id": "imp-PMC2845649-cmu-pradsys-864", 
            "frame-type": "implication", 
            "implication-type": "binds", 
            "object-meta": {
                "object-type": "meta-info", 
                "organization": "CMU"
            }, 
            "object-type": "frame", 
            "sentence": "sent-PMC2845649-cmu-50"
        }, 
        {
            "binds-constituent1": [
                "AKT"
            ], 
            "frame-id": "imp-PMC2845649-cmu-pradsys-865", 
            "frame-type": "implication", 
            "implication-type": "binds", 
            "object-meta": {
                "object-type": "meta-info", 
                "organization": "CMU"
            }, 
            "object-type": "frame", 
            "sentence": "sent-PMC2845649-cmu-52"
        }, 
        {
            "binds-constituent1": [
                "PDK1"
            ], 
            "frame-id": "imp-PMC2845649-cmu-pradsys-866", 
            "frame-type": "implication", 
            "implication-type": "binds", 
            "object-meta": {
                "object-type": "meta-info", 
                "organization": "CMU"
            }, 
            "object-type": "frame", 
            "sentence": "sent-PMC2845649-cmu-55"
        }, 
        {
            "binds-constituent2": [
                "LMB"
            ], 
            "coreference-target": [
                "the endogenous proteins"
            ], 
            "frame-id": "imp-PMC2845649-cmu-pradsys-867", 
            "frame-type": "implication", 
            "implication-type": "binds", 
            "object-meta": {
                "object-type": "meta-info", 
                "organization": "CMU"
            }, 
            "object-type": "frame", 
            "sentence": "sent-PMC2845649-cmu-56"
        }, 
        {
            "binds-controller": [
                "LMB treatment"
            ], 
            "cell-type": [
                "serum-starved cells"
            ], 
            "frame-id": "imp-PMC2845649-cmu-pradsys-868", 
            "frame-type": "implication", 
            "implication-type": "binds", 
            "object-meta": {
                "object-type": "meta-info", 
                "organization": "CMU"
            }, 
            "object-type": "frame", 
            "sentence": "sent-PMC2845649-cmu-58"
        }, 
        {
            "assay-molecule": [
                "LY294002"
            ], 
            "frame-id": "imp-PMC2845649-cmu-pradsys-869", 
            "frame-type": "implication", 
            "implication-type": "binds", 
            "object-meta": {
                "object-type": "meta-info", 
                "organization": "CMU"
            }, 
            "object-type": "frame", 
            "sentence": "sent-PMC2845649-cmu-60"
        }, 
        {
            "binds-constituent1": [
                "PDK1"
            ], 
            "frame-id": "imp-PMC2845649-cmu-pradsys-870", 
            "frame-type": "implication", 
            "implication-type": "binds", 
            "object-meta": {
                "object-type": "meta-info", 
                "organization": "CMU"
            }, 
            "object-type": "frame", 
            "sentence": "sent-PMC2845649-cmu-61"
        }, 
        {
            "binds-constituent1": [
                "PDK1"
            ], 
            "binds-controller": [
                "IFP reconstitution"
            ], 
            "frame-id": "imp-PMC2845649-cmu-pradsys-871", 
            "frame-type": "implication", 
            "implication-type": "binds", 
            "object-meta": {
                "object-type": "meta-info", 
                "organization": "CMU"
            }, 
            "object-type": "frame", 
            "process": [
                "such stable AKT1 association"
            ], 
            "sentence": "sent-PMC2845649-cmu-63"
        }, 
        {
            "cell-type": [
                "HeLa cells"
            ], 
            "frame-id": "imp-PMC2845649-cmu-pradsys-872", 
            "frame-type": "implication", 
            "implication-type": "binds", 
            "object-meta": {
                "object-type": "meta-info", 
                "organization": "CMU"
            }, 
            "object-type": "frame", 
            "sentence": "sent-PMC2845649-cmu-64"
        }, 
        {
            "assay-molecule": [
                "S473"
            ], 
            "binds-constituent1": [
                "T308"
            ], 
            "binds-constituent2": [
                "endogenous AKT", 
                "endogenous AKT"
            ], 
            "frame-id": "imp-PMC2845649-cmu-pradsys-873", 
            "frame-type": "implication", 
            "implication-type": "binds", 
            "object-meta": {
                "object-type": "meta-info", 
                "organization": "CMU"
            }, 
            "object-type": "frame", 
            "sentence": "sent-PMC2845649-cmu-65"
        }, 
        {
            "frame-id": "imp-PMC2845649-cmu-pradsys-874", 
            "frame-type": "implication", 
            "implication-type": "binds", 
            "object-meta": {
                "object-type": "meta-info", 
                "organization": "CMU"
            }, 
            "object-type": "frame", 
            "sentence": "sent-PMC2845649-cmu-66", 
            "transfection-molecule": [
                "PDK1-IFPC ( Fig"
            ]
        }, 
        {
            "binds-catalysis": [
                "abolished"
            ], 
            "cell-type": [
                "transfected cells"
            ], 
            "frame-id": "imp-PMC2845649-cmu-pradsys-875", 
            "frame-type": "implication", 
            "implication-type": "binds", 
            "object-meta": {
                "object-type": "meta-info", 
                "organization": "CMU"
            }, 
            "object-type": "frame", 
            "sentence": "sent-PMC2845649-cmu-68", 
            "transfection-molecule": [
                "LY294002 ( Fig"
            ]
        }, 
        {
            "binds-constituent1": [
                "PDK1-IFPC"
            ], 
            "frame-id": "imp-PMC2845649-cmu-pradsys-876", 
            "frame-type": "implication", 
            "implication-type": "binds", 
            "object-meta": {
                "object-type": "meta-info", 
                "organization": "CMU"
            }, 
            "object-type": "frame", 
            "sentence": "sent-PMC2845649-cmu-70"
        }, 
        {
            "binds-constituent1": [
                "IFPN-AKT1"
            ], 
            "binds-constituent2": [
                "the reconstituted IFP also promoted AKT1 S473 phosphorylation"
            ], 
            "frame-id": "imp-PMC2845649-cmu-pradsys-877", 
            "frame-type": "implication", 
            "implication-type": "binds", 
            "object-meta": {
                "object-type": "meta-info", 
                "organization": "CMU"
            }, 
            "object-type": "frame", 
            "sentence": "sent-PMC2845649-cmu-71"
        }, 
        {
            "binds-complex": [
                "the mTOR-rictor complex ("
            ], 
            "frame-id": "imp-PMC2845649-cmu-pradsys-878", 
            "frame-type": "implication", 
            "implication-type": "binds", 
            "object-meta": {
                "object-type": "meta-info", 
                "organization": "CMU"
            }, 
            "object-type": "frame", 
            "sentence": "sent-PMC2845649-cmu-73"
        }, 
        {
            "assay-molecule": [
                "PDK1-IFPC"
            ], 
            "binds-constituent1": [
                "IFPN-AKT1"
            ], 
            "frame-id": "imp-PMC2845649-cmu-pradsys-879", 
            "frame-type": "implication", 
            "implication-type": "binds", 
            "object-meta": {
                "object-type": "meta-info", 
                "organization": "CMU"
            }, 
            "object-type": "frame", 
            "process": [
                "transfected"
            ], 
            "sentence": "sent-PMC2845649-cmu-75"
        }, 
        {
            "binds-constituent1": [
                "IFPN-AKT1"
            ], 
            "binds-constituent2": [
                "PDK1-GFP"
            ], 
            "binds-site": [
                "the expression level of"
            ], 
            "frame-id": "imp-PMC2845649-cmu-pradsys-880", 
            "frame-type": "implication", 
            "implication-type": "binds", 
            "object-meta": {
                "object-type": "meta-info", 
                "organization": "CMU"
            }, 
            "object-type": "frame", 
            "sentence": "sent-PMC2845649-cmu-76", 
            "transfection-molecule": [
                "PDK1-IFPC ( Fig"
            ]
        }, 
        {
            "binds-constituent1": [
                "PDK1"
            ], 
            "binds-constituent2": [
                "AKT1"
            ], 
            "frame-id": "imp-PMC2845649-cmu-pradsys-881", 
            "frame-type": "implication", 
            "implication-type": "binds", 
            "object-meta": {
                "object-type": "meta-info", 
                "organization": "CMU"
            }, 
            "object-type": "frame", 
            "sentence": "sent-PMC2845649-cmu-78"
        }, 
        {
            "binds-constituent1": [
                "AKT1"
            ], 
            "binds-constituent2": [
                "endogenous AKT and PDK1"
            ], 
            "cell-type": [
                "HeLa cells"
            ], 
            "frame-id": "imp-PMC2845649-cmu-pradsys-882", 
            "frame-type": "implication", 
            "implication-type": "binds", 
            "object-meta": {
                "object-type": "meta-info", 
                "organization": "CMU"
            }, 
            "object-type": "frame", 
            "sentence": "sent-PMC2845649-cmu-79"
        }, 
        {
            "assay-molecule": [
                "PDK1"
            ], 
            "binds-constituent1": [
                "AKT"
            ], 
            "frame-id": "imp-PMC2845649-cmu-pradsys-883", 
            "frame-type": "implication", 
            "implication-type": "binds", 
            "object-meta": {
                "object-type": "meta-info", 
                "organization": "CMU"
            }, 
            "object-type": "frame", 
            "sentence": "sent-PMC2845649-cmu-80"
        }, 
        {
            "binds-controller": [
                "LY294002 treatment ( Fig"
            ], 
            "frame-id": "imp-PMC2845649-cmu-pradsys-884", 
            "frame-type": "implication", 
            "implication-type": "binds", 
            "object-meta": {
                "object-type": "meta-info", 
                "organization": "CMU"
            }, 
            "object-type": "frame", 
            "sentence": "sent-PMC2845649-cmu-81"
        }, 
        {
            "frame-id": "imp-PMC2845649-cmu-pradsys-885", 
            "frame-type": "implication", 
            "implication-type": "binds", 
            "object-meta": {
                "object-type": "meta-info", 
                "organization": "CMU"
            }, 
            "object-type": "frame", 
            "sentence": "sent-PMC2845649-cmu-84", 
            "transfection-molecule": [
                "LY294002 ( Fig"
            ]
        }, 
        {
            "frame-id": "imp-PMC2845649-cmu-pradsys-886", 
            "frame-type": "implication", 
            "implication-type": "binds", 
            "object-meta": {
                "object-type": "meta-info", 
                "organization": "CMU"
            }, 
            "object-type": "frame", 
            "sentence": "sent-PMC2845649-cmu-90", 
            "transfection-molecule": [
                "PtdInsP3 ( Fig"
            ]
        }, 
        {
            "binds-constituent2": [
                "S473"
            ], 
            "frame-id": "imp-PMC2845649-cmu-pradsys-887", 
            "frame-type": "implication", 
            "implication-type": "binds", 
            "object-meta": {
                "object-type": "meta-info", 
                "organization": "CMU"
            }, 
            "object-type": "frame", 
            "sentence": "sent-PMC2845649-cmu-96"
        }, 
        {
            "binds-constituent1": [
                "GDC0941"
            ], 
            "frame-id": "imp-PMC2845649-cmu-pradsys-888", 
            "frame-type": "implication", 
            "implication-type": "binds", 
            "object-meta": {
                "object-type": "meta-info", 
                "organization": "CMU"
            }, 
            "object-type": "frame", 
            "sentence": "sent-PMC2845649-cmu-97"
        }, 
        {
            "binds-constituent1": [
                "AKT1"
            ], 
            "binds-site": [
                "the PH domains of"
            ], 
            "frame-id": "imp-PMC2845649-cmu-pradsys-889", 
            "frame-type": "implication", 
            "implication-type": "binds", 
            "object-meta": {
                "object-type": "meta-info", 
                "organization": "CMU"
            }, 
            "object-type": "frame", 
            "sentence": "sent-PMC2845649-cmu-98"
        }, 
        {
            "binds-constituent1": [
                "AKT"
            ], 
            "binds-site": [
                "The PH domains of"
            ], 
            "frame-id": "imp-PMC2845649-cmu-pradsys-890", 
            "frame-type": "implication", 
            "implication-type": "binds", 
            "object-meta": {
                "object-type": "meta-info", 
                "organization": "CMU"
            }, 
            "object-type": "frame", 
            "sentence": "sent-PMC2845649-cmu-99"
        }, 
        {
            "assay-molecule": [
                "PDK1"
            ], 
            "binds-constituent1": [
                "PI3K"
            ], 
            "frame-id": "imp-PMC2845649-cmu-pradsys-891", 
            "frame-type": "implication", 
            "implication-type": "binds", 
            "object-meta": {
                "object-type": "meta-info", 
                "organization": "CMU"
            }, 
            "object-type": "frame", 
            "sentence": "sent-PMC2845649-cmu-100", 
            "transfection-molecule": [
                "IFPN-AKT1 ( R25A )"
            ]
        }, 
        {
            "cell-type": [
                "HeLa cells"
            ], 
            "frame-id": "imp-PMC2845649-cmu-pradsys-892", 
            "frame-type": "implication", 
            "implication-type": "binds", 
            "object-meta": {
                "object-type": "meta-info", 
                "organization": "CMU"
            }, 
            "object-type": "frame", 
            "sentence": "sent-PMC2845649-cmu-102"
        }, 
        {
            "cell-type": [
                "living cells"
            ], 
            "frame-id": "imp-PMC2845649-cmu-pradsys-893", 
            "frame-type": "implication", 
            "implication-type": "binds", 
            "incubation-reagent": [
                "Co-transfection of IFPN-AKT1 ( R25A ) and PDK1 ( R474A ) -IFPC"
            ], 
            "object-meta": {
                "object-type": "meta-info", 
                "organization": "CMU"
            }, 
            "object-type": "frame", 
            "sentence": "sent-PMC2845649-cmu-104", 
            "transfection-molecule": [
                "other mutated protein"
            ]
        }, 
        {
            "binds-constituent1": [
                "fluorescent complexes containing either mutant"
            ], 
            "frame-id": "imp-PMC2845649-cmu-pradsys-894", 
            "frame-type": "implication", 
            "implication-type": "binds", 
            "object-meta": {
                "object-type": "meta-info", 
                "organization": "CMU"
            }, 
            "object-type": "frame", 
            "sentence": "sent-PMC2845649-cmu-106"
        }, 
        {
            "binds-constituent1": [
                "AKT1"
            ], 
            "binds-constituent2": [
                "PDK1"
            ], 
            "frame-id": "imp-PMC2845649-cmu-pradsys-895", 
            "frame-type": "implication", 
            "implication-type": "binds", 
            "object-meta": {
                "object-type": "meta-info", 
                "organization": "CMU"
            }, 
            "object-type": "frame", 
            "sentence": "sent-PMC2845649-cmu-107"
        }, 
        {
            "frame-id": "imp-PMC2845649-cmu-pradsys-896", 
            "frame-type": "implication", 
            "implication-type": "binds", 
            "incubation-reagent": [
                "the PDK1 ( R474A ) -IFPC "
            ], 
            "object-meta": {
                "object-type": "meta-info", 
                "organization": "CMU"
            }, 
            "object-type": "frame", 
            "sentence": "sent-PMC2845649-cmu-108"
        }, 
        {
            "binds-constituent1": [
                "AKT"
            ], 
            "frame-id": "imp-PMC2845649-cmu-pradsys-897", 
            "frame-type": "implication", 
            "implication-type": "binds", 
            "object-meta": {
                "object-type": "meta-info", 
                "organization": "CMU"
            }, 
            "object-type": "frame", 
            "sentence": "sent-PMC2845649-cmu-109"
        }, 
        {
            "binds-constituent2": [
                "S473"
            ], 
            "binds-controller": [
                "wild type IFPN-AKT1 under starvation conditions with or without LY294002 ( Fig"
            ], 
            "frame-id": "imp-PMC2845649-cmu-pradsys-898", 
            "frame-type": "implication", 
            "implication-type": "binds", 
            "object-meta": {
                "object-type": "meta-info", 
                "organization": "CMU"
            }, 
            "object-type": "frame", 
            "sentence": "sent-PMC2845649-cmu-110"
        }, 
        {
            "binds-controller": [
                "serum stimulation ( Fig"
            ], 
            "frame-id": "imp-PMC2845649-cmu-pradsys-899", 
            "frame-type": "implication", 
            "implication-type": "binds", 
            "object-meta": {
                "object-type": "meta-info", 
                "organization": "CMU"
            }, 
            "object-type": "frame", 
            "sentence": "sent-PMC2845649-cmu-112", 
            "transfection-molecule": [
                "IFPN-AKT1 ( R25A ) at T308"
            ]
        }, 
        {
            "frame-id": "imp-PMC2845649-cmu-pradsys-900", 
            "frame-type": "implication", 
            "implication-type": "binds", 
            "ip-molecule": [
                "a selective AKT PH domain inhibitor"
            ], 
            "object-meta": {
                "object-type": "meta-info", 
                "organization": "CMU"
            }, 
            "object-type": "frame", 
            "sentence": "sent-PMC2845649-cmu-114"
        }, 
        {
            "binds-constituent2": [
                "S473"
            ], 
            "frame-id": "imp-PMC2845649-cmu-pradsys-901", 
            "frame-type": "implication", 
            "implication-type": "binds", 
            "object-meta": {
                "object-type": "meta-info", 
                "organization": "CMU"
            }, 
            "object-type": "frame", 
            "sentence": "sent-PMC2845649-cmu-117"
        }, 
        {
            "assay-molecule": [
                "Akti-1/2"
            ], 
            "frame-id": "imp-PMC2845649-cmu-pradsys-902", 
            "frame-type": "implication", 
            "implication-type": "binds", 
            "object-meta": {
                "object-type": "meta-info", 
                "organization": "CMU"
            }, 
            "object-type": "frame", 
            "sentence": "sent-PMC2845649-cmu-118", 
            "transfection-molecule": [
                "p70S6K"
            ]
        }, 
        {
            "binds-constituent1": [
                "AKT1"
            ], 
            "frame-id": "imp-PMC2845649-cmu-pradsys-903", 
            "frame-type": "implication", 
            "implication-type": "binds", 
            "m-val": [
                "did not localize"
            ], 
            "object-meta": {
                "object-type": "meta-info", 
                "organization": "CMU"
            }, 
            "object-type": "frame", 
            "sentence": "sent-PMC2845649-cmu-120"
        }, 
        {
            "binds-constituent1": [
                "PDK1"
            ], 
            "binds-site": [
                "the endogenous"
            ], 
            "entity": [
                "particular PI3K pathway components"
            ], 
            "frame-id": "imp-PMC2845649-cmu-pradsys-904", 
            "frame-type": "implication", 
            "implication-type": "binds", 
            "object-meta": {
                "object-type": "meta-info", 
                "organization": "CMU"
            }, 
            "object-type": "frame", 
            "sentence": "sent-PMC2845649-cmu-122"
        }, 
        {
            "binds-controller": [
                "the absence of PI3K signaling"
            ], 
            "frame-id": "imp-PMC2845649-cmu-pradsys-905", 
            "frame-type": "implication", 
            "implication-type": "binds", 
            "object-meta": {
                "object-type": "meta-info", 
                "organization": "CMU"
            }, 
            "object-type": "frame", 
            "sentence": "sent-PMC2845649-cmu-123"
        }, 
        {
            "frame-id": "imp-PMC2845649-cmu-pradsys-906", 
            "frame-type": "implication", 
            "implication-type": "binds", 
            "ip-molecule": [
                "IFPN-AKT1 "
            ], 
            "object-meta": {
                "object-type": "meta-info", 
                "organization": "CMU"
            }, 
            "object-type": "frame", 
            "sentence": "sent-PMC2845649-cmu-125", 
            "transfection-molecule": [
                "LY294002", 
                "PI103 ( Fig"
            ]
        }, 
        {
            "binds-constituent1": [
                "LY294002"
            ], 
            "frame-id": "imp-PMC2845649-cmu-pradsys-907", 
            "frame-type": "implication", 
            "implication-type": "binds", 
            "object-meta": {
                "object-type": "meta-info", 
                "organization": "CMU"
            }, 
            "object-type": "frame", 
            "sentence": "sent-PMC2845649-cmu-127"
        }, 
        {
            "binds-constituent1": [
                "LY294002"
            ], 
            "binds-constituent2": [
                "mTOR-p70S6K"
            ], 
            "frame-id": "imp-PMC2845649-cmu-pradsys-908", 
            "frame-type": "implication", 
            "implication-type": "binds", 
            "object-meta": {
                "object-type": "meta-info", 
                "organization": "CMU"
            }, 
            "object-type": "frame", 
            "sentence": "sent-PMC2845649-cmu-128"
        }, 
        {
            "assay-molecule": [
                "TGX286"
            ], 
            "frame-id": "imp-PMC2845649-cmu-pradsys-909", 
            "frame-type": "implication", 
            "implication-type": "binds", 
            "object-meta": {
                "object-type": "meta-info", 
                "organization": "CMU"
            }, 
            "object-type": "frame", 
            "sentence": "sent-PMC2845649-cmu-129"
        }, 
        {
            "binds-constituent1": [
                "GDC0941"
            ], 
            "frame-id": "imp-PMC2845649-cmu-pradsys-910", 
            "frame-type": "implication", 
            "implication-type": "binds", 
            "object-meta": {
                "object-type": "meta-info", 
                "organization": "CMU"
            }, 
            "object-type": "frame", 
            "sentence": "sent-PMC2845649-cmu-131"
        }, 
        {
            "frame-id": "imp-PMC2845649-cmu-pradsys-911", 
            "frame-type": "implication", 
            "implication-type": "binds", 
            "object-meta": {
                "object-type": "meta-info", 
                "organization": "CMU"
            }, 
            "object-type": "frame", 
            "sentence": "sent-PMC2845649-cmu-132", 
            "transfection-molecule": [
                "GDC0941 ( Fig"
            ]
        }, 
        {
            "binds-constituent1": [
                "GDC0941"
            ], 
            "frame-id": "imp-PMC2845649-cmu-pradsys-912", 
            "frame-type": "implication", 
            "implication-type": "binds", 
            "object-meta": {
                "object-type": "meta-info", 
                "organization": "CMU"
            }, 
            "object-type": "frame", 
            "sentence": "sent-PMC2845649-cmu-134"
        }, 
        {
            "binds-catalysis": [
                "significantly higher level"
            ], 
            "binds-constituent2": [
                "GDC0941"
            ], 
            "frame-id": "imp-PMC2845649-cmu-pradsys-913", 
            "frame-type": "implication", 
            "implication-type": "binds", 
            "object-meta": {
                "object-type": "meta-info", 
                "organization": "CMU"
            }, 
            "object-type": "frame", 
            "sentence": "sent-PMC2845649-cmu-135", 
            "transfection-molecule": [
                "\u00b5M", 
                "LY294002"
            ]
        }, 
        {
            "binds-constituent1": [
                "LY294002"
            ], 
            "frame-id": "imp-PMC2845649-cmu-pradsys-914", 
            "frame-type": "implication", 
            "implication-type": "binds", 
            "object-meta": {
                "object-type": "meta-info", 
                "organization": "CMU"
            }, 
            "object-type": "frame", 
            "sentence": "sent-PMC2845649-cmu-136", 
            "transfection-molecule": [
                "4A"
            ]
        }, 
        {
            "binds-constituent1": [
                "TGX286"
            ], 
            "frame-id": "imp-PMC2845649-cmu-pradsys-915", 
            "frame-type": "implication", 
            "implication-type": "binds", 
            "object-meta": {
                "object-type": "meta-info", 
                "organization": "CMU"
            }, 
            "object-type": "frame", 
            "sentence": "sent-PMC2845649-cmu-137"
        }, 
        {
            "frame-id": "imp-PMC2845649-cmu-pradsys-916", 
            "frame-type": "implication", 
            "implication-type": "binds", 
            "incubation-reagent": [
                "4B )"
            ], 
            "object-meta": {
                "object-type": "meta-info", 
                "organization": "CMU"
            }, 
            "object-type": "frame", 
            "sentence": "sent-PMC2845649-cmu-139"
        }, 
        {
            "binds-constituent1": [
                "AKT2"
            ], 
            "frame-id": "imp-PMC2845649-cmu-pradsys-917", 
            "frame-type": "implication", 
            "implication-type": "binds", 
            "object-meta": {
                "object-type": "meta-info", 
                "organization": "CMU"
            }, 
            "object-type": "frame", 
            "sentence": "sent-PMC2845649-cmu-142"
        }, 
        {
            "binds-constituent2": [
                "AKT1"
            ], 
            "frame-id": "imp-PMC2845649-cmu-pradsys-918", 
            "frame-type": "implication", 
            "implication-type": "binds", 
            "object-meta": {
                "object-type": "meta-info", 
                "organization": "CMU"
            }, 
            "object-type": "frame", 
            "sentence": "sent-PMC2845649-cmu-143", 
            "transfection-molecule": [
                "AKT2"
            ]
        }, 
        {
            "frame-id": "imp-PMC2845649-cmu-pradsys-919", 
            "frame-type": "implication", 
            "implication-type": "binds", 
            "incubation-reagent": [
                "the selective AKT1 and AKT2 PH domain inhibitor"
            ], 
            "object-meta": {
                "object-type": "meta-info", 
                "organization": "CMU"
            }, 
            "object-type": "frame", 
            "sentence": "sent-PMC2845649-cmu-144"
        }, 
        {
            "frame-id": "imp-PMC2845649-cmu-pradsys-920", 
            "frame-type": "implication", 
            "implication-type": "binds", 
            "object-meta": {
                "object-type": "meta-info", 
                "organization": "CMU"
            }, 
            "object-type": "frame", 
            "sentence": "sent-PMC2845649-cmu-147", 
            "transfection-molecule": [
                "AKT ( Fig"
            ]
        }, 
        {
            "binds-constituent1": [
                "mTORC1"
            ], 
            "binds-constituent2": [
                "AKT1"
            ], 
            "frame-id": "imp-PMC2845649-cmu-pradsys-921", 
            "frame-type": "implication", 
            "implication-type": "binds", 
            "object-meta": {
                "object-type": "meta-info", 
                "organization": "CMU"
            }, 
            "object-type": "frame", 
            "sentence": "sent-PMC2845649-cmu-148"
        }, 
        {
            "frame-id": "imp-PMC2845649-cmu-pradsys-922", 
            "frame-type": "implication", 
            "implication-type": "binds", 
            "object-meta": {
                "object-type": "meta-info", 
                "organization": "CMU"
            }, 
            "object-type": "frame", 
            "process": [
                "Higher concentration"
            ], 
            "sentence": "sent-PMC2845649-cmu-151"
        }, 
        {
            "binds-constituent1": [
                "PI103"
            ], 
            "frame-id": "imp-PMC2845649-cmu-pradsys-923", 
            "frame-type": "implication", 
            "implication-type": "binds", 
            "object-meta": {
                "object-type": "meta-info", 
                "organization": "CMU"
            }, 
            "object-type": "frame", 
            "sentence": "sent-PMC2845649-cmu-153"
        }, 
        {
            "binds-constituent2": [
                "Fig"
            ], 
            "binds-site": [
                "the \u223c30 % reduction in cell viability with rapamycin treatment ("
            ], 
            "frame-id": "imp-PMC2845649-cmu-pradsys-924", 
            "frame-type": "implication", 
            "implication-type": "binds", 
            "object-meta": {
                "object-type": "meta-info", 
                "organization": "CMU"
            }, 
            "object-type": "frame", 
            "sentence": "sent-PMC2845649-cmu-155"
        }, 
        {
            "binds-controller": [
                "4A )"
            ], 
            "frame-id": "imp-PMC2845649-cmu-pradsys-925", 
            "frame-type": "implication", 
            "implication-type": "binds", 
            "object-meta": {
                "object-type": "meta-info", 
                "organization": "CMU"
            }, 
            "object-type": "frame", 
            "sentence": "sent-PMC2845649-cmu-158"
        }, 
        {
            "binds-constituent1": [
                "LY294002"
            ], 
            "frame-id": "imp-PMC2845649-cmu-pradsys-926", 
            "frame-type": "implication", 
            "implication-type": "binds", 
            "object-meta": {
                "object-type": "meta-info", 
                "organization": "CMU"
            }, 
            "object-type": "frame", 
            "sentence": "sent-PMC2845649-cmu-163"
        }, 
        {
            "binds-constituent1": [
                "PI103", 
                "PI3K"
            ], 
            "frame-id": "imp-PMC2845649-cmu-pradsys-927", 
            "frame-type": "implication", 
            "implication-type": "binds", 
            "object-meta": {
                "object-type": "meta-info", 
                "organization": "CMU"
            }, 
            "object-type": "frame", 
            "sentence": "sent-PMC2845649-cmu-164"
        }, 
        {
            "binds-constituent1": [
                "PI3K"
            ], 
            "binds-constituent2": [
                "the AKT PH domain"
            ], 
            "frame-id": "imp-PMC2845649-cmu-pradsys-928", 
            "frame-type": "implication", 
            "implication-type": "binds", 
            "object-meta": {
                "object-type": "meta-info", 
                "organization": "CMU"
            }, 
            "object-type": "frame", 
            "sentence": "sent-PMC2845649-cmu-166"
        }, 
        {
            "binds-constituent1": [
                "LY294002"
            ], 
            "frame-id": "imp-PMC2845649-cmu-pradsys-929", 
            "frame-type": "implication", 
            "implication-type": "binds", 
            "object-meta": {
                "object-type": "meta-info", 
                "organization": "CMU"
            }, 
            "object-type": "frame", 
            "sentence": "sent-PMC2845649-cmu-167", 
            "transfection-molecule": [
                "PI3K"
            ]
        }, 
        {
            "binds-constituent1": [
                "GDC0941", 
                "LY294002"
            ], 
            "binds-constituent2": [
                "GDC0941"
            ], 
            "binds-site": [
                "inhibits mTORC1 though weaker than"
            ], 
            "frame-id": "imp-PMC2845649-cmu-pradsys-930", 
            "frame-type": "implication", 
            "implication-type": "binds", 
            "object-meta": {
                "object-type": "meta-info", 
                "organization": "CMU"
            }, 
            "object-type": "frame", 
            "sentence": "sent-PMC2845649-cmu-168"
        }, 
        {
            "frame-id": "imp-PMC2845649-cmu-pradsys-931", 
            "frame-type": "implication", 
            "implication-type": "binds", 
            "object-meta": {
                "object-type": "meta-info", 
                "organization": "CMU"
            }, 
            "object-type": "frame", 
            "sentence": "sent-PMC2845649-cmu-169", 
            "transfection-molecule": [
                "TGX286"
            ]
        }, 
        {
            "binds-constituent1": [
                "LY294002"
            ], 
            "frame-id": "imp-PMC2845649-cmu-pradsys-932", 
            "frame-type": "implication", 
            "implication-type": "binds", 
            "object-meta": {
                "object-type": "meta-info", 
                "organization": "CMU"
            }, 
            "object-type": "frame", 
            "sentence": "sent-PMC2845649-cmu-171"
        }, 
        {
            "binds-constituent1": [
                "AKT1"
            ], 
            "frame-id": "imp-PMC2845649-cmu-pradsys-933", 
            "frame-type": "implication", 
            "implication-type": "binds", 
            "object-meta": {
                "object-type": "meta-info", 
                "organization": "CMU"
            }, 
            "object-type": "frame", 
            "sentence": "sent-PMC2845649-cmu-172"
        }, 
        {
            "binds-constituent1": [
                "LY294002"
            ], 
            "frame-id": "imp-PMC2845649-cmu-pradsys-934", 
            "frame-type": "implication", 
            "implication-type": "binds", 
            "object-meta": {
                "object-type": "meta-info", 
                "organization": "CMU"
            }, 
            "object-type": "frame", 
            "sentence": "sent-PMC2845649-cmu-173"
        }, 
        {
            "binds-constituent1": [
                "p21-activated protein kinase 1", 
                "AKT", 
                "PDK1"
            ], 
            "frame-id": "imp-PMC2845649-cmu-pradsys-935", 
            "frame-type": "implication", 
            "implication-type": "binds", 
            "object-meta": {
                "object-type": "meta-info", 
                "organization": "CMU"
            }, 
            "object-type": "frame", 
            "sentence": "sent-PMC2845649-cmu-176"
        }, 
        {
            "binds-constituent1": [
                "PDK1 PH domain mutant"
            ], 
            "frame-id": "imp-PMC2845649-cmu-pradsys-936", 
            "frame-type": "implication", 
            "implication-type": "binds", 
            "object-meta": {
                "object-type": "meta-info", 
                "organization": "CMU"
            }, 
            "object-type": "frame", 
            "sentence": "sent-PMC2845649-cmu-177"
        }, 
        {
            "binds-constituent1": [
                "PtdInsP3"
            ], 
            "frame-id": "imp-PMC2845649-cmu-pradsys-937", 
            "frame-type": "implication", 
            "implication-type": "binds", 
            "object-meta": {
                "object-type": "meta-info", 
                "organization": "CMU"
            }, 
            "object-type": "frame", 
            "sentence": "sent-PMC2845649-cmu-179"
        }, 
        {
            "frame-id": "imp-PMC2845649-cmu-pradsys-938", 
            "frame-type": "implication", 
            "implication-type": "binds", 
            "object-meta": {
                "object-type": "meta-info", 
                "organization": "CMU"
            }, 
            "object-type": "frame", 
            "sentence": "sent-PMC2845649-cmu-181", 
            "transfection-molecule": [
                "AKT PH domain"
            ]
        }, 
        {
            "binds-constituent1": [
                "AKT1"
            ], 
            "frame-id": "imp-PMC2845649-cmu-pradsys-939", 
            "frame-type": "implication", 
            "implication-type": "binds", 
            "object-meta": {
                "object-type": "meta-info", 
                "organization": "CMU"
            }, 
            "object-type": "frame", 
            "sentence": "sent-PMC2845649-cmu-183"
        }, 
        {
            "binds-constituent1": [
                "PDK1"
            ], 
            "frame-id": "imp-PMC2845649-cmu-pradsys-940", 
            "frame-type": "implication", 
            "implication-type": "binds", 
            "object-meta": {
                "object-type": "meta-info", 
                "organization": "CMU"
            }, 
            "object-type": "frame", 
            "sentence": "sent-PMC2845649-cmu-184"
        }, 
        {
            "binds-constituent1": [
                "PDK1", 
                "IFP", 
                "PI3K"
            ], 
            "frame-id": "imp-PMC2845649-cmu-pradsys-941", 
            "frame-type": "implication", 
            "implication-type": "binds", 
            "object-meta": {
                "object-type": "meta-info", 
                "organization": "CMU"
            }, 
            "object-type": "frame", 
            "sentence": "sent-PMC2845649-cmu-186"
        }, 
        {
            "binds-constituent1": [
                "PDK1"
            ], 
            "binds-constituent2": [
                "T308"
            ], 
            "frame-id": "imp-PMC2845649-cmu-pradsys-942", 
            "frame-type": "implication", 
            "implication-type": "binds", 
            "object-meta": {
                "object-type": "meta-info", 
                "organization": "CMU"
            }, 
            "object-type": "frame", 
            "sentence": "sent-PMC2845649-cmu-187"
        }, 
        {
            "cell-type": [
                "normal cells"
            ], 
            "frame-id": "imp-PMC2845649-cmu-pradsys-943", 
            "frame-type": "implication", 
            "implication-type": "binds", 
            "object-meta": {
                "object-type": "meta-info", 
                "organization": "CMU"
            }, 
            "object-type": "frame", 
            "sentence": "sent-PMC2845649-cmu-188"
        }
    ], 
    "object-meta": {
        "component": "Pradeep-System", 
        "component-type": "machine", 
        "doc-id": "PMC2845649", 
        "object-type": "meta-info", 
        "organization": "CMU"
    }, 
    "object-type": "frame-collection"
}
