{
    "frames": [
        {
            "frame-id": "sent-PMC2359939-medscan-0", 
            "frame-type": "sentence", 
            "object-type": "frame", 
            "start-pos": {
                "object-type": "absolute-pos", 
                "offset": 0
            }, 
            "text": "Trans-resveratrol (3,4',5-trihydroxystilbene, RES) is a phytoalexin that has gained considerable interest because of its ability to inhibit cell proliferation in tumour cells of different origin ( ; ; ; )."
        }, 
        {
            "frame-id": "sent-PMC2359939-medscan-1", 
            "frame-type": "sentence", 
            "object-type": "frame", 
            "start-pos": {
                "object-type": "absolute-pos", 
                "offset": 1
            }, 
            "text": "In vivo, several studies have shown that RES inhibits tumour growth in xenograft mouse models for skin , mammary gland  and colorectal  cancer."
        }, 
        {
            "frame-id": "sent-PMC2359939-medscan-2", 
            "frame-type": "sentence", 
            "object-type": "frame", 
            "start-pos": {
                "object-type": "absolute-pos", 
                "offset": 2
            }, 
            "text": "Particularly, interesting is the effect of RES as a selective apoptotic inducer in tumour cells that respond to steroid hormones."
        }, 
        {
            "frame-id": "sent-PMC2359939-medscan-3", 
            "frame-type": "sentence", 
            "object-type": "frame", 
            "start-pos": {
                "object-type": "absolute-pos", 
                "offset": 3
            }, 
            "text": "Thus, previous studies have revealed that RES triggered apoptosis in oestrogen receptor alpha (ER\u03b1)-positive MCF-7 but not in ER\u03b1-negative MDA-MB-231 human breast tumour cells."
        }, 
        {
            "frame-id": "sent-PMC2359939-medscan-4", 
            "frame-type": "sentence", 
            "object-type": "frame", 
            "start-pos": {
                "object-type": "absolute-pos", 
                "offset": 4
            }, 
            "text": "These specific effects were associated to cell type-specific regulation of proteins controlling the G1/S (cyclin D1, cyclin E) and G2/M (cyclin B, cdc2p34) transitions of the cell cycle ."
        }, 
        {
            "frame-id": "sent-PMC2359939-medscan-5", 
            "frame-type": "sentence", 
            "object-type": "frame", 
            "start-pos": {
                "object-type": "absolute-pos", 
                "offset": 5
            }, 
            "text": "The ER\u03b1 is not only a transcriptional regulator in the cell nucleus but also a cytosolic intermediate in the survival pathway regulated by phosphoinositide-3-kinase ( ; ; )."
        }, 
        {
            "frame-id": "sent-PMC2359939-medscan-6", 
            "frame-type": "sentence", 
            "object-type": "frame", 
            "start-pos": {
                "object-type": "absolute-pos", 
                "offset": 6
            }, 
            "text": "Based on these observations, we previously reported that the apoptosis induced by RES in oestrogen-dependent MCF-7 cells was mediated by inhibition of the ER\u03b1-associated phosphoinositide-3-kinase activity ."
        }, 
        {
            "frame-id": "sent-PMC2359939-medscan-7", 
            "frame-type": "sentence", 
            "object-type": "frame", 
            "start-pos": {
                "object-type": "absolute-pos", 
                "offset": 7
            }, 
            "text": "Further, this effect involved a caspase-independent mechanism with downregulation of Bcl-2 and NF-\u03baB ."
        }, 
        {
            "frame-id": "sent-PMC2359939-medscan-8", 
            "frame-type": "sentence", 
            "object-type": "frame", 
            "start-pos": {
                "object-type": "absolute-pos", 
                "offset": 8
            }, 
            "text": "Several studies reported that RES has a complex effect in oestrogen-responsive cells, acting as antagonist or agonist for the ER\u03b1 in different cell types and cellular contexts ( ; ; ; ; ; ; )."
        }, 
        {
            "frame-id": "sent-PMC2359939-medscan-9", 
            "frame-type": "sentence", 
            "object-type": "frame", 
            "start-pos": {
                "object-type": "absolute-pos", 
                "offset": 9
            }, 
            "text": "Among phosphoinositide-3-kinases, those belonging to the IA class are composed of a regulatory subunit (p85\u03b1) and a catalytic peptide (p110)."
        }, 
        {
            "frame-id": "sent-PMC2359939-medscan-10", 
            "frame-type": "sentence", 
            "object-type": "frame", 
            "start-pos": {
                "object-type": "absolute-pos", 
                "offset": 10
            }, 
            "text": "Functionally, p85\u03b1 links membrane-bound growth factor receptors to p110, which synthesises lipid intermediates such as phosphatidylinositol-3,4,5-triphosphate (PI(3,4,5)P3) ."
        }, 
        {
            "frame-id": "sent-PMC2359939-medscan-11", 
            "frame-type": "sentence", 
            "object-type": "frame", 
            "start-pos": {
                "object-type": "absolute-pos", 
                "offset": 11
            }, 
            "text": "PI(3,4,5)P3 functions as a docking molecule for the membrane localisation of proteins harbouring pleckstrin homology domains such as protein kinase B/AKT (PKB/AKT) ."
        }, 
        {
            "frame-id": "sent-PMC2359939-medscan-12", 
            "frame-type": "sentence", 
            "object-type": "frame", 
            "start-pos": {
                "object-type": "absolute-pos", 
                "offset": 12
            }, 
            "text": "One of relevant target proteins of PKB/AKT is glycogen synthase kinase-3 (GSK-3), which becomes inactivated by PKB/AKT-dependent phosphorylation ."
        }, 
        {
            "frame-id": "sent-PMC2359939-medscan-13", 
            "frame-type": "sentence", 
            "object-type": "frame", 
            "start-pos": {
                "object-type": "absolute-pos", 
                "offset": 13
            }, 
            "text": "In unstimulated cells (e.g. low PKB/AKT activity), active GSK-3 phosphorylates proteins such as cyclin D1, c-myc and glycogen synthase, thus promoting their degradation and leading to downregulation of the cell cycle."
        }, 
        {
            "frame-id": "sent-PMC2359939-medscan-14", 
            "frame-type": "sentence", 
            "object-type": "frame", 
            "start-pos": {
                "object-type": "absolute-pos", 
                "offset": 14
            }, 
            "text": "Under conditions of phosphoinositide-3-kinase activation, PKB/AKT phosphorylates and inactivates GSK-3, which results in increased levels of metabolic and cell cycle regulatory proteins that will drive the G1/S transition ."
        }, 
        {
            "frame-id": "sent-PMC2359939-medscan-15", 
            "frame-type": "sentence", 
            "object-type": "frame", 
            "start-pos": {
                "object-type": "absolute-pos", 
                "offset": 15
            }, 
            "text": "As over-activation of the phosphoinositide-3-kinase pathway has been linked to human disease, a better knowledge of its molecular intermediates in different cell types could help to find novel targets and to characterise new therapeutic molecules against human cancer ."
        }, 
        {
            "frame-id": "sent-PMC2359939-medscan-16", 
            "frame-type": "sentence", 
            "object-type": "frame", 
            "start-pos": {
                "object-type": "absolute-pos", 
                "offset": 16
            }, 
            "text": "The effects of RES on different steroid hormone-responsive tumour cells appear to follow a common mechanism."
        }, 
        {
            "frame-id": "sent-PMC2359939-medscan-17", 
            "frame-type": "sentence", 
            "object-type": "frame", 
            "start-pos": {
                "object-type": "absolute-pos", 
                "offset": 17
            }, 
            "text": "Similar to that observed in ER\u03b1-positive MCF-7 breast tumour cells, RES inhibited DNA synthesis and modulated cell cycle progression in androgen receptor -positive LNCaP but not in androgen receptor-negative DU145 human prostate tumour cells ."
        }, 
        {
            "frame-id": "sent-PMC2359939-medscan-18", 
            "frame-type": "sentence", 
            "object-type": "frame", 
            "start-pos": {
                "object-type": "absolute-pos", 
                "offset": 18
            }, 
            "text": "Recent studies have also shown that androgen receptor status could cause a differential effect of RES on cell cycle regulation at the G1/S transition in LNCaP and PC-3 cells ."
        }, 
        {
            "frame-id": "sent-PMC2359939-medscan-19", 
            "frame-type": "sentence", 
            "object-type": "frame", 
            "start-pos": {
                "object-type": "absolute-pos", 
                "offset": 19
            }, 
            "text": "Moreover, RES modulated the transcriptional activity of the androgen receptor in LNCaP prostate cancer cells , inducing changes in gene expression  that were similar to those observed after inhibiting the transcriptional activity of the ER\u03b1 in MCF-7 breast tumour cells ."
        }, 
        {
            "frame-id": "sent-PMC2359939-medscan-20", 
            "frame-type": "sentence", 
            "object-type": "frame", 
            "start-pos": {
                "object-type": "absolute-pos", 
                "offset": 20
            }, 
            "text": "Finally, the interaction of steroid hormone receptors with phosphoinositide-3-kinase is not exclusive of the ER\u03b1, as the androgen receptor can also activate this kinase by forming a complex with p85 and Src ."
        }, 
        {
            "frame-id": "sent-PMC2359939-medscan-21", 
            "frame-type": "sentence", 
            "object-type": "frame", 
            "start-pos": {
                "object-type": "absolute-pos", 
                "offset": 21
            }, 
            "text": "In a recent study, reported that RES decreased PKB/AKT phosphorylation in LNCaP cells and associated this effect with the induction of apoptosis by the intrinsic mitochondrial pathway."
        }, 
        {
            "frame-id": "sent-PMC2359939-medscan-22", 
            "frame-type": "sentence", 
            "object-type": "frame", 
            "start-pos": {
                "object-type": "absolute-pos", 
                "offset": 22
            }, 
            "text": "Interestingly, a similar correlation has been proposed for apoptosis induction by RES in MCF-7 breast cancer cells, in which inhibition of phosphoinositide-3-kinase resulted in lower PKB/AKT activity, NF-\u03baB inhibition and Bcl-2 downregulation ."
        }, 
        {
            "frame-id": "sent-PMC2359939-medscan-23", 
            "frame-type": "sentence", 
            "object-type": "frame", 
            "start-pos": {
                "object-type": "absolute-pos", 
                "offset": 23
            }, 
            "text": "Based on these previous results, it appears that RES triggers specific mechanisms of apoptosis in a cell type selective manner in steroid hormone-responsive breast and prostate cancer cells."
        }, 
        {
            "frame-id": "sent-PMC2359939-medscan-24", 
            "frame-type": "sentence", 
            "object-type": "frame", 
            "start-pos": {
                "object-type": "absolute-pos", 
                "offset": 24
            }, 
            "text": "In this work, we have used LNCaP (androgen receptor positive, ER\u03b1 negative) and PC-3 (androgen receptor negative, ER\u03b1 positive) prostate tumour cells to address the mechanism through which RES modulates the androgen receptor- and ER\u03b1-associated phosphoinositide-3-kinase activity."
        }, 
        {
            "frame-id": "sent-PMC2359939-medscan-25", 
            "frame-type": "sentence", 
            "object-type": "frame", 
            "start-pos": {
                "object-type": "absolute-pos", 
                "offset": 25
            }, 
            "text": "We have found that RES inhibited, in a concentration-dependent manner, androgen receptor- and ER\u03b1-dependent phosphoinositide-3-kinase activity in LNCaP and PC-3, respectively."
        }, 
        {
            "frame-id": "sent-PMC2359939-medscan-26", 
            "frame-type": "sentence", 
            "object-type": "frame", 
            "start-pos": {
                "object-type": "absolute-pos", 
                "offset": 26
            }, 
            "text": "phosphoinositide-3-kinase inhibition correlated with PKB/AKT and GSK-3 phosphorylation and with decreased cyclin D1 levels."
        }, 
        {
            "frame-id": "sent-PMC2359939-medscan-27", 
            "frame-type": "sentence", 
            "object-type": "frame", 
            "start-pos": {
                "object-type": "absolute-pos", 
                "offset": 27
            }, 
            "text": "Further, RES also inhibited PKB/AKT phosphorylation in cultured cells from primary human prostate tumours."
        }, 
        {
            "frame-id": "sent-PMC2359939-medscan-28", 
            "frame-type": "sentence", 
            "object-type": "frame", 
            "start-pos": {
                "object-type": "absolute-pos", 
                "offset": 28
            }, 
            "text": "We suggest that androgen receptor and ER\u03b1-associated phosphoinositide-3-kinase could represent novel target proteins for the antitumoral activity of RES in human prostate tumours, establishing a common mechanism with other hormone-dependent cancers such as breast."
        }, 
        {
            "frame-id": "sent-PMC2359939-medscan-29", 
            "frame-type": "sentence", 
            "object-type": "frame", 
            "start-pos": {
                "object-type": "absolute-pos", 
                "offset": 29
            }, 
            "text": "RES, dihydrotestosterone , 17\u03b2-oestradiol (E2), ATP, L-\u03b1-phosphatidylinositol and DMSO were purchased from Sigma-Aldrich (St Louis, MO, USA)."
        }, 
        {
            "frame-id": "sent-PMC2359939-medscan-30", 
            "frame-type": "sentence", 
            "object-type": "frame", 
            "start-pos": {
                "object-type": "absolute-pos", 
                "offset": 30
            }, 
            "text": "ICI 182,780 and Bicalutamide were a generous gift from Zeneca Pharmaceuticals (Macclesfield, UK)."
        }, 
        {
            "frame-id": "sent-PMC2359939-medscan-31", 
            "frame-type": "sentence", 
            "object-type": "frame", 
            "start-pos": {
                "object-type": "absolute-pos", 
                "offset": 31
            }, 
            "text": "The phosphoinositide-3-kinase inhibitor LY294002 was used at 20 \u03bcM and was obtained from Calbiochem (La Jolla, CA, USA)."
        }, 
        {
            "frame-id": "sent-PMC2359939-medscan-32", 
            "frame-type": "sentence", 
            "object-type": "frame", 
            "start-pos": {
                "object-type": "absolute-pos", 
                "offset": 32
            }, 
            "text": "Dulbecco's Modified Eagle Medium and Dulbecco's Modified Eagle Medium : Nutrient mixture F-12 (Ham) (1 : 1) (Dulbecco's Modified Eagle Medium/F-12) were from Invitrogen (Carlsbad, CA, USA)."
        }, 
        {
            "frame-id": "sent-PMC2359939-medscan-33", 
            "frame-type": "sentence", 
            "object-type": "frame", 
            "start-pos": {
                "object-type": "absolute-pos", 
                "offset": 33
            }, 
            "text": "Foetal bovine serum was from BioWhittaker (East Rutherford, NJ, USA) and was heat inactivated before use."
        }, 
        {
            "frame-id": "sent-PMC2359939-medscan-34", 
            "frame-type": "sentence", 
            "object-type": "frame", 
            "start-pos": {
                "object-type": "absolute-pos", 
                "offset": 34
            }, 
            "text": "Protein A/G plus agarose was from Santa Cruz Biotechnology (Santa Cruz, CA, USA)."
        }, 
        {
            "frame-id": "sent-PMC2359939-medscan-35", 
            "frame-type": "sentence", 
            "object-type": "frame", 
            "start-pos": {
                "object-type": "absolute-pos", 
                "offset": 35
            }, 
            "text": "Antibodies used in this study were: PKB/AKT1/2 (559028), phospho-PKB/AKT (550747) and p85-PI3-kinase (610045) from Becton-Dickinson (San Jose, CA, USA), p85-PI3-kinase (06497) from Upstate Biotechnology (Waltham, MA, USA), androgen receptor Ab-1, ER\u03b1 Ab-10 (immunoprecipitation) and ER\u03b1 Ab-16 (immunoblotting) from NeoMarkers (Fremont, CA, USA), \u03b2-actin (A2066) from Sigma-Aldrich and from MP-Biomedicals (Solon, OH, USA) (69100) and GSK-3 (9331) and p-PKB/AKT (4058) from Cell Signaling (Danvers, MA, USA)."
        }, 
        {
            "frame-id": "sent-PMC2359939-medscan-36", 
            "frame-type": "sentence", 
            "object-type": "frame", 
            "start-pos": {
                "object-type": "absolute-pos", 
                "offset": 36
            }, 
            "text": "The antibody against phospho-GSK-3 was a generous gift from Dr Dario Alessi (University of Dundee, UK)."
        }, 
        {
            "frame-id": "sent-PMC2359939-medscan-37", 
            "frame-type": "sentence", 
            "object-type": "frame", 
            "start-pos": {
                "object-type": "absolute-pos", 
                "offset": 37
            }, 
            "text": "The human tumour cell lines used in this study were purchased from the American Type Culture Collection (Manassas, VA, USA)."
        }, 
        {
            "frame-id": "sent-PMC2359939-medscan-38", 
            "frame-type": "sentence", 
            "object-type": "frame", 
            "start-pos": {
                "object-type": "absolute-pos", 
                "offset": 38
            }, 
            "text": "Prostate cancer androgen-sensitive LNCaP and androgen-insensitive PC-3 cell lines were cultured in Dulbecco's Modified Eagle Medium/F-12 supplemented with 10% heat-inactivated Foetal bovine serum, 100 units/ml penicillin G, 100 \u03bcg ml-1 streptomycin and 30 \u03bcg ml-1 amphotericin B."
        }, 
        {
            "frame-id": "sent-PMC2359939-medscan-39", 
            "frame-type": "sentence", 
            "object-type": "frame", 
            "start-pos": {
                "object-type": "absolute-pos", 
                "offset": 39
            }, 
            "text": "Breast cancer cell lines MCF-7 (oestrogen responsive) and MDA-MB-231 (oestrogen unresponsive) were grown in Dulbecco's Modified Eagle Medium supplemented with 10% heat-inactivated Foetal bovine serum, 2 mM L-glutamine, 100 units ml-1 penicillin G, 100 \u03bcg ml-1 streptomycin and 30 \u03bcg ml-1 amphotericin B."
        }, 
        {
            "frame-id": "sent-PMC2359939-medscan-40", 
            "frame-type": "sentence", 
            "object-type": "frame", 
            "start-pos": {
                "object-type": "absolute-pos", 
                "offset": 40
            }, 
            "text": "Treatments with trans-RES (in DMSO) were carried out for 36 h with the addition of fresh RES and culture medium at 24 h."
        }, 
        {
            "frame-id": "sent-PMC2359939-medscan-41", 
            "frame-type": "sentence", 
            "object-type": "frame", 
            "start-pos": {
                "object-type": "absolute-pos", 
                "offset": 41
            }, 
            "text": "In experiments requiring steroid-free conditions, cells were maintained for 5 days in phenol red-free Dulbecco's Modified Eagle Medium : F12 (1 : 1) supplemented with charcoal-stripped 10% Foetal bovine serum."
        }, 
        {
            "frame-id": "sent-PMC2359939-medscan-42", 
            "frame-type": "sentence", 
            "object-type": "frame", 
            "start-pos": {
                "object-type": "absolute-pos", 
                "offset": 42
            }, 
            "text": "Human prostate cancer biopsies were obtained from patients scheduled for radical prostatectomy at the Clinical Hospital of the University of Chile."
        }, 
        {
            "frame-id": "sent-PMC2359939-medscan-43", 
            "frame-type": "sentence", 
            "object-type": "frame", 
            "start-pos": {
                "object-type": "absolute-pos", 
                "offset": 43
            }, 
            "text": "Informed consent was obtained from the patient's guardian and the experimental protocol approved by the ethics committee of the Institution."
        }, 
        {
            "frame-id": "sent-PMC2359939-medscan-44", 
            "frame-type": "sentence", 
            "object-type": "frame", 
            "start-pos": {
                "object-type": "absolute-pos", 
                "offset": 44
            }, 
            "text": "Primary cultures were established and characterised from seven prostate tumours as described ."
        }, 
        {
            "frame-id": "sent-PMC2359939-medscan-45", 
            "frame-type": "sentence", 
            "object-type": "frame", 
            "start-pos": {
                "object-type": "absolute-pos", 
                "offset": 45
            }, 
            "text": "Briefly, small tissue fragments were digested in an enzymatic mixture containing 2.5 mg ml-1 collagenase, 1 mg ml-1 hyaluronidase and 0.01 mg ml-1 deoxyribonuclease for 2-3 h at 37\u00b0C in a shaking water bath."
        }, 
        {
            "frame-id": "sent-PMC2359939-medscan-46", 
            "frame-type": "sentence", 
            "object-type": "frame", 
            "start-pos": {
                "object-type": "absolute-pos", 
                "offset": 46
            }, 
            "text": "The epithelial cell aggregates were washed and further digested in collagenase solution for another 8-12 h under the same conditions."
        }, 
        {
            "frame-id": "sent-PMC2359939-medscan-47", 
            "frame-type": "sentence", 
            "object-type": "frame", 
            "start-pos": {
                "object-type": "absolute-pos", 
                "offset": 47
            }, 
            "text": "The small aggregates of prostate cancer cells obtained at the end of the incubation were mechanically dispersed, washed and seeded in cell culture plates."
        }, 
        {
            "frame-id": "sent-PMC2359939-medscan-48", 
            "frame-type": "sentence", 
            "object-type": "frame", 
            "start-pos": {
                "object-type": "absolute-pos", 
                "offset": 48
            }, 
            "text": "During the first days, culture medium was supplemented with 5% Foetal bovine serum."
        }, 
        {
            "frame-id": "sent-PMC2359939-medscan-49", 
            "frame-type": "sentence", 
            "object-type": "frame", 
            "start-pos": {
                "object-type": "absolute-pos", 
                "offset": 49
            }, 
            "text": "To verify the tumoral phenotype of these primary cells, cultures were stained by immunocytochemistry for the malignant epithelial marker PCTA-1."
        }, 
        {
            "frame-id": "sent-PMC2359939-medscan-50", 
            "frame-type": "sentence", 
            "object-type": "frame", 
            "start-pos": {
                "object-type": "absolute-pos", 
                "offset": 50
            }, 
            "text": "Close to 90% of the cells were positive for PCTA-1, thus revealing their transformed status."
        }, 
        {
            "frame-id": "sent-PMC2359939-medscan-51", 
            "frame-type": "sentence", 
            "object-type": "frame", 
            "start-pos": {
                "object-type": "absolute-pos", 
                "offset": 51
            }, 
            "text": "Detailed description of the isolation, culturing and characterisation of these primary cultures have been published elsewhere ( ; , )."
        }, 
        {
            "frame-id": "sent-PMC2359939-medscan-52", 
            "frame-type": "sentence", 
            "object-type": "frame", 
            "start-pos": {
                "object-type": "absolute-pos", 
                "offset": 52
            }, 
            "text": "Androgen- and oestrogen receptor-associated phosphoinositide-3-kinase activity was determined in androgen receptor and ER\u03b1 immunoprecipitates by measuring the in vitro phosphorylation of L-\u03b1-phosphatidylinositol into L-\u03b1-phosphatidylinositol-3-phosphate as described ."
        }, 
        {
            "frame-id": "sent-PMC2359939-medscan-53", 
            "frame-type": "sentence", 
            "object-type": "frame", 
            "start-pos": {
                "object-type": "absolute-pos", 
                "offset": 53
            }, 
            "text": "LNCaP and PC-3 cells growing in complete or steroids-depleted medium were treated for 36 h with RES and then lysed on ice for 15 min with 500 \u03bcl IP buffer (20 mM Tris-HCl pH 7.4, 50 mM NaCl, 1% Nonidet P-40) containing 10 mM EDTA, 1 mM sodium orthovanadate, 50 mM NaF, 0.5 mM phenyl-methyl sulphonyl fluoride and 4 \u03bcg ml-1 Complete protease inhibitor cocktail (Roche, Nutley, NJ, USA)."
        }, 
        {
            "frame-id": "sent-PMC2359939-medscan-54", 
            "frame-type": "sentence", 
            "object-type": "frame", 
            "start-pos": {
                "object-type": "absolute-pos", 
                "offset": 54
            }, 
            "text": "Lysates were centrifuged at 15 000 g for 15 min at 4\u00b0C."
        }, 
        {
            "frame-id": "sent-PMC2359939-medscan-55", 
            "frame-type": "sentence", 
            "object-type": "frame", 
            "start-pos": {
                "object-type": "absolute-pos", 
                "offset": 55
            }, 
            "text": "Protein concentration was determined in the supernatants using the Coomassie Plus protein assay reagent (Pierce, Rockford, IL, USA) and bovine serum albumin as standard."
        }, 
        {
            "frame-id": "sent-PMC2359939-medscan-56", 
            "frame-type": "sentence", 
            "object-type": "frame", 
            "start-pos": {
                "object-type": "absolute-pos", 
                "offset": 56
            }, 
            "text": "One milligram of protein from freshly prepared extracts was used for each immunoprecipitation."
        }, 
        {
            "frame-id": "sent-PMC2359939-medscan-57", 
            "frame-type": "sentence", 
            "object-type": "frame", 
            "start-pos": {
                "object-type": "absolute-pos", 
                "offset": 57
            }, 
            "text": "androgen receptor and ER\u03b1 were immunoprecipitated overnight at 4\u00b0C with 1 \u03bcg anti-androgen receptor Ab-1 or 1.5 \u03bcg anti-ER\u03b1 Ab-10 antibodies, respectively."
        }, 
        {
            "frame-id": "sent-PMC2359939-medscan-58", 
            "frame-type": "sentence", 
            "object-type": "frame", 
            "start-pos": {
                "object-type": "absolute-pos", 
                "offset": 58
            }, 
            "text": "Next, 25 \u03bcl of protein A/G plus-agarose beads were added and the samples incubated for an additional 1 h at 4\u00b0C."
        }, 
        {
            "frame-id": "sent-PMC2359939-medscan-59", 
            "frame-type": "sentence", 
            "object-type": "frame", 
            "start-pos": {
                "object-type": "absolute-pos", 
                "offset": 59
            }, 
            "text": "Beads were washed twice with each of the following buffers: buffer A (25 mM Tris-HCl pH 7.5, 1% Nonidet P-40, 0.1 mM sodium orthovanadate); buffer B (100 mM Tris-HCl pH 7.5, 0.1 mM sodium orthovanadate, 1 mM EDTA, 0.5 M LiCl); buffer C (25 mM Tris-HCl pH 7.5, 150 mM NaCl, 1 mM EDTA)."
        }, 
        {
            "frame-id": "sent-PMC2359939-medscan-60", 
            "frame-type": "sentence", 
            "object-type": "frame", 
            "start-pos": {
                "object-type": "absolute-pos", 
                "offset": 60
            }, 
            "text": "To measure androgen receptor- or ER\u03b1-associated phosphoinositide-3-kinase activity, 30 \u03bcg L-\u03b1-phosphatidylinositol (reconstituted and sonicated in 25 mM HEPES pH 7.5, 1 mM EDTA) were pre-incubated with the beads for 15 min at 4\u00b0C."
        }, 
        {
            "frame-id": "sent-PMC2359939-medscan-61", 
            "frame-type": "sentence", 
            "object-type": "frame", 
            "start-pos": {
                "object-type": "absolute-pos", 
                "offset": 61
            }, 
            "text": "Enzymatic reactions were performed at room temperature for 30 min in 15 mM HEPES pH 7.6, 10 mM MgCl2, 0.5 mM EGTA, 40 \u03bcM nonlabelled ATP and 10 \u03bcCi [32P]-\u03b3ATP (sp. act., 6000 Ci mmol-1)."
        }, 
        {
            "frame-id": "sent-PMC2359939-medscan-62", 
            "frame-type": "sentence", 
            "object-type": "frame", 
            "start-pos": {
                "object-type": "absolute-pos", 
                "offset": 62
            }, 
            "text": "Proteins were then denatured by adding 400 \u03bcl of a chloroform-methanol solution (1 : 2) in 1% HCl, plus 125 \u03bcl chloroform and 125 \u03bcl 10 mM HCl."
        }, 
        {
            "frame-id": "sent-PMC2359939-medscan-63", 
            "frame-type": "sentence", 
            "object-type": "frame", 
            "start-pos": {
                "object-type": "absolute-pos", 
                "offset": 63
            }, 
            "text": "Samples were centrifuged and the organic phase washed once with 500 \u03bcl of methanol : 100 mM HCl (1 : 1) plus 2 mM EDTA."
        }, 
        {
            "frame-id": "sent-PMC2359939-medscan-64", 
            "frame-type": "sentence", 
            "object-type": "frame", 
            "start-pos": {
                "object-type": "absolute-pos", 
                "offset": 64
            }, 
            "text": "The organic phase was recovered, dried under nitrogen and resuspended in 30 \u03bcl chloroform."
        }, 
        {
            "frame-id": "sent-PMC2359939-medscan-65", 
            "frame-type": "sentence", 
            "object-type": "frame", 
            "start-pos": {
                "object-type": "absolute-pos", 
                "offset": 65
            }, 
            "text": "Phosphorylated lipids were resolved by thin layer chromatography using 60F254 silicagel plates (Merck, Whitehouse Station, NJ, USA) and a solution composed of chloroform : methanol : ammonia : water (120 : 94 : 4 : 23.2) as mobile phase."
        }, 
        {
            "frame-id": "sent-PMC2359939-medscan-66", 
            "frame-type": "sentence", 
            "object-type": "frame", 
            "start-pos": {
                "object-type": "absolute-pos", 
                "offset": 66
            }, 
            "text": "thin layer chromatography plates were exposed in a Molecular Imager FX system (Bio-Rad Labs, Hercules, CA, USA) and analysed using the Quantity One software (Bio-Rad Labs)."
        }, 
        {
            "frame-id": "sent-PMC2359939-medscan-67", 
            "frame-type": "sentence", 
            "object-type": "frame", 
            "start-pos": {
                "object-type": "absolute-pos", 
                "offset": 67
            }, 
            "text": "To determine the interaction between androgen receptor and ER\u03b1 with phosphoinositide-3-kinase, proteins immunoprecipitated by the Ab-1 or Ab-16 antibodies were analysed by SDS-PAGE and Western immunobloting using a p85/phosphoinositide-3-kinase-specific antibody."
        }, 
        {
            "frame-id": "sent-PMC2359939-medscan-68", 
            "frame-type": "sentence", 
            "object-type": "frame", 
            "start-pos": {
                "object-type": "absolute-pos", 
                "offset": 68
            }, 
            "text": "g."
        }, 
        {
            "frame-id": "sent-PMC2359939-medscan-69", 
            "frame-type": "sentence", 
            "object-type": "frame", 
            "start-pos": {
                "object-type": "absolute-pos", 
                "offset": 69
            }, 
            "text": "ER\u03b1) and phosphoinositide-3-kinase presumably takes place through p85 , we first determined if RES treatment could decrease protein levels for p85/phosphoinositide-3-kinase, androgen receptor and ER\u03b1."
        }, 
        {
            "frame-id": "sent-PMC2359939-medscan-70", 
            "frame-type": "sentence", 
            "object-type": "frame", 
            "start-pos": {
                "object-type": "absolute-pos", 
                "offset": 70
            }, 
            "text": "Concentrations of RES up to 150 \u03bcM did not significantly decrease endogenous p85 protein in androgen-responsive LNCaP or in androgen-insensitive PC-3 cells ."
        }, 
        {
            "frame-id": "sent-PMC2359939-medscan-71", 
            "frame-type": "sentence", 
            "object-type": "frame", 
            "start-pos": {
                "object-type": "absolute-pos", 
                "offset": 71
            }, 
            "text": "Regarding androgen receptor status in LNCaP, RES treatment induced a concentration-dependent decrease in receptor levels that was more pronounced at the highest concentration used of 150 \u03bcM ."
        }, 
        {
            "frame-id": "sent-PMC2359939-medscan-72", 
            "frame-type": "sentence", 
            "object-type": "frame", 
            "start-pos": {
                "object-type": "absolute-pos", 
                "offset": 72
            }, 
            "text": "In PC-3, an androgen-insensitive prostate cancer cell line not expressing androgen receptor but having ER\u03b1 , RES treatment also produced a concentration-dependent reduction in ER\u03b1 with a maximum effect at 100-150 \u03bcM ."
        }, 
        {
            "frame-id": "sent-PMC2359939-medscan-73", 
            "frame-type": "sentence", 
            "object-type": "frame", 
            "start-pos": {
                "object-type": "absolute-pos", 
                "offset": 73
            }, 
            "text": "Thus, in our experimental conditions, RES did not significantly influence p85 but decreased the cellular levels of androgen receptor and ER\u03b1, an effect that could alter their likely interaction with the phosphoinositide-3-kinase enzyme."
        }, 
        {
            "frame-id": "sent-PMC2359939-medscan-74", 
            "frame-type": "sentence", 
            "object-type": "frame", 
            "start-pos": {
                "object-type": "absolute-pos", 
                "offset": 74
            }, 
            "text": "It was shown that the cytosolic ER\u03b1 interacted with phosphoinositide-3-kinase in cancer cells ."
        }, 
        {
            "frame-id": "sent-PMC2359939-medscan-75", 
            "frame-type": "sentence", 
            "object-type": "frame", 
            "start-pos": {
                "object-type": "absolute-pos", 
                "offset": 75
            }, 
            "text": "To determine if a similar mechanism was taking place in LNCaP and PC-3 prostate cancer cells, co-immunoprecipitation experiments were performed using specific antibodies for androgen receptor and ER\u03b1 ."
        }, 
        {
            "frame-id": "sent-PMC2359939-medscan-76", 
            "frame-type": "sentence", 
            "object-type": "frame", 
            "start-pos": {
                "object-type": "absolute-pos", 
                "offset": 76
            }, 
            "text": "In the absence of RES (basal cell conditions), the androgen receptor antibody was able to immunoprecipitate p85 in LNCaP ( , lower blot, lane 1 and graph) and the ER\u03b1 antibody to immunoprecipitate this kinase in PC-3 ( , lower blot, lane 1 and graph)."
        }, 
        {
            "frame-id": "sent-PMC2359939-medscan-77", 
            "frame-type": "sentence", 
            "object-type": "frame", 
            "start-pos": {
                "object-type": "absolute-pos", 
                "offset": 77
            }, 
            "text": "The androgen receptor-p85 complexes were specific, as they were not recovered in androgen receptor-negative PC-3 cells ( , lower panel, lane 8)."
        }, 
        {
            "frame-id": "sent-PMC2359939-medscan-78", 
            "frame-type": "sentence", 
            "object-type": "frame", 
            "start-pos": {
                "object-type": "absolute-pos", 
                "offset": 78
            }, 
            "text": "Similarly, the ER\u03b1-p85 complexes found in PC-3 were specific, as they could be observed in ER\u03b1-positive MCF-7 but not in ER\u03b1-negative MDA-MB-231 breast tumour cells ( , lower blot, lanes 8 and 10, respectively)."
        }, 
        {
            "frame-id": "sent-PMC2359939-medscan-79", 
            "frame-type": "sentence", 
            "object-type": "frame", 
            "start-pos": {
                "object-type": "absolute-pos", 
                "offset": 79
            }, 
            "text": "Reasonably, the levels of p85 bound to androgen receptor in LNCaP ( , lower blot, compare lanes 1, 7 and 9) or to ER\u03b1 in PC-3 cells ( , lower blot, compare lanes 1, 7, 9 and 11) were significantly lower than the total cellular content of p85, indicating that only an small fraction of kinase was interacting with these steroid receptors."
        }, 
        {
            "frame-id": "sent-PMC2359939-medscan-80", 
            "frame-type": "sentence", 
            "object-type": "frame", 
            "start-pos": {
                "object-type": "absolute-pos", 
                "offset": 80
            }, 
            "text": "Interestingly, treatment with RES up to 150 \u03bcM did not significantly affect p85 interaction with androgen receptor in LNCaP or with ER\u03b1 in PC-3 cells ( , lower blots, lanes 1-6), suggesting that the decrease in androgen receptor and ER\u03b1 protein levels at high concentrations of RES  was not a limiting factor in the formation of complexes between these steroid receptors and phosphoinositide-3-kinase."
        }, 
        {
            "frame-id": "sent-PMC2359939-medscan-81", 
            "frame-type": "sentence", 
            "object-type": "frame", 
            "start-pos": {
                "object-type": "absolute-pos", 
                "offset": 81
            }, 
            "text": "Previous studies have shown that ER\u03b1 activation increased phosphoinositide-3-kinase signalling in endothelial cells  and that RES has oestrogenic and anti-oestrogenic activities ( ; ; ; ) that could help explain its effects on the ER\u03b1-associated phosphoinositide-3-kinase activity in MCF-7 breast tumour cells ."
        }, 
        {
            "frame-id": "sent-PMC2359939-medscan-82", 
            "frame-type": "sentence", 
            "object-type": "frame", 
            "start-pos": {
                "object-type": "absolute-pos", 
                "offset": 82
            }, 
            "text": "Based on these results, and as p85/phosphoinositide-3-kinase interacted with androgen receptor and ER\u03b1 in LNCaP and PC-3 cells, we have analysed if this phytoalexin could inhibit the phosphoinositide-3-kinase activity associated to these receptors."
        }, 
        {
            "frame-id": "sent-PMC2359939-medscan-83", 
            "frame-type": "sentence", 
            "object-type": "frame", 
            "start-pos": {
                "object-type": "absolute-pos", 
                "offset": 83
            }, 
            "text": "In basal LNCaP, phosphoinositide-3-kinase activity could be detected in androgen receptor immunoprecipitates ( , control), indicating that this pathway was active under normal culture conditions."
        }, 
        {
            "frame-id": "sent-PMC2359939-medscan-84", 
            "frame-type": "sentence", 
            "object-type": "frame", 
            "start-pos": {
                "object-type": "absolute-pos", 
                "offset": 84
            }, 
            "text": "This kinase activity was dependent not only on the interaction between androgen receptor and phosphoinositide-3-kinase but also on the activity of the receptor, as it could be increased by treatment with the androgen receptor ligand dihydrotestosterone and decreased below basal levels by co-treatment with dihydrotestosterone plus the antagonist Bicalutamide ( , Bicalutamide+dihydrotestosterone)."
        }, 
        {
            "frame-id": "sent-PMC2359939-medscan-85", 
            "frame-type": "sentence", 
            "object-type": "frame", 
            "start-pos": {
                "object-type": "absolute-pos", 
                "offset": 85
            }, 
            "text": "Further, treatment with 150 \u03bcM RES for 30 min induced a reproducible decrease in androgen receptor-associated phosphoinositide-3-kinase activity ( , RES)."
        }, 
        {
            "frame-id": "sent-PMC2359939-medscan-86", 
            "frame-type": "sentence", 
            "object-type": "frame", 
            "start-pos": {
                "object-type": "absolute-pos", 
                "offset": 86
            }, 
            "text": "We then determined the effect of increasing concentrations of RES for 36 h on the androgen receptor-dependent phosphoinositide-3-kinase activity in LNCaP cells growing in steroids-depleted medium."
        }, 
        {
            "frame-id": "sent-PMC2359939-medscan-87", 
            "frame-type": "sentence", 
            "object-type": "frame", 
            "start-pos": {
                "object-type": "absolute-pos", 
                "offset": 87
            }, 
            "text": "RES induced a concentration-dependent inhibition of phosphoinositide-3-kinase activity that reached very low levels at 150 \u03bcM ."
        }, 
        {
            "frame-id": "sent-PMC2359939-medscan-88", 
            "frame-type": "sentence", 
            "object-type": "frame", 
            "start-pos": {
                "object-type": "absolute-pos", 
                "offset": 88
            }, 
            "text": "This kinase activity was produced by phosphoinositide-3-kinase, as it could be blocked by its specific antagonist LY294002 ( , LY)."
        }, 
        {
            "frame-id": "sent-PMC2359939-medscan-89", 
            "frame-type": "sentence", 
            "object-type": "frame", 
            "start-pos": {
                "object-type": "absolute-pos", 
                "offset": 89
            }, 
            "text": "A similar titration curve was obtained in LNCaP cells cultured in complete medium , suggesting that Foetal bovine serum components did not significantly affect the androgen receptor-associated phosphoinositide-3-kinase activity."
        }, 
        {
            "frame-id": "sent-PMC2359939-medscan-90", 
            "frame-type": "sentence", 
            "object-type": "frame", 
            "start-pos": {
                "object-type": "absolute-pos", 
                "offset": 90
            }, 
            "text": "Androgen-insensitive PC-3 cells, as expected, had only a residual level of androgen receptor-dependent phosphoinositide-3-kinase activity ( , PC3)."
        }, 
        {
            "frame-id": "sent-PMC2359939-medscan-91", 
            "frame-type": "sentence", 
            "object-type": "frame", 
            "start-pos": {
                "object-type": "absolute-pos", 
                "offset": 91
            }, 
            "text": "With respect to ER\u03b1-expressing PC-3 cells , a constitutive level of phosphoinositide-3-kinase activity was detected in ER\u03b1 immunoprecipitates, indicating that oestrogens could regulate the phosphoinositide-3-kinase pathway in androgen-insensitive prostate tumour cells ( , control)."
        }, 
        {
            "frame-id": "sent-PMC2359939-medscan-92", 
            "frame-type": "sentence", 
            "object-type": "frame", 
            "start-pos": {
                "object-type": "absolute-pos", 
                "offset": 92
            }, 
            "text": "In agreement, the specific ER\u03b1 antagonist ICI 182,780 blocked such induction ( , ICI)."
        }, 
        {
            "frame-id": "sent-PMC2359939-medscan-93", 
            "frame-type": "sentence", 
            "object-type": "frame", 
            "start-pos": {
                "object-type": "absolute-pos", 
                "offset": 93
            }, 
            "text": "Treatment with 150 \u03bcM RES for 30 min also inhibited the ER\u03b1-associated phosphoinositide-3-kinase activity ( , RES), suggesting that this chemopreventive molecule had anti-oestrogenic activity in PC-3 cells."
        }, 
        {
            "frame-id": "sent-PMC2359939-medscan-94", 
            "frame-type": "sentence", 
            "object-type": "frame", 
            "start-pos": {
                "object-type": "absolute-pos", 
                "offset": 94
            }, 
            "text": "In addition, RES treatment for 36 h produced a concentration-dependent inhibition of the ER\u03b1-dependent phosphoinositide-3-kinase activity in steroids-depleted medium ."
        }, 
        {
            "frame-id": "sent-PMC2359939-medscan-95", 
            "frame-type": "sentence", 
            "object-type": "frame", 
            "start-pos": {
                "object-type": "absolute-pos", 
                "offset": 95
            }, 
            "text": "This kinase activity was due to phosphoinositide-3-kinase, as it was markedly inhibited by its specific antagonist LY294002 and ER\u03b1-dependent, because it was present in ER\u03b1-positive MCF-7 but not in ER\u03b1-negative MDA-MB-231 breast cancer cells ."
        }, 
        {
            "frame-id": "sent-PMC2359939-medscan-96", 
            "frame-type": "sentence", 
            "object-type": "frame", 
            "start-pos": {
                "object-type": "absolute-pos", 
                "offset": 96
            }, 
            "text": "In complete medium, RES treatment also inhibited the ER\u03b1-dependent phosphoinositide-3-kinase activity in a concentration-dependent manner ."
        }, 
        {
            "frame-id": "sent-PMC2359939-medscan-97", 
            "frame-type": "sentence", 
            "object-type": "frame", 
            "start-pos": {
                "object-type": "absolute-pos", 
                "offset": 97
            }, 
            "text": "Thus, LNCaP and PC-3 cells had an endogenous steroid receptor-dependent phosphoinositide-3-kinase activity that could be modulated by RES through inhibition of androgen receptor and ER\u03b1 receptors."
        }, 
        {
            "frame-id": "sent-PMC2359939-medscan-98", 
            "frame-type": "sentence", 
            "object-type": "frame", 
            "start-pos": {
                "object-type": "absolute-pos", 
                "offset": 98
            }, 
            "text": "One of best-characterised downstream targets of phosphoinositide-3-kinase is PKB/AKT, which becomes activated by PDK1-dependent phosphorylation ."
        }, 
        {
            "frame-id": "sent-PMC2359939-medscan-99", 
            "frame-type": "sentence", 
            "object-type": "frame", 
            "start-pos": {
                "object-type": "absolute-pos", 
                "offset": 99
            }, 
            "text": "Therefore, we next analysed if RES, through modulation of phosphoinositide-3-kinase, could affect PKB/AKT and GSK-3 phosphorylation and cyclin D1 levels."
        }, 
        {
            "frame-id": "sent-PMC2359939-medscan-100", 
            "frame-type": "sentence", 
            "object-type": "frame", 
            "start-pos": {
                "object-type": "absolute-pos", 
                "offset": 100
            }, 
            "text": "After normalisation by total PKB/AKT protein, it was found that RES significantly decreased PKB/AKT phosphorylation in LNCaP cells, particularly at concentrations above 100 \u03bcM ; in PC-3 cells, although PKB/AKT phosphorylation was also reduced, the effect was less pronounced ."
        }, 
        {
            "frame-id": "sent-PMC2359939-medscan-101", 
            "frame-type": "sentence", 
            "object-type": "frame", 
            "start-pos": {
                "object-type": "absolute-pos", 
                "offset": 101
            }, 
            "text": "Thus, inhibition of phosphoinositide-3-kinase activity by RES resulted in a concentration-dependent decrease in PKB/AKT phosphorylation."
        }, 
        {
            "frame-id": "sent-PMC2359939-medscan-102", 
            "frame-type": "sentence", 
            "object-type": "frame", 
            "start-pos": {
                "object-type": "absolute-pos", 
                "offset": 102
            }, 
            "text": "Among the known targets of PKB/AKT, GSK-3 is a relevant signalling molecule controlling the level of cell cycle regulatory proteins."
        }, 
        {
            "frame-id": "sent-PMC2359939-medscan-103", 
            "frame-type": "sentence", 
            "object-type": "frame", 
            "start-pos": {
                "object-type": "absolute-pos", 
                "offset": 103
            }, 
            "text": "In agreement with the lower levels of PKB/AKT activation, RES also decreased GSK-3 phosphorylation in both LNCaP  and PC-3 cells ."
        }, 
        {
            "frame-id": "sent-PMC2359939-medscan-104", 
            "frame-type": "sentence", 
            "object-type": "frame", 
            "start-pos": {
                "object-type": "absolute-pos", 
                "offset": 104
            }, 
            "text": "As GSK-3 becomes inactivated by phosphorylation, these results indicated that RES progressively turned GSK-3 to an activated (dephosphorylated) state."
        }, 
        {
            "frame-id": "sent-PMC2359939-medscan-105", 
            "frame-type": "sentence", 
            "object-type": "frame", 
            "start-pos": {
                "object-type": "absolute-pos", 
                "offset": 105
            }, 
            "text": "Again, this effect was apparently more pronounced in LNCaP than in PC-3 cells ."
        }, 
        {
            "frame-id": "sent-PMC2359939-medscan-106", 
            "frame-type": "sentence", 
            "object-type": "frame", 
            "start-pos": {
                "object-type": "absolute-pos", 
                "offset": 106
            }, 
            "text": "Endogenous cyclin D1 levels are controlled by GSK-3 through a mechanism by which the active kinase phosphorylates and targets cyclin D1 for proteasomal degradation."
        }, 
        {
            "frame-id": "sent-PMC2359939-medscan-107", 
            "frame-type": "sentence", 
            "object-type": "frame", 
            "start-pos": {
                "object-type": "absolute-pos", 
                "offset": 107
            }, 
            "text": "In agreement with increased GSK-3 activity, cyclin D1 protein content was reduced by RES in a concentration-dependent manner, and more strongly in LNCaP  than in PC-3 cells ."
        }, 
        {
            "frame-id": "sent-PMC2359939-medscan-108", 
            "frame-type": "sentence", 
            "object-type": "frame", 
            "start-pos": {
                "object-type": "absolute-pos", 
                "offset": 108
            }, 
            "text": "These data strongly suggest that RES inhibited the androgen receptor- and ER\u03b1-associated phosphoinositide-3-kinase activities in LNCaP and PC-3 cells and that they resulted in lower PKB/AKT activity, increased GSK-3 activation and decreased cyclin D1 protein levels."
        }, 
        {
            "frame-id": "sent-PMC2359939-medscan-109", 
            "frame-type": "sentence", 
            "object-type": "frame", 
            "start-pos": {
                "object-type": "absolute-pos", 
                "offset": 109
            }, 
            "text": "To confirm and to further validate the results obtained in human prostate tumour cell lines LNCaP and PC-3, we have also determined the effect of RES on PKB/AKT phosphorylation in primary cultures from human prostate tumours."
        }, 
        {
            "frame-id": "sent-PMC2359939-medscan-110", 
            "frame-type": "sentence", 
            "object-type": "frame", 
            "start-pos": {
                "object-type": "absolute-pos", 
                "offset": 110
            }, 
            "text": "The transformed phenotype of these cultures was confirmed by immunocytochemistry for the marker PCTA-1 as described ( ; , )."
        }, 
        {
            "frame-id": "sent-PMC2359939-medscan-111", 
            "frame-type": "sentence", 
            "object-type": "frame", 
            "start-pos": {
                "object-type": "absolute-pos", 
                "offset": 111
            }, 
            "text": "PKB/AKT was used as a reporter in the signalling pathway, as its degree of phosphorylation reflects the level of phosphoinositide-3-kinase activity."
        }, 
        {
            "frame-id": "sent-PMC2359939-medscan-112", 
            "frame-type": "sentence", 
            "object-type": "frame", 
            "start-pos": {
                "object-type": "absolute-pos", 
                "offset": 112
            }, 
            "text": "RES did not significantly affect p85/phosphoinositide-3-kinase protein levels  in prostate tumour cells growing in primary culture, as previously observed for the cell lines analysed (see )."
        }, 
        {
            "frame-id": "sent-PMC2359939-medscan-113", 
            "frame-type": "sentence", 
            "object-type": "frame", 
            "start-pos": {
                "object-type": "absolute-pos", 
                "offset": 113
            }, 
            "text": "In primary cultures of prostate tumour cells, RES induced a concentration-dependent decrease in PKB/AKT phosphorylation that closely resembled that found in LNCaP and PC-3 cell lines ."
        }, 
        {
            "frame-id": "sent-PMC2359939-medscan-114", 
            "frame-type": "sentence", 
            "object-type": "frame", 
            "start-pos": {
                "object-type": "absolute-pos", 
                "offset": 114
            }, 
            "text": "Interestingly, a large degree of inhibition was observed at 100 \u03bcM RES, indicating that these primary cells were very sensitive to this phytoalexin."
        }, 
        {
            "frame-id": "sent-PMC2359939-medscan-115", 
            "frame-type": "sentence", 
            "object-type": "frame", 
            "start-pos": {
                "object-type": "absolute-pos", 
                "offset": 115
            }, 
            "text": "Among the many different chemopreventive natural compounds identified to date, RES has been, and actually is, the focus of intense investigation."
        }, 
        {
            "frame-id": "sent-PMC2359939-medscan-116", 
            "frame-type": "sentence", 
            "object-type": "frame", 
            "start-pos": {
                "object-type": "absolute-pos", 
                "offset": 116
            }, 
            "text": "Its ability to inhibit growth and to induce apoptotic cell death in a large series of tumour cells, its potential to be easily included in the diet, and its activity as co-adjuvant for some chemotherapeutic molecules, make RES a good candidate for chemoprevention and chemotherapy of human cancer."
        }, 
        {
            "frame-id": "sent-PMC2359939-medscan-117", 
            "frame-type": "sentence", 
            "object-type": "frame", 
            "start-pos": {
                "object-type": "absolute-pos", 
                "offset": 117
            }, 
            "text": "Prostate cancer is a form of this disease with one of the highest prevalence and mortality in the population, having a poor prognosis once it becomes refractory to chemotherapy and/or metastatic."
        }, 
        {
            "frame-id": "sent-PMC2359939-medscan-118", 
            "frame-type": "sentence", 
            "object-type": "frame", 
            "start-pos": {
                "object-type": "absolute-pos", 
                "offset": 118
            }, 
            "text": "A relevant additional factor that contributes to the progression of prostate cancer and that limits treatment efficacy is the ability of tumour cells to change from a hormone-responsive to a hormone-unresponsive phenotype."
        }, 
        {
            "frame-id": "sent-PMC2359939-medscan-119", 
            "frame-type": "sentence", 
            "object-type": "frame", 
            "start-pos": {
                "object-type": "absolute-pos", 
                "offset": 119
            }, 
            "text": "In this context, the fact that RES has anti-oestrogenic activity in hormone-responsive tumour cells ( ; ; ; ) opens the possibility for this molecule to be useful in prostate cancer."
        }, 
        {
            "frame-id": "sent-PMC2359939-medscan-120", 
            "frame-type": "sentence", 
            "object-type": "frame", 
            "start-pos": {
                "object-type": "absolute-pos", 
                "offset": 120
            }, 
            "text": "Indeed, different laboratories have reported antiproliferative activity of RES in hormone-responsive LNCaP ( ; ; ) and hormone-unresponsive PC-3 and DU-145 prostate cells , albeit the former was more sensitive than the latter to cell death."
        }, 
        {
            "frame-id": "sent-PMC2359939-medscan-121", 
            "frame-type": "sentence", 
            "object-type": "frame", 
            "start-pos": {
                "object-type": "absolute-pos", 
                "offset": 121
            }, 
            "text": "This different potency of RES in prostate tumour cells could be related to downregulation of the expression and function of the androgen receptor in androgen-responsive LNCaP cells ."
        }, 
        {
            "frame-id": "sent-PMC2359939-medscan-122", 
            "frame-type": "sentence", 
            "object-type": "frame", 
            "start-pos": {
                "object-type": "absolute-pos", 
                "offset": 122
            }, 
            "text": "Our data also support this different sensitivity of prostate tumour cells to RES, as the higher degree of cell death found in LNCaP with respect to PC-3  appears to correlate with a higher inhibition of phosphoinositide-3-kinase activity in the former."
        }, 
        {
            "frame-id": "sent-PMC2359939-medscan-123", 
            "frame-type": "sentence", 
            "object-type": "frame", 
            "start-pos": {
                "object-type": "absolute-pos", 
                "offset": 123
            }, 
            "text": "Non-nuclear functions have been described for steroid hormone receptors that emphasise their relevance in signalling pathways controlling proliferation and survival."
        }, 
        {
            "frame-id": "sent-PMC2359939-medscan-124", 
            "frame-type": "sentence", 
            "object-type": "frame", 
            "start-pos": {
                "object-type": "absolute-pos", 
                "offset": 124
            }, 
            "text": "In this context, androgens activated the phosphoinositide-3-kinase pathway by inducing the interaction of androgen receptor with p85 , in a similar manner to that observed for the oestrogen-dependent activation of phosphoinositide-3-kinase through ER\u03b1 in endothelial cells ."
        }, 
        {
            "frame-id": "sent-PMC2359939-medscan-125", 
            "frame-type": "sentence", 
            "object-type": "frame", 
            "start-pos": {
                "object-type": "absolute-pos", 
                "offset": 125
            }, 
            "text": "RES regulates the interaction between steroid hormone receptors and phosphoinositide-3-kinase because concentrations of this molecule inducing apoptosis in MCF-7 also inhibited the ER\u03b1-dependent phosphoinositide-3-kinase pathway , and a recent report has shown that RES inhibited PKB/AKT phosphorylation in LNCaP cells ."
        }, 
        {
            "frame-id": "sent-PMC2359939-medscan-126", 
            "frame-type": "sentence", 
            "object-type": "frame", 
            "start-pos": {
                "object-type": "absolute-pos", 
                "offset": 126
            }, 
            "text": "In our experimental conditions, RES did not significantly affect protein levels of p85/phosphoinositide-3-kinase in LNCaP or PC-3 cells, in contrast to a recent report showing a 40-50% reduction in p85 protein in LNCaP ."
        }, 
        {
            "frame-id": "sent-PMC2359939-medscan-127", 
            "frame-type": "sentence", 
            "object-type": "frame", 
            "start-pos": {
                "object-type": "absolute-pos", 
                "offset": 127
            }, 
            "text": "However, RES inhibited androgen receptor and ER\u03b1 expression in LNCaP and PC-3 cells, respectively."
        }, 
        {
            "frame-id": "sent-PMC2359939-medscan-128", 
            "frame-type": "sentence", 
            "object-type": "frame", 
            "start-pos": {
                "object-type": "absolute-pos", 
                "offset": 128
            }, 
            "text": "The antiproliferative activity of RES in these cell lines , if mediated through phosphoinositide-3-kinase, would most probably produce a specific inhibition of the steroid receptor-associated phosphoinositide-3-kinase (owing to the anti-oestrogenic potential of this molecule) than a global downregulation of cellular phosphoinositide-3-kinase activity."
        }, 
        {
            "frame-id": "sent-PMC2359939-medscan-129", 
            "frame-type": "sentence", 
            "object-type": "frame", 
            "start-pos": {
                "object-type": "absolute-pos", 
                "offset": 129
            }, 
            "text": "Regardless the decrease in p85 expression, coimmunoprecipitation experiments revealed that none of the concentrations of RES used compromised androgen receptor- or ER\u03b1 interaction with p85 in LNCaP or PC-3, indicating that inhibition of the steroid-receptor-dependent phosphoinositide-3-kinase activity by RES was not due to changes in androgen receptor, ER\u03b1 or p85 levels."
        }, 
        {
            "frame-id": "sent-PMC2359939-medscan-130", 
            "frame-type": "sentence", 
            "object-type": "frame", 
            "start-pos": {
                "object-type": "absolute-pos", 
                "offset": 130
            }, 
            "text": "In agreement, previous data showed that although RES decreased ER\u03b1 protein levels in MCF-7, it did not affect the interaction between this receptor and p85/phosphoinositide-3-kinase ."
        }, 
        {
            "frame-id": "sent-PMC2359939-medscan-131", 
            "frame-type": "sentence", 
            "object-type": "frame", 
            "start-pos": {
                "object-type": "absolute-pos", 
                "offset": 131
            }, 
            "text": "androgen receptor- and ER\u03b1-dependent phosphoinositide-3-kinase activities were strongly inhibited by RES in LNCaP and PC-3 cells in a concentration dependent-manner in both, steroid-containing and steroid-depleted medium."
        }, 
        {
            "frame-id": "sent-PMC2359939-medscan-132", 
            "frame-type": "sentence", 
            "object-type": "frame", 
            "start-pos": {
                "object-type": "absolute-pos", 
                "offset": 132
            }, 
            "text": "As the interaction between androgen receptor and ER\u03b1 with p85/phosphoinositide-3-kinase was not affected by RES, the inhibition of phosphoinositide-3-kinase in LNCaP and PC-3 was probably due to the anti-oestrogenic activity of this phytoalexin on both steroid receptors."
        }, 
        {
            "frame-id": "sent-PMC2359939-medscan-133", 
            "frame-type": "sentence", 
            "object-type": "frame", 
            "start-pos": {
                "object-type": "absolute-pos", 
                "offset": 133
            }, 
            "text": "It is interesting to note that short-term treatment (30 min) with high concentrations of RES significantly inhibited phosphoinositide-3-kinase activity in LNCaP and PC-3 cells."
        }, 
        {
            "frame-id": "sent-PMC2359939-medscan-134", 
            "frame-type": "sentence", 
            "object-type": "frame", 
            "start-pos": {
                "object-type": "absolute-pos", 
                "offset": 134
            }, 
            "text": "Although in these conditions RES did not induce a significant degree of cell death in either cell line (D Benitez, unpublished observations), it could be possible that the inhibition of phosphoinositide-3-kinase is an early step in the mechanism for apoptosis induction by RES in steroid-dependent tumour cells."
        }, 
        {
            "frame-id": "sent-PMC2359939-medscan-135", 
            "frame-type": "sentence", 
            "object-type": "frame", 
            "start-pos": {
                "object-type": "absolute-pos", 
                "offset": 135
            }, 
            "text": "Thus, the question remains of whether a maintained inhibition of steroid receptor-associated phosphoinositide-3-kinase activity is required for RES-induced cell death or if, once triggered, apoptosis proceeds irreversibly in the absence of RES."
        }, 
        {
            "frame-id": "sent-PMC2359939-medscan-136", 
            "frame-type": "sentence", 
            "object-type": "frame", 
            "start-pos": {
                "object-type": "absolute-pos", 
                "offset": 136
            }, 
            "text": "A major target of phosphoinositide-3-kinase is PKB/AKT, which signals to downstream proteins such as GSK-3 ."
        }, 
        {
            "frame-id": "sent-PMC2359939-medscan-137", 
            "frame-type": "sentence", 
            "object-type": "frame", 
            "start-pos": {
                "object-type": "absolute-pos", 
                "offset": 137
            }, 
            "text": "Consistent with the inhibition of phosphoinositide-3-kinase activity by RES, PKB/AKT was inhibited, whereas GSK-3 was activated in a concentration-dependent manner in both LNCaP and PC-3."
        }, 
        {
            "frame-id": "sent-PMC2359939-medscan-138", 
            "frame-type": "sentence", 
            "object-type": "frame", 
            "start-pos": {
                "object-type": "absolute-pos", 
                "offset": 138
            }, 
            "text": "It is known that an increase in GSK-3 activity induces blockade of the cell cycle by promoting the degradation of G1/S regulators such as cyclin D1 ."
        }, 
        {
            "frame-id": "sent-PMC2359939-medscan-139", 
            "frame-type": "sentence", 
            "object-type": "frame", 
            "start-pos": {
                "object-type": "absolute-pos", 
                "offset": 139
            }, 
            "text": "Indeed, RES decreased cyclin D1 levels in either cell line, a result consistent with the ability of this phytoalexin to block DNA synthesis and to inhibit not only entry into S phase  but also cell proliferation ."
        }, 
        {
            "frame-id": "sent-PMC2359939-medscan-140", 
            "frame-type": "sentence", 
            "object-type": "frame", 
            "start-pos": {
                "object-type": "absolute-pos", 
                "offset": 140
            }, 
            "text": "Interestingly, the effects of RES on PKB/AKT, GSK-3 and cyclin D1 were more pronounced in LNCaP than in PC-3, again suggesting that this molecule, although able to antagonise androgen receptor and ER\u03b1 steroid receptors, could have a differential effectiveness on each one of them."
        }, 
        {
            "frame-id": "sent-PMC2359939-medscan-141", 
            "frame-type": "sentence", 
            "object-type": "frame", 
            "start-pos": {
                "object-type": "absolute-pos", 
                "offset": 141
            }, 
            "text": "Previous studies have also shown that RES inhibited more strongly cell growth and proliferation in LNCaP than in PC-3 ."
        }, 
        {
            "frame-id": "sent-PMC2359939-medscan-142", 
            "frame-type": "sentence", 
            "object-type": "frame", 
            "start-pos": {
                "object-type": "absolute-pos", 
                "offset": 142
            }, 
            "text": "Further, inhibition of the phosphoinositide-3-kinase signalling pathway by RES, at concentrations inducing apoptosis and through an ER\u03b1-dependent mechanism, has been also reported in MCF-7 tumour cells ."
        }, 
        {
            "frame-id": "sent-PMC2359939-medscan-143", 
            "frame-type": "sentence", 
            "object-type": "frame", 
            "start-pos": {
                "object-type": "absolute-pos", 
                "offset": 143
            }, 
            "text": "A relevant aspect of our study is the analysis of primary cultures established from human prostate tumours biopsies."
        }, 
        {
            "frame-id": "sent-PMC2359939-medscan-144", 
            "frame-type": "sentence", 
            "object-type": "frame", 
            "start-pos": {
                "object-type": "absolute-pos", 
                "offset": 144
            }, 
            "text": "In close agreement to the results obtained in LNCaP and PC-3 cell lines, RES did not affect the expression of p85/phosphoinositide-3-kinase in cultured human prostate tumour cells."
        }, 
        {
            "frame-id": "sent-PMC2359939-medscan-145", 
            "frame-type": "sentence", 
            "object-type": "frame", 
            "start-pos": {
                "object-type": "absolute-pos", 
                "offset": 145
            }, 
            "text": "Notably, however, RES induced a marked concentration-dependent inhibition of PKB/AKT phosphorylation."
        }, 
        {
            "frame-id": "sent-PMC2359939-medscan-146", 
            "frame-type": "sentence", 
            "object-type": "frame", 
            "start-pos": {
                "object-type": "absolute-pos", 
                "offset": 146
            }, 
            "text": "Therefore, RES inhibited the phosphoinositide-3-kinase pathway in primary prostate tumour cells in culture through a mechanism similar to that found in cell lines."
        }, 
        {
            "frame-id": "sent-PMC2359939-medscan-147", 
            "frame-type": "sentence", 
            "object-type": "frame", 
            "start-pos": {
                "object-type": "absolute-pos", 
                "offset": 147
            }, 
            "text": "These observations support LNCaP and PC-3 as model cell lines in these studies and highlight the phosphoinositide-3-kinase pathway as a potential target for the antiproliferative activity of RES in human prostate cancer."
        }, 
        {
            "frame-id": "sent-PMC2359939-medscan-148", 
            "frame-type": "sentence", 
            "object-type": "frame", 
            "start-pos": {
                "object-type": "absolute-pos", 
                "offset": 148
            }, 
            "text": "A proposed model for RES-dependent inhibition of the androgen receptor- and ER\u03b1-associated phosphoinositide-3-kinase pathway is shown in ."
        }, 
        {
            "frame-id": "sent-PMC2359939-medscan-149", 
            "frame-type": "sentence", 
            "object-type": "frame", 
            "start-pos": {
                "object-type": "absolute-pos", 
                "offset": 149
            }, 
            "text": "In summary, this work reveals that the androgen receptor- and ER\u03b1-dependent phosphoinositide-3-kinase pathways are active in LNCaP and PC-3 human prostate tumour cells."
        }, 
        {
            "frame-id": "sent-PMC2359939-medscan-150", 
            "frame-type": "sentence", 
            "object-type": "frame", 
            "start-pos": {
                "object-type": "absolute-pos", 
                "offset": 150
            }, 
            "text": "Our data suggest that the antiproliferative activity of RES in androgen-responsive LNCaP and androgen-unresponsive PC-3 cells could be mediated, at least in part, by the antagonistic activity of this molecule on the androgen receptor and ER\u03b1 that interact with the phosphoinositide-3-kinase survival pathway."
        }, 
        {
            "frame-id": "sent-PMC2359939-medscan-151", 
            "frame-type": "sentence", 
            "object-type": "frame", 
            "start-pos": {
                "object-type": "absolute-pos", 
                "offset": 151
            }, 
            "text": "As it is plausible that the mechanism proposed here in tumour cell lines could also take place in human prostate tumours, we suggest that inhibition of steroid receptor-associated phosphoinositide-3-kinase activity could represent a possible target for chemoprevention and for adjuvant chemotherapy involving RES."
        }, 
        {
            "frame-id": "sent-PMC2359939-medscan-152", 
            "frame-type": "sentence", 
            "object-type": "frame", 
            "start-pos": {
                "object-type": "absolute-pos", 
                "offset": 152
            }, 
            "text": "Additional in vivo studies and a detailed characterisation of this signalling pathway in human primary prostate tumours are required."
        }
    ], 
    "object-meta": {
        "component": "MedScan", 
        "component-type": "machine", 
        "doc-id": "PMC2359939", 
        "object-type": "meta-info", 
        "organization": "CMU"
    }, 
    "object-type": "frame-collection"
}
