{
  "evidence": ["After 24 h , we stimulated the cells with interferon-beta for 1 h to induce STAT1 phosphorylation and subsequently incubated the cells with 1 microM AP21967 to induce STAT1 SUMOylation by the heterodimerization of STAT1-FRB with Ubc9-FKBP .","STAT1 SUMOylation"],
  "extracted_information": {
    "interaction_type": "adds_modification",
    "negative_information": false,
    "modifications": [
      {
        "modification_type": "sumoylation"
      }
    ],
    "participant_b": {
      "entity_text": "STAT1",
      "entity_type": "protein",
      "identifier": "Uniprot:P42224",
      "in_model": true
    }
  },
  "fries_provenance": [
    {
      "cmu-sentence-epistemic-status": "belief",
      "cmu-sentence-epistemic-value": 0.9,
      "component": "REACH",
      "frame-file": "PMC2651805.uaz.events",
      "frame-id": "evem-PMC2651805-UAZ-r1-34-5-54",
      "passage-id": "pass-PMC2651805-UAZ-r1-34",
      "passage-number": 34,
      "passage-section-id": "N/A",
      "passage-section-name": "N/A",
      "sentence": "After 24 h , we stimulated the cells with interferon-beta for 1 h to induce STAT1 phosphorylation and subsequently incubated the cells with 1 microM AP21967 to induce STAT1 SUMOylation by the heterodimerization of STAT1-FRB with Ubc9-FKBP .",
      "text": "STAT1 SUMOylation",
      "uaz-sentence": "After 24 h , we stimulated the cells with interferon-beta for 1 h to induce STAT1 phosphorylation and subsequently incubated the cells with 1 microM AP21967 to induce STAT1 SUMOylation by the heterodimerization of STAT1-FRB with Ubc9-FKBP .",
      "uaz-sentence-start": 793
    }
  ],
  "model_relation": "extension",
  "pmc_id": "PMC2651805",
  "reader_type": "machine",
  "reading_complete": "2015-06-15T20:39:21Z",
  "reading_started": "2015-06-15T20:39:16Z",
  "submitter": "FRIES"
}
