{
    "frames": [
        {
            "frame-id": "sent-PMC3041914-medscan-0", 
            "frame-type": "sentence", 
            "object-type": "frame", 
            "start-pos": {
                "object-type": "absolute-pos", 
                "offset": 0
            }, 
            "text": "Pancreatic ductal adenocarcinoma has one of the highest mortality rates of all cancers [ , ]."
        }, 
        {
            "frame-id": "sent-PMC3041914-medscan-1", 
            "frame-type": "sentence", 
            "object-type": "frame", 
            "start-pos": {
                "object-type": "absolute-pos", 
                "offset": 1
            }, 
            "text": "Despite this, its biology remains somewhat poorly understood."
        }, 
        {
            "frame-id": "sent-PMC3041914-medscan-2", 
            "frame-type": "sentence", 
            "object-type": "frame", 
            "start-pos": {
                "object-type": "absolute-pos", 
                "offset": 2
            }, 
            "text": "Studies have identified key factors in Pancreatic ductal adenocarcinoma etiology [ ], which have been incorporated into a timeline that has been in part validated using transgenic mice [ , ]."
        }, 
        {
            "frame-id": "sent-PMC3041914-medscan-3", 
            "frame-type": "sentence", 
            "object-type": "frame", 
            "start-pos": {
                "object-type": "absolute-pos", 
                "offset": 3
            }, 
            "text": "Although such a timeline is significant in defining the onset of the disease, a similar timeline has been difficult to establish for the progression of the disease."
        }, 
        {
            "frame-id": "sent-PMC3041914-medscan-4", 
            "frame-type": "sentence", 
            "object-type": "frame", 
            "start-pos": {
                "object-type": "absolute-pos", 
                "offset": 4
            }, 
            "text": "Additionally, although almost all patients present with late-stage disease due to a lack of symptoms, several distinct presentations are observed with regard to tumor growth and dissemination [ - ], suggesting alternative mechanisms of progression and/or the presence of tumor subtypes."
        }, 
        {
            "frame-id": "sent-PMC3041914-medscan-5", 
            "frame-type": "sentence", 
            "object-type": "frame", 
            "start-pos": {
                "object-type": "absolute-pos", 
                "offset": 5
            }, 
            "text": "The neural cell adhesion molecule L1 (L1-CAM, CD171) is a transmembrane protein of the immunoglobulin superfamily (Fig. ) that regulates active neural processes [ ]."
        }, 
        {
            "frame-id": "sent-PMC3041914-medscan-6", 
            "frame-type": "sentence", 
            "object-type": "frame", 
            "start-pos": {
                "object-type": "absolute-pos", 
                "offset": 6
            }, 
            "text": "L1//1 expression has also been described in non-neural tissues and human tumor cells [ ], where L1//1 correlates with poor prognosis and advanced disease state in several tumor types [ - ], and in serous neoplasms of the ovaryL1//1 expression increased with tumor grade and predicted poor response to chemotherapy and shorter progression-free survival [ ]."
        }, 
        {
            "frame-id": "sent-PMC3041914-medscan-7", 
            "frame-type": "sentence", 
            "object-type": "frame", 
            "start-pos": {
                "object-type": "absolute-pos", 
                "offset": 7
            }, 
            "text": "These data suggest a potential role for L1//1 in cancer progression."
        }, 
        {
            "frame-id": "sent-PMC3041914-medscan-8", 
            "frame-type": "sentence", 
            "object-type": "frame", 
            "start-pos": {
                "object-type": "absolute-pos", 
                "offset": 8
            }, 
            "text": "Although a prior publication failed to detect L1//1 in human Pancreatic ductal adenocarcinoma samples [ ], a subsequent report found L1//1 expression in moderately- and poorly-differentiated Pancreatic ductal adenocarcinoma tumors, with the highest expression noted in the most poorly differentiated cells [ ], similar to our findings with a larger dataset, which are reported herein."
        }, 
        {
            "frame-id": "sent-PMC3041914-medscan-9", 
            "frame-type": "sentence", 
            "object-type": "frame", 
            "start-pos": {
                "object-type": "absolute-pos", 
                "offset": 9
            }, 
            "text": "L1//1's role in regulating processes associated with invasion make it well suited for use by an aggressive tumor."
        }, 
        {
            "frame-id": "sent-PMC3041914-medscan-10", 
            "frame-type": "sentence", 
            "object-type": "frame", 
            "start-pos": {
                "object-type": "absolute-pos", 
                "offset": 10
            }, 
            "text": "Stable ectopic expression of L1//1 in fibroblastic and low-metastatic melanoma cells drives constitutive MAP kinase activation and induces the expression of invasion and metastasis-associated genes, thereby promoting de novo integrin utilization and concomitant enhanced migration and invasion in vitro [ ]."
        }, 
        {
            "frame-id": "sent-PMC3041914-medscan-11", 
            "frame-type": "sentence", 
            "object-type": "frame", 
            "start-pos": {
                "object-type": "absolute-pos", 
                "offset": 11
            }, 
            "text": "Moreover, L1//1 is fully transforming and expressed at the invasive front of colon cancers in situ [ ], and ectopic expression of L1//1 in endogenously L1//1-negative colon cancer cells bestows a metastatic phenotype [ ]."
        }, 
        {
            "frame-id": "sent-PMC3041914-medscan-12", 
            "frame-type": "sentence", 
            "object-type": "frame", 
            "start-pos": {
                "object-type": "absolute-pos", 
                "offset": 12
            }, 
            "text": "Importantly, the cytoplasmic domain of L1//1 was required for this effect, although the cytoplasmic domain alone was not sufficient to drive this phenotype."
        }, 
        {
            "frame-id": "sent-PMC3041914-medscan-13", 
            "frame-type": "sentence", 
            "object-type": "frame", 
            "start-pos": {
                "object-type": "absolute-pos", 
                "offset": 13
            }, 
            "text": "A binding site for the MAP kinase activator RanBPM was recently mapped to the carboxy-terminal 28 amino acids of L1//1 [ ]."
        }, 
        {
            "frame-id": "sent-PMC3041914-medscan-14", 
            "frame-type": "sentence", 
            "object-type": "frame", 
            "start-pos": {
                "object-type": "absolute-pos", 
                "offset": 14
            }, 
            "text": "Mutation of both T1247//1247 and S1248//1248 within this region abrogated L1//1-induced erk-dependent gene expression, cell migration, and tumor growth in HEK293 cells and SKOV3ip ovarian carcinoma cells [ ]."
        }, 
        {
            "frame-id": "sent-PMC3041914-medscan-15", 
            "frame-type": "sentence", 
            "object-type": "frame", 
            "start-pos": {
                "object-type": "absolute-pos", 
                "offset": 15
            }, 
            "text": "However, this dual mutation had no effect on RanBPM binding to L1//1."
        }, 
        {
            "frame-id": "sent-PMC3041914-medscan-16", 
            "frame-type": "sentence", 
            "object-type": "frame", 
            "start-pos": {
                "object-type": "absolute-pos", 
                "offset": 16
            }, 
            "text": "It is not known if mutation of T1247//1247 alone would be sufficient, since S1248A alone had no effect in this system, and the effect of T1247A alone was not tested."
        }, 
        {
            "frame-id": "sent-PMC3041914-medscan-17", 
            "frame-type": "sentence", 
            "object-type": "frame", 
            "start-pos": {
                "object-type": "absolute-pos", 
                "offset": 17
            }, 
            "text": "Moreover, no evidence was provided for regulation of this activity through post-translational modification (i.e., phosphorylation)."
        }, 
        {
            "frame-id": "sent-PMC3041914-medscan-18", 
            "frame-type": "sentence", 
            "object-type": "frame", 
            "start-pos": {
                "object-type": "absolute-pos", 
                "offset": 18
            }, 
            "text": "This is important because erk2 can phosphorylate S1248//1248 in vitro [ ]."
        }, 
        {
            "frame-id": "sent-PMC3041914-medscan-19", 
            "frame-type": "sentence", 
            "object-type": "frame", 
            "start-pos": {
                "object-type": "absolute-pos", 
                "offset": 19
            }, 
            "text": "Therefore, the relevance of this double mutation to the regulation of L1//1 activity in cells or tissues is not clear."
        }, 
        {
            "frame-id": "sent-PMC3041914-medscan-20", 
            "frame-type": "sentence", 
            "object-type": "frame", 
            "start-pos": {
                "object-type": "absolute-pos", 
                "offset": 20
            }, 
            "text": "We found that an antibody specific to the L1//1 carboxy-terminus demonstrates differentiation-dependent reactivity in the COLO357 cell system."
        }, 
        {
            "frame-id": "sent-PMC3041914-medscan-21", 
            "frame-type": "sentence", 
            "object-type": "frame", 
            "start-pos": {
                "object-type": "absolute-pos", 
                "offset": 21
            }, 
            "text": "To investigate the mechanism responsible for this pattern, we utilized recombinant proteins to define the epitope of this antibody, and the corresponding regulation of erk activation and L1//1 tail conformation by the identified residues."
        }, 
        {
            "frame-id": "sent-PMC3041914-medscan-22", 
            "frame-type": "sentence", 
            "object-type": "frame", 
            "start-pos": {
                "object-type": "absolute-pos", 
                "offset": 22
            }, 
            "text": "Panc1 cells were originally from ATCC."
        }, 
        {
            "frame-id": "sent-PMC3041914-medscan-23", 
            "frame-type": "sentence", 
            "object-type": "frame", 
            "start-pos": {
                "object-type": "absolute-pos", 
                "offset": 23
            }, 
            "text": "COLO357 cells were from M."
        }, 
        {
            "frame-id": "sent-PMC3041914-medscan-24", 
            "frame-type": "sentence", 
            "object-type": "frame", 
            "start-pos": {
                "object-type": "absolute-pos", 
                "offset": 24
            }, 
            "text": "Korc (UCI, Irvine, CA, USA)."
        }, 
        {
            "frame-id": "sent-PMC3041914-medscan-25", 
            "frame-type": "sentence", 
            "object-type": "frame", 
            "start-pos": {
                "object-type": "absolute-pos", 
                "offset": 25
            }, 
            "text": "The fast-growing COLO357 subline, fast growing , was from R."
        }, 
        {
            "frame-id": "sent-PMC3041914-medscan-26", 
            "frame-type": "sentence", 
            "object-type": "frame", 
            "start-pos": {
                "object-type": "absolute-pos", 
                "offset": 26
            }, 
            "text": "Klemke (UCSD, San Diego, CA, USA)."
        }, 
        {
            "frame-id": "sent-PMC3041914-medscan-27", 
            "frame-type": "sentence", 
            "object-type": "frame", 
            "start-pos": {
                "object-type": "absolute-pos", 
                "offset": 27
            }, 
            "text": "The slow-growing COLO357 subline, slow growing , was from M."
        }, 
        {
            "frame-id": "sent-PMC3041914-medscan-28", 
            "frame-type": "sentence", 
            "object-type": "frame", 
            "start-pos": {
                "object-type": "absolute-pos", 
                "offset": 28
            }, 
            "text": "Vezeridis (Brown University, Providence, RI, USA)."
        }, 
        {
            "frame-id": "sent-PMC3041914-medscan-29", 
            "frame-type": "sentence", 
            "object-type": "frame", 
            "start-pos": {
                "object-type": "absolute-pos", 
                "offset": 29
            }, 
            "text": "M21 human melanoma cells were derived from the UCLA-SO-M21 cell line, which was provided by Dr."
        }, 
        {
            "frame-id": "sent-PMC3041914-medscan-30", 
            "frame-type": "sentence", 
            "object-type": "frame", 
            "start-pos": {
                "object-type": "absolute-pos", 
                "offset": 30
            }, 
            "text": "DL Morton (UCLA, Los Angeles, CA, USA)."
        }, 
        {
            "frame-id": "sent-PMC3041914-medscan-31", 
            "frame-type": "sentence", 
            "object-type": "frame", 
            "start-pos": {
                "object-type": "absolute-pos", 
                "offset": 31
            }, 
            "text": "Panc1, COLO357, slow growing, and fast growing cells were cultured in DMEM/10% fetal bovine serum ."
        }, 
        {
            "frame-id": "sent-PMC3041914-medscan-32", 
            "frame-type": "sentence", 
            "object-type": "frame", 
            "start-pos": {
                "object-type": "absolute-pos", 
                "offset": 32
            }, 
            "text": "M21 cells were grown in RPMI/10% fetal bovine serum."
        }, 
        {
            "frame-id": "sent-PMC3041914-medscan-33", 
            "frame-type": "sentence", 
            "object-type": "frame", 
            "start-pos": {
                "object-type": "absolute-pos", 
                "offset": 33
            }, 
            "text": "Panc1 cells were transfected with pCDNA3.1/Tac/L1//1 chimera constructs using Lipofectamine2000 (Invitrogen, San Diego, CA, USA) and stable clones were derived by zeocin resistance."
        }, 
        {
            "frame-id": "sent-PMC3041914-medscan-34", 
            "frame-type": "sentence", 
            "object-type": "frame", 
            "start-pos": {
                "object-type": "absolute-pos", 
                "offset": 34
            }, 
            "text": "Clones were assessed for Tac/L1 expression and positive clones pooled and maintained under selection. \u03b1L1 Carboxy-terminus (C20), \u03b1GST (110-218) and the immunoblotting \u03b1CD25 (N19) polyclonal antibodies were from Santa Cruz Biotechnology (Santa Cruz, CA, USA). \u03b1CD25 monoclonal antibody (cl.22722) used for Flow cytometry (FACS) and cluster assays was from R&D Systems (Minneapolis, MN, USA). \u03b1RanBPM pAb was from Millipore (Bedford, MA, USA). \u03b1L1 monoclonal antibody 2C2 was from AbCam (Cambridge, MA, USA) and has been described in detail previously [ ], \u03b1L1 monoclonal antibody UJ127 was from Neomarkers/LabVision (Fremont, CA, USA), \u03b1L1 monoclonal antibody 5G3 was generously provided by M."
        }, 
        {
            "frame-id": "sent-PMC3041914-medscan-35", 
            "frame-type": "sentence", 
            "object-type": "frame", 
            "start-pos": {
                "object-type": "absolute-pos", 
                "offset": 35
            }, 
            "text": "Just (eBioscience, San Diego, CA, USA). \u03b1ECD pAb was generated against purified L1//1 ectodomain and provided by W Stallcup (The Burnham Institute, La Jolla, CA, USA). \u03b1FL pAb was generated against L1//1 purified from human neuroblastoma cells using a 5G3 immunoaffinity column."
        }, 
        {
            "frame-id": "sent-PMC3041914-medscan-36", 
            "frame-type": "sentence", 
            "object-type": "frame", 
            "start-pos": {
                "object-type": "absolute-pos", 
                "offset": 36
            }, 
            "text": "Both \u03b1ECD and \u03b1FL have been described previously [ ]."
        }, 
        {
            "frame-id": "sent-PMC3041914-medscan-37", 
            "frame-type": "sentence", 
            "object-type": "frame", 
            "start-pos": {
                "object-type": "absolute-pos", 
                "offset": 37
            }, 
            "text": "Stable CD25/L1//1 chimera-expressing Panc1 cells were plated at 2.5 \u00d7 104/24-well and allowed to grow for 48 h prior to serum starvation overnight."
        }, 
        {
            "frame-id": "sent-PMC3041914-medscan-38", 
            "frame-type": "sentence", 
            "object-type": "frame", 
            "start-pos": {
                "object-type": "absolute-pos", 
                "offset": 38
            }, 
            "text": "The plate was placed on ice and the media replaced with ice-cold serum-free media containing 10 \u03bcg/ml \u03b1CD25 monoclonal antibody."
        }, 
        {
            "frame-id": "sent-PMC3041914-medscan-39", 
            "frame-type": "sentence", 
            "object-type": "frame", 
            "start-pos": {
                "object-type": "absolute-pos", 
                "offset": 39
            }, 
            "text": "Cells were incubated 30 min on ice, washed, and fresh serum-free media replenished."
        }, 
        {
            "frame-id": "sent-PMC3041914-medscan-40", 
            "frame-type": "sentence", 
            "object-type": "frame", 
            "start-pos": {
                "object-type": "absolute-pos", 
                "offset": 40
            }, 
            "text": "Cells were warmed to 37\u00b0C for 45 min and lysates harvested and processed for immunoblotting."
        }, 
        {
            "frame-id": "sent-PMC3041914-medscan-41", 
            "frame-type": "sentence", 
            "object-type": "frame", 
            "start-pos": {
                "object-type": "absolute-pos", 
                "offset": 41
            }, 
            "text": "Cells were lysed in phosphate lysis buffer (10 mM NaPO4, 100 mM NaCl, 1% TX-100, 0.4% deoxycholate, 0.1% SDS, pH 7.5) containing Complete\u2122 Protease Inhibitor Cocktail (Roche Applied Science, Indianapolis, IN, USA) supplemented with 10 mM PMSF, 1 mM NaF and 10 mM Na3VO4, and incubated with the indicated antibody (2 \u03bcg) overnight at 4\u00b0C."
        }, 
        {
            "frame-id": "sent-PMC3041914-medscan-42", 
            "frame-type": "sentence", 
            "object-type": "frame", 
            "start-pos": {
                "object-type": "absolute-pos", 
                "offset": 42
            }, 
            "text": "Antibodies were precipitated with Protein-L sepharose4b beads (Pierce, Rockford, IL, USA), recovered by centrifugation, washed, and prepared for immunoblotting."
        }, 
        {
            "frame-id": "sent-PMC3041914-medscan-43", 
            "frame-type": "sentence", 
            "object-type": "frame", 
            "start-pos": {
                "object-type": "absolute-pos", 
                "offset": 43
            }, 
            "text": "GST-fusion proteins (1 \u03bcg) were incubated with the indicated Panc1 lysates (250 \u03bcg) overnight at 4\u00b0C."
        }, 
        {
            "frame-id": "sent-PMC3041914-medscan-44", 
            "frame-type": "sentence", 
            "object-type": "frame", 
            "start-pos": {
                "object-type": "absolute-pos", 
                "offset": 44
            }, 
            "text": "Glutathione-4b sepharose beads were added (10 \u03bcl) and the samples incubated 2 h at 4\u00b0C before recovery of bead-bound GST fusion proteins by centrifugation, washing and preparation for immunoblotting."
        }, 
        {
            "frame-id": "sent-PMC3041914-medscan-45", 
            "frame-type": "sentence", 
            "object-type": "frame", 
            "start-pos": {
                "object-type": "absolute-pos", 
                "offset": 45
            }, 
            "text": "Samples were separated by reducing sodium dodecyl sulfate polyacrylamide gel electrophoresis , electroblotted to PVDF, sequentially incubated with primary and horseradish peroxidase -conjugated secondary antibodies and visualized by ECL with PS-3 (Lumigen, Southfield, MI, USA)."
        }, 
        {
            "frame-id": "sent-PMC3041914-medscan-46", 
            "frame-type": "sentence", 
            "object-type": "frame", 
            "start-pos": {
                "object-type": "absolute-pos", 
                "offset": 46
            }, 
            "text": "Gels were scanned on an Epson 4490Photo Flatbed Scanner and band intensities were densitometrically analyzed using NIH Image 1.61."
        }, 
        {
            "frame-id": "sent-PMC3041914-medscan-47", 
            "frame-type": "sentence", 
            "object-type": "frame", 
            "start-pos": {
                "object-type": "absolute-pos", 
                "offset": 47
            }, 
            "text": "Band intensities were normalized against the appropriate loading control (i.e., erk2 or GST) and compared to the indicated baseline comparison band, which was defined as 1.0."
        }, 
        {
            "frame-id": "sent-PMC3041914-medscan-48", 
            "frame-type": "sentence", 
            "object-type": "frame", 
            "start-pos": {
                "object-type": "absolute-pos", 
                "offset": 48
            }, 
            "text": "FACS analysis and sorting was performed on a FACScalibur or FACSVantageSE, respectively (BD Biosciences, Bedford, MA, USA), at the Moores UCSD Cancer Center Flow Cytometry Shared Resource as described previously [ , ]."
        }, 
        {
            "frame-id": "sent-PMC3041914-medscan-49", 
            "frame-type": "sentence", 
            "object-type": "frame", 
            "start-pos": {
                "object-type": "absolute-pos", 
                "offset": 49
            }, 
            "text": "Gates were set with secondary antibody controls, and propidium iodide was included to exclude dead and dying cells."
        }, 
        {
            "frame-id": "sent-PMC3041914-medscan-50", 
            "frame-type": "sentence", 
            "object-type": "frame", 
            "start-pos": {
                "object-type": "absolute-pos", 
                "offset": 50
            }, 
            "text": "GST-proteins were immobilized on 96-well plates and incubated with appropriate primary and horseradish peroxidase-conjugated secondary antibodies and detected with TMB as described previously [ ]."
        }, 
        {
            "frame-id": "sent-PMC3041914-medscan-51", 
            "frame-type": "sentence", 
            "object-type": "frame", 
            "start-pos": {
                "object-type": "absolute-pos", 
                "offset": 51
            }, 
            "text": "Data was corrected for \u03b1GST signal as a measure of fusion protein adsorption to the plate."
        }, 
        {
            "frame-id": "sent-PMC3041914-medscan-52", 
            "frame-type": "sentence", 
            "object-type": "frame", 
            "start-pos": {
                "object-type": "absolute-pos", 
                "offset": 52
            }, 
            "text": "In some cases, data were confirmed using proteins captured on glutathione-coated plates (Pierce/ThermoScientific, Rockville, IL, USA) to prevent denaturing of the L1//1 fragments during adsorption to plastic substratum. (Prokaryotic) Unless otherwise indicated, pGEX GST-fusion constructs were described previously [ ], or generated by site-directed mutagenesis using the appropriate primers (Table ) as described previously [ ]."
        }, 
        {
            "frame-id": "sent-PMC3041914-medscan-53", 
            "frame-type": "sentence", 
            "object-type": "frame", 
            "start-pos": {
                "object-type": "absolute-pos", 
                "offset": 53
            }, 
            "text": "GST/L11238//11238-1257 and GST/L11249//11249-1257 were created by ligation of annealed and phosphorylated mini-exon primers into the EcoRI site of pGEX/6P-1."
        }, 
        {
            "frame-id": "sent-PMC3041914-medscan-54", 
            "frame-type": "sentence", 
            "object-type": "frame", 
            "start-pos": {
                "object-type": "absolute-pos", 
                "offset": 54
            }, 
            "text": "All constructs were confirmed by dideoxy sequencing at the Moores UCSD Cancer Center DNA Sequencing Shared Resource. (Eukaryotic) Inserts from the appropriate pGEX vectors were excised with EcoRI and ligated into the EcoRI site of a pCDNA3.1 (zeo) vector containing the ectodomain and transmembrane sequences of the high-affinity IL2 receptor (CD25, Tac) which had previously been inserted immediately upstream between the NheI and HindIII sites of the vector."
        }, 
        {
            "frame-id": "sent-PMC3041914-medscan-55", 
            "frame-type": "sentence", 
            "object-type": "frame", 
            "start-pos": {
                "object-type": "absolute-pos", 
                "offset": 55
            }, 
            "text": "Table 1Primers used to construct recombinant proteins Samples were obtained under approved IRB protocol from the UCSD Dept. of Pathology archives."
        }, 
        {
            "frame-id": "sent-PMC3041914-medscan-56", 
            "frame-type": "sentence", 
            "object-type": "frame", 
            "start-pos": {
                "object-type": "absolute-pos", 
                "offset": 56
            }, 
            "text": "Patient demographics and tissue characterization were published previously [ ]."
        }, 
        {
            "frame-id": "sent-PMC3041914-medscan-57", 
            "frame-type": "sentence", 
            "object-type": "frame", 
            "start-pos": {
                "object-type": "absolute-pos", 
                "offset": 57
            }, 
            "text": "Sections were deparaffinized, rehydrated, and renatured before staining with UJ127 and development with DAB chromagen as described previously [ ]."
        }, 
        {
            "frame-id": "sent-PMC3041914-medscan-58", 
            "frame-type": "sentence", 
            "object-type": "frame", 
            "start-pos": {
                "object-type": "absolute-pos", 
                "offset": 58
            }, 
            "text": "Data shown is mean \u00b1 SD unless otherwise indicated."
        }, 
        {
            "frame-id": "sent-PMC3041914-medscan-59", 
            "frame-type": "sentence", 
            "object-type": "frame", 
            "start-pos": {
                "object-type": "absolute-pos", 
                "offset": 59
            }, 
            "text": "Antibody binding differences were analyzed by two-tailed Students t-Test."
        }, 
        {
            "frame-id": "sent-PMC3041914-medscan-60", 
            "frame-type": "sentence", 
            "object-type": "frame", 
            "start-pos": {
                "object-type": "absolute-pos", 
                "offset": 60
            }, 
            "text": "Survival was evaluated according to the method of Kaplan-Meier using a univariate log-rank test."
        }, 
        {
            "frame-id": "sent-PMC3041914-medscan-61", 
            "frame-type": "sentence", 
            "object-type": "frame", 
            "start-pos": {
                "object-type": "absolute-pos", 
                "offset": 61
            }, 
            "text": "Variables were coded as 1 for 100% L1//1-negative tumors and 0 for those that demonstrated evidence of L1//1 expression in Pancreatic ductal adenocarcinoma cells."
        }, 
        {
            "frame-id": "sent-PMC3041914-medscan-62", 
            "frame-type": "sentence", 
            "object-type": "frame", 
            "start-pos": {
                "object-type": "absolute-pos", 
                "offset": 62
            }, 
            "text": "We analyzed 92 human patient samples with the L1//1-specific UJ127 monoclonal antibody and found that L1//1 is not expressed in normal ductal epithelium (Fig. ), nor well-differentiated Pancreatic ductal adenocarcinoma cells (Fig. )."
        }, 
        {
            "frame-id": "sent-PMC3041914-medscan-63", 
            "frame-type": "sentence", 
            "object-type": "frame", 
            "start-pos": {
                "object-type": "absolute-pos", 
                "offset": 63
            }, 
            "text": "L1//1 is however detectable in poor- and undifferentiated/anaplastic/sarcomatoid Pancreatic ductal adenocarcinoma cells (Fig. ), often at the tumor margin (Fig. ), similar to what has been reported for colon cancer [ ]."
        }, 
        {
            "frame-id": "sent-PMC3041914-medscan-64", 
            "frame-type": "sentence", 
            "object-type": "frame", 
            "start-pos": {
                "object-type": "absolute-pos", 
                "offset": 64
            }, 
            "text": "Overall, our immunohistochemical analysis demonstrated that 18/22 (82%) poorly-differentiated and 4/28 (14%) moderately-differentiated Pancreatic ductal adenocarcinoma tumors were L1//1-positive (Fig. )."
        }, 
        {
            "frame-id": "sent-PMC3041914-medscan-65", 
            "frame-type": "sentence", 
            "object-type": "frame", 
            "start-pos": {
                "object-type": "absolute-pos", 
                "offset": 65
            }, 
            "text": "L1//1 was not observed in normal (n = 20) or well-differentiated Pancreatic ductal adenocarcinoma samples (n = 22)."
        }, 
        {
            "frame-id": "sent-PMC3041914-medscan-66", 
            "frame-type": "sentence", 
            "object-type": "frame", 
            "start-pos": {
                "object-type": "absolute-pos", 
                "offset": 66
            }, 
            "text": "Importantly, L1//1 expression correlated with poor patient survival, with median survival for L1//1-positive patients of 6 months with a 5-year survival rate of 0%, versus median survival of L1//1-negative patients of 21 months with a 5-year survival of 29%."
        }, 
        {
            "frame-id": "sent-PMC3041914-medscan-67", 
            "frame-type": "sentence", 
            "object-type": "frame", 
            "start-pos": {
                "object-type": "absolute-pos", 
                "offset": 67
            }, 
            "text": "Log-Rank P < 0.001 (Fig. )."
        }, 
        {
            "frame-id": "sent-PMC3041914-medscan-68", 
            "frame-type": "sentence", 
            "object-type": "frame", 
            "start-pos": {
                "object-type": "absolute-pos", 
                "offset": 68
            }, 
            "text": "Fig. 1L1//1 is expressed by poorly differentiated Pancreatic ductal adenocarcinoma cells in situ."
        }, 
        {
            "frame-id": "sent-PMC3041914-medscan-69", 
            "frame-type": "sentence", 
            "object-type": "frame", 
            "start-pos": {
                "object-type": "absolute-pos", 
                "offset": 69
            }, 
            "text": "UJ127 monoclonal antibody visualized with DAB chromogen (brown). a Normal pancreas. b A well-differentiated tumor duct invading perineurally."
        }, 
        {
            "frame-id": "sent-PMC3041914-medscan-70", 
            "frame-type": "sentence", 
            "object-type": "frame", 
            "start-pos": {
                "object-type": "absolute-pos", 
                "offset": 70
            }, 
            "text": "Nerve bundle, brown. c Poorly-differentiated Pancreatic ductal adenocarcinoma tumor cells at the margin. d High power image of c. e Immunohistochemical summary. f Kaplan-Meier analysis of patient survival Sequential dissection of subcutaneous COLO357 Pancreatic ductal adenocarcinoma xenograft tumors and serial repassaging of fragments in mice identified a fast-growing (fast growing), more malignant variant, and a slow-growing (slow growing), less malignant variant [ ]."
        }, 
        {
            "frame-id": "sent-PMC3041914-medscan-71", 
            "frame-type": "sentence", 
            "object-type": "frame", 
            "start-pos": {
                "object-type": "absolute-pos", 
                "offset": 71
            }, 
            "text": "While the slow growing subline exhibits a highly differentiated epithelial phenotype in culture, including strict monolayer growth and contact inhibition, fast growing cells exhibit a moderate- to poorly-differentiated phenotype, including three-dimensional growth and lack of contact inhibition."
        }, 
        {
            "frame-id": "sent-PMC3041914-medscan-72", 
            "frame-type": "sentence", 
            "object-type": "frame", 
            "start-pos": {
                "object-type": "absolute-pos", 
                "offset": 72
            }, 
            "text": "When mixed in equal ratios, this population did not drift, and displayed phenotypic characteristics of the parental COLO357 cells [ ]."
        }, 
        {
            "frame-id": "sent-PMC3041914-medscan-73", 
            "frame-type": "sentence", 
            "object-type": "frame", 
            "start-pos": {
                "object-type": "absolute-pos", 
                "offset": 73
            }, 
            "text": "Thus, these lines represent a unique cell system to study Pancreatic ductal adenocarcinoma progression."
        }, 
        {
            "frame-id": "sent-PMC3041914-medscan-74", 
            "frame-type": "sentence", 
            "object-type": "frame", 
            "start-pos": {
                "object-type": "absolute-pos", 
                "offset": 74
            }, 
            "text": "Somewhat unexpectedly, the parental COLO357 population (Fig. ) and both sublines (Fig. ) express L1//1 in vitro, and L1//1 appears to function in the growth or survival of these cells since we were unable to flow-sort stable high- and low-L1//1-expressing subpopulations of the COLO357, slow growing and fast growing populations."
        }, 
        {
            "frame-id": "sent-PMC3041914-medscan-75", 
            "frame-type": "sentence", 
            "object-type": "frame", 
            "start-pos": {
                "object-type": "absolute-pos", 
                "offset": 75
            }, 
            "text": "Figure shows a representative experiment whereby high- and low-L1//1 expressing COLO357 subpopulations were flow-sorted (Fig. ) and 10 days later each population was resorted such that the lowest expressers were recovered from the 1Xlow-sorted population and the highest expressers from the 1Xhigh-sorted population."
        }, 
        {
            "frame-id": "sent-PMC3041914-medscan-76", 
            "frame-type": "sentence", 
            "object-type": "frame", 
            "start-pos": {
                "object-type": "absolute-pos", 
                "offset": 76
            }, 
            "text": "Two weeks later, the highest expression in the \"low\" population was identical to that in the \"high\" population (Fig. ), in stark contrast to their expression levels after the first sort (Fig. )."
        }, 
        {
            "frame-id": "sent-PMC3041914-medscan-77", 
            "frame-type": "sentence", 
            "object-type": "frame", 
            "start-pos": {
                "object-type": "absolute-pos", 
                "offset": 77
            }, 
            "text": "Fig. 2Sorted low L1//1-expressing Panc1 cells quickly revert to their original expression levels. a UJ127 FACS-sort profile of parental cells and derived L1//1-high- and L1//1-low-expressing subpopulations at the time of sorting. b Overlay of sorted populations onto the parental population (solid) immediately after the first sort. c FACS profiles of L1//1-high- and L1//1-low-expressing subpopulations 2 weeks after second sort."
        }, 
        {
            "frame-id": "sent-PMC3041914-medscan-78", 
            "frame-type": "sentence", 
            "object-type": "frame", 
            "start-pos": {
                "object-type": "absolute-pos", 
                "offset": 78
            }, 
            "text": "Controls are overlapped (solid) C20 reactivity correlates with differentiation/malignancy in the COLO357 system. a Schematic of the L1//1 domain structure and processing by proteases."
        }, 
        {
            "frame-id": "sent-PMC3041914-medscan-79", 
            "frame-type": "sentence", 
            "object-type": "frame", 
            "start-pos": {
                "object-type": "absolute-pos", 
                "offset": 79
            }, 
            "text": "Ig immunoglobulin, FN fibronectin. b Immunoblotting demonstrates that the C20 epitope is masked in the less-differentiated fast growing variant of COLO357, in contrast to the more-differentiated slow growing variant."
        }, 
        {
            "frame-id": "sent-PMC3041914-medscan-80", 
            "frame-type": "sentence", 
            "object-type": "frame", 
            "start-pos": {
                "object-type": "absolute-pos", 
                "offset": 80
            }, 
            "text": "Erk2, loading control. c Immunoblotting of whole cell lysates demonstrates that fast growing cells predominantly utilize ADAMs proteases to cleave L1//1, while slow growing cells predominently utilize serine proteases to cleave L1//1."
        }, 
        {
            "frame-id": "sent-PMC3041914-medscan-81", 
            "frame-type": "sentence", 
            "object-type": "frame", 
            "start-pos": {
                "object-type": "absolute-pos", 
                "offset": 81
            }, 
            "text": "M21, melanoma control."
        }, 
        {
            "frame-id": "sent-PMC3041914-medscan-82", 
            "frame-type": "sentence", 
            "object-type": "frame", 
            "start-pos": {
                "object-type": "absolute-pos", 
                "offset": 82
            }, 
            "text": "Relative migration shown on left in KDa. d Immunoblotting of conditioned media corroborates the data in c."
        }, 
        {
            "frame-id": "sent-PMC3041914-medscan-83", 
            "frame-type": "sentence", 
            "object-type": "frame", 
            "start-pos": {
                "object-type": "absolute-pos", 
                "offset": 83
            }, 
            "text": "Erk2, loading control. e Immunoblotting demonstrates that proteolysis does not account for loss of C20 reactivity, since the 30-KDa ADAMs fragment resolves as the same molecular weight in fast growing and M21 lysates, but is undetectable by C20 in the fast growing lysate specifically Importantly, while the ectodomain-reactive UJ127 monoclonal antibody demonstrates equivalent quantities of L1//1 protein in slow growing and fast growing cells, the C20 pAb directed to the L1//1 carboxy-terminus barely detects fast growing cell L1//1 under the denaturing conditions of immunoblotting (Fig. )."
        }, 
        {
            "frame-id": "sent-PMC3041914-medscan-84", 
            "frame-type": "sentence", 
            "object-type": "frame", 
            "start-pos": {
                "object-type": "absolute-pos", 
                "offset": 84
            }, 
            "text": "L1//1 is a known proteolytic target of both ADAMs and serine proteases [ , ](Fig. )."
        }, 
        {
            "frame-id": "sent-PMC3041914-medscan-85", 
            "frame-type": "sentence", 
            "object-type": "frame", 
            "start-pos": {
                "object-type": "absolute-pos", 
                "offset": 85
            }, 
            "text": "Therefore, the possibility existed that the lack of C20 reactivity in the high molecular weight protein could represent ADAMs-mediated proteolysis of cell surfaceL1//1, yielding a C20-reactive 30KDa product and a C20-unreactive cell-associated 195KDa product lacking the cytoplasmic domain."
        }, 
        {
            "frame-id": "sent-PMC3041914-medscan-86", 
            "frame-type": "sentence", 
            "object-type": "frame", 
            "start-pos": {
                "object-type": "absolute-pos", 
                "offset": 86
            }, 
            "text": "Indeed, immunoblotting demonstrates fragments consistent with ADAMs proteolysis in fast growing cells, while slow growing cells display fragments consistent with serine proteolysis (Fig. )."
        }, 
        {
            "frame-id": "sent-PMC3041914-medscan-87", 
            "frame-type": "sentence", 
            "object-type": "frame", 
            "start-pos": {
                "object-type": "absolute-pos", 
                "offset": 87
            }, 
            "text": "Further corroborating these data is the fact that the 195KDa ectodomain fragment could be detected in media conditioned by fast growing, but not slow growing cells (Fig. )."
        }, 
        {
            "frame-id": "sent-PMC3041914-medscan-88", 
            "frame-type": "sentence", 
            "object-type": "frame", 
            "start-pos": {
                "object-type": "absolute-pos", 
                "offset": 88
            }, 
            "text": "However, immunoblotting further verifies the lack of C20 reactivity in the 30KDa fragment comprising the transmembrane and cytoplasmic sequences in fast growing cells specifically; M21 human melanoma cells demonstrate substantial C20 signal in the 30-KDa fragment (Fig. ), suggesting that obscuring of critical residues is responsible for loss of C20 reactivity in fast growing cells."
        }, 
        {
            "frame-id": "sent-PMC3041914-medscan-89", 
            "frame-type": "sentence", 
            "object-type": "frame", 
            "start-pos": {
                "object-type": "absolute-pos", 
                "offset": 89
            }, 
            "text": "That the cytoplasmic tail is not being further proteolyzed is demonstrated by reprobing with the \u03b1FL pAb, which was generated against the full-length protein and demonstrates equivalent amounts of identically migrating protein in both lines (Fig. )."
        }, 
        {
            "frame-id": "sent-PMC3041914-medscan-90", 
            "frame-type": "sentence", 
            "object-type": "frame", 
            "start-pos": {
                "object-type": "absolute-pos", 
                "offset": 90
            }, 
            "text": "L1//1 contains two alternatively spliced small exons, one amino-terminal (exon2) and one in the cytoplasmic domain (exon27)."
        }, 
        {
            "frame-id": "sent-PMC3041914-medscan-91", 
            "frame-type": "sentence", 
            "object-type": "frame", 
            "start-pos": {
                "object-type": "absolute-pos", 
                "offset": 91
            }, 
            "text": "Both exons are present in the neuronal isoform, and absent from the nonneuronal isoform [ ]."
        }, 
        {
            "frame-id": "sent-PMC3041914-medscan-92", 
            "frame-type": "sentence", 
            "object-type": "frame", 
            "start-pos": {
                "object-type": "absolute-pos", 
                "offset": 92
            }, 
            "text": "Therefore, the possibility existed that the differential C20 binding observed in fast growing and slow growing cells might reflect differential isoform expression."
        }, 
        {
            "frame-id": "sent-PMC3041914-medscan-93", 
            "frame-type": "sentence", 
            "object-type": "frame", 
            "start-pos": {
                "object-type": "absolute-pos", 
                "offset": 93
            }, 
            "text": "Using recombinant proteins, we found that C20 detects both isoforms equivalently (Fig. ), demonstrating that the alternatively-spliced exon27 is not responsible for differential C20 reactivity."
        }, 
        {
            "frame-id": "sent-PMC3041914-medscan-94", 
            "frame-type": "sentence", 
            "object-type": "frame", 
            "start-pos": {
                "object-type": "absolute-pos", 
                "offset": 94
            }, 
            "text": "Fig. 4N1251 is a critical determinant of C20 binding. a ELISA of GST fusion proteins demonstrates that C20 recognizes both isoforms of L1//1."
        }, 
        {
            "frame-id": "sent-PMC3041914-medscan-95", 
            "frame-type": "sentence", 
            "object-type": "frame", 
            "start-pos": {
                "object-type": "absolute-pos", 
                "offset": 95
            }, 
            "text": "NN nonneuronal. b-d Truncation (b) and substitution (c,d) analysis demonstrates the requirement for the carboxy-terminal 9 amino acids, and the critical importance of N1251 for C20 binding by ELISA. e,f ELISA titration analysis (e) and immunoblotting (f) verify the data in d, extend it to N1251D, and confirm that the C20 epitope requirements are maintained under denaturing conditions The manufacturer (Santa Cruz Biotechnology) described the C20 immunogen as being very near the carboxy-terminus of L1//1."
        }, 
        {
            "frame-id": "sent-PMC3041914-medscan-96", 
            "frame-type": "sentence", 
            "object-type": "frame", 
            "start-pos": {
                "object-type": "absolute-pos", 
                "offset": 96
            }, 
            "text": "Therefore, we assessed the ability of C20 to recognize sequential truncations of the GST/L1//1 cytoplasmic domain1144-1257 protein."
        }, 
        {
            "frame-id": "sent-PMC3041914-medscan-97", 
            "frame-type": "sentence", 
            "object-type": "frame", 
            "start-pos": {
                "object-type": "absolute-pos", 
                "offset": 97
            }, 
            "text": "We engineered -9 (L11144//11144-1248), -10 (L11144//11144-1247), -20 (L11144//11144-1238), and a -28 (L11144//11144-1229) mutant that removes the entire L1//1 sequence carboxy-terminal to the ankyrin-binding site [ ]-this region encompasses the RanBPM binding site [ ]."
        }, 
        {
            "frame-id": "sent-PMC3041914-medscan-98", 
            "frame-type": "sentence", 
            "object-type": "frame", 
            "start-pos": {
                "object-type": "absolute-pos", 
                "offset": 98
            }, 
            "text": "By enzyme-linked immunosorbent assay , C20 binding was completely lost with the first deletion (Fig. , left panel), indicating that a primary epitope requirement exists within the last nine amino acids of L1//1, 1249PINPAVALE1257."
        }, 
        {
            "frame-id": "sent-PMC3041914-medscan-99", 
            "frame-type": "sentence", 
            "object-type": "frame", 
            "start-pos": {
                "object-type": "absolute-pos", 
                "offset": 99
            }, 
            "text": "Presuming that the antibody might have been generated against a 20-mer encoding the absolute carboxy-terminal amino acids of L1//1 (hence, the name \"C20\"), we synthesized a protein encoding this sequence (L11238//11238-1257), as well one encoding the last nine amino acids (L11249//11249-1257), deletion of which completely abrogated C20 binding to the GST/L1//1 cytoplasmic domain protein."
        }, 
        {
            "frame-id": "sent-PMC3041914-medscan-100", 
            "frame-type": "sentence", 
            "object-type": "frame", 
            "start-pos": {
                "object-type": "absolute-pos", 
                "offset": 100
            }, 
            "text": "In contrast to the effect of deleting the 1249PINPAVALE sequence, this sequence alone only recapitulated 22% of the binding observed with L11238//11238-1257 (Fig. , right panel)."
        }, 
        {
            "frame-id": "sent-PMC3041914-medscan-101", 
            "frame-type": "sentence", 
            "object-type": "frame", 
            "start-pos": {
                "object-type": "absolute-pos", 
                "offset": 101
            }, 
            "text": "This demonstrates that although residues within the nine carboxy-terminal residues are required for C20 binding, they alone are not sufficient for full binding, further suggesting the presence of additional critical residues in the previous 11 amino acid stretch (1238AGGNDSSGATS1248)."
        }, 
        {
            "frame-id": "sent-PMC3041914-medscan-102", 
            "frame-type": "sentence", 
            "object-type": "frame", 
            "start-pos": {
                "object-type": "absolute-pos", 
                "offset": 102
            }, 
            "text": "Within this sequence, T1247//1247 and S1248//1248 have been reported to be phosphorylated [ , ]."
        }, 
        {
            "frame-id": "sent-PMC3041914-medscan-103", 
            "frame-type": "sentence", 
            "object-type": "frame", 
            "start-pos": {
                "object-type": "absolute-pos", 
                "offset": 103
            }, 
            "text": "Additionally, dual alanine substitution of T1247//1247 and S1248//1248 has been shown to disrupt MAP kinase-dependent L1//1-induced gene transcription and enhanced tumorigenicity in ovarian cancer cells [ ]."
        }, 
        {
            "frame-id": "sent-PMC3041914-medscan-104", 
            "frame-type": "sentence", 
            "object-type": "frame", 
            "start-pos": {
                "object-type": "absolute-pos", 
                "offset": 104
            }, 
            "text": "To test the potential involvement of these residues in affecting C20 binding, we individually substituted these residues with alanine in the GST/L11238//11238-1257 protein."
        }, 
        {
            "frame-id": "sent-PMC3041914-medscan-105", 
            "frame-type": "sentence", 
            "object-type": "frame", 
            "start-pos": {
                "object-type": "absolute-pos", 
                "offset": 105
            }, 
            "text": "These mutations caused less than 25% reduction of C20 binding versus the wild-type protein (Fig. )."
        }, 
        {
            "frame-id": "sent-PMC3041914-medscan-106", 
            "frame-type": "sentence", 
            "object-type": "frame", 
            "start-pos": {
                "object-type": "absolute-pos", 
                "offset": 106
            }, 
            "text": "Moreover, alanine substitution of both residues at once did not appreciably increase the effect on C20 binding, nor did mutation of both residues to glutamic acid, whose negative charge mimics that of phosphate modification."
        }, 
        {
            "frame-id": "sent-PMC3041914-medscan-107", 
            "frame-type": "sentence", 
            "object-type": "frame", 
            "start-pos": {
                "object-type": "absolute-pos", 
                "offset": 107
            }, 
            "text": "In contrast, alanine substitution of appropriate residues in the last nine amino acids (1249PINPAVALE) of the GST/L11144//11144-1257 protein demonstrated that N1251 is critical for C20 binding (Fig. ); surprisingly, no effect was observed with substitution of either surrounding proline (P1249 or P1252) or the carboxy-terminal glutamic acid (E1257)."
        }, 
        {
            "frame-id": "sent-PMC3041914-medscan-108", 
            "frame-type": "sentence", 
            "object-type": "frame", 
            "start-pos": {
                "object-type": "absolute-pos", 
                "offset": 108
            }, 
            "text": "The other residues of this region constitute small, aliphatic amino acids (I1250, V1254, L1256//1256), or alanine itself (A1253, A1255); hence, alanine substitution was not performed."
        }, 
        {
            "frame-id": "sent-PMC3041914-medscan-109", 
            "frame-type": "sentence", 
            "object-type": "frame", 
            "start-pos": {
                "object-type": "absolute-pos", 
                "offset": 109
            }, 
            "text": "It should be noted that we examined four distinct lots of C20, produced over the past 5 years, and found these epitope requirements to be maintained."
        }, 
        {
            "frame-id": "sent-PMC3041914-medscan-110", 
            "frame-type": "sentence", 
            "object-type": "frame", 
            "start-pos": {
                "object-type": "absolute-pos", 
                "offset": 110
            }, 
            "text": "Since the N1251A mutation demonstrated such a pronounced effect on C20 binding in our recombinant proteins, we reasoned that modification of this residue might be responsible for the loss of signal noted in the fast growing cells."
        }, 
        {
            "frame-id": "sent-PMC3041914-medscan-111", 
            "frame-type": "sentence", 
            "object-type": "frame", 
            "start-pos": {
                "object-type": "absolute-pos", 
                "offset": 111
            }, 
            "text": "Asparagine is not subject to phosphorylation; however, asparagine deamidation has been demonstrated in various systems [for review, see ]."
        }, 
        {
            "frame-id": "sent-PMC3041914-medscan-112", 
            "frame-type": "sentence", 
            "object-type": "frame", 
            "start-pos": {
                "object-type": "absolute-pos", 
                "offset": 112
            }, 
            "text": "Asparagine deamidation results in the production of aspartate and iso-aspartate endproducts, and iso-aspartate can be converted to aspartate by a \"repair\" mechanism involving protein-L-isoAsp-O-methyltransferase."
        }, 
        {
            "frame-id": "sent-PMC3041914-medscan-113", 
            "frame-type": "sentence", 
            "object-type": "frame", 
            "start-pos": {
                "object-type": "absolute-pos", 
                "offset": 113
            }, 
            "text": "However, both alanine and aspartic acid mutations of N1251 were equally effective in blocking C20 binding by enzyme-linked immunosorbent assay (Fig. ) and immunoblot (Fig. ), suggesting that the disparate C20 reactivity with slow growing and fast growing cells are not due to different levels or activities of this enzyme and thus correspondingly differential rates of iso-aspartate to aspartate \"repair\"."
        }, 
        {
            "frame-id": "sent-PMC3041914-medscan-114", 
            "frame-type": "sentence", 
            "object-type": "frame", 
            "start-pos": {
                "object-type": "absolute-pos", 
                "offset": 114
            }, 
            "text": "Previously, we found that the conformation of the L1//1 ectodomain is regulated by, or reflected in, the serine/threonine phosphorylation state of the L1//1 cytoplasmic domain in general, and the phosphorylation state of T1172//1172 in particular [ ]."
        }, 
        {
            "frame-id": "sent-PMC3041914-medscan-115", 
            "frame-type": "sentence", 
            "object-type": "frame", 
            "start-pos": {
                "object-type": "absolute-pos", 
                "offset": 115
            }, 
            "text": "To determine if the differential C20 reactivity exhibited by the slow growing and fast growing subpopulations is associated with distinct conformational states of L1//1 on the cell surface, we performed FACS analysis with the conformationally sensitive 5G3 monoclonal antibody, which recognizes a disulfide-stabilized epitope within amino acids 57-175 spanning the end of the Ig1 and beginning of Ig2 domains at the membrane-distal amino-terminal end of L1//1 [ , ]."
        }, 
        {
            "frame-id": "sent-PMC3041914-medscan-116", 
            "frame-type": "sentence", 
            "object-type": "frame", 
            "start-pos": {
                "object-type": "absolute-pos", 
                "offset": 116
            }, 
            "text": "As a reference, we used the UJ127 monoclonal antibody, which recognizes a linear epitope in the membrane-proximal FN4 domain [ ]."
        }, 
        {
            "frame-id": "sent-PMC3041914-medscan-117", 
            "frame-type": "sentence", 
            "object-type": "frame", 
            "start-pos": {
                "object-type": "absolute-pos", 
                "offset": 117
            }, 
            "text": "Binding of these antibodies reflects the conformation of the L1//1 ectodomain [ ]."
        }, 
        {
            "frame-id": "sent-PMC3041914-medscan-118", 
            "frame-type": "sentence", 
            "object-type": "frame", 
            "start-pos": {
                "object-type": "absolute-pos", 
                "offset": 118
            }, 
            "text": "slow growing cells demonstrate identical 5G3 and UJ127 signal (Fig. )."
        }, 
        {
            "frame-id": "sent-PMC3041914-medscan-119", 
            "frame-type": "sentence", 
            "object-type": "frame", 
            "start-pos": {
                "object-type": "absolute-pos", 
                "offset": 119
            }, 
            "text": "In contrast, fast growing 5G3 reactivity is more than double UJ127 (mean fluorescence intensity 104.7 vs. 45.9)."
        }, 
        {
            "frame-id": "sent-PMC3041914-medscan-120", 
            "frame-type": "sentence", 
            "object-type": "frame", 
            "start-pos": {
                "object-type": "absolute-pos", 
                "offset": 120
            }, 
            "text": "However, since 5G3 signal is identical in slow growing and fast growing cells, the actual difference is a reduction of fast growing UJ127 signal."
        }, 
        {
            "frame-id": "sent-PMC3041914-medscan-121", 
            "frame-type": "sentence", 
            "object-type": "frame", 
            "start-pos": {
                "object-type": "absolute-pos", 
                "offset": 121
            }, 
            "text": "This differential UJ127 epitope exposure was not limited to the live cell conditions of FACS, as both 5G3 and UJ127 immunoprecipitated similar amounts of L1//1 from slow growing cells, but UJ127 immunoprecipitated significantly less L1//1 than 5G3 from fast growing detergent lysates (Fig. )."
        }, 
        {
            "frame-id": "sent-PMC3041914-medscan-122", 
            "frame-type": "sentence", 
            "object-type": "frame", 
            "start-pos": {
                "object-type": "absolute-pos", 
                "offset": 122
            }, 
            "text": "Differential reactivity such as this has been linked previously to T1172//1172 phosphorylation at the membrane-proximal end of the L1//1 cytoplasmic domain [ ]."
        }, 
        {
            "frame-id": "sent-PMC3041914-medscan-123", 
            "frame-type": "sentence", 
            "object-type": "frame", 
            "start-pos": {
                "object-type": "absolute-pos", 
                "offset": 123
            }, 
            "text": "Consistent with more T1172//1172-unphosphorylated L1//1 in the slow growing cells, the T1172//1172-phosphorylation sensitive 2C2 monoclonal antibody [ , ] is much more reactive with L1//1 from slow growing cells (Fig. )."
        }, 
        {
            "frame-id": "sent-PMC3041914-medscan-124", 
            "frame-type": "sentence", 
            "object-type": "frame", 
            "start-pos": {
                "object-type": "absolute-pos", 
                "offset": 124
            }, 
            "text": "It should be noted that the immunoprecipitated products shown in Fig. represent the full-length L1//1 species: since 2C2 recognizes the cytoplasmic domain, it is not capable of immunoprecipating the 195 kDa species, but still demonstrates the presence of a doublet that is consistent with the data shown in Fig. using ectodomain-specific antibodies."
        }, 
        {
            "frame-id": "sent-PMC3041914-medscan-125", 
            "frame-type": "sentence", 
            "object-type": "frame", 
            "start-pos": {
                "object-type": "absolute-pos", 
                "offset": 125
            }, 
            "text": "Moreover, since the cells appear to shed the 195 KDa into their culture media, it is unlikely that there would be 195-KDa species that remains cell associated and therefore in the cell lysates used for immunoprecipation."
        }, 
        {
            "frame-id": "sent-PMC3041914-medscan-126", 
            "frame-type": "sentence", 
            "object-type": "frame", 
            "start-pos": {
                "object-type": "absolute-pos", 
                "offset": 126
            }, 
            "text": "Fig. 5C20 reactivity correlates with the availability of the UJ127 epitope in the L1//1 ectodomain. a FACS analysis of cell surfaceL1//1 demonstrates reduced UJ127 reactivity in fast growing cells versus slow growing cells. b Immunoprecipitation analysis demonstrates that UJ127 immunoprecipitates less L1//1 than 5G3 from fast growing cells. c Immunoblot of the lysates from b with the 2C2 monoclonal antibody, whose binding is blocked by T1172//1172 phosphorylation."
        }, 
        {
            "frame-id": "sent-PMC3041914-medscan-127", 
            "frame-type": "sentence", 
            "object-type": "frame", 
            "start-pos": {
                "object-type": "absolute-pos", 
                "offset": 127
            }, 
            "text": "Erk2, loading control. d Reducing immunoblot of Tac-L1//1 constructs expressed in Panc1 cells with 2C2 or C20. *Shorter 2C2 exposure verifies that upper species are detectable at an exposure equivalent to that shown for C20 (i.e., monomer band intensities are equal)."
        }, 
        {
            "frame-id": "sent-PMC3041914-medscan-128", 
            "frame-type": "sentence", 
            "object-type": "frame", 
            "start-pos": {
                "object-type": "absolute-pos", 
                "offset": 128
            }, 
            "text": "Relative migration of protein standards indicated on the left in KDa."
        }, 
        {
            "frame-id": "sent-PMC3041914-medscan-129", 
            "frame-type": "sentence", 
            "object-type": "frame", 
            "start-pos": {
                "object-type": "absolute-pos", 
                "offset": 129
            }, 
            "text": "UJ127, loading control and verification of lack of C20 reactivity with endogenous L1//1 in these cells. e Clustering of Tac-L1//1 cytoplasmic chimeras induces erk phosphorylation in an N1251-dependent manner."
        }, 
        {
            "frame-id": "sent-PMC3041914-medscan-130", 
            "frame-type": "sentence", 
            "object-type": "frame", 
            "start-pos": {
                "object-type": "absolute-pos", 
                "offset": 130
            }, 
            "text": "Erk2, loading control. f GST-pulldown analysis demonstrates that N1251 is not required for RanBPM interaction with L1//1."
        }, 
        {
            "frame-id": "sent-PMC3041914-medscan-131", 
            "frame-type": "sentence", 
            "object-type": "frame", 
            "start-pos": {
                "object-type": "absolute-pos", 
                "offset": 131
            }, 
            "text": "GST, loading control The significance of these data is highlighted by the fact that the membrane-distal end of the L1//1 cytoplasmic domain has been shown to loop back onto the membrane-proximal end in a manner dependent on the integrity of membrane-proximal (KRSK1147) and membrane-distal (KKEK1235) dibasic motifs [ ]."
        }, 
        {
            "frame-id": "sent-PMC3041914-medscan-132", 
            "frame-type": "sentence", 
            "object-type": "frame", 
            "start-pos": {
                "object-type": "absolute-pos", 
                "offset": 132
            }, 
            "text": "Thus, N1251 modification may impact aspects of L1//1 biology through structural modification and/or destabilization of this region, and concomitant regulation of cytoplasmic domain folding."
        }, 
        {
            "frame-id": "sent-PMC3041914-medscan-133", 
            "frame-type": "sentence", 
            "object-type": "frame", 
            "start-pos": {
                "object-type": "absolute-pos", 
                "offset": 133
            }, 
            "text": "This is potentially important because the conformation of the L1//1 cytoplasmic domain regulates the availability of tyrosine and threonine residues to kinases [ ]."
        }, 
        {
            "frame-id": "sent-PMC3041914-medscan-134", 
            "frame-type": "sentence", 
            "object-type": "frame", 
            "start-pos": {
                "object-type": "absolute-pos", 
                "offset": 134
            }, 
            "text": "To examine the role of N1251 in regulating L1//1 cytoplamic domain function, we engineered chimeras encoding the ectodomain and transmembrane domain of the high-affinity IL2 receptor (IL2R\u03b1, CD25, Tac), linked to the L1//1 cytoplasmic domain (Tac/L11144//11144-1257)."
        }, 
        {
            "frame-id": "sent-PMC3041914-medscan-135", 
            "frame-type": "sentence", 
            "object-type": "frame", 
            "start-pos": {
                "object-type": "absolute-pos", 
                "offset": 135
            }, 
            "text": "In isolation, Tac is a monomeric protein that lacks the ability to signal in the absence of the other heterodimer IL2R partners (i.e., IL2R\u03b2 and IL2R\u03b3) [ ], which are not expressed by pancreatic epithelial cells."
        }, 
        {
            "frame-id": "sent-PMC3041914-medscan-136", 
            "frame-type": "sentence", 
            "object-type": "frame", 
            "start-pos": {
                "object-type": "absolute-pos", 
                "offset": 136
            }, 
            "text": "We found that Tac/L11144//11144-1257 multimerizes, a process that is stable enough to withstand the rigors of reducing sodium dodecyl sulfate polyacrylamide gel electrophoresis (Fig. )."
        }, 
        {
            "frame-id": "sent-PMC3041914-medscan-137", 
            "frame-type": "sentence", 
            "object-type": "frame", 
            "start-pos": {
                "object-type": "absolute-pos", 
                "offset": 137
            }, 
            "text": "Importantly, whereas 2C2 recognizes these aggregates as well as the monomeric species, C20 fails to recognize the aggregate forms (Fig. ), demonstrating that critical determinants of C20 binding are functionally involved in mediating this multimerization process, and are thereby obscured in so doing."
        }, 
        {
            "frame-id": "sent-PMC3041914-medscan-138", 
            "frame-type": "sentence", 
            "object-type": "frame", 
            "start-pos": {
                "object-type": "absolute-pos", 
                "offset": 138
            }, 
            "text": "As noted above, in the absence of IL2R heterodimer partners (i.e., IL2R\u03b2 and IL2R\u03b3), Tac lacks the ability to signal."
        }, 
        {
            "frame-id": "sent-PMC3041914-medscan-139", 
            "frame-type": "sentence", 
            "object-type": "frame", 
            "start-pos": {
                "object-type": "absolute-pos", 
                "offset": 139
            }, 
            "text": "In response to clustering, however, chimeras such as these have been shown to signal through the intracellular fusion sequences [ ]."
        }, 
        {
            "frame-id": "sent-PMC3041914-medscan-140", 
            "frame-type": "sentence", 
            "object-type": "frame", 
            "start-pos": {
                "object-type": "absolute-pos", 
                "offset": 140
            }, 
            "text": "We found that clustering of Tac/L1//1 cytoplasmic domain chimeras induced erk phosphorylation in a manner attenuated by mutation of N1251 to either alanine or aspartic acid (Fig. )."
        }, 
        {
            "frame-id": "sent-PMC3041914-medscan-141", 
            "frame-type": "sentence", 
            "object-type": "frame", 
            "start-pos": {
                "object-type": "absolute-pos", 
                "offset": 141
            }, 
            "text": "N1251 does not appear to be a mediator of RanBPM-L1//1 interactions, however, as mutation of N1251 did not negatively affect the binding of L1//1 constructs to RanBPM (Fig. )."
        }, 
        {
            "frame-id": "sent-PMC3041914-medscan-142", 
            "frame-type": "sentence", 
            "object-type": "frame", 
            "start-pos": {
                "object-type": "absolute-pos", 
                "offset": 142
            }, 
            "text": "Using a panel of 92 patient samples including normal pancreas and all grades of Pancreatic ductal adenocarcinoma, we show that the neural cell adhesion molecule is expressed by moderately- and poorly-differentiated Pancreatic ductal adenocarcinoma cells in situ."
        }, 
        {
            "frame-id": "sent-PMC3041914-medscan-143", 
            "frame-type": "sentence", 
            "object-type": "frame", 
            "start-pos": {
                "object-type": "absolute-pos", 
                "offset": 143
            }, 
            "text": "These data may be an underestimate, since margin tissue was not available for all samples analyzed, and we found that L1//1 expression was often more prominent at the tumor margin."
        }, 
        {
            "frame-id": "sent-PMC3041914-medscan-144", 
            "frame-type": "sentence", 
            "object-type": "frame", 
            "start-pos": {
                "object-type": "absolute-pos", 
                "offset": 144
            }, 
            "text": "More importantly, L1//1 expression correlates with poor survival in our set of Pancreatic ductal adenocarcinoma patients, similar to what has been reported in colon cancer [ ]."
        }, 
        {
            "frame-id": "sent-PMC3041914-medscan-145", 
            "frame-type": "sentence", 
            "object-type": "frame", 
            "start-pos": {
                "object-type": "absolute-pos", 
                "offset": 145
            }, 
            "text": "We additionally found that L1//1 expression is tightly controlled in Pancreatic ductal adenocarcinoma cells, and FACS-sorted low-expressing subpopulations were unstable, and quickly reverted to parental levels."
        }, 
        {
            "frame-id": "sent-PMC3041914-medscan-146", 
            "frame-type": "sentence", 
            "object-type": "frame", 
            "start-pos": {
                "object-type": "absolute-pos", 
                "offset": 146
            }, 
            "text": "These data are consistent with L1//1 imparting a selective advantage in vitro."
        }, 
        {
            "frame-id": "sent-PMC3041914-medscan-147", 
            "frame-type": "sentence", 
            "object-type": "frame", 
            "start-pos": {
                "object-type": "absolute-pos", 
                "offset": 147
            }, 
            "text": "This proposition is actually predicted by a prior work in which L1//1 was identified from a library of genetic suppressor elements as required for the growth of breast cancer cells [ ]."
        }, 
        {
            "frame-id": "sent-PMC3041914-medscan-148", 
            "frame-type": "sentence", 
            "object-type": "frame", 
            "start-pos": {
                "object-type": "absolute-pos", 
                "offset": 148
            }, 
            "text": "This report showed that suppression of L1//1, either functionally or at the level of expression, repressed growth and caused mitotic catastrophe in L1//1-positive breast, colon, and cervical carcinoma cells, without effect on normal breast epithelial cells or fibroblasts, indicating that L1//1 is required once it is expressed."
        }, 
        {
            "frame-id": "sent-PMC3041914-medscan-149", 
            "frame-type": "sentence", 
            "object-type": "frame", 
            "start-pos": {
                "object-type": "absolute-pos", 
                "offset": 149
            }, 
            "text": "Mechanistically, our data demonstrate a loss of reactivity with the carboxy-terminus-specific antibody C20 in less differentiated fast growing cells, to the exclusion of their well-differentiated and less malignant counterpart slow growing cells."
        }, 
        {
            "frame-id": "sent-PMC3041914-medscan-150", 
            "frame-type": "sentence", 
            "object-type": "frame", 
            "start-pos": {
                "object-type": "absolute-pos", 
                "offset": 150
            }, 
            "text": "Importantly, we have found that poorly differentiated Pancreatic ductal adenocarcinoma lesions demonstrate reduced C20 reactivity in situ, while C20 strongly detects nerves in the same sections (not shown)."
        }, 
        {
            "frame-id": "sent-PMC3041914-medscan-151", 
            "frame-type": "sentence", 
            "object-type": "frame", 
            "start-pos": {
                "object-type": "absolute-pos", 
                "offset": 151
            }, 
            "text": "However, the polyclonal nature of C20 and the presence of parts of the C20 epitope sequence in other, non-L1//1-related proteins promotes some detection of L1//1-negative cells and structures, hampering its utility in IHC."
        }, 
        {
            "frame-id": "sent-PMC3041914-medscan-152", 
            "frame-type": "sentence", 
            "object-type": "frame", 
            "start-pos": {
                "object-type": "absolute-pos", 
                "offset": 152
            }, 
            "text": "It is important to note, however, that the lack of C20 signal in known-L1//1-positive Pancreatic ductal adenocarcinoma cells in situ cannot be explained by this \"cross-reactivity\"."
        }, 
        {
            "frame-id": "sent-PMC3041914-medscan-153", 
            "frame-type": "sentence", 
            "object-type": "frame", 
            "start-pos": {
                "object-type": "absolute-pos", 
                "offset": 153
            }, 
            "text": "As such, our in situ data corraborate our in vitro data."
        }, 
        {
            "frame-id": "sent-PMC3041914-medscan-154", 
            "frame-type": "sentence", 
            "object-type": "frame", 
            "start-pos": {
                "object-type": "absolute-pos", 
                "offset": 154
            }, 
            "text": "Since the L1//1 cytoplasmic domain does not contain consensus motifs for intracellular proteases (e.g., calpain), and since we accordingly do not detect proteolytic cleavage of the L1//1 cytoplasmic domain in a manner suggesting removal of this epitope, we propose that post-translational modification is responsible for the observed loss of reactivity."
        }, 
        {
            "frame-id": "sent-PMC3041914-medscan-155", 
            "frame-type": "sentence", 
            "object-type": "frame", 
            "start-pos": {
                "object-type": "absolute-pos", 
                "offset": 155
            }, 
            "text": "Although T1247//1247 and S1248//1248 near the L1//1 carboxy-terminus have been implicated in regulating MAP-kinase activation and gene expression associated with the L1//1-induced phenotype of ovarian cancer cells [ ], epitope mapping instead demonstrates that modification of N1251 in the carboxy-terminal nine amino acids attenuates the binding of C20."
        }, 
        {
            "frame-id": "sent-PMC3041914-medscan-156", 
            "frame-type": "sentence", 
            "object-type": "frame", 
            "start-pos": {
                "object-type": "absolute-pos", 
                "offset": 156
            }, 
            "text": "As such, mutation of N1251 to either alanine, or one product of asparagine deamidation, aspartic acid, almost completely abrogated antibody binding."
        }, 
        {
            "frame-id": "sent-PMC3041914-medscan-157", 
            "frame-type": "sentence", 
            "object-type": "frame", 
            "start-pos": {
                "object-type": "absolute-pos", 
                "offset": 157
            }, 
            "text": "This is highly significant since glutamine-glutamate modification has been shown to regulate receptor multimerization, putatively by reducing electrostatic repulsion between helices [ ], and similar mechanisms have been proposed for asparagine-aspartate conversion including the regulation of peptide hormone dimerization [ ] and activation of extracellular matrix molecules [ ]."
        }, 
        {
            "frame-id": "sent-PMC3041914-medscan-158", 
            "frame-type": "sentence", 
            "object-type": "frame", 
            "start-pos": {
                "object-type": "absolute-pos", 
                "offset": 158
            }, 
            "text": "Moreover, the deamidation of specific asparagines to the exclusion of neighboring asparagines has been shown to regulate protein structure and function [ ]."
        }, 
        {
            "frame-id": "sent-PMC3041914-medscan-159", 
            "frame-type": "sentence", 
            "object-type": "frame", 
            "start-pos": {
                "object-type": "absolute-pos", 
                "offset": 159
            }, 
            "text": "Therefore, the relative abundance of deamidated N1251 in malignant Pancreatic ductal adenocarcinoma cells might provide a regulatory mechanism for controlling L1//1 activity."
        }, 
        {
            "frame-id": "sent-PMC3041914-medscan-160", 
            "frame-type": "sentence", 
            "object-type": "frame", 
            "start-pos": {
                "object-type": "absolute-pos", 
                "offset": 160
            }, 
            "text": "While it is possible that N1251 modification directly regulates erk activation, its role could also be indirect."
        }, 
        {
            "frame-id": "sent-PMC3041914-medscan-161", 
            "frame-type": "sentence", 
            "object-type": "frame", 
            "start-pos": {
                "object-type": "absolute-pos", 
                "offset": 161
            }, 
            "text": "The Neural Network Prediction program (http://npsa-pbil.ibcp.fr/) predicted that the region at the end of the L1//1 cytoplasmic domain forms a random coil; however, the region around N1251 contains two prolines separated by a dipeptide linker with a small aliphatic residue immediately after both prolines."
        }, 
        {
            "frame-id": "sent-PMC3041914-medscan-162", 
            "frame-type": "sentence", 
            "object-type": "frame", 
            "start-pos": {
                "object-type": "absolute-pos", 
                "offset": 162
            }, 
            "text": "Though much less constrained overall, this sequence is similar to the glycine/proline tripeptide repeat sequence of collagen molecules that provides the primary impetus for their coiled coil structure [ ]."
        }, 
        {
            "frame-id": "sent-PMC3041914-medscan-163", 
            "frame-type": "sentence", 
            "object-type": "frame", 
            "start-pos": {
                "object-type": "absolute-pos", 
                "offset": 163
            }, 
            "text": "Therefore, N1251 modification might indirectly promote unfolding of the L1//1 cytoplasmic domain as described previously [ ]."
        }, 
        {
            "frame-id": "sent-PMC3041914-medscan-164", 
            "frame-type": "sentence", 
            "object-type": "frame", 
            "start-pos": {
                "object-type": "absolute-pos", 
                "offset": 164
            }, 
            "text": "Such a mechanism may also be responsible for the dramatic phenotype observed in T1247A/S1248A mutants described previously [ ]."
        }, 
        {
            "frame-id": "sent-PMC3041914-medscan-165", 
            "frame-type": "sentence", 
            "object-type": "frame", 
            "start-pos": {
                "object-type": "absolute-pos", 
                "offset": 165
            }, 
            "text": "Moreover, the regulation of specific patterns of extracellular proteolysis by these events could also indirectly lead to differential signaling through erk and other pathways as has been demonstrated previously [ , , , ]."
        }, 
        {
            "frame-id": "sent-PMC3041914-medscan-166", 
            "frame-type": "sentence", 
            "object-type": "frame", 
            "start-pos": {
                "object-type": "absolute-pos", 
                "offset": 166
            }, 
            "text": "A model illustrating the conformational regulation of L1//1 activity by these events is shown in Fig. ."
        }, 
        {
            "frame-id": "sent-PMC3041914-medscan-167", 
            "frame-type": "sentence", 
            "object-type": "frame", 
            "start-pos": {
                "object-type": "absolute-pos", 
                "offset": 167
            }, 
            "text": "Fig. 6Model of L1//1 conformational regulation by cytoplasmic modifications."
        }, 
        {
            "frame-id": "sent-PMC3041914-medscan-168", 
            "frame-type": "sentence", 
            "object-type": "frame", 
            "start-pos": {
                "object-type": "absolute-pos", 
                "offset": 168
            }, 
            "text": "L1//1 has been shown to exist in distinct conformations on the cell surface [ ]."
        }, 
        {
            "frame-id": "sent-PMC3041914-medscan-169", 
            "frame-type": "sentence", 
            "object-type": "frame", 
            "start-pos": {
                "object-type": "absolute-pos", 
                "offset": 169
            }, 
            "text": "These conformations have been shown to involve T1172//1172 phosphorylation [ ], and T1172//1172 phosphorylation has been shown to be regulated by the conformation of the L1//1 cytoplasmic tail [ ]."
        }, 
        {
            "frame-id": "sent-PMC3041914-medscan-170", 
            "frame-type": "sentence", 
            "object-type": "frame", 
            "start-pos": {
                "object-type": "absolute-pos", 
                "offset": 170
            }, 
            "text": "We propose a model whereby T1172//1172 availability is regulated at least in part by unfolding of the L1//1 cytoplasmic domain that is triggered by deamidation of N1251."
        }, 
        {
            "frame-id": "sent-PMC3041914-medscan-171", 
            "frame-type": "sentence", 
            "object-type": "frame", 
            "start-pos": {
                "object-type": "absolute-pos", 
                "offset": 171
            }, 
            "text": "The ramifications of this event (e.g., proteolysis and signaling) are shown."
        }, 
        {
            "frame-id": "sent-PMC3041914-medscan-172", 
            "frame-type": "sentence", 
            "object-type": "frame", 
            "start-pos": {
                "object-type": "absolute-pos", 
                "offset": 172
            }, 
            "text": "Y tyrosine, N asparagine, D aspartate, isoD iso-aspartate In summary, we propose a model in which modification of N1251 of L1//1 represents a means of regulating erk activation by the carboxy-terminal region of L1//1."
        }, 
        {
            "frame-id": "sent-PMC3041914-medscan-173", 
            "frame-type": "sentence", 
            "object-type": "frame", 
            "start-pos": {
                "object-type": "absolute-pos", 
                "offset": 173
            }, 
            "text": "This region has been shown previously to regulate erk activation via both RanBPM-dependent and RanBPM-independent mechanisms [ , ]."
        }, 
        {
            "frame-id": "sent-PMC3041914-medscan-174", 
            "frame-type": "sentence", 
            "object-type": "frame", 
            "start-pos": {
                "object-type": "absolute-pos", 
                "offset": 174
            }, 
            "text": "N1251 does not appear to be involved in RanBPM binding to L1//1; therefore, the N1251 mechanism may be indirect, by promoting conformational alterations to the L1//1 cytoplasmic domain."
        }, 
        {
            "frame-id": "sent-PMC3041914-medscan-175", 
            "frame-type": "sentence", 
            "object-type": "frame", 
            "start-pos": {
                "object-type": "absolute-pos", 
                "offset": 175
            }, 
            "text": "Indeed, in this report, we show that C20 reactivity reflects the presence of a distinct conformation of the L1//1 ectodomain, consistent with prior reports of L1//1 ectodomain conformation regulation by cytoplasmic domain modification [ ]."
        }, 
        {
            "frame-id": "sent-PMC3041914-medscan-176", 
            "frame-type": "sentence", 
            "object-type": "frame", 
            "start-pos": {
                "object-type": "absolute-pos", 
                "offset": 176
            }, 
            "text": "While we recognize the limitations of our studies utilizing recombinant proteins, these data are consistent with our previous observations on the flexibility of the L1//1 ectodomain and cytoplasmic domain, and the inter-regulated nature of each [ , ]."
        }, 
        {
            "frame-id": "sent-PMC3041914-medscan-177", 
            "frame-type": "sentence", 
            "object-type": "frame", 
            "start-pos": {
                "object-type": "absolute-pos", 
                "offset": 177
            }, 
            "text": "We further relate our recombinant in vitro data to studies of endogenous L1//1 and L1//1 chimeras expressed in Pancreatic ductal adenocarcinoma cells."
        }, 
        {
            "frame-id": "sent-PMC3041914-medscan-178", 
            "frame-type": "sentence", 
            "object-type": "frame", 
            "start-pos": {
                "object-type": "absolute-pos", 
                "offset": 178
            }, 
            "text": "Findings such as these continue to advance our understanding of L1//1 biology and the role of specific sequences, especially within the cytoplasmic domain, which is relatively understudied."
        }
    ], 
    "object-meta": {
        "component": "MedScan", 
        "component-type": "machine", 
        "doc-id": "PMC3041914", 
        "object-type": "meta-info", 
        "organization": "CMU"
    }, 
    "object-type": "frame-collection"
}
