{
    "frames": [
        {
            "frame-id": "smap-PMC2022656-cmu-1", 
            "frame-type": "sentence-map", 
            "list1-meta": {
                "component": "nxml2fries", 
                "object-type": "meta-info", 
                "organization": "UAZ"
            }, 
            "list2-meta": {
                "component": "Nicolas-NXML-Parser", 
                "object-type": "meta-info", 
                "organization": "CMU"
            }, 
            "map": [
                {
                    "from": "sent-PMC2022656-UAZ-r1-24-4", 
                    "object-type": "map-range", 
                    "to": "sent-PMC2022656-cmu-44"
                }, 
                {
                    "from": "sent-PMC2022656-UAZ-r1-60-0", 
                    "object-type": "map-range", 
                    "to": "sent-PMC2022656-cmu-112"
                }, 
                {
                    "from": "sent-PMC2022656-UAZ-r1-65-5", 
                    "object-type": "map-range", 
                    "to": "sent-PMC2022656-cmu-139"
                }, 
                {
                    "from": "sent-PMC2022656-UAZ-r1-28-1", 
                    "object-type": "map-range", 
                    "to": "sent-PMC2022656-cmu-57"
                }, 
                {
                    "from": "sent-PMC2022656-UAZ-r1-65-6", 
                    "object-type": "map-range", 
                    "to": "sent-PMC2022656-cmu-140"
                }, 
                {
                    "from": "sent-PMC2022656-UAZ-r1-31-1", 
                    "object-type": "map-range", 
                    "to": "sent-PMC2022656-cmu-64"
                }, 
                {
                    "from": "sent-PMC2022656-UAZ-r1-17-8", 
                    "object-type": "map-range", 
                    "to": "sent-PMC2022656-cmu-12"
                }, 
                {
                    "from": "sent-PMC2022656-UAZ-r1-17-7", 
                    "object-type": "map-range", 
                    "to": "sent-PMC2022656-cmu-11"
                }, 
                {
                    "from": "sent-PMC2022656-UAZ-r1-24-2", 
                    "object-type": "map-range", 
                    "to": "sent-PMC2022656-cmu-42"
                }, 
                {
                    "from": "sent-PMC2022656-UAZ-r1-147-0", 
                    "object-type": "map-range", 
                    "to": "sent-PMC2022656-cmu-102"
                }, 
                {
                    "from": "sent-PMC2022656-UAZ-r1-17-3", 
                    "object-type": "map-range", 
                    "to": "sent-PMC2022656-cmu-5"
                }, 
                {
                    "from": "sent-PMC2022656-UAZ-r1-64-10", 
                    "object-type": "map-range", 
                    "to": "sent-PMC2022656-cmu-131"
                }, 
                {
                    "from": "sent-PMC2022656-UAZ-r1-68-2", 
                    "object-type": "map-range", 
                    "to": "sent-PMC2022656-cmu-180"
                }, 
                {
                    "from": "sent-PMC2022656-UAZ-r1-19-1", 
                    "object-type": "map-range", 
                    "to": "sent-PMC2022656-cmu-37"
                }, 
                {
                    "from": "sent-PMC2022656-UAZ-r1-43-0", 
                    "object-type": "map-range", 
                    "to": "sent-PMC2022656-cmu-85"
                }, 
                {
                    "from": "sent-PMC2022656-UAZ-r1-17-1", 
                    "object-type": "map-range", 
                    "to": "sent-PMC2022656-cmu-2"
                }, 
                {
                    "from": "sent-PMC2022656-UAZ-r1-64-6", 
                    "object-type": "map-range", 
                    "to": "sent-PMC2022656-cmu-126"
                }, 
                {
                    "from": "sent-PMC2022656-UAZ-r1-68-0", 
                    "object-type": "map-range", 
                    "to": "sent-PMC2022656-cmu-178"
                }, 
                {
                    "from": "sent-PMC2022656-UAZ-r1-42-0", 
                    "object-type": "map-range", 
                    "to": "sent-PMC2022656-cmu-84"
                }, 
                {
                    "from": "sent-PMC2022656-UAZ-r1-34-2", 
                    "object-type": "map-range", 
                    "to": "sent-PMC2022656-cmu-69"
                }, 
                {
                    "from": "sent-PMC2022656-UAZ-r1-17-2", 
                    "object-type": "map-range", 
                    "to": "sent-PMC2022656-cmu-3"
                }, 
                {
                    "from": "sent-PMC2022656-UAZ-r1-31-0", 
                    "object-type": "map-range", 
                    "to": "sent-PMC2022656-cmu-62"
                }, 
                {
                    "from": "sent-PMC2022656-UAZ-r1-64-9", 
                    "object-type": "map-range", 
                    "to": "sent-PMC2022656-cmu-130"
                }, 
                {
                    "from": "sent-PMC2022656-UAZ-r1-27-1", 
                    "object-type": "map-range", 
                    "to": "sent-PMC2022656-cmu-49"
                }, 
                {
                    "from": "sent-PMC2022656-UAZ-r1-17-10", 
                    "object-type": "map-range", 
                    "to": "sent-PMC2022656-cmu-16"
                }, 
                {
                    "from": "sent-PMC2022656-UAZ-r1-17-12", 
                    "object-type": "map-range", 
                    "to": "sent-PMC2022656-cmu-20"
                }, 
                {
                    "from": "sent-PMC2022656-UAZ-r1-27-5", 
                    "object-type": "map-range", 
                    "to": "sent-PMC2022656-cmu-54"
                }, 
                {
                    "from": "sent-PMC2022656-UAZ-r1-43-1", 
                    "object-type": "map-range", 
                    "to": "sent-PMC2022656-cmu-86"
                }, 
                {
                    "from": "sent-PMC2022656-UAZ-r1-66-2", 
                    "object-type": "map-range", 
                    "to": "sent-PMC2022656-cmu-151"
                }, 
                {
                    "from": "sent-PMC2022656-UAZ-r1-28-3", 
                    "object-type": "map-range", 
                    "to": "sent-PMC2022656-cmu-59"
                }, 
                {
                    "from": "sent-PMC2022656-UAZ-r1-53-2", 
                    "object-type": "map-range", 
                    "to": "sent-PMC2022656-cmu-101"
                }, 
                {
                    "from": "sent-PMC2022656-UAZ-r1-17-5", 
                    "object-type": "map-range", 
                    "to": "sent-PMC2022656-cmu-8"
                }, 
                {
                    "from": "sent-PMC2022656-UAZ-r1-66-0", 
                    "object-type": "map-range", 
                    "to": "sent-PMC2022656-cmu-148"
                }, 
                {
                    "from": "sent-PMC2022656-UAZ-r1-65-7", 
                    "object-type": "map-range", 
                    "to": "sent-PMC2022656-cmu-141"
                }, 
                {
                    "from": "sent-PMC2022656-UAZ-r1-51-0", 
                    "object-type": "map-range", 
                    "to": "sent-PMC2022656-cmu-94"
                }, 
                {
                    "from": "sent-PMC2022656-UAZ-r1-53-0", 
                    "object-type": "map-range", 
                    "to": "sent-PMC2022656-cmu-99"
                }, 
                {
                    "from": "sent-PMC2022656-UAZ-r1-66-1", 
                    "object-type": "map-range", 
                    "to": "sent-PMC2022656-cmu-149"
                }, 
                {
                    "from": "sent-PMC2022656-UAZ-r1-64-8", 
                    "object-type": "map-range", 
                    "to": "sent-PMC2022656-cmu-128"
                }, 
                {
                    "from": "sent-PMC2022656-UAZ-r1-61-0", 
                    "object-type": "map-range", 
                    "to": "sent-PMC2022656-cmu-113"
                }, 
                {
                    "from": "sent-PMC2022656-UAZ-r1-67-2", 
                    "object-type": "map-range", 
                    "to": "sent-PMC2022656-cmu-171"
                }, 
                {
                    "from": "sent-PMC2022656-UAZ-r1-64-5", 
                    "object-type": "map-range", 
                    "to": "sent-PMC2022656-cmu-121"
                }, 
                {
                    "from": "sent-PMC2022656-UAZ-r1-68-1", 
                    "object-type": "map-range", 
                    "to": "sent-PMC2022656-cmu-179"
                }, 
                {
                    "from": "sent-PMC2022656-UAZ-r1-59-0", 
                    "object-type": "map-range", 
                    "to": "sent-PMC2022656-cmu-111"
                }, 
                {
                    "from": "sent-PMC2022656-UAZ-r1-24-1", 
                    "object-type": "map-range", 
                    "to": "sent-PMC2022656-cmu-41"
                }, 
                {
                    "from": "sent-PMC2022656-UAZ-r1-24-5", 
                    "object-type": "map-range", 
                    "to": "sent-PMC2022656-cmu-45"
                }, 
                {
                    "from": "sent-PMC2022656-UAZ-r1-19-0", 
                    "object-type": "map-range", 
                    "to": "sent-PMC2022656-cmu-35"
                }, 
                {
                    "from": "sent-PMC2022656-UAZ-r1-17-0", 
                    "object-type": "map-range", 
                    "to": "sent-PMC2022656-cmu-1"
                }, 
                {
                    "from": "sent-PMC2022656-UAZ-r1-65-2", 
                    "object-type": "map-range", 
                    "to": "sent-PMC2022656-cmu-134"
                }, 
                {
                    "from": "sent-PMC2022656-UAZ-r1-67-1", 
                    "object-type": "map-range", 
                    "to": "sent-PMC2022656-cmu-167"
                }, 
                {
                    "from": "sent-PMC2022656-UAZ-r1-66-7", 
                    "object-type": "map-range", 
                    "to": "sent-PMC2022656-cmu-160"
                }, 
                {
                    "from": "sent-PMC2022656-UAZ-r1-67-3", 
                    "object-type": "map-range", 
                    "to": "sent-PMC2022656-cmu-176"
                }, 
                {
                    "from": "sent-PMC2022656-UAZ-r1-64-0", 
                    "object-type": "map-range", 
                    "to": "sent-PMC2022656-cmu-116"
                }, 
                {
                    "from": "sent-PMC2022656-UAZ-r1-57-1", 
                    "object-type": "map-range", 
                    "to": "sent-PMC2022656-cmu-106"
                }, 
                {
                    "from": "sent-PMC2022656-UAZ-r1-57-2", 
                    "object-type": "map-range", 
                    "to": "sent-PMC2022656-cmu-107"
                }, 
                {
                    "from": "sent-PMC2022656-UAZ-r1-67-0", 
                    "object-type": "map-range", 
                    "to": "sent-PMC2022656-cmu-165"
                }, 
                {
                    "from": "sent-PMC2022656-UAZ-r1-24-0", 
                    "object-type": "map-range", 
                    "to": "sent-PMC2022656-cmu-40"
                }, 
                {
                    "from": "sent-PMC2022656-UAZ-r1-33-0", 
                    "object-type": "map-range", 
                    "to": "sent-PMC2022656-cmu-66"
                }, 
                {
                    "from": "sent-PMC2022656-UAZ-r1-65-1", 
                    "object-type": "map-range", 
                    "to": "sent-PMC2022656-cmu-133"
                }, 
                {
                    "from": "sent-PMC2022656-UAZ-r1-27-3", 
                    "object-type": "map-range", 
                    "to": "sent-PMC2022656-cmu-51"
                }, 
                {
                    "from": "sent-PMC2022656-UAZ-r1-56-0", 
                    "object-type": "map-range", 
                    "to": "sent-PMC2022656-cmu-103"
                }, 
                {
                    "from": "sent-PMC2022656-UAZ-r1-28-0", 
                    "object-type": "map-range", 
                    "to": "sent-PMC2022656-cmu-56"
                }, 
                {
                    "from": "sent-PMC2022656-UAZ-r1-17-6", 
                    "object-type": "map-range", 
                    "to": "sent-PMC2022656-cmu-9"
                }, 
                {
                    "from": "sent-PMC2022656-UAZ-r1-64-4", 
                    "object-type": "map-range", 
                    "to": "sent-PMC2022656-cmu-120"
                }, 
                {
                    "from": "sent-PMC2022656-UAZ-r1-52-1", 
                    "object-type": "map-range", 
                    "to": "sent-PMC2022656-cmu-97"
                }, 
                {
                    "from": "sent-PMC2022656-UAZ-r1-65-4", 
                    "object-type": "map-range", 
                    "to": "sent-PMC2022656-cmu-138"
                }, 
                {
                    "from": "sent-PMC2022656-UAZ-r1-57-3", 
                    "object-type": "map-range", 
                    "to": "sent-PMC2022656-cmu-108"
                }, 
                {
                    "from": "sent-PMC2022656-UAZ-r1-24-3", 
                    "object-type": "map-range", 
                    "to": "sent-PMC2022656-cmu-43"
                }, 
                {
                    "from": "sent-PMC2022656-UAZ-r1-57-4", 
                    "object-type": "map-range", 
                    "to": "sent-PMC2022656-cmu-110"
                }, 
                {
                    "from": "sent-PMC2022656-UAZ-r1-65-0", 
                    "object-type": "map-range", 
                    "to": "sent-PMC2022656-cmu-132"
                }, 
                {
                    "from": "sent-PMC2022656-UAZ-r1-50-0", 
                    "object-type": "map-range", 
                    "to": "sent-PMC2022656-cmu-93"
                }, 
                {
                    "from": "sent-PMC2022656-UAZ-r1-65-9", 
                    "object-type": "map-range", 
                    "to": "sent-PMC2022656-cmu-147"
                }, 
                {
                    "from": "sent-PMC2022656-UAZ-r1-28-4", 
                    "object-type": "map-range", 
                    "to": "sent-PMC2022656-cmu-60"
                }, 
                {
                    "from": "sent-PMC2022656-UAZ-r1-66-4", 
                    "object-type": "map-range", 
                    "to": "sent-PMC2022656-cmu-156"
                }, 
                {
                    "from": "sent-PMC2022656-UAZ-r1-28-2", 
                    "object-type": "map-range", 
                    "to": "sent-PMC2022656-cmu-58"
                }, 
                {
                    "from": "sent-PMC2022656-UAZ-r1-17-11", 
                    "object-type": "map-range", 
                    "to": "sent-PMC2022656-cmu-18"
                }, 
                {
                    "from": "sent-PMC2022656-UAZ-r1-64-2", 
                    "object-type": "map-range", 
                    "to": "sent-PMC2022656-cmu-118"
                }, 
                {
                    "from": "sent-PMC2022656-UAZ-r1-53-1", 
                    "object-type": "map-range", 
                    "to": "sent-PMC2022656-cmu-100"
                }, 
                {
                    "from": "sent-PMC2022656-UAZ-r1-51-1", 
                    "object-type": "map-range", 
                    "to": "sent-PMC2022656-cmu-95"
                }, 
                {
                    "from": "sent-PMC2022656-UAZ-r1-56-1", 
                    "object-type": "map-range", 
                    "to": "sent-PMC2022656-cmu-104"
                }, 
                {
                    "from": "sent-PMC2022656-UAZ-r1-52-0", 
                    "object-type": "map-range", 
                    "to": "sent-PMC2022656-cmu-96"
                }, 
                {
                    "from": "sent-PMC2022656-UAZ-r1-64-7", 
                    "object-type": "map-range", 
                    "to": "sent-PMC2022656-cmu-127"
                }, 
                {
                    "from": "sent-PMC2022656-UAZ-r1-64-3", 
                    "object-type": "map-range", 
                    "to": "sent-PMC2022656-cmu-119"
                }, 
                {
                    "from": "sent-PMC2022656-UAZ-r1-66-3", 
                    "object-type": "map-range", 
                    "to": "sent-PMC2022656-cmu-153"
                }, 
                {
                    "from": "sent-PMC2022656-UAZ-r1-26-0", 
                    "object-type": "map-range", 
                    "to": "sent-PMC2022656-cmu-46"
                }, 
                {
                    "from": "sent-PMC2022656-UAZ-r1-66-6", 
                    "object-type": "map-range", 
                    "to": "sent-PMC2022656-cmu-158"
                }, 
                {
                    "from": "sent-PMC2022656-UAZ-r1-67-1", 
                    "object-type": "map-range", 
                    "to": "sent-PMC2022656-cmu-13"
                }, 
                {
                    "from": "sent-PMC2022656-UAZ-r1-65-3", 
                    "object-type": "map-range", 
                    "to": "sent-PMC2022656-cmu-135"
                }, 
                {
                    "from": "sent-PMC2022656-UAZ-r1-30-0", 
                    "object-type": "map-range", 
                    "to": "sent-PMC2022656-cmu-61"
                }, 
                {
                    "from": "sent-PMC2022656-UAZ-r1-66-9", 
                    "object-type": "map-range", 
                    "to": "sent-PMC2022656-cmu-164"
                }, 
                {
                    "from": "sent-PMC2022656-UAZ-r1-61-1", 
                    "object-type": "map-range", 
                    "to": "sent-PMC2022656-cmu-114"
                }, 
                {
                    "from": "sent-PMC2022656-UAZ-r1-66-5", 
                    "object-type": "map-range", 
                    "to": "sent-PMC2022656-cmu-157"
                }, 
                {
                    "from": "sent-PMC2022656-UAZ-r1-43-2", 
                    "object-type": "map-range", 
                    "to": "sent-PMC2022656-cmu-87"
                }, 
                {
                    "from": "sent-PMC2022656-UAZ-r1-34-0", 
                    "object-type": "map-range", 
                    "to": "sent-PMC2022656-cmu-67"
                }, 
                {
                    "from": "sent-PMC2022656-UAZ-r1-67-4", 
                    "object-type": "map-range", 
                    "to": "sent-PMC2022656-cmu-177"
                }, 
                {
                    "from": "sent-PMC2022656-UAZ-r1-27-4", 
                    "object-type": "map-range", 
                    "to": "sent-PMC2022656-cmu-52"
                }, 
                {
                    "from": "sent-PMC2022656-UAZ-r1-66-8", 
                    "object-type": "map-range", 
                    "to": "sent-PMC2022656-cmu-162"
                }, 
                {
                    "from": "sent-PMC2022656-UAZ-r1-17-4", 
                    "object-type": "map-range", 
                    "to": "sent-PMC2022656-cmu-6"
                }, 
                {
                    "from": "sent-PMC2022656-UAZ-r1-57-0", 
                    "object-type": "map-range", 
                    "to": "sent-PMC2022656-cmu-105"
                }, 
                {
                    "from": "sent-PMC2022656-UAZ-r1-52-2", 
                    "object-type": "map-range", 
                    "to": "sent-PMC2022656-cmu-98"
                }, 
                {
                    "from": "sent-PMC2022656-UAZ-r1-34-3", 
                    "object-type": "map-range", 
                    "to": "sent-PMC2022656-cmu-70"
                }, 
                {
                    "from": "sent-PMC2022656-UAZ-r1-65-8", 
                    "object-type": "map-range", 
                    "to": "sent-PMC2022656-cmu-143"
                }
            ], 
            "object-meta": {
                "component": "Pradeep-Matcher", 
                "object-type": "meta-info", 
                "organization": "CMU"
            }, 
            "object-type": "frame"
        }, 
        {
            "frame-id": "smap-PMC2022656-cmu-2", 
            "frame-type": "sentence-map", 
            "list1-meta": {
                "component": "MedScan", 
                "object-type": "meta-info", 
                "organization": "CMU"
            }, 
            "list2-meta": {
                "component": "Nicolas-NXML-Parser", 
                "object-type": "meta-info", 
                "organization": "CMU"
            }, 
            "map": [
                {
                    "from": "sent-PMC2022656-medscan-26", 
                    "object-type": "map-range", 
                    "to": "sent-PMC2022656-cmu-44"
                }, 
                {
                    "from": "sent-PMC2022656-medscan-77", 
                    "object-type": "map-range", 
                    "to": "sent-PMC2022656-cmu-112"
                }, 
                {
                    "from": "sent-PMC2022656-medscan-96", 
                    "object-type": "map-range", 
                    "to": "sent-PMC2022656-cmu-139"
                }, 
                {
                    "from": "sent-PMC2022656-medscan-35", 
                    "object-type": "map-range", 
                    "to": "sent-PMC2022656-cmu-57"
                }, 
                {
                    "from": "sent-PMC2022656-medscan-97", 
                    "object-type": "map-range", 
                    "to": "sent-PMC2022656-cmu-140"
                }, 
                {
                    "from": "sent-PMC2022656-medscan-8", 
                    "object-type": "map-range", 
                    "to": "sent-PMC2022656-cmu-12"
                }, 
                {
                    "from": "sent-PMC2022656-medscan-7", 
                    "object-type": "map-range", 
                    "to": "sent-PMC2022656-cmu-11"
                }, 
                {
                    "from": "sent-PMC2022656-medscan-81", 
                    "object-type": "map-range", 
                    "to": "sent-PMC2022656-cmu-117"
                }, 
                {
                    "from": "sent-PMC2022656-medscan-24", 
                    "object-type": "map-range", 
                    "to": "sent-PMC2022656-cmu-42"
                }, 
                {
                    "from": "sent-PMC2022656-medscan-13", 
                    "object-type": "map-range", 
                    "to": "sent-PMC2022656-cmu-21"
                }, 
                {
                    "from": "sent-PMC2022656-medscan-48", 
                    "object-type": "map-range", 
                    "to": "sent-PMC2022656-cmu-75"
                }, 
                {
                    "from": "sent-PMC2022656-medscan-90", 
                    "object-type": "map-range", 
                    "to": "sent-PMC2022656-cmu-131"
                }, 
                {
                    "from": "sent-PMC2022656-medscan-118", 
                    "object-type": "map-range", 
                    "to": "sent-PMC2022656-cmu-180"
                }, 
                {
                    "from": "sent-PMC2022656-medscan-21", 
                    "object-type": "map-range", 
                    "to": "sent-PMC2022656-cmu-37"
                }, 
                {
                    "from": "sent-PMC2022656-medscan-56", 
                    "object-type": "map-range", 
                    "to": "sent-PMC2022656-cmu-85"
                }, 
                {
                    "from": "sent-PMC2022656-medscan-86", 
                    "object-type": "map-range", 
                    "to": "sent-PMC2022656-cmu-126"
                }, 
                {
                    "from": "sent-PMC2022656-medscan-116", 
                    "object-type": "map-range", 
                    "to": "sent-PMC2022656-cmu-178"
                }, 
                {
                    "from": "sent-PMC2022656-medscan-15", 
                    "object-type": "map-range", 
                    "to": "sent-PMC2022656-cmu-25"
                }, 
                {
                    "from": "sent-PMC2022656-medscan-43", 
                    "object-type": "map-range", 
                    "to": "sent-PMC2022656-cmu-69"
                }, 
                {
                    "from": "sent-PMC2022656-medscan-59", 
                    "object-type": "map-range", 
                    "to": "sent-PMC2022656-cmu-89"
                }, 
                {
                    "from": "sent-PMC2022656-medscan-39", 
                    "object-type": "map-range", 
                    "to": "sent-PMC2022656-cmu-62"
                }, 
                {
                    "from": "sent-PMC2022656-medscan-46", 
                    "object-type": "map-range", 
                    "to": "sent-PMC2022656-cmu-73"
                }, 
                {
                    "from": "sent-PMC2022656-medscan-89", 
                    "object-type": "map-range", 
                    "to": "sent-PMC2022656-cmu-130"
                }, 
                {
                    "from": "sent-PMC2022656-medscan-29", 
                    "object-type": "map-range", 
                    "to": "sent-PMC2022656-cmu-49"
                }, 
                {
                    "from": "sent-PMC2022656-medscan-10", 
                    "object-type": "map-range", 
                    "to": "sent-PMC2022656-cmu-16"
                }, 
                {
                    "from": "sent-PMC2022656-medscan-12", 
                    "object-type": "map-range", 
                    "to": "sent-PMC2022656-cmu-20"
                }, 
                {
                    "from": "sent-PMC2022656-medscan-33", 
                    "object-type": "map-range", 
                    "to": "sent-PMC2022656-cmu-54"
                }, 
                {
                    "from": "sent-PMC2022656-medscan-103", 
                    "object-type": "map-range", 
                    "to": "sent-PMC2022656-cmu-151"
                }, 
                {
                    "from": "sent-PMC2022656-medscan-37", 
                    "object-type": "map-range", 
                    "to": "sent-PMC2022656-cmu-59"
                }, 
                {
                    "from": "sent-PMC2022656-medscan-69", 
                    "object-type": "map-range", 
                    "to": "sent-PMC2022656-cmu-101"
                }, 
                {
                    "from": "sent-PMC2022656-medscan-28", 
                    "object-type": "map-range", 
                    "to": "sent-PMC2022656-cmu-47"
                }, 
                {
                    "from": "sent-PMC2022656-medscan-50", 
                    "object-type": "map-range", 
                    "to": "sent-PMC2022656-cmu-77"
                }, 
                {
                    "from": "sent-PMC2022656-medscan-5", 
                    "object-type": "map-range", 
                    "to": "sent-PMC2022656-cmu-8"
                }, 
                {
                    "from": "sent-PMC2022656-medscan-101", 
                    "object-type": "map-range", 
                    "to": "sent-PMC2022656-cmu-148"
                }, 
                {
                    "from": "sent-PMC2022656-medscan-98", 
                    "object-type": "map-range", 
                    "to": "sent-PMC2022656-cmu-141"
                }, 
                {
                    "from": "sent-PMC2022656-medscan-62", 
                    "object-type": "map-range", 
                    "to": "sent-PMC2022656-cmu-94"
                }, 
                {
                    "from": "sent-PMC2022656-medscan-67", 
                    "object-type": "map-range", 
                    "to": "sent-PMC2022656-cmu-99"
                }, 
                {
                    "from": "sent-PMC2022656-medscan-49", 
                    "object-type": "map-range", 
                    "to": "sent-PMC2022656-cmu-76"
                }, 
                {
                    "from": "sent-PMC2022656-medscan-102", 
                    "object-type": "map-range", 
                    "to": "sent-PMC2022656-cmu-149"
                }, 
                {
                    "from": "sent-PMC2022656-medscan-88", 
                    "object-type": "map-range", 
                    "to": "sent-PMC2022656-cmu-128"
                }, 
                {
                    "from": "sent-PMC2022656-medscan-61", 
                    "object-type": "map-range", 
                    "to": "sent-PMC2022656-cmu-91"
                }, 
                {
                    "from": "sent-PMC2022656-medscan-78", 
                    "object-type": "map-range", 
                    "to": "sent-PMC2022656-cmu-113"
                }, 
                {
                    "from": "sent-PMC2022656-medscan-113", 
                    "object-type": "map-range", 
                    "to": "sent-PMC2022656-cmu-171"
                }, 
                {
                    "from": "sent-PMC2022656-medscan-85", 
                    "object-type": "map-range", 
                    "to": "sent-PMC2022656-cmu-121"
                }, 
                {
                    "from": "sent-PMC2022656-medscan-117", 
                    "object-type": "map-range", 
                    "to": "sent-PMC2022656-cmu-179"
                }, 
                {
                    "from": "sent-PMC2022656-medscan-23", 
                    "object-type": "map-range", 
                    "to": "sent-PMC2022656-cmu-41"
                }, 
                {
                    "from": "sent-PMC2022656-medscan-27", 
                    "object-type": "map-range", 
                    "to": "sent-PMC2022656-cmu-45"
                }, 
                {
                    "from": "sent-PMC2022656-medscan-20", 
                    "object-type": "map-range", 
                    "to": "sent-PMC2022656-cmu-35"
                }, 
                {
                    "from": "sent-PMC2022656-medscan-0", 
                    "object-type": "map-range", 
                    "to": "sent-PMC2022656-cmu-1"
                }, 
                {
                    "from": "sent-PMC2022656-medscan-53", 
                    "object-type": "map-range", 
                    "to": "sent-PMC2022656-cmu-80"
                }, 
                {
                    "from": "sent-PMC2022656-medscan-47", 
                    "object-type": "map-range", 
                    "to": "sent-PMC2022656-cmu-74"
                }, 
                {
                    "from": "sent-PMC2022656-medscan-112", 
                    "object-type": "map-range", 
                    "to": "sent-PMC2022656-cmu-167"
                }, 
                {
                    "from": "sent-PMC2022656-medscan-112", 
                    "object-type": "map-range", 
                    "to": "sent-PMC2022656-cmu-167"
                }, 
                {
                    "from": "sent-PMC2022656-medscan-30", 
                    "object-type": "map-range", 
                    "to": "sent-PMC2022656-cmu-50"
                }, 
                {
                    "from": "sent-PMC2022656-medscan-108", 
                    "object-type": "map-range", 
                    "to": "sent-PMC2022656-cmu-160"
                }, 
                {
                    "from": "sent-PMC2022656-medscan-114", 
                    "object-type": "map-range", 
                    "to": "sent-PMC2022656-cmu-176"
                }, 
                {
                    "from": "sent-PMC2022656-medscan-80", 
                    "object-type": "map-range", 
                    "to": "sent-PMC2022656-cmu-116"
                }, 
                {
                    "from": "sent-PMC2022656-medscan-73", 
                    "object-type": "map-range", 
                    "to": "sent-PMC2022656-cmu-106"
                }, 
                {
                    "from": "sent-PMC2022656-medscan-74", 
                    "object-type": "map-range", 
                    "to": "sent-PMC2022656-cmu-107"
                }, 
                {
                    "from": "sent-PMC2022656-medscan-18", 
                    "object-type": "map-range", 
                    "to": "sent-PMC2022656-cmu-32"
                }, 
                {
                    "from": "sent-PMC2022656-medscan-111", 
                    "object-type": "map-range", 
                    "to": "sent-PMC2022656-cmu-165"
                }, 
                {
                    "from": "sent-PMC2022656-medscan-14", 
                    "object-type": "map-range", 
                    "to": "sent-PMC2022656-cmu-24"
                }, 
                {
                    "from": "sent-PMC2022656-medscan-22", 
                    "object-type": "map-range", 
                    "to": "sent-PMC2022656-cmu-40"
                }, 
                {
                    "from": "sent-PMC2022656-medscan-92", 
                    "object-type": "map-range", 
                    "to": "sent-PMC2022656-cmu-133"
                }, 
                {
                    "from": "sent-PMC2022656-medscan-31", 
                    "object-type": "map-range", 
                    "to": "sent-PMC2022656-cmu-51"
                }, 
                {
                    "from": "sent-PMC2022656-medscan-70", 
                    "object-type": "map-range", 
                    "to": "sent-PMC2022656-cmu-103"
                }, 
                {
                    "from": "sent-PMC2022656-medscan-34", 
                    "object-type": "map-range", 
                    "to": "sent-PMC2022656-cmu-56"
                }, 
                {
                    "from": "sent-PMC2022656-medscan-6", 
                    "object-type": "map-range", 
                    "to": "sent-PMC2022656-cmu-9"
                }, 
                {
                    "from": "sent-PMC2022656-medscan-65", 
                    "object-type": "map-range", 
                    "to": "sent-PMC2022656-cmu-97"
                }, 
                {
                    "from": "sent-PMC2022656-medscan-95", 
                    "object-type": "map-range", 
                    "to": "sent-PMC2022656-cmu-138"
                }, 
                {
                    "from": "sent-PMC2022656-medscan-75", 
                    "object-type": "map-range", 
                    "to": "sent-PMC2022656-cmu-108"
                }, 
                {
                    "from": "sent-PMC2022656-medscan-45", 
                    "object-type": "map-range", 
                    "to": "sent-PMC2022656-cmu-71"
                }, 
                {
                    "from": "sent-PMC2022656-medscan-25", 
                    "object-type": "map-range", 
                    "to": "sent-PMC2022656-cmu-43"
                }, 
                {
                    "from": "sent-PMC2022656-medscan-76", 
                    "object-type": "map-range", 
                    "to": "sent-PMC2022656-cmu-110"
                }, 
                {
                    "from": "sent-PMC2022656-medscan-2", 
                    "object-type": "map-range", 
                    "to": "sent-PMC2022656-cmu-93"
                }, 
                {
                    "from": "sent-PMC2022656-medscan-2", 
                    "object-type": "map-range", 
                    "to": "sent-PMC2022656-cmu-93"
                }, 
                {
                    "from": "sent-PMC2022656-medscan-100", 
                    "object-type": "map-range", 
                    "to": "sent-PMC2022656-cmu-147"
                }, 
                {
                    "from": "sent-PMC2022656-medscan-55", 
                    "object-type": "map-range", 
                    "to": "sent-PMC2022656-cmu-83"
                }, 
                {
                    "from": "sent-PMC2022656-medscan-38", 
                    "object-type": "map-range", 
                    "to": "sent-PMC2022656-cmu-60"
                }, 
                {
                    "from": "sent-PMC2022656-medscan-105", 
                    "object-type": "map-range", 
                    "to": "sent-PMC2022656-cmu-156"
                }, 
                {
                    "from": "sent-PMC2022656-medscan-36", 
                    "object-type": "map-range", 
                    "to": "sent-PMC2022656-cmu-58"
                }, 
                {
                    "from": "sent-PMC2022656-medscan-11", 
                    "object-type": "map-range", 
                    "to": "sent-PMC2022656-cmu-18"
                }, 
                {
                    "from": "sent-PMC2022656-medscan-54", 
                    "object-type": "map-range", 
                    "to": "sent-PMC2022656-cmu-82"
                }, 
                {
                    "from": "sent-PMC2022656-medscan-60", 
                    "object-type": "map-range", 
                    "to": "sent-PMC2022656-cmu-90"
                }, 
                {
                    "from": "sent-PMC2022656-medscan-19", 
                    "object-type": "map-range", 
                    "to": "sent-PMC2022656-cmu-34"
                }, 
                {
                    "from": "sent-PMC2022656-medscan-82", 
                    "object-type": "map-range", 
                    "to": "sent-PMC2022656-cmu-118"
                }, 
                {
                    "from": "sent-PMC2022656-medscan-52", 
                    "object-type": "map-range", 
                    "to": "sent-PMC2022656-cmu-79"
                }, 
                {
                    "from": "sent-PMC2022656-medscan-68", 
                    "object-type": "map-range", 
                    "to": "sent-PMC2022656-cmu-100"
                }, 
                {
                    "from": "sent-PMC2022656-medscan-63", 
                    "object-type": "map-range", 
                    "to": "sent-PMC2022656-cmu-95"
                }, 
                {
                    "from": "sent-PMC2022656-medscan-71", 
                    "object-type": "map-range", 
                    "to": "sent-PMC2022656-cmu-104"
                }, 
                {
                    "from": "sent-PMC2022656-medscan-87", 
                    "object-type": "map-range", 
                    "to": "sent-PMC2022656-cmu-127"
                }, 
                {
                    "from": "sent-PMC2022656-medscan-83", 
                    "object-type": "map-range", 
                    "to": "sent-PMC2022656-cmu-119"
                }, 
                {
                    "from": "sent-PMC2022656-medscan-104", 
                    "object-type": "map-range", 
                    "to": "sent-PMC2022656-cmu-153"
                }, 
                {
                    "from": "sent-PMC2022656-medscan-112", 
                    "object-type": "map-range", 
                    "to": "sent-PMC2022656-cmu-13"
                }, 
                {
                    "from": "sent-PMC2022656-medscan-112", 
                    "object-type": "map-range", 
                    "to": "sent-PMC2022656-cmu-13"
                }, 
                {
                    "from": "sent-PMC2022656-medscan-94", 
                    "object-type": "map-range", 
                    "to": "sent-PMC2022656-cmu-135"
                }, 
                {
                    "from": "sent-PMC2022656-medscan-110", 
                    "object-type": "map-range", 
                    "to": "sent-PMC2022656-cmu-164"
                }, 
                {
                    "from": "sent-PMC2022656-medscan-79", 
                    "object-type": "map-range", 
                    "to": "sent-PMC2022656-cmu-114"
                }, 
                {
                    "from": "sent-PMC2022656-medscan-106", 
                    "object-type": "map-range", 
                    "to": "sent-PMC2022656-cmu-157"
                }, 
                {
                    "from": "sent-PMC2022656-medscan-58", 
                    "object-type": "map-range", 
                    "to": "sent-PMC2022656-cmu-87"
                }, 
                {
                    "from": "sent-PMC2022656-medscan-16", 
                    "object-type": "map-range", 
                    "to": "sent-PMC2022656-cmu-28"
                }, 
                {
                    "from": "sent-PMC2022656-medscan-41", 
                    "object-type": "map-range", 
                    "to": "sent-PMC2022656-cmu-67"
                }, 
                {
                    "from": "sent-PMC2022656-medscan-51", 
                    "object-type": "map-range", 
                    "to": "sent-PMC2022656-cmu-78"
                }, 
                {
                    "from": "sent-PMC2022656-medscan-115", 
                    "object-type": "map-range", 
                    "to": "sent-PMC2022656-cmu-177"
                }, 
                {
                    "from": "sent-PMC2022656-medscan-32", 
                    "object-type": "map-range", 
                    "to": "sent-PMC2022656-cmu-52"
                }, 
                {
                    "from": "sent-PMC2022656-medscan-109", 
                    "object-type": "map-range", 
                    "to": "sent-PMC2022656-cmu-162"
                }, 
                {
                    "from": "sent-PMC2022656-medscan-72", 
                    "object-type": "map-range", 
                    "to": "sent-PMC2022656-cmu-105"
                }, 
                {
                    "from": "sent-PMC2022656-medscan-66", 
                    "object-type": "map-range", 
                    "to": "sent-PMC2022656-cmu-98"
                }, 
                {
                    "from": "sent-PMC2022656-medscan-44", 
                    "object-type": "map-range", 
                    "to": "sent-PMC2022656-cmu-70"
                }, 
                {
                    "from": "sent-PMC2022656-medscan-99", 
                    "object-type": "map-range", 
                    "to": "sent-PMC2022656-cmu-143"
                }
            ], 
            "object-meta": {
                "component": "Pradeep-Matcher", 
                "object-type": "meta-info", 
                "organization": "CMU"
            }, 
            "object-type": "frame"
        }
    ], 
    "object-meta": {
        "component": "Pradeep-Matcher", 
        "component-type": "machine", 
        "doc-id": "PMC2022656", 
        "object-type": "meta-info", 
        "organization": "CMU"
    }, 
    "object-type": "frame-collection"
}
