{
    "frames": [
        {
            "frame-id": "epi-PMC3366078-cmu-nicosys-522", 
            "frame-type": "epistemics", 
            "object-meta": {
                "object-type": "meta-info", 
                "organization": "CMU"
            }, 
            "object-type": "frame", 
            "sentence": "sent-PMC3366078-cmu-2", 
            "status": "implication", 
            "value": 0.6
        }, 
        {
            "frame-id": "epi-PMC3366078-cmu-nicosys-523", 
            "frame-type": "epistemics", 
            "object-meta": {
                "object-type": "meta-info", 
                "organization": "CMU"
            }, 
            "object-type": "frame", 
            "sentence": "sent-PMC3366078-cmu-10", 
            "status": "hypothesis", 
            "value": 0.3
        }, 
        {
            "frame-id": "epi-PMC3366078-cmu-nicosys-524", 
            "frame-type": "epistemics", 
            "object-meta": {
                "object-type": "meta-info", 
                "organization": "CMU"
            }, 
            "object-type": "frame", 
            "sentence": "sent-PMC3366078-cmu-10", 
            "status": "hypothesis", 
            "value": 0.3
        }, 
        {
            "frame-id": "epi-PMC3366078-cmu-nicosys-525", 
            "frame-type": "epistemics", 
            "object-meta": {
                "object-type": "meta-info", 
                "organization": "CMU"
            }, 
            "object-type": "frame", 
            "sentence": "sent-PMC3366078-cmu-14", 
            "status": "belief", 
            "value": 0.9
        }, 
        {
            "frame-id": "epi-PMC3366078-cmu-nicosys-526", 
            "frame-type": "epistemics", 
            "object-meta": {
                "object-type": "meta-info", 
                "organization": "CMU"
            }, 
            "object-type": "frame", 
            "sentence": "sent-PMC3366078-cmu-14", 
            "status": "belief", 
            "value": 0.9
        }, 
        {
            "frame-id": "epi-PMC3366078-cmu-nicosys-527", 
            "frame-type": "epistemics", 
            "object-meta": {
                "object-type": "meta-info", 
                "organization": "CMU"
            }, 
            "object-type": "frame", 
            "sentence": "sent-PMC3366078-cmu-21", 
            "status": "belief", 
            "value": 0.9
        }, 
        {
            "frame-id": "epi-PMC3366078-cmu-nicosys-528", 
            "frame-type": "epistemics", 
            "object-meta": {
                "object-type": "meta-info", 
                "organization": "CMU"
            }, 
            "object-type": "frame", 
            "sentence": "sent-PMC3366078-cmu-37", 
            "status": "belief", 
            "value": 0.9
        }, 
        {
            "frame-id": "epi-PMC3366078-cmu-nicosys-529", 
            "frame-type": "epistemics", 
            "object-meta": {
                "object-type": "meta-info", 
                "organization": "CMU"
            }, 
            "object-type": "frame", 
            "sentence": "sent-PMC3366078-cmu-55", 
            "status": "implication", 
            "value": 0.6
        }, 
        {
            "frame-id": "epi-PMC3366078-cmu-nicosys-530", 
            "frame-type": "epistemics", 
            "object-meta": {
                "object-type": "meta-info", 
                "organization": "CMU"
            }, 
            "object-type": "frame", 
            "sentence": "sent-PMC3366078-cmu-55", 
            "status": "implication", 
            "value": 0.6
        }, 
        {
            "frame-id": "epi-PMC3366078-cmu-nicosys-531", 
            "frame-type": "epistemics", 
            "object-meta": {
                "object-type": "meta-info", 
                "organization": "CMU"
            }, 
            "object-type": "frame", 
            "sentence": "sent-PMC3366078-cmu-62", 
            "status": "belief", 
            "value": 0.9
        }, 
        {
            "frame-id": "epi-PMC3366078-cmu-nicosys-532", 
            "frame-type": "epistemics", 
            "object-meta": {
                "object-type": "meta-info", 
                "organization": "CMU"
            }, 
            "object-type": "frame", 
            "sentence": "sent-PMC3366078-cmu-62", 
            "status": "belief", 
            "value": 0.9
        }, 
        {
            "frame-id": "epi-PMC3366078-cmu-nicosys-533", 
            "frame-type": "epistemics", 
            "object-meta": {
                "object-type": "meta-info", 
                "organization": "CMU"
            }, 
            "object-type": "frame", 
            "sentence": "sent-PMC3366078-cmu-63", 
            "status": "belief", 
            "value": 0.9
        }, 
        {
            "frame-id": "epi-PMC3366078-cmu-nicosys-534", 
            "frame-type": "epistemics", 
            "object-meta": {
                "object-type": "meta-info", 
                "organization": "CMU"
            }, 
            "object-type": "frame", 
            "sentence": "sent-PMC3366078-cmu-64", 
            "status": "belief", 
            "value": 0.9
        }, 
        {
            "frame-id": "epi-PMC3366078-cmu-nicosys-535", 
            "frame-type": "epistemics", 
            "object-meta": {
                "object-type": "meta-info", 
                "organization": "CMU"
            }, 
            "object-type": "frame", 
            "sentence": "sent-PMC3366078-cmu-65", 
            "status": "belief", 
            "value": 0.9
        }, 
        {
            "frame-id": "epi-PMC3366078-cmu-nicosys-536", 
            "frame-type": "epistemics", 
            "object-meta": {
                "object-type": "meta-info", 
                "organization": "CMU"
            }, 
            "object-type": "frame", 
            "sentence": "sent-PMC3366078-cmu-70", 
            "status": "belief", 
            "value": 0.9
        }, 
        {
            "frame-id": "epi-PMC3366078-cmu-nicosys-537", 
            "frame-type": "epistemics", 
            "object-meta": {
                "object-type": "meta-info", 
                "organization": "CMU"
            }, 
            "object-type": "frame", 
            "sentence": "sent-PMC3366078-cmu-70", 
            "status": "belief", 
            "value": 0.9
        }, 
        {
            "frame-id": "epi-PMC3366078-cmu-nicosys-538", 
            "frame-type": "epistemics", 
            "object-meta": {
                "object-type": "meta-info", 
                "organization": "CMU"
            }, 
            "object-type": "frame", 
            "sentence": "sent-PMC3366078-cmu-74", 
            "status": "belief", 
            "value": 0.9
        }, 
        {
            "frame-id": "epi-PMC3366078-cmu-nicosys-539", 
            "frame-type": "epistemics", 
            "object-meta": {
                "object-type": "meta-info", 
                "organization": "CMU"
            }, 
            "object-type": "frame", 
            "sentence": "sent-PMC3366078-cmu-75", 
            "status": "belief", 
            "value": 0.9
        }, 
        {
            "frame-id": "epi-PMC3366078-cmu-nicosys-540", 
            "frame-type": "epistemics", 
            "object-meta": {
                "object-type": "meta-info", 
                "organization": "CMU"
            }, 
            "object-type": "frame", 
            "sentence": "sent-PMC3366078-cmu-75", 
            "status": "belief", 
            "value": 0.9
        }, 
        {
            "frame-id": "epi-PMC3366078-cmu-nicosys-541", 
            "frame-type": "epistemics", 
            "object-meta": {
                "object-type": "meta-info", 
                "organization": "CMU"
            }, 
            "object-type": "frame", 
            "sentence": "sent-PMC3366078-cmu-76", 
            "status": "implication", 
            "value": 0.6
        }, 
        {
            "frame-id": "epi-PMC3366078-cmu-nicosys-542", 
            "frame-type": "epistemics", 
            "object-meta": {
                "object-type": "meta-info", 
                "organization": "CMU"
            }, 
            "object-type": "frame", 
            "sentence": "sent-PMC3366078-cmu-76", 
            "status": "implication", 
            "value": 0.6
        }, 
        {
            "frame-id": "epi-PMC3366078-cmu-nicosys-543", 
            "frame-type": "epistemics", 
            "object-meta": {
                "object-type": "meta-info", 
                "organization": "CMU"
            }, 
            "object-type": "frame", 
            "sentence": "sent-PMC3366078-cmu-1", 
            "status": "hypothesis", 
            "value": 0.3
        }, 
        {
            "frame-id": "epi-PMC3366078-cmu-nicosys-544", 
            "frame-type": "epistemics", 
            "object-meta": {
                "object-type": "meta-info", 
                "organization": "CMU"
            }, 
            "object-type": "frame", 
            "sentence": "sent-PMC3366078-cmu-2", 
            "status": "hypothesis", 
            "value": 0.3
        }, 
        {
            "frame-id": "epi-PMC3366078-cmu-nicosys-545", 
            "frame-type": "epistemics", 
            "object-meta": {
                "object-type": "meta-info", 
                "organization": "CMU"
            }, 
            "object-type": "frame", 
            "sentence": "sent-PMC3366078-cmu-3", 
            "status": "hypothesis", 
            "value": 0.3
        }, 
        {
            "frame-id": "epi-PMC3366078-cmu-nicosys-546", 
            "frame-type": "epistemics", 
            "object-meta": {
                "object-type": "meta-info", 
                "organization": "CMU"
            }, 
            "object-type": "frame", 
            "sentence": "sent-PMC3366078-cmu-4", 
            "status": "hypothesis", 
            "value": 0.3
        }, 
        {
            "frame-id": "epi-PMC3366078-cmu-nicosys-547", 
            "frame-type": "epistemics", 
            "object-meta": {
                "object-type": "meta-info", 
                "organization": "CMU"
            }, 
            "object-type": "frame", 
            "sentence": "sent-PMC3366078-cmu-5", 
            "status": "hypothesis", 
            "value": 0.3
        }, 
        {
            "frame-id": "epi-PMC3366078-cmu-nicosys-548", 
            "frame-type": "epistemics", 
            "object-meta": {
                "object-type": "meta-info", 
                "organization": "CMU"
            }, 
            "object-type": "frame", 
            "sentence": "sent-PMC3366078-cmu-6", 
            "status": "hypothesis", 
            "value": 0.3
        }, 
        {
            "frame-id": "epi-PMC3366078-cmu-nicosys-549", 
            "frame-type": "epistemics", 
            "object-meta": {
                "object-type": "meta-info", 
                "organization": "CMU"
            }, 
            "object-type": "frame", 
            "sentence": "sent-PMC3366078-cmu-7", 
            "status": "hypothesis", 
            "value": 0.3
        }, 
        {
            "frame-id": "epi-PMC3366078-cmu-nicosys-550", 
            "frame-type": "epistemics", 
            "object-meta": {
                "object-type": "meta-info", 
                "organization": "CMU"
            }, 
            "object-type": "frame", 
            "sentence": "sent-PMC3366078-cmu-8", 
            "status": "hypothesis", 
            "value": 0.3
        }, 
        {
            "frame-id": "epi-PMC3366078-cmu-nicosys-551", 
            "frame-type": "epistemics", 
            "object-meta": {
                "object-type": "meta-info", 
                "organization": "CMU"
            }, 
            "object-type": "frame", 
            "sentence": "sent-PMC3366078-cmu-9", 
            "status": "hypothesis", 
            "value": 0.3
        }, 
        {
            "frame-id": "epi-PMC3366078-cmu-nicosys-552", 
            "frame-type": "epistemics", 
            "object-meta": {
                "object-type": "meta-info", 
                "organization": "CMU"
            }, 
            "object-type": "frame", 
            "sentence": "sent-PMC3366078-cmu-10", 
            "status": "hypothesis", 
            "value": 0.3
        }, 
        {
            "frame-id": "epi-PMC3366078-cmu-nicosys-553", 
            "frame-type": "epistemics", 
            "object-meta": {
                "object-type": "meta-info", 
                "organization": "CMU"
            }, 
            "object-type": "frame", 
            "sentence": "sent-PMC3366078-cmu-13", 
            "status": "hypothesis", 
            "value": 0.3
        }, 
        {
            "frame-id": "epi-PMC3366078-cmu-nicosys-554", 
            "frame-type": "epistemics", 
            "object-meta": {
                "object-type": "meta-info", 
                "organization": "CMU"
            }, 
            "object-type": "frame", 
            "sentence": "sent-PMC3366078-cmu-14", 
            "status": "hypothesis", 
            "value": 0.3
        }, 
        {
            "frame-id": "epi-PMC3366078-cmu-nicosys-555", 
            "frame-type": "epistemics", 
            "object-meta": {
                "object-type": "meta-info", 
                "organization": "CMU"
            }, 
            "object-type": "frame", 
            "sentence": "sent-PMC3366078-cmu-15", 
            "status": "hypothesis", 
            "value": 0.3
        }, 
        {
            "frame-id": "epi-PMC3366078-cmu-nicosys-556", 
            "frame-type": "epistemics", 
            "object-meta": {
                "object-type": "meta-info", 
                "organization": "CMU"
            }, 
            "object-type": "frame", 
            "sentence": "sent-PMC3366078-cmu-16", 
            "status": "hypothesis", 
            "value": 0.3
        }, 
        {
            "frame-id": "epi-PMC3366078-cmu-nicosys-557", 
            "frame-type": "epistemics", 
            "object-meta": {
                "object-type": "meta-info", 
                "organization": "CMU"
            }, 
            "object-type": "frame", 
            "sentence": "sent-PMC3366078-cmu-17", 
            "status": "hypothesis", 
            "value": 0.3
        }, 
        {
            "frame-id": "epi-PMC3366078-cmu-nicosys-558", 
            "frame-type": "epistemics", 
            "object-meta": {
                "object-type": "meta-info", 
                "organization": "CMU"
            }, 
            "object-type": "frame", 
            "sentence": "sent-PMC3366078-cmu-18", 
            "status": "hypothesis", 
            "value": 0.3
        }, 
        {
            "frame-id": "epi-PMC3366078-cmu-nicosys-559", 
            "frame-type": "epistemics", 
            "object-meta": {
                "object-type": "meta-info", 
                "organization": "CMU"
            }, 
            "object-type": "frame", 
            "sentence": "sent-PMC3366078-cmu-19", 
            "status": "hypothesis", 
            "value": 0.3
        }, 
        {
            "frame-id": "epi-PMC3366078-cmu-nicosys-560", 
            "frame-type": "epistemics", 
            "object-meta": {
                "object-type": "meta-info", 
                "organization": "CMU"
            }, 
            "object-type": "frame", 
            "sentence": "sent-PMC3366078-cmu-20", 
            "status": "hypothesis", 
            "value": 0.3
        }, 
        {
            "frame-id": "epi-PMC3366078-cmu-nicosys-561", 
            "frame-type": "epistemics", 
            "object-meta": {
                "object-type": "meta-info", 
                "organization": "CMU"
            }, 
            "object-type": "frame", 
            "sentence": "sent-PMC3366078-cmu-21", 
            "status": "hypothesis", 
            "value": 0.3
        }, 
        {
            "frame-id": "epi-PMC3366078-cmu-nicosys-562", 
            "frame-type": "epistemics", 
            "object-meta": {
                "object-type": "meta-info", 
                "organization": "CMU"
            }, 
            "object-type": "frame", 
            "sentence": "sent-PMC3366078-cmu-22", 
            "status": "hypothesis", 
            "value": 0.3
        }, 
        {
            "frame-id": "epi-PMC3366078-cmu-nicosys-563", 
            "frame-type": "epistemics", 
            "object-meta": {
                "object-type": "meta-info", 
                "organization": "CMU"
            }, 
            "object-type": "frame", 
            "sentence": "sent-PMC3366078-cmu-23", 
            "status": "hypothesis", 
            "value": 0.3
        }, 
        {
            "frame-id": "epi-PMC3366078-cmu-nicosys-564", 
            "frame-type": "epistemics", 
            "object-meta": {
                "object-type": "meta-info", 
                "organization": "CMU"
            }, 
            "object-type": "frame", 
            "sentence": "sent-PMC3366078-cmu-25", 
            "status": "hypothesis", 
            "value": 0.3
        }, 
        {
            "frame-id": "epi-PMC3366078-cmu-nicosys-565", 
            "frame-type": "epistemics", 
            "object-meta": {
                "object-type": "meta-info", 
                "organization": "CMU"
            }, 
            "object-type": "frame", 
            "sentence": "sent-PMC3366078-cmu-26", 
            "status": "hypothesis", 
            "value": 0.3
        }, 
        {
            "frame-id": "epi-PMC3366078-cmu-nicosys-566", 
            "frame-type": "epistemics", 
            "object-meta": {
                "object-type": "meta-info", 
                "organization": "CMU"
            }, 
            "object-type": "frame", 
            "sentence": "sent-PMC3366078-cmu-27", 
            "status": "hypothesis", 
            "value": 0.3
        }, 
        {
            "frame-id": "epi-PMC3366078-cmu-nicosys-567", 
            "frame-type": "epistemics", 
            "object-meta": {
                "object-type": "meta-info", 
                "organization": "CMU"
            }, 
            "object-type": "frame", 
            "sentence": "sent-PMC3366078-cmu-28", 
            "status": "hypothesis", 
            "value": 0.3
        }, 
        {
            "frame-id": "epi-PMC3366078-cmu-nicosys-568", 
            "frame-type": "epistemics", 
            "object-meta": {
                "object-type": "meta-info", 
                "organization": "CMU"
            }, 
            "object-type": "frame", 
            "sentence": "sent-PMC3366078-cmu-29", 
            "status": "hypothesis", 
            "value": 0.3
        }, 
        {
            "frame-id": "epi-PMC3366078-cmu-nicosys-569", 
            "frame-type": "epistemics", 
            "object-meta": {
                "object-type": "meta-info", 
                "organization": "CMU"
            }, 
            "object-type": "frame", 
            "sentence": "sent-PMC3366078-cmu-31", 
            "status": "hypothesis", 
            "value": 0.3
        }, 
        {
            "frame-id": "epi-PMC3366078-cmu-nicosys-570", 
            "frame-type": "epistemics", 
            "object-meta": {
                "object-type": "meta-info", 
                "organization": "CMU"
            }, 
            "object-type": "frame", 
            "sentence": "sent-PMC3366078-cmu-32", 
            "status": "hypothesis", 
            "value": 0.3
        }, 
        {
            "frame-id": "epi-PMC3366078-cmu-nicosys-571", 
            "frame-type": "epistemics", 
            "object-meta": {
                "object-type": "meta-info", 
                "organization": "CMU"
            }, 
            "object-type": "frame", 
            "sentence": "sent-PMC3366078-cmu-33", 
            "status": "hypothesis", 
            "value": 0.3
        }, 
        {
            "frame-id": "epi-PMC3366078-cmu-nicosys-572", 
            "frame-type": "epistemics", 
            "object-meta": {
                "object-type": "meta-info", 
                "organization": "CMU"
            }, 
            "object-type": "frame", 
            "sentence": "sent-PMC3366078-cmu-34", 
            "status": "hypothesis", 
            "value": 0.3
        }, 
        {
            "frame-id": "epi-PMC3366078-cmu-nicosys-573", 
            "frame-type": "epistemics", 
            "object-meta": {
                "object-type": "meta-info", 
                "organization": "CMU"
            }, 
            "object-type": "frame", 
            "sentence": "sent-PMC3366078-cmu-35", 
            "status": "hypothesis", 
            "value": 0.3
        }, 
        {
            "frame-id": "epi-PMC3366078-cmu-nicosys-574", 
            "frame-type": "epistemics", 
            "object-meta": {
                "object-type": "meta-info", 
                "organization": "CMU"
            }, 
            "object-type": "frame", 
            "sentence": "sent-PMC3366078-cmu-36", 
            "status": "hypothesis", 
            "value": 0.3
        }, 
        {
            "frame-id": "epi-PMC3366078-cmu-nicosys-575", 
            "frame-type": "epistemics", 
            "object-meta": {
                "object-type": "meta-info", 
                "organization": "CMU"
            }, 
            "object-type": "frame", 
            "sentence": "sent-PMC3366078-cmu-37", 
            "status": "hypothesis", 
            "value": 0.3
        }, 
        {
            "frame-id": "epi-PMC3366078-cmu-nicosys-576", 
            "frame-type": "epistemics", 
            "object-meta": {
                "object-type": "meta-info", 
                "organization": "CMU"
            }, 
            "object-type": "frame", 
            "sentence": "sent-PMC3366078-cmu-38", 
            "status": "hypothesis", 
            "value": 0.3
        }, 
        {
            "frame-id": "epi-PMC3366078-cmu-nicosys-577", 
            "frame-type": "epistemics", 
            "object-meta": {
                "object-type": "meta-info", 
                "organization": "CMU"
            }, 
            "object-type": "frame", 
            "sentence": "sent-PMC3366078-cmu-39", 
            "status": "hypothesis", 
            "value": 0.3
        }, 
        {
            "frame-id": "epi-PMC3366078-cmu-nicosys-578", 
            "frame-type": "epistemics", 
            "object-meta": {
                "object-type": "meta-info", 
                "organization": "CMU"
            }, 
            "object-type": "frame", 
            "sentence": "sent-PMC3366078-cmu-40", 
            "status": "hypothesis", 
            "value": 0.3
        }, 
        {
            "frame-id": "epi-PMC3366078-cmu-nicosys-579", 
            "frame-type": "epistemics", 
            "object-meta": {
                "object-type": "meta-info", 
                "organization": "CMU"
            }, 
            "object-type": "frame", 
            "sentence": "sent-PMC3366078-cmu-41", 
            "status": "hypothesis", 
            "value": 0.3
        }, 
        {
            "frame-id": "epi-PMC3366078-cmu-nicosys-580", 
            "frame-type": "epistemics", 
            "object-meta": {
                "object-type": "meta-info", 
                "organization": "CMU"
            }, 
            "object-type": "frame", 
            "sentence": "sent-PMC3366078-cmu-42", 
            "status": "hypothesis", 
            "value": 0.3
        }, 
        {
            "frame-id": "epi-PMC3366078-cmu-nicosys-581", 
            "frame-type": "epistemics", 
            "object-meta": {
                "object-type": "meta-info", 
                "organization": "CMU"
            }, 
            "object-type": "frame", 
            "sentence": "sent-PMC3366078-cmu-44", 
            "status": "hypothesis", 
            "value": 0.3
        }, 
        {
            "frame-id": "epi-PMC3366078-cmu-nicosys-582", 
            "frame-type": "epistemics", 
            "object-meta": {
                "object-type": "meta-info", 
                "organization": "CMU"
            }, 
            "object-type": "frame", 
            "sentence": "sent-PMC3366078-cmu-45", 
            "status": "hypothesis", 
            "value": 0.3
        }, 
        {
            "frame-id": "epi-PMC3366078-cmu-nicosys-583", 
            "frame-type": "epistemics", 
            "object-meta": {
                "object-type": "meta-info", 
                "organization": "CMU"
            }, 
            "object-type": "frame", 
            "sentence": "sent-PMC3366078-cmu-46", 
            "status": "hypothesis", 
            "value": 0.3
        }, 
        {
            "frame-id": "epi-PMC3366078-cmu-nicosys-584", 
            "frame-type": "epistemics", 
            "object-meta": {
                "object-type": "meta-info", 
                "organization": "CMU"
            }, 
            "object-type": "frame", 
            "sentence": "sent-PMC3366078-cmu-47", 
            "status": "hypothesis", 
            "value": 0.3
        }, 
        {
            "frame-id": "epi-PMC3366078-cmu-nicosys-585", 
            "frame-type": "epistemics", 
            "object-meta": {
                "object-type": "meta-info", 
                "organization": "CMU"
            }, 
            "object-type": "frame", 
            "sentence": "sent-PMC3366078-cmu-48", 
            "status": "hypothesis", 
            "value": 0.3
        }, 
        {
            "frame-id": "epi-PMC3366078-cmu-nicosys-586", 
            "frame-type": "epistemics", 
            "object-meta": {
                "object-type": "meta-info", 
                "organization": "CMU"
            }, 
            "object-type": "frame", 
            "sentence": "sent-PMC3366078-cmu-49", 
            "status": "hypothesis", 
            "value": 0.3
        }, 
        {
            "frame-id": "epi-PMC3366078-cmu-nicosys-587", 
            "frame-type": "epistemics", 
            "object-meta": {
                "object-type": "meta-info", 
                "organization": "CMU"
            }, 
            "object-type": "frame", 
            "sentence": "sent-PMC3366078-cmu-50", 
            "status": "hypothesis", 
            "value": 0.3
        }, 
        {
            "frame-id": "epi-PMC3366078-cmu-nicosys-588", 
            "frame-type": "epistemics", 
            "object-meta": {
                "object-type": "meta-info", 
                "organization": "CMU"
            }, 
            "object-type": "frame", 
            "sentence": "sent-PMC3366078-cmu-51", 
            "status": "hypothesis", 
            "value": 0.3
        }, 
        {
            "frame-id": "epi-PMC3366078-cmu-nicosys-589", 
            "frame-type": "epistemics", 
            "object-meta": {
                "object-type": "meta-info", 
                "organization": "CMU"
            }, 
            "object-type": "frame", 
            "sentence": "sent-PMC3366078-cmu-52", 
            "status": "hypothesis", 
            "value": 0.3
        }, 
        {
            "frame-id": "epi-PMC3366078-cmu-nicosys-590", 
            "frame-type": "epistemics", 
            "object-meta": {
                "object-type": "meta-info", 
                "organization": "CMU"
            }, 
            "object-type": "frame", 
            "sentence": "sent-PMC3366078-cmu-53", 
            "status": "hypothesis", 
            "value": 0.3
        }, 
        {
            "frame-id": "epi-PMC3366078-cmu-nicosys-591", 
            "frame-type": "epistemics", 
            "object-meta": {
                "object-type": "meta-info", 
                "organization": "CMU"
            }, 
            "object-type": "frame", 
            "sentence": "sent-PMC3366078-cmu-54", 
            "status": "hypothesis", 
            "value": 0.3
        }, 
        {
            "frame-id": "epi-PMC3366078-cmu-nicosys-592", 
            "frame-type": "epistemics", 
            "object-meta": {
                "object-type": "meta-info", 
                "organization": "CMU"
            }, 
            "object-type": "frame", 
            "sentence": "sent-PMC3366078-cmu-55", 
            "status": "hypothesis", 
            "value": 0.3
        }, 
        {
            "frame-id": "epi-PMC3366078-cmu-nicosys-593", 
            "frame-type": "epistemics", 
            "object-meta": {
                "object-type": "meta-info", 
                "organization": "CMU"
            }, 
            "object-type": "frame", 
            "sentence": "sent-PMC3366078-cmu-56", 
            "status": "hypothesis", 
            "value": 0.3
        }, 
        {
            "frame-id": "epi-PMC3366078-cmu-nicosys-594", 
            "frame-type": "epistemics", 
            "object-meta": {
                "object-type": "meta-info", 
                "organization": "CMU"
            }, 
            "object-type": "frame", 
            "sentence": "sent-PMC3366078-cmu-57", 
            "status": "hypothesis", 
            "value": 0.3
        }, 
        {
            "frame-id": "epi-PMC3366078-cmu-nicosys-595", 
            "frame-type": "epistemics", 
            "object-meta": {
                "object-type": "meta-info", 
                "organization": "CMU"
            }, 
            "object-type": "frame", 
            "sentence": "sent-PMC3366078-cmu-58", 
            "status": "hypothesis", 
            "value": 0.3
        }, 
        {
            "frame-id": "epi-PMC3366078-cmu-nicosys-596", 
            "frame-type": "epistemics", 
            "object-meta": {
                "object-type": "meta-info", 
                "organization": "CMU"
            }, 
            "object-type": "frame", 
            "sentence": "sent-PMC3366078-cmu-60", 
            "status": "hypothesis", 
            "value": 0.3
        }, 
        {
            "frame-id": "epi-PMC3366078-cmu-nicosys-597", 
            "frame-type": "epistemics", 
            "object-meta": {
                "object-type": "meta-info", 
                "organization": "CMU"
            }, 
            "object-type": "frame", 
            "sentence": "sent-PMC3366078-cmu-61", 
            "status": "hypothesis", 
            "value": 0.3
        }, 
        {
            "frame-id": "epi-PMC3366078-cmu-nicosys-598", 
            "frame-type": "epistemics", 
            "object-meta": {
                "object-type": "meta-info", 
                "organization": "CMU"
            }, 
            "object-type": "frame", 
            "sentence": "sent-PMC3366078-cmu-62", 
            "status": "hypothesis", 
            "value": 0.3
        }, 
        {
            "frame-id": "epi-PMC3366078-cmu-nicosys-599", 
            "frame-type": "epistemics", 
            "object-meta": {
                "object-type": "meta-info", 
                "organization": "CMU"
            }, 
            "object-type": "frame", 
            "sentence": "sent-PMC3366078-cmu-63", 
            "status": "hypothesis", 
            "value": 0.3
        }, 
        {
            "frame-id": "epi-PMC3366078-cmu-nicosys-600", 
            "frame-type": "epistemics", 
            "object-meta": {
                "object-type": "meta-info", 
                "organization": "CMU"
            }, 
            "object-type": "frame", 
            "sentence": "sent-PMC3366078-cmu-64", 
            "status": "hypothesis", 
            "value": 0.3
        }, 
        {
            "frame-id": "epi-PMC3366078-cmu-nicosys-601", 
            "frame-type": "epistemics", 
            "object-meta": {
                "object-type": "meta-info", 
                "organization": "CMU"
            }, 
            "object-type": "frame", 
            "sentence": "sent-PMC3366078-cmu-65", 
            "status": "hypothesis", 
            "value": 0.3
        }, 
        {
            "frame-id": "epi-PMC3366078-cmu-nicosys-602", 
            "frame-type": "epistemics", 
            "object-meta": {
                "object-type": "meta-info", 
                "organization": "CMU"
            }, 
            "object-type": "frame", 
            "sentence": "sent-PMC3366078-cmu-66", 
            "status": "hypothesis", 
            "value": 0.3
        }, 
        {
            "frame-id": "epi-PMC3366078-cmu-nicosys-603", 
            "frame-type": "epistemics", 
            "object-meta": {
                "object-type": "meta-info", 
                "organization": "CMU"
            }, 
            "object-type": "frame", 
            "sentence": "sent-PMC3366078-cmu-67", 
            "status": "hypothesis", 
            "value": 0.3
        }, 
        {
            "frame-id": "epi-PMC3366078-cmu-nicosys-604", 
            "frame-type": "epistemics", 
            "object-meta": {
                "object-type": "meta-info", 
                "organization": "CMU"
            }, 
            "object-type": "frame", 
            "sentence": "sent-PMC3366078-cmu-68", 
            "status": "hypothesis", 
            "value": 0.3
        }, 
        {
            "frame-id": "epi-PMC3366078-cmu-nicosys-605", 
            "frame-type": "epistemics", 
            "object-meta": {
                "object-type": "meta-info", 
                "organization": "CMU"
            }, 
            "object-type": "frame", 
            "sentence": "sent-PMC3366078-cmu-69", 
            "status": "hypothesis", 
            "value": 0.3
        }, 
        {
            "frame-id": "epi-PMC3366078-cmu-nicosys-606", 
            "frame-type": "epistemics", 
            "object-meta": {
                "object-type": "meta-info", 
                "organization": "CMU"
            }, 
            "object-type": "frame", 
            "sentence": "sent-PMC3366078-cmu-70", 
            "status": "hypothesis", 
            "value": 0.3
        }, 
        {
            "frame-id": "epi-PMC3366078-cmu-nicosys-607", 
            "frame-type": "epistemics", 
            "object-meta": {
                "object-type": "meta-info", 
                "organization": "CMU"
            }, 
            "object-type": "frame", 
            "sentence": "sent-PMC3366078-cmu-71", 
            "status": "hypothesis", 
            "value": 0.3
        }, 
        {
            "frame-id": "epi-PMC3366078-cmu-nicosys-608", 
            "frame-type": "epistemics", 
            "object-meta": {
                "object-type": "meta-info", 
                "organization": "CMU"
            }, 
            "object-type": "frame", 
            "sentence": "sent-PMC3366078-cmu-72", 
            "status": "hypothesis", 
            "value": 0.3
        }, 
        {
            "frame-id": "epi-PMC3366078-cmu-nicosys-609", 
            "frame-type": "epistemics", 
            "object-meta": {
                "object-type": "meta-info", 
                "organization": "CMU"
            }, 
            "object-type": "frame", 
            "sentence": "sent-PMC3366078-cmu-73", 
            "status": "hypothesis", 
            "value": 0.3
        }, 
        {
            "frame-id": "epi-PMC3366078-cmu-nicosys-610", 
            "frame-type": "epistemics", 
            "object-meta": {
                "object-type": "meta-info", 
                "organization": "CMU"
            }, 
            "object-type": "frame", 
            "sentence": "sent-PMC3366078-cmu-74", 
            "status": "hypothesis", 
            "value": 0.3
        }, 
        {
            "frame-id": "epi-PMC3366078-cmu-nicosys-611", 
            "frame-type": "epistemics", 
            "object-meta": {
                "object-type": "meta-info", 
                "organization": "CMU"
            }, 
            "object-type": "frame", 
            "sentence": "sent-PMC3366078-cmu-75", 
            "status": "hypothesis", 
            "value": 0.3
        }, 
        {
            "frame-id": "epi-PMC3366078-cmu-nicosys-612", 
            "frame-type": "epistemics", 
            "object-meta": {
                "object-type": "meta-info", 
                "organization": "CMU"
            }, 
            "object-type": "frame", 
            "sentence": "sent-PMC3366078-cmu-76", 
            "status": "hypothesis", 
            "value": 0.3
        }, 
        {
            "frame-id": "epi-PMC3366078-cmu-nicosys-613", 
            "frame-type": "epistemics", 
            "object-meta": {
                "object-type": "meta-info", 
                "organization": "CMU"
            }, 
            "object-type": "frame", 
            "sentence": "sent-PMC3366078-cmu-77", 
            "status": "hypothesis", 
            "value": 0.3
        }, 
        {
            "frame-id": "epi-PMC3366078-cmu-nicosys-614", 
            "frame-type": "epistemics", 
            "object-meta": {
                "object-type": "meta-info", 
                "organization": "CMU"
            }, 
            "object-type": "frame", 
            "sentence": "sent-PMC3366078-cmu-78", 
            "status": "hypothesis", 
            "value": 0.3
        }, 
        {
            "frame-id": "epi-PMC3366078-cmu-nicosys-615", 
            "frame-type": "epistemics", 
            "object-meta": {
                "object-type": "meta-info", 
                "organization": "CMU"
            }, 
            "object-type": "frame", 
            "sentence": "sent-PMC3366078-cmu-79", 
            "status": "hypothesis", 
            "value": 0.3
        }, 
        {
            "frame-id": "epi-PMC3366078-cmu-nicosys-616", 
            "frame-type": "epistemics", 
            "object-meta": {
                "object-type": "meta-info", 
                "organization": "CMU"
            }, 
            "object-type": "frame", 
            "sentence": "sent-PMC3366078-cmu-80", 
            "status": "hypothesis", 
            "value": 0.3
        }, 
        {
            "frame-id": "epi-PMC3366078-cmu-nicosys-617", 
            "frame-type": "epistemics", 
            "object-meta": {
                "object-type": "meta-info", 
                "organization": "CMU"
            }, 
            "object-type": "frame", 
            "sentence": "sent-PMC3366078-cmu-81", 
            "status": "hypothesis", 
            "value": 0.3
        }, 
        {
            "frame-id": "epi-PMC3366078-cmu-nicosys-618", 
            "frame-type": "epistemics", 
            "object-meta": {
                "object-type": "meta-info", 
                "organization": "CMU"
            }, 
            "object-type": "frame", 
            "sentence": "sent-PMC3366078-cmu-82", 
            "status": "hypothesis", 
            "value": 0.3
        }, 
        {
            "frame-id": "epi-PMC3366078-cmu-nicosys-619", 
            "frame-type": "epistemics", 
            "object-meta": {
                "object-type": "meta-info", 
                "organization": "CMU"
            }, 
            "object-type": "frame", 
            "sentence": "sent-PMC3366078-cmu-83", 
            "status": "hypothesis", 
            "value": 0.3
        }, 
        {
            "frame-id": "epi-PMC3366078-cmu-nicosys-620", 
            "frame-type": "epistemics", 
            "object-meta": {
                "object-type": "meta-info", 
                "organization": "CMU"
            }, 
            "object-type": "frame", 
            "sentence": "sent-PMC3366078-cmu-84", 
            "status": "hypothesis", 
            "value": 0.3
        }, 
        {
            "frame-id": "epi-PMC3366078-cmu-nicosys-621", 
            "frame-type": "epistemics", 
            "object-meta": {
                "object-type": "meta-info", 
                "organization": "CMU"
            }, 
            "object-type": "frame", 
            "sentence": "sent-PMC3366078-cmu-85", 
            "status": "hypothesis", 
            "value": 0.3
        }, 
        {
            "frame-id": "epi-PMC3366078-cmu-nicosys-622", 
            "frame-type": "epistemics", 
            "object-meta": {
                "object-type": "meta-info", 
                "organization": "CMU"
            }, 
            "object-type": "frame", 
            "sentence": "sent-PMC3366078-cmu-86", 
            "status": "hypothesis", 
            "value": 0.3
        }, 
        {
            "frame-id": "epi-PMC3366078-cmu-nicosys-623", 
            "frame-type": "epistemics", 
            "object-meta": {
                "object-type": "meta-info", 
                "organization": "CMU"
            }, 
            "object-type": "frame", 
            "sentence": "sent-PMC3366078-cmu-87", 
            "status": "hypothesis", 
            "value": 0.3
        }, 
        {
            "frame-id": "epi-PMC3366078-cmu-nicosys-624", 
            "frame-type": "epistemics", 
            "object-meta": {
                "object-type": "meta-info", 
                "organization": "CMU"
            }, 
            "object-type": "frame", 
            "sentence": "sent-PMC3366078-cmu-88", 
            "status": "hypothesis", 
            "value": 0.3
        }, 
        {
            "frame-id": "epi-PMC3366078-cmu-nicosys-625", 
            "frame-type": "epistemics", 
            "object-meta": {
                "object-type": "meta-info", 
                "organization": "CMU"
            }, 
            "object-type": "frame", 
            "sentence": "sent-PMC3366078-cmu-89", 
            "status": "hypothesis", 
            "value": 0.3
        }, 
        {
            "frame-id": "epi-PMC3366078-cmu-nicosys-626", 
            "frame-type": "epistemics", 
            "object-meta": {
                "object-type": "meta-info", 
                "organization": "CMU"
            }, 
            "object-type": "frame", 
            "sentence": "sent-PMC3366078-cmu-90", 
            "status": "hypothesis", 
            "value": 0.3
        }, 
        {
            "frame-id": "epi-PMC3366078-cmu-nicosys-627", 
            "frame-type": "epistemics", 
            "object-meta": {
                "object-type": "meta-info", 
                "organization": "CMU"
            }, 
            "object-type": "frame", 
            "sentence": "sent-PMC3366078-cmu-91", 
            "status": "hypothesis", 
            "value": 0.3
        }, 
        {
            "frame-id": "epi-PMC3366078-cmu-nicosys-628", 
            "frame-type": "epistemics", 
            "object-meta": {
                "object-type": "meta-info", 
                "organization": "CMU"
            }, 
            "object-type": "frame", 
            "sentence": "sent-PMC3366078-cmu-92", 
            "status": "hypothesis", 
            "value": 0.3
        }, 
        {
            "frame-id": "epi-PMC3366078-cmu-nicosys-629", 
            "frame-type": "epistemics", 
            "object-meta": {
                "object-type": "meta-info", 
                "organization": "CMU"
            }, 
            "object-type": "frame", 
            "sentence": "sent-PMC3366078-cmu-93", 
            "status": "hypothesis", 
            "value": 0.3
        }, 
        {
            "frame-id": "epi-PMC3366078-cmu-nicosys-630", 
            "frame-type": "epistemics", 
            "object-meta": {
                "object-type": "meta-info", 
                "organization": "CMU"
            }, 
            "object-type": "frame", 
            "sentence": "sent-PMC3366078-cmu-94", 
            "status": "hypothesis", 
            "value": 0.3
        }, 
        {
            "frame-id": "epi-PMC3366078-cmu-nicosys-631", 
            "frame-type": "epistemics", 
            "object-meta": {
                "object-type": "meta-info", 
                "organization": "CMU"
            }, 
            "object-type": "frame", 
            "sentence": "sent-PMC3366078-cmu-95", 
            "status": "hypothesis", 
            "value": 0.3
        }, 
        {
            "frame-id": "epi-PMC3366078-cmu-nicosys-632", 
            "frame-type": "epistemics", 
            "object-meta": {
                "object-type": "meta-info", 
                "organization": "CMU"
            }, 
            "object-type": "frame", 
            "sentence": "sent-PMC3366078-cmu-96", 
            "status": "hypothesis", 
            "value": 0.3
        }, 
        {
            "frame-id": "epi-PMC3366078-cmu-nicosys-633", 
            "frame-type": "epistemics", 
            "object-meta": {
                "object-type": "meta-info", 
                "organization": "CMU"
            }, 
            "object-type": "frame", 
            "sentence": "sent-PMC3366078-cmu-97", 
            "status": "hypothesis", 
            "value": 0.3
        }, 
        {
            "frame-id": "epi-PMC3366078-cmu-nicosys-634", 
            "frame-type": "epistemics", 
            "object-meta": {
                "object-type": "meta-info", 
                "organization": "CMU"
            }, 
            "object-type": "frame", 
            "sentence": "sent-PMC3366078-cmu-98", 
            "status": "hypothesis", 
            "value": 0.3
        }, 
        {
            "frame-id": "epi-PMC3366078-cmu-nicosys-635", 
            "frame-type": "epistemics", 
            "object-meta": {
                "object-type": "meta-info", 
                "organization": "CMU"
            }, 
            "object-type": "frame", 
            "sentence": "sent-PMC3366078-cmu-99", 
            "status": "hypothesis", 
            "value": 0.3
        }, 
        {
            "frame-id": "epi-PMC3366078-cmu-nicosys-636", 
            "frame-type": "epistemics", 
            "object-meta": {
                "object-type": "meta-info", 
                "organization": "CMU"
            }, 
            "object-type": "frame", 
            "sentence": "sent-PMC3366078-cmu-100", 
            "status": "hypothesis", 
            "value": 0.3
        }, 
        {
            "frame-id": "epi-PMC3366078-cmu-nicosys-637", 
            "frame-type": "epistemics", 
            "object-meta": {
                "object-type": "meta-info", 
                "organization": "CMU"
            }, 
            "object-type": "frame", 
            "sentence": "sent-PMC3366078-cmu-101", 
            "status": "hypothesis", 
            "value": 0.3
        }, 
        {
            "frame-id": "epi-PMC3366078-cmu-nicosys-638", 
            "frame-type": "epistemics", 
            "object-meta": {
                "object-type": "meta-info", 
                "organization": "CMU"
            }, 
            "object-type": "frame", 
            "sentence": "sent-PMC3366078-cmu-102", 
            "status": "hypothesis", 
            "value": 0.3
        }, 
        {
            "frame-id": "epi-PMC3366078-cmu-nicosys-639", 
            "frame-type": "epistemics", 
            "object-meta": {
                "object-type": "meta-info", 
                "organization": "CMU"
            }, 
            "object-type": "frame", 
            "sentence": "sent-PMC3366078-cmu-105", 
            "status": "hypothesis", 
            "value": 0.3
        }, 
        {
            "frame-id": "epi-PMC3366078-cmu-nicosys-640", 
            "frame-type": "epistemics", 
            "object-meta": {
                "object-type": "meta-info", 
                "organization": "CMU"
            }, 
            "object-type": "frame", 
            "sentence": "sent-PMC3366078-cmu-106", 
            "status": "hypothesis", 
            "value": 0.3
        }, 
        {
            "frame-id": "epi-PMC3366078-cmu-nicosys-641", 
            "frame-type": "epistemics", 
            "object-meta": {
                "object-type": "meta-info", 
                "organization": "CMU"
            }, 
            "object-type": "frame", 
            "sentence": "sent-PMC3366078-cmu-107", 
            "status": "hypothesis", 
            "value": 0.3
        }, 
        {
            "frame-id": "epi-PMC3366078-cmu-nicosys-642", 
            "frame-type": "epistemics", 
            "object-meta": {
                "object-type": "meta-info", 
                "organization": "CMU"
            }, 
            "object-type": "frame", 
            "sentence": "sent-PMC3366078-cmu-108", 
            "status": "hypothesis", 
            "value": 0.3
        }, 
        {
            "frame-id": "epi-PMC3366078-cmu-nicosys-643", 
            "frame-type": "epistemics", 
            "object-meta": {
                "object-type": "meta-info", 
                "organization": "CMU"
            }, 
            "object-type": "frame", 
            "sentence": "sent-PMC3366078-cmu-109", 
            "status": "hypothesis", 
            "value": 0.3
        }, 
        {
            "frame-id": "epi-PMC3366078-cmu-nicosys-644", 
            "frame-type": "epistemics", 
            "object-meta": {
                "object-type": "meta-info", 
                "organization": "CMU"
            }, 
            "object-type": "frame", 
            "sentence": "sent-PMC3366078-cmu-110", 
            "status": "hypothesis", 
            "value": 0.3
        }, 
        {
            "frame-id": "epi-PMC3366078-cmu-nicosys-645", 
            "frame-type": "epistemics", 
            "object-meta": {
                "object-type": "meta-info", 
                "organization": "CMU"
            }, 
            "object-type": "frame", 
            "sentence": "sent-PMC3366078-cmu-111", 
            "status": "hypothesis", 
            "value": 0.3
        }, 
        {
            "frame-id": "epi-PMC3366078-cmu-nicosys-646", 
            "frame-type": "epistemics", 
            "object-meta": {
                "object-type": "meta-info", 
                "organization": "CMU"
            }, 
            "object-type": "frame", 
            "sentence": "sent-PMC3366078-cmu-112", 
            "status": "hypothesis", 
            "value": 0.3
        }, 
        {
            "frame-id": "epi-PMC3366078-cmu-nicosys-647", 
            "frame-type": "epistemics", 
            "object-meta": {
                "object-type": "meta-info", 
                "organization": "CMU"
            }, 
            "object-type": "frame", 
            "sentence": "sent-PMC3366078-cmu-113", 
            "status": "hypothesis", 
            "value": 0.3
        }, 
        {
            "frame-id": "epi-PMC3366078-cmu-nicosys-648", 
            "frame-type": "epistemics", 
            "object-meta": {
                "object-type": "meta-info", 
                "organization": "CMU"
            }, 
            "object-type": "frame", 
            "sentence": "sent-PMC3366078-cmu-114", 
            "status": "hypothesis", 
            "value": 0.3
        }, 
        {
            "frame-id": "epi-PMC3366078-cmu-nicosys-649", 
            "frame-type": "epistemics", 
            "object-meta": {
                "object-type": "meta-info", 
                "organization": "CMU"
            }, 
            "object-type": "frame", 
            "sentence": "sent-PMC3366078-cmu-115", 
            "status": "hypothesis", 
            "value": 0.3
        }, 
        {
            "frame-id": "epi-PMC3366078-cmu-nicosys-650", 
            "frame-type": "epistemics", 
            "object-meta": {
                "object-type": "meta-info", 
                "organization": "CMU"
            }, 
            "object-type": "frame", 
            "sentence": "sent-PMC3366078-cmu-117", 
            "status": "hypothesis", 
            "value": 0.3
        }, 
        {
            "frame-id": "epi-PMC3366078-cmu-nicosys-651", 
            "frame-type": "epistemics", 
            "object-meta": {
                "object-type": "meta-info", 
                "organization": "CMU"
            }, 
            "object-type": "frame", 
            "sentence": "sent-PMC3366078-cmu-118", 
            "status": "hypothesis", 
            "value": 0.3
        }, 
        {
            "frame-id": "epi-PMC3366078-cmu-nicosys-652", 
            "frame-type": "epistemics", 
            "object-meta": {
                "object-type": "meta-info", 
                "organization": "CMU"
            }, 
            "object-type": "frame", 
            "sentence": "sent-PMC3366078-cmu-119", 
            "status": "hypothesis", 
            "value": 0.3
        }, 
        {
            "frame-id": "epi-PMC3366078-cmu-nicosys-653", 
            "frame-type": "epistemics", 
            "object-meta": {
                "object-type": "meta-info", 
                "organization": "CMU"
            }, 
            "object-type": "frame", 
            "sentence": "sent-PMC3366078-cmu-120", 
            "status": "hypothesis", 
            "value": 0.3
        }, 
        {
            "frame-id": "epi-PMC3366078-cmu-nicosys-654", 
            "frame-type": "epistemics", 
            "object-meta": {
                "object-type": "meta-info", 
                "organization": "CMU"
            }, 
            "object-type": "frame", 
            "sentence": "sent-PMC3366078-cmu-121", 
            "status": "hypothesis", 
            "value": 0.3
        }, 
        {
            "frame-id": "epi-PMC3366078-cmu-nicosys-655", 
            "frame-type": "epistemics", 
            "object-meta": {
                "object-type": "meta-info", 
                "organization": "CMU"
            }, 
            "object-type": "frame", 
            "sentence": "sent-PMC3366078-cmu-122", 
            "status": "hypothesis", 
            "value": 0.3
        }, 
        {
            "frame-id": "epi-PMC3366078-cmu-nicosys-656", 
            "frame-type": "epistemics", 
            "object-meta": {
                "object-type": "meta-info", 
                "organization": "CMU"
            }, 
            "object-type": "frame", 
            "sentence": "sent-PMC3366078-cmu-124", 
            "status": "hypothesis", 
            "value": 0.3
        }, 
        {
            "frame-id": "epi-PMC3366078-cmu-nicosys-657", 
            "frame-type": "epistemics", 
            "object-meta": {
                "object-type": "meta-info", 
                "organization": "CMU"
            }, 
            "object-type": "frame", 
            "sentence": "sent-PMC3366078-cmu-125", 
            "status": "hypothesis", 
            "value": 0.3
        }, 
        {
            "frame-id": "epi-PMC3366078-cmu-nicosys-658", 
            "frame-type": "epistemics", 
            "object-meta": {
                "object-type": "meta-info", 
                "organization": "CMU"
            }, 
            "object-type": "frame", 
            "sentence": "sent-PMC3366078-cmu-126", 
            "status": "hypothesis", 
            "value": 0.3
        }, 
        {
            "frame-id": "epi-PMC3366078-cmu-nicosys-659", 
            "frame-type": "epistemics", 
            "object-meta": {
                "object-type": "meta-info", 
                "organization": "CMU"
            }, 
            "object-type": "frame", 
            "sentence": "sent-PMC3366078-cmu-128", 
            "status": "hypothesis", 
            "value": 0.3
        }, 
        {
            "frame-id": "epi-PMC3366078-cmu-nicosys-660", 
            "frame-type": "epistemics", 
            "object-meta": {
                "object-type": "meta-info", 
                "organization": "CMU"
            }, 
            "object-type": "frame", 
            "sentence": "sent-PMC3366078-cmu-130", 
            "status": "hypothesis", 
            "value": 0.3
        }, 
        {
            "frame-id": "epi-PMC3366078-cmu-nicosys-661", 
            "frame-type": "epistemics", 
            "object-meta": {
                "object-type": "meta-info", 
                "organization": "CMU"
            }, 
            "object-type": "frame", 
            "sentence": "sent-PMC3366078-cmu-131", 
            "status": "hypothesis", 
            "value": 0.3
        }, 
        {
            "frame-id": "epi-PMC3366078-cmu-nicosys-662", 
            "frame-type": "epistemics", 
            "object-meta": {
                "object-type": "meta-info", 
                "organization": "CMU"
            }, 
            "object-type": "frame", 
            "sentence": "sent-PMC3366078-cmu-132", 
            "status": "hypothesis", 
            "value": 0.3
        }, 
        {
            "frame-id": "epi-PMC3366078-cmu-nicosys-663", 
            "frame-type": "epistemics", 
            "object-meta": {
                "object-type": "meta-info", 
                "organization": "CMU"
            }, 
            "object-type": "frame", 
            "sentence": "sent-PMC3366078-cmu-133", 
            "status": "hypothesis", 
            "value": 0.3
        }, 
        {
            "frame-id": "epi-PMC3366078-cmu-nicosys-664", 
            "frame-type": "epistemics", 
            "object-meta": {
                "object-type": "meta-info", 
                "organization": "CMU"
            }, 
            "object-type": "frame", 
            "sentence": "sent-PMC3366078-cmu-134", 
            "status": "hypothesis", 
            "value": 0.3
        }, 
        {
            "frame-id": "epi-PMC3366078-cmu-nicosys-665", 
            "frame-type": "epistemics", 
            "object-meta": {
                "object-type": "meta-info", 
                "organization": "CMU"
            }, 
            "object-type": "frame", 
            "sentence": "sent-PMC3366078-cmu-135", 
            "status": "hypothesis", 
            "value": 0.3
        }, 
        {
            "frame-id": "epi-PMC3366078-cmu-nicosys-666", 
            "frame-type": "epistemics", 
            "object-meta": {
                "object-type": "meta-info", 
                "organization": "CMU"
            }, 
            "object-type": "frame", 
            "sentence": "sent-PMC3366078-cmu-136", 
            "status": "hypothesis", 
            "value": 0.3
        }, 
        {
            "frame-id": "epi-PMC3366078-cmu-nicosys-667", 
            "frame-type": "epistemics", 
            "object-meta": {
                "object-type": "meta-info", 
                "organization": "CMU"
            }, 
            "object-type": "frame", 
            "sentence": "sent-PMC3366078-cmu-138", 
            "status": "hypothesis", 
            "value": 0.3
        }, 
        {
            "frame-id": "epi-PMC3366078-cmu-nicosys-668", 
            "frame-type": "epistemics", 
            "object-meta": {
                "object-type": "meta-info", 
                "organization": "CMU"
            }, 
            "object-type": "frame", 
            "sentence": "sent-PMC3366078-cmu-139", 
            "status": "hypothesis", 
            "value": 0.3
        }, 
        {
            "frame-id": "epi-PMC3366078-cmu-nicosys-669", 
            "frame-type": "epistemics", 
            "object-meta": {
                "object-type": "meta-info", 
                "organization": "CMU"
            }, 
            "object-type": "frame", 
            "sentence": "sent-PMC3366078-cmu-140", 
            "status": "hypothesis", 
            "value": 0.3
        }, 
        {
            "frame-id": "epi-PMC3366078-cmu-nicosys-670", 
            "frame-type": "epistemics", 
            "object-meta": {
                "object-type": "meta-info", 
                "organization": "CMU"
            }, 
            "object-type": "frame", 
            "sentence": "sent-PMC3366078-cmu-141", 
            "status": "hypothesis", 
            "value": 0.3
        }, 
        {
            "frame-id": "epi-PMC3366078-cmu-nicosys-671", 
            "frame-type": "epistemics", 
            "object-meta": {
                "object-type": "meta-info", 
                "organization": "CMU"
            }, 
            "object-type": "frame", 
            "sentence": "sent-PMC3366078-cmu-142", 
            "status": "hypothesis", 
            "value": 0.3
        }, 
        {
            "frame-id": "epi-PMC3366078-cmu-nicosys-672", 
            "frame-type": "epistemics", 
            "object-meta": {
                "object-type": "meta-info", 
                "organization": "CMU"
            }, 
            "object-type": "frame", 
            "sentence": "sent-PMC3366078-cmu-143", 
            "status": "hypothesis", 
            "value": 0.3
        }, 
        {
            "frame-id": "epi-PMC3366078-cmu-nicosys-673", 
            "frame-type": "epistemics", 
            "object-meta": {
                "object-type": "meta-info", 
                "organization": "CMU"
            }, 
            "object-type": "frame", 
            "sentence": "sent-PMC3366078-cmu-144", 
            "status": "hypothesis", 
            "value": 0.3
        }, 
        {
            "frame-id": "epi-PMC3366078-cmu-nicosys-674", 
            "frame-type": "epistemics", 
            "object-meta": {
                "object-type": "meta-info", 
                "organization": "CMU"
            }, 
            "object-type": "frame", 
            "sentence": "sent-PMC3366078-cmu-145", 
            "status": "hypothesis", 
            "value": 0.3
        }, 
        {
            "frame-id": "epi-PMC3366078-cmu-nicosys-675", 
            "frame-type": "epistemics", 
            "object-meta": {
                "object-type": "meta-info", 
                "organization": "CMU"
            }, 
            "object-type": "frame", 
            "sentence": "sent-PMC3366078-cmu-147", 
            "status": "hypothesis", 
            "value": 0.3
        }, 
        {
            "frame-id": "epi-PMC3366078-cmu-nicosys-676", 
            "frame-type": "epistemics", 
            "object-meta": {
                "object-type": "meta-info", 
                "organization": "CMU"
            }, 
            "object-type": "frame", 
            "sentence": "sent-PMC3366078-cmu-148", 
            "status": "hypothesis", 
            "value": 0.3
        }, 
        {
            "frame-id": "epi-PMC3366078-cmu-nicosys-677", 
            "frame-type": "epistemics", 
            "object-meta": {
                "object-type": "meta-info", 
                "organization": "CMU"
            }, 
            "object-type": "frame", 
            "sentence": "sent-PMC3366078-cmu-149", 
            "status": "hypothesis", 
            "value": 0.3
        }, 
        {
            "frame-id": "epi-PMC3366078-cmu-nicosys-678", 
            "frame-type": "epistemics", 
            "object-meta": {
                "object-type": "meta-info", 
                "organization": "CMU"
            }, 
            "object-type": "frame", 
            "sentence": "sent-PMC3366078-cmu-151", 
            "status": "hypothesis", 
            "value": 0.3
        }, 
        {
            "frame-id": "epi-PMC3366078-cmu-nicosys-679", 
            "frame-type": "epistemics", 
            "object-meta": {
                "object-type": "meta-info", 
                "organization": "CMU"
            }, 
            "object-type": "frame", 
            "sentence": "sent-PMC3366078-cmu-152", 
            "status": "hypothesis", 
            "value": 0.3
        }, 
        {
            "frame-id": "epi-PMC3366078-cmu-nicosys-680", 
            "frame-type": "epistemics", 
            "object-meta": {
                "object-type": "meta-info", 
                "organization": "CMU"
            }, 
            "object-type": "frame", 
            "sentence": "sent-PMC3366078-cmu-153", 
            "status": "hypothesis", 
            "value": 0.3
        }, 
        {
            "frame-id": "epi-PMC3366078-cmu-nicosys-681", 
            "frame-type": "epistemics", 
            "object-meta": {
                "object-type": "meta-info", 
                "organization": "CMU"
            }, 
            "object-type": "frame", 
            "sentence": "sent-PMC3366078-cmu-154", 
            "status": "hypothesis", 
            "value": 0.3
        }, 
        {
            "frame-id": "epi-PMC3366078-cmu-nicosys-682", 
            "frame-type": "epistemics", 
            "object-meta": {
                "object-type": "meta-info", 
                "organization": "CMU"
            }, 
            "object-type": "frame", 
            "sentence": "sent-PMC3366078-cmu-156", 
            "status": "hypothesis", 
            "value": 0.3
        }, 
        {
            "frame-id": "epi-PMC3366078-cmu-nicosys-683", 
            "frame-type": "epistemics", 
            "object-meta": {
                "object-type": "meta-info", 
                "organization": "CMU"
            }, 
            "object-type": "frame", 
            "sentence": "sent-PMC3366078-cmu-157", 
            "status": "hypothesis", 
            "value": 0.3
        }, 
        {
            "frame-id": "epi-PMC3366078-cmu-nicosys-684", 
            "frame-type": "epistemics", 
            "object-meta": {
                "object-type": "meta-info", 
                "organization": "CMU"
            }, 
            "object-type": "frame", 
            "sentence": "sent-PMC3366078-cmu-159", 
            "status": "hypothesis", 
            "value": 0.3
        }, 
        {
            "frame-id": "epi-PMC3366078-cmu-nicosys-685", 
            "frame-type": "epistemics", 
            "object-meta": {
                "object-type": "meta-info", 
                "organization": "CMU"
            }, 
            "object-type": "frame", 
            "sentence": "sent-PMC3366078-cmu-160", 
            "status": "hypothesis", 
            "value": 0.3
        }, 
        {
            "frame-id": "epi-PMC3366078-cmu-nicosys-686", 
            "frame-type": "epistemics", 
            "object-meta": {
                "object-type": "meta-info", 
                "organization": "CMU"
            }, 
            "object-type": "frame", 
            "sentence": "sent-PMC3366078-cmu-161", 
            "status": "hypothesis", 
            "value": 0.3
        }, 
        {
            "frame-id": "epi-PMC3366078-cmu-nicosys-687", 
            "frame-type": "epistemics", 
            "object-meta": {
                "object-type": "meta-info", 
                "organization": "CMU"
            }, 
            "object-type": "frame", 
            "sentence": "sent-PMC3366078-cmu-162", 
            "status": "hypothesis", 
            "value": 0.3
        }, 
        {
            "frame-id": "epi-PMC3366078-cmu-nicosys-688", 
            "frame-type": "epistemics", 
            "object-meta": {
                "object-type": "meta-info", 
                "organization": "CMU"
            }, 
            "object-type": "frame", 
            "sentence": "sent-PMC3366078-cmu-163", 
            "status": "hypothesis", 
            "value": 0.3
        }, 
        {
            "frame-id": "epi-PMC3366078-cmu-nicosys-689", 
            "frame-type": "epistemics", 
            "object-meta": {
                "object-type": "meta-info", 
                "organization": "CMU"
            }, 
            "object-type": "frame", 
            "sentence": "sent-PMC3366078-cmu-82", 
            "status": "hypothesis", 
            "value": 0.3
        }, 
        {
            "frame-id": "epi-PMC3366078-cmu-nicosys-690", 
            "frame-type": "epistemics", 
            "object-meta": {
                "object-type": "meta-info", 
                "organization": "CMU"
            }, 
            "object-type": "frame", 
            "sentence": "sent-PMC3366078-cmu-86", 
            "status": "belief", 
            "value": 0.9
        }, 
        {
            "frame-id": "epi-PMC3366078-cmu-nicosys-691", 
            "frame-type": "epistemics", 
            "object-meta": {
                "object-type": "meta-info", 
                "organization": "CMU"
            }, 
            "object-type": "frame", 
            "sentence": "sent-PMC3366078-cmu-87", 
            "status": "belief", 
            "value": 0.9
        }, 
        {
            "frame-id": "epi-PMC3366078-cmu-nicosys-692", 
            "frame-type": "epistemics", 
            "object-meta": {
                "object-type": "meta-info", 
                "organization": "CMU"
            }, 
            "object-type": "frame", 
            "sentence": "sent-PMC3366078-cmu-90", 
            "status": "belief", 
            "value": 0.9
        }, 
        {
            "frame-id": "epi-PMC3366078-cmu-nicosys-693", 
            "frame-type": "epistemics", 
            "object-meta": {
                "object-type": "meta-info", 
                "organization": "CMU"
            }, 
            "object-type": "frame", 
            "sentence": "sent-PMC3366078-cmu-94", 
            "status": "belief", 
            "value": 0.9
        }, 
        {
            "frame-id": "epi-PMC3366078-cmu-nicosys-694", 
            "frame-type": "epistemics", 
            "object-meta": {
                "object-type": "meta-info", 
                "organization": "CMU"
            }, 
            "object-type": "frame", 
            "sentence": "sent-PMC3366078-cmu-94", 
            "status": "belief", 
            "value": 0.9
        }, 
        {
            "frame-id": "epi-PMC3366078-cmu-nicosys-695", 
            "frame-type": "epistemics", 
            "object-meta": {
                "object-type": "meta-info", 
                "organization": "CMU"
            }, 
            "object-type": "frame", 
            "sentence": "sent-PMC3366078-cmu-95", 
            "status": "implication", 
            "value": 0.6
        }, 
        {
            "frame-id": "epi-PMC3366078-cmu-nicosys-696", 
            "frame-type": "epistemics", 
            "object-meta": {
                "object-type": "meta-info", 
                "organization": "CMU"
            }, 
            "object-type": "frame", 
            "sentence": "sent-PMC3366078-cmu-95", 
            "status": "implication", 
            "value": 0.6
        }, 
        {
            "frame-id": "epi-PMC3366078-cmu-nicosys-697", 
            "frame-type": "epistemics", 
            "object-meta": {
                "object-type": "meta-info", 
                "organization": "CMU"
            }, 
            "object-type": "frame", 
            "sentence": "sent-PMC3366078-cmu-98", 
            "status": "implication", 
            "value": 0.6
        }, 
        {
            "frame-id": "epi-PMC3366078-cmu-nicosys-698", 
            "frame-type": "epistemics", 
            "object-meta": {
                "object-type": "meta-info", 
                "organization": "CMU"
            }, 
            "object-type": "frame", 
            "sentence": "sent-PMC3366078-cmu-98", 
            "status": "implication", 
            "value": 0.6
        }, 
        {
            "frame-id": "epi-PMC3366078-cmu-nicosys-699", 
            "frame-type": "epistemics", 
            "object-meta": {
                "object-type": "meta-info", 
                "organization": "CMU"
            }, 
            "object-type": "frame", 
            "sentence": "sent-PMC3366078-cmu-99", 
            "status": "belief", 
            "value": 0.9
        }
    ], 
    "object-meta": {
        "component": "Nicolas-System", 
        "component-type": "machine", 
        "doc-id": "PMC3366078", 
        "object-type": "meta-info", 
        "organization": "CMU"
    }, 
    "object-type": "frame-collection"
}
