{
    "frames": [
        {
            "assay-molecule": [
                "ATF1"
            ], 
            "binds-constituent1": [
                "CREB", 
                "CREB"
            ], 
            "frame-id": "imp-PMC2921112-cmu-pradsys-658", 
            "frame-type": "implication", 
            "implication-type": "binds", 
            "object-meta": {
                "object-type": "meta-info", 
                "organization": "CMU"
            }, 
            "object-type": "frame", 
            "sentence": "sent-PMC2921112-cmu-78"
        }, 
        {
            "entity": [
                "expression plasmids"
            ], 
            "frame-id": "imp-PMC2921112-cmu-pradsys-659", 
            "frame-type": "implication", 
            "implication-type": "binds", 
            "object-meta": {
                "object-type": "meta-info", 
                "organization": "CMU"
            }, 
            "object-type": "frame", 
            "sentence": "sent-PMC2921112-cmu-79"
        }, 
        {
            "frame-id": "imp-PMC2921112-cmu-pradsys-660", 
            "frame-type": "implication", 
            "implication-type": "binds", 
            "ip-molecule": [
                "anti-HIPK2"
            ], 
            "object-meta": {
                "object-type": "meta-info", 
                "organization": "CMU"
            }, 
            "object-type": "frame", 
            "sentence": "sent-PMC2921112-cmu-80", 
            "transfection-molecule": [
                "wtHIPK2"
            ]
        }, 
        {
            "binds-constituent2": [
                "endogenous CREB protein"
            ], 
            "frame-id": "imp-PMC2921112-cmu-pradsys-661", 
            "frame-type": "implication", 
            "implication-type": "binds", 
            "ip-molecule": [
                "anti-HIPK2"
            ], 
            "object-meta": {
                "object-type": "meta-info", 
                "organization": "CMU"
            }, 
            "object-type": "frame", 
            "sentence": "sent-PMC2921112-cmu-81"
        }, 
        {
            "assay-molecule": [
                "SDS-PAGE"
            ], 
            "binds-constituent1": [
                "HA-CREB"
            ], 
            "frame-id": "imp-PMC2921112-cmu-pradsys-662", 
            "frame-type": "implication", 
            "implication-type": "binds", 
            "object-meta": {
                "object-type": "meta-info", 
                "organization": "CMU"
            }, 
            "object-type": "frame", 
            "sentence": "sent-PMC2921112-cmu-82", 
            "transfection-molecule": [
                "wtHIPK2", 
                "kdHIPK2"
            ]
        }, 
        {
            "binds-constituent2": [
                "CREB"
            ], 
            "frame-id": "imp-PMC2921112-cmu-pradsys-663", 
            "frame-type": "implication", 
            "implication-type": "binds", 
            "object-meta": {
                "object-type": "meta-info", 
                "organization": "CMU"
            }, 
            "object-type": "frame", 
            "sentence": "sent-PMC2921112-cmu-83"
        }, 
        {
            "binds-controller": [
                "HIPK2 expression"
            ], 
            "frame-id": "imp-PMC2921112-cmu-pradsys-664", 
            "frame-type": "implication", 
            "implication-type": "binds", 
            "object-meta": {
                "object-type": "meta-info", 
                "organization": "CMU"
            }, 
            "object-type": "frame", 
            "sentence": "sent-PMC2921112-cmu-84"
        }, 
        {
            "binds-constituent2": [
                "CREB"
            ], 
            "frame-id": "imp-PMC2921112-cmu-pradsys-665", 
            "frame-type": "implication", 
            "implication-type": "binds", 
            "object-meta": {
                "object-type": "meta-info", 
                "organization": "CMU"
            }, 
            "object-type": "frame", 
            "sentence": "sent-PMC2921112-cmu-85", 
            "transfection-molecule": [
                "MSK1 ( mitogen-", 
                "CREB ( Mayr"
            ]
        }, 
        {
            "binds-constituent2": [
                "CREB"
            ], 
            "frame-id": "imp-PMC2921112-cmu-pradsys-666", 
            "frame-type": "implication", 
            "implication-type": "binds", 
            "object-meta": {
                "object-type": "meta-info", 
                "organization": "CMU"
            }, 
            "object-type": "frame", 
            "sentence": "sent-PMC2921112-cmu-87"
        }, 
        {
            "binds-constituent1": [
                "Alanine mutant CREB"
            ], 
            "cell-type": [
                "K562 cells"
            ], 
            "entity": [
                "lysates"
            ], 
            "frame-id": "imp-PMC2921112-cmu-pradsys-667", 
            "frame-type": "implication", 
            "implication-type": "binds", 
            "object-meta": {
                "object-type": "meta-info", 
                "organization": "CMU"
            }, 
            "object-type": "frame", 
            "sentence": "sent-PMC2921112-cmu-88"
        }, 
        {
            "binds-constituent1": [
                "wtCREB reproducibly showed the retarded CREB band"
            ], 
            "frame-id": "imp-PMC2921112-cmu-pradsys-668", 
            "frame-type": "implication", 
            "implication-type": "binds", 
            "object-meta": {
                "object-type": "meta-info", 
                "organization": "CMU"
            }, 
            "object-type": "frame", 
            "sentence": "sent-PMC2921112-cmu-89"
        }, 
        {
            "binds-constituent1": [
                "the CREB 133A mutant gave rise to the same retarded band induced by HIPK2"
            ], 
            "frame-id": "imp-PMC2921112-cmu-pradsys-669", 
            "frame-type": "implication", 
            "implication-type": "binds", 
            "object-meta": {
                "object-type": "meta-info", 
                "organization": "CMU"
            }, 
            "object-type": "frame", 
            "sentence": "sent-PMC2921112-cmu-90"
        }, 
        {
            "frame-id": "imp-PMC2921112-cmu-pradsys-670", 
            "frame-type": "implication", 
            "implication-type": "binds", 
            "incubation-reagent": [
                "the human CREB protein by HIPK2 , in which Serine or Threonine is adjacent to Proline ( Ser-76 , Ser-80 , Ser-133 , Thr-172 , Ser-237 , Thr-259 , Ser-271"
            ], 
            "object-meta": {
                "object-type": "meta-info", 
                "organization": "CMU"
            }, 
            "object-type": "frame", 
            "sentence": "sent-PMC2921112-cmu-91"
        }, 
        {
            "binds-constituent2": [
                "CREB"
            ], 
            "frame-id": "imp-PMC2921112-cmu-pradsys-671", 
            "frame-type": "implication", 
            "implication-type": "binds", 
            "object-meta": {
                "object-type": "meta-info", 
                "organization": "CMU"
            }, 
            "object-type": "frame", 
            "sentence": "sent-PMC2921112-cmu-92"
        }, 
        {
            "binds-constituent1": [
                "HIPK2", 
                "the corresponding CREB Serine 271"
            ], 
            "frame-id": "imp-PMC2921112-cmu-pradsys-672", 
            "frame-type": "implication", 
            "implication-type": "binds", 
            "object-meta": {
                "object-type": "meta-info", 
                "organization": "CMU"
            }, 
            "object-type": "frame", 
            "sentence": "sent-PMC2921112-cmu-93"
        }, 
        {
            "frame-id": "imp-PMC2921112-cmu-pradsys-673", 
            "frame-type": "implication", 
            "implication-type": "binds", 
            "object-meta": {
                "object-type": "meta-info", 
                "organization": "CMU"
            }, 
            "object-type": "frame", 
            "sentence": "sent-PMC2921112-cmu-94", 
            "transfection-molecule": [
                "CREB ( 271A )"
            ]
        }, 
        {
            "binds-constituent1": [
                "HIPK2 phosphorylates CREB at Serine 271"
            ], 
            "binds-site": [
                "the 271A mutation"
            ], 
            "frame-id": "imp-PMC2921112-cmu-pradsys-674", 
            "frame-type": "implication", 
            "implication-type": "binds", 
            "object-meta": {
                "object-type": "meta-info", 
                "organization": "CMU"
            }, 
            "object-type": "frame", 
            "sentence": "sent-PMC2921112-cmu-95"
        }, 
        {
            "binds-constituent2": [
                "incubating recombinant wt or mutant CREB protein and HIPK2"
            ], 
            "frame-id": "imp-PMC2921112-cmu-pradsys-675", 
            "frame-type": "implication", 
            "implication-type": "binds", 
            "object-meta": {
                "object-type": "meta-info", 
                "organization": "CMU"
            }, 
            "object-type": "frame", 
            "sentence": "sent-PMC2921112-cmu-97"
        }, 
        {
            "frame-id": "imp-PMC2921112-cmu-pradsys-676", 
            "frame-type": "implication", 
            "implication-type": "binds", 
            "object-meta": {
                "object-type": "meta-info", 
                "organization": "CMU"
            }, 
            "object-type": "frame", 
            "sentence": "sent-PMC2921112-cmu-98", 
            "transfection-molecule": [
                "271A or 133A/271A double mutated CREB ( DM )"
            ]
        }, 
        {
            "binds-site": [
                "Serine 271"
            ], 
            "frame-id": "imp-PMC2921112-cmu-pradsys-677", 
            "frame-type": "implication", 
            "implication-type": "binds", 
            "object-meta": {
                "object-type": "meta-info", 
                "organization": "CMU"
            }, 
            "object-type": "frame", 
            "sentence": "sent-PMC2921112-cmu-99"
        }, 
        {
            "frame-id": "imp-PMC2921112-cmu-pradsys-678", 
            "frame-type": "implication", 
            "implication-type": "binds", 
            "incubation-reagent": [
                "a control experiment"
            ], 
            "object-meta": {
                "object-type": "meta-info", 
                "organization": "CMU"
            }, 
            "object-type": "frame", 
            "sentence": "sent-PMC2921112-cmu-100"
        }, 
        {
            "cell-type": [
                "133A/271A mutant CREB proteins"
            ], 
            "frame-id": "imp-PMC2921112-cmu-pradsys-679", 
            "frame-type": "implication", 
            "implication-type": "binds", 
            "object-meta": {
                "object-type": "meta-info", 
                "organization": "CMU"
            }, 
            "object-type": "frame", 
            "sentence": "sent-PMC2921112-cmu-101"
        }, 
        {
            "frame-id": "imp-PMC2921112-cmu-pradsys-680", 
            "frame-type": "implication", 
            "implication-type": "binds", 
            "incubation-reagent": [
                "the phosphorylated recombinant CREB by HIPK2 ( phospho-Serine 271 CREB ) showed slower migration than the phosphorylated CREB by PKA ( phospho-Serine 133 CREB )"
            ], 
            "object-meta": {
                "object-type": "meta-info", 
                "organization": "CMU"
            }, 
            "object-type": "frame", 
            "sentence": "sent-PMC2921112-cmu-102"
        }, 
        {
            "binds-constituent1": [
                "CREB Serine 133 phosphorylation by HIPK2 , recombinant CREB proteins incubated", 
                "HIPK2"
            ], 
            "frame-id": "imp-PMC2921112-cmu-pradsys-681", 
            "frame-type": "implication", 
            "implication-type": "binds", 
            "ip-molecule": [
                "CREB"
            ], 
            "object-meta": {
                "object-type": "meta-info", 
                "organization": "CMU"
            }, 
            "object-type": "frame", 
            "sentence": "sent-PMC2921112-cmu-103"
        }, 
        {
            "binds-constituent1": [
                "PKA-phosphorylated CREB proteins", 
                "the phospho-Serine 133 CREB antibody but HIPK2-phosphorylated CREB proteins"
            ], 
            "binds-strength": [
                "not detected"
            ], 
            "frame-id": "imp-PMC2921112-cmu-pradsys-682", 
            "frame-type": "implication", 
            "implication-type": "binds", 
            "ip-molecule": [
                "133"
            ], 
            "object-meta": {
                "object-type": "meta-info", 
                "organization": "CMU"
            }, 
            "object-type": "frame", 
            "sentence": "sent-PMC2921112-cmu-104", 
            "transfection-molecule": [
                "133A"
            ]
        }, 
        {
            "binds-constituent1": [
                "Transactivation"
            ], 
            "binds-controller": [
                "HIPK2"
            ], 
            "frame-id": "imp-PMC2921112-cmu-pradsys-683", 
            "frame-type": "implication", 
            "implication-type": "binds", 
            "object-meta": {
                "object-type": "meta-info", 
                "organization": "CMU"
            }, 
            "object-type": "frame", 
            "sentence": "sent-PMC2921112-cmu-106"
        }, 
        {
            "binds-constituent1": [
                "CREB"
            ], 
            "frame-id": "imp-PMC2921112-cmu-pradsys-684", 
            "frame-type": "implication", 
            "implication-type": "binds", 
            "object-meta": {
                "object-type": "meta-info", 
                "organization": "CMU"
            }, 
            "object-type": "frame", 
            "process": [
                "transfected"
            ], 
            "sentence": "sent-PMC2921112-cmu-107"
        }, 
        {
            "binds-constituent1": [
                "CREB"
            ], 
            "cell-type": [
                "K562 cells"
            ], 
            "frame-id": "imp-PMC2921112-cmu-pradsys-685", 
            "frame-type": "implication", 
            "implication-type": "binds", 
            "object-meta": {
                "object-type": "meta-info", 
                "organization": "CMU"
            }, 
            "object-type": "frame", 
            "sentence": "sent-PMC2921112-cmu-108"
        }, 
        {
            "binds-constituent2": [
                "CREB-WT"
            ], 
            "binds-site": [
                "the effect of HIPK2 on endogenous"
            ], 
            "frame-id": "imp-PMC2921112-cmu-pradsys-686", 
            "frame-type": "implication", 
            "implication-type": "binds", 
            "object-meta": {
                "object-type": "meta-info", 
                "organization": "CMU"
            }, 
            "object-type": "frame", 
            "sentence": "sent-PMC2921112-cmu-110"
        }, 
        {
            "binds-constituent1": [
                "BDNF CRE enhancer"
            ], 
            "frame-id": "imp-PMC2921112-cmu-pradsys-687", 
            "frame-type": "implication", 
            "implication-type": "binds", 
            "object-meta": {
                "object-type": "meta-info", 
                "organization": "CMU"
            }, 
            "object-type": "frame", 
            "sentence": "sent-PMC2921112-cmu-113"
        }, 
        {
            "binds-constituent1": [
                "HIPK2"
            ], 
            "frame-id": "imp-PMC2921112-cmu-pradsys-688", 
            "frame-type": "implication", 
            "implication-type": "binds", 
            "object-meta": {
                "object-type": "meta-info", 
                "organization": "CMU"
            }, 
            "object-type": "frame", 
            "sentence": "sent-PMC2921112-cmu-114"
        }, 
        {
            "binds-constituent1": [
                "the CREB Serine 271-to-glutamic acid mutant"
            ], 
            "frame-id": "imp-PMC2921112-cmu-pradsys-689", 
            "frame-type": "implication", 
            "implication-type": "binds", 
            "object-meta": {
                "object-type": "meta-info", 
                "organization": "CMU"
            }, 
            "object-type": "frame", 
            "sentence": "sent-PMC2921112-cmu-115"
        }, 
        {
            "binds-constituent2": [
                "the Serine 133 to glutamic acid mutant CREB"
            ], 
            "frame-id": "imp-PMC2921112-cmu-pradsys-690", 
            "frame-type": "implication", 
            "implication-type": "binds", 
            "object-meta": {
                "object-type": "meta-info", 
                "organization": "CMU"
            }, 
            "object-type": "frame", 
            "sentence": "sent-PMC2921112-cmu-116"
        }, 
        {
            "binds-constituent1": [
                "Serine"
            ], 
            "cell-type": [
                "K562 cells"
            ], 
            "frame-id": "imp-PMC2921112-cmu-pradsys-691", 
            "frame-type": "implication", 
            "implication-type": "binds", 
            "object-meta": {
                "object-type": "meta-info", 
                "organization": "CMU"
            }, 
            "object-type": "frame", 
            "sentence": "sent-PMC2921112-cmu-117"
        }, 
        {
            "binds-controller": [
                "CREB mutant"
            ], 
            "frame-id": "imp-PMC2921112-cmu-pradsys-692", 
            "frame-type": "implication", 
            "implication-type": "binds", 
            "object-meta": {
                "object-type": "meta-info", 
                "organization": "CMU"
            }, 
            "object-type": "frame", 
            "sentence": "sent-PMC2921112-cmu-118", 
            "transfection-molecule": [
                "HIPK2"
            ]
        }, 
        {
            "binds-constituent2": [
                "271E"
            ], 
            "frame-id": "imp-PMC2921112-cmu-pradsys-693", 
            "frame-type": "implication", 
            "implication-type": "binds", 
            "object-meta": {
                "object-type": "meta-info", 
                "organization": "CMU"
            }, 
            "object-type": "frame", 
            "sentence": "sent-PMC2921112-cmu-119"
        }, 
        {
            "assay-molecule": [
                "CREB"
            ], 
            "binds-constituent1": [
                "the CRE-dependent transcription activated by wtCREB or 133E CREB , 271E CREB"
            ], 
            "frame-id": "imp-PMC2921112-cmu-pradsys-694", 
            "frame-type": "implication", 
            "implication-type": "binds", 
            "object-meta": {
                "object-type": "meta-info", 
                "organization": "CMU"
            }, 
            "object-type": "frame", 
            "sentence": "sent-PMC2921112-cmu-121", 
            "transfection-molecule": [
                "1.8\u20132.0-fold higher than wt"
            ]
        }, 
        {
            "binds-constituent1": [
                "CREB"
            ], 
            "frame-id": "imp-PMC2921112-cmu-pradsys-695", 
            "frame-type": "implication", 
            "implication-type": "binds", 
            "object-meta": {
                "object-type": "meta-info", 
                "organization": "CMU"
            }, 
            "object-type": "frame", 
            "sentence": "sent-PMC2921112-cmu-122"
        }, 
        {
            "binds-constituent1": [
                "Serine 271-to-Alanine mutant CREB"
            ], 
            "binds-controller": [
                "the mutation of Serine 271 to Alanine"
            ], 
            "frame-id": "imp-PMC2921112-cmu-pradsys-696", 
            "frame-type": "implication", 
            "implication-type": "binds", 
            "object-meta": {
                "object-type": "meta-info", 
                "organization": "CMU"
            }, 
            "object-type": "frame", 
            "sentence": "sent-PMC2921112-cmu-123"
        }, 
        {
            "binds-constituent1": [
                "HIPK2"
            ], 
            "binds-constituent2": [
                "CREB"
            ], 
            "binds-site": [
                "enhanced the transactivation function of"
            ], 
            "frame-id": "imp-PMC2921112-cmu-pradsys-697", 
            "frame-type": "implication", 
            "implication-type": "binds", 
            "object-meta": {
                "object-type": "meta-info", 
                "organization": "CMU"
            }, 
            "object-type": "frame", 
            "sentence": "sent-PMC2921112-cmu-124"
        }, 
        {
            "binds-constituent1": [
                "HIPK2"
            ], 
            "frame-id": "imp-PMC2921112-cmu-pradsys-698", 
            "frame-type": "implication", 
            "implication-type": "binds", 
            "object-meta": {
                "object-type": "meta-info", 
                "organization": "CMU"
            }, 
            "object-type": "frame", 
            "sentence": "sent-PMC2921112-cmu-125"
        }, 
        {
            "binds-constituent1": [
                "HIPK2"
            ], 
            "binds-constituent2": [
                "CREB"
            ], 
            "binds-site": [
                "Serine 271 phosphorylation by enhances the transactivation function of"
            ], 
            "frame-id": "imp-PMC2921112-cmu-pradsys-699", 
            "frame-type": "implication", 
            "implication-type": "binds", 
            "object-meta": {
                "object-type": "meta-info", 
                "organization": "CMU"
            }, 
            "object-type": "frame", 
            "sentence": "sent-PMC2921112-cmu-126"
        }, 
        {
            "cell-type": [
                "SH-SY5Y human neuroblastoma cells and performed CREB ChIP assays for the BDNF exon III CRE site"
            ], 
            "frame-id": "imp-PMC2921112-cmu-pradsys-700", 
            "frame-type": "implication", 
            "implication-type": "binds", 
            "object-meta": {
                "object-type": "meta-info", 
                "organization": "CMU"
            }, 
            "object-type": "frame", 
            "sentence": "sent-PMC2921112-cmu-127"
        }, 
        {
            "binds-constituent2": [
                "III"
            ], 
            "binds-controller": [
                "similar expression levels of wtCREB ( with or without HIPK2 expression ) and 271A CREB", 
                "CREB expression levels"
            ], 
            "binds-site": [
                "the BDNF promoter"
            ], 
            "frame-id": "imp-PMC2921112-cmu-pradsys-701", 
            "frame-type": "implication", 
            "implication-type": "binds", 
            "object-meta": {
                "object-type": "meta-info", 
                "organization": "CMU"
            }, 
            "object-type": "frame", 
            "sentence": "sent-PMC2921112-cmu-128"
        }, 
        {
            "frame-id": "imp-PMC2921112-cmu-pradsys-702", 
            "frame-type": "implication", 
            "implication-type": "binds", 
            "object-meta": {
                "object-type": "meta-info", 
                "organization": "CMU"
            }, 
            "object-type": "frame", 
            "sentence": "sent-PMC2921112-cmu-129", 
            "transfection-molecule": [
                "HIPK2-phosphorylated wtCREB", 
                "271E CREB ( Supplemental Figure S1 )"
            ]
        }, 
        {
            "binds-constituent1": [
                "HIPK2"
            ], 
            "binds-site": [
                "did"
            ], 
            "frame-id": "imp-PMC2921112-cmu-pradsys-703", 
            "frame-type": "implication", 
            "implication-type": "binds", 
            "object-meta": {
                "object-type": "meta-info", 
                "organization": "CMU"
            }, 
            "object-type": "frame", 
            "sentence": "sent-PMC2921112-cmu-130"
        }, 
        {
            "binds-constituent1": [
                "CBP"
            ], 
            "cell-type": [
                "SH-SY5Y cells , ChIP assays"
            ], 
            "frame-id": "imp-PMC2921112-cmu-pradsys-704", 
            "frame-type": "implication", 
            "implication-type": "binds", 
            "object-meta": {
                "object-type": "meta-info", 
                "organization": "CMU"
            }, 
            "object-type": "frame", 
            "sentence": "sent-PMC2921112-cmu-132", 
            "transfection-molecule": [
                "271A CREB mutant together with HIPK2"
            ]
        }, 
        {
            "binds-constituent2": [
                "PKA"
            ], 
            "frame-id": "imp-PMC2921112-cmu-pradsys-705", 
            "frame-type": "implication", 
            "implication-type": "binds", 
            "object-meta": {
                "object-type": "meta-info", 
                "organization": "CMU"
            }, 
            "object-type": "frame", 
            "sentence": "sent-PMC2921112-cmu-133", 
            "transfection-molecule": [
                "a positive control of enhanced CBP recruitment to CREB via Serine 133 phosphorylation"
            ]
        }, 
        {
            "assay-molecule": [
                "PKA"
            ], 
            "frame-id": "imp-PMC2921112-cmu-pradsys-706", 
            "frame-type": "implication", 
            "implication-type": "binds", 
            "incubation-reagent": [
                "transfected CREB proteins , CBP recruitment to the BDNF promoter III"
            ], 
            "object-meta": {
                "object-type": "meta-info", 
                "organization": "CMU"
            }, 
            "object-type": "frame", 
            "sentence": "sent-PMC2921112-cmu-134", 
            "transfection-molecule": [
                "HIPK2"
            ]
        }, 
        {
            "binds-constituent1": [
                "CBP"
            ], 
            "frame-id": "imp-PMC2921112-cmu-pradsys-707", 
            "frame-type": "implication", 
            "implication-type": "binds", 
            "object-meta": {
                "object-type": "meta-info", 
                "organization": "CMU"
            }, 
            "object-type": "frame", 
            "sentence": "sent-PMC2921112-cmu-136", 
            "transfection-molecule": [
                "133A271E double-mutated CREB with p300"
            ]
        }, 
        {
            "binds-constituent1": [
                "ChIP"
            ], 
            "frame-id": "imp-PMC2921112-cmu-pradsys-708", 
            "frame-type": "implication", 
            "implication-type": "binds", 
            "object-meta": {
                "object-type": "meta-info", 
                "organization": "CMU"
            }, 
            "object-type": "frame", 
            "sentence": "sent-PMC2921112-cmu-137", 
            "transfection-molecule": [
                "decreased recruitment of CBP", 
                "CREB ( 133A/271E )"
            ]
        }, 
        {
            "binds-constituent1": [
                "CBP/p300"
            ], 
            "binds-controller": [
                "CREB phosphorylation at Serine 271 by HIPK2"
            ], 
            "frame-id": "imp-PMC2921112-cmu-pradsys-709", 
            "frame-type": "implication", 
            "implication-type": "binds", 
            "object-meta": {
                "object-type": "meta-info", 
                "organization": "CMU"
            }, 
            "object-type": "frame", 
            "sentence": "sent-PMC2921112-cmu-138"
        }, 
        {
            "binds-constituent1": [
                "HIPK2"
            ], 
            "frame-id": "imp-PMC2921112-cmu-pradsys-710", 
            "frame-type": "implication", 
            "implication-type": "binds", 
            "object-meta": {
                "object-type": "meta-info", 
                "organization": "CMU"
            }, 
            "object-type": "frame", 
            "sentence": "sent-PMC2921112-cmu-139"
        }, 
        {
            "binds-constituent1": [
                "endogenous CREB protein", 
                "HIPK2"
            ], 
            "frame-id": "imp-PMC2921112-cmu-pradsys-711", 
            "frame-type": "implication", 
            "implication-type": "binds", 
            "object-meta": {
                "object-type": "meta-info", 
                "organization": "CMU"
            }, 
            "object-type": "frame", 
            "sentence": "sent-PMC2921112-cmu-141"
        }, 
        {
            "cell-type": [
                "293 cells"
            ], 
            "frame-id": "imp-PMC2921112-cmu-pradsys-712", 
            "frame-type": "implication", 
            "implication-type": "binds", 
            "object-meta": {
                "object-type": "meta-info", 
                "organization": "CMU"
            }, 
            "object-type": "frame", 
            "sentence": "sent-PMC2921112-cmu-142", 
            "transfection-molecule": [
                "endogenous CREB protein on SDS-PAGE"
            ]
        }, 
        {
            "binds-constituent2": [
                "HIPK2", 
                "endogenous CREB"
            ], 
            "entity": [
                "nuclear extracts"
            ], 
            "frame-id": "imp-PMC2921112-cmu-pradsys-713", 
            "frame-type": "implication", 
            "implication-type": "binds", 
            "object-meta": {
                "object-type": "meta-info", 
                "organization": "CMU"
            }, 
            "object-type": "frame", 
            "process": [
                "MEF ( HIPK2\u2212/\u2212 ) cells"
            ], 
            "sentence": "sent-PMC2921112-cmu-144", 
            "transfection-molecule": [
                "wtHIPK2 ( HIPK2+/+ ) MEFs"
            ]
        }, 
        {
            "cell-type": [
                "MEF cells", 
                "HIPK2\u2212/\u2212 cells"
            ], 
            "frame-id": "imp-PMC2921112-cmu-pradsys-714", 
            "frame-type": "implication", 
            "implication-type": "binds", 
            "object-meta": {
                "object-type": "meta-info", 
                "organization": "CMU"
            }, 
            "object-type": "frame", 
            "process": [
                "compared"
            ], 
            "sentence": "sent-PMC2921112-cmu-145"
        }, 
        {
            "binds-constituent1": [
                "CREB"
            ], 
            "frame-id": "imp-PMC2921112-cmu-pradsys-715", 
            "frame-type": "implication", 
            "implication-type": "binds", 
            "object-meta": {
                "object-type": "meta-info", 
                "organization": "CMU"
            }, 
            "object-type": "frame", 
            "sentence": "sent-PMC2921112-cmu-146"
        }, 
        {
            "binds-constituent1": [
                "Etoposide"
            ], 
            "frame-id": "imp-PMC2921112-cmu-pradsys-716", 
            "frame-type": "implication", 
            "implication-type": "binds", 
            "object-meta": {
                "object-type": "meta-info", 
                "organization": "CMU"
            }, 
            "object-type": "frame", 
            "sentence": "sent-PMC2921112-cmu-147"
        }, 
        {
            "binds-constituent1": [
                "HIPK2"
            ], 
            "frame-id": "imp-PMC2921112-cmu-pradsys-717", 
            "frame-type": "implication", 
            "implication-type": "binds", 
            "object-meta": {
                "object-type": "meta-info", 
                "organization": "CMU"
            }, 
            "object-type": "frame", 
            "sentence": "sent-PMC2921112-cmu-148"
        }, 
        {
            "binds-constituent1": [
                "MEFs"
            ], 
            "binds-site": [
                "are"
            ], 
            "frame-id": "imp-PMC2921112-cmu-pradsys-718", 
            "frame-type": "implication", 
            "implication-type": "binds", 
            "object-meta": {
                "object-type": "meta-info", 
                "organization": "CMU"
            }, 
            "object-type": "frame", 
            "sentence": "sent-PMC2921112-cmu-149"
        }, 
        {
            "binds-constituent1": [
                "CRE-"
            ], 
            "cell-type": [
                "HIPK2+/+ or HIPK2\u2212/\u2212 cells ( HIPK2 mRNA levels in Supplemental Figure S2 )"
            ], 
            "frame-id": "imp-PMC2921112-cmu-pradsys-719", 
            "frame-type": "implication", 
            "implication-type": "binds", 
            "object-meta": {
                "object-type": "meta-info", 
                "organization": "CMU"
            }, 
            "object-type": "frame", 
            "process": [
                "transfected"
            ], 
            "sentence": "sent-PMC2921112-cmu-151"
        }, 
        {
            "assay-molecule": [
                "TATA-luciferase"
            ], 
            "cell-type": [
                "MEF cells , etoposide activated CRE-dependent luciferase expression"
            ], 
            "frame-id": "imp-PMC2921112-cmu-pradsys-720", 
            "frame-type": "implication", 
            "implication-type": "binds", 
            "object-meta": {
                "object-type": "meta-info", 
                "organization": "CMU"
            }, 
            "object-type": "frame", 
            "sentence": "sent-PMC2921112-cmu-152"
        }, 
        {
            "cell-type": [
                "MEF cells"
            ], 
            "frame-id": "imp-PMC2921112-cmu-pradsys-721", 
            "frame-type": "implication", 
            "implication-type": "binds", 
            "object-meta": {
                "object-type": "meta-info", 
                "organization": "CMU"
            }, 
            "object-type": "frame", 
            "sentence": "sent-PMC2921112-cmu-153", 
            "transfection-molecule": [
                "no difference in CRE-"
            ]
        }, 
        {
            "binds-constituent1": [
                "CREB", 
                "III"
            ], 
            "cell-type": [
                "SH-SY5Y cells"
            ], 
            "frame-id": "imp-PMC2921112-cmu-pradsys-722", 
            "frame-type": "implication", 
            "implication-type": "binds", 
            "object-meta": {
                "object-type": "meta-info", 
                "organization": "CMU"
            }, 
            "object-type": "frame", 
            "sentence": "sent-PMC2921112-cmu-155"
        }, 
        {
            "binds-constituent2": [
                "mRNA"
            ], 
            "frame-id": "imp-PMC2921112-cmu-pradsys-723", 
            "frame-type": "implication", 
            "implication-type": "binds", 
            "object-meta": {
                "object-type": "meta-info", 
                "organization": "CMU"
            }, 
            "object-type": "frame", 
            "process": [
                "knocking down HIPK2"
            ], 
            "sentence": "sent-PMC2921112-cmu-156"
        }, 
        {
            "binds-controller": [
                "nontargeting siRNA ( siControl ) or HIPK2 siRNA"
            ], 
            "cell-type": [
                "SH-SY5Y cells", 
                "2 or 10 \u03bcM etoposide and BDNF mRNA levels"
            ], 
            "frame-id": "imp-PMC2921112-cmu-pradsys-724", 
            "frame-type": "implication", 
            "implication-type": "binds", 
            "object-meta": {
                "object-type": "meta-info", 
                "organization": "CMU"
            }, 
            "object-type": "frame", 
            "process": [
                "transfected"
            ], 
            "sentence": "sent-PMC2921112-cmu-157"
        }, 
        {
            "cell-type": [
                "SH-SY5Y cells", 
                "HIPK2-knockdown cells"
            ], 
            "frame-id": "imp-PMC2921112-cmu-pradsys-725", 
            "frame-type": "implication", 
            "implication-type": "binds", 
            "object-meta": {
                "object-type": "meta-info", 
                "organization": "CMU"
            }, 
            "object-type": "frame", 
            "sentence": "sent-PMC2921112-cmu-158", 
            "transfection-molecule": [
                "\u223c70 % knockdown of HIPK2 mRNA measured by RT-PCR ( Supplemental Figure S2 ) , etoposide-induced BDNF mRNA expression"
            ]
        }, 
        {
            "binds-constituent1": [
                "HIPK2"
            ], 
            "frame-id": "imp-PMC2921112-cmu-pradsys-726", 
            "frame-type": "implication", 
            "implication-type": "binds", 
            "object-meta": {
                "object-type": "meta-info", 
                "organization": "CMU"
            }, 
            "object-type": "frame", 
            "sentence": "sent-PMC2921112-cmu-159"
        }
    ], 
    "object-meta": {
        "component": "Pradeep-System", 
        "component-type": "machine", 
        "doc-id": "PMC2921112", 
        "object-type": "meta-info", 
        "organization": "CMU"
    }, 
    "object-type": "frame-collection"
}
