{
  "evidence": ["Pax 6 phosphorylated by HIPK2","We observed retarded migration of phosphorylated CREB at Serine 271 by HIPK2                  , similar to the retarded migration of Groucho , AML1 , and Pax 6 phosphorylated by HIPK2                                                           , but not CREB phosphorylation at Serine 133 by PKA           ."],
  "extracted_information": {
    "interaction_type": "adds_modification",
    "negative_information": false,
    "modifications": [
      {
        "modification_type": "phosphorylation"
      }
    ],
    "participant_a": {
      "entity_text": "HIPK2",
      "entity_type": "protein",
      "identifier": "Uniprot:Q9H2X6",
      "in_model": false
    },
    "participant_b": {
      "entity_text": "Pax 6",
      "entity_type": "protein",
      "identifier": "Uniprot:P26367",
      "in_model": true
    }
  },
  "fries_provenance": [
    {
      "cmu-sentence-epistemic-status": "implication",
      "cmu-sentence-epistemic-value": 0.6,
      "component": "REACH",
      "frame-file": "PMC2921112.uaz.events",
      "frame-id": "evem-PMC2921112-UAZ-r1-69-4-166",
      "passage-id": "pass-PMC2921112-UAZ-r1-69",
      "passage-number": 69,
      "passage-section-id": "N/A",
      "passage-section-name": "discussion",
      "sentence": "We observed retarded migration of phosphorylated CREB at Serine 271 by HIPK2                  , similar to the retarded migration of Groucho , AML1 , and Pax 6 phosphorylated by HIPK2                                                           , but not CREB phosphorylation at Serine 133 by PKA           .",
      "text": "Pax 6 phosphorylated by HIPK2",
      "uaz-sentence": "We observed retarded migration of phosphorylated CREB at Serine 271 by HIPK2                  , similar to the retarded migration of Groucho , AML1 , and Pax 6 phosphorylated by HIPK2                                                           , but not CREB phosphorylation at Serine 133 by PKA           .",
      "uaz-sentence-start": 857
    }
  ],
  "model_relation": "extension",
  "pmc_id": "PMC2921112",
  "reader_type": "machine",
  "reading_complete": "2015-06-15T21:26:46Z",
  "reading_started": "2015-06-15T21:26:41Z",
  "submitter": "FRIES"
}
