{
    "frames": [
        {
            "frame-id": "epi-PMC3491199-cmu-nicosys-209", 
            "frame-type": "epistemics", 
            "object-meta": {
                "object-type": "meta-info", 
                "organization": "CMU"
            }, 
            "object-type": "frame", 
            "sentence": "sent-PMC3491199-cmu-0", 
            "status": "implication", 
            "value": 0.6
        }, 
        {
            "frame-id": "epi-PMC3491199-cmu-nicosys-210", 
            "frame-type": "epistemics", 
            "object-meta": {
                "object-type": "meta-info", 
                "organization": "CMU"
            }, 
            "object-type": "frame", 
            "sentence": "sent-PMC3491199-cmu-5", 
            "status": "hypothesis", 
            "value": 0.3
        }, 
        {
            "frame-id": "epi-PMC3491199-cmu-nicosys-211", 
            "frame-type": "epistemics", 
            "object-meta": {
                "object-type": "meta-info", 
                "organization": "CMU"
            }, 
            "object-type": "frame", 
            "sentence": "sent-PMC3491199-cmu-15", 
            "status": "implication", 
            "value": 0.6
        }, 
        {
            "frame-id": "epi-PMC3491199-cmu-nicosys-212", 
            "frame-type": "epistemics", 
            "object-meta": {
                "object-type": "meta-info", 
                "organization": "CMU"
            }, 
            "object-type": "frame", 
            "sentence": "sent-PMC3491199-cmu-94", 
            "status": "belief", 
            "value": 0.9
        }, 
        {
            "frame-id": "epi-PMC3491199-cmu-nicosys-213", 
            "frame-type": "epistemics", 
            "object-meta": {
                "object-type": "meta-info", 
                "organization": "CMU"
            }, 
            "object-type": "frame", 
            "sentence": "sent-PMC3491199-cmu-95", 
            "status": "implication", 
            "value": 0.6
        }, 
        {
            "frame-id": "epi-PMC3491199-cmu-nicosys-214", 
            "frame-type": "epistemics", 
            "object-meta": {
                "object-type": "meta-info", 
                "organization": "CMU"
            }, 
            "object-type": "frame", 
            "sentence": "sent-PMC3491199-cmu-113", 
            "status": "belief", 
            "value": 0.9
        }, 
        {
            "frame-id": "epi-PMC3491199-cmu-nicosys-215", 
            "frame-type": "epistemics", 
            "object-meta": {
                "object-type": "meta-info", 
                "organization": "CMU"
            }, 
            "object-type": "frame", 
            "sentence": "sent-PMC3491199-cmu-117", 
            "status": "implication", 
            "value": 0.6
        }, 
        {
            "frame-id": "epi-PMC3491199-cmu-nicosys-216", 
            "frame-type": "epistemics", 
            "object-meta": {
                "object-type": "meta-info", 
                "organization": "CMU"
            }, 
            "object-type": "frame", 
            "sentence": "sent-PMC3491199-cmu-138", 
            "status": "implication", 
            "value": 0.6
        }, 
        {
            "frame-id": "epi-PMC3491199-cmu-nicosys-217", 
            "frame-type": "epistemics", 
            "object-meta": {
                "object-type": "meta-info", 
                "organization": "CMU"
            }, 
            "object-type": "frame", 
            "sentence": "sent-PMC3491199-cmu-140", 
            "status": "implication", 
            "value": 0.6
        }, 
        {
            "frame-id": "epi-PMC3491199-cmu-nicosys-218", 
            "frame-type": "epistemics", 
            "object-meta": {
                "object-type": "meta-info", 
                "organization": "CMU"
            }, 
            "object-type": "frame", 
            "sentence": "sent-PMC3491199-cmu-148", 
            "status": "implication", 
            "value": 0.6
        }, 
        {
            "frame-id": "epi-PMC3491199-cmu-nicosys-219", 
            "frame-type": "epistemics", 
            "object-meta": {
                "object-type": "meta-info", 
                "organization": "CMU"
            }, 
            "object-type": "frame", 
            "sentence": "sent-PMC3491199-cmu-149", 
            "status": "implication", 
            "value": 0.6
        }, 
        {
            "frame-id": "epi-PMC3491199-cmu-nicosys-220", 
            "frame-type": "epistemics", 
            "object-meta": {
                "object-type": "meta-info", 
                "organization": "CMU"
            }, 
            "object-type": "frame", 
            "sentence": "sent-PMC3491199-cmu-154", 
            "status": "implication", 
            "value": 0.6
        }
    ], 
    "object-meta": {
        "component": "Nicolas-System", 
        "component-type": "machine", 
        "doc-id": "PMC3491199", 
        "object-type": "meta-info", 
        "organization": "CMU"
    }, 
    "object-type": "frame-collection"
}
