{
  "evidence": ["In the early G1 phase, the cyclin D1-CDK4 complex partially activates pRb by phosphorylation, resulting in the inhibition of pRb function; in the late G1 phase, CDK2 complexed with cyclin E further phosphorylates pRb to complete its inactivation and allows the cell to enter the S phase. , Phosphorylations of pRb mediated by the cyclin D1-CDK4 complex and CDK2 are required for cell-cycle re-entry.","pRb function; in the late G1 phase, CDK2 complexed with cyclin E further phosphorylates pRb to complete its inactivation and allows the cell to enter the S phase. , Phosphorylations of pRb mediated by the cyclin D1-CDK4 complex and CDK2"],
  "extracted_information": {
    "interaction_type": "adds_modification",
    "negative_information": false,
    "modifications": [
      {
        "modification_type": "phosphorylation"
      }
    ],
    "participant_a": {
      "entity_text": "CDK2",
      "entity_type": "protein",
      "identifier": "Uniprot:P24941",
      "in_model": false
    },
    "participant_b": {
      "entity_text": "pRb",
      "entity_type": "protein",
      "identifier": "Uniprot:P06400",
      "in_model": true
    }
  },
  "fries_provenance": [
    {
      "cmu-sentence-epistemic-status": "belief",
      "cmu-sentence-epistemic-value": 0.9,
      "component": "MedScan",
      "frame-file": "PMC3032325.cmu.medscan",
      "frame-id": "relm-PMC3032325-cmu-medscan-640",
      "passage-id": "pass-PMC3032325-UAZ-r1-48",
      "passage-number": 48,
      "passage-section-id": "N/A",
      "passage-section-name": "N/A",
      "sentence": "In the early G1 phase, the cyclin D1-CDK4 complex partially activates pRb by phosphorylation, resulting in the inhibition of pRb function; in the late G1 phase, CDK2 complexed with cyclin E further phosphorylates pRb to complete its inactivation and allows the cell to enter the S phase. , Phosphorylations of pRb mediated by the cyclin D1-CDK4 complex and CDK2 are required for cell-cycle re-entry.",
      "text": "pRb function; in the late G1 phase, CDK2 complexed with cyclin E further phosphorylates pRb to complete its inactivation and allows the cell to enter the S phase. , Phosphorylations of pRb mediated by the cyclin D1-CDK4 complex and CDK2",
      "uaz-sentence": "In the early G1 phase , the cyclin D1 and CDK4 complex partially activates pRb by phosphorylation , resulting in the inhibition of pRb function ; in the late G1 phase , CDK2 complexed with cyclin E further phosphorylates pRb to complete its inactivation and allows the cell to enter the S phase .",
      "uaz-sentence-start": 280
    }
  ],
  "model_relation": "extension",
  "pmc_id": "PMC3032325",
  "reader_type": "machine",
  "reading_complete": "2015-06-15T21:50:39Z",
  "reading_started": "2015-06-15T21:50:34Z",
  "submitter": "FRIES"
}
