{
  "evidence": ["Finer dissection of NFATc2-JNK interactions induced by PEDF in the activated endothelium showed that NFATc2 retention in the cytoplasm was solely due to JNK-2, whereas NFAT nuclear export was driven by both JNK-1 and -2.","Human umbilical vein ECs grown on gelatinized coverslips were treated with 200 pg/ml VEGF or 5 ng/ml bFGF and 10 nM PEDF and stained for NFATc2.","NFATc2 nuclear localization (active state) despite PEDF treatment. (f and g) PEDF","Note the increase in NFATc2 phosphorylation by PEDF in stimulated ECs and its attenuation in the presence of JNK inhibitor. (d) Increased JNK activity in PEDF-treated cells.","PEDF in the activated endothelium showed that NFATc2","PEDF increased interaction between JNK-2 and NFATc2 in the cytosol of stimulated ECs. (g) NFATc2","PEDF restored NFATc2","PEDF-dependent increase in the NFATc2","PEDF-dependent increase in the NFATc2 phosphorylation and cytoplasmic retention in the activated ECs were driven by JNK kinases because both were blocked by SP600125, an inhibitor of multiple JNK isoforms .","PEDF-dependent NFATc2","Purity of the fractions was determined by blotting with antibodies against GM130 protein. (f) PEDF increased interaction between JNK-2 and NFATc2 in the cytosol of stimulated ECs. (g) NFATc2 interacted with both JNK-1 and JNK-2 in the nuclei; note the increased complex formation by PEDF in stimulated but not in quiescent ECs.","Quiescent or activated Human umbilical vein ECs (induced with VEGF or bFGF, as indicated) were treated for 15 min with PEDF."],
  "extracted_information": {
    "interaction_type": "increases",
    "negative_information": false,
    "participant_a": {
      "entity_text": "PEDF",
      "entity_type": "protein",
      "identifier": "Uniprot:P36955",
      "in_model": false
    },
    "participant_b": {
      "entity_text": "NFATc2",
      "entity_type": "protein",
      "identifier": "Uniprot:Q13469",
      "in_model": true
    }
  },
  "fries_provenance": [
    {
      "cmu-sentence-epistemic-status": "implication",
      "cmu-sentence-epistemic-value": 0.6,
      "component": "MedScan",
      "frame-file": "PMC2211785.cmu.medscan",
      "frame-id": "relm-PMC2211785-cmu-medscan-757",
      "passage-id": "pass-PMC2211785-UAZ-r1-14",
      "passage-number": 14,
      "passage-section-id": "N/A",
      "passage-section-name": "N/A",
      "sentence": "Finer dissection of NFATc2-JNK interactions induced by PEDF in the activated endothelium showed that NFATc2 retention in the cytoplasm was solely due to JNK-2, whereas NFAT nuclear export was driven by both JNK-1 and -2.",
      "text": "PEDF in the activated endothelium showed that NFATc2",
      "uaz-sentence": "Finer dissection of NFATc2-JNK interactions induced by PEDF in the activated endothelium showed that NFATc2 retention in the cytoplasm was solely due to JNK-2 , whereas NFAT nuclear export was driven by both JNK-1 and -2 .",
      "uaz-sentence-start": 699
    },
    {
      "component": "MedScan",
      "frame-file": "PMC2211785.cmu.medscan",
      "frame-id": "relm-PMC2211785-cmu-medscan-770",
      "sentence": "Human umbilical vein ECs grown on gelatinized coverslips were treated with 200 pg/ml VEGF or 5 ng/ml bFGF and 10 nM PEDF and stained for NFATc2.",
      "text": "PEDF restored NFATc2"
    },
    {
      "component": "MedScan",
      "frame-file": "PMC2211785.cmu.medscan",
      "frame-id": "relm-PMC2211785-cmu-medscan-774",
      "sentence": "Note the increase in NFATc2 phosphorylation by PEDF in stimulated ECs and its attenuation in the presence of JNK inhibitor. (d) Increased JNK activity in PEDF-treated cells.",
      "text": "PEDF-dependent NFATc2"
    },
    {
      "component": "MedScan",
      "frame-file": "PMC2211785.cmu.medscan",
      "frame-id": "relm-PMC2211785-cmu-medscan-781",
      "sentence": "Quiescent or activated Human umbilical vein ECs (induced with VEGF or bFGF, as indicated) were treated for 15 min with PEDF.",
      "text": "NFATc2 nuclear localization (active state) despite PEDF treatment. (f and g) PEDF"
    },
    {
      "component": "MedScan",
      "frame-file": "PMC2211785.cmu.medscan",
      "frame-id": "relm-PMC2211785-cmu-medscan-782",
      "sentence": "Purity of the fractions was determined by blotting with antibodies against GM130 protein. (f) PEDF increased interaction between JNK-2 and NFATc2 in the cytosol of stimulated ECs. (g) NFATc2 interacted with both JNK-1 and JNK-2 in the nuclei; note the increased complex formation by PEDF in stimulated but not in quiescent ECs.",
      "text": "PEDF increased interaction between JNK-2 and NFATc2 in the cytosol of stimulated ECs. (g) NFATc2"
    },
    {
      "cmu-sentence-epistemic-status": "implication",
      "cmu-sentence-epistemic-value": 0.6,
      "component": "MedScan",
      "frame-file": "PMC2211785.cmu.medscan",
      "frame-id": "relm-PMC2211785-cmu-medscan-787",
      "sentence": "PEDF-dependent increase in the NFATc2 phosphorylation and cytoplasmic retention in the activated ECs were driven by JNK kinases because both were blocked by SP600125, an inhibitor of multiple JNK isoforms .",
      "text": "PEDF-dependent increase in the NFATc2"
    }
  ],
  "model_relation": "extension",
  "pmc_id": "PMC2211785",
  "reader_type": "machine",
  "reading_complete": "2015-06-15T20:11:51Z",
  "reading_started": "2015-06-15T20:11:45Z",
  "submitter": "FRIES"
}
