{
  "frames":[
    {
      "text":"Arachidonic acid (AA) synergistically interacted with diacylglycerol",
      "frame-id":"evem-PMC2120693-UAZ-r1-1-5-1",
      "arguments":[
        {
          "text":"Arachidonic acid",
          "argument-type":"entity",
          "object-type":"argument",
          "index":0,
          "argument-label":"theme",
          "arg":"ment-PMC2120693-UAZ-r1-1-5-16"
        },
        {
          "text":"diacylglycerol",
          "argument-type":"entity",
          "object-type":"argument",
          "index":1,
          "argument-label":"theme",
          "arg":"ment-PMC2120693-UAZ-r1-1-5-17"
        }
      ],
      "type":"complex-assembly",
      "frame-type":"event-mention",
      "end-pos":{
        "reference":"pass-PMC2120693-UAZ-r1-1",
        "offset":1063,
        "object-type":"relative-pos"
      },
      "object-type":"frame",
      "start-pos":{
        "reference":"pass-PMC2120693-UAZ-r1-1",
        "offset":995,
        "object-type":"relative-pos"
      },
      "found-by":"binding13",
      "sentence":"sent-PMC2120693-UAZ-r1-1-5",
      "verbose-text":"Arachidonic acid ( AA ) synergistically interacted with diacylglycerol to stimulate actin binding to PKC epsilon .",
      "object-meta":{
        "component":"REACH",
        "object-type":"meta-info"
      }
    },
    {
      "text":"Arachidonic acid (AA) synergistically interacted with diacylglycerol",
      "frame-id":"evem-PMC2120693-UAZ-r1-1-5-2",
      "arguments":[
        {
          "text":"Arachidonic acid",
          "argument-type":"entity",
          "object-type":"argument",
          "index":0,
          "argument-label":"theme",
          "arg":"ment-PMC2120693-UAZ-r1-1-5-16"
        },
        {
          "text":"diacylglycerol",
          "argument-type":"entity",
          "object-type":"argument",
          "index":1,
          "argument-label":"theme",
          "arg":"ment-PMC2120693-UAZ-r1-1-5-17"
        }
      ],
      "type":"complex-assembly",
      "frame-type":"event-mention",
      "end-pos":{
        "reference":"pass-PMC2120693-UAZ-r1-1",
        "offset":1063,
        "object-type":"relative-pos"
      },
      "object-type":"frame",
      "start-pos":{
        "reference":"pass-PMC2120693-UAZ-r1-1",
        "offset":995,
        "object-type":"relative-pos"
      },
      "found-by":"binding13",
      "sentence":"sent-PMC2120693-UAZ-r1-1-5",
      "verbose-text":"Arachidonic acid ( AA ) synergistically interacted with diacylglycerol to stimulate actin binding to PKC epsilon .",
      "object-meta":{
        "component":"REACH",
        "object-type":"meta-info"
      }
    },
    {
      "text":"actin binding to PKC epsilon",
      "frame-id":"evem-PMC2120693-UAZ-r1-1-5-3",
      "arguments":[
        {
          "text":"actin",
          "argument-type":"entity",
          "object-type":"argument",
          "index":0,
          "argument-label":"theme",
          "arg":"ment-PMC2120693-UAZ-r1-1-5-18"
        },
        {
          "text":"PKC epsilon",
          "argument-type":"entity",
          "object-type":"argument",
          "index":1,
          "argument-label":"theme",
          "arg":"ment-PMC2120693-UAZ-r1-1-5-19"
        }
      ],
      "type":"complex-assembly",
      "frame-type":"event-mention",
      "end-pos":{
        "reference":"pass-PMC2120693-UAZ-r1-1",
        "offset":1105,
        "object-type":"relative-pos"
      },
      "object-type":"frame",
      "start-pos":{
        "reference":"pass-PMC2120693-UAZ-r1-1",
        "offset":1077,
        "object-type":"relative-pos"
      },
      "found-by":"binding_token_1",
      "sentence":"sent-PMC2120693-UAZ-r1-1-5",
      "verbose-text":"Arachidonic acid ( AA ) synergistically interacted with diacylglycerol to stimulate actin binding to PKC epsilon .",
      "object-meta":{
        "component":"REACH",
        "object-type":"meta-info"
      }
    },
    {
      "text":"interaction between PKC epsilon and filamentous actin",
      "frame-id":"evem-PMC2120693-UAZ-r1-1-1-4",
      "arguments":[
        {
          "text":"PKC epsilon",
          "argument-type":"entity",
          "object-type":"argument",
          "index":0,
          "argument-label":"theme",
          "arg":"ment-PMC2120693-UAZ-r1-1-1-5"
        },
        {
          "text":"actin",
          "argument-type":"entity",
          "object-type":"argument",
          "index":1,
          "argument-label":"theme",
          "arg":"ment-PMC2120693-UAZ-r1-1-1-6"
        }
      ],
      "type":"complex-assembly",
      "frame-type":"event-mention",
      "end-pos":{
        "reference":"pass-PMC2120693-UAZ-r1-1",
        "offset":271,
        "object-type":"relative-pos"
      },
      "object-type":"frame",
      "start-pos":{
        "reference":"pass-PMC2120693-UAZ-r1-1",
        "offset":218,
        "object-type":"relative-pos"
      },
      "found-by":"binding11",
      "sentence":"sent-PMC2120693-UAZ-r1-1-1",
      "verbose-text":"In this study , we show that an isoform specific interaction between PKC epsilon and filamentous actin may serve as a necessary prelude to the enhancement of glutamate exocytosis from nerve terminals .",
      "object-meta":{
        "component":"REACH",
        "object-type":"meta-info"
      }
    },
    {
      "text":"binding of PKC epsilon to actin",
      "frame-id":"evem-PMC2120693-UAZ-r1-1-4-5",
      "arguments":[
        {
          "text":"PKC epsilon",
          "argument-type":"entity",
          "object-type":"argument",
          "index":0,
          "argument-label":"theme",
          "arg":"ment-PMC2120693-UAZ-r1-1-4-12"
        },
        {
          "text":"actin",
          "argument-type":"entity",
          "object-type":"argument",
          "index":1,
          "argument-label":"theme",
          "arg":"ment-PMC2120693-UAZ-r1-1-4-13"
        }
      ],
      "type":"complex-assembly",
      "frame-type":"event-mention",
      "end-pos":{
        "reference":"pass-PMC2120693-UAZ-r1-1",
        "offset":743,
        "object-type":"relative-pos"
      },
      "object-type":"frame",
      "start-pos":{
        "reference":"pass-PMC2120693-UAZ-r1-1",
        "offset":712,
        "object-type":"relative-pos"
      },
      "found-by":"binding3",
      "sentence":"sent-PMC2120693-UAZ-r1-1-4",
      "verbose-text":"The binding of PKC epsilon to actin required that the kinase be activated , presumably to expose a cryptic binding site that we have identified and shown to be located between the first and second cysteine rich regions within the regulatory domain of only this individual isoform of PKC .",
      "object-meta":{
        "component":"REACH",
        "object-type":"meta-info"
      }
    },
    {
      "frame-id":"evem-PMC2120693-UAZ-r1-1-5-6",
      "text":"Arachidonic acid (AA) synergistically interacted with diacylglycerol to stimulate actin binding to PKC epsilon",
      "arguments":[
        {
          "text":"actin binding to PKC epsilon",
          "argument-type":"event",
          "object-type":"argument",
          "index":0,
          "argument-label":"controlled",
          "arg":"evem-PMC2120693-UAZ-r1-1-5-3"
        },
        {
          "text":"Arachidonic acid (AA) synergistically interacted with diacylglycerol",
          "argument-type":"complex",
          "object-type":"argument",
          "index":0,
          "argument-label":"controller",
          "args":{
            "theme1":"ment-PMC2120693-UAZ-r1-1-5-16",
            "theme2":"ment-PMC2120693-UAZ-r1-1-5-17"
          }
        }
      ],
      "type":"regulation",
      "frame-type":"event-mention",
      "subtype":"positive-regulation",
      "end-pos":{
        "reference":"pass-PMC2120693-UAZ-r1-1",
        "offset":1105,
        "object-type":"relative-pos"
      },
      "object-type":"frame",
      "start-pos":{
        "reference":"pass-PMC2120693-UAZ-r1-1",
        "offset":995,
        "object-type":"relative-pos"
      },
      "sentence":"sent-PMC2120693-UAZ-r1-1-5",
      "found-by":"Positive_regulation_syntax_1_verb",
      "object-meta":{
        "component":"REACH",
        "object-type":"meta-info"
      },
      "verbose-text":"Arachidonic acid ( AA ) synergistically interacted with diacylglycerol to stimulate actin binding to PKC epsilon ."
    }
  ],
  "object-type":"frame-collection",
  "object-meta":{
    "processing-end":"2015-06-14T21:09:20Z",
    "doc-id":"PMC2120693",
    "component-type":"machine",
    "component":"REACH",
    "processing-start":"2015-06-14T21:09:14Z",
    "object-type":"meta-info",
    "organization":"UAZ"
  }
}
