{
  "evidence": ["ethanol inhibition of LPS","In an experiment with NF-kappaB reporter mice we tested , if ethanol inhibition of LPS induced TNF-alpha secretion starts at the signaling pathway , and if total NF-kappaB activation in vivo was inhibited by ethanol ."],
  "extracted_information": {
    "interaction_type": "decreases_activity",
    "negative_information": false,
    "participant_a": {
      "entity_text": "ethanol",
      "entity_type": "chemical",
      "identifier": "CHEBI:16236",
      "in_model": true
    },
    "participant_b": {
      "entity_text": "LPS",
      "entity_type": "protein",
      "identifier": "Uniprot:Q50EK2",
      "in_model": false
    }
  },
  "fries_provenance": [
    {
      "cmu-sentence-epistemic-status": "implication",
      "cmu-sentence-epistemic-value": 0.6,
      "component": "REACH",
      "frame-file": "PMC3272005.uaz.events",
      "frame-id": "evem-PMC3272005-UAZ-r1-58-1-44",
      "passage-id": "pass-PMC3272005-UAZ-r1-58",
      "passage-number": 58,
      "passage-section-id": "s3",
      "passage-section-name": "N/A",
      "sentence": "In an experiment with NF-kappaB reporter mice we tested , if ethanol inhibition of LPS induced TNF-alpha secretion starts at the signaling pathway , and if total NF-kappaB activation in vivo was inhibited by ethanol .",
      "text": "ethanol inhibition of LPS",
      "uaz-sentence": "In an experiment with NF-kappaB reporter mice we tested , if ethanol inhibition of LPS induced TNF-alpha secretion starts at the signaling pathway , and if total NF-kappaB activation in vivo was inhibited by ethanol .",
      "uaz-sentence-start": 156
    }
  ],
  "model_relation": "extension",
  "pmc_id": "PMC3272005",
  "reader_type": "machine",
  "reading_complete": "2015-06-15T22:36:05Z",
  "reading_started": "2015-06-15T22:36:00Z",
  "submitter": "FRIES"
}
