{
  "evidence": ["BDNF activation of p-Akt","BDNF-induced p-Akt","BDNF-induced p-CaMKII, p-Akt","BDNF-signaling of p-Akt","Knockdown of Ube3A impeded BDNF induced p-CaMKII , p-Akt , p-GSK , and p-S6 activation .","Results show that increased levels of PSD-95 enhance BDNF signaling of p-Akt ( S473 and T308 ) , p-CaMKII , pGSK3alpha and beta , and p-S6 .","Results show that interfering with Ube3A function elevates Arc , which in turn reduces BDNF activation of p-Akt signaling when compared to SH-SY5Y-TrkB control cells ( p < 0.001 ; for both S473 and T308 quantitated at the 10-min time point ) .","The RNAi mediated knockdown of PSD-95 reduced expression to 14.1 %+ / -3.5 % compared to untransfected cells , and impeded BDNF induced p-Akt , p-4E-BP1 , and p-S6 induction as compared with cells transfected with scRNAi .","We also observed significantly reduced BDNF induced p-Akt signaling when compared to SH-SY5Y-TrkB control cells             , which was rescued with an Arc-shRNA                  ."],
  "extracted_information": {
    "interaction_type": "increases_activity",
    "negative_information": false,
    "participant_a": {
      "entity_text": "BDNF",
      "entity_type": "protein",
      "identifier": "Uniprot:P23560",
      "in_model": true
    },
    "participant_b": {
      "entity_text": "p-Akt",
      "entity_type": "protein",
      "identifier": "ungrounded",
      "in_model": false
    }
  },
  "fries_provenance": [
    {
      "component": "REACH",
      "frame-file": "PMC3570550.uaz.events",
      "frame-id": "evem-PMC3570550-UAZ-r1-107-9-145",
      "passage-id": "pass-PMC3570550-UAZ-r1-107",
      "passage-number": 107,
      "passage-section-id": "supm-2",
      "passage-section-name": "supm-2",
      "sentence": "Knockdown of Ube3A impeded BDNF induced p-CaMKII , p-Akt , p-GSK , and p-S6 activation .",
      "text": "BDNF-induced p-CaMKII, p-Akt",
      "uaz-sentence": "Knockdown of Ube3A impeded BDNF induced p-CaMKII , p-Akt , p-GSK , and p-S6 activation .",
      "uaz-sentence-start": 1257
    },
    {
      "component": "REACH",
      "frame-file": "PMC3570550.uaz.events",
      "frame-id": "evem-PMC3570550-UAZ-r1-111-7-169",
      "passage-id": "pass-PMC3570550-UAZ-r1-111",
      "passage-number": 111,
      "passage-section-id": "supm-3",
      "passage-section-name": "supm-3",
      "sentence": "The RNAi mediated knockdown of PSD-95 reduced expression to 14.1 %+ / -3.5 % compared to untransfected cells , and impeded BDNF induced p-Akt , p-4E-BP1 , and p-S6 induction as compared with cells transfected with scRNAi .",
      "text": "BDNF-induced p-Akt",
      "uaz-sentence": "The RNAi mediated knockdown of PSD-95 reduced expression to 14.1 %+ / -3.5 % compared to untransfected cells , and impeded BDNF induced p-Akt , p-4E-BP1 , and p-S6 induction as compared with cells transfected with scRNAi .",
      "uaz-sentence-start": 940
    },
    {
      "component": "REACH",
      "frame-file": "PMC3570550.uaz.events",
      "frame-id": "evem-PMC3570550-UAZ-r1-115-20-184",
      "passage-id": "pass-PMC3570550-UAZ-r1-115",
      "passage-number": 115,
      "passage-section-id": "supm-4",
      "passage-section-name": "supm-4",
      "sentence": "Results show that interfering with Ube3A function elevates Arc , which in turn reduces BDNF activation of p-Akt signaling when compared to SH-SY5Y-TrkB control cells ( p < 0.001 ; for both S473 and T308 quantitated at the 10-min time point ) .",
      "text": "BDNF activation of p-Akt",
      "uaz-sentence": "Results show that interfering with Ube3A function elevates Arc , which in turn reduces BDNF activation of p-Akt signaling when compared to SH-SY5Y-TrkB control cells ( p < 0.001 ; for both S473 and T308 quantitated at the 10-min time point ) .",
      "uaz-sentence-start": 2441
    },
    {
      "component": "REACH",
      "frame-file": "PMC3570550.uaz.events",
      "frame-id": "evem-PMC3570550-UAZ-r1-34-15-45",
      "passage-id": "pass-PMC3570550-UAZ-r1-34",
      "passage-number": 34,
      "passage-section-id": "fig-3",
      "passage-section-name": "fig-3",
      "sentence": "Results show that increased levels of PSD-95 enhance BDNF signaling of p-Akt ( S473 and T308 ) , p-CaMKII , pGSK3alpha and beta , and p-S6 .",
      "text": "BDNF-signaling of p-Akt",
      "uaz-sentence": "Results show that increased levels of PSD-95 enhance BDNF signaling of p-Akt ( S473 and T308 ) , p-CaMKII , pGSK3alpha and beta , and p-S6 .",
      "uaz-sentence-start": 1911
    },
    {
      "cmu-sentence-epistemic-status": "implication",
      "cmu-sentence-epistemic-value": 0.6,
      "component": "REACH",
      "frame-file": "PMC3570550.uaz.events",
      "frame-id": "evem-PMC3570550-UAZ-r1-49-4-121",
      "passage-id": "pass-PMC3570550-UAZ-r1-49",
      "passage-number": 49,
      "passage-section-id": "s2d",
      "passage-section-name": "N/A",
      "sentence": "We also observed significantly reduced BDNF induced p-Akt signaling when compared to SH-SY5Y-TrkB control cells             , which was rescued with an Arc-shRNA                  .",
      "text": "BDNF-induced p-Akt",
      "uaz-sentence": "We also observed significantly reduced BDNF induced p-Akt signaling when compared to SH-SY5Y-TrkB control cells             , which was rescued with an Arc-shRNA                  .",
      "uaz-sentence-start": 824
    }
  ],
  "model_relation": "extension",
  "pmc_id": "PMC3570550",
  "reader_type": "machine",
  "reading_complete": "2015-06-15T23:12:18Z",
  "reading_started": "2015-06-15T23:12:13Z",
  "submitter": "FRIES"
}
