{
  "evidence": ["EMT phenotype induced by various factors including PDGF-D","PDGF-D induced EMT","The miR-200 family plays a critical role in mediating EMT phenotype induced by various factors including PDGF-D     ,     ,     .","The results from Western blot analysis and cell morphology as well as our published data have demonstrated that over-expression of PDGF-D induced EMT phenotype in PC3 cells     ,               , which was consistent with higher levels of PDGF-D in cell lysates and conditioned medium ( CM ) from PC3 PDGF-D cells compared with PC3 Neo cells                   ."],
  "extracted_information": {
    "interaction_type": "increases_activity",
    "negative_information": false,
    "participant_a": {
      "entity_text": "PDGF-D",
      "entity_type": "protein",
      "identifier": "Uniprot:Q9GZP0",
      "in_model": true
    },
    "participant_b": {
      "entity_text": "EMT",
      "entity_type": "protein",
      "identifier": "Uniprot:O75751",
      "in_model": false
    }
  },
  "fries_provenance": [
    {
      "cmu-sentence-epistemic-status": "implication",
      "cmu-sentence-epistemic-value": 0.6,
      "component": "REACH",
      "frame-file": "PMC2929211.uaz.events",
      "frame-id": "evem-PMC2929211-UAZ-r1-22-0-8",
      "passage-id": "pass-PMC2929211-UAZ-r1-22",
      "passage-number": 22,
      "passage-section-id": "s2a",
      "passage-section-name": "N/A",
      "sentence": "The results from Western blot analysis and cell morphology as well as our published data have demonstrated that over-expression of PDGF-D induced EMT phenotype in PC3 cells     ,               , which was consistent with higher levels of PDGF-D in cell lysates and conditioned medium ( CM ) from PC3 PDGF-D cells compared with PC3 Neo cells                   .",
      "text": "PDGF-D induced EMT",
      "uaz-sentence": "The results from Western blot analysis and cell morphology as well as our published data have demonstrated that over-expression of PDGF-D induced EMT phenotype in PC3 cells     ,               , which was consistent with higher levels of PDGF-D in cell lysates and conditioned medium ( CM ) from PC3 PDGF-D cells compared with PC3 Neo cells                   .",
      "uaz-sentence-start": 0
    },
    {
      "cmu-sentence-epistemic-status": "implication",
      "cmu-sentence-epistemic-value": 0.6,
      "component": "REACH",
      "frame-file": "PMC2929211.uaz.events",
      "frame-id": "evem-PMC2929211-UAZ-r1-75-0-29",
      "passage-id": "pass-PMC2929211-UAZ-r1-75",
      "passage-number": 75,
      "passage-section-id": "s3",
      "passage-section-name": "N/A",
      "sentence": "The miR-200 family plays a critical role in mediating EMT phenotype induced by various factors including PDGF-D     ,     ,     .",
      "text": "EMT phenotype induced by various factors including PDGF-D",
      "uaz-sentence": "The miR-200 family plays a critical role in mediating EMT phenotype induced by various factors including PDGF-D     ,     ,     .",
      "uaz-sentence-start": 0
    }
  ],
  "model_relation": "extension",
  "pmc_id": "PMC2929211",
  "reader_type": "machine",
  "reading_complete": "2015-06-15T21:27:59Z",
  "reading_started": "2015-06-15T21:27:54Z",
  "submitter": "FRIES"
}
