{
  "evidence": ["PDGF-BB treatment inevitably activates both PKC\\u03b1 and extracellular signal-regulated kinase","The consequences of these findings in U251 cells are twofold: (1) PDGF-BB treatment inevitably activates both PKC\\u03b1 and extracellular signal-regulated kinase, thus leading to NG2 phosphorylation at both Thr2256//2256 and Thr2314//2314, and (2) we cannot inhibit PKC\\u03b1 without also affecting extracellular signal-regulated kinase activity."],
  "extracted_information": {
    "interaction_type": "increases",
    "negative_information": false,
    "participant_a": {
      "entity_text": "PDGF-BB",
      "entity_type": "protein_family",
      "identifier": "GO:0005161",
      "in_model": true
    },
    "participant_b": {
      "entity_text": "PKC\\u03b1 and extracellular signal-regulated kinase",
      "entity_type": "protein",
      "identifier": "Uniprot:P28482",
      "in_model": true
    }
  },
  "fries_provenance": [
    {
      "cmu-sentence-epistemic-status": "hypothesis",
      "cmu-sentence-epistemic-value": 0.3,
      "component": "MedScan",
      "frame-file": "PMC2064431.cmu.medscan",
      "frame-id": "relm-PMC2064431-cmu-medscan-974",
      "passage-id": "pass-PMC2064431-UAZ-r1-71",
      "passage-number": 71,
      "passage-section-id": "N/A",
      "passage-section-name": "N/A",
      "sentence": "The consequences of these findings in U251 cells are twofold: (1) PDGF-BB treatment inevitably activates both PKC\\u03b1 and extracellular signal-regulated kinase, thus leading to NG2 phosphorylation at both Thr2256//2256 and Thr2314//2314, and (2) we cannot inhibit PKC\\u03b1 without also affecting extracellular signal-regulated kinase activity.",
      "text": "PDGF-BB treatment inevitably activates both PKC\\u03b1 and extracellular signal-regulated kinase",
      "uaz-sentence": "The consequences of these findings in U251 cells are twofold : ( 1 ) PDGF-BB treatment inevitably activates both PKCalpha and ERK , thus leading to NG2 phosphorylation at both Thr2256 and Thr2314 , and ( 2 ) we can not inhibit PKCalpha without also affecting ERK activity .",
      "uaz-sentence-start": 885
    }
  ],
  "model_relation": "extension",
  "pmc_id": "PMC2064431",
  "reader_type": "machine",
  "reading_complete": "2015-06-15T19:07:41Z",
  "reading_started": "2015-06-15T19:07:36Z",
  "submitter": "FRIES"
}
