{
    "frames": [
        {
            "end-pos": {
                "context-end": "beta/1", 
                "object-type": "relative-pos", 
                "offset": 110, 
                "reference": "sent-PMC3280209-medscan-3"
            }, 
            "frame-id": "ment-PMC3280209-cmu-medscan-0", 
            "frame-type": "entity-mention", 
            "object-meta": {
                "component": "MedScan", 
                "object-type": "meta-info", 
                "organization": "CMU"
            }, 
            "object-type": "frame", 
            "sentence": "sent-PMC3280209-medscan-3", 
            "start-pos": {
                "context-start": "interleukin/1", 
                "object-type": "relative-pos", 
                "offset": 92, 
                "reference": "sent-PMC3280209-medscan-3"
            }, 
            "text": "interleukin 1 beta", 
            "type": "MedScan_GENE_PROTEIN", 
            "xrefs": [
                {
                    "id": "3553", 
                    "namespace": "MEDSCAN:urn:agi-llid", 
                    "object-type": "db-reference"
                }
            ]
        }, 
        {
            "end-pos": {
                "object-type": "relative-pos", 
                "offset": -1, 
                "reference": "sent-PMC3280209-medscan-3"
            }, 
            "frame-id": "ment-PMC3280209-cmu-medscan-1", 
            "frame-type": "entity-mention", 
            "object-meta": {
                "component": "MedScan", 
                "object-type": "meta-info", 
                "organization": "CMU"
            }, 
            "object-type": "frame", 
            "sentence": "sent-PMC3280209-medscan-3", 
            "start-pos": {
                "object-type": "relative-pos", 
                "offset": -1, 
                "reference": "sent-PMC3280209-medscan-3"
            }, 
            "text": "IL4, tumor necrosis factor alpha (TNF-\u03b1)", 
            "type": "MedScan_GENE_PROTEIN", 
            "xrefs": [
                {
                    "id": "7124", 
                    "namespace": "MEDSCAN:urn:agi-llid", 
                    "object-type": "db-reference"
                }
            ]
        }, 
        {
            "end-pos": {
                "context-end": "protein/1", 
                "object-type": "relative-pos", 
                "offset": 200, 
                "reference": "sent-PMC3280209-medscan-3"
            }, 
            "frame-id": "ment-PMC3280209-cmu-medscan-2", 
            "frame-type": "entity-mention", 
            "object-meta": {
                "component": "MedScan", 
                "object-type": "meta-info", 
                "organization": "CMU"
            }, 
            "object-type": "frame", 
            "sentence": "sent-PMC3280209-medscan-3", 
            "start-pos": {
                "context-start": "C-reactive/1", 
                "object-type": "relative-pos", 
                "offset": 182, 
                "reference": "sent-PMC3280209-medscan-3"
            }, 
            "text": "C-reactive protein", 
            "type": "MedScan_GENE_PROTEIN", 
            "xrefs": [
                {
                    "id": "1401", 
                    "namespace": "MEDSCAN:urn:agi-llid", 
                    "object-type": "db-reference"
                }
            ]
        }, 
        {
            "end-pos": {
                "context-end": "homocysteine/1", 
                "object-type": "relative-pos", 
                "offset": 214, 
                "reference": "sent-PMC3280209-medscan-3"
            }, 
            "frame-id": "ment-PMC3280209-cmu-medscan-3", 
            "frame-type": "entity-mention", 
            "object-meta": {
                "component": "MedScan", 
                "object-type": "meta-info", 
                "organization": "CMU"
            }, 
            "object-type": "frame", 
            "sentence": "sent-PMC3280209-medscan-3", 
            "start-pos": {
                "context-start": "homocysteine/1", 
                "object-type": "relative-pos", 
                "offset": 202, 
                "reference": "sent-PMC3280209-medscan-3"
            }, 
            "text": "homocysteine", 
            "type": "MedScan_DRUG", 
            "xrefs": [
                {
                    "id": "778", 
                    "namespace": "pubchem", 
                    "object-type": "db-reference"
                }
            ]
        }, 
        {
            "end-pos": {
                "context-end": "fibrinogen/1", 
                "object-type": "relative-pos", 
                "offset": 226, 
                "reference": "sent-PMC3280209-medscan-3"
            }, 
            "frame-id": "ment-PMC3280209-cmu-medscan-4", 
            "frame-type": "entity-mention", 
            "object-meta": {
                "component": "MedScan", 
                "object-type": "meta-info", 
                "organization": "CMU"
            }, 
            "object-type": "frame", 
            "sentence": "sent-PMC3280209-medscan-3", 
            "start-pos": {
                "context-start": "fibrinogen/1", 
                "object-type": "relative-pos", 
                "offset": 216, 
                "reference": "sent-PMC3280209-medscan-3"
            }, 
            "text": "fibrinogen", 
            "type": "MedScan_COMPLEX", 
            "xrefs": [
                {
                    "id": "0005577", 
                    "namespace": "MEDSCAN:urn:agi-gocomplex", 
                    "object-type": "db-reference"
                }
            ]
        }, 
        {
            "end-pos": {
                "context-end": "cell/2", 
                "object-type": "relative-pos", 
                "offset": 284, 
                "reference": "sent-PMC3280209-medscan-3"
            }, 
            "frame-id": "ment-PMC3280209-cmu-medscan-5", 
            "frame-type": "entity-mention", 
            "object-meta": {
                "component": "MedScan", 
                "object-type": "meta-info", 
                "organization": "CMU"
            }, 
            "object-type": "frame", 
            "sentence": "sent-PMC3280209-medscan-3", 
            "start-pos": {
                "context-start": "immune/1", 
                "object-type": "relative-pos", 
                "offset": 273, 
                "reference": "sent-PMC3280209-medscan-3"
            }, 
            "text": "immune cell", 
            "type": "MedScan_CELL_LINE", 
            "xrefs": [
                {
                    "id": "C1515879", 
                    "namespace": "MEDSCAN:urn:agi-ncimcelltype", 
                    "object-type": "db-reference"
                }
            ]
        }, 
        {
            "end-pos": {
                "context-end": "response/1", 
                "object-type": "relative-pos", 
                "offset": 44, 
                "reference": "sent-PMC3280209-medscan-5"
            }, 
            "frame-id": "ment-PMC3280209-cmu-medscan-7", 
            "frame-type": "entity-mention", 
            "object-meta": {
                "component": "MedScan", 
                "object-type": "meta-info", 
                "organization": "CMU"
            }, 
            "object-type": "frame", 
            "sentence": "sent-PMC3280209-medscan-5", 
            "start-pos": {
                "context-start": "immune/1", 
                "object-type": "relative-pos", 
                "offset": 29, 
                "reference": "sent-PMC3280209-medscan-5"
            }, 
            "text": "immune response", 
            "type": "MedScan_PATHWAY", 
            "xrefs": [
                {
                    "id": "0006955", 
                    "namespace": "MEDSCAN:urn:agi-gocellproc", 
                    "object-type": "db-reference"
                }
            ]
        }, 
        {
            "end-pos": {
                "context-end": "response/1", 
                "object-type": "relative-pos", 
                "offset": 111, 
                "reference": "sent-PMC3280209-medscan-8"
            }, 
            "frame-id": "ment-PMC3280209-cmu-medscan-8", 
            "frame-type": "entity-mention", 
            "object-meta": {
                "component": "MedScan", 
                "object-type": "meta-info", 
                "organization": "CMU"
            }, 
            "object-type": "frame", 
            "sentence": "sent-PMC3280209-medscan-8", 
            "start-pos": {
                "context-start": "immune/1", 
                "object-type": "relative-pos", 
                "offset": 96, 
                "reference": "sent-PMC3280209-medscan-8"
            }, 
            "text": "immune response", 
            "type": "MedScan_PATHWAY", 
            "xrefs": [
                {
                    "id": "0006955", 
                    "namespace": "MEDSCAN:urn:agi-gocellproc", 
                    "object-type": "db-reference"
                }
            ]
        }, 
        {
            "end-pos": {
                "context-end": "response/1", 
                "object-type": "relative-pos", 
                "offset": 122, 
                "reference": "sent-PMC3280209-medscan-9"
            }, 
            "frame-id": "ment-PMC3280209-cmu-medscan-11", 
            "frame-type": "entity-mention", 
            "object-meta": {
                "component": "MedScan", 
                "object-type": "meta-info", 
                "organization": "CMU"
            }, 
            "object-type": "frame", 
            "sentence": "sent-PMC3280209-medscan-9", 
            "start-pos": {
                "context-start": "immune/1", 
                "object-type": "relative-pos", 
                "offset": 107, 
                "reference": "sent-PMC3280209-medscan-9"
            }, 
            "text": "immune response", 
            "type": "MedScan_PATHWAY", 
            "xrefs": [
                {
                    "id": "0006955", 
                    "namespace": "MEDSCAN:urn:agi-gocellproc", 
                    "object-type": "db-reference"
                }
            ]
        }, 
        {
            "end-pos": {
                "object-type": "relative-pos", 
                "offset": -1, 
                "reference": "NOT LINKED"
            }, 
            "frame-id": "ment-PMC3280209-cmu-medscan-12", 
            "frame-type": "entity-mention", 
            "object-meta": {
                "component": "MedScan", 
                "object-type": "meta-info", 
                "organization": "CMU"
            }, 
            "object-type": "frame", 
            "sentence": "NOT LINKED", 
            "start-pos": {
                "object-type": "relative-pos", 
                "offset": -1, 
                "reference": "NOT LINKED"
            }, 
            "text": "lung function", 
            "type": "MedScan_PATHWAY", 
            "xrefs": [
                {
                    "id": "lung%20function", 
                    "namespace": "MEDSCAN:urn:agi-cellproc", 
                    "object-type": "db-reference"
                }
            ]
        }, 
        {
            "end-pos": {
                "context-end": "menstruation/1", 
                "object-type": "relative-pos", 
                "offset": 67, 
                "reference": "sent-PMC3280209-medscan-13"
            }, 
            "frame-id": "ment-PMC3280209-cmu-medscan-13", 
            "frame-type": "entity-mention", 
            "object-meta": {
                "component": "MedScan", 
                "object-type": "meta-info", 
                "organization": "CMU"
            }, 
            "object-type": "frame", 
            "sentence": "sent-PMC3280209-medscan-13", 
            "start-pos": {
                "context-start": "menstruation/1", 
                "object-type": "relative-pos", 
                "offset": 55, 
                "reference": "sent-PMC3280209-medscan-13"
            }, 
            "text": "menstruation", 
            "type": "MedScan_PATHWAY", 
            "xrefs": [
                {
                    "id": "0042703", 
                    "namespace": "MEDSCAN:urn:agi-gocellproc", 
                    "object-type": "db-reference"
                }
            ]
        }, 
        {
            "end-pos": {
                "object-type": "relative-pos", 
                "offset": -1, 
                "reference": "NOT LINKED"
            }, 
            "frame-id": "ment-PMC3280209-cmu-medscan-14", 
            "frame-type": "entity-mention", 
            "object-meta": {
                "component": "MedScan", 
                "object-type": "meta-info", 
                "organization": "CMU"
            }, 
            "object-type": "frame", 
            "sentence": "NOT LINKED", 
            "start-pos": {
                "object-type": "relative-pos", 
                "offset": -1, 
                "reference": "NOT LINKED"
            }, 
            "text": "menstrual cycle", 
            "type": "MedScan_PATHWAY", 
            "xrefs": [
                {
                    "id": "0042698", 
                    "namespace": "MEDSCAN:urn:agi-gocellproc", 
                    "object-type": "db-reference"
                }
            ]
        }, 
        {
            "end-pos": {
                "context-end": "cotinine/1", 
                "object-type": "relative-pos", 
                "offset": 35, 
                "reference": "sent-PMC3280209-medscan-16"
            }, 
            "frame-id": "ment-PMC3280209-cmu-medscan-15", 
            "frame-type": "entity-mention", 
            "object-meta": {
                "component": "MedScan", 
                "object-type": "meta-info", 
                "organization": "CMU"
            }, 
            "object-type": "frame", 
            "sentence": "sent-PMC3280209-medscan-16", 
            "start-pos": {
                "context-start": "cotinine/1", 
                "object-type": "relative-pos", 
                "offset": 27, 
                "reference": "sent-PMC3280209-medscan-16"
            }, 
            "text": "cotinine", 
            "type": "MedScan_DRUG", 
            "xrefs": [
                {
                    "id": "854019", 
                    "namespace": "pubchem", 
                    "object-type": "db-reference"
                }
            ]
        }, 
        {
            "end-pos": {
                "context-end": "variation/1", 
                "object-type": "relative-pos", 
                "offset": 66, 
                "reference": "sent-PMC3280209-medscan-17"
            }, 
            "frame-id": "ment-PMC3280209-cmu-medscan-16", 
            "frame-type": "entity-mention", 
            "object-meta": {
                "component": "MedScan", 
                "object-type": "meta-info", 
                "organization": "CMU"
            }, 
            "object-type": "frame", 
            "sentence": "sent-PMC3280209-medscan-17", 
            "start-pos": {
                "context-start": "diurnal/1", 
                "object-type": "relative-pos", 
                "offset": 49, 
                "reference": "sent-PMC3280209-medscan-17"
            }, 
            "text": "diurnal variation", 
            "type": "MedScan_PATHWAY", 
            "xrefs": [
                {
                    "id": "0007623", 
                    "namespace": "MEDSCAN:urn:agi-gocellproc", 
                    "object-type": "db-reference"
                }
            ]
        }, 
        {
            "end-pos": {
                "context-end": "cotinine/1", 
                "object-type": "relative-pos", 
                "offset": 165, 
                "reference": "sent-PMC3280209-medscan-22"
            }, 
            "frame-id": "ment-PMC3280209-cmu-medscan-17", 
            "frame-type": "entity-mention", 
            "object-meta": {
                "component": "MedScan", 
                "object-type": "meta-info", 
                "organization": "CMU"
            }, 
            "object-type": "frame", 
            "sentence": "sent-PMC3280209-medscan-22", 
            "start-pos": {
                "context-start": "cotinine/1", 
                "object-type": "relative-pos", 
                "offset": 157, 
                "reference": "sent-PMC3280209-medscan-22"
            }, 
            "text": "cotinine", 
            "type": "MedScan_DRUG", 
            "xrefs": [
                {
                    "id": "854019", 
                    "namespace": "pubchem", 
                    "object-type": "db-reference"
                }
            ]
        }, 
        {
            "end-pos": {
                "context-end": "function/1", 
                "object-type": "relative-pos", 
                "offset": 180, 
                "reference": "sent-PMC3280209-medscan-22"
            }, 
            "frame-id": "ment-PMC3280209-cmu-medscan-18", 
            "frame-type": "entity-mention", 
            "object-meta": {
                "component": "MedScan", 
                "object-type": "meta-info", 
                "organization": "CMU"
            }, 
            "object-type": "frame", 
            "sentence": "sent-PMC3280209-medscan-22", 
            "start-pos": {
                "context-start": "lung/1", 
                "object-type": "relative-pos", 
                "offset": 167, 
                "reference": "sent-PMC3280209-medscan-22"
            }, 
            "text": "lung function", 
            "type": "MedScan_PATHWAY", 
            "xrefs": [
                {
                    "id": "lung%20function", 
                    "namespace": "MEDSCAN:urn:agi-cellproc", 
                    "object-type": "db-reference"
                }
            ]
        }, 
        {
            "end-pos": {
                "context-end": "cytokine/1", 
                "object-type": "relative-pos", 
                "offset": 193, 
                "reference": "sent-PMC3280209-medscan-22"
            }, 
            "frame-id": "ment-PMC3280209-cmu-medscan-19", 
            "frame-type": "entity-mention", 
            "object-meta": {
                "component": "MedScan", 
                "object-type": "meta-info", 
                "organization": "CMU"
            }, 
            "object-type": "frame", 
            "sentence": "sent-PMC3280209-medscan-22", 
            "start-pos": {
                "context-start": "cytokine/1", 
                "object-type": "relative-pos", 
                "offset": 185, 
                "reference": "sent-PMC3280209-medscan-22"
            }, 
            "text": "cytokine", 
            "type": "MedScan_PROTEIN_FAMILY", 
            "xrefs": [
                {
                    "id": "0000404", 
                    "namespace": "MEDSCAN:urn:agi-aopfc", 
                    "object-type": "db-reference"
                }
            ]
        }, 
        {
            "end-pos": {
                "context-end": "monoxide/1", 
                "object-type": "relative-pos", 
                "offset": 27, 
                "reference": "sent-PMC3280209-medscan-36"
            }, 
            "frame-id": "ment-PMC3280209-cmu-medscan-22", 
            "frame-type": "entity-mention", 
            "object-meta": {
                "component": "MedScan", 
                "object-type": "meta-info", 
                "organization": "CMU"
            }, 
            "object-type": "frame", 
            "sentence": "sent-PMC3280209-medscan-36", 
            "start-pos": {
                "context-start": "carbon/1", 
                "object-type": "relative-pos", 
                "offset": 12, 
                "reference": "sent-PMC3280209-medscan-36"
            }, 
            "text": "carbon monoxide", 
            "type": "MedScan_DRUG", 
            "xrefs": [
                {
                    "id": "281", 
                    "namespace": "pubchem", 
                    "object-type": "db-reference"
                }
            ]
        }, 
        {
            "end-pos": {
                "context-end": "monoxide/1", 
                "object-type": "relative-pos", 
                "offset": 32, 
                "reference": "sent-PMC3280209-medscan-38"
            }, 
            "frame-id": "ment-PMC3280209-cmu-medscan-23", 
            "frame-type": "entity-mention", 
            "object-meta": {
                "component": "MedScan", 
                "object-type": "meta-info", 
                "organization": "CMU"
            }, 
            "object-type": "frame", 
            "sentence": "sent-PMC3280209-medscan-38", 
            "start-pos": {
                "context-start": "carbon/1", 
                "object-type": "relative-pos", 
                "offset": 17, 
                "reference": "sent-PMC3280209-medscan-38"
            }, 
            "text": "carbon monoxide", 
            "type": "MedScan_DRUG", 
            "xrefs": [
                {
                    "id": "281", 
                    "namespace": "pubchem", 
                    "object-type": "db-reference"
                }
            ]
        }, 
        {
            "end-pos": {
                "context-end": "cotinine/1", 
                "object-type": "relative-pos", 
                "offset": 146, 
                "reference": "sent-PMC3280209-medscan-40"
            }, 
            "frame-id": "ment-PMC3280209-cmu-medscan-24", 
            "frame-type": "entity-mention", 
            "object-meta": {
                "component": "MedScan", 
                "object-type": "meta-info", 
                "organization": "CMU"
            }, 
            "object-type": "frame", 
            "sentence": "sent-PMC3280209-medscan-40", 
            "start-pos": {
                "context-start": "cotinine/1", 
                "object-type": "relative-pos", 
                "offset": 138, 
                "reference": "sent-PMC3280209-medscan-40"
            }, 
            "text": "cotinine", 
            "type": "MedScan_DRUG", 
            "xrefs": [
                {
                    "id": "854019", 
                    "namespace": "pubchem", 
                    "object-type": "db-reference"
                }
            ]
        }, 
        {
            "end-pos": {
                "context-end": "cotinine/1", 
                "object-type": "relative-pos", 
                "offset": 146, 
                "reference": "sent-PMC3280209-medscan-40"
            }, 
            "frame-id": "ment-PMC3280209-cmu-medscan-25", 
            "frame-type": "entity-mention", 
            "object-meta": {
                "component": "MedScan", 
                "object-type": "meta-info", 
                "organization": "CMU"
            }, 
            "object-type": "frame", 
            "sentence": "sent-PMC3280209-medscan-40", 
            "start-pos": {
                "context-start": "cotinine/1", 
                "object-type": "relative-pos", 
                "offset": 138, 
                "reference": "sent-PMC3280209-medscan-40"
            }, 
            "text": "cotinine", 
            "type": "MedScan_DRUG", 
            "xrefs": [
                {
                    "id": "854019", 
                    "namespace": "pubchem", 
                    "object-type": "db-reference"
                }
            ]
        }, 
        {
            "end-pos": {
                "context-end": "cotinine/1", 
                "object-type": "relative-pos", 
                "offset": 18, 
                "reference": "sent-PMC3280209-medscan-44"
            }, 
            "frame-id": "ment-PMC3280209-cmu-medscan-26", 
            "frame-type": "entity-mention", 
            "object-meta": {
                "component": "MedScan", 
                "object-type": "meta-info", 
                "organization": "CMU"
            }, 
            "object-type": "frame", 
            "sentence": "sent-PMC3280209-medscan-44", 
            "start-pos": {
                "context-start": "cotinine/1", 
                "object-type": "relative-pos", 
                "offset": 10, 
                "reference": "sent-PMC3280209-medscan-44"
            }, 
            "text": "cotinine", 
            "type": "MedScan_DRUG", 
            "xrefs": [
                {
                    "id": "854019", 
                    "namespace": "pubchem", 
                    "object-type": "db-reference"
                }
            ]
        }, 
        {
            "end-pos": {
                "context-end": "cotinine/1", 
                "object-type": "relative-pos", 
                "offset": 18, 
                "reference": "sent-PMC3280209-medscan-44"
            }, 
            "frame-id": "ment-PMC3280209-cmu-medscan-27", 
            "frame-type": "entity-mention", 
            "object-meta": {
                "component": "MedScan", 
                "object-type": "meta-info", 
                "organization": "CMU"
            }, 
            "object-type": "frame", 
            "sentence": "sent-PMC3280209-medscan-44", 
            "start-pos": {
                "context-start": "cotinine/1", 
                "object-type": "relative-pos", 
                "offset": 10, 
                "reference": "sent-PMC3280209-medscan-44"
            }, 
            "text": "cotinine", 
            "type": "MedScan_DRUG", 
            "xrefs": [
                {
                    "id": "854019", 
                    "namespace": "pubchem", 
                    "object-type": "db-reference"
                }
            ]
        }, 
        {
            "end-pos": {
                "context-end": "polyethylene/1", 
                "object-type": "relative-pos", 
                "offset": 75, 
                "reference": "sent-PMC3280209-medscan-44"
            }, 
            "frame-id": "ment-PMC3280209-cmu-medscan-28", 
            "frame-type": "entity-mention", 
            "object-meta": {
                "component": "MedScan", 
                "object-type": "meta-info", 
                "organization": "CMU"
            }, 
            "object-type": "frame", 
            "sentence": "sent-PMC3280209-medscan-44", 
            "start-pos": {
                "context-start": "polyethylene/1", 
                "object-type": "relative-pos", 
                "offset": 63, 
                "reference": "sent-PMC3280209-medscan-44"
            }, 
            "text": "polyethylene", 
            "type": "MedScan_DRUG", 
            "xrefs": [
                {
                    "id": "6325", 
                    "namespace": "pubchem", 
                    "object-type": "db-reference"
                }
            ]
        }, 
        {
            "end-pos": {
                "context-end": "cotinine/1", 
                "object-type": "relative-pos", 
                "offset": 40, 
                "reference": "sent-PMC3280209-medscan-45"
            }, 
            "frame-id": "ment-PMC3280209-cmu-medscan-29", 
            "frame-type": "entity-mention", 
            "object-meta": {
                "component": "MedScan", 
                "object-type": "meta-info", 
                "organization": "CMU"
            }, 
            "object-type": "frame", 
            "sentence": "sent-PMC3280209-medscan-45", 
            "start-pos": {
                "context-start": "cotinine/1", 
                "object-type": "relative-pos", 
                "offset": 32, 
                "reference": "sent-PMC3280209-medscan-45"
            }, 
            "text": "cotinine", 
            "type": "MedScan_DRUG", 
            "xrefs": [
                {
                    "id": "854019", 
                    "namespace": "pubchem", 
                    "object-type": "db-reference"
                }
            ]
        }, 
        {
            "end-pos": {
                "context-end": "nicotine/1", 
                "object-type": "relative-pos", 
                "offset": 31, 
                "reference": "sent-PMC3280209-medscan-54"
            }, 
            "frame-id": "ment-PMC3280209-cmu-medscan-30", 
            "frame-type": "entity-mention", 
            "object-meta": {
                "component": "MedScan", 
                "object-type": "meta-info", 
                "organization": "CMU"
            }, 
            "object-type": "frame", 
            "sentence": "sent-PMC3280209-medscan-54", 
            "start-pos": {
                "context-start": "nicotine/1", 
                "object-type": "relative-pos", 
                "offset": 23, 
                "reference": "sent-PMC3280209-medscan-54"
            }, 
            "text": "nicotine", 
            "type": "MedScan_DRUG", 
            "xrefs": [
                {
                    "id": "431", 
                    "namespace": "pubchem", 
                    "object-type": "db-reference"
                }
            ]
        }, 
        {
            "end-pos": {
                "context-end": "cotinine/1", 
                "object-type": "relative-pos", 
                "offset": 142, 
                "reference": "sent-PMC3280209-medscan-53"
            }, 
            "frame-id": "ment-PMC3280209-cmu-medscan-31", 
            "frame-type": "entity-mention", 
            "object-meta": {
                "component": "MedScan", 
                "object-type": "meta-info", 
                "organization": "CMU"
            }, 
            "object-type": "frame", 
            "sentence": "sent-PMC3280209-medscan-53", 
            "start-pos": {
                "context-start": "cotinine/1", 
                "object-type": "relative-pos", 
                "offset": 134, 
                "reference": "sent-PMC3280209-medscan-53"
            }, 
            "text": "cotinine", 
            "type": "MedScan_DRUG", 
            "xrefs": [
                {
                    "id": "854019", 
                    "namespace": "pubchem", 
                    "object-type": "db-reference"
                }
            ]
        }, 
        {
            "end-pos": {
                "context-end": "ketamine/1", 
                "object-type": "relative-pos", 
                "offset": 175, 
                "reference": "sent-PMC3280209-medscan-53"
            }, 
            "frame-id": "ment-PMC3280209-cmu-medscan-32", 
            "frame-type": "entity-mention", 
            "object-meta": {
                "component": "MedScan", 
                "object-type": "meta-info", 
                "organization": "CMU"
            }, 
            "object-type": "frame", 
            "sentence": "sent-PMC3280209-medscan-53", 
            "start-pos": {
                "context-start": "ketamine/1", 
                "object-type": "relative-pos", 
                "offset": 167, 
                "reference": "sent-PMC3280209-medscan-53"
            }, 
            "text": "ketamine", 
            "type": "MedScan_DRUG", 
            "xrefs": [
                {
                    "id": "182137", 
                    "namespace": "pubchem", 
                    "object-type": "db-reference"
                }
            ]
        }, 
        {
            "end-pos": {
                "context-end": "nicotine/1", 
                "object-type": "relative-pos", 
                "offset": 31, 
                "reference": "sent-PMC3280209-medscan-54"
            }, 
            "frame-id": "ment-PMC3280209-cmu-medscan-33", 
            "frame-type": "entity-mention", 
            "object-meta": {
                "component": "MedScan", 
                "object-type": "meta-info", 
                "organization": "CMU"
            }, 
            "object-type": "frame", 
            "sentence": "sent-PMC3280209-medscan-54", 
            "start-pos": {
                "context-start": "nicotine/1", 
                "object-type": "relative-pos", 
                "offset": 23, 
                "reference": "sent-PMC3280209-medscan-54"
            }, 
            "text": "nicotine", 
            "type": "MedScan_DRUG", 
            "xrefs": [
                {
                    "id": "431", 
                    "namespace": "pubchem", 
                    "object-type": "db-reference"
                }
            ]
        }, 
        {
            "end-pos": {
                "context-end": "ketanine/1", 
                "object-type": "relative-pos", 
                "offset": 63, 
                "reference": "sent-PMC3280209-medscan-54"
            }, 
            "frame-id": "ment-PMC3280209-cmu-medscan-34", 
            "frame-type": "entity-mention", 
            "object-meta": {
                "component": "MedScan", 
                "object-type": "meta-info", 
                "organization": "CMU"
            }, 
            "object-type": "frame", 
            "sentence": "sent-PMC3280209-medscan-54", 
            "start-pos": {
                "context-start": "ketanine/1", 
                "object-type": "relative-pos", 
                "offset": 55, 
                "reference": "sent-PMC3280209-medscan-54"
            }, 
            "text": "ketanine", 
            "type": "MedScan_DRUG", 
            "xrefs": [
                {
                    "id": "44093", 
                    "namespace": "pubchem", 
                    "object-type": "db-reference"
                }
            ]
        }, 
        {
            "end-pos": {
                "context-end": "function/1", 
                "object-type": "relative-pos", 
                "offset": 17, 
                "reference": "sent-PMC3280209-medscan-57"
            }, 
            "frame-id": "ment-PMC3280209-cmu-medscan-35", 
            "frame-type": "entity-mention", 
            "object-meta": {
                "component": "MedScan", 
                "object-type": "meta-info", 
                "organization": "CMU"
            }, 
            "object-type": "frame", 
            "sentence": "sent-PMC3280209-medscan-57", 
            "start-pos": {
                "context-start": "lung/1", 
                "object-type": "relative-pos", 
                "offset": 4, 
                "reference": "sent-PMC3280209-medscan-57"
            }, 
            "text": "lung function", 
            "type": "MedScan_PATHWAY", 
            "xrefs": [
                {
                    "id": "lung%20function", 
                    "namespace": "MEDSCAN:urn:agi-cellproc", 
                    "object-type": "db-reference"
                }
            ]
        }, 
        {
            "end-pos": {
                "object-type": "relative-pos", 
                "offset": -1, 
                "reference": "sent-PMC3280209-medscan-59"
            }, 
            "frame-id": "ment-PMC3280209-cmu-medscan-36", 
            "frame-type": "entity-mention", 
            "object-meta": {
                "component": "MedScan", 
                "object-type": "meta-info", 
                "organization": "CMU"
            }, 
            "object-type": "frame", 
            "sentence": "sent-PMC3280209-medscan-59", 
            "start-pos": {
                "object-type": "relative-pos", 
                "offset": -1, 
                "reference": "sent-PMC3280209-medscan-59"
            }, 
            "text": "IL-6, TNF-\u03b1 and interferon gamma (IFN-\u03b3)", 
            "type": "MedScan_GENE_PROTEIN", 
            "xrefs": [
                {
                    "id": "7124", 
                    "namespace": "MEDSCAN:urn:agi-llid", 
                    "object-type": "db-reference"
                }
            ]
        }, 
        {
            "end-pos": {
                "context-end": "IL-5/1", 
                "object-type": "relative-pos", 
                "offset": 114, 
                "reference": "sent-PMC3280209-medscan-59"
            }, 
            "frame-id": "ment-PMC3280209-cmu-medscan-37", 
            "frame-type": "entity-mention", 
            "object-meta": {
                "component": "MedScan", 
                "object-type": "meta-info", 
                "organization": "CMU"
            }, 
            "object-type": "frame", 
            "sentence": "sent-PMC3280209-medscan-59", 
            "start-pos": {
                "context-start": "IL-4/1", 
                "object-type": "relative-pos", 
                "offset": 101, 
                "reference": "sent-PMC3280209-medscan-59"
            }, 
            "text": "IL-4 and IL-5", 
            "type": "MedScan_GENE_PROTEIN", 
            "xrefs": [
                {
                    "id": "3567", 
                    "namespace": "MEDSCAN:urn:agi-llid", 
                    "object-type": "db-reference"
                }
            ]
        }, 
        {
            "end-pos": {
                "context-end": "cytokines/1", 
                "object-type": "relative-pos", 
                "offset": 125, 
                "reference": "sent-PMC3280209-medscan-59"
            }, 
            "frame-id": "ment-PMC3280209-cmu-medscan-38", 
            "frame-type": "entity-mention", 
            "object-meta": {
                "component": "MedScan", 
                "object-type": "meta-info", 
                "organization": "CMU"
            }, 
            "object-type": "frame", 
            "sentence": "sent-PMC3280209-medscan-59", 
            "start-pos": {
                "context-start": "cytokines/1", 
                "object-type": "relative-pos", 
                "offset": 116, 
                "reference": "sent-PMC3280209-medscan-59"
            }, 
            "text": "cytokines", 
            "type": "MedScan_PROTEIN_FAMILY", 
            "xrefs": [
                {
                    "id": "0000404", 
                    "namespace": "MEDSCAN:urn:agi-aopfc", 
                    "object-type": "db-reference"
                }
            ]
        }, 
        {
            "end-pos": {
                "context-end": "nicotine/1", 
                "object-type": "relative-pos", 
                "offset": 294, 
                "reference": "sent-PMC3280209-medscan-59"
            }, 
            "frame-id": "ment-PMC3280209-cmu-medscan-39", 
            "frame-type": "entity-mention", 
            "object-meta": {
                "component": "MedScan", 
                "object-type": "meta-info", 
                "organization": "CMU"
            }, 
            "object-type": "frame", 
            "sentence": "sent-PMC3280209-medscan-59", 
            "start-pos": {
                "context-start": "nicotine/1", 
                "object-type": "relative-pos", 
                "offset": 286, 
                "reference": "sent-PMC3280209-medscan-59"
            }, 
            "text": "nicotine", 
            "type": "MedScan_DRUG", 
            "xrefs": [
                {
                    "id": "431", 
                    "namespace": "pubchem", 
                    "object-type": "db-reference"
                }
            ]
        }, 
        {
            "end-pos": {
                "context-end": "Cytokine/1", 
                "object-type": "relative-pos", 
                "offset": 8, 
                "reference": "sent-PMC3280209-medscan-60"
            }, 
            "frame-id": "ment-PMC3280209-cmu-medscan-40", 
            "frame-type": "entity-mention", 
            "object-meta": {
                "component": "MedScan", 
                "object-type": "meta-info", 
                "organization": "CMU"
            }, 
            "object-type": "frame", 
            "sentence": "sent-PMC3280209-medscan-60", 
            "start-pos": {
                "context-start": "Cytokine/1", 
                "object-type": "relative-pos", 
                "offset": 0, 
                "reference": "sent-PMC3280209-medscan-60"
            }, 
            "text": "Cytokine", 
            "type": "MedScan_PROTEIN_FAMILY", 
            "xrefs": [
                {
                    "id": "0000404", 
                    "namespace": "MEDSCAN:urn:agi-aopfc", 
                    "object-type": "db-reference"
                }
            ]
        }, 
        {
            "end-pos": {
                "object-type": "relative-pos", 
                "offset": -1, 
                "reference": "NOT LINKED"
            }, 
            "frame-id": "ment-PMC3280209-cmu-medscan-41", 
            "frame-type": "entity-mention", 
            "object-meta": {
                "component": "MedScan", 
                "object-type": "meta-info", 
                "organization": "CMU"
            }, 
            "object-type": "frame", 
            "sentence": "NOT LINKED", 
            "start-pos": {
                "object-type": "relative-pos", 
                "offset": -1, 
                "reference": "NOT LINKED"
            }, 
            "text": "IL-4 and IL-5: 5 pg\u00b7mL-1", 
            "type": "MedScan_GENE_PROTEIN", 
            "xrefs": [
                {
                    "id": "3567", 
                    "namespace": "MEDSCAN:urn:agi-llid", 
                    "object-type": "db-reference"
                }
            ]
        }, 
        {
            "end-pos": {
                "object-type": "relative-pos", 
                "offset": -1, 
                "reference": "sent-PMC3280209-medscan-61"
            }, 
            "frame-id": "ment-PMC3280209-cmu-medscan-42", 
            "frame-type": "entity-mention", 
            "object-meta": {
                "component": "MedScan", 
                "object-type": "meta-info", 
                "organization": "CMU"
            }, 
            "object-type": "frame", 
            "sentence": "sent-PMC3280209-medscan-61", 
            "start-pos": {
                "object-type": "relative-pos", 
                "offset": -1, 
                "reference": "sent-PMC3280209-medscan-61"
            }, 
            "text": "IL-6: 2 pg\u00b7mL-1, TNF-\u03b1: 3 pg\u00b7mL-1, and IFN-\u03b3: 5 pg\u00b7mL-1", 
            "type": "MedScan_GENE_PROTEIN", 
            "xrefs": [
                {
                    "id": "7124", 
                    "namespace": "MEDSCAN:urn:agi-llid", 
                    "object-type": "db-reference"
                }
            ]
        }, 
        {
            "end-pos": {
                "context-end": "cytokines/1", 
                "object-type": "relative-pos", 
                "offset": 55, 
                "reference": "sent-PMC3280209-medscan-63"
            }, 
            "frame-id": "ment-PMC3280209-cmu-medscan-43", 
            "frame-type": "entity-mention", 
            "object-meta": {
                "component": "MedScan", 
                "object-type": "meta-info", 
                "organization": "CMU"
            }, 
            "object-type": "frame", 
            "sentence": "sent-PMC3280209-medscan-63", 
            "start-pos": {
                "context-start": "cytokines/1", 
                "object-type": "relative-pos", 
                "offset": 46, 
                "reference": "sent-PMC3280209-medscan-63"
            }, 
            "text": "cytokines", 
            "type": "MedScan_PROTEIN_FAMILY", 
            "xrefs": [
                {
                    "id": "0000404", 
                    "namespace": "MEDSCAN:urn:agi-aopfc", 
                    "object-type": "db-reference"
                }
            ]
        }, 
        {
            "end-pos": {
                "object-type": "relative-pos", 
                "offset": -1, 
                "reference": "NOT LINKED"
            }, 
            "frame-id": "ment-PMC3280209-cmu-medscan-44", 
            "frame-type": "entity-mention", 
            "object-meta": {
                "component": "MedScan", 
                "object-type": "meta-info", 
                "organization": "CMU"
            }, 
            "object-type": "frame", 
            "sentence": "NOT LINKED", 
            "start-pos": {
                "object-type": "relative-pos", 
                "offset": -1, 
                "reference": "NOT LINKED"
            }, 
            "text": "IL-4: 6", 
            "type": "MedScan_GENE_PROTEIN", 
            "xrefs": [
                {
                    "id": "3565", 
                    "namespace": "MEDSCAN:urn:agi-llid", 
                    "object-type": "db-reference"
                }
            ]
        }, 
        {
            "end-pos": {
                "object-type": "relative-pos", 
                "offset": -1, 
                "reference": "sent-PMC3280209-medscan-63"
            }, 
            "frame-id": "ment-PMC3280209-cmu-medscan-45", 
            "frame-type": "entity-mention", 
            "object-meta": {
                "component": "MedScan", 
                "object-type": "meta-info", 
                "organization": "CMU"
            }, 
            "object-type": "frame", 
            "sentence": "sent-PMC3280209-medscan-63", 
            "start-pos": {
                "object-type": "relative-pos", 
                "offset": -1, 
                "reference": "sent-PMC3280209-medscan-63"
            }, 
            "text": "IL-5: 3", 
            "type": "MedScan_GENE_PROTEIN", 
            "xrefs": [
                {
                    "id": "3567", 
                    "namespace": "MEDSCAN:urn:agi-llid", 
                    "object-type": "db-reference"
                }
            ]
        }, 
        {
            "end-pos": {
                "object-type": "relative-pos", 
                "offset": -1, 
                "reference": "sent-PMC3280209-medscan-63"
            }, 
            "frame-id": "ment-PMC3280209-cmu-medscan-46", 
            "frame-type": "entity-mention", 
            "object-meta": {
                "component": "MedScan", 
                "object-type": "meta-info", 
                "organization": "CMU"
            }, 
            "object-type": "frame", 
            "sentence": "sent-PMC3280209-medscan-63", 
            "start-pos": {
                "object-type": "relative-pos", 
                "offset": -1, 
                "reference": "sent-PMC3280209-medscan-63"
            }, 
            "text": "IL-6: 3", 
            "type": "MedScan_GENE_PROTEIN", 
            "xrefs": [
                {
                    "id": "3569", 
                    "namespace": "MEDSCAN:urn:agi-llid", 
                    "object-type": "db-reference"
                }
            ]
        }, 
        {
            "end-pos": {
                "object-type": "relative-pos", 
                "offset": -1, 
                "reference": "sent-PMC3280209-medscan-63"
            }, 
            "frame-id": "ment-PMC3280209-cmu-medscan-47", 
            "frame-type": "entity-mention", 
            "object-meta": {
                "component": "MedScan", 
                "object-type": "meta-info", 
                "organization": "CMU"
            }, 
            "object-type": "frame", 
            "sentence": "sent-PMC3280209-medscan-63", 
            "start-pos": {
                "object-type": "relative-pos", 
                "offset": -1, 
                "reference": "sent-PMC3280209-medscan-63"
            }, 
            "text": "TNF-\u03b1: 3", 
            "type": "MedScan_GENE_PROTEIN", 
            "xrefs": [
                {
                    "id": "7124", 
                    "namespace": "MEDSCAN:urn:agi-llid", 
                    "object-type": "db-reference"
                }
            ]
        }, 
        {
            "end-pos": {
                "object-type": "relative-pos", 
                "offset": -1, 
                "reference": "sent-PMC3280209-medscan-63"
            }, 
            "frame-id": "ment-PMC3280209-cmu-medscan-48", 
            "frame-type": "entity-mention", 
            "object-meta": {
                "component": "MedScan", 
                "object-type": "meta-info", 
                "organization": "CMU"
            }, 
            "object-type": "frame", 
            "sentence": "sent-PMC3280209-medscan-63", 
            "start-pos": {
                "object-type": "relative-pos", 
                "offset": -1, 
                "reference": "sent-PMC3280209-medscan-63"
            }, 
            "text": "IFN-\u03b3: 6", 
            "type": "MedScan_GENE_PROTEIN", 
            "xrefs": [
                {
                    "id": "3458", 
                    "namespace": "MEDSCAN:urn:agi-llid", 
                    "object-type": "db-reference"
                }
            ]
        }, 
        {
            "end-pos": {
                "context-end": "oxygen/1", 
                "object-type": "relative-pos", 
                "offset": 18, 
                "reference": "sent-PMC3280209-medscan-67"
            }, 
            "frame-id": "ment-PMC3280209-cmu-medscan-49", 
            "frame-type": "entity-mention", 
            "object-meta": {
                "component": "MedScan", 
                "object-type": "meta-info", 
                "organization": "CMU"
            }, 
            "object-type": "frame", 
            "sentence": "sent-PMC3280209-medscan-67", 
            "start-pos": {
                "context-start": "oxygen/1", 
                "object-type": "relative-pos", 
                "offset": 12, 
                "reference": "sent-PMC3280209-medscan-67"
            }, 
            "text": "oxygen", 
            "type": "MedScan_DRUG", 
            "xrefs": [
                {
                    "id": "977", 
                    "namespace": "pubchem", 
                    "object-type": "db-reference"
                }
            ]
        }, 
        {
            "end-pos": {
                "context-end": "nicotine/1", 
                "object-type": "relative-pos", 
                "offset": 210, 
                "reference": "sent-PMC3280209-medscan-70"
            }, 
            "frame-id": "ment-PMC3280209-cmu-medscan-50", 
            "frame-type": "entity-mention", 
            "object-meta": {
                "component": "MedScan", 
                "object-type": "meta-info", 
                "organization": "CMU"
            }, 
            "object-type": "frame", 
            "sentence": "sent-PMC3280209-medscan-70", 
            "start-pos": {
                "context-start": "nicotine/1", 
                "object-type": "relative-pos", 
                "offset": 202, 
                "reference": "sent-PMC3280209-medscan-70"
            }, 
            "text": "nicotine", 
            "type": "MedScan_DRUG", 
            "xrefs": [
                {
                    "id": "431", 
                    "namespace": "pubchem", 
                    "object-type": "db-reference"
                }
            ]
        }, 
        {
            "end-pos": {
                "context-end": "function/1", 
                "object-type": "relative-pos", 
                "offset": 225, 
                "reference": "sent-PMC3280209-medscan-70"
            }, 
            "frame-id": "ment-PMC3280209-cmu-medscan-51", 
            "frame-type": "entity-mention", 
            "object-meta": {
                "component": "MedScan", 
                "object-type": "meta-info", 
                "organization": "CMU"
            }, 
            "object-type": "frame", 
            "sentence": "sent-PMC3280209-medscan-70", 
            "start-pos": {
                "context-start": "lung/1", 
                "object-type": "relative-pos", 
                "offset": 212, 
                "reference": "sent-PMC3280209-medscan-70"
            }, 
            "text": "lung function", 
            "type": "MedScan_PATHWAY", 
            "xrefs": [
                {
                    "id": "lung%20function", 
                    "namespace": "MEDSCAN:urn:agi-cellproc", 
                    "object-type": "db-reference"
                }
            ]
        }, 
        {
            "end-pos": {
                "context-end": "cytokine/1", 
                "object-type": "relative-pos", 
                "offset": 238, 
                "reference": "sent-PMC3280209-medscan-70"
            }, 
            "frame-id": "ment-PMC3280209-cmu-medscan-52", 
            "frame-type": "entity-mention", 
            "object-meta": {
                "component": "MedScan", 
                "object-type": "meta-info", 
                "organization": "CMU"
            }, 
            "object-type": "frame", 
            "sentence": "sent-PMC3280209-medscan-70", 
            "start-pos": {
                "context-start": "cytokine/1", 
                "object-type": "relative-pos", 
                "offset": 230, 
                "reference": "sent-PMC3280209-medscan-70"
            }, 
            "text": "cytokine", 
            "type": "MedScan_PROTEIN_FAMILY", 
            "xrefs": [
                {
                    "id": "0000404", 
                    "namespace": "MEDSCAN:urn:agi-aopfc", 
                    "object-type": "db-reference"
                }
            ]
        }, 
        {
            "end-pos": {
                "context-end": "TNF-\u03b1/1", 
                "object-type": "relative-pos", 
                "offset": 11, 
                "reference": "sent-PMC3280209-medscan-74"
            }, 
            "frame-id": "ment-PMC3280209-cmu-medscan-53", 
            "frame-type": "entity-mention", 
            "object-meta": {
                "component": "MedScan", 
                "object-type": "meta-info", 
                "organization": "CMU"
            }, 
            "object-type": "frame", 
            "sentence": "sent-PMC3280209-medscan-74", 
            "start-pos": {
                "context-start": "TNF-\u03b1/1", 
                "object-type": "relative-pos", 
                "offset": 6, 
                "reference": "sent-PMC3280209-medscan-74"
            }, 
            "text": "TNF-\u03b1", 
            "type": "MedScan_GENE_PROTEIN", 
            "xrefs": [
                {
                    "id": "7124", 
                    "namespace": "MEDSCAN:urn:agi-llid", 
                    "object-type": "db-reference"
                }
            ]
        }, 
        {
            "end-pos": {
                "context-end": "nicotine/1", 
                "object-type": "relative-pos", 
                "offset": 161, 
                "reference": "sent-PMC3280209-medscan-74"
            }, 
            "frame-id": "ment-PMC3280209-cmu-medscan-54", 
            "frame-type": "entity-mention", 
            "object-meta": {
                "component": "MedScan", 
                "object-type": "meta-info", 
                "organization": "CMU"
            }, 
            "object-type": "frame", 
            "sentence": "sent-PMC3280209-medscan-74", 
            "start-pos": {
                "context-start": "nicotine/1", 
                "object-type": "relative-pos", 
                "offset": 153, 
                "reference": "sent-PMC3280209-medscan-74"
            }, 
            "text": "nicotine", 
            "type": "MedScan_DRUG", 
            "xrefs": [
                {
                    "id": "431", 
                    "namespace": "pubchem", 
                    "object-type": "db-reference"
                }
            ]
        }, 
        {
            "end-pos": {
                "context-end": "TNF-\u03b1/1", 
                "object-type": "relative-pos", 
                "offset": 50, 
                "reference": "sent-PMC3280209-medscan-75"
            }, 
            "frame-id": "ment-PMC3280209-cmu-medscan-55", 
            "frame-type": "entity-mention", 
            "object-meta": {
                "component": "MedScan", 
                "object-type": "meta-info", 
                "organization": "CMU"
            }, 
            "object-type": "frame", 
            "sentence": "sent-PMC3280209-medscan-75", 
            "start-pos": {
                "context-start": "TNF-\u03b1/1", 
                "object-type": "relative-pos", 
                "offset": 45, 
                "reference": "sent-PMC3280209-medscan-75"
            }, 
            "text": "TNF-\u03b1", 
            "type": "MedScan_GENE_PROTEIN", 
            "xrefs": [
                {
                    "id": "7124", 
                    "namespace": "MEDSCAN:urn:agi-llid", 
                    "object-type": "db-reference"
                }
            ]
        }, 
        {
            "end-pos": {
                "context-end": "nicotine/1", 
                "object-type": "relative-pos", 
                "offset": 283, 
                "reference": "sent-PMC3280209-medscan-75"
            }, 
            "frame-id": "ment-PMC3280209-cmu-medscan-56", 
            "frame-type": "entity-mention", 
            "object-meta": {
                "component": "MedScan", 
                "object-type": "meta-info", 
                "organization": "CMU"
            }, 
            "object-type": "frame", 
            "sentence": "sent-PMC3280209-medscan-75", 
            "start-pos": {
                "context-start": "nicotine/1", 
                "object-type": "relative-pos", 
                "offset": 275, 
                "reference": "sent-PMC3280209-medscan-75"
            }, 
            "text": "nicotine", 
            "type": "MedScan_DRUG", 
            "xrefs": [
                {
                    "id": "431", 
                    "namespace": "pubchem", 
                    "object-type": "db-reference"
                }
            ]
        }, 
        {
            "end-pos": {
                "context-end": "function/1", 
                "object-type": "relative-pos", 
                "offset": 17, 
                "reference": "sent-PMC3280209-medscan-83"
            }, 
            "frame-id": "ment-PMC3280209-cmu-medscan-57", 
            "frame-type": "entity-mention", 
            "object-meta": {
                "component": "MedScan", 
                "object-type": "meta-info", 
                "organization": "CMU"
            }, 
            "object-type": "frame", 
            "sentence": "sent-PMC3280209-medscan-83", 
            "start-pos": {
                "context-start": "lung/1", 
                "object-type": "relative-pos", 
                "offset": 4, 
                "reference": "sent-PMC3280209-medscan-83"
            }, 
            "text": "lung function", 
            "type": "MedScan_PATHWAY", 
            "xrefs": [
                {
                    "id": "lung%20function", 
                    "namespace": "MEDSCAN:urn:agi-cellproc", 
                    "object-type": "db-reference"
                }
            ]
        }, 
        {
            "end-pos": {
                "context-end": "function/1", 
                "object-type": "relative-pos", 
                "offset": 92, 
                "reference": "sent-PMC3280209-medscan-84"
            }, 
            "frame-id": "ment-PMC3280209-cmu-medscan-58", 
            "frame-type": "entity-mention", 
            "object-meta": {
                "component": "MedScan", 
                "object-type": "meta-info", 
                "organization": "CMU"
            }, 
            "object-type": "frame", 
            "sentence": "sent-PMC3280209-medscan-84", 
            "start-pos": {
                "context-start": "lung/1", 
                "object-type": "relative-pos", 
                "offset": 79, 
                "reference": "sent-PMC3280209-medscan-84"
            }, 
            "text": "lung function", 
            "type": "MedScan_PATHWAY", 
            "xrefs": [
                {
                    "id": "lung%20function", 
                    "namespace": "MEDSCAN:urn:agi-cellproc", 
                    "object-type": "db-reference"
                }
            ]
        }, 
        {
            "end-pos": {
                "context-end": "function/1", 
                "object-type": "relative-pos", 
                "offset": 31, 
                "reference": "sent-PMC3280209-medscan-85"
            }, 
            "frame-id": "ment-PMC3280209-cmu-medscan-59", 
            "frame-type": "entity-mention", 
            "object-meta": {
                "component": "MedScan", 
                "object-type": "meta-info", 
                "organization": "CMU"
            }, 
            "object-type": "frame", 
            "sentence": "sent-PMC3280209-medscan-85", 
            "start-pos": {
                "context-start": "immune/1", 
                "object-type": "relative-pos", 
                "offset": 16, 
                "reference": "sent-PMC3280209-medscan-85"
            }, 
            "text": "immune function", 
            "type": "MedScan_PATHWAY", 
            "xrefs": [
                {
                    "id": "immune%20system%20function", 
                    "namespace": "MEDSCAN:urn:agi-cellproc", 
                    "object-type": "db-reference"
                }
            ]
        }, 
        {
            "end-pos": {
                "context-end": "IFN-\u03b3/1", 
                "object-type": "relative-pos", 
                "offset": 48, 
                "reference": "sent-PMC3280209-medscan-85"
            }, 
            "frame-id": "ment-PMC3280209-cmu-medscan-60", 
            "frame-type": "entity-mention", 
            "object-meta": {
                "component": "MedScan", 
                "object-type": "meta-info", 
                "organization": "CMU"
            }, 
            "object-type": "frame", 
            "sentence": "sent-PMC3280209-medscan-85", 
            "start-pos": {
                "context-start": "TNF-\u03b1/1", 
                "object-type": "relative-pos", 
                "offset": 33, 
                "reference": "sent-PMC3280209-medscan-85"
            }, 
            "text": "TNF-\u03b1 and IFN-\u03b3", 
            "type": "MedScan_GENE_PROTEIN", 
            "xrefs": [
                {
                    "id": "7124", 
                    "namespace": "MEDSCAN:urn:agi-llid", 
                    "object-type": "db-reference"
                }
            ]
        }, 
        {
            "end-pos": {
                "context-end": "IL-4/1", 
                "object-type": "relative-pos", 
                "offset": 121, 
                "reference": "sent-PMC3280209-medscan-85"
            }, 
            "frame-id": "ment-PMC3280209-cmu-medscan-61", 
            "frame-type": "entity-mention", 
            "object-meta": {
                "component": "MedScan", 
                "object-type": "meta-info", 
                "organization": "CMU"
            }, 
            "object-type": "frame", 
            "sentence": "sent-PMC3280209-medscan-85", 
            "start-pos": {
                "context-start": "IL-4/1", 
                "object-type": "relative-pos", 
                "offset": 117, 
                "reference": "sent-PMC3280209-medscan-85"
            }, 
            "text": "IL-4", 
            "type": "MedScan_GENE_PROTEIN", 
            "xrefs": [
                {
                    "id": "3565", 
                    "namespace": "MEDSCAN:urn:agi-llid", 
                    "object-type": "db-reference"
                }
            ]
        }, 
        {
            "end-pos": {
                "object-type": "relative-pos", 
                "offset": -1, 
                "reference": "NOT LINKED"
            }, 
            "frame-id": "ment-PMC3280209-cmu-medscan-62", 
            "frame-type": "entity-mention", 
            "object-meta": {
                "component": "MedScan", 
                "object-type": "meta-info", 
                "organization": "CMU"
            }, 
            "object-type": "frame", 
            "sentence": "NOT LINKED", 
            "start-pos": {
                "object-type": "relative-pos", 
                "offset": -1, 
                "reference": "NOT LINKED"
            }, 
            "text": "nicotine", 
            "type": "MedScan_DRUG", 
            "xrefs": [
                {
                    "id": "431", 
                    "namespace": "pubchem", 
                    "object-type": "db-reference"
                }
            ]
        }, 
        {
            "end-pos": {
                "context-end": "TNF-\u03b1/1", 
                "object-type": "relative-pos", 
                "offset": 111, 
                "reference": "sent-PMC3280209-medscan-88"
            }, 
            "frame-id": "ment-PMC3280209-cmu-medscan-63", 
            "frame-type": "entity-mention", 
            "object-meta": {
                "component": "MedScan", 
                "object-type": "meta-info", 
                "organization": "CMU"
            }, 
            "object-type": "frame", 
            "sentence": "sent-PMC3280209-medscan-88", 
            "start-pos": {
                "context-start": "IL4/1", 
                "object-type": "relative-pos", 
                "offset": 98, 
                "reference": "sent-PMC3280209-medscan-88"
            }, 
            "text": "IL4 and TNF-\u03b1", 
            "type": "MedScan_GENE_PROTEIN", 
            "xrefs": [
                {
                    "id": "7124", 
                    "namespace": "MEDSCAN:urn:agi-llid", 
                    "object-type": "db-reference"
                }
            ]
        }, 
        {
            "end-pos": {
                "context-end": "O2/1", 
                "object-type": "relative-pos", 
                "offset": 12, 
                "reference": "sent-PMC3280209-medscan-90"
            }, 
            "frame-id": "ment-PMC3280209-cmu-medscan-64", 
            "frame-type": "entity-mention", 
            "object-meta": {
                "component": "MedScan", 
                "object-type": "meta-info", 
                "organization": "CMU"
            }, 
            "object-type": "frame", 
            "sentence": "sent-PMC3280209-medscan-90", 
            "start-pos": {
                "context-start": "O2/1", 
                "object-type": "relative-pos", 
                "offset": 10, 
                "reference": "sent-PMC3280209-medscan-90"
            }, 
            "text": "O2", 
            "type": "MedScan_DRUG", 
            "xrefs": [
                {
                    "id": "977", 
                    "namespace": "pubchem", 
                    "object-type": "db-reference"
                }
            ]
        }, 
        {
            "end-pos": {
                "object-type": "relative-pos", 
                "offset": -1, 
                "reference": "sent-PMC3280209-medscan-94"
            }, 
            "frame-id": "ment-PMC3280209-cmu-medscan-65", 
            "frame-type": "entity-mention", 
            "object-meta": {
                "component": "MedScan", 
                "object-type": "meta-info", 
                "organization": "CMU"
            }, 
            "object-type": "frame", 
            "sentence": "sent-PMC3280209-medscan-94", 
            "start-pos": {
                "object-type": "relative-pos", 
                "offset": -1, 
                "reference": "sent-PMC3280209-medscan-94"
            }, 
            "text": "IL4, 5 and 6: interleukins", 
            "type": "MedScan_PROTEIN_FAMILY", 
            "xrefs": [
                {
                    "id": "interleukin", 
                    "namespace": "MEDSCAN:urn:agi-protfc", 
                    "object-type": "db-reference"
                }
            ]
        }, 
        {
            "end-pos": {
                "object-type": "relative-pos", 
                "offset": -1, 
                "reference": "sent-PMC3280209-medscan-94"
            }, 
            "frame-id": "ment-PMC3280209-cmu-medscan-66", 
            "frame-type": "entity-mention", 
            "object-meta": {
                "component": "MedScan", 
                "object-type": "meta-info", 
                "organization": "CMU"
            }, 
            "object-type": "frame", 
            "sentence": "sent-PMC3280209-medscan-94", 
            "start-pos": {
                "object-type": "relative-pos", 
                "offset": -1, 
                "reference": "sent-PMC3280209-medscan-94"
            }, 
            "text": "TNF-\u03b1: tumor necrosis factor alpha", 
            "type": "MedScan_GENE_PROTEIN", 
            "xrefs": [
                {
                    "id": "7124", 
                    "namespace": "MEDSCAN:urn:agi-llid", 
                    "object-type": "db-reference"
                }
            ]
        }, 
        {
            "end-pos": {
                "object-type": "relative-pos", 
                "offset": -1, 
                "reference": "sent-PMC3280209-medscan-94"
            }, 
            "frame-id": "ment-PMC3280209-cmu-medscan-67", 
            "frame-type": "entity-mention", 
            "object-meta": {
                "component": "MedScan", 
                "object-type": "meta-info", 
                "organization": "CMU"
            }, 
            "object-type": "frame", 
            "sentence": "sent-PMC3280209-medscan-94", 
            "start-pos": {
                "object-type": "relative-pos", 
                "offset": -1, 
                "reference": "sent-PMC3280209-medscan-94"
            }, 
            "text": "IFN-\u03b3: interferon gamma", 
            "type": "MedScan_GENE_PROTEIN", 
            "xrefs": [
                {
                    "id": "3458", 
                    "namespace": "MEDSCAN:urn:agi-llid", 
                    "object-type": "db-reference"
                }
            ]
        }, 
        {
            "end-pos": {
                "context-end": "function/1", 
                "object-type": "relative-pos", 
                "offset": 142, 
                "reference": "sent-PMC3280209-medscan-95"
            }, 
            "frame-id": "ment-PMC3280209-cmu-medscan-69", 
            "frame-type": "entity-mention", 
            "object-meta": {
                "component": "MedScan", 
                "object-type": "meta-info", 
                "organization": "CMU"
            }, 
            "object-type": "frame", 
            "sentence": "sent-PMC3280209-medscan-95", 
            "start-pos": {
                "context-start": "lung/1", 
                "object-type": "relative-pos", 
                "offset": 129, 
                "reference": "sent-PMC3280209-medscan-95"
            }, 
            "text": "lung function", 
            "type": "MedScan_PATHWAY", 
            "xrefs": [
                {
                    "id": "lung%20function", 
                    "namespace": "MEDSCAN:urn:agi-cellproc", 
                    "object-type": "db-reference"
                }
            ]
        }, 
        {
            "end-pos": {
                "context-end": "cytokine/1", 
                "object-type": "relative-pos", 
                "offset": 186, 
                "reference": "sent-PMC3280209-medscan-95"
            }, 
            "frame-id": "ment-PMC3280209-cmu-medscan-70", 
            "frame-type": "entity-mention", 
            "object-meta": {
                "component": "MedScan", 
                "object-type": "meta-info", 
                "organization": "CMU"
            }, 
            "object-type": "frame", 
            "sentence": "sent-PMC3280209-medscan-95", 
            "start-pos": {
                "context-start": "cytokine/1", 
                "object-type": "relative-pos", 
                "offset": 178, 
                "reference": "sent-PMC3280209-medscan-95"
            }, 
            "text": "cytokine", 
            "type": "MedScan_PROTEIN_FAMILY", 
            "xrefs": [
                {
                    "id": "0000404", 
                    "namespace": "MEDSCAN:urn:agi-aopfc", 
                    "object-type": "db-reference"
                }
            ]
        }, 
        {
            "end-pos": {
                "context-end": "carbohydrate/1", 
                "object-type": "relative-pos", 
                "offset": 214, 
                "reference": "sent-PMC3280209-medscan-95"
            }, 
            "frame-id": "ment-PMC3280209-cmu-medscan-71", 
            "frame-type": "entity-mention", 
            "object-meta": {
                "component": "MedScan", 
                "object-type": "meta-info", 
                "organization": "CMU"
            }, 
            "object-type": "frame", 
            "sentence": "sent-PMC3280209-medscan-95", 
            "start-pos": {
                "context-start": "carbohydrate/1", 
                "object-type": "relative-pos", 
                "offset": 202, 
                "reference": "sent-PMC3280209-medscan-95"
            }, 
            "text": "carbohydrate", 
            "type": "MedScan_DRUG", 
            "xrefs": [
                {
                    "id": "carbohydrates", 
                    "namespace": "MEDSCAN:urn:agi-smol", 
                    "object-type": "db-reference"
                }
            ]
        }, 
        {
            "end-pos": {
                "context-end": "response/1", 
                "object-type": "relative-pos", 
                "offset": 153, 
                "reference": "sent-PMC3280209-medscan-96"
            }, 
            "frame-id": "ment-PMC3280209-cmu-medscan-73", 
            "frame-type": "entity-mention", 
            "object-meta": {
                "component": "MedScan", 
                "object-type": "meta-info", 
                "organization": "CMU"
            }, 
            "object-type": "frame", 
            "sentence": "sent-PMC3280209-medscan-96", 
            "start-pos": {
                "context-start": "immune/1", 
                "object-type": "relative-pos", 
                "offset": 138, 
                "reference": "sent-PMC3280209-medscan-96"
            }, 
            "text": "immune response", 
            "type": "MedScan_PATHWAY", 
            "xrefs": [
                {
                    "id": "0006955", 
                    "namespace": "MEDSCAN:urn:agi-gocellproc", 
                    "object-type": "db-reference"
                }
            ]
        }, 
        {
            "end-pos": {
                "context-end": "function/1", 
                "object-type": "relative-pos", 
                "offset": 13, 
                "reference": "sent-PMC3280209-medscan-105"
            }, 
            "frame-id": "ment-PMC3280209-cmu-medscan-76", 
            "frame-type": "entity-mention", 
            "object-meta": {
                "component": "MedScan", 
                "object-type": "meta-info", 
                "organization": "CMU"
            }, 
            "object-type": "frame", 
            "sentence": "sent-PMC3280209-medscan-105", 
            "start-pos": {
                "context-start": "Lung/1", 
                "object-type": "relative-pos", 
                "offset": 0, 
                "reference": "sent-PMC3280209-medscan-105"
            }, 
            "text": "Lung function", 
            "type": "MedScan_PATHWAY", 
            "xrefs": [
                {
                    "id": "lung%20function", 
                    "namespace": "MEDSCAN:urn:agi-cellproc", 
                    "object-type": "db-reference"
                }
            ]
        }, 
        {
            "end-pos": {
                "context-end": "function/1", 
                "object-type": "relative-pos", 
                "offset": 274, 
                "reference": "sent-PMC3280209-medscan-106"
            }, 
            "frame-id": "ment-PMC3280209-cmu-medscan-77", 
            "frame-type": "entity-mention", 
            "object-meta": {
                "component": "MedScan", 
                "object-type": "meta-info", 
                "organization": "CMU"
            }, 
            "object-type": "frame", 
            "sentence": "sent-PMC3280209-medscan-106", 
            "start-pos": {
                "context-start": "lung/1", 
                "object-type": "relative-pos", 
                "offset": 261, 
                "reference": "sent-PMC3280209-medscan-106"
            }, 
            "text": "lung function", 
            "type": "MedScan_PATHWAY", 
            "xrefs": [
                {
                    "id": "lung%20function", 
                    "namespace": "MEDSCAN:urn:agi-cellproc", 
                    "object-type": "db-reference"
                }
            ]
        }, 
        {
            "end-pos": {
                "context-end": "beta/1", 
                "object-type": "relative-pos", 
                "offset": 218, 
                "reference": "sent-PMC3280209-medscan-107"
            }, 
            "frame-id": "ment-PMC3280209-cmu-medscan-78", 
            "frame-type": "entity-mention", 
            "object-meta": {
                "component": "MedScan", 
                "object-type": "meta-info", 
                "organization": "CMU"
            }, 
            "object-type": "frame", 
            "sentence": "sent-PMC3280209-medscan-107", 
            "start-pos": {
                "context-start": "interleukin-1/1", 
                "object-type": "relative-pos", 
                "offset": 200, 
                "reference": "sent-PMC3280209-medscan-107"
            }, 
            "text": "interleukin-1 beta", 
            "type": "MedScan_GENE_PROTEIN", 
            "xrefs": [
                {
                    "id": "3553", 
                    "namespace": "MEDSCAN:urn:agi-llid", 
                    "object-type": "db-reference"
                }
            ]
        }, 
        {
            "end-pos": {
                "context-end": "TNF-\u03b1/1", 
                "object-type": "relative-pos", 
                "offset": 225, 
                "reference": "sent-PMC3280209-medscan-107"
            }, 
            "frame-id": "ment-PMC3280209-cmu-medscan-79", 
            "frame-type": "entity-mention", 
            "object-meta": {
                "component": "MedScan", 
                "object-type": "meta-info", 
                "organization": "CMU"
            }, 
            "object-type": "frame", 
            "sentence": "sent-PMC3280209-medscan-107", 
            "start-pos": {
                "context-start": "TNF-\u03b1/1", 
                "object-type": "relative-pos", 
                "offset": 220, 
                "reference": "sent-PMC3280209-medscan-107"
            }, 
            "text": "TNF-\u03b1", 
            "type": "MedScan_GENE_PROTEIN", 
            "xrefs": [
                {
                    "id": "7124", 
                    "namespace": "MEDSCAN:urn:agi-llid", 
                    "object-type": "db-reference"
                }
            ]
        }, 
        {
            "end-pos": {
                "context-end": "protein/1", 
                "object-type": "relative-pos", 
                "offset": 272, 
                "reference": "sent-PMC3280209-medscan-107"
            }, 
            "frame-id": "ment-PMC3280209-cmu-medscan-80", 
            "frame-type": "entity-mention", 
            "object-meta": {
                "component": "MedScan", 
                "object-type": "meta-info", 
                "organization": "CMU"
            }, 
            "object-type": "frame", 
            "sentence": "sent-PMC3280209-medscan-107", 
            "start-pos": {
                "context-start": "C-reactive/1", 
                "object-type": "relative-pos", 
                "offset": 254, 
                "reference": "sent-PMC3280209-medscan-107"
            }, 
            "text": "C-reactive protein", 
            "type": "MedScan_GENE_PROTEIN", 
            "xrefs": [
                {
                    "id": "1401", 
                    "namespace": "MEDSCAN:urn:agi-llid", 
                    "object-type": "db-reference"
                }
            ]
        }, 
        {
            "end-pos": {
                "context-end": "homocysteine/1", 
                "object-type": "relative-pos", 
                "offset": 286, 
                "reference": "sent-PMC3280209-medscan-107"
            }, 
            "frame-id": "ment-PMC3280209-cmu-medscan-81", 
            "frame-type": "entity-mention", 
            "object-meta": {
                "component": "MedScan", 
                "object-type": "meta-info", 
                "organization": "CMU"
            }, 
            "object-type": "frame", 
            "sentence": "sent-PMC3280209-medscan-107", 
            "start-pos": {
                "context-start": "homocysteine/1", 
                "object-type": "relative-pos", 
                "offset": 274, 
                "reference": "sent-PMC3280209-medscan-107"
            }, 
            "text": "homocysteine", 
            "type": "MedScan_DRUG", 
            "xrefs": [
                {
                    "id": "778", 
                    "namespace": "pubchem", 
                    "object-type": "db-reference"
                }
            ]
        }, 
        {
            "end-pos": {
                "context-end": "fibrinogen/1", 
                "object-type": "relative-pos", 
                "offset": 298, 
                "reference": "sent-PMC3280209-medscan-107"
            }, 
            "frame-id": "ment-PMC3280209-cmu-medscan-82", 
            "frame-type": "entity-mention", 
            "object-meta": {
                "component": "MedScan", 
                "object-type": "meta-info", 
                "organization": "CMU"
            }, 
            "object-type": "frame", 
            "sentence": "sent-PMC3280209-medscan-107", 
            "start-pos": {
                "context-start": "fibrinogen/1", 
                "object-type": "relative-pos", 
                "offset": 288, 
                "reference": "sent-PMC3280209-medscan-107"
            }, 
            "text": "fibrinogen", 
            "type": "MedScan_COMPLEX", 
            "xrefs": [
                {
                    "id": "0005577", 
                    "namespace": "MEDSCAN:urn:agi-gocomplex", 
                    "object-type": "db-reference"
                }
            ]
        }, 
        {
            "end-pos": {
                "context-end": "cells/1", 
                "object-type": "relative-pos", 
                "offset": 375, 
                "reference": "sent-PMC3280209-medscan-107"
            }, 
            "frame-id": "ment-PMC3280209-cmu-medscan-83", 
            "frame-type": "entity-mention", 
            "object-meta": {
                "component": "MedScan", 
                "object-type": "meta-info", 
                "organization": "CMU"
            }, 
            "object-type": "frame", 
            "sentence": "sent-PMC3280209-medscan-107", 
            "start-pos": {
                "context-start": "activation/1", 
                "object-type": "relative-pos", 
                "offset": 345, 
                "reference": "sent-PMC3280209-medscan-107"
            }, 
            "text": "activation of the immune cells", 
            "type": "MedScan_CELL_LINE", 
            "xrefs": [
                {
                    "id": "C1515879", 
                    "namespace": "MEDSCAN:urn:agi-ncimcelltype", 
                    "object-type": "db-reference"
                }
            ]
        }, 
        {
            "end-pos": {
                "object-type": "relative-pos", 
                "offset": -1, 
                "reference": "sent-PMC3280209-medscan-108"
            }, 
            "frame-id": "ment-PMC3280209-cmu-medscan-85", 
            "frame-type": "entity-mention", 
            "object-meta": {
                "component": "MedScan", 
                "object-type": "meta-info", 
                "organization": "CMU"
            }, 
            "object-type": "frame", 
            "sentence": "sent-PMC3280209-medscan-108", 
            "start-pos": {
                "object-type": "relative-pos", 
                "offset": -1, 
                "reference": "sent-PMC3280209-medscan-108"
            }, 
            "text": "IL-4, TNF-\u03b1, and IFN-\u03b3", 
            "type": "MedScan_GENE_PROTEIN", 
            "xrefs": [
                {
                    "id": "7124", 
                    "namespace": "MEDSCAN:urn:agi-llid", 
                    "object-type": "db-reference"
                }
            ]
        }, 
        {
            "end-pos": {
                "context-end": "monoxide/1", 
                "object-type": "relative-pos", 
                "offset": 44, 
                "reference": "sent-PMC3280209-medscan-111"
            }, 
            "frame-id": "ment-PMC3280209-cmu-medscan-88", 
            "frame-type": "entity-mention", 
            "object-meta": {
                "component": "MedScan", 
                "object-type": "meta-info", 
                "organization": "CMU"
            }, 
            "object-type": "frame", 
            "sentence": "sent-PMC3280209-medscan-111", 
            "start-pos": {
                "context-start": "carbon/1", 
                "object-type": "relative-pos", 
                "offset": 29, 
                "reference": "sent-PMC3280209-medscan-111"
            }, 
            "text": "carbon monoxide", 
            "type": "MedScan_DRUG", 
            "xrefs": [
                {
                    "id": "281", 
                    "namespace": "pubchem", 
                    "object-type": "db-reference"
                }
            ]
        }, 
        {
            "end-pos": {
                "context-end": "monoxide/1", 
                "object-type": "relative-pos", 
                "offset": 44, 
                "reference": "sent-PMC3280209-medscan-111"
            }, 
            "frame-id": "ment-PMC3280209-cmu-medscan-89", 
            "frame-type": "entity-mention", 
            "object-meta": {
                "component": "MedScan", 
                "object-type": "meta-info", 
                "organization": "CMU"
            }, 
            "object-type": "frame", 
            "sentence": "sent-PMC3280209-medscan-111", 
            "start-pos": {
                "context-start": "carbon/1", 
                "object-type": "relative-pos", 
                "offset": 29, 
                "reference": "sent-PMC3280209-medscan-111"
            }, 
            "text": "carbon monoxide", 
            "type": "MedScan_DRUG", 
            "xrefs": [
                {
                    "id": "281", 
                    "namespace": "pubchem", 
                    "object-type": "db-reference"
                }
            ]
        }, 
        {
            "end-pos": {
                "context-end": "response/1", 
                "object-type": "relative-pos", 
                "offset": 347, 
                "reference": "sent-PMC3280209-medscan-114"
            }, 
            "frame-id": "ment-PMC3280209-cmu-medscan-90", 
            "frame-type": "entity-mention", 
            "object-meta": {
                "component": "MedScan", 
                "object-type": "meta-info", 
                "organization": "CMU"
            }, 
            "object-type": "frame", 
            "sentence": "sent-PMC3280209-medscan-114", 
            "start-pos": {
                "context-start": "immune/1", 
                "object-type": "relative-pos", 
                "offset": 332, 
                "reference": "sent-PMC3280209-medscan-114"
            }, 
            "text": "immune response", 
            "type": "MedScan_PATHWAY", 
            "xrefs": [
                {
                    "id": "0006955", 
                    "namespace": "MEDSCAN:urn:agi-gocellproc", 
                    "object-type": "db-reference"
                }
            ]
        }, 
        {
            "end-pos": {
                "context-end": "cytokines/1", 
                "object-type": "relative-pos", 
                "offset": 75, 
                "reference": "sent-PMC3280209-medscan-115"
            }, 
            "frame-id": "ment-PMC3280209-cmu-medscan-91", 
            "frame-type": "entity-mention", 
            "object-meta": {
                "component": "MedScan", 
                "object-type": "meta-info", 
                "organization": "CMU"
            }, 
            "object-type": "frame", 
            "sentence": "sent-PMC3280209-medscan-115", 
            "start-pos": {
                "context-start": "inflammatory/1", 
                "object-type": "relative-pos", 
                "offset": 53, 
                "reference": "sent-PMC3280209-medscan-115"
            }, 
            "text": "inflammatory cytokines", 
            "type": "MedScan_PROTEIN_FAMILY", 
            "xrefs": [
                {
                    "id": "inflammatory%20cytokine", 
                    "namespace": "MEDSCAN:urn:agi-protfc", 
                    "object-type": "db-reference"
                }
            ]
        }, 
        {
            "end-pos": {
                "context-end": "nicotine/1", 
                "object-type": "relative-pos", 
                "offset": 32, 
                "reference": "sent-PMC3280209-medscan-116"
            }, 
            "frame-id": "ment-PMC3280209-cmu-medscan-92", 
            "frame-type": "entity-mention", 
            "object-meta": {
                "component": "MedScan", 
                "object-type": "meta-info", 
                "organization": "CMU"
            }, 
            "object-type": "frame", 
            "sentence": "sent-PMC3280209-medscan-116", 
            "start-pos": {
                "context-start": "nicotine/1", 
                "object-type": "relative-pos", 
                "offset": 24, 
                "reference": "sent-PMC3280209-medscan-116"
            }, 
            "text": "nicotine", 
            "type": "MedScan_DRUG", 
            "xrefs": [
                {
                    "id": "431", 
                    "namespace": "pubchem", 
                    "object-type": "db-reference"
                }
            ]
        }, 
        {
            "end-pos": {
                "context-end": "nicotine/1", 
                "object-type": "relative-pos", 
                "offset": 88, 
                "reference": "sent-PMC3280209-medscan-117"
            }, 
            "frame-id": "ment-PMC3280209-cmu-medscan-93", 
            "frame-type": "entity-mention", 
            "object-meta": {
                "component": "MedScan", 
                "object-type": "meta-info", 
                "organization": "CMU"
            }, 
            "object-type": "frame", 
            "sentence": "sent-PMC3280209-medscan-117", 
            "start-pos": {
                "context-start": "nicotine/1", 
                "object-type": "relative-pos", 
                "offset": 80, 
                "reference": "sent-PMC3280209-medscan-117"
            }, 
            "text": "nicotine", 
            "type": "MedScan_DRUG", 
            "xrefs": [
                {
                    "id": "431", 
                    "namespace": "pubchem", 
                    "object-type": "db-reference"
                }
            ]
        }, 
        {
            "end-pos": {
                "object-type": "relative-pos", 
                "offset": -1, 
                "reference": "NOT LINKED"
            }, 
            "frame-id": "ment-PMC3280209-cmu-medscan-94", 
            "frame-type": "entity-mention", 
            "object-meta": {
                "component": "MedScan", 
                "object-type": "meta-info", 
                "organization": "CMU"
            }, 
            "object-type": "frame", 
            "sentence": "NOT LINKED", 
            "start-pos": {
                "object-type": "relative-pos", 
                "offset": -1, 
                "reference": "NOT LINKED"
            }, 
            "text": "diurnal variation in lung function", 
            "type": "MedScan_PATHWAY", 
            "xrefs": [
                {
                    "id": "0007623", 
                    "namespace": "MEDSCAN:urn:agi-gocellproc", 
                    "object-type": "db-reference"
                }
            ]
        }, 
        {
            "end-pos": {
                "context-end": "function/1", 
                "object-type": "relative-pos", 
                "offset": 22, 
                "reference": "sent-PMC3280209-medscan-119"
            }, 
            "frame-id": "ment-PMC3280209-cmu-medscan-95", 
            "frame-type": "entity-mention", 
            "object-meta": {
                "component": "MedScan", 
                "object-type": "meta-info", 
                "organization": "CMU"
            }, 
            "object-type": "frame", 
            "sentence": "sent-PMC3280209-medscan-119", 
            "start-pos": {
                "context-start": "lung/1", 
                "object-type": "relative-pos", 
                "offset": 9, 
                "reference": "sent-PMC3280209-medscan-119"
            }, 
            "text": "lung function", 
            "type": "MedScan_PATHWAY", 
            "xrefs": [
                {
                    "id": "lung%20function", 
                    "namespace": "MEDSCAN:urn:agi-cellproc", 
                    "object-type": "db-reference"
                }
            ]
        }, 
        {
            "end-pos": {
                "object-type": "relative-pos", 
                "offset": -1, 
                "reference": "NOT LINKED"
            }, 
            "frame-id": "ment-PMC3280209-cmu-medscan-96", 
            "frame-type": "entity-mention", 
            "object-meta": {
                "component": "MedScan", 
                "object-type": "meta-info", 
                "organization": "CMU"
            }, 
            "object-type": "frame", 
            "sentence": "NOT LINKED", 
            "start-pos": {
                "object-type": "relative-pos", 
                "offset": -1, 
                "reference": "NOT LINKED"
            }, 
            "text": "immune response", 
            "type": "MedScan_PATHWAY", 
            "xrefs": [
                {
                    "id": "0006955", 
                    "namespace": "MEDSCAN:urn:agi-gocellproc", 
                    "object-type": "db-reference"
                }
            ]
        }, 
        {
            "arguments": [
                {
                    "arg": "ment-PMC3280209-cmu-medscan-61", 
                    "object-type": "argument", 
                    "type": "subj"
                }, 
                {
                    "arg": "ment-PMC3280209-cmu-medscan-59", 
                    "object-type": "argument", 
                    "type": "obj"
                }
            ], 
            "attributes": {
                "Effect": "positive", 
                "control-type": "UnknownRegulation", 
                "object-type": "attributes"
            }, 
            "context": "immune function, TNF-\u03b1 and IFN-\u03b3 were increased following secondhand smoke in both sexes, as well as IL-4", 
            "frame-id": "relm-PMC3280209-cmu-medscan-105", 
            "frame-type": "relation-mention", 
            "object-meta": {
                "component": "MedScan", 
                "object-type": "meta-info", 
                "organization": "CMU"
            }, 
            "object-type": "frame", 
            "type": "MedScan_Activation"
        }, 
        {
            "arguments": [
                {
                    "arg": "ment-PMC3280209-cmu-medscan-61", 
                    "object-type": "argument", 
                    "type": "subj"
                }, 
                {
                    "arg": "ment-PMC3280209-cmu-medscan-60", 
                    "object-type": "argument", 
                    "type": "obj"
                }
            ], 
            "attributes": {
                "Effect": "positive", 
                "control-type": "UnknownRegulation", 
                "object-type": "attributes"
            }, 
            "context": "TNF-\u03b1 and IFN-\u03b3 were increased following secondhand smoke in both sexes, as well as IL-4", 
            "frame-id": "relm-PMC3280209-cmu-medscan-106", 
            "frame-type": "relation-mention", 
            "object-meta": {
                "component": "MedScan", 
                "object-type": "meta-info", 
                "organization": "CMU"
            }, 
            "object-type": "frame", 
            "type": "MedScan_Activation"
        }
    ], 
    "object-meta": {
        "component": "MedScan", 
        "component-type": "machine", 
        "doc-id": "PMC3280209", 
        "object-type": "meta-info", 
        "organization": "CMU"
    }, 
    "object-type": "frame-collection"
}
