{
  "evidence": ["capsaicin (20 \\u00b5M) in scrambled shRNA human corneal epithelial cells subline caused time-dependent changes in TAK1 (left) and JNK1 (right) phosphorylation as revealed by western blot analysis.","capsaicin (20 \\u00b5M)-induced TAK1","capsaicin induces TAK1","Scrambled shRNA subline was preincubated with 5z-7-oxozeaenol (0.01-1.0 \\u00b5M) for 1 h before exposure to capsaicin (20 \\u00b5M) for 5 min."],
  "extracted_information": {
    "interaction_type": "increases",
    "negative_information": false,
    "participant_a": {
      "entity_text": "capsaicin",
      "entity_type": "chemical",
      "identifier": "CHEBI:3374",
      "in_model": true
    },
    "participant_b": {
      "entity_text": "TAK1",
      "entity_type": "protein",
      "identifier": "Uniprot:O43318",
      "in_model": false
    }
  },
  "fries_provenance": [
    {
      "component": "MedScan",
      "frame-file": "PMC3235537.cmu.medscan",
      "frame-id": "relm-PMC3235537-cmu-medscan-513",
      "sentence": "capsaicin (20 \\u00b5M) in scrambled shRNA human corneal epithelial cells subline caused time-dependent changes in TAK1 (left) and JNK1 (right) phosphorylation as revealed by western blot analysis.",
      "text": "capsaicin induces TAK1"
    },
    {
      "component": "MedScan",
      "frame-file": "PMC3235537.cmu.medscan",
      "frame-id": "relm-PMC3235537-cmu-medscan-515",
      "sentence": "Scrambled shRNA subline was preincubated with 5z-7-oxozeaenol (0.01-1.0 \\u00b5M) for 1 h before exposure to capsaicin (20 \\u00b5M) for 5 min.",
      "text": "capsaicin (20 \\u00b5M)-induced TAK1"
    }
  ],
  "model_relation": "extension",
  "pmc_id": "PMC3235537",
  "reader_type": "machine",
  "reading_complete": "2015-06-15T22:29:56Z",
  "reading_started": "2015-06-15T22:29:51Z",
  "submitter": "FRIES"
}
