{
  "evidence": ["In theory , inhibition of these steps might target prenylated variants of all Ras isoforms ( both those that are farnesylated through the physiological pathway and those that are iatrogenically geranylgeranylated in the presence of FTIs ) and so could provide alternative approaches to inhibit Ras activity .","those that are farnesylated"],
  "extracted_information": {
    "interaction_type": "adds_modification",
    "negative_information": false,
    "modifications": [
      {
        "modification_type": "farnesylation"
      }
    ],
    "participant_b": {
      "entity_text": "Ras",
      "entity_type": "protein",
      "identifier": "Uniprot:A0PDV5",
      "in_model": false
    }
  },
  "fries_provenance": [
    {
      "component": "REACH",
      "frame-file": "PMC3833460.uaz.events",
      "frame-id": "evem-PMC3833460-UAZ-r1-41-1-14",
      "passage-id": "pass-PMC3833460-UAZ-r1-41",
      "passage-number": 41,
      "passage-section-id": "sec8",
      "passage-section-name": "N/A",
      "sentence": "In theory , inhibition of these steps might target prenylated variants of all Ras isoforms ( both those that are farnesylated through the physiological pathway and those that are iatrogenically geranylgeranylated in the presence of FTIs ) and so could provide alternative approaches to inhibit Ras activity .",
      "text": "those that are farnesylated",
      "uaz-sentence": "In theory , inhibition of these steps might target prenylated variants of all Ras isoforms ( both those that are farnesylated through the physiological pathway and those that are iatrogenically geranylgeranylated in the presence of FTIs ) and so could provide alternative approaches to inhibit Ras activity .",
      "uaz-sentence-start": 218
    }
  ],
  "pmc_id": "PMC3833460",
  "reader_type": "machine",
  "reading_complete": "2015-07-02T21:29:21Z",
  "reading_started": "2015-07-02T21:29:16Z",
  "submitter": "FRIES"
}
