{
  "evidence": ["phosphorylate MEK1 on S298, causing its autophosphorylation on S218","This is reminiscent of PAK1 mediated activation of MEK1 : PAK1 was shown to phosphorylate MEK1 on S298 , causing its autophosphorylation on S218 and 222                    ."],
  "extracted_information": {
    "interaction_type": "adds_modification",
    "negative_information": false,
    "modifications": [
      {
        "modification_type": "phosphorylation",
        "site": 298
      },
      {
        "modification_type": "phosphorylation",
        "site": 218
      }
    ],
    "participant_b": {
      "entity_text": "MEK1",
      "entity_type": "protein",
      "identifier": "Uniprot:Q02750",
      "in_model": true
    }
  },
  "fries_provenance": [
    {
      "cmu-sentence-epistemic-status": "implication",
      "cmu-sentence-epistemic-value": 0.6,
      "component": "REACH",
      "frame-file": "PMC3510437.uaz.events",
      "frame-id": "evem-PMC3510437-UAZ-r1-55-4-92",
      "passage-id": "pass-PMC3510437-UAZ-r1-55",
      "passage-number": 55,
      "passage-section-id": "sec3",
      "passage-section-name": "discussion",
      "sentence": "This is reminiscent of PAK1 mediated activation of MEK1 : PAK1 was shown to phosphorylate MEK1 on S298 , causing its autophosphorylation on S218 and 222                    .",
      "text": "phosphorylate MEK1 on S298, causing its autophosphorylation on S218",
      "uaz-sentence": "This is reminiscent of PAK1 mediated activation of MEK1 : PAK1 was shown to phosphorylate MEK1 on S298 , causing its autophosphorylation on S218 and 222                    .",
      "uaz-sentence-start": 723
    }
  ],
  "model_relation": "extension",
  "pmc_id": "PMC3510437",
  "reader_type": "machine",
  "reading_complete": "2015-06-15T23:03:10Z",
  "reading_started": "2015-06-15T23:03:05Z",
  "submitter": "FRIES"
}
