{
  "evidence": ["p53 acetylation by p300","The acetylation of p53 by p300 and CBP is crucial for p53 's function as a transactivator        , and MDM2 can inhibit p53 acetylation by p300 and CBP through several mechanisms : ( i ) the shielding of p53 from p300 and CBP interaction     ; ( ii ) the interference with p300 and CBP function in a trimeric p53 : MDM2 : p300 and CBP complex     ; and ( iii ) the recruitment of deacetylases into the p53 and MDM2 complex     ."],
  "extracted_information": {
    "interaction_type": "adds_modification",
    "negative_information": false,
    "modifications": [
      {
        "modification_type": "acetylation"
      }
    ],
    "participant_a": {
      "entity_text": "p300",
      "entity_type": "protein",
      "identifier": "Uniprot:Q09472",
      "in_model": false
    },
    "participant_b": {
      "entity_text": "p53",
      "entity_type": "protein",
      "identifier": "Uniprot:P04637",
      "in_model": true
    }
  },
  "fries_provenance": [
    {
      "cmu-sentence-epistemic-status": "implication",
      "cmu-sentence-epistemic-value": 0.6,
      "component": "REACH",
      "frame-file": "PMC3973334.uaz.events",
      "frame-id": "evem-PMC3973334-UAZ-r1-85-2-214",
      "passage-id": "pass-PMC3973334-UAZ-r1-85",
      "passage-number": 85,
      "passage-section-id": "N/A",
      "passage-section-name": "discussion",
      "sentence": "The acetylation of p53 by p300 and CBP is crucial for p53 's function as a transactivator        , and MDM2 can inhibit p53 acetylation by p300 and CBP through several mechanisms : ( i ) the shielding of p53 from p300 and CBP interaction     ; ( ii ) the interference with p300 and CBP function in a trimeric p53 : MDM2 : p300 and CBP complex     ; and ( iii ) the recruitment of deacetylases into the p53 and MDM2 complex     .",
      "text": "p53 acetylation by p300",
      "uaz-sentence": "The acetylation of p53 by p300 and CBP is crucial for p53 's function as a transactivator        , and MDM2 can inhibit p53 acetylation by p300 and CBP through several mechanisms : ( i ) the shielding of p53 from p300 and CBP interaction     ; ( ii ) the interference with p300 and CBP function in a trimeric p53 : MDM2 : p300 and CBP complex     ; and ( iii ) the recruitment of deacetylases into the p53 and MDM2 complex     .",
      "uaz-sentence-start": 316
    }
  ],
  "model_relation": "extension",
  "pmc_id": "PMC3973334",
  "reader_type": "machine",
  "reading_complete": "2015-06-15T23:47:16Z",
  "reading_started": "2015-06-15T23:47:11Z",
  "submitter": "FRIES"
}
