{
  "evidence": ["acetylation of endogenous p53 and MDM2 by p300","Although the signals that were produced by the acetylated p53 and MDM2 molecules under these conditions were weak , there was consistently more acetylated p53 and MDM2 in the cells in which NIR had been knocked down                                                                       , in accord with endogenous NIR being able to inhibit the acetylation of endogenous p53 and MDM2 by p300 and CBP ."],
  "extracted_information": {
    "interaction_type": "adds_modification",
    "negative_information": false,
    "modifications": [
      {
        "modification_type": "acetylation"
      }
    ],
    "participant_a": {
      "entity_text": "p300",
      "entity_type": "protein",
      "identifier": "Uniprot:Q09472",
      "in_model": false
    },
    "participant_b": {
      "entity_text": "p53",
      "entity_type": "protein",
      "identifier": "Uniprot:P04637",
      "in_model": true
    }
  },
  "fries_provenance": [
    {
      "cmu-sentence-epistemic-status": "implication",
      "cmu-sentence-epistemic-value": 0.6,
      "component": "REACH",
      "frame-file": "PMC3973334.uaz.events",
      "frame-id": "evem-PMC3973334-UAZ-r1-72-2-196",
      "passage-id": "pass-PMC3973334-UAZ-r1-72",
      "passage-number": 72,
      "passage-section-id": "N/A",
      "passage-section-name": "N/A",
      "sentence": "Although the signals that were produced by the acetylated p53 and MDM2 molecules under these conditions were weak , there was consistently more acetylated p53 and MDM2 in the cells in which NIR had been knocked down                                                                       , in accord with endogenous NIR being able to inhibit the acetylation of endogenous p53 and MDM2 by p300 and CBP .",
      "text": "acetylation of endogenous p53 and MDM2 by p300",
      "uaz-sentence": "Although the signals that were produced by the acetylated p53 and MDM2 molecules under these conditions were weak , there was consistently more acetylated p53 and MDM2 in the cells in which NIR had been knocked down                                                                       , in accord with endogenous NIR being able to inhibit the acetylation of endogenous p53 and MDM2 by p300 and CBP .",
      "uaz-sentence-start": 463
    }
  ],
  "model_relation": "extension",
  "pmc_id": "PMC3973334",
  "reader_type": "machine",
  "reading_complete": "2015-06-15T23:47:16Z",
  "reading_started": "2015-06-15T23:47:11Z",
  "submitter": "FRIES"
}
