{
  "evidence": ["Co-immunoprecipitation in nuclear extracts indicated MutSalpha interaction with ATR , TopBP1 , Claspin , and Chk1 and interaction of MutLalpha with TopBP1 and Claspin .","interaction of MutSalpha with ATR, TopBP1","interaction of MutSalpha with ATR, TopBP1, and Chk1 and of MutLalpha with TopBP1","interaction of MutSalpha with ATR, TopBP1, Claspin, and Chk1 and interaction of MutLalpha with TopBP1","MutSalpha interaction with ATR, TopBP1","MutSalpha interaction with ATR, TopBP1, Claspin, and Chk1 and interaction of MutLalpha with TopBP1","MutSalpha interacts directly with Chk1 and TopBP1","Similar experiments               demonstrated that MutSalpha interacts directly with Chk1 and TopBP1 , but we have been unable to detect MutSalpha interaction with 9-1-1 , Rad17-RFC , RPA , or FLAG-Claspin using pulldown methods .","Use of purified proteins confirmed direct interaction of MutSalpha with ATR , TopBP1 , and Chk1 and of MutLalpha with TopBP1 .","Using nuclear co-immunoprecipitation , we have detected interaction of MutSalpha with ATR , TopBP1 , Claspin , and Chk1 and interaction of MutLalpha with TopBP1 and Claspin ."],
  "extracted_information": {
    "interaction_type": "binds",
    "negative_information": false,
    "participant_a": {
      "entity_text": "MutSalpha",
      "entity_type": "protein",
      "identifier": "ungrounded",
      "in_model": false
    },
    "participant_b": {
      "entity_text": "TopBP1",
      "entity_type": "protein",
      "identifier": "Uniprot:Q92547",
      "in_model": true
    }
  },
  "fries_provenance": [
    {
      "component": "REACH",
      "frame-file": "PMC2820822.uaz.events",
      "frame-id": "evem-PMC2820822-UAZ-r1-1-3-13",
      "passage-id": "pass-PMC2820822-UAZ-r1-1",
      "passage-number": 1,
      "passage-section-id": "N/A",
      "passage-section-name": "abstract",
      "sentence": "Using nuclear co-immunoprecipitation , we have detected interaction of MutSalpha with ATR , TopBP1 , Claspin , and Chk1 and interaction of MutLalpha with TopBP1 and Claspin .",
      "text": "interaction of MutSalpha with ATR, TopBP1",
      "uaz-sentence": "Using nuclear co-immunoprecipitation , we have detected interaction of MutSalpha with ATR , TopBP1 , Claspin , and Chk1 and interaction of MutLalpha with TopBP1 and Claspin .",
      "uaz-sentence-start": 565
    },
    {
      "component": "REACH",
      "frame-file": "PMC2820822.uaz.events",
      "frame-id": "evem-PMC2820822-UAZ-r1-1-3-16",
      "passage-id": "pass-PMC2820822-UAZ-r1-1",
      "passage-number": 1,
      "passage-section-id": "N/A",
      "passage-section-name": "abstract",
      "sentence": "Using nuclear co-immunoprecipitation , we have detected interaction of MutSalpha with ATR , TopBP1 , Claspin , and Chk1 and interaction of MutLalpha with TopBP1 and Claspin .",
      "text": "interaction of MutSalpha with ATR, TopBP1, Claspin, and Chk1 and interaction of MutLalpha with TopBP1",
      "uaz-sentence": "Using nuclear co-immunoprecipitation , we have detected interaction of MutSalpha with ATR , TopBP1 , Claspin , and Chk1 and interaction of MutLalpha with TopBP1 and Claspin .",
      "uaz-sentence-start": 565
    },
    {
      "component": "REACH",
      "frame-file": "PMC2820822.uaz.events",
      "frame-id": "evem-PMC2820822-UAZ-r1-1-5-11",
      "passage-id": "pass-PMC2820822-UAZ-r1-1",
      "passage-number": 1,
      "passage-section-id": "N/A",
      "passage-section-name": "abstract",
      "sentence": "Use of purified proteins confirmed direct interaction of MutSalpha with ATR , TopBP1 , and Chk1 and of MutLalpha with TopBP1 .",
      "text": "interaction of MutSalpha with ATR, TopBP1, and Chk1 and of MutLalpha with TopBP1",
      "uaz-sentence": "Use of purified proteins confirmed direct interaction of MutSalpha with ATR , TopBP1 , and Chk1 and of MutLalpha with TopBP1 .",
      "uaz-sentence-start": 864
    },
    {
      "component": "REACH",
      "frame-file": "PMC2820822.uaz.events",
      "frame-id": "evem-PMC2820822-UAZ-r1-1-5-9",
      "passage-id": "pass-PMC2820822-UAZ-r1-1",
      "passage-number": 1,
      "passage-section-id": "N/A",
      "passage-section-name": "abstract",
      "sentence": "Use of purified proteins confirmed direct interaction of MutSalpha with ATR , TopBP1 , and Chk1 and of MutLalpha with TopBP1 .",
      "text": "interaction of MutSalpha with ATR, TopBP1",
      "uaz-sentence": "Use of purified proteins confirmed direct interaction of MutSalpha with ATR , TopBP1 , and Chk1 and of MutLalpha with TopBP1 .",
      "uaz-sentence-start": 864
    },
    {
      "component": "REACH",
      "frame-file": "PMC2820822.uaz.events",
      "frame-id": "evem-PMC2820822-UAZ-r1-53-7-46",
      "passage-id": "pass-PMC2820822-UAZ-r1-53",
      "passage-number": 53,
      "passage-section-id": "N/A",
      "passage-section-name": "N/A",
      "sentence": "Similar experiments               demonstrated that MutSalpha interacts directly with Chk1 and TopBP1 , but we have been unable to detect MutSalpha interaction with 9-1-1 , Rad17-RFC , RPA , or FLAG-Claspin using pulldown methods .",
      "text": "MutSalpha interacts directly with Chk1 and TopBP1",
      "uaz-sentence": "Similar experiments               demonstrated that MutSalpha interacts directly with Chk1 and TopBP1 , but we have been unable to detect MutSalpha interaction with 9-1-1 , Rad17-RFC , RPA , or FLAG-Claspin using pulldown methods .",
      "uaz-sentence-start": 769
    },
    {
      "component": "REACH",
      "frame-file": "PMC2820822.uaz.events",
      "frame-id": "evem-PMC2820822-UAZ-r1-73-2-53",
      "passage-id": "pass-PMC2820822-UAZ-r1-73",
      "passage-number": 73,
      "passage-section-id": "N/A",
      "passage-section-name": "discussion",
      "sentence": "Co-immunoprecipitation in nuclear extracts indicated MutSalpha interaction with ATR , TopBP1 , Claspin , and Chk1 and interaction of MutLalpha with TopBP1 and Claspin .",
      "text": "MutSalpha interaction with ATR, TopBP1",
      "uaz-event-epistemic-status": "hypothesis",
      "uaz-sentence": "Co-immunoprecipitation in nuclear extracts indicated MutSalpha interaction with ATR , TopBP1 , Claspin , and Chk1 and interaction of MutLalpha with TopBP1 and Claspin .",
      "uaz-sentence-start": 497
    },
    {
      "component": "REACH",
      "frame-file": "PMC2820822.uaz.events",
      "frame-id": "evem-PMC2820822-UAZ-r1-73-2-56",
      "passage-id": "pass-PMC2820822-UAZ-r1-73",
      "passage-number": 73,
      "passage-section-id": "N/A",
      "passage-section-name": "discussion",
      "sentence": "Co-immunoprecipitation in nuclear extracts indicated MutSalpha interaction with ATR , TopBP1 , Claspin , and Chk1 and interaction of MutLalpha with TopBP1 and Claspin .",
      "text": "MutSalpha interaction with ATR, TopBP1, Claspin, and Chk1 and interaction of MutLalpha with TopBP1",
      "uaz-event-epistemic-status": "hypothesis",
      "uaz-sentence": "Co-immunoprecipitation in nuclear extracts indicated MutSalpha interaction with ATR , TopBP1 , Claspin , and Chk1 and interaction of MutLalpha with TopBP1 and Claspin .",
      "uaz-sentence-start": 497
    }
  ],
  "model_relation": "extension",
  "pmc_id": "PMC2820822",
  "reader_type": "machine",
  "reading_complete": "2015-06-15T21:06:04Z",
  "reading_started": "2015-06-15T21:05:59Z",
  "submitter": "FRIES"
}
