{
    "frames": [
        {
            "frame-id": "sent-PMC3594181-medscan-0", 
            "frame-type": "sentence", 
            "object-type": "frame", 
            "start-pos": {
                "object-type": "absolute-pos", 
                "offset": 0
            }, 
            "text": "The orf virus , the type species of the Parapoxvirus genus, is an epitheliotrophic virus and causative agent of the orf disease, which mainly affects sheep, goats, wild ruminants and humans with a worldwide distribution - ."
        }, 
        {
            "frame-id": "sent-PMC3594181-medscan-1", 
            "frame-type": "sentence", 
            "object-type": "frame", 
            "start-pos": {
                "object-type": "absolute-pos", 
                "offset": 1
            }, 
            "text": "The orf virus genome is 138 kb with G+C content up to 64 percent and it contains 132 putative genes , ."
        }, 
        {
            "frame-id": "sent-PMC3594181-medscan-2", 
            "frame-type": "sentence", 
            "object-type": "frame", 
            "start-pos": {
                "object-type": "absolute-pos", 
                "offset": 2
            }, 
            "text": "This parapoxvirus has evolved various strategies including encoding a protein to inhibit activation of the nuclear factors \u03baB signaling pathway ."
        }, 
        {
            "frame-id": "sent-PMC3594181-medscan-3", 
            "frame-type": "sentence", 
            "object-type": "frame", 
            "start-pos": {
                "object-type": "absolute-pos", 
                "offset": 3
            }, 
            "text": "Several genes of the orf virus including 121 , 024 and 002 modulate host immune function by inhibiting the activation of nuclear factors \u03baB."
        }, 
        {
            "frame-id": "sent-PMC3594181-medscan-4", 
            "frame-type": "sentence", 
            "object-type": "frame", 
            "start-pos": {
                "object-type": "absolute-pos", 
                "offset": 4
            }, 
            "text": "This is one of the strategies that the orf virus uses to escape the host's immunological response and modify the disease process."
        }, 
        {
            "frame-id": "sent-PMC3594181-medscan-5", 
            "frame-type": "sentence", 
            "object-type": "frame", 
            "start-pos": {
                "object-type": "absolute-pos", 
                "offset": 5
            }, 
            "text": "Inducible phosphorylation has been reported to occur at multiple NF-\u03baB p65 sites, including Ser536//536 and Ser276//276, leading to the changes in nuclear factors \u03baB activation ."
        }, 
        {
            "frame-id": "sent-PMC3594181-medscan-6", 
            "frame-type": "sentence", 
            "object-type": "frame", 
            "start-pos": {
                "object-type": "absolute-pos", 
                "offset": 6
            }, 
            "text": "The human adenovirus type 12 E1A protein (E1A-12) inhibits phosphorylation of NF-\u03baB p65 at Ser276//276 and causes the loss of DNA binding and transactivation to activate major histocompatibility complex class I expression ."
        }, 
        {
            "frame-id": "sent-PMC3594181-medscan-7", 
            "frame-type": "sentence", 
            "object-type": "frame", 
            "start-pos": {
                "object-type": "absolute-pos", 
                "offset": 7
            }, 
            "text": "Further study found that the last 66 amino acids of the N-terminus of adenovirus type 12E1A were as effective as the wild-type E1A protein in preventing phosphorylation of NF-\u03baB p65 at Ser276//276 and inhibiting major histocompatibility complex class I expression ."
        }, 
        {
            "frame-id": "sent-PMC3594181-medscan-8", 
            "frame-type": "sentence", 
            "object-type": "frame", 
            "start-pos": {
                "object-type": "absolute-pos", 
                "offset": 8
            }, 
            "text": "Our previous report indicated that the orf virus002 gene inhibits the nuclear factors \u03baB signaling pathway by decreasing TNF-\u03b1."
        }, 
        {
            "frame-id": "sent-PMC3594181-medscan-9", 
            "frame-type": "sentence", 
            "object-type": "frame", 
            "start-pos": {
                "object-type": "absolute-pos", 
                "offset": 9
            }, 
            "text": "Furthermore, the wild-type virus induced acetylation of NF-\u03baB p65 by interfering with the NF-\u03baB p65/p300 association and not by affecting phosphorylation of NF-\u03baB p65 at Ser536//536 ."
        }, 
        {
            "frame-id": "sent-PMC3594181-medscan-10", 
            "frame-type": "sentence", 
            "object-type": "frame", 
            "start-pos": {
                "object-type": "absolute-pos", 
                "offset": 10
            }, 
            "text": "The precise mechanism of how orf virus002 interferes with the NF-\u03baB p65/p300 association is not clearly understood."
        }, 
        {
            "frame-id": "sent-PMC3594181-medscan-11", 
            "frame-type": "sentence", 
            "object-type": "frame", 
            "start-pos": {
                "object-type": "absolute-pos", 
                "offset": 11
            }, 
            "text": "Based on the amino acid sequence analysis we found that orf virus002 shares three putative conserved protein domains with the E1A-12 protein."
        }, 
        {
            "frame-id": "sent-PMC3594181-medscan-12", 
            "frame-type": "sentence", 
            "object-type": "frame", 
            "start-pos": {
                "object-type": "absolute-pos", 
                "offset": 12
            }, 
            "text": "We hypothesized that the N-terminus of the orf virus002 has a similar function for the phosphorylation of NF-\u03baB p65."
        }, 
        {
            "frame-id": "sent-PMC3594181-medscan-13", 
            "frame-type": "sentence", 
            "object-type": "frame", 
            "start-pos": {
                "object-type": "absolute-pos", 
                "offset": 13
            }, 
            "text": "Our results confirmed that the N-terminal 52 residues of orf virus002 could inhibit phosphorylation of NF-\u03baB p65 at Ser276//276 blocking the subsequent acetylation of NF-\u03baB p65."
        }, 
        {
            "frame-id": "sent-PMC3594181-medscan-14", 
            "frame-type": "sentence", 
            "object-type": "frame", 
            "start-pos": {
                "object-type": "absolute-pos", 
                "offset": 14
            }, 
            "text": "This unique property of orf virus002 disables nuclear factors \u03baB transactivation."
        }, 
        {
            "frame-id": "sent-PMC3594181-medscan-15", 
            "frame-type": "sentence", 
            "object-type": "frame", 
            "start-pos": {
                "object-type": "absolute-pos", 
                "offset": 15
            }, 
            "text": "This is the first report of N-terminus of orf virus002 protein targeting nuclear events by regulating nuclear factors \u03baB transactivation."
        }, 
        {
            "frame-id": "sent-PMC3594181-medscan-16", 
            "frame-type": "sentence", 
            "object-type": "frame", 
            "start-pos": {
                "object-type": "absolute-pos", 
                "offset": 16
            }, 
            "text": "Two 3-year old Han sheep, which were pregnant for 120 days, were obtained from the Center of Laboratorial Animals in South China Agricultural University, China."
        }, 
        {
            "frame-id": "sent-PMC3594181-medscan-17", 
            "frame-type": "sentence", 
            "object-type": "frame", 
            "start-pos": {
                "object-type": "absolute-pos", 
                "offset": 17
            }, 
            "text": "The ovine experiments were approved by the Institutional Animal Care and Use Committee at South China Agricultural University (Certification Number: CNAS BL0011)."
        }, 
        {
            "frame-id": "sent-PMC3594181-medscan-18", 
            "frame-type": "sentence", 
            "object-type": "frame", 
            "start-pos": {
                "object-type": "absolute-pos", 
                "offset": 18
            }, 
            "text": "The primary ovine fetal turbinate tissues were prepared as previously described with the bovine turbinate cells , with some modifications."
        }, 
        {
            "frame-id": "sent-PMC3594181-medscan-19", 
            "frame-type": "sentence", 
            "object-type": "frame", 
            "start-pos": {
                "object-type": "absolute-pos", 
                "offset": 19
            }, 
            "text": "The sheep were anesthetized, and the fetuses were obtained."
        }, 
        {
            "frame-id": "sent-PMC3594181-medscan-20", 
            "frame-type": "sentence", 
            "object-type": "frame", 
            "start-pos": {
                "object-type": "absolute-pos", 
                "offset": 20
            }, 
            "text": "The turbinate tissue was cut into small pieces and trypsinized in 0.125% trypsin for 15 minutes at room temperature to settle the cells."
        }, 
        {
            "frame-id": "sent-PMC3594181-medscan-21", 
            "frame-type": "sentence", 
            "object-type": "frame", 
            "start-pos": {
                "object-type": "absolute-pos", 
                "offset": 21
            }, 
            "text": "Then the trypsin was decanted, and fresh trypsin was added for 30 minutes."
        }, 
        {
            "frame-id": "sent-PMC3594181-medscan-22", 
            "frame-type": "sentence", 
            "object-type": "frame", 
            "start-pos": {
                "object-type": "absolute-pos", 
                "offset": 22
            }, 
            "text": "The dispersed cells were decanted and saved; the digestive procedure was repeated on the remaining tissues."
        }, 
        {
            "frame-id": "sent-PMC3594181-medscan-23", 
            "frame-type": "sentence", 
            "object-type": "frame", 
            "start-pos": {
                "object-type": "absolute-pos", 
                "offset": 23
            }, 
            "text": "Dispersed cells collected in these serial digestions were pooled and washed twice in minimal essential medium , diluted at 5\u00d7105 cells/ml of complete medium and seeded at 30 ml per 150 cm2 plastic flasks."
        }, 
        {
            "frame-id": "sent-PMC3594181-medscan-24", 
            "frame-type": "sentence", 
            "object-type": "frame", 
            "start-pos": {
                "object-type": "absolute-pos", 
                "offset": 24
            }, 
            "text": "The complete medium consisted of medium supplemented with 10% fetal bovine serum , 100 \u03bcg/ml streptomycin, 100 U/ml penicillin, 50 \u03bcg/ml gentamicin and 2 mM L-glutamine."
        }, 
        {
            "frame-id": "sent-PMC3594181-medscan-25", 
            "frame-type": "sentence", 
            "object-type": "frame", 
            "start-pos": {
                "object-type": "absolute-pos", 
                "offset": 25
            }, 
            "text": "orf virus002 coding sequences were synthesized by EZBiolab, Inc. (Westfield, IN, USA), and subcloned into the expression vector pEGFP-N1 (Clontech, Mountain View, CA, USA) to generate the p002EGFP plasmid."
        }, 
        {
            "frame-id": "sent-PMC3594181-medscan-26", 
            "frame-type": "sentence", 
            "object-type": "frame", 
            "start-pos": {
                "object-type": "absolute-pos", 
                "offset": 26
            }, 
            "text": "DNA sequencing of p002EGFP confirmed the integrity of orf virus002 coding sequences and in-frame cloning with enhanced green fluorescent protein ."
        }, 
        {
            "frame-id": "sent-PMC3594181-medscan-27", 
            "frame-type": "sentence", 
            "object-type": "frame", 
            "start-pos": {
                "object-type": "absolute-pos", 
                "offset": 27
            }, 
            "text": "N-terminal fusions of enhanced green fluorescent protein to orf virus002 deletion mutants were constructed by PCR in a method similar to that described in ; p002enhanced green fluorescent protein was used as a template to amplify orf virus002-enhanced green fluorescent protein mutant 1 (\u03941-52, 002GM1 or M1), orf virus002-enhanced green fluorescent protein mutant 2 (\u03941-94, 002GM2 or M2), orf virus002-enhanced green fluorescent protein mutant 3 (\u039495-117, 002GM3 or M3), orf virus002-enhanced green fluorescent protein mutant 4 (\u039453-117, 002GM4 or M4)."
        }, 
        {
            "frame-id": "sent-PMC3594181-medscan-28", 
            "frame-type": "sentence", 
            "object-type": "frame", 
            "start-pos": {
                "object-type": "absolute-pos", 
                "offset": 28
            }, 
            "text": "The primer sequences were synthesized as follows: 5'-ACTATAAGCTTGCCACCATGCTTGCAGCTGGAGCTAGAGC-3'; 5'-ATAACTGCGGCCGCTTACTTGTACAGCTCGTCCATGC-3'; 5'- ATCATGAATTCGCCACCATGAGAGGAGCAGCTGCATCG-3'; 5'- ATAACTGCGGCCGCTTACTTGTACAGCTCGTCCATGC-3'; 5'-GATCATGAATTCGCTAGCCACCATGACTCCTACTTCTCGAGA-3'; 5'- GGTGGATCCATCCTAGCATGAGTAGTGG-3'; 5'-GATCATGAATTCGCTAGCCACCATGACTCCTACTTCTCGAGA-3'; 5'- GGTGGATCCATTAGTGCTCTCACAAGTGC-3'."
        }, 
        {
            "frame-id": "sent-PMC3594181-medscan-29", 
            "frame-type": "sentence", 
            "object-type": "frame", 
            "start-pos": {
                "object-type": "absolute-pos", 
                "offset": 29
            }, 
            "text": "The PCR was carried out in a 50 \u03bcl reaction volume containing 1 \u03bcl of DNA template, 0.4 \u03bcM of each primer and 0.5 \u03bcl of Taq polymerase (Promega Co., Madison, WI, USA) in 10 \u03bcl of 5\u00d7 PCR buffer (10 mM Tris-HCl, and 50 mM KCl and 25 \u03bcM MgCl2) with 200 \u03bcM final concentrations each of dATP, dTTP, dCTP and dGTP, 1 \u03bcl of DNA template, 200 \u03bcM dATP, dTTP, dCTP, dGTP, 0.4 \u03bcM of each primer, 25 \u03bcM MgCl2 and 0.5 \u03bcl of Taq polymerase (Promega Co., Madison, WI, USA)."
        }, 
        {
            "frame-id": "sent-PMC3594181-medscan-30", 
            "frame-type": "sentence", 
            "object-type": "frame", 
            "start-pos": {
                "object-type": "absolute-pos", 
                "offset": 30
            }, 
            "text": "PCR was performed in a thermocycler (GeneAmp PCR 2400, PE Applied Biosystems Corp, Foster, CA, USA) for 30 cycles of denaturation (94\u00b0C for 1 minute), annealing (58\u00b0C for 30 seconds) and extension (72\u00b0C for 1.5 minutes) with a final PCR was ended with one extension cycle (72\u00b0C for 10 minutes)."
        }, 
        {
            "frame-id": "sent-PMC3594181-medscan-31", 
            "frame-type": "sentence", 
            "object-type": "frame", 
            "start-pos": {
                "object-type": "absolute-pos", 
                "offset": 31
            }, 
            "text": "The amplified DNA products were resolved by 1% agarose gel electrophoresis and analyzed with an IS-1000 Digital Imaging System (Alpha Innotech Co., San Leandro, CA, USA)."
        }, 
        {
            "frame-id": "sent-PMC3594181-medscan-32", 
            "frame-type": "sentence", 
            "object-type": "frame", 
            "start-pos": {
                "object-type": "absolute-pos", 
                "offset": 32
            }, 
            "text": "The purified PCR products of 002GM1, 002GM2, 002GM3 and 002GM4 were cloned into pEGFP-N1 plasmid (Clontech, Mountain View, CA, USA) and were sequenced to check the integrity of orf virus002 mutant coding sequences and in-frame cloning with enhanced green fluorescent protein ."
        }, 
        {
            "frame-id": "sent-PMC3594181-medscan-33", 
            "frame-type": "sentence", 
            "object-type": "frame", 
            "start-pos": {
                "object-type": "absolute-pos", 
                "offset": 33
            }, 
            "text": "To construct the flag Flag-tagged MSK1 (pCMVtag2B-MSK1), and mitogen-activated protein kinase kinase 6 (pcDNA3.1-mitogen-activated protein kinase kinase 6) and mitogen-activated protein kinase 14 (p38-\u03b1) (pcDNA3.1-P38), total RNA was isolated from 293T cells with RNA-Solv Reagent (Omega Bio-tec, Inc., Victoria BC, Canada) in accordance with the manufacturer's instructions."
        }, 
        {
            "frame-id": "sent-PMC3594181-medscan-34", 
            "frame-type": "sentence", 
            "object-type": "frame", 
            "start-pos": {
                "object-type": "absolute-pos", 
                "offset": 34
            }, 
            "text": "The RNA was reverse transcribed to cDNA using M-MLV Reverse Transcriptase Kit (Promega, Madison, WI, USA) according to the manufacturer's guidelines."
        }, 
        {
            "frame-id": "sent-PMC3594181-medscan-35", 
            "frame-type": "sentence", 
            "object-type": "frame", 
            "start-pos": {
                "object-type": "absolute-pos", 
                "offset": 35
            }, 
            "text": "Primers were designed for MSK1, mitogen-activated protein kinase kinase 6 and p38-\u03b1 based on the sequences from the database (accession no: NM_004755.2, NM_002758.3 and NM_001315.2): 5'-ATATgaattcATGGAGGAGGAGGGTGGCA-3' (EcoRI). 5'-ATATctcgagCTAAGCTACTGAGTCCGAGAAC-3' (XhoI). 5'-CCCaagcttATGTCTCAGTCGAAAGGCAAG-3' (Hind III). 5'-CCCctcgagTTAGTCTCCAAGAATCAGT-3' (XhoI). 5'-TATAggatccATGTCTCAGGAGAGGCCCACGT-3' (BamHI). 5'- ATCActcgagTCAGGACTCCATCTCTTCTTG -3' (XhoI)."
        }, 
        {
            "frame-id": "sent-PMC3594181-medscan-36", 
            "frame-type": "sentence", 
            "object-type": "frame", 
            "start-pos": {
                "object-type": "absolute-pos", 
                "offset": 36
            }, 
            "text": "The PCR conditions were used as described above except for the annealing temperature."
        }, 
        {
            "frame-id": "sent-PMC3594181-medscan-37", 
            "frame-type": "sentence", 
            "object-type": "frame", 
            "start-pos": {
                "object-type": "absolute-pos", 
                "offset": 37
            }, 
            "text": "The purified PCR products were ligated into pCMVtag2B plasmid (Clontech, Mountain View, CA, USA) for Flag-MSK1 and pcDNA3.1 (Life Technologies, Grand Island, NY, USA) for mitogen-activated protein kinase kinase 6 and p38-\u03b1 and sequenced to check the integrity."
        }, 
        {
            "frame-id": "sent-PMC3594181-medscan-38", 
            "frame-type": "sentence", 
            "object-type": "frame", 
            "start-pos": {
                "object-type": "absolute-pos", 
                "offset": 38
            }, 
            "text": "Ovine fetal turbinate (ovine fetal turbinate tissues) cells were cultured in twelve-well plates (1.2\u00d7105 cells per well) and co-transfected with the vectors pNF-\u03baBLuc (450 ng; Clontech, Mountain View, CA, USA) and pRLTK (50 ng; Promega, Madison, WI, USA) and either pEGFP-N1 (GFP control), or pEGFP-002 (2002GFP, wild type 002-GFP fusion), or one of the orf virus002 deletion mutants fused to enhanced green fluorescent protein-N1 (pEGFP-002GM1, pEGFP-002GM2, pEGFP-002GM3, or pEGFP-002GM4), using Lipofectamine 2000 (Invitrogen, Carlsbad, CA, USA)."
        }, 
        {
            "frame-id": "sent-PMC3594181-medscan-39", 
            "frame-type": "sentence", 
            "object-type": "frame", 
            "start-pos": {
                "object-type": "absolute-pos", 
                "offset": 39
            }, 
            "text": "The nuclear factors \u03baB luciferase assay was performed as described previously ."
        }, 
        {
            "frame-id": "sent-PMC3594181-medscan-40", 
            "frame-type": "sentence", 
            "object-type": "frame", 
            "start-pos": {
                "object-type": "absolute-pos", 
                "offset": 40
            }, 
            "text": "Statistical analysis of the data was performed by using student's t test."
        }, 
        {
            "frame-id": "sent-PMC3594181-medscan-41", 
            "frame-type": "sentence", 
            "object-type": "frame", 
            "start-pos": {
                "object-type": "absolute-pos", 
                "offset": 41
            }, 
            "text": "Data are expressed as the mean \u00b1SD from three separate experiments."
        }, 
        {
            "frame-id": "sent-PMC3594181-medscan-42", 
            "frame-type": "sentence", 
            "object-type": "frame", 
            "start-pos": {
                "object-type": "absolute-pos", 
                "offset": 42
            }, 
            "text": "ovine fetal turbinate tissues cells were transfected with plasmid pEGFP-N1 (GFP control), pEGFP-002 (wild type orf virus002-GFP fusion) or one of the orf virus002 deletion mutants fused to GFP (pEGFP-002GM1, pEGFP-002GM2, pEGFP-002GM3 or pEGFP-002GM4) as described above, or they were co-transfected with pNF-\u03baB p65 plus pEGFP-N1 (GFP control), pEGFP-002 (wild type orf virus002) or one of the orf virus002 deletion mutants fused to GFP (pEGFP-002GM1, pEGFP-002GM2, pEGFP-002GM3 or pEGFP-002GM4)."
        }, 
        {
            "frame-id": "sent-PMC3594181-medscan-43", 
            "frame-type": "sentence", 
            "object-type": "frame", 
            "start-pos": {
                "object-type": "absolute-pos", 
                "offset": 43
            }, 
            "text": "HEK293T cells were transiently co-transfected with pNF-\u03baB p65, ppCMVtag2B-MSK1, pcDNA3.1-mitogen-activated protein kinase kinase 6 and pcDNA3.1-p38-\u03b1, plus pEGFP-N1 (GFP control), pEGFP-002 (wild type orf virus002-GFP fusion), or one of the orf virus002 deletion mutants fused to GFP (pEGFP-002GM1, pEGFP-002GM2, pEGFP-002GM3 or pEGFP-002GM4)."
        }, 
        {
            "frame-id": "sent-PMC3594181-medscan-44", 
            "frame-type": "sentence", 
            "object-type": "frame", 
            "start-pos": {
                "object-type": "absolute-pos", 
                "offset": 44
            }, 
            "text": "At 24 hours post-transfection, cells were treated with TNF-\u03b1 (20 ng/ml) for 0 min, 15 minutes, 30 minutes, 60 minutes or another specified time and were then harvested."
        }, 
        {
            "frame-id": "sent-PMC3594181-medscan-45", 
            "frame-type": "sentence", 
            "object-type": "frame", 
            "start-pos": {
                "object-type": "absolute-pos", 
                "offset": 45
            }, 
            "text": "A 10% SDS-PAGE gel was prepared and 50 \u03bcg of cell lysate was loaded into each well prior to separation."
        }, 
        {
            "frame-id": "sent-PMC3594181-medscan-46", 
            "frame-type": "sentence", 
            "object-type": "frame", 
            "start-pos": {
                "object-type": "absolute-pos", 
                "offset": 46
            }, 
            "text": "Separated proteins were transferred onto nitrocellulose membranes."
        }, 
        {
            "frame-id": "sent-PMC3594181-medscan-47", 
            "frame-type": "sentence", 
            "object-type": "frame", 
            "start-pos": {
                "object-type": "absolute-pos", 
                "offset": 47
            }, 
            "text": "Membrane blots were probed with rabbit anti NF-\u03baB-p65 (pSer276) (ab30623; abcam, Cambridge, UK), NF-\u03baB-p65 (N-acetyl-Lys310//310) (3045; Cell Signaling Technology, Inc., Danvers, MA, USA), NF-\u03baB-p65 (3034; Cell Signaling Technology, Inc., Danvers, MA, USA), anti-MSK1 (ab63619; abcam, Cambridge, UK), anti-GFP (sc-8334; Santa Cruz Biotechnology, Inc., Santa Cruz, CA, USA) or anti-Flag (F3165; Sigma-ALDRICH, St. Louis, MO, USA) and then followed by incubation with goat-anti-rabbit HRP-conjugated IgG antibody (Santa Cruz Biotechnology, Inc., Santa Cruz, CA, USA) and developed using chemiluminescent substrate ECL (Pierce-Thermo Scientific, Rockford, IL, USA)."
        }, 
        {
            "frame-id": "sent-PMC3594181-medscan-48", 
            "frame-type": "sentence", 
            "object-type": "frame", 
            "start-pos": {
                "object-type": "absolute-pos", 
                "offset": 48
            }, 
            "text": "A densitometric analysis of the blots was performed by using Image J software, version 1.62 (National Institutes of Health, Bethesda, MD, USA)."
        }, 
        {
            "frame-id": "sent-PMC3594181-medscan-49", 
            "frame-type": "sentence", 
            "object-type": "frame", 
            "start-pos": {
                "object-type": "absolute-pos", 
                "offset": 49
            }, 
            "text": "A statistical analysis of the densitometry data was performed by using student's t test."
        }, 
        {
            "frame-id": "sent-PMC3594181-medscan-50", 
            "frame-type": "sentence", 
            "object-type": "frame", 
            "start-pos": {
                "object-type": "absolute-pos", 
                "offset": 50
            }, 
            "text": "ovine fetal turbinate tissues cells were grown on glass cover-slips and co-transfected with pDSRed2-Nuc (Clontech, Mountain View, CA, USA) and either plasmid pEGFP-N1 (GFP control), pEGFP-002 (wild type orf virus002-GFP fusion), or one of the orf virus002 deletion mutants fused to GFP (pEGFP-002GM1, pEGFP-002GM2, pEGFP-002GM3 or pEGFP-002GM4)."
        }, 
        {
            "frame-id": "sent-PMC3594181-medscan-51", 
            "frame-type": "sentence", 
            "object-type": "frame", 
            "start-pos": {
                "object-type": "absolute-pos", 
                "offset": 51
            }, 
            "text": "At 24 hours after transfection, cells were fixed with 4% formaldehyde at room temperature for 1 hour, stained with DAPI (4', 6-diamidino-2-phenylindole) for 10 minutes and examined by laser scanning confocal microscopy (LSM700; Zeiss, Germany)."
        }, 
        {
            "frame-id": "sent-PMC3594181-medscan-52", 
            "frame-type": "sentence", 
            "object-type": "frame", 
            "start-pos": {
                "object-type": "absolute-pos", 
                "offset": 52
            }, 
            "text": "Using the CLUSTAL W program (San Diego Supercomputer Center biology workbench: http://workbench.sdsc.edu/) the predicted amino acid sequences of the orf virus 002 protein (orf virus002; AY386263.1) and human oncogenic adenovirus type 12E1A protein (E1A-12; CAA23400.1) were compared."
        }, 
        {
            "frame-id": "sent-PMC3594181-medscan-53", 
            "frame-type": "sentence", 
            "object-type": "frame", 
            "start-pos": {
                "object-type": "absolute-pos", 
                "offset": 53
            }, 
            "text": "We found that the three putative conserved protein domains, CR1, CR2 and CR3 in E1A-12 were also conserved in orf virus002 ."
        }, 
        {
            "frame-id": "sent-PMC3594181-medscan-54", 
            "frame-type": "sentence", 
            "object-type": "frame", 
            "start-pos": {
                "object-type": "absolute-pos", 
                "offset": 54
            }, 
            "text": "Based on the amino acid sequence alignment between E1A-12 and orf virus002 four plasmids were generated to express deletion mutants of orf virus002 tagged with enhanced green fluorescent protein designated as: 002GM1 (N-terminal deletion mutant \u03941-52, M1), expressing amino acids 53-117; 002GM2 (N-terminal deletion mutant \u03941-94, M2), expressing amino acids 95-117; 002GM3 (C-terminal deletion mutant \u039495-117, M3), expressing amino acids 1-94; and 002GM4 (C-terminal deletion mutant \u039453-117, M4), expressing amino acids 1-52 ."
        }, 
        {
            "frame-id": "sent-PMC3594181-medscan-55", 
            "frame-type": "sentence", 
            "object-type": "frame", 
            "start-pos": {
                "object-type": "absolute-pos", 
                "offset": 55
            }, 
            "text": "The nucleotide sequence integrity of each construct was verified by sequencing before use."
        }, 
        {
            "frame-id": "sent-PMC3594181-medscan-56", 
            "frame-type": "sentence", 
            "object-type": "frame", 
            "start-pos": {
                "object-type": "absolute-pos", 
                "offset": 56
            }, 
            "text": "The total protein levels of wild type and mutants of orf virus002 in ovine fetal turbinate tissues cells were detected by Western blot ."
        }, 
        {
            "frame-id": "sent-PMC3594181-medscan-57", 
            "frame-type": "sentence", 
            "object-type": "frame", 
            "start-pos": {
                "object-type": "absolute-pos", 
                "offset": 57
            }, 
            "text": "A."
        }, 
        {
            "frame-id": "sent-PMC3594181-medscan-58", 
            "frame-type": "sentence", 
            "object-type": "frame", 
            "start-pos": {
                "object-type": "absolute-pos", 
                "offset": 58
            }, 
            "text": "Comparison of the predicted amino acid sequences of orf virus 002 protein (orf virus002; AY386263.1) and human oncogenic adenovirus type 12E1A protein (E1A-12; CAA23400.1)."
        }, 
        {
            "frame-id": "sent-PMC3594181-medscan-59", 
            "frame-type": "sentence", 
            "object-type": "frame", 
            "start-pos": {
                "object-type": "absolute-pos", 
                "offset": 59
            }, 
            "text": "ovine fetal turbinate tissues cells were co-transfected with a vector encoding a firefly luciferase gene under the control of nuclear factors \u03baB (pNF\u03baB-Luc) and with a plasmid encoding sea pansy (Renilla reniformis) luciferase under the control of herpesvirus TK promoter (pRL-TK), plus a plasmid expressing GFP (negative control), wild type orf virus002-GFP fusion protein , or a orf virus002 deletion mutant fused to GFP (002GM1, 002GM2, pEGFP-002GM3 or 002GM4)."
        }, 
        {
            "frame-id": "sent-PMC3594181-medscan-60", 
            "frame-type": "sentence", 
            "object-type": "frame", 
            "start-pos": {
                "object-type": "absolute-pos", 
                "offset": 60
            }, 
            "text": "At 24 hours after transfection, cells were treated with 20 ng/ml of TNF- \u03b1 (A) or 250 ng/ml of lipopolysaccharide (B) for 6 hours."
        }, 
        {
            "frame-id": "sent-PMC3594181-medscan-61", 
            "frame-type": "sentence", 
            "object-type": "frame", 
            "start-pos": {
                "object-type": "absolute-pos", 
                "offset": 61
            }, 
            "text": "Firefly and sea pansy luciferase activities were measured and depicted in the graph as relative fold changes in luciferase activity (**, P<0.001)."
        }, 
        {
            "frame-id": "sent-PMC3594181-medscan-62", 
            "frame-type": "sentence", 
            "object-type": "frame", 
            "start-pos": {
                "object-type": "absolute-pos", 
                "offset": 62
            }, 
            "text": "Data are expressed as the mean \u00b1 SD from three separate experiments."
        }, 
        {
            "frame-id": "sent-PMC3594181-medscan-63", 
            "frame-type": "sentence", 
            "object-type": "frame", 
            "start-pos": {
                "object-type": "absolute-pos", 
                "offset": 63
            }, 
            "text": "We showed previously that orf virus002 inhibits the acetylation of NF-\u03baB p65."
        }, 
        {
            "frame-id": "sent-PMC3594181-medscan-64", 
            "frame-type": "sentence", 
            "object-type": "frame", 
            "start-pos": {
                "object-type": "absolute-pos", 
                "offset": 64
            }, 
            "text": "In order to define the region of orf virus002 responsible for inhibiting the acetylation of NF-\u03baB p65, different N- and C-terminal truncation mutants of orf virus002 were generated ."
        }, 
        {
            "frame-id": "sent-PMC3594181-medscan-65", 
            "frame-type": "sentence", 
            "object-type": "frame", 
            "start-pos": {
                "object-type": "absolute-pos", 
                "offset": 65
            }, 
            "text": "ovine fetal turbinate tissues cells were co-transfected with a pNF\u03baB p65 plasmid and a plasmid expressing GFP alone (negative control), wild type orf virus002-GFP fusion protein or one of the orf virus002 deletion mutants fused to GFP."
        }, 
        {
            "frame-id": "sent-PMC3594181-medscan-66", 
            "frame-type": "sentence", 
            "object-type": "frame", 
            "start-pos": {
                "object-type": "absolute-pos", 
                "offset": 66
            }, 
            "text": "The acetylation Lys310//310 was examined by Western blotting using an anti-NF-\u03baB p65 (N-acetyl-Lys310//310) antibody ."
        }, 
        {
            "frame-id": "sent-PMC3594181-medscan-67", 
            "frame-type": "sentence", 
            "object-type": "frame", 
            "start-pos": {
                "object-type": "absolute-pos", 
                "offset": 67
            }, 
            "text": "As expected from our previous studies the acetylation of NF-\u03baB p65 (Lys310//310) was dramatically reduced in the presence of wild type virus002-GFP fusion protein ( , lane 3)."
        }, 
        {
            "frame-id": "sent-PMC3594181-medscan-68", 
            "frame-type": "sentence", 
            "object-type": "frame", 
            "start-pos": {
                "object-type": "absolute-pos", 
                "offset": 68
            }, 
            "text": "As with wild type orf virus002, the intact N-terminus of orf virus002 (002GM3 and 002GM4) also induced a significant reduction of p65Lys310//310 acetylation ( , lanes 6 and 7)."
        }, 
        {
            "frame-id": "sent-PMC3594181-medscan-69", 
            "frame-type": "sentence", 
            "object-type": "frame", 
            "start-pos": {
                "object-type": "absolute-pos", 
                "offset": 69
            }, 
            "text": "In contrast, deletion of the first 52 residues of orf virus002 (\u03941-52), which contains CR1, or deletion of the first 94 residues of orf virus002 (\u03941-94), which contains CR1 and CR2 (see ), abolished the ability of orf virus002 to inhibit NF-\u03baB p65 (Lys310//310) acetylation ( , lanes 4 and 5)."
        }, 
        {
            "frame-id": "sent-PMC3594181-medscan-70", 
            "frame-type": "sentence", 
            "object-type": "frame", 
            "start-pos": {
                "object-type": "absolute-pos", 
                "offset": 70
            }, 
            "text": "The total protein levels of p65 and GAPDH expressed in ovine fetal turbinate tissues cells were comparable ."
        }, 
        {
            "frame-id": "sent-PMC3594181-medscan-71", 
            "frame-type": "sentence", 
            "object-type": "frame", 
            "start-pos": {
                "object-type": "absolute-pos", 
                "offset": 71
            }, 
            "text": "These results indicate that the orf virus002 N-terminus (residues 1-52) mediates NF-\u03baB p65 acetylation at Lys310//310 as effectively as the whole orf virus002 protein."
        }, 
        {
            "frame-id": "sent-PMC3594181-medscan-72", 
            "frame-type": "sentence", 
            "object-type": "frame", 
            "start-pos": {
                "object-type": "absolute-pos", 
                "offset": 72
            }, 
            "text": "A."
        }, 
        {
            "frame-id": "sent-PMC3594181-medscan-73", 
            "frame-type": "sentence", 
            "object-type": "frame", 
            "start-pos": {
                "object-type": "absolute-pos", 
                "offset": 73
            }, 
            "text": "ovine fetal turbinate tissues cells were co-transfected with plasmid pNF-\u03baB p65 and either pEGFP-N1 or pORFV002-enhanced green fluorescent protein."
        }, 
        {
            "frame-id": "sent-PMC3594181-medscan-74", 
            "frame-type": "sentence", 
            "object-type": "frame", 
            "start-pos": {
                "object-type": "absolute-pos", 
                "offset": 74
            }, 
            "text": "At 24 hours post transfection, cells were treated with 20 ng/ml of TNF-\u03b1 for 0, 15, 30 and 60 minutes and harvested at the indicated times."
        }, 
        {
            "frame-id": "sent-PMC3594181-medscan-75", 
            "frame-type": "sentence", 
            "object-type": "frame", 
            "start-pos": {
                "object-type": "absolute-pos", 
                "offset": 75
            }, 
            "text": "Total cell lysis protein extracts (50 \u03bcg) were loaded in 10 percent SDS-PAGE gel, blotted, and probed with antibodies against NF-\u03baB p65 (Lys310//310) (top), NF-\u03baB p65 (middle), or GAPDH (bottom)."
        }, 
        {
            "frame-id": "sent-PMC3594181-medscan-76", 
            "frame-type": "sentence", 
            "object-type": "frame", 
            "start-pos": {
                "object-type": "absolute-pos", 
                "offset": 76
            }, 
            "text": "B."
        }, 
        {
            "frame-id": "sent-PMC3594181-medscan-77", 
            "frame-type": "sentence", 
            "object-type": "frame", 
            "start-pos": {
                "object-type": "absolute-pos", 
                "offset": 77
            }, 
            "text": "ovine fetal turbinate tissues cells were co-transfected with plasmid pNF-\u03baB p65 and orf virus002 mutants."
        }, 
        {
            "frame-id": "sent-PMC3594181-medscan-78", 
            "frame-type": "sentence", 
            "object-type": "frame", 
            "start-pos": {
                "object-type": "absolute-pos", 
                "offset": 78
            }, 
            "text": "At 24 hours post transfection, cells were treated with 20 ng/ml of TNF-\u03b1 for 60 minutes."
        }, 
        {
            "frame-id": "sent-PMC3594181-medscan-79", 
            "frame-type": "sentence", 
            "object-type": "frame", 
            "start-pos": {
                "object-type": "absolute-pos", 
                "offset": 79
            }, 
            "text": "Total cell lysates were detected by WB similar to A."
        }, 
        {
            "frame-id": "sent-PMC3594181-medscan-80", 
            "frame-type": "sentence", 
            "object-type": "frame", 
            "start-pos": {
                "object-type": "absolute-pos", 
                "offset": 80
            }, 
            "text": "C."
        }, 
        {
            "frame-id": "sent-PMC3594181-medscan-81", 
            "frame-type": "sentence", 
            "object-type": "frame", 
            "start-pos": {
                "object-type": "absolute-pos", 
                "offset": 81
            }, 
            "text": "Densitometry of NF-\u03baB-p65 (acety-Lys310//310) bands normalized to loading control GAPDH (**, P<0.005)."
        }, 
        {
            "frame-id": "sent-PMC3594181-medscan-82", 
            "frame-type": "sentence", 
            "object-type": "frame", 
            "start-pos": {
                "object-type": "absolute-pos", 
                "offset": 82
            }, 
            "text": "The results are representative of three independent experiments."
        }, 
        {
            "frame-id": "sent-PMC3594181-medscan-83", 
            "frame-type": "sentence", 
            "object-type": "frame", 
            "start-pos": {
                "object-type": "absolute-pos", 
                "offset": 83
            }, 
            "text": "To investigate further whether orf virus002 affects NF-\u03baB p65 (Ser276//276) phosphorylation, ovine fetal turbinate tissues cells were co-transfected with plasmid pNF-\u03baB p65 and either pEGFP-N1 or p002-enhanced green fluorescent protein or deletion of mutant constructs."
        }, 
        {
            "frame-id": "sent-PMC3594181-medscan-84", 
            "frame-type": "sentence", 
            "object-type": "frame", 
            "start-pos": {
                "object-type": "absolute-pos", 
                "offset": 84
            }, 
            "text": "At 24 hours after transfection cells were treated with 20 ng/ml of TNF-\u03b1 for 0, 30 and 60 minutes."
        }, 
        {
            "frame-id": "sent-PMC3594181-medscan-85", 
            "frame-type": "sentence", 
            "object-type": "frame", 
            "start-pos": {
                "object-type": "absolute-pos", 
                "offset": 85
            }, 
            "text": "After the cells were harvested, the nuclei protein was extracted."
        }, 
        {
            "frame-id": "sent-PMC3594181-medscan-86", 
            "frame-type": "sentence", 
            "object-type": "frame", 
            "start-pos": {
                "object-type": "absolute-pos", 
                "offset": 86
            }, 
            "text": "The phosphorylation of NF-\u03baB p65 (Ser276//276) of the nuclei protein was examined by Western blotting using an anti-NF-\u03baB p65 (pSer276) antibody, while phosphorylation of NF-\u03baB p65 at Ser536//536 was detected by immunoblotting using an anti-NF-\u03baB p65 (pSer536) antibody ."
        }, 
        {
            "frame-id": "sent-PMC3594181-medscan-87", 
            "frame-type": "sentence", 
            "object-type": "frame", 
            "start-pos": {
                "object-type": "absolute-pos", 
                "offset": 87
            }, 
            "text": "The Western blotting results showed that orf virus002 significantly inhibits phosphorylation of NF-\u03baB p65Ser276//276 but not NF-\u03baB p65Ser536//536 ."
        }, 
        {
            "frame-id": "sent-PMC3594181-medscan-88", 
            "frame-type": "sentence", 
            "object-type": "frame", 
            "start-pos": {
                "object-type": "absolute-pos", 
                "offset": 88
            }, 
            "text": "As with wild type orf virus002, mutants of 002GM3 and M4 also induced significant reduction of NF-\u03baB p65Ser276//276 phosphorylation ( , lanes 6 and 7)."
        }, 
        {
            "frame-id": "sent-PMC3594181-medscan-89", 
            "frame-type": "sentence", 
            "object-type": "frame", 
            "start-pos": {
                "object-type": "absolute-pos", 
                "offset": 89
            }, 
            "text": "In contrast, deletion of the N-terminal 52 residues (CR1) or 94 residues (CR1+CR2) abolished the ability of orf virus002 to inhibit p65Ser276//276 phosphorylation ( , lanes 4 and 5)."
        }, 
        {
            "frame-id": "sent-PMC3594181-medscan-90", 
            "frame-type": "sentence", 
            "object-type": "frame", 
            "start-pos": {
                "object-type": "absolute-pos", 
                "offset": 90
            }, 
            "text": "The total protein levels of phospho-p65 and histone-H3 expressed in ovine fetal turbinate tissues cells were comparable ."
        }, 
        {
            "frame-id": "sent-PMC3594181-medscan-91", 
            "frame-type": "sentence", 
            "object-type": "frame", 
            "start-pos": {
                "object-type": "absolute-pos", 
                "offset": 91
            }, 
            "text": "These results indicate that the N-terminus of orf virus002 (residues 1 to 52) mediates p65 phosphorylation at Ser276//276."
        }, 
        {
            "frame-id": "sent-PMC3594181-medscan-92", 
            "frame-type": "sentence", 
            "object-type": "frame", 
            "start-pos": {
                "object-type": "absolute-pos", 
                "offset": 92
            }, 
            "text": "A."
        }, 
        {
            "frame-id": "sent-PMC3594181-medscan-93", 
            "frame-type": "sentence", 
            "object-type": "frame", 
            "start-pos": {
                "object-type": "absolute-pos", 
                "offset": 93
            }, 
            "text": "ovine fetal turbinate tissues cells were co-transfected with plasmid pNF-\u03baB-p65 and either pEGFP-N1 or pORFV002-enhanced green fluorescent protein."
        }, 
        {
            "frame-id": "sent-PMC3594181-medscan-94", 
            "frame-type": "sentence", 
            "object-type": "frame", 
            "start-pos": {
                "object-type": "absolute-pos", 
                "offset": 94
            }, 
            "text": "At 24 hours post transfection, cells were treated with 20 ng/ml of TNF-\u03b1 for 0, 30 and 60 minutes and harvested at the indicated times."
        }, 
        {
            "frame-id": "sent-PMC3594181-medscan-95", 
            "frame-type": "sentence", 
            "object-type": "frame", 
            "start-pos": {
                "object-type": "absolute-pos", 
                "offset": 95
            }, 
            "text": "Nuclear protein fractions were extracted."
        }, 
        {
            "frame-id": "sent-PMC3594181-medscan-96", 
            "frame-type": "sentence", 
            "object-type": "frame", 
            "start-pos": {
                "object-type": "absolute-pos", 
                "offset": 96
            }, 
            "text": "Protein extracts (50 \u03bcg) were resolved by SDS-PAGE, blotted, and probed with antibodies against p-nuclear factors \u03baB-p65-Ser276//276 (top), p-nuclear factors \u03baB-p65-Ser536//536 (middle), or histone H3 (bottom)."
        }, 
        {
            "frame-id": "sent-PMC3594181-medscan-97", 
            "frame-type": "sentence", 
            "object-type": "frame", 
            "start-pos": {
                "object-type": "absolute-pos", 
                "offset": 97
            }, 
            "text": "B."
        }, 
        {
            "frame-id": "sent-PMC3594181-medscan-98", 
            "frame-type": "sentence", 
            "object-type": "frame", 
            "start-pos": {
                "object-type": "absolute-pos", 
                "offset": 98
            }, 
            "text": "Densitometry of p-NF-\u03baB-p65Ser276//276 and Ser536//536 bands normalized to loading control histone H3 (**, P<0.005)."
        }, 
        {
            "frame-id": "sent-PMC3594181-medscan-99", 
            "frame-type": "sentence", 
            "object-type": "frame", 
            "start-pos": {
                "object-type": "absolute-pos", 
                "offset": 99
            }, 
            "text": "The results are representative of three independent experiments."
        }, 
        {
            "frame-id": "sent-PMC3594181-medscan-100", 
            "frame-type": "sentence", 
            "object-type": "frame", 
            "start-pos": {
                "object-type": "absolute-pos", 
                "offset": 100
            }, 
            "text": "A."
        }, 
        {
            "frame-id": "sent-PMC3594181-medscan-101", 
            "frame-type": "sentence", 
            "object-type": "frame", 
            "start-pos": {
                "object-type": "absolute-pos", 
                "offset": 101
            }, 
            "text": "ovine fetal turbinate tissues cells were co-transfected with plasmid pT7-NF-\u03baB-p65 and pEGFP-N1, wild type orf virusvirus002-GFP fusion protein, or mutant orf virusvirus002-GFP fusion protein plasmids, treated with TNF-\u03b1 (20 ng/ml), and harvested at 60 minutes after TNF-\u03b1 treatment."
        }, 
        {
            "frame-id": "sent-PMC3594181-medscan-102", 
            "frame-type": "sentence", 
            "object-type": "frame", 
            "start-pos": {
                "object-type": "absolute-pos", 
                "offset": 102
            }, 
            "text": "Nuclear protein fractions were extracted and western blot analysis was performed as described above."
        }, 
        {
            "frame-id": "sent-PMC3594181-medscan-103", 
            "frame-type": "sentence", 
            "object-type": "frame", 
            "start-pos": {
                "object-type": "absolute-pos", 
                "offset": 103
            }, 
            "text": "B."
        }, 
        {
            "frame-id": "sent-PMC3594181-medscan-104", 
            "frame-type": "sentence", 
            "object-type": "frame", 
            "start-pos": {
                "object-type": "absolute-pos", 
                "offset": 104
            }, 
            "text": "Densitometry of p-p65-Ser276//276 bands normalized to loading control histone H3 (**, P<0.005)."
        }, 
        {
            "frame-id": "sent-PMC3594181-medscan-105", 
            "frame-type": "sentence", 
            "object-type": "frame", 
            "start-pos": {
                "object-type": "absolute-pos", 
                "offset": 105
            }, 
            "text": "The results are representative of three independent experiments."
        }, 
        {
            "frame-id": "sent-PMC3594181-medscan-106", 
            "frame-type": "sentence", 
            "object-type": "frame", 
            "start-pos": {
                "object-type": "absolute-pos", 
                "offset": 106
            }, 
            "text": "To investigate further whether orf virus002 affects production of NF-\u03baB p65 (pSer276) by MSK1, HEK293T cells were transiently transfected using expression vectors for p65, Flag-MSK1 plus GFP, virus002-GFP fusion protein, 002GM1, or 002GM3 with pcDND3.1-mitogen-activated protein kinase kinase 6 and pcDNA3.1-P38."
        }, 
        {
            "frame-id": "sent-PMC3594181-medscan-107", 
            "frame-type": "sentence", 
            "object-type": "frame", 
            "start-pos": {
                "object-type": "absolute-pos", 
                "offset": 107
            }, 
            "text": "At 24 hours post-transfection, cells were treated with 20 ng/ml TNF-\u03b1 for 30 minutes, and cell lysates were prepared and phosphorylation of NF-\u03baB p65 at Ser276//276 was detected by immunoblotting using an anti-NF-\u03baB p65 (pSer276) antibody ."
        }, 
        {
            "frame-id": "sent-PMC3594181-medscan-108", 
            "frame-type": "sentence", 
            "object-type": "frame", 
            "start-pos": {
                "object-type": "absolute-pos", 
                "offset": 108
            }, 
            "text": "The western blotting results showed that nuclear kinase MSK1, when activated by TNF-\u03b1, specifically phosphorylated NF-\u03baB p65 at the serine residue in position 276//276 (pSer276) and this phosphorylation was inhibited by orf virus002, or by the intact N-terminus of orf virus002 (002GM3 and 002GM4)."
        }, 
        {
            "frame-id": "sent-PMC3594181-medscan-109", 
            "frame-type": "sentence", 
            "object-type": "frame", 
            "start-pos": {
                "object-type": "absolute-pos", 
                "offset": 109
            }, 
            "text": "Expression of NF-\u03baB p65 (pSer276) was further enhanced by TNF-\u03b1 treatment when cells were co-transfected with mitogen-activated protein kinase kinase 6 and p38 in addition to NF-\u03baB p65 and MSK1 ( , line 3 and B, lane 2), whereas co-transfection of NF-\u03baB p65 and MSK1 with mitogen-activated protein kinase kinase 6 or p38 alone resulted in relatively low levels of NF-\u03baB p65Ser276//276 phosphorylation ( , lane 6, 7 and 8)."
        }, 
        {
            "frame-id": "sent-PMC3594181-medscan-110", 
            "frame-type": "sentence", 
            "object-type": "frame", 
            "start-pos": {
                "object-type": "absolute-pos", 
                "offset": 110
            }, 
            "text": "Very low level of NF-\u03baB p65Ser276//276 phosphorylation was detected when cells were transfected with NF-\u03baB p65 alone ( , lane 1), NF-\u03baB p65 plus MSK1 ( , lane 2), or NF-\u03baB p65 plus mitogen-activated protein kinase kinase 6 and p38 ( , lane 1 and C) suggesting that mitogen-activated protein kinase kinase 6 and p38 were absolutely required for MSK1 activation and nuclear factors \u03baB-driven gene transcription in response to TNF-\u03b1."
        }, 
        {
            "frame-id": "sent-PMC3594181-medscan-111", 
            "frame-type": "sentence", 
            "object-type": "frame", 
            "start-pos": {
                "object-type": "absolute-pos", 
                "offset": 111
            }, 
            "text": "GFP-fusions of wild type orf virus002 (virus002-GFP fusion protein) and the intact N-terminus of orf virus002 (002GM3 and 002GM4) significantly inhibited NF-\u03baB p65Ser276//276 phosphorylation ( , lane 4 and 6; B, lane 3 and 9), which is consistent with previous observations , ."
        }, 
        {
            "frame-id": "sent-PMC3594181-medscan-112", 
            "frame-type": "sentence", 
            "object-type": "frame", 
            "start-pos": {
                "object-type": "absolute-pos", 
                "offset": 112
            }, 
            "text": "The results indicate that p38 and ERK mitogen-activated protein kinases are absolutely required for full activation of MSK1 activity and nuclear factors \u03baB-driven gene transcription in response to TNF- \u03b1."
        }, 
        {
            "frame-id": "sent-PMC3594181-medscan-113", 
            "frame-type": "sentence", 
            "object-type": "frame", 
            "start-pos": {
                "object-type": "absolute-pos", 
                "offset": 113
            }, 
            "text": "A."
        }, 
        {
            "frame-id": "sent-PMC3594181-medscan-114", 
            "frame-type": "sentence", 
            "object-type": "frame", 
            "start-pos": {
                "object-type": "absolute-pos", 
                "offset": 114
            }, 
            "text": "HEK293T cells were transfected using expression vectors for p65, Flag-MSK1 plus GFP, virus002-GFP fusion protein, 002GM1 or 002GM3."
        }, 
        {
            "frame-id": "sent-PMC3594181-medscan-115", 
            "frame-type": "sentence", 
            "object-type": "frame", 
            "start-pos": {
                "object-type": "absolute-pos", 
                "offset": 115
            }, 
            "text": "Activation of MSK1 was achieved by co-transfecting mitogen-activated protein kinase kinase 6 and p38 kinase."
        }, 
        {
            "frame-id": "sent-PMC3594181-medscan-116", 
            "frame-type": "sentence", 
            "object-type": "frame", 
            "start-pos": {
                "object-type": "absolute-pos", 
                "offset": 116
            }, 
            "text": "At 24 hours post-transfection, cells were treated with 20 ng/ml TNF-\u03b1 for 30 minutes, and cell lysates were prepared and detected by immunoblotting with an anti-NF-\u03baB-p65 (pSer276) antibody."
        }, 
        {
            "frame-id": "sent-PMC3594181-medscan-117", 
            "frame-type": "sentence", 
            "object-type": "frame", 
            "start-pos": {
                "object-type": "absolute-pos", 
                "offset": 117
            }, 
            "text": "B."
        }, 
        {
            "frame-id": "sent-PMC3594181-medscan-118", 
            "frame-type": "sentence", 
            "object-type": "frame", 
            "start-pos": {
                "object-type": "absolute-pos", 
                "offset": 118
            }, 
            "text": "HEK293T cells were co-transfected with plasmid p65 plus: lane 1: mitogen-activated protein kinase kinase 6 + p38; lane 2: mitogen-activated protein kinase kinase 6 + p38 + MSK1 + pEGFP; lane 3: mitogen-activated protein kinase kinase 6 + p38 + MSK1 + virus002-GFP fusion protein; lane 4: mitogen-activated protein kinase kinase 6 + p38 + MSK1 + 002GM1; lane 5: mitogen-activated protein kinase kinase 6 + p38 + MSK1 + 002GM2; lane 6: mitogen-activated protein kinase kinase 6 + MSK1 + 002GM1; lane 7: p38 + MSK1 + 002GM2; lane 8: mitogen-activated protein kinase kinase 6 + MSk1 + 002GM2; lane 9: mitogen-activated protein kinase kinase 6 + p38 + MSK1 + 002GM3."
        }, 
        {
            "frame-id": "sent-PMC3594181-medscan-119", 
            "frame-type": "sentence", 
            "object-type": "frame", 
            "start-pos": {
                "object-type": "absolute-pos", 
                "offset": 119
            }, 
            "text": "At 24 hours post-transfection, cells were treated with 20 ng/ml TNF-\u03b1 for 30 minutes, and cell lysates were prepared and detected by immunoblotting with an anti-NF-\u03baB-p65 (pSer276) phosphorylation antibody antibody."
        }, 
        {
            "frame-id": "sent-PMC3594181-medscan-120", 
            "frame-type": "sentence", 
            "object-type": "frame", 
            "start-pos": {
                "object-type": "absolute-pos", 
                "offset": 120
            }, 
            "text": "C."
        }, 
        {
            "frame-id": "sent-PMC3594181-medscan-121", 
            "frame-type": "sentence", 
            "object-type": "frame", 
            "start-pos": {
                "object-type": "absolute-pos", 
                "offset": 121
            }, 
            "text": "The relative densitometry of NF-\u03baB p65 (pSer276) phosphorylation bands normalized to the level for loading control (GAPDH)."
        }, 
        {
            "frame-id": "sent-PMC3594181-medscan-122", 
            "frame-type": "sentence", 
            "object-type": "frame", 
            "start-pos": {
                "object-type": "absolute-pos", 
                "offset": 122
            }, 
            "text": "The results are representative of three independent experiments."
        }, 
        {
            "frame-id": "sent-PMC3594181-medscan-123", 
            "frame-type": "sentence", 
            "object-type": "frame", 
            "start-pos": {
                "object-type": "absolute-pos", 
                "offset": 123
            }, 
            "text": "No significant difference."
        }, 
        {
            "frame-id": "sent-PMC3594181-medscan-124", 
            "frame-type": "sentence", 
            "object-type": "frame", 
            "start-pos": {
                "object-type": "absolute-pos", 
                "offset": 124
            }, 
            "text": "To investigate the role of orf virus002 in the interaction of NF-\u03baB p65 and MSK1, HEK293T cells were transiently transfected using expression vectors for NF-\u03baB p65, Flag-MSK1 plus GFP, or virus002-GFP fusion protein or 002GM1 with expression vectors for mitogen-activated protein kinase kinase 6 and p38."
        }, 
        {
            "frame-id": "sent-PMC3594181-medscan-125", 
            "frame-type": "sentence", 
            "object-type": "frame", 
            "start-pos": {
                "object-type": "absolute-pos", 
                "offset": 125
            }, 
            "text": "At 24 hours post-transfection cells were treated with 20 ng/ml TNF-\u03b1 for 30 minutes and cell lysates were prepared for immunoprecipitation with an anti-Flag-MSK1 antibody."
        }, 
        {
            "frame-id": "sent-PMC3594181-medscan-126", 
            "frame-type": "sentence", 
            "object-type": "frame", 
            "start-pos": {
                "object-type": "absolute-pos", 
                "offset": 126
            }, 
            "text": "Co-precipitating NF-\u03baB p65 was detected by immunoblotting using an anti- NF-\u03baB p65 antibody."
        }, 
        {
            "frame-id": "sent-PMC3594181-medscan-127", 
            "frame-type": "sentence", 
            "object-type": "frame", 
            "start-pos": {
                "object-type": "absolute-pos", 
                "offset": 127
            }, 
            "text": "To monitor the activation status of MSK1 blots were stripped and re-probed using an anti-MSK1 antibody."
        }, 
        {
            "frame-id": "sent-PMC3594181-medscan-128", 
            "frame-type": "sentence", 
            "object-type": "frame", 
            "start-pos": {
                "object-type": "absolute-pos", 
                "offset": 128
            }, 
            "text": "The results showed that the MSK1 and NF-\u03baB p65 indeed interact and that orf virus002 and the intact N-terminus of orf virus002 (002GM3 and 002GM4) interfere with the interaction between NF-\u03baB p65 and MSK1 ( , lane 4 and B lane 1, 4 and 5)."
        }, 
        {
            "frame-id": "sent-PMC3594181-medscan-129", 
            "frame-type": "sentence", 
            "object-type": "frame", 
            "start-pos": {
                "object-type": "absolute-pos", 
                "offset": 129
            }, 
            "text": "There was no significant effect of 002GM1 and 002GM2 on the interaction between NF-\u03baB p65 and MSK1 as compared to GFP alone, a negative control ( , lanes 3 and 5; or 8B, lanes 2 and 3)."
        }, 
        {
            "frame-id": "sent-PMC3594181-medscan-130", 
            "frame-type": "sentence", 
            "object-type": "frame", 
            "start-pos": {
                "object-type": "absolute-pos", 
                "offset": 130
            }, 
            "text": "HEK293T cells were transiently transfected using expression vectors for NF-\u03baB p65, Flag-MSK1 plus GFP, virus002-GFP fusion protein or 002GM1-4 (A and B)."
        }, 
        {
            "frame-id": "sent-PMC3594181-medscan-131", 
            "frame-type": "sentence", 
            "object-type": "frame", 
            "start-pos": {
                "object-type": "absolute-pos", 
                "offset": 131
            }, 
            "text": "Activation of MSK1 was achieved by co-transfecting mitogen-activated protein kinase kinase 6 and p38 kinase."
        }, 
        {
            "frame-id": "sent-PMC3594181-medscan-132", 
            "frame-type": "sentence", 
            "object-type": "frame", 
            "start-pos": {
                "object-type": "absolute-pos", 
                "offset": 132
            }, 
            "text": "At 24 hours post-transfection, cells were treated with 20 ng/ml TNF-\u03b1 for 30 minutes, and cell lysates were prepared and subject to immunoprecipitation with anti-Flag-MSK1 antibody."
        }, 
        {
            "frame-id": "sent-PMC3594181-medscan-133", 
            "frame-type": "sentence", 
            "object-type": "frame", 
            "start-pos": {
                "object-type": "absolute-pos", 
                "offset": 133
            }, 
            "text": "Co-precipitating p65 was detected by immunoblotting with an anti-p65 antibody."
        }, 
        {
            "frame-id": "sent-PMC3594181-medscan-134", 
            "frame-type": "sentence", 
            "object-type": "frame", 
            "start-pos": {
                "object-type": "absolute-pos", 
                "offset": 134
            }, 
            "text": "To monitor the activation status of MSK1, blots were stripped and reprobed using an anti- MSK1 antibody."
        }, 
        {
            "frame-id": "sent-PMC3594181-medscan-135", 
            "frame-type": "sentence", 
            "object-type": "frame", 
            "start-pos": {
                "object-type": "absolute-pos", 
                "offset": 135
            }, 
            "text": "Previous studies showed that orf virus002 inhibits the activation of nuclear factors \u03baB, the master transcriptional regulator of immune response during orf virus infection ."
        }, 
        {
            "frame-id": "sent-PMC3594181-medscan-136", 
            "frame-type": "sentence", 
            "object-type": "frame", 
            "start-pos": {
                "object-type": "absolute-pos", 
                "offset": 136
            }, 
            "text": "In this study the luciferase assay showed that orf virus002 mutants lacking the N-terminus did not inhibit activation of nuclear factors \u03baB, while wild type orf virus002 and deletion mutants of orf virus002 retaining an intact N-terminus did inhibit activation of nuclear factors \u03baB."
        }, 
        {
            "frame-id": "sent-PMC3594181-medscan-137", 
            "frame-type": "sentence", 
            "object-type": "frame", 
            "start-pos": {
                "object-type": "absolute-pos", 
                "offset": 137
            }, 
            "text": "This result confirmed that the N-terminus of orf virus002 is important for inhibiting nuclear factors \u03baB activation."
        }, 
        {
            "frame-id": "sent-PMC3594181-medscan-138", 
            "frame-type": "sentence", 
            "object-type": "frame", 
            "start-pos": {
                "object-type": "absolute-pos", 
                "offset": 138
            }, 
            "text": "The post-translational modifications of nuclear factors \u03baB, including site-specific phosphorylation and acetylation, are important for the optimal transactivation activity of nuclear factors \u03baB , ."
        }, 
        {
            "frame-id": "sent-PMC3594181-medscan-139", 
            "frame-type": "sentence", 
            "object-type": "frame", 
            "start-pos": {
                "object-type": "absolute-pos", 
                "offset": 139
            }, 
            "text": "In this study we revealed that the N-terminus of orf virus002 inhibits nuclear factors \u03baB from stimulating transcription by blocking phosphorylation of NF-\u03baB p65Ser276//276 but not Ser536//536."
        }, 
        {
            "frame-id": "sent-PMC3594181-medscan-140", 
            "frame-type": "sentence", 
            "object-type": "frame", 
            "start-pos": {
                "object-type": "absolute-pos", 
                "offset": 140
            }, 
            "text": "Usually NF-\u03baB p65 is phosphorylated by the protein kinase A (PKA) upon lipopolysaccharide triggering or mitogen- and stress-activated kinase-1 (MSK1) after TNF-stimulation ."
        }, 
        {
            "frame-id": "sent-PMC3594181-medscan-141", 
            "frame-type": "sentence", 
            "object-type": "frame", 
            "start-pos": {
                "object-type": "absolute-pos", 
                "offset": 141
            }, 
            "text": "In our research, we transfected mitogen-activated protein kinase kinase 6 and p38 kinases and used TNF-\u03b1 to activate MSK1 in HEK293T cells."
        }, 
        {
            "frame-id": "sent-PMC3594181-medscan-142", 
            "frame-type": "sentence", 
            "object-type": "frame", 
            "start-pos": {
                "object-type": "absolute-pos", 
                "offset": 142
            }, 
            "text": "The HEK293T cells were co-transfected with NF-\u03baB p65, and GFP, virus002-GFP fusion protein, 002GM1 or 002GM4, plus plasmids expressing mitogen-activated protein kinase kinase 6 and p38 to investigate the role of orf virus002 on MSK1 and status of p65Ser276//276 phosphorylation."
        }, 
        {
            "frame-id": "sent-PMC3594181-medscan-143", 
            "frame-type": "sentence", 
            "object-type": "frame", 
            "start-pos": {
                "object-type": "absolute-pos", 
                "offset": 143
            }, 
            "text": "The results showed that NF-\u03baB p65 is phosphorylated at Ser276//276 by MSK1 after TNF-\u03b1 stimulation, which is consistent with previous studies , - and orf virus002, and its C-terminal deletion mutants 002GM3 and 002GM4, significantly inhibited the activation of NF-\u03baB p65 through MSK1."
        }, 
        {
            "frame-id": "sent-PMC3594181-medscan-144", 
            "frame-type": "sentence", 
            "object-type": "frame", 
            "start-pos": {
                "object-type": "absolute-pos", 
                "offset": 144
            }, 
            "text": "Our results also showed that orf virus002 interfered with the interaction between NF-\u03baB p65 and MSK1."
        }, 
        {
            "frame-id": "sent-PMC3594181-medscan-145", 
            "frame-type": "sentence", 
            "object-type": "frame", 
            "start-pos": {
                "object-type": "absolute-pos", 
                "offset": 145
            }, 
            "text": "Based on these results, orf virus002 inhibited NF-\u03baB p65 phosphorylation by a competitive inhibition of interactions between MSK1 and NF-\u03baB p65 by orf virus002, which further inhibited the acetylation of NF-\u03baB p65 at Lys310//310."
        }, 
        {
            "frame-id": "sent-PMC3594181-medscan-146", 
            "frame-type": "sentence", 
            "object-type": "frame", 
            "start-pos": {
                "object-type": "absolute-pos", 
                "offset": 146
            }, 
            "text": "It has been confirmed that phosphorylated NF-\u03baB p65 could recruit the transcriptional co-activators such as p300 and CBP to the nuclear factors \u03baB-bound promoter and facilitate DNA binding ability of NF-\u03baB p65 - ."
        }, 
        {
            "frame-id": "sent-PMC3594181-medscan-147", 
            "frame-type": "sentence", 
            "object-type": "frame", 
            "start-pos": {
                "object-type": "absolute-pos", 
                "offset": 147
            }, 
            "text": "Also, through its N-terminal regions, orf virus002 inhibits phosphorylation of NF-\u03baB p65 at the Ser276//276 site, interfering with interactions with other transcriptional co-activators, such as p300 and CBP."
        }, 
        {
            "frame-id": "sent-PMC3594181-medscan-148", 
            "frame-type": "sentence", 
            "object-type": "frame", 
            "start-pos": {
                "object-type": "absolute-pos", 
                "offset": 148
            }, 
            "text": "As shown in the previous report, orf virus002 can physically interact with NF-\u03baB p65 ."
        }, 
        {
            "frame-id": "sent-PMC3594181-medscan-149", 
            "frame-type": "sentence", 
            "object-type": "frame", 
            "start-pos": {
                "object-type": "absolute-pos", 
                "offset": 149
            }, 
            "text": "It is possible that the N-terminus of orf virus002 affects NF-\u03baB p65 (Lys310//310) acetylation through blocking phosphorylation of NF-\u03baB p65 (Ser276//276) and preventing nuclear factors \u03baB-dependent transcriptional activation."
        }, 
        {
            "frame-id": "sent-PMC3594181-medscan-150", 
            "frame-type": "sentence", 
            "object-type": "frame", 
            "start-pos": {
                "object-type": "absolute-pos", 
                "offset": 150
            }, 
            "text": "Furthermore, confocal microscopy analysis of orf virus002 mutants and the detection of low levels of NF-\u03baB p65 (pSer276) in nuclear extracts of cells expressing orf virus002 deletion mutants retaining an intact N-terminus confirm that the N-terminus of orf virus002 is sufficient to inhibit phosphorylation of NF-\u03baB p65 at Ser276//276 in the nucleus."
        }, 
        {
            "frame-id": "sent-PMC3594181-medscan-151", 
            "frame-type": "sentence", 
            "object-type": "frame", 
            "start-pos": {
                "object-type": "absolute-pos", 
                "offset": 151
            }, 
            "text": "Many studies have shown that nuclear kinase MSK1 is a candidate for phosphorylation of NF-\u03baB p65 at Ser276//276, which acts downstream of p38 and ERK mitogen-activated protein kinases in response to TNF-\u03b1, associates with NF-\u03baB p65 in a stimulus-dependent manner and specifically phosphorylates the serine residue at position 276//276, thus leading to its positioning at nuclear factors \u03baB-containing promoter sections and selective stimulation of particular nuclear factors \u03baB-driven genes , , ."
        }, 
        {
            "frame-id": "sent-PMC3594181-medscan-152", 
            "frame-type": "sentence", 
            "object-type": "frame", 
            "start-pos": {
                "object-type": "absolute-pos", 
                "offset": 152
            }, 
            "text": "In this study we present the first data to show that orf virus002 and its N-terminus inhibit NF-\u03baB p65Ser276//276 phosphorylation by MSK1 activation pathway."
        }, 
        {
            "frame-id": "sent-PMC3594181-medscan-153", 
            "frame-type": "sentence", 
            "object-type": "frame", 
            "start-pos": {
                "object-type": "absolute-pos", 
                "offset": 153
            }, 
            "text": "Levels of NF-\u03baB p65 phosphorylated at Ser276//276 was increased by TNF-\u03b1 treatment when NF-\u03baB p65 and MSK1 were co-transfected with mitogen-activated protein kinase kinase 6 and p38 ( , line 3 and B, lane 2), whereas phosphorylation of NF-\u03baB p65 at Ser276//276 was only partially increased when p65 and MSK1 were co-transfected with mitogen-activated protein kinase kinase 6 or p38 alone ( , lane 6, 7 and 8), suggesting that mitogen-activated protein kinase kinase 6 and p38 were required for full activation of MSK1 and nuclear factors \u03baB-driven gene transcription in response to TNF-\u03b1."
        }, 
        {
            "frame-id": "sent-PMC3594181-medscan-154", 
            "frame-type": "sentence", 
            "object-type": "frame", 
            "start-pos": {
                "object-type": "absolute-pos", 
                "offset": 154
            }, 
            "text": "These results are consistent with previous observations , , ."
        }, 
        {
            "frame-id": "sent-PMC3594181-medscan-155", 
            "frame-type": "sentence", 
            "object-type": "frame", 
            "start-pos": {
                "object-type": "absolute-pos", 
                "offset": 155
            }, 
            "text": "Taken together, a model of the phosphorylation pathways inhibited by orf virus002 is presented in , in which cytoplasmic NF- \u03baB activation is followed by nuclear phosphorylation of the p65 subunit at Ser276//276."
        }, 
        {
            "frame-id": "sent-PMC3594181-medscan-156", 
            "frame-type": "sentence", 
            "object-type": "frame", 
            "start-pos": {
                "object-type": "absolute-pos", 
                "offset": 156
            }, 
            "text": "Binding of TNF to its receptor causes TNF to its receptor to phosphorylate I\u03baB\u03b1, and NF-\u03baB p65 at Ser536//536, freeing NF-\u03baB p50/p65 (pSer536) from I\u03baB\u03b1, and allowing NF-\u03baB p50/p65 (pSer536) to translocate to the nucleus."
        }, 
        {
            "frame-id": "sent-PMC3594181-medscan-157", 
            "frame-type": "sentence", 
            "object-type": "frame", 
            "start-pos": {
                "object-type": "absolute-pos", 
                "offset": 157
            }, 
            "text": "Stimulation by TNF also activates p38 kinase and ERK mitogen-activated protein kinase kinases, both of which can activate MSK1 independently, with maximal activation requiring phosphorylation of MSK1 by both kinases."
        }, 
        {
            "frame-id": "sent-PMC3594181-medscan-158", 
            "frame-type": "sentence", 
            "object-type": "frame", 
            "start-pos": {
                "object-type": "absolute-pos", 
                "offset": 158
            }, 
            "text": "In the nucleus, activated MSK1 phosphorylates NF-\u03baB p65 at Ser276//276, resulting in fully functional nuclear factors \u03baB that can interact with other transcriptional activators, such as p300, to drive transcription of nuclear factors \u03baB-regulated genes."
        }, 
        {
            "frame-id": "sent-PMC3594181-medscan-159", 
            "frame-type": "sentence", 
            "object-type": "frame", 
            "start-pos": {
                "object-type": "absolute-pos", 
                "offset": 159
            }, 
            "text": "Wild type orf virus002 (virus002-GFP fusion protein) and C-terminal deletion mutants of orf virus002 (002GM3 and 002GM4) can block MSK1 phosphorylation of NF-\u03baB p65 at Ser276//276, while N-terminal deletion mutants of orf virus002 (002GM1 and 002GM2) cannot."
        }, 
        {
            "frame-id": "sent-PMC3594181-medscan-160", 
            "frame-type": "sentence", 
            "object-type": "frame", 
            "start-pos": {
                "object-type": "absolute-pos", 
                "offset": 160
            }, 
            "text": "SB203580, PD98059, and H89 are inhibitors of p38 activation of MSK1, mitogen-activated protein kinase activation of MSK1 and the ability of activate MSK1 to phosphorylate NF-\u03baB p65, respectively (See Ref )."
        }, 
        {
            "frame-id": "sent-PMC3594181-medscan-161", 
            "frame-type": "sentence", 
            "object-type": "frame", 
            "start-pos": {
                "object-type": "absolute-pos", 
                "offset": 161
            }, 
            "text": "Binding of TNF to its receptor causes TNF to its receptor to phosphorylate I\u03baB\u03b1, and NF-\u03baB p65 at Ser536//536, freeing NF-\u03baB p50/p65 (pSer536) from I\u03baB\u03b1, and allowing NF-\u03baB p50/p65 (pSer536) to translocate to the nucleus."
        }, 
        {
            "frame-id": "sent-PMC3594181-medscan-162", 
            "frame-type": "sentence", 
            "object-type": "frame", 
            "start-pos": {
                "object-type": "absolute-pos", 
                "offset": 162
            }, 
            "text": "After stimulation by TNF p38 and ERK mitogen-activated protein kinase kinases were also activated, both of which can activate MSK1 independently, with maximal activation requiring phosphorylation of MSK1 by both kinases."
        }, 
        {
            "frame-id": "sent-PMC3594181-medscan-163", 
            "frame-type": "sentence", 
            "object-type": "frame", 
            "start-pos": {
                "object-type": "absolute-pos", 
                "offset": 163
            }, 
            "text": "In the nucleus, activated MSK1 phosphorylates NF-\u03baB p65 at Ser276//276, resulting in fully functional nuclear factors \u03baB that can interact with other transcriptional activators, such as p300, to drive transcription of nuclear factors \u03baB-regulated genes."
        }, 
        {
            "frame-id": "sent-PMC3594181-medscan-164", 
            "frame-type": "sentence", 
            "object-type": "frame", 
            "start-pos": {
                "object-type": "absolute-pos", 
                "offset": 164
            }, 
            "text": "Wild type orf virus002 (virus002-GFP fusion protein) and C-terminal deletion mutants of orf virus002 (002GM3 and 002GM4) can block MSK1 phosphorylation of NF-\u03baB p65 at Ser276//276, while N-terminal deletion mutants of orf virus002 (002GM1 and 002GM2) cannot."
        }, 
        {
            "frame-id": "sent-PMC3594181-medscan-165", 
            "frame-type": "sentence", 
            "object-type": "frame", 
            "start-pos": {
                "object-type": "absolute-pos", 
                "offset": 165
            }, 
            "text": "SB203580, PD98059, and H89 are inhibitors of p38 activation of MSK1, mitogen-activated protein kinase activation of MSK1 and the ability of activate MSK1 to phosphorylate NF-\u03baB p65, respectively (See Ref )."
        }, 
        {
            "frame-id": "sent-PMC3594181-medscan-166", 
            "frame-type": "sentence", 
            "object-type": "frame", 
            "start-pos": {
                "object-type": "absolute-pos", 
                "offset": 166
            }, 
            "text": "In conclusion the N-terminus of orf virus002 can inhibit phosphorylation of NF- \u03baB p65Ser276//276 by weakening the interaction of MSK1 and NF-\u03baB p65 and by blocking the acetylation of NF-\u03baB p65."
        }, 
        {
            "frame-id": "sent-PMC3594181-medscan-167", 
            "frame-type": "sentence", 
            "object-type": "frame", 
            "start-pos": {
                "object-type": "absolute-pos", 
                "offset": 167
            }, 
            "text": "This is the first identification of a novel function of orf virus002 protein, in which it can inhibit the nuclear factors \u03baB signaling pathway through its N-terminus (residues 1 to 52)."
        }
    ], 
    "object-meta": {
        "component": "MedScan", 
        "component-type": "machine", 
        "doc-id": "PMC3594181", 
        "object-type": "meta-info", 
        "organization": "CMU"
    }, 
    "object-type": "frame-collection"
}
