{
  "evidence": ["An increased phosphorylation of Chk1 at Ser317 and p53 Ser15 was detected in HCT116+ chr3 , HCT116-mlh1-2 and Lovo+ chr2 cells and an accumulation of p21waf1 and cip1 in HCT116 and HCT116+ chr3 cells .","phosphorylation of Chk1 at Ser317 and p53 Ser15"],
  "extracted_information": {
    "interaction_type": "adds_modification",
    "negative_information": false,
    "modifications": [
      {
        "modification_type": "phosphorylation",
        "site": 317
      },
      {
        "modification_type": "phosphorylation",
        "site": 15
      }
    ],
    "participant_b": {
      "entity_text": "Chk1",
      "entity_type": "protein",
      "identifier": "Uniprot:O14757",
      "in_model": true
    }
  },
  "fries_provenance": [
    {
      "component": "REACH",
      "frame-file": "PMC2564829.uaz.events",
      "frame-id": "evem-PMC2564829-UAZ-r1-51-2-11",
      "passage-id": "pass-PMC2564829-UAZ-r1-51",
      "passage-number": 51,
      "passage-section-id": "fig-3",
      "passage-section-name": "fig-3",
      "sentence": "An increased phosphorylation of Chk1 at Ser317 and p53 Ser15 was detected in HCT116+ chr3 , HCT116-mlh1-2 and Lovo+ chr2 cells and an accumulation of p21waf1 and cip1 in HCT116 and HCT116+ chr3 cells .",
      "text": "phosphorylation of Chk1 at Ser317 and p53 Ser15",
      "uaz-sentence": "An increased phosphorylation of Chk1 at Ser317 and p53 Ser15 was detected in HCT116+ chr3 , HCT116-mlh1-2 and Lovo+ chr2 cells and an accumulation of p21waf1 and cip1 in HCT116 and HCT116+ chr3 cells .",
      "uaz-sentence-start": 347
    }
  ],
  "model_relation": "extension",
  "pmc_id": "PMC2564829",
  "reader_type": "machine",
  "reading_complete": "2015-06-15T20:32:34Z",
  "reading_started": "2015-06-15T20:32:29Z",
  "submitter": "FRIES"
}
