{
  "frames":[
    {
      "frame-id":"evem-PMC3110823-UAZ-r1-2-4-1",
      "text":"arsenic induces reactive oxygen",
      "arguments":[
        {
          "text":"oxygen",
          "argument-type":"entity",
          "object-type":"argument",
          "index":0,
          "argument-label":"controlled",
          "arg":"ment-PMC3110823-UAZ-r1-2-4-6"
        },
        {
          "text":"arsenic",
          "argument-type":"entity",
          "object-type":"argument",
          "index":0,
          "argument-label":"controller",
          "arg":"ment-PMC3110823-UAZ-r1-2-4-5"
        }
      ],
      "type":"activation",
      "frame-type":"event-mention",
      "subtype":"positive-activation",
      "end-pos":{
        "reference":"pass-PMC3110823-UAZ-r1-2",
        "offset":639,
        "object-type":"relative-pos"
      },
      "object-type":"frame",
      "start-pos":{
        "reference":"pass-PMC3110823-UAZ-r1-2",
        "offset":608,
        "object-type":"relative-pos"
      },
      "sentence":"sent-PMC3110823-UAZ-r1-2-4",
      "found-by":"Positive_activation_syntax_1_verb",
      "object-meta":{
        "component":"REACH",
        "object-type":"meta-info"
      },
      "verbose-text":"To study the molecular mechanism of arsenic inducing angiogenesis , we find that arsenic induces reactive oxygen species ( ROS ) generation , which activates AKT and ERK1 and 2 signaling pathways and increases the expression of hypoxia inducible factor 1 ( HIF-1 ) and vascular endothelial growth factor ( VEGF ) ."
    },
    {
      "frame-id":"evem-PMC3110823-UAZ-r1-2-5-2",
      "text":"ROS production suppresses angiogenesis by decreasing AKT",
      "arguments":[
        {
          "text":"AKT",
          "argument-type":"entity",
          "object-type":"argument",
          "index":0,
          "argument-label":"controlled",
          "arg":"ment-PMC3110823-UAZ-r1-2-5-15"
        },
        {
          "text":"ROS",
          "argument-type":"entity",
          "object-type":"argument",
          "index":0,
          "argument-label":"controller",
          "arg":"ment-PMC3110823-UAZ-r1-2-5-14"
        }
      ],
      "type":"activation",
      "frame-type":"event-mention",
      "subtype":"negative-activation",
      "end-pos":{
        "reference":"pass-PMC3110823-UAZ-r1-2",
        "offset":900,
        "object-type":"relative-pos"
      },
      "object-type":"frame",
      "start-pos":{
        "reference":"pass-PMC3110823-UAZ-r1-2",
        "offset":844,
        "object-type":"relative-pos"
      },
      "sentence":"sent-PMC3110823-UAZ-r1-2-5",
      "found-by":"Negative_activation_syntax_1_verb",
      "object-meta":{
        "component":"REACH",
        "object-type":"meta-info"
      },
      "verbose-text":"Inhibition of ROS production suppresses angiogenesis by decreasing AKT and ERK activation and HIF-1 expression ."
    },
    {
      "frame-id":"evem-PMC3110823-UAZ-r1-2-5-3",
      "text":"ROS production suppresses angiogenesis by decreasing AKT and ERK",
      "arguments":[
        {
          "text":"ERK",
          "argument-type":"entity",
          "object-type":"argument",
          "index":0,
          "argument-label":"controlled",
          "arg":"ment-PMC3110823-UAZ-r1-2-5-16"
        },
        {
          "text":"ROS",
          "argument-type":"entity",
          "object-type":"argument",
          "index":0,
          "argument-label":"controller",
          "arg":"ment-PMC3110823-UAZ-r1-2-5-14"
        }
      ],
      "type":"activation",
      "frame-type":"event-mention",
      "subtype":"negative-activation",
      "end-pos":{
        "reference":"pass-PMC3110823-UAZ-r1-2",
        "offset":908,
        "object-type":"relative-pos"
      },
      "object-type":"frame",
      "start-pos":{
        "reference":"pass-PMC3110823-UAZ-r1-2",
        "offset":844,
        "object-type":"relative-pos"
      },
      "sentence":"sent-PMC3110823-UAZ-r1-2-5",
      "found-by":"Negative_activation_syntax_1_verb",
      "object-meta":{
        "component":"REACH",
        "object-type":"meta-info"
      },
      "verbose-text":"Inhibition of ROS production suppresses angiogenesis by decreasing AKT and ERK activation and HIF-1 expression ."
    },
    {
      "frame-id":"evem-PMC3110823-UAZ-r1-2-5-4",
      "text":"ROS production suppresses angiogenesis by decreasing AKT and ERK activation and HIF-1",
      "arguments":[
        {
          "text":"HIF-1",
          "argument-type":"entity",
          "object-type":"argument",
          "index":0,
          "argument-label":"controlled",
          "arg":"ment-PMC3110823-UAZ-r1-2-5-17"
        },
        {
          "text":"ROS",
          "argument-type":"entity",
          "object-type":"argument",
          "index":0,
          "argument-label":"controller",
          "arg":"ment-PMC3110823-UAZ-r1-2-5-14"
        }
      ],
      "type":"activation",
      "frame-type":"event-mention",
      "subtype":"negative-activation",
      "end-pos":{
        "reference":"pass-PMC3110823-UAZ-r1-2",
        "offset":929,
        "object-type":"relative-pos"
      },
      "object-type":"frame",
      "start-pos":{
        "reference":"pass-PMC3110823-UAZ-r1-2",
        "offset":844,
        "object-type":"relative-pos"
      },
      "sentence":"sent-PMC3110823-UAZ-r1-2-5",
      "found-by":"Negative_activation_syntax_1_verb",
      "object-meta":{
        "component":"REACH",
        "object-type":"meta-info"
      },
      "verbose-text":"Inhibition of ROS production suppresses angiogenesis by decreasing AKT and ERK activation and HIF-1 expression ."
    },
    {
      "frame-id":"evem-PMC3110823-UAZ-r1-2-4-5",
      "text":"oxygen species (ROS) generation, which activates AKT",
      "arguments":[
        {
          "text":"AKT",
          "argument-type":"entity",
          "object-type":"argument",
          "index":0,
          "argument-label":"controlled",
          "arg":"ment-PMC3110823-UAZ-r1-2-4-8"
        },
        {
          "text":"oxygen",
          "argument-type":"entity",
          "object-type":"argument",
          "index":0,
          "argument-label":"controller",
          "arg":"ment-PMC3110823-UAZ-r1-2-4-6"
        }
      ],
      "type":"activation",
      "frame-type":"event-mention",
      "subtype":"positive-activation",
      "end-pos":{
        "reference":"pass-PMC3110823-UAZ-r1-2",
        "offset":685,
        "object-type":"relative-pos"
      },
      "object-type":"frame",
      "start-pos":{
        "reference":"pass-PMC3110823-UAZ-r1-2",
        "offset":633,
        "object-type":"relative-pos"
      },
      "sentence":"sent-PMC3110823-UAZ-r1-2-4",
      "found-by":"Positive_activation_syntax_5_verb",
      "object-meta":{
        "component":"REACH",
        "object-type":"meta-info"
      },
      "verbose-text":"To study the molecular mechanism of arsenic inducing angiogenesis , we find that arsenic induces reactive oxygen species ( ROS ) generation , which activates AKT and ERK1 and 2 signaling pathways and increases the expression of hypoxia inducible factor 1 ( HIF-1 ) and vascular endothelial growth factor ( VEGF ) ."
    },
    {
      "frame-id":"evem-PMC3110823-UAZ-r1-2-4-6",
      "text":"oxygen species (ROS) generation, which activates AKT and ERK1",
      "arguments":[
        {
          "text":"ERK1",
          "argument-type":"entity",
          "object-type":"argument",
          "index":0,
          "argument-label":"controlled",
          "arg":"ment-PMC3110823-UAZ-r1-2-4-9"
        },
        {
          "text":"oxygen",
          "argument-type":"entity",
          "object-type":"argument",
          "index":0,
          "argument-label":"controller",
          "arg":"ment-PMC3110823-UAZ-r1-2-4-6"
        }
      ],
      "type":"activation",
      "frame-type":"event-mention",
      "subtype":"positive-activation",
      "end-pos":{
        "reference":"pass-PMC3110823-UAZ-r1-2",
        "offset":694,
        "object-type":"relative-pos"
      },
      "object-type":"frame",
      "start-pos":{
        "reference":"pass-PMC3110823-UAZ-r1-2",
        "offset":633,
        "object-type":"relative-pos"
      },
      "sentence":"sent-PMC3110823-UAZ-r1-2-4",
      "found-by":"Positive_activation_syntax_5_verb",
      "object-meta":{
        "component":"REACH",
        "object-type":"meta-info"
      },
      "verbose-text":"To study the molecular mechanism of arsenic inducing angiogenesis , we find that arsenic induces reactive oxygen species ( ROS ) generation , which activates AKT and ERK1 and 2 signaling pathways and increases the expression of hypoxia inducible factor 1 ( HIF-1 ) and vascular endothelial growth factor ( VEGF ) ."
    },
    {
      "frame-id":"evem-PMC3110823-UAZ-r1-2-4-7",
      "text":"ROS) generation, which activates AKT",
      "arguments":[
        {
          "text":"AKT",
          "argument-type":"entity",
          "object-type":"argument",
          "index":0,
          "argument-label":"controlled",
          "arg":"ment-PMC3110823-UAZ-r1-2-4-8"
        },
        {
          "text":"ROS",
          "argument-type":"entity",
          "object-type":"argument",
          "index":0,
          "argument-label":"controller",
          "arg":"ment-PMC3110823-UAZ-r1-2-4-7"
        }
      ],
      "type":"activation",
      "frame-type":"event-mention",
      "subtype":"positive-activation",
      "end-pos":{
        "reference":"pass-PMC3110823-UAZ-r1-2",
        "offset":685,
        "object-type":"relative-pos"
      },
      "object-type":"frame",
      "start-pos":{
        "reference":"pass-PMC3110823-UAZ-r1-2",
        "offset":649,
        "object-type":"relative-pos"
      },
      "sentence":"sent-PMC3110823-UAZ-r1-2-4",
      "found-by":"Positive_activation_syntax_5_verb",
      "object-meta":{
        "component":"REACH",
        "object-type":"meta-info"
      },
      "verbose-text":"To study the molecular mechanism of arsenic inducing angiogenesis , we find that arsenic induces reactive oxygen species ( ROS ) generation , which activates AKT and ERK1 and 2 signaling pathways and increases the expression of hypoxia inducible factor 1 ( HIF-1 ) and vascular endothelial growth factor ( VEGF ) ."
    },
    {
      "frame-id":"evem-PMC3110823-UAZ-r1-2-4-8",
      "text":"ROS) generation, which activates AKT and ERK1",
      "arguments":[
        {
          "text":"ERK1",
          "argument-type":"entity",
          "object-type":"argument",
          "index":0,
          "argument-label":"controlled",
          "arg":"ment-PMC3110823-UAZ-r1-2-4-9"
        },
        {
          "text":"ROS",
          "argument-type":"entity",
          "object-type":"argument",
          "index":0,
          "argument-label":"controller",
          "arg":"ment-PMC3110823-UAZ-r1-2-4-7"
        }
      ],
      "type":"activation",
      "frame-type":"event-mention",
      "subtype":"positive-activation",
      "end-pos":{
        "reference":"pass-PMC3110823-UAZ-r1-2",
        "offset":694,
        "object-type":"relative-pos"
      },
      "object-type":"frame",
      "start-pos":{
        "reference":"pass-PMC3110823-UAZ-r1-2",
        "offset":649,
        "object-type":"relative-pos"
      },
      "sentence":"sent-PMC3110823-UAZ-r1-2-4",
      "found-by":"Positive_activation_syntax_5_verb",
      "object-meta":{
        "component":"REACH",
        "object-type":"meta-info"
      },
      "verbose-text":"To study the molecular mechanism of arsenic inducing angiogenesis , we find that arsenic induces reactive oxygen species ( ROS ) generation , which activates AKT and ERK1 and 2 signaling pathways and increases the expression of hypoxia inducible factor 1 ( HIF-1 ) and vascular endothelial growth factor ( VEGF ) ."
    },
    {
      "frame-id":"evem-PMC3110823-UAZ-r1-7-4-9",
      "text":"arsenic induced VEGF",
      "arguments":[
        {
          "text":"VEGF",
          "argument-type":"entity",
          "object-type":"argument",
          "index":0,
          "argument-label":"controlled",
          "arg":"ment-PMC3110823-UAZ-r1-7-4-37"
        },
        {
          "text":"arsenic",
          "argument-type":"entity",
          "object-type":"argument",
          "index":0,
          "argument-label":"controller",
          "arg":"ment-PMC3110823-UAZ-r1-7-4-36"
        }
      ],
      "type":"activation",
      "frame-type":"event-mention",
      "subtype":"positive-activation",
      "end-pos":{
        "reference":"pass-PMC3110823-UAZ-r1-7",
        "offset":646,
        "object-type":"relative-pos"
      },
      "object-type":"frame",
      "start-pos":{
        "reference":"pass-PMC3110823-UAZ-r1-7",
        "offset":626,
        "object-type":"relative-pos"
      },
      "sentence":"sent-PMC3110823-UAZ-r1-7-4",
      "found-by":"Positive_activation_syntax_1_verb",
      "object-meta":{
        "component":"REACH",
        "object-type":"meta-info"
      },
      "verbose-text":"Our previous studies demonstrated that arsenic induced VEGF expression in human prostate cancer cells and tumor angiogenesis     ,     ."
    },
    {
      "is-hypothesis":true,
      "frame-id":"evem-PMC3110823-UAZ-r1-47-8-10",
      "text":"arsenic induces VEGF",
      "arguments":[
        {
          "text":"VEGF",
          "argument-type":"entity",
          "object-type":"argument",
          "index":0,
          "argument-label":"controlled",
          "arg":"ment-PMC3110823-UAZ-r1-47-8-195"
        },
        {
          "text":"arsenic",
          "argument-type":"entity",
          "object-type":"argument",
          "index":0,
          "argument-label":"controller",
          "arg":"ment-PMC3110823-UAZ-r1-47-8-194"
        }
      ],
      "type":"activation",
      "frame-type":"event-mention",
      "subtype":"positive-activation",
      "end-pos":{
        "reference":"pass-PMC3110823-UAZ-r1-47",
        "offset":1163,
        "object-type":"relative-pos"
      },
      "object-type":"frame",
      "start-pos":{
        "reference":"pass-PMC3110823-UAZ-r1-47",
        "offset":1143,
        "object-type":"relative-pos"
      },
      "sentence":"sent-PMC3110823-UAZ-r1-47-8",
      "found-by":"Positive_activation_syntax_1_verb",
      "object-meta":{
        "component":"REACH",
        "object-type":"meta-info"
      },
      "verbose-text":"Similarly , VEGF transcriptional activation was significantly increased by arsenic treatment          , and VEGF mRNA level was induced by arsenic treatment          , suggesting that arsenic induces VEGF expression at transcriptional level ."
    },
    {
      "is-hypothesis":true,
      "frame-id":"evem-PMC3110823-UAZ-r1-47-2-11",
      "text":"arsenic at 5 microM increased AKT",
      "arguments":[
        {
          "text":"AKT",
          "argument-type":"entity",
          "object-type":"argument",
          "index":0,
          "argument-label":"controlled",
          "arg":"ment-PMC3110823-UAZ-r1-47-2-173"
        },
        {
          "text":"arsenic",
          "argument-type":"entity",
          "object-type":"argument",
          "index":0,
          "argument-label":"controller",
          "arg":"ment-PMC3110823-UAZ-r1-47-2-172"
        }
      ],
      "type":"activation",
      "frame-type":"event-mention",
      "subtype":"positive-activation",
      "end-pos":{
        "reference":"pass-PMC3110823-UAZ-r1-47",
        "offset":210,
        "object-type":"relative-pos"
      },
      "object-type":"frame",
      "start-pos":{
        "reference":"pass-PMC3110823-UAZ-r1-47",
        "offset":177,
        "object-type":"relative-pos"
      },
      "sentence":"sent-PMC3110823-UAZ-r1-47-2",
      "found-by":"Positive_activation_syntax_1_verb",
      "object-meta":{
        "component":"REACH",
        "object-type":"meta-info"
      },
      "verbose-text":"We showed that arsenic at 5 microM increased AKT and ERK1 and 2 activation in both A549 and BEAS-2B cells          , suggesting that arsenic can activate these two signaling pathways in lung epithelial and cancer cells ."
    },
    {
      "is-hypothesis":true,
      "frame-id":"evem-PMC3110823-UAZ-r1-47-2-12",
      "text":"arsenic at 5 microM increased AKT and ERK1",
      "arguments":[
        {
          "text":"ERK1",
          "argument-type":"entity",
          "object-type":"argument",
          "index":0,
          "argument-label":"controlled",
          "arg":"ment-PMC3110823-UAZ-r1-47-2-174"
        },
        {
          "text":"arsenic",
          "argument-type":"entity",
          "object-type":"argument",
          "index":0,
          "argument-label":"controller",
          "arg":"ment-PMC3110823-UAZ-r1-47-2-172"
        }
      ],
      "type":"activation",
      "frame-type":"event-mention",
      "subtype":"positive-activation",
      "end-pos":{
        "reference":"pass-PMC3110823-UAZ-r1-47",
        "offset":219,
        "object-type":"relative-pos"
      },
      "object-type":"frame",
      "start-pos":{
        "reference":"pass-PMC3110823-UAZ-r1-47",
        "offset":177,
        "object-type":"relative-pos"
      },
      "sentence":"sent-PMC3110823-UAZ-r1-47-2",
      "found-by":"Positive_activation_syntax_1_verb",
      "object-meta":{
        "component":"REACH",
        "object-type":"meta-info"
      },
      "verbose-text":"We showed that arsenic at 5 microM increased AKT and ERK1 and 2 activation in both A549 and BEAS-2B cells          , suggesting that arsenic can activate these two signaling pathways in lung epithelial and cancer cells ."
    },
    {
      "frame-id":"evem-PMC3110823-UAZ-r1-53-0-13",
      "text":"MAP kinase inhibitors LY294002 and U0126 blocked the activation of phospho-AKT",
      "arguments":[
        {
          "text":"phospho-AKT",
          "argument-type":"entity",
          "object-type":"argument",
          "index":0,
          "argument-label":"controlled",
          "arg":"ment-PMC3110823-UAZ-r1-53-0-233"
        },
        {
          "text":"MAP",
          "argument-type":"entity",
          "object-type":"argument",
          "index":0,
          "argument-label":"controller",
          "arg":"ment-PMC3110823-UAZ-r1-53-0-232"
        }
      ],
      "type":"activation",
      "frame-type":"event-mention",
      "subtype":"positive-activation",
      "end-pos":{
        "reference":"pass-PMC3110823-UAZ-r1-53",
        "offset":123,
        "object-type":"relative-pos"
      },
      "object-type":"frame",
      "start-pos":{
        "reference":"pass-PMC3110823-UAZ-r1-53",
        "offset":45,
        "object-type":"relative-pos"
      },
      "sentence":"sent-PMC3110823-UAZ-r1-53-0",
      "found-by":"Negative_activation_syntax_1_verb",
      "object-meta":{
        "component":"REACH",
        "object-type":"meta-info"
      },
      "verbose-text":"Pre-treatment of BEAS-2B cells with PI3K and MAP kinase inhibitors LY294002 and U0126 blocked the activation of phospho-AKT or phospho-ERK induced by arsenic , and decreased arsenic inducing HIF-1alpha but not HIF-1beta protein levels          ."
    },
    {
      "frame-id":"evem-PMC3110823-UAZ-r1-53-0-14",
      "text":"MAP kinase inhibitors LY294002 and U0126 blocked the activation of phospho-AKT or phospho-ERK",
      "arguments":[
        {
          "text":"phospho-ERK",
          "argument-type":"entity",
          "object-type":"argument",
          "index":0,
          "argument-label":"controlled",
          "arg":"ment-PMC3110823-UAZ-r1-53-0-234"
        },
        {
          "text":"MAP",
          "argument-type":"entity",
          "object-type":"argument",
          "index":0,
          "argument-label":"controller",
          "arg":"ment-PMC3110823-UAZ-r1-53-0-232"
        }
      ],
      "type":"activation",
      "frame-type":"event-mention",
      "subtype":"positive-activation",
      "end-pos":{
        "reference":"pass-PMC3110823-UAZ-r1-53",
        "offset":138,
        "object-type":"relative-pos"
      },
      "object-type":"frame",
      "start-pos":{
        "reference":"pass-PMC3110823-UAZ-r1-53",
        "offset":45,
        "object-type":"relative-pos"
      },
      "sentence":"sent-PMC3110823-UAZ-r1-53-0",
      "found-by":"Negative_activation_syntax_1_verb",
      "object-meta":{
        "component":"REACH",
        "object-type":"meta-info"
      },
      "verbose-text":"Pre-treatment of BEAS-2B cells with PI3K and MAP kinase inhibitors LY294002 and U0126 blocked the activation of phospho-AKT or phospho-ERK induced by arsenic , and decreased arsenic inducing HIF-1alpha but not HIF-1beta protein levels          ."
    },
    {
      "frame-id":"evem-PMC3110823-UAZ-r1-53-0-15",
      "text":"phospho-AKT or phospho-ERK induced by arsenic",
      "arguments":[
        {
          "text":"phospho-AKT",
          "argument-type":"entity",
          "object-type":"argument",
          "index":0,
          "argument-label":"controlled",
          "arg":"ment-PMC3110823-UAZ-r1-53-0-233"
        },
        {
          "text":"arsenic",
          "argument-type":"entity",
          "object-type":"argument",
          "index":0,
          "argument-label":"controller",
          "arg":"ment-PMC3110823-UAZ-r1-53-0-235"
        }
      ],
      "type":"activation",
      "frame-type":"event-mention",
      "subtype":"positive-activation",
      "end-pos":{
        "reference":"pass-PMC3110823-UAZ-r1-53",
        "offset":157,
        "object-type":"relative-pos"
      },
      "object-type":"frame",
      "start-pos":{
        "reference":"pass-PMC3110823-UAZ-r1-53",
        "offset":112,
        "object-type":"relative-pos"
      },
      "sentence":"sent-PMC3110823-UAZ-r1-53-0",
      "found-by":"Positive_activation_syntax_2_verb",
      "object-meta":{
        "component":"REACH",
        "object-type":"meta-info"
      },
      "verbose-text":"Pre-treatment of BEAS-2B cells with PI3K and MAP kinase inhibitors LY294002 and U0126 blocked the activation of phospho-AKT or phospho-ERK induced by arsenic , and decreased arsenic inducing HIF-1alpha but not HIF-1beta protein levels          ."
    },
    {
      "frame-id":"evem-PMC3110823-UAZ-r1-53-0-16",
      "text":"phospho-ERK induced by arsenic",
      "arguments":[
        {
          "text":"phospho-ERK",
          "argument-type":"entity",
          "object-type":"argument",
          "index":0,
          "argument-label":"controlled",
          "arg":"ment-PMC3110823-UAZ-r1-53-0-234"
        },
        {
          "text":"arsenic",
          "argument-type":"entity",
          "object-type":"argument",
          "index":0,
          "argument-label":"controller",
          "arg":"ment-PMC3110823-UAZ-r1-53-0-235"
        }
      ],
      "type":"activation",
      "frame-type":"event-mention",
      "subtype":"positive-activation",
      "end-pos":{
        "reference":"pass-PMC3110823-UAZ-r1-53",
        "offset":157,
        "object-type":"relative-pos"
      },
      "object-type":"frame",
      "start-pos":{
        "reference":"pass-PMC3110823-UAZ-r1-53",
        "offset":127,
        "object-type":"relative-pos"
      },
      "sentence":"sent-PMC3110823-UAZ-r1-53-0",
      "found-by":"Positive_activation_syntax_2_verb",
      "object-meta":{
        "component":"REACH",
        "object-type":"meta-info"
      },
      "verbose-text":"Pre-treatment of BEAS-2B cells with PI3K and MAP kinase inhibitors LY294002 and U0126 blocked the activation of phospho-AKT or phospho-ERK induced by arsenic , and decreased arsenic inducing HIF-1alpha but not HIF-1beta protein levels          ."
    },
    {
      "frame-id":"evem-PMC3110823-UAZ-r1-53-0-17",
      "text":"MAP kinase inhibitors LY294002 and U0126 blocked the activation of phospho-AKT or phospho-ERK induced by arsenic, and decreased arsenic-inducing HIF-1alpha",
      "arguments":[
        {
          "text":"HIF-1alpha",
          "argument-type":"entity",
          "object-type":"argument",
          "index":0,
          "argument-label":"controlled",
          "arg":"ment-PMC3110823-UAZ-r1-53-0-237"
        },
        {
          "text":"MAP",
          "argument-type":"entity",
          "object-type":"argument",
          "index":0,
          "argument-label":"controller",
          "arg":"ment-PMC3110823-UAZ-r1-53-0-232"
        }
      ],
      "type":"activation",
      "frame-type":"event-mention",
      "subtype":"positive-activation",
      "end-pos":{
        "reference":"pass-PMC3110823-UAZ-r1-53",
        "offset":200,
        "object-type":"relative-pos"
      },
      "object-type":"frame",
      "start-pos":{
        "reference":"pass-PMC3110823-UAZ-r1-53",
        "offset":45,
        "object-type":"relative-pos"
      },
      "sentence":"sent-PMC3110823-UAZ-r1-53-0",
      "found-by":"Positive_activation_syntax_1_verb",
      "object-meta":{
        "component":"REACH",
        "object-type":"meta-info"
      },
      "verbose-text":"Pre-treatment of BEAS-2B cells with PI3K and MAP kinase inhibitors LY294002 and U0126 blocked the activation of phospho-AKT or phospho-ERK induced by arsenic , and decreased arsenic inducing HIF-1alpha but not HIF-1beta protein levels          ."
    },
    {
      "frame-id":"evem-PMC3110823-UAZ-r1-53-0-18",
      "text":"MAP kinase inhibitors LY294002 and U0126 blocked the activation of phospho-AKT or phospho-ERK induced by arsenic, and decreased arsenic-inducing HIF-1alpha but not HIF-1beta protein",
      "arguments":[
        {
          "text":"HIF-1beta protein",
          "argument-type":"entity",
          "object-type":"argument",
          "index":0,
          "argument-label":"controlled",
          "arg":"ment-PMC3110823-UAZ-r1-53-0-238"
        },
        {
          "text":"MAP",
          "argument-type":"entity",
          "object-type":"argument",
          "index":0,
          "argument-label":"controller",
          "arg":"ment-PMC3110823-UAZ-r1-53-0-232"
        }
      ],
      "type":"activation",
      "frame-type":"event-mention",
      "subtype":"positive-activation",
      "is-negated":true,
      "end-pos":{
        "reference":"pass-PMC3110823-UAZ-r1-53",
        "offset":226,
        "object-type":"relative-pos"
      },
      "object-type":"frame",
      "start-pos":{
        "reference":"pass-PMC3110823-UAZ-r1-53",
        "offset":45,
        "object-type":"relative-pos"
      },
      "sentence":"sent-PMC3110823-UAZ-r1-53-0",
      "found-by":"Positive_activation_syntax_1_verb",
      "object-meta":{
        "component":"REACH",
        "object-type":"meta-info"
      },
      "verbose-text":"Pre-treatment of BEAS-2B cells with PI3K and MAP kinase inhibitors LY294002 and U0126 blocked the activation of phospho-AKT or phospho-ERK induced by arsenic , and decreased arsenic inducing HIF-1alpha but not HIF-1beta protein levels          ."
    },
    {
      "frame-id":"evem-PMC3110823-UAZ-r1-53-0-19",
      "text":"MAP kinase inhibitors LY294002 and U0126 blocked the activation of phospho-AKT or phospho-ERK induced by arsenic, and decreased arsenic",
      "arguments":[
        {
          "text":"arsenic",
          "argument-type":"entity",
          "object-type":"argument",
          "index":0,
          "argument-label":"controlled",
          "arg":"ment-PMC3110823-UAZ-r1-53-0-236"
        },
        {
          "text":"MAP",
          "argument-type":"entity",
          "object-type":"argument",
          "index":0,
          "argument-label":"controller",
          "arg":"ment-PMC3110823-UAZ-r1-53-0-232"
        }
      ],
      "type":"activation",
      "frame-type":"event-mention",
      "subtype":"positive-activation",
      "end-pos":{
        "reference":"pass-PMC3110823-UAZ-r1-53",
        "offset":180,
        "object-type":"relative-pos"
      },
      "object-type":"frame",
      "start-pos":{
        "reference":"pass-PMC3110823-UAZ-r1-53",
        "offset":45,
        "object-type":"relative-pos"
      },
      "sentence":"sent-PMC3110823-UAZ-r1-53-0",
      "found-by":"Negative_activation_syntax_1_verb",
      "object-meta":{
        "component":"REACH",
        "object-type":"meta-info"
      },
      "verbose-text":"Pre-treatment of BEAS-2B cells with PI3K and MAP kinase inhibitors LY294002 and U0126 blocked the activation of phospho-AKT or phospho-ERK induced by arsenic , and decreased arsenic inducing HIF-1alpha but not HIF-1beta protein levels          ."
    },
    {
      "frame-id":"evem-PMC3110823-UAZ-r1-53-0-20",
      "text":"MAP kinase inhibitors LY294002 and U0126 blocked the activation of phospho-AKT or phospho-ERK induced by arsenic, and decreased arsenic-inducing HIF-1alpha",
      "arguments":[
        {
          "text":"HIF-1alpha",
          "argument-type":"entity",
          "object-type":"argument",
          "index":0,
          "argument-label":"controlled",
          "arg":"ment-PMC3110823-UAZ-r1-53-0-237"
        },
        {
          "text":"MAP",
          "argument-type":"entity",
          "object-type":"argument",
          "index":0,
          "argument-label":"controller",
          "arg":"ment-PMC3110823-UAZ-r1-53-0-232"
        }
      ],
      "type":"activation",
      "frame-type":"event-mention",
      "subtype":"positive-activation",
      "end-pos":{
        "reference":"pass-PMC3110823-UAZ-r1-53",
        "offset":200,
        "object-type":"relative-pos"
      },
      "object-type":"frame",
      "start-pos":{
        "reference":"pass-PMC3110823-UAZ-r1-53",
        "offset":45,
        "object-type":"relative-pos"
      },
      "sentence":"sent-PMC3110823-UAZ-r1-53-0",
      "found-by":"Negative_activation_syntax_1_verb",
      "object-meta":{
        "component":"REACH",
        "object-type":"meta-info"
      },
      "verbose-text":"Pre-treatment of BEAS-2B cells with PI3K and MAP kinase inhibitors LY294002 and U0126 blocked the activation of phospho-AKT or phospho-ERK induced by arsenic , and decreased arsenic inducing HIF-1alpha but not HIF-1beta protein levels          ."
    },
    {
      "frame-id":"evem-PMC3110823-UAZ-r1-53-0-21",
      "text":"MAP kinase inhibitors LY294002 and U0126 blocked the activation of phospho-AKT or phospho-ERK induced by arsenic, and decreased arsenic-inducing HIF-1alpha but not HIF-1beta protein",
      "arguments":[
        {
          "text":"HIF-1beta protein",
          "argument-type":"entity",
          "object-type":"argument",
          "index":0,
          "argument-label":"controlled",
          "arg":"ment-PMC3110823-UAZ-r1-53-0-238"
        },
        {
          "text":"MAP",
          "argument-type":"entity",
          "object-type":"argument",
          "index":0,
          "argument-label":"controller",
          "arg":"ment-PMC3110823-UAZ-r1-53-0-232"
        }
      ],
      "type":"activation",
      "frame-type":"event-mention",
      "subtype":"positive-activation",
      "is-negated":true,
      "end-pos":{
        "reference":"pass-PMC3110823-UAZ-r1-53",
        "offset":226,
        "object-type":"relative-pos"
      },
      "object-type":"frame",
      "start-pos":{
        "reference":"pass-PMC3110823-UAZ-r1-53",
        "offset":45,
        "object-type":"relative-pos"
      },
      "sentence":"sent-PMC3110823-UAZ-r1-53-0",
      "found-by":"Negative_activation_syntax_1_verb",
      "object-meta":{
        "component":"REACH",
        "object-type":"meta-info"
      },
      "verbose-text":"Pre-treatment of BEAS-2B cells with PI3K and MAP kinase inhibitors LY294002 and U0126 blocked the activation of phospho-AKT or phospho-ERK induced by arsenic , and decreased arsenic inducing HIF-1alpha but not HIF-1beta protein levels          ."
    },
    {
      "is-hypothesis":true,
      "frame-id":"evem-PMC3110823-UAZ-r1-53-1-22",
      "text":"arsenic-induced HIF-1",
      "arguments":[
        {
          "text":"HIF-1",
          "argument-type":"entity",
          "object-type":"argument",
          "index":0,
          "argument-label":"controlled",
          "arg":"ment-PMC3110823-UAZ-r1-53-1-243"
        },
        {
          "text":"arsenic",
          "argument-type":"entity",
          "object-type":"argument",
          "index":0,
          "argument-label":"controller",
          "arg":"ment-PMC3110823-UAZ-r1-53-1-242"
        }
      ],
      "type":"activation",
      "frame-type":"event-mention",
      "subtype":"positive-activation",
      "end-pos":{
        "reference":"pass-PMC3110823-UAZ-r1-53",
        "offset":329,
        "object-type":"relative-pos"
      },
      "object-type":"frame",
      "start-pos":{
        "reference":"pass-PMC3110823-UAZ-r1-53",
        "offset":308,
        "object-type":"relative-pos"
      },
      "sentence":"sent-PMC3110823-UAZ-r1-53-1",
      "found-by":"Positive_activation_syntax_1_verb",
      "object-meta":{
        "component":"REACH",
        "object-type":"meta-info"
      },
      "verbose-text":"This result suggests that both AKT and ERK1 and 2 are required for arsenic induced HIF-1 expression ."
    },
    {
      "frame-id":"evem-PMC3110823-UAZ-r1-53-4-23",
      "text":"siMAPK to knockdown MAPK",
      "arguments":[
        {
          "text":"MAPK",
          "argument-type":"entity",
          "object-type":"argument",
          "index":0,
          "argument-label":"controlled",
          "arg":"ment-PMC3110823-UAZ-r1-53-4-253"
        },
        {
          "text":"siMAPK",
          "argument-type":"entity",
          "object-type":"argument",
          "index":0,
          "argument-label":"controller",
          "arg":"ment-PMC3110823-UAZ-r1-53-4-252"
        }
      ],
      "type":"activation",
      "frame-type":"event-mention",
      "subtype":"negative-activation",
      "end-pos":{
        "reference":"pass-PMC3110823-UAZ-r1-53",
        "offset":882,
        "object-type":"relative-pos"
      },
      "object-type":"frame",
      "start-pos":{
        "reference":"pass-PMC3110823-UAZ-r1-53",
        "offset":858,
        "object-type":"relative-pos"
      },
      "sentence":"sent-PMC3110823-UAZ-r1-53-4",
      "found-by":"Negative_activation_syntax_1_verb",
      "object-meta":{
        "component":"REACH",
        "object-type":"meta-info"
      },
      "verbose-text":"To further specifically inhibit AKT or ERK , the cells were infected with adenoviruses carrying GFP ( Ad-GFP ) and AKT dominant negative ( Ad-AKT-DN ) to specifically inhibit AKT activation ; or transfected with scrambled control siRNA and siMAPK to knockdown MAPK expression ."
    },
    {
      "is-hypothesis":true,
      "frame-id":"evem-PMC3110823-UAZ-r1-59-1-24",
      "text":"arsenic may induce ROS",
      "arguments":[
        {
          "text":"ROS",
          "argument-type":"entity",
          "object-type":"argument",
          "index":0,
          "argument-label":"controlled",
          "arg":"ment-PMC3110823-UAZ-r1-59-1-285"
        },
        {
          "text":"arsenic",
          "argument-type":"entity",
          "object-type":"argument",
          "index":0,
          "argument-label":"controller",
          "arg":"ment-PMC3110823-UAZ-r1-59-1-284"
        }
      ],
      "type":"activation",
      "frame-type":"event-mention",
      "subtype":"positive-activation",
      "end-pos":{
        "reference":"pass-PMC3110823-UAZ-r1-59",
        "offset":231,
        "object-type":"relative-pos"
      },
      "object-type":"frame",
      "start-pos":{
        "reference":"pass-PMC3110823-UAZ-r1-59",
        "offset":209,
        "object-type":"relative-pos"
      },
      "sentence":"sent-PMC3110823-UAZ-r1-59-1",
      "found-by":"Positive_activation_syntax_1_verb",
      "object-meta":{
        "component":"REACH",
        "object-type":"meta-info"
      },
      "verbose-text":"To study whether short time exposure of arsenic may induce ROS levels , BEAS-2B cells were treated with different doses of arsenic for 2 h , or treated with 5 microM arsenic for 2 h and 4 h ."
    },
    {
      "frame-id":"evem-PMC3110823-UAZ-r1-59-0-25",
      "text":"sodium arsenic at 100 nM exposure for long time renders human keratinocytes apoptotic resistant and induces ROS",
      "arguments":[
        {
          "text":"ROS",
          "argument-type":"entity",
          "object-type":"argument",
          "index":0,
          "argument-label":"controlled",
          "arg":"ment-PMC3110823-UAZ-r1-59-0-283"
        },
        {
          "text":"sodium",
          "argument-type":"entity",
          "object-type":"argument",
          "index":0,
          "argument-label":"controller",
          "arg":"ment-PMC3110823-UAZ-r1-59-0-281"
        }
      ],
      "type":"activation",
      "frame-type":"event-mention",
      "subtype":"positive-activation",
      "end-pos":{
        "reference":"pass-PMC3110823-UAZ-r1-59",
        "offset":151,
        "object-type":"relative-pos"
      },
      "object-type":"frame",
      "start-pos":{
        "reference":"pass-PMC3110823-UAZ-r1-59",
        "offset":40,
        "object-type":"relative-pos"
      },
      "sentence":"sent-PMC3110823-UAZ-r1-59-0",
      "found-by":"Positive_activation_syntax_1_verb",
      "object-meta":{
        "component":"REACH",
        "object-type":"meta-info"
      },
      "verbose-text":"Previous study showed that low level of sodium arsenic at 100 nM exposure for long time renders human keratinocytes apoptotic resistant and induces ROS generation     ."
    },
    {
      "frame-id":"evem-PMC3110823-UAZ-r1-59-0-26",
      "text":"arsenic at 100 nM exposure for long time renders human keratinocytes apoptotic resistant and induces ROS",
      "arguments":[
        {
          "text":"ROS",
          "argument-type":"entity",
          "object-type":"argument",
          "index":0,
          "argument-label":"controlled",
          "arg":"ment-PMC3110823-UAZ-r1-59-0-283"
        },
        {
          "text":"arsenic",
          "argument-type":"entity",
          "object-type":"argument",
          "index":0,
          "argument-label":"controller",
          "arg":"ment-PMC3110823-UAZ-r1-59-0-282"
        }
      ],
      "type":"activation",
      "frame-type":"event-mention",
      "subtype":"positive-activation",
      "end-pos":{
        "reference":"pass-PMC3110823-UAZ-r1-59",
        "offset":151,
        "object-type":"relative-pos"
      },
      "object-type":"frame",
      "start-pos":{
        "reference":"pass-PMC3110823-UAZ-r1-59",
        "offset":47,
        "object-type":"relative-pos"
      },
      "sentence":"sent-PMC3110823-UAZ-r1-59-0",
      "found-by":"Positive_activation_syntax_1_verb",
      "object-meta":{
        "component":"REACH",
        "object-type":"meta-info"
      },
      "verbose-text":"Previous study showed that low level of sodium arsenic at 100 nM exposure for long time renders human keratinocytes apoptotic resistant and induces ROS generation     ."
    },
    {
      "is-hypothesis":true,
      "frame-id":"evem-PMC3110823-UAZ-r1-63-3-27",
      "text":"arsenic induces ROS",
      "arguments":[
        {
          "text":"ROS",
          "argument-type":"entity",
          "object-type":"argument",
          "index":0,
          "argument-label":"controlled",
          "arg":"ment-PMC3110823-UAZ-r1-63-3-304"
        },
        {
          "text":"arsenic",
          "argument-type":"entity",
          "object-type":"argument",
          "index":0,
          "argument-label":"controller",
          "arg":"ment-PMC3110823-UAZ-r1-63-3-303"
        }
      ],
      "type":"activation",
      "frame-type":"event-mention",
      "subtype":"positive-activation",
      "end-pos":{
        "reference":"pass-PMC3110823-UAZ-r1-63",
        "offset":487,
        "object-type":"relative-pos"
      },
      "object-type":"frame",
      "start-pos":{
        "reference":"pass-PMC3110823-UAZ-r1-63",
        "offset":468,
        "object-type":"relative-pos"
      },
      "sentence":"sent-PMC3110823-UAZ-r1-63-3",
      "found-by":"Positive_activation_syntax_1_verb",
      "object-meta":{
        "component":"REACH",
        "object-type":"meta-info"
      },
      "verbose-text":"These results indicate that arsenic induces ROS production which is required for arsenic inducing angiogenesis ."
    },
    {
      "frame-id":"evem-PMC3110823-UAZ-r1-65-0-28",
      "text":"arsenic-induced AKT",
      "arguments":[
        {
          "text":"AKT",
          "argument-type":"entity",
          "object-type":"argument",
          "index":0,
          "argument-label":"controlled",
          "arg":"ment-PMC3110823-UAZ-r1-65-0-307"
        },
        {
          "text":"arsenic",
          "argument-type":"entity",
          "object-type":"argument",
          "index":0,
          "argument-label":"controller",
          "arg":"ment-PMC3110823-UAZ-r1-65-0-306"
        }
      ],
      "type":"activation",
      "frame-type":"event-mention",
      "subtype":"positive-activation",
      "end-pos":{
        "reference":"pass-PMC3110823-UAZ-r1-65",
        "offset":49,
        "object-type":"relative-pos"
      },
      "object-type":"frame",
      "start-pos":{
        "reference":"pass-PMC3110823-UAZ-r1-65",
        "offset":30,
        "object-type":"relative-pos"
      },
      "sentence":"sent-PMC3110823-UAZ-r1-65-0",
      "found-by":"Positive_activation_syntax_1_verb",
      "object-meta":{
        "component":"REACH",
        "object-type":"meta-info"
      },
      "verbose-text":"ROS induction is required for arsenic induced AKT and ERK1 and 2 activation and HIF-1 expression ; and HIF-1 elevation is required for arsenic induced angiogenesis"
    },
    {
      "frame-id":"evem-PMC3110823-UAZ-r1-65-0-29",
      "text":"arsenic-induced AKT and ERK1",
      "arguments":[
        {
          "text":"ERK1",
          "argument-type":"entity",
          "object-type":"argument",
          "index":0,
          "argument-label":"controlled",
          "arg":"ment-PMC3110823-UAZ-r1-65-0-308"
        },
        {
          "text":"arsenic",
          "argument-type":"entity",
          "object-type":"argument",
          "index":0,
          "argument-label":"controller",
          "arg":"ment-PMC3110823-UAZ-r1-65-0-306"
        }
      ],
      "type":"activation",
      "frame-type":"event-mention",
      "subtype":"positive-activation",
      "end-pos":{
        "reference":"pass-PMC3110823-UAZ-r1-65",
        "offset":58,
        "object-type":"relative-pos"
      },
      "object-type":"frame",
      "start-pos":{
        "reference":"pass-PMC3110823-UAZ-r1-65",
        "offset":30,
        "object-type":"relative-pos"
      },
      "sentence":"sent-PMC3110823-UAZ-r1-65-0",
      "found-by":"Positive_activation_syntax_1_verb",
      "object-meta":{
        "component":"REACH",
        "object-type":"meta-info"
      },
      "verbose-text":"ROS induction is required for arsenic induced AKT and ERK1 and 2 activation and HIF-1 expression ; and HIF-1 elevation is required for arsenic induced angiogenesis"
    },
    {
      "frame-id":"evem-PMC3110823-UAZ-r1-65-0-30",
      "text":"arsenic-induced AKT and ERK1/2 activation and HIF-1",
      "arguments":[
        {
          "text":"HIF-1",
          "argument-type":"entity",
          "object-type":"argument",
          "index":0,
          "argument-label":"controlled",
          "arg":"ment-PMC3110823-UAZ-r1-65-0-309"
        },
        {
          "text":"arsenic",
          "argument-type":"entity",
          "object-type":"argument",
          "index":0,
          "argument-label":"controller",
          "arg":"ment-PMC3110823-UAZ-r1-65-0-306"
        }
      ],
      "type":"activation",
      "frame-type":"event-mention",
      "subtype":"positive-activation",
      "end-pos":{
        "reference":"pass-PMC3110823-UAZ-r1-65",
        "offset":81,
        "object-type":"relative-pos"
      },
      "object-type":"frame",
      "start-pos":{
        "reference":"pass-PMC3110823-UAZ-r1-65",
        "offset":30,
        "object-type":"relative-pos"
      },
      "sentence":"sent-PMC3110823-UAZ-r1-65-0",
      "found-by":"Positive_activation_syntax_1_verb",
      "object-meta":{
        "component":"REACH",
        "object-type":"meta-info"
      },
      "verbose-text":"ROS induction is required for arsenic induced AKT and ERK1 and 2 activation and HIF-1 expression ; and HIF-1 elevation is required for arsenic induced angiogenesis"
    },
    {
      "frame-id":"evem-PMC3110823-UAZ-r1-66-0-31",
      "text":"ROS inhibitors DPI and catalase significantly suppressed AKT",
      "arguments":[
        {
          "text":"AKT",
          "argument-type":"entity",
          "object-type":"argument",
          "index":0,
          "argument-label":"controlled",
          "arg":"ment-PMC3110823-UAZ-r1-66-0-316"
        },
        {
          "text":"ROS",
          "argument-type":"entity",
          "object-type":"argument",
          "index":0,
          "argument-label":"controller",
          "arg":"ment-PMC3110823-UAZ-r1-66-0-313"
        }
      ],
      "type":"activation",
      "frame-type":"event-mention",
      "subtype":"positive-activation",
      "end-pos":{
        "reference":"pass-PMC3110823-UAZ-r1-66",
        "offset":144,
        "object-type":"relative-pos"
      },
      "object-type":"frame",
      "start-pos":{
        "reference":"pass-PMC3110823-UAZ-r1-66",
        "offset":84,
        "object-type":"relative-pos"
      },
      "sentence":"sent-PMC3110823-UAZ-r1-66-0",
      "found-by":"Negative_activation_syntax_1_verb",
      "object-meta":{
        "component":"REACH",
        "object-type":"meta-info"
      },
      "verbose-text":"To explore the molecular mechanism of ROS in mediating angiogenesis , we showed that ROS inhibitors DPI and catalase significantly suppressed AKT and ERK1 and 2 activation          ."
    },
    {
      "frame-id":"evem-PMC3110823-UAZ-r1-66-0-32",
      "text":"ROS inhibitors DPI and catalase significantly suppressed AKT and ERK1",
      "arguments":[
        {
          "text":"ERK1",
          "argument-type":"entity",
          "object-type":"argument",
          "index":0,
          "argument-label":"controlled",
          "arg":"ment-PMC3110823-UAZ-r1-66-0-317"
        },
        {
          "text":"ROS",
          "argument-type":"entity",
          "object-type":"argument",
          "index":0,
          "argument-label":"controller",
          "arg":"ment-PMC3110823-UAZ-r1-66-0-313"
        }
      ],
      "type":"activation",
      "frame-type":"event-mention",
      "subtype":"positive-activation",
      "end-pos":{
        "reference":"pass-PMC3110823-UAZ-r1-66",
        "offset":153,
        "object-type":"relative-pos"
      },
      "object-type":"frame",
      "start-pos":{
        "reference":"pass-PMC3110823-UAZ-r1-66",
        "offset":84,
        "object-type":"relative-pos"
      },
      "sentence":"sent-PMC3110823-UAZ-r1-66-0",
      "found-by":"Negative_activation_syntax_1_verb",
      "object-meta":{
        "component":"REACH",
        "object-type":"meta-info"
      },
      "verbose-text":"To explore the molecular mechanism of ROS in mediating angiogenesis , we showed that ROS inhibitors DPI and catalase significantly suppressed AKT and ERK1 and 2 activation          ."
    },
    {
      "frame-id":"evem-PMC3110823-UAZ-r1-66-0-33",
      "text":"ROS inhibitors DPI",
      "arguments":[
        {
          "text":"ROS",
          "argument-type":"entity",
          "object-type":"argument",
          "index":0,
          "argument-label":"controlled",
          "arg":"ment-PMC3110823-UAZ-r1-66-0-313"
        },
        {
          "text":"DPI",
          "argument-type":"entity",
          "object-type":"argument",
          "index":0,
          "argument-label":"controller",
          "arg":"ment-PMC3110823-UAZ-r1-66-0-314"
        }
      ],
      "type":"activation",
      "frame-type":"event-mention",
      "subtype":"negative-activation",
      "end-pos":{
        "reference":"pass-PMC3110823-UAZ-r1-66",
        "offset":102,
        "object-type":"relative-pos"
      },
      "object-type":"frame",
      "start-pos":{
        "reference":"pass-PMC3110823-UAZ-r1-66",
        "offset":84,
        "object-type":"relative-pos"
      },
      "sentence":"sent-PMC3110823-UAZ-r1-66-0",
      "found-by":"Negative_activation_token_1_noun",
      "object-meta":{
        "component":"REACH",
        "object-type":"meta-info"
      },
      "verbose-text":"To explore the molecular mechanism of ROS in mediating angiogenesis , we showed that ROS inhibitors DPI and catalase significantly suppressed AKT and ERK1 and 2 activation          ."
    },
    {
      "is-hypothesis":true,
      "frame-id":"evem-PMC3110823-UAZ-r1-66-5-34",
      "text":"arsenic induces HIF-1",
      "arguments":[
        {
          "text":"HIF-1",
          "argument-type":"entity",
          "object-type":"argument",
          "index":0,
          "argument-label":"controlled",
          "arg":"ment-PMC3110823-UAZ-r1-66-5-326"
        },
        {
          "text":"arsenic",
          "argument-type":"entity",
          "object-type":"argument",
          "index":0,
          "argument-label":"controller",
          "arg":"ment-PMC3110823-UAZ-r1-66-5-325"
        }
      ],
      "type":"activation",
      "frame-type":"event-mention",
      "subtype":"positive-activation",
      "end-pos":{
        "reference":"pass-PMC3110823-UAZ-r1-66",
        "offset":678,
        "object-type":"relative-pos"
      },
      "object-type":"frame",
      "start-pos":{
        "reference":"pass-PMC3110823-UAZ-r1-66",
        "offset":657,
        "object-type":"relative-pos"
      },
      "sentence":"sent-PMC3110823-UAZ-r1-66-5",
      "found-by":"Positive_activation_syntax_1_verb",
      "object-meta":{
        "component":"REACH",
        "object-type":"meta-info"
      },
      "verbose-text":"These results suggest that arsenic induces HIF-1 expression through ROS generation , AKT and ERK1 and 2 activation , and HIF-1 elevation is required for arsenic induced angiogenesis ."
    },
    {
      "frame-id":"evem-PMC3110823-UAZ-r1-71-0-35",
      "text":"arsenic-induced VEGF",
      "arguments":[
        {
          "text":"VEGF",
          "argument-type":"entity",
          "object-type":"argument",
          "index":0,
          "argument-label":"controlled",
          "arg":"ment-PMC3110823-UAZ-r1-71-0-350"
        },
        {
          "text":"arsenic",
          "argument-type":"entity",
          "object-type":"argument",
          "index":0,
          "argument-label":"controller",
          "arg":"ment-PMC3110823-UAZ-r1-71-0-349"
        }
      ],
      "type":"activation",
      "frame-type":"event-mention",
      "subtype":"positive-activation",
      "end-pos":{
        "reference":"pass-PMC3110823-UAZ-r1-71",
        "offset":51,
        "object-type":"relative-pos"
      },
      "object-type":"frame",
      "start-pos":{
        "reference":"pass-PMC3110823-UAZ-r1-71",
        "offset":31,
        "object-type":"relative-pos"
      },
      "sentence":"sent-PMC3110823-UAZ-r1-71-0",
      "found-by":"Positive_activation_syntax_1_verb",
      "object-meta":{
        "component":"REACH",
        "object-type":"meta-info"
      },
      "verbose-text":"ROS production is required for arsenic induced VEGF expression , and VEGF is required for arsenic induced angiogenesis"
    },
    {
      "text":"HIF-1 to VEGF",
      "frame-id":"evem-PMC3110823-UAZ-r1-72-0-36",
      "arguments":[
        {
          "text":"HIF-1",
          "argument-type":"entity",
          "object-type":"argument",
          "index":0,
          "argument-label":"theme",
          "arg":"ment-PMC3110823-UAZ-r1-72-0-355"
        },
        {
          "text":"VEGF",
          "argument-type":"entity",
          "object-type":"argument",
          "index":1,
          "argument-label":"theme",
          "arg":"ment-PMC3110823-UAZ-r1-72-0-356"
        }
      ],
      "type":"complex-assembly",
      "frame-type":"event-mention",
      "end-pos":{
        "reference":"pass-PMC3110823-UAZ-r1-72",
        "offset":81,
        "object-type":"relative-pos"
      },
      "object-type":"frame",
      "start-pos":{
        "reference":"pass-PMC3110823-UAZ-r1-72",
        "offset":68,
        "object-type":"relative-pos"
      },
      "found-by":"binding_token_4",
      "sentence":"sent-PMC3110823-UAZ-r1-72-0",
      "verbose-text":"It is known that HIF-1 induces VEGF transcription by the binding of HIF-1 to VEGF promoter     .",
      "object-meta":{
        "component":"REACH",
        "object-type":"meta-info"
      }
    },
    {
      "frame-id":"evem-PMC3110823-UAZ-r1-72-3-37",
      "text":"DPI and catalase suppressed arsenic-induced VEGF",
      "arguments":[
        {
          "text":"VEGF",
          "argument-type":"entity",
          "object-type":"argument",
          "index":0,
          "argument-label":"controlled",
          "arg":"ment-PMC3110823-UAZ-r1-72-3-367"
        },
        {
          "text":"DPI",
          "argument-type":"entity",
          "object-type":"argument",
          "index":0,
          "argument-label":"controller",
          "arg":"ment-PMC3110823-UAZ-r1-72-3-364"
        }
      ],
      "type":"activation",
      "frame-type":"event-mention",
      "subtype":"negative-activation",
      "end-pos":{
        "reference":"pass-PMC3110823-UAZ-r1-72",
        "offset":377,
        "object-type":"relative-pos"
      },
      "object-type":"frame",
      "start-pos":{
        "reference":"pass-PMC3110823-UAZ-r1-72",
        "offset":329,
        "object-type":"relative-pos"
      },
      "sentence":"sent-PMC3110823-UAZ-r1-72-3",
      "found-by":"Negative_activation_syntax_1_verb",
      "object-meta":{
        "component":"REACH",
        "object-type":"meta-info"
      },
      "verbose-text":"DPI and catalase suppressed arsenic induced VEGF expression          ."
    },
    {
      "frame-id":"evem-PMC3110823-UAZ-r1-72-3-38",
      "text":"catalase suppressed arsenic-induced VEGF",
      "arguments":[
        {
          "text":"VEGF",
          "argument-type":"entity",
          "object-type":"argument",
          "index":0,
          "argument-label":"controlled",
          "arg":"ment-PMC3110823-UAZ-r1-72-3-367"
        },
        {
          "text":"catalase",
          "argument-type":"entity",
          "object-type":"argument",
          "index":0,
          "argument-label":"controller",
          "arg":"ment-PMC3110823-UAZ-r1-72-3-365"
        }
      ],
      "type":"activation",
      "frame-type":"event-mention",
      "subtype":"negative-activation",
      "end-pos":{
        "reference":"pass-PMC3110823-UAZ-r1-72",
        "offset":377,
        "object-type":"relative-pos"
      },
      "object-type":"frame",
      "start-pos":{
        "reference":"pass-PMC3110823-UAZ-r1-72",
        "offset":337,
        "object-type":"relative-pos"
      },
      "sentence":"sent-PMC3110823-UAZ-r1-72-3",
      "found-by":"Negative_activation_syntax_1_verb",
      "object-meta":{
        "component":"REACH",
        "object-type":"meta-info"
      },
      "verbose-text":"DPI and catalase suppressed arsenic induced VEGF expression          ."
    },
    {
      "text":"binding of HIF-1 to VEGF",
      "frame-id":"evem-PMC3110823-UAZ-r1-72-0-39",
      "arguments":[
        {
          "text":"HIF-1",
          "argument-type":"entity",
          "object-type":"argument",
          "index":0,
          "argument-label":"theme",
          "arg":"ment-PMC3110823-UAZ-r1-72-0-355"
        },
        {
          "text":"VEGF",
          "argument-type":"entity",
          "object-type":"argument",
          "index":1,
          "argument-label":"theme",
          "arg":"ment-PMC3110823-UAZ-r1-72-0-356"
        }
      ],
      "type":"complex-assembly",
      "frame-type":"event-mention",
      "end-pos":{
        "reference":"pass-PMC3110823-UAZ-r1-72",
        "offset":81,
        "object-type":"relative-pos"
      },
      "object-type":"frame",
      "start-pos":{
        "reference":"pass-PMC3110823-UAZ-r1-72",
        "offset":57,
        "object-type":"relative-pos"
      },
      "found-by":"binding_token_4",
      "sentence":"sent-PMC3110823-UAZ-r1-72-0",
      "verbose-text":"It is known that HIF-1 induces VEGF transcription by the binding of HIF-1 to VEGF promoter     .",
      "object-meta":{
        "component":"REACH",
        "object-type":"meta-info"
      }
    },
    {
      "is-hypothesis":true,
      "frame-id":"evem-PMC3110823-UAZ-r1-72-6-40",
      "text":"arsenic can increase HIF-1",
      "arguments":[
        {
          "text":"HIF-1",
          "argument-type":"entity",
          "object-type":"argument",
          "index":0,
          "argument-label":"controlled",
          "arg":"ment-PMC3110823-UAZ-r1-72-6-376"
        },
        {
          "text":"arsenic",
          "argument-type":"entity",
          "object-type":"argument",
          "index":0,
          "argument-label":"controller",
          "arg":"ment-PMC3110823-UAZ-r1-72-6-375"
        }
      ],
      "type":"activation",
      "frame-type":"event-mention",
      "subtype":"positive-activation",
      "end-pos":{
        "reference":"pass-PMC3110823-UAZ-r1-72",
        "offset":817,
        "object-type":"relative-pos"
      },
      "object-type":"frame",
      "start-pos":{
        "reference":"pass-PMC3110823-UAZ-r1-72",
        "offset":791,
        "object-type":"relative-pos"
      },
      "sentence":"sent-PMC3110823-UAZ-r1-72-6",
      "found-by":"Positive_activation_syntax_1_verb",
      "object-meta":{
        "component":"REACH",
        "object-type":"meta-info"
      },
      "verbose-text":"Similar to the results of HIF-1alpha knockdown , VEGF knockdown also decreased arsenic induced angiogenesis by 50 %          , suggesting that arsenic can increase HIF-1 expression , which in turn regulates VEGF expression for inducing angiogenesis ."
    },
    {
      "frame-id":"evem-PMC3110823-UAZ-r1-72-3-41",
      "text":"arsenic-induced VEGF",
      "arguments":[
        {
          "text":"VEGF",
          "argument-type":"entity",
          "object-type":"argument",
          "index":0,
          "argument-label":"controlled",
          "arg":"ment-PMC3110823-UAZ-r1-72-3-367"
        },
        {
          "text":"arsenic",
          "argument-type":"entity",
          "object-type":"argument",
          "index":0,
          "argument-label":"controller",
          "arg":"ment-PMC3110823-UAZ-r1-72-3-366"
        }
      ],
      "type":"activation",
      "frame-type":"event-mention",
      "subtype":"positive-activation",
      "end-pos":{
        "reference":"pass-PMC3110823-UAZ-r1-72",
        "offset":377,
        "object-type":"relative-pos"
      },
      "object-type":"frame",
      "start-pos":{
        "reference":"pass-PMC3110823-UAZ-r1-72",
        "offset":357,
        "object-type":"relative-pos"
      },
      "sentence":"sent-PMC3110823-UAZ-r1-72-3",
      "found-by":"Positive_activation_syntax_1_verb",
      "object-meta":{
        "component":"REACH",
        "object-type":"meta-info"
      },
      "verbose-text":"DPI and catalase suppressed arsenic induced VEGF expression          ."
    },
    {
      "frame-id":"evem-PMC3110823-UAZ-r1-72-0-42",
      "text":"HIF-1 induces VEGF",
      "arguments":[
        {
          "text":"VEGF",
          "argument-type":"entity",
          "object-type":"argument",
          "index":0,
          "argument-label":"controlled",
          "arg":"ment-PMC3110823-UAZ-r1-72-0-354"
        },
        {
          "text":"HIF-1",
          "argument-type":"entity",
          "object-type":"argument",
          "index":0,
          "argument-label":"controller",
          "arg":"ment-PMC3110823-UAZ-r1-72-0-353"
        }
      ],
      "type":"activation",
      "frame-type":"event-mention",
      "subtype":"positive-activation",
      "end-pos":{
        "reference":"pass-PMC3110823-UAZ-r1-72",
        "offset":35,
        "object-type":"relative-pos"
      },
      "object-type":"frame",
      "start-pos":{
        "reference":"pass-PMC3110823-UAZ-r1-72",
        "offset":17,
        "object-type":"relative-pos"
      },
      "sentence":"sent-PMC3110823-UAZ-r1-72-0",
      "found-by":"Positive_activation_syntax_1_verb",
      "object-meta":{
        "component":"REACH",
        "object-type":"meta-info"
      },
      "verbose-text":"It is known that HIF-1 induces VEGF transcription by the binding of HIF-1 to VEGF promoter     ."
    },
    {
      "frame-id":"evem-PMC3110823-UAZ-r1-72-0-43",
      "text":"HIF-1 induces VEGF transcription by the binding of HIF-1 to VEGF",
      "arguments":[
        {
          "text":"HIF-1",
          "argument-type":"entity",
          "object-type":"argument",
          "index":0,
          "argument-label":"controlled",
          "arg":"ment-PMC3110823-UAZ-r1-72-0-353"
        },
        {
          "text":"HIF-1 to VEGF",
          "argument-type":"complex",
          "object-type":"argument",
          "index":0,
          "argument-label":"controller",
          "args":{
            "theme1":"ment-PMC3110823-UAZ-r1-72-0-355",
            "theme2":"ment-PMC3110823-UAZ-r1-72-0-356"
          }
        }
      ],
      "type":"activation",
      "frame-type":"event-mention",
      "subtype":"positive-activation",
      "end-pos":{
        "reference":"pass-PMC3110823-UAZ-r1-72",
        "offset":81,
        "object-type":"relative-pos"
      },
      "object-type":"frame",
      "start-pos":{
        "reference":"pass-PMC3110823-UAZ-r1-72",
        "offset":17,
        "object-type":"relative-pos"
      },
      "sentence":"sent-PMC3110823-UAZ-r1-72-0",
      "found-by":"Positive_activation_syntax_2_verb",
      "object-meta":{
        "component":"REACH",
        "object-type":"meta-info"
      },
      "verbose-text":"It is known that HIF-1 induces VEGF transcription by the binding of HIF-1 to VEGF promoter     ."
    },
    {
      "frame-id":"evem-PMC3110823-UAZ-r1-72-0-44",
      "text":"induces VEGF transcription by the binding of HIF-1 to VEGF",
      "arguments":[
        {
          "text":"VEGF",
          "argument-type":"entity",
          "object-type":"argument",
          "index":0,
          "argument-label":"controlled",
          "arg":"ment-PMC3110823-UAZ-r1-72-0-356"
        },
        {
          "text":"HIF-1 to VEGF",
          "argument-type":"complex",
          "object-type":"argument",
          "index":0,
          "argument-label":"controller",
          "args":{
            "theme1":"ment-PMC3110823-UAZ-r1-72-0-355",
            "theme2":"ment-PMC3110823-UAZ-r1-72-0-356"
          }
        }
      ],
      "type":"activation",
      "frame-type":"event-mention",
      "subtype":"positive-activation",
      "end-pos":{
        "reference":"pass-PMC3110823-UAZ-r1-72",
        "offset":81,
        "object-type":"relative-pos"
      },
      "object-type":"frame",
      "start-pos":{
        "reference":"pass-PMC3110823-UAZ-r1-72",
        "offset":23,
        "object-type":"relative-pos"
      },
      "sentence":"sent-PMC3110823-UAZ-r1-72-0",
      "found-by":"Positive_activation_syntax_3_verb",
      "object-meta":{
        "component":"REACH",
        "object-type":"meta-info"
      },
      "verbose-text":"It is known that HIF-1 induces VEGF transcription by the binding of HIF-1 to VEGF promoter     ."
    },
    {
      "is-hypothesis":true,
      "frame-id":"evem-PMC3110823-UAZ-r1-79-2-45",
      "text":"suppression of ROS generation by catalase",
      "arguments":[
        {
          "text":"ROS",
          "argument-type":"entity",
          "object-type":"argument",
          "index":0,
          "argument-label":"controlled",
          "arg":"ment-PMC3110823-UAZ-r1-79-2-419"
        },
        {
          "text":"catalase",
          "argument-type":"entity",
          "object-type":"argument",
          "index":0,
          "argument-label":"controller",
          "arg":"ment-PMC3110823-UAZ-r1-79-2-420"
        }
      ],
      "type":"activation",
      "frame-type":"event-mention",
      "subtype":"negative-activation",
      "end-pos":{
        "reference":"pass-PMC3110823-UAZ-r1-79",
        "offset":284,
        "object-type":"relative-pos"
      },
      "object-type":"frame",
      "start-pos":{
        "reference":"pass-PMC3110823-UAZ-r1-79",
        "offset":243,
        "object-type":"relative-pos"
      },
      "sentence":"sent-PMC3110823-UAZ-r1-79-2",
      "found-by":"Negative_activation_syntax_2_noun",
      "object-meta":{
        "component":"REACH",
        "object-type":"meta-info"
      },
      "verbose-text":"We found that arsenic induced ROS production in a dose dependent manner , and that suppression of ROS generation by catalase inhibited arsenic inducing angiogenesis , suggesting that ROS production is required for arsenic inducing angiogenesis ."
    },
    {
      "is-hypothesis":true,
      "frame-id":"evem-PMC3110823-UAZ-r1-79-2-46",
      "text":"arsenic induced ROS",
      "arguments":[
        {
          "text":"ROS",
          "argument-type":"entity",
          "object-type":"argument",
          "index":0,
          "argument-label":"controlled",
          "arg":"ment-PMC3110823-UAZ-r1-79-2-418"
        },
        {
          "text":"arsenic",
          "argument-type":"entity",
          "object-type":"argument",
          "index":0,
          "argument-label":"controller",
          "arg":"ment-PMC3110823-UAZ-r1-79-2-417"
        }
      ],
      "type":"activation",
      "frame-type":"event-mention",
      "subtype":"positive-activation",
      "end-pos":{
        "reference":"pass-PMC3110823-UAZ-r1-79",
        "offset":194,
        "object-type":"relative-pos"
      },
      "object-type":"frame",
      "start-pos":{
        "reference":"pass-PMC3110823-UAZ-r1-79",
        "offset":175,
        "object-type":"relative-pos"
      },
      "sentence":"sent-PMC3110823-UAZ-r1-79-2",
      "found-by":"Positive_activation_syntax_1_verb",
      "object-meta":{
        "component":"REACH",
        "object-type":"meta-info"
      },
      "verbose-text":"We found that arsenic induced ROS production in a dose dependent manner , and that suppression of ROS generation by catalase inhibited arsenic inducing angiogenesis , suggesting that ROS production is required for arsenic inducing angiogenesis ."
    },
    {
      "frame-id":"evem-PMC3110823-UAZ-r1-79-1-47",
      "text":"arsenic induced ROS",
      "arguments":[
        {
          "text":"ROS",
          "argument-type":"entity",
          "object-type":"argument",
          "index":0,
          "argument-label":"controlled",
          "arg":"ment-PMC3110823-UAZ-r1-79-1-415"
        },
        {
          "text":"arsenic",
          "argument-type":"entity",
          "object-type":"argument",
          "index":0,
          "argument-label":"controller",
          "arg":"ment-PMC3110823-UAZ-r1-79-1-414"
        }
      ],
      "type":"activation",
      "frame-type":"event-mention",
      "subtype":"positive-activation",
      "end-pos":{
        "reference":"pass-PMC3110823-UAZ-r1-79",
        "offset":118,
        "object-type":"relative-pos"
      },
      "object-type":"frame",
      "start-pos":{
        "reference":"pass-PMC3110823-UAZ-r1-79",
        "offset":99,
        "object-type":"relative-pos"
      },
      "sentence":"sent-PMC3110823-UAZ-r1-79-1",
      "found-by":"Positive_activation_syntax_1_verb",
      "object-meta":{
        "component":"REACH",
        "object-type":"meta-info"
      },
      "verbose-text":"Previous studies demonstrated that arsenic induced ROS production and DNA damage    ,     -    ."
    },
    {
      "frame-id":"evem-PMC3110823-UAZ-r1-79-1-48",
      "text":"arsenic induced ROS production and DNA damage",
      "arguments":[
        {
          "text":"damage",
          "argument-type":"entity",
          "object-type":"argument",
          "index":0,
          "argument-label":"controlled",
          "arg":"ment-PMC3110823-UAZ-r1-79-1-416"
        },
        {
          "text":"arsenic",
          "argument-type":"entity",
          "object-type":"argument",
          "index":0,
          "argument-label":"controller",
          "arg":"ment-PMC3110823-UAZ-r1-79-1-414"
        }
      ],
      "type":"activation",
      "frame-type":"event-mention",
      "subtype":"positive-activation",
      "end-pos":{
        "reference":"pass-PMC3110823-UAZ-r1-79",
        "offset":144,
        "object-type":"relative-pos"
      },
      "object-type":"frame",
      "start-pos":{
        "reference":"pass-PMC3110823-UAZ-r1-79",
        "offset":99,
        "object-type":"relative-pos"
      },
      "sentence":"sent-PMC3110823-UAZ-r1-79-1",
      "found-by":"Positive_activation_syntax_1_verb",
      "object-meta":{
        "component":"REACH",
        "object-type":"meta-info"
      },
      "verbose-text":"Previous studies demonstrated that arsenic induced ROS production and DNA damage    ,     -    ."
    },
    {
      "is-hypothesis":true,
      "frame-id":"evem-PMC3110823-UAZ-r1-79-2-49",
      "text":"ROS generation by catalase inhibited arsenic",
      "arguments":[
        {
          "text":"arsenic",
          "argument-type":"entity",
          "object-type":"argument",
          "index":0,
          "argument-label":"controlled",
          "arg":"ment-PMC3110823-UAZ-r1-79-2-421"
        },
        {
          "text":"ROS",
          "argument-type":"entity",
          "object-type":"argument",
          "index":0,
          "argument-label":"controller",
          "arg":"ment-PMC3110823-UAZ-r1-79-2-419"
        }
      ],
      "type":"activation",
      "frame-type":"event-mention",
      "subtype":"positive-activation",
      "end-pos":{
        "reference":"pass-PMC3110823-UAZ-r1-79",
        "offset":302,
        "object-type":"relative-pos"
      },
      "object-type":"frame",
      "start-pos":{
        "reference":"pass-PMC3110823-UAZ-r1-79",
        "offset":258,
        "object-type":"relative-pos"
      },
      "sentence":"sent-PMC3110823-UAZ-r1-79-2",
      "found-by":"Negative_activation_syntax_1_verb",
      "object-meta":{
        "component":"REACH",
        "object-type":"meta-info"
      },
      "verbose-text":"We found that arsenic induced ROS production in a dose dependent manner , and that suppression of ROS generation by catalase inhibited arsenic inducing angiogenesis , suggesting that ROS production is required for arsenic inducing angiogenesis ."
    },
    {
      "frame-id":"evem-PMC3110823-UAZ-r1-80-8-50",
      "text":"HIF-1 and VEGF using siRNAs against HIF-1alpha or VEGF inhibited arsenic",
      "arguments":[
        {
          "text":"arsenic",
          "argument-type":"entity",
          "object-type":"argument",
          "index":0,
          "argument-label":"controlled",
          "arg":"ment-PMC3110823-UAZ-r1-80-8-441"
        },
        {
          "text":"HIF-1",
          "argument-type":"entity",
          "object-type":"argument",
          "index":0,
          "argument-label":"controller",
          "arg":"ment-PMC3110823-UAZ-r1-80-8-437"
        }
      ],
      "type":"activation",
      "frame-type":"event-mention",
      "subtype":"positive-activation",
      "end-pos":{
        "reference":"pass-PMC3110823-UAZ-r1-80",
        "offset":1128,
        "object-type":"relative-pos"
      },
      "object-type":"frame",
      "start-pos":{
        "reference":"pass-PMC3110823-UAZ-r1-80",
        "offset":1056,
        "object-type":"relative-pos"
      },
      "sentence":"sent-PMC3110823-UAZ-r1-80-8",
      "found-by":"Negative_activation_syntax_1_verb",
      "object-meta":{
        "component":"REACH",
        "object-type":"meta-info"
      },
      "verbose-text":"This study showed that the knockdown of HIF-1 and VEGF using siRNAs against HIF-1alpha or VEGF inhibited arsenic inducing angiogenesis , demonstrating the important role of HIF-1alpha and VEGF in arsenic inducing angiogenesis ."
    },
    {
      "frame-id":"evem-PMC3110823-UAZ-r1-80-8-51",
      "text":"VEGF using siRNAs against HIF-1alpha or VEGF inhibited arsenic",
      "arguments":[
        {
          "text":"arsenic",
          "argument-type":"entity",
          "object-type":"argument",
          "index":0,
          "argument-label":"controlled",
          "arg":"ment-PMC3110823-UAZ-r1-80-8-441"
        },
        {
          "text":"VEGF",
          "argument-type":"entity",
          "object-type":"argument",
          "index":0,
          "argument-label":"controller",
          "arg":"ment-PMC3110823-UAZ-r1-80-8-438"
        }
      ],
      "type":"activation",
      "frame-type":"event-mention",
      "subtype":"positive-activation",
      "end-pos":{
        "reference":"pass-PMC3110823-UAZ-r1-80",
        "offset":1128,
        "object-type":"relative-pos"
      },
      "object-type":"frame",
      "start-pos":{
        "reference":"pass-PMC3110823-UAZ-r1-80",
        "offset":1066,
        "object-type":"relative-pos"
      },
      "sentence":"sent-PMC3110823-UAZ-r1-80-8",
      "found-by":"Negative_activation_syntax_1_verb",
      "object-meta":{
        "component":"REACH",
        "object-type":"meta-info"
      },
      "verbose-text":"This study showed that the knockdown of HIF-1 and VEGF using siRNAs against HIF-1alpha or VEGF inhibited arsenic inducing angiogenesis , demonstrating the important role of HIF-1alpha and VEGF in arsenic inducing angiogenesis ."
    },
    {
      "frame-id":"evem-PMC3110823-UAZ-r1-81-1-52",
      "text":"arsenic induced ROS",
      "arguments":[
        {
          "text":"ROS",
          "argument-type":"entity",
          "object-type":"argument",
          "index":0,
          "argument-label":"controlled",
          "arg":"ment-PMC3110823-UAZ-r1-81-1-454"
        },
        {
          "text":"arsenic",
          "argument-type":"entity",
          "object-type":"argument",
          "index":0,
          "argument-label":"controller",
          "arg":"ment-PMC3110823-UAZ-r1-81-1-453"
        }
      ],
      "type":"activation",
      "frame-type":"event-mention",
      "subtype":"positive-activation",
      "end-pos":{
        "reference":"pass-PMC3110823-UAZ-r1-81",
        "offset":483,
        "object-type":"relative-pos"
      },
      "object-type":"frame",
      "start-pos":{
        "reference":"pass-PMC3110823-UAZ-r1-81",
        "offset":464,
        "object-type":"relative-pos"
      },
      "sentence":"sent-PMC3110823-UAZ-r1-81-1",
      "found-by":"Positive_activation_syntax_1_verb",
      "object-meta":{
        "component":"REACH",
        "object-type":"meta-info"
      },
      "verbose-text":"These findings suggest that AKT and ERK pathways are involved in arsenic stimulating angiogenesis in lung epithelial cells , which is consistent with previous study showing that arsenic induced ROS generation and ERK activation    ."
    },
    {
      "frame-id":"evem-PMC3110823-UAZ-r1-81-1-53",
      "text":"arsenic induced ROS generation and ERK",
      "arguments":[
        {
          "text":"ERK",
          "argument-type":"entity",
          "object-type":"argument",
          "index":0,
          "argument-label":"controlled",
          "arg":"ment-PMC3110823-UAZ-r1-81-1-455"
        },
        {
          "text":"arsenic",
          "argument-type":"entity",
          "object-type":"argument",
          "index":0,
          "argument-label":"controller",
          "arg":"ment-PMC3110823-UAZ-r1-81-1-453"
        }
      ],
      "type":"activation",
      "frame-type":"event-mention",
      "subtype":"positive-activation",
      "end-pos":{
        "reference":"pass-PMC3110823-UAZ-r1-81",
        "offset":502,
        "object-type":"relative-pos"
      },
      "object-type":"frame",
      "start-pos":{
        "reference":"pass-PMC3110823-UAZ-r1-81",
        "offset":464,
        "object-type":"relative-pos"
      },
      "sentence":"sent-PMC3110823-UAZ-r1-81-1",
      "found-by":"Positive_activation_syntax_1_verb",
      "object-meta":{
        "component":"REACH",
        "object-type":"meta-info"
      },
      "verbose-text":"These findings suggest that AKT and ERK pathways are involved in arsenic stimulating angiogenesis in lung epithelial cells , which is consistent with previous study showing that arsenic induced ROS generation and ERK activation    ."
    },
    {
      "frame-id":"evem-PMC3110823-UAZ-r1-81-0-54",
      "text":"AKT and ERK1/2 were activated by arsenic",
      "arguments":[
        {
          "text":"AKT",
          "argument-type":"entity",
          "object-type":"argument",
          "index":0,
          "argument-label":"controlled",
          "arg":"ment-PMC3110823-UAZ-r1-81-0-446"
        },
        {
          "text":"arsenic",
          "argument-type":"entity",
          "object-type":"argument",
          "index":0,
          "argument-label":"controller",
          "arg":"ment-PMC3110823-UAZ-r1-81-0-448"
        }
      ],
      "type":"activation",
      "frame-type":"event-mention",
      "subtype":"positive-activation",
      "end-pos":{
        "reference":"pass-PMC3110823-UAZ-r1-81",
        "offset":141,
        "object-type":"relative-pos"
      },
      "object-type":"frame",
      "start-pos":{
        "reference":"pass-PMC3110823-UAZ-r1-81",
        "offset":101,
        "object-type":"relative-pos"
      },
      "sentence":"sent-PMC3110823-UAZ-r1-81-0",
      "found-by":"Positive_activation_syntax_2_verb",
      "object-meta":{
        "component":"REACH",
        "object-type":"meta-info"
      },
      "verbose-text":"To further determine the signaling pathways in upregulating HIF-1 and VEGF expression , we found that AKT and ERK1 and 2 were activated by arsenic , and that inhibition of AKT or ERK1 and 2 by their chemical inhibitors , dominant negative molecule , or siRNAs blocked arsenic inducing angiogenesis ."
    },
    {
      "frame-id":"evem-PMC3110823-UAZ-r1-81-0-55",
      "text":"ERK1/2 were activated by arsenic",
      "arguments":[
        {
          "text":"ERK1",
          "argument-type":"entity",
          "object-type":"argument",
          "index":0,
          "argument-label":"controlled",
          "arg":"ment-PMC3110823-UAZ-r1-81-0-447"
        },
        {
          "text":"arsenic",
          "argument-type":"entity",
          "object-type":"argument",
          "index":0,
          "argument-label":"controller",
          "arg":"ment-PMC3110823-UAZ-r1-81-0-448"
        }
      ],
      "type":"activation",
      "frame-type":"event-mention",
      "subtype":"positive-activation",
      "end-pos":{
        "reference":"pass-PMC3110823-UAZ-r1-81",
        "offset":141,
        "object-type":"relative-pos"
      },
      "object-type":"frame",
      "start-pos":{
        "reference":"pass-PMC3110823-UAZ-r1-81",
        "offset":109,
        "object-type":"relative-pos"
      },
      "sentence":"sent-PMC3110823-UAZ-r1-81-0",
      "found-by":"Positive_activation_syntax_2_verb",
      "object-meta":{
        "component":"REACH",
        "object-type":"meta-info"
      },
      "verbose-text":"To further determine the signaling pathways in upregulating HIF-1 and VEGF expression , we found that AKT and ERK1 and 2 were activated by arsenic , and that inhibition of AKT or ERK1 and 2 by their chemical inhibitors , dominant negative molecule , or siRNAs blocked arsenic inducing angiogenesis ."
    },
    {
      "frame-id":"evem-PMC3110823-UAZ-r1-81-3-56",
      "text":"ROS generation blocked HIF-1",
      "arguments":[
        {
          "text":"HIF-1",
          "argument-type":"entity",
          "object-type":"argument",
          "index":0,
          "argument-label":"controlled",
          "arg":"ment-PMC3110823-UAZ-r1-81-3-461"
        },
        {
          "text":"ROS",
          "argument-type":"entity",
          "object-type":"argument",
          "index":0,
          "argument-label":"controller",
          "arg":"ment-PMC3110823-UAZ-r1-81-3-460"
        }
      ],
      "type":"activation",
      "frame-type":"event-mention",
      "subtype":"positive-activation",
      "end-pos":{
        "reference":"pass-PMC3110823-UAZ-r1-81",
        "offset":776,
        "object-type":"relative-pos"
      },
      "object-type":"frame",
      "start-pos":{
        "reference":"pass-PMC3110823-UAZ-r1-81",
        "offset":748,
        "object-type":"relative-pos"
      },
      "sentence":"sent-PMC3110823-UAZ-r1-81-3",
      "found-by":"Negative_activation_syntax_1_verb",
      "object-meta":{
        "component":"REACH",
        "object-type":"meta-info"
      },
      "verbose-text":"We further demonstrated that inhibition of ROS generation blocked HIF-1 and VEGF induction , AKT and ERK1 and 2 activation , and angiogenesis in response to arsenic treatment ."
    },
    {
      "frame-id":"evem-PMC3110823-UAZ-r1-81-3-57",
      "text":"ROS generation blocked HIF-1 and VEGF",
      "arguments":[
        {
          "text":"VEGF",
          "argument-type":"entity",
          "object-type":"argument",
          "index":0,
          "argument-label":"controlled",
          "arg":"ment-PMC3110823-UAZ-r1-81-3-462"
        },
        {
          "text":"ROS",
          "argument-type":"entity",
          "object-type":"argument",
          "index":0,
          "argument-label":"controller",
          "arg":"ment-PMC3110823-UAZ-r1-81-3-460"
        }
      ],
      "type":"activation",
      "frame-type":"event-mention",
      "subtype":"positive-activation",
      "end-pos":{
        "reference":"pass-PMC3110823-UAZ-r1-81",
        "offset":785,
        "object-type":"relative-pos"
      },
      "object-type":"frame",
      "start-pos":{
        "reference":"pass-PMC3110823-UAZ-r1-81",
        "offset":748,
        "object-type":"relative-pos"
      },
      "sentence":"sent-PMC3110823-UAZ-r1-81-3",
      "found-by":"Negative_activation_syntax_1_verb",
      "object-meta":{
        "component":"REACH",
        "object-type":"meta-info"
      },
      "verbose-text":"We further demonstrated that inhibition of ROS generation blocked HIF-1 and VEGF induction , AKT and ERK1 and 2 activation , and angiogenesis in response to arsenic treatment ."
    },
    {
      "frame-id":"evem-PMC3110823-UAZ-r1-81-3-58",
      "text":"ROS generation blocked HIF-1 and VEGF induction, AKT",
      "arguments":[
        {
          "text":"AKT",
          "argument-type":"entity",
          "object-type":"argument",
          "index":0,
          "argument-label":"controlled",
          "arg":"ment-PMC3110823-UAZ-r1-81-3-463"
        },
        {
          "text":"ROS",
          "argument-type":"entity",
          "object-type":"argument",
          "index":0,
          "argument-label":"controller",
          "arg":"ment-PMC3110823-UAZ-r1-81-3-460"
        }
      ],
      "type":"activation",
      "frame-type":"event-mention",
      "subtype":"positive-activation",
      "end-pos":{
        "reference":"pass-PMC3110823-UAZ-r1-81",
        "offset":800,
        "object-type":"relative-pos"
      },
      "object-type":"frame",
      "start-pos":{
        "reference":"pass-PMC3110823-UAZ-r1-81",
        "offset":748,
        "object-type":"relative-pos"
      },
      "sentence":"sent-PMC3110823-UAZ-r1-81-3",
      "found-by":"Negative_activation_syntax_1_verb",
      "object-meta":{
        "component":"REACH",
        "object-type":"meta-info"
      },
      "verbose-text":"We further demonstrated that inhibition of ROS generation blocked HIF-1 and VEGF induction , AKT and ERK1 and 2 activation , and angiogenesis in response to arsenic treatment ."
    },
    {
      "frame-id":"evem-PMC3110823-UAZ-r1-81-3-59",
      "text":"ROS generation blocked HIF-1 and VEGF induction, AKT and ERK1",
      "arguments":[
        {
          "text":"ERK1",
          "argument-type":"entity",
          "object-type":"argument",
          "index":0,
          "argument-label":"controlled",
          "arg":"ment-PMC3110823-UAZ-r1-81-3-464"
        },
        {
          "text":"ROS",
          "argument-type":"entity",
          "object-type":"argument",
          "index":0,
          "argument-label":"controller",
          "arg":"ment-PMC3110823-UAZ-r1-81-3-460"
        }
      ],
      "type":"activation",
      "frame-type":"event-mention",
      "subtype":"positive-activation",
      "end-pos":{
        "reference":"pass-PMC3110823-UAZ-r1-81",
        "offset":809,
        "object-type":"relative-pos"
      },
      "object-type":"frame",
      "start-pos":{
        "reference":"pass-PMC3110823-UAZ-r1-81",
        "offset":748,
        "object-type":"relative-pos"
      },
      "sentence":"sent-PMC3110823-UAZ-r1-81-3",
      "found-by":"Negative_activation_syntax_1_verb",
      "object-meta":{
        "component":"REACH",
        "object-type":"meta-info"
      },
      "verbose-text":"We further demonstrated that inhibition of ROS generation blocked HIF-1 and VEGF induction , AKT and ERK1 and 2 activation , and angiogenesis in response to arsenic treatment ."
    },
    {
      "frame-id":"evem-PMC3110823-UAZ-r1-82-0-60",
      "text":"arsenic in lung epithelial cells induced angiogenesis, arsenic increases ROS",
      "arguments":[
        {
          "text":"ROS",
          "argument-type":"entity",
          "object-type":"argument",
          "index":0,
          "argument-label":"controlled",
          "arg":"ment-PMC3110823-UAZ-r1-82-0-472"
        },
        {
          "text":"arsenic",
          "argument-type":"entity",
          "object-type":"argument",
          "index":0,
          "argument-label":"controller",
          "arg":"ment-PMC3110823-UAZ-r1-82-0-471"
        }
      ],
      "type":"activation",
      "frame-type":"event-mention",
      "subtype":"positive-activation",
      "end-pos":{
        "reference":"pass-PMC3110823-UAZ-r1-82",
        "offset":140,
        "object-type":"relative-pos"
      },
      "object-type":"frame",
      "start-pos":{
        "reference":"pass-PMC3110823-UAZ-r1-82",
        "offset":64,
        "object-type":"relative-pos"
      },
      "sentence":"sent-PMC3110823-UAZ-r1-82-0",
      "found-by":"Positive_activation_syntax_1_verb",
      "object-meta":{
        "component":"REACH",
        "object-type":"meta-info"
      },
      "verbose-text":"Taken together , this study demonstrated that acute treatment of arsenic in lung epithelial cells induced angiogenesis , arsenic increases ROS induction for inducing angiogenesis , and ROS transmits the angiogenesis signals to downstream targets AKT , ERK1 and 2 , HIF-1 , and VEGF ."
    }
  ],
  "object-type":"frame-collection",
  "object-meta":{
    "processing-end":"2015-06-14T20:58:01Z",
    "doc-id":"PMC3110823",
    "component-type":"machine",
    "component":"REACH",
    "processing-start":"2015-06-14T20:56:15Z",
    "object-type":"meta-info",
    "organization":"UAZ"
  }
}
