{
    "frames": [
        {
            "frame-id": "epi-PMC3009730-cmu-nicosys-262", 
            "frame-type": "epistemics", 
            "object-meta": {
                "object-type": "meta-info", 
                "organization": "CMU"
            }, 
            "object-type": "frame", 
            "sentence": "sent-PMC3009730-cmu-12", 
            "status": "implication", 
            "value": 0.6
        }, 
        {
            "frame-id": "epi-PMC3009730-cmu-nicosys-263", 
            "frame-type": "epistemics", 
            "object-meta": {
                "object-type": "meta-info", 
                "organization": "CMU"
            }, 
            "object-type": "frame", 
            "sentence": "sent-PMC3009730-cmu-14", 
            "status": "implication", 
            "value": 0.6
        }, 
        {
            "frame-id": "epi-PMC3009730-cmu-nicosys-264", 
            "frame-type": "epistemics", 
            "object-meta": {
                "object-type": "meta-info", 
                "organization": "CMU"
            }, 
            "object-type": "frame", 
            "sentence": "sent-PMC3009730-cmu-14", 
            "status": "implication", 
            "value": 0.6
        }, 
        {
            "frame-id": "epi-PMC3009730-cmu-nicosys-265", 
            "frame-type": "epistemics", 
            "object-meta": {
                "object-type": "meta-info", 
                "organization": "CMU"
            }, 
            "object-type": "frame", 
            "sentence": "sent-PMC3009730-cmu-17", 
            "status": "belief", 
            "value": 0.9
        }, 
        {
            "frame-id": "epi-PMC3009730-cmu-nicosys-266", 
            "frame-type": "epistemics", 
            "object-meta": {
                "object-type": "meta-info", 
                "organization": "CMU"
            }, 
            "object-type": "frame", 
            "sentence": "sent-PMC3009730-cmu-22", 
            "status": "implication", 
            "value": 0.6
        }, 
        {
            "frame-id": "epi-PMC3009730-cmu-nicosys-267", 
            "frame-type": "epistemics", 
            "object-meta": {
                "object-type": "meta-info", 
                "organization": "CMU"
            }, 
            "object-type": "frame", 
            "sentence": "sent-PMC3009730-cmu-23", 
            "status": "belief", 
            "value": 0.9
        }, 
        {
            "frame-id": "epi-PMC3009730-cmu-nicosys-268", 
            "frame-type": "epistemics", 
            "object-meta": {
                "object-type": "meta-info", 
                "organization": "CMU"
            }, 
            "object-type": "frame", 
            "sentence": "sent-PMC3009730-cmu-31", 
            "status": "belief", 
            "value": 0.9
        }, 
        {
            "frame-id": "epi-PMC3009730-cmu-nicosys-269", 
            "frame-type": "epistemics", 
            "object-meta": {
                "object-type": "meta-info", 
                "organization": "CMU"
            }, 
            "object-type": "frame", 
            "sentence": "sent-PMC3009730-cmu-38", 
            "status": "belief", 
            "value": 0.9
        }, 
        {
            "frame-id": "epi-PMC3009730-cmu-nicosys-270", 
            "frame-type": "epistemics", 
            "object-meta": {
                "object-type": "meta-info", 
                "organization": "CMU"
            }, 
            "object-type": "frame", 
            "sentence": "sent-PMC3009730-cmu-39", 
            "status": "belief", 
            "value": 0.9
        }, 
        {
            "frame-id": "epi-PMC3009730-cmu-nicosys-271", 
            "frame-type": "epistemics", 
            "object-meta": {
                "object-type": "meta-info", 
                "organization": "CMU"
            }, 
            "object-type": "frame", 
            "sentence": "sent-PMC3009730-cmu-64", 
            "status": "belief", 
            "value": 0.9
        }, 
        {
            "frame-id": "epi-PMC3009730-cmu-nicosys-272", 
            "frame-type": "epistemics", 
            "object-meta": {
                "object-type": "meta-info", 
                "organization": "CMU"
            }, 
            "object-type": "frame", 
            "sentence": "sent-PMC3009730-cmu-73", 
            "status": "belief", 
            "value": 0.9
        }, 
        {
            "frame-id": "epi-PMC3009730-cmu-nicosys-273", 
            "frame-type": "epistemics", 
            "object-meta": {
                "object-type": "meta-info", 
                "organization": "CMU"
            }, 
            "object-type": "frame", 
            "sentence": "sent-PMC3009730-cmu-74", 
            "status": "belief", 
            "value": 0.9
        }, 
        {
            "frame-id": "epi-PMC3009730-cmu-nicosys-274", 
            "frame-type": "epistemics", 
            "object-meta": {
                "object-type": "meta-info", 
                "organization": "CMU"
            }, 
            "object-type": "frame", 
            "sentence": "sent-PMC3009730-cmu-75", 
            "status": "belief", 
            "value": 0.9
        }, 
        {
            "frame-id": "epi-PMC3009730-cmu-nicosys-275", 
            "frame-type": "epistemics", 
            "object-meta": {
                "object-type": "meta-info", 
                "organization": "CMU"
            }, 
            "object-type": "frame", 
            "sentence": "sent-PMC3009730-cmu-86", 
            "status": "implication", 
            "value": 0.6
        }, 
        {
            "frame-id": "epi-PMC3009730-cmu-nicosys-276", 
            "frame-type": "epistemics", 
            "object-meta": {
                "object-type": "meta-info", 
                "organization": "CMU"
            }, 
            "object-type": "frame", 
            "sentence": "sent-PMC3009730-cmu-100", 
            "status": "belief", 
            "value": 0.9
        }, 
        {
            "frame-id": "epi-PMC3009730-cmu-nicosys-277", 
            "frame-type": "epistemics", 
            "object-meta": {
                "object-type": "meta-info", 
                "organization": "CMU"
            }, 
            "object-type": "frame", 
            "sentence": "sent-PMC3009730-cmu-145", 
            "status": "hypothesis", 
            "value": 0.3
        }
    ], 
    "object-meta": {
        "component": "Nicolas-System", 
        "component-type": "machine", 
        "doc-id": "PMC3009730", 
        "object-type": "meta-info", 
        "organization": "CMU"
    }, 
    "object-type": "frame-collection"
}
