{
  "evidence": ["AHNAK by PKB","In addition to our data on phosphorylation of AHNAK by PKB in vitro, several indirect lines of evidence were supportive of this hypothesis: (1) the COOH terminus of AHNAK (where the PKB consensus site is located) is responsible for its subcellular localization ; (2) phosphorylation by PKB induces cytoplasmic sequestration of several known substrates, among them FKHR  and p21 ; and (3) PKB is activated by the formation of cell-cell contacts ."],
  "extracted_information": {
    "interaction_type": "adds_modification",
    "negative_information": false,
    "modifications": [
      {
        "modification_type": "phosphorylation"
      }
    ],
    "participant_a": {
      "entity_text": "PKB",
      "entity_type": "protein",
      "identifier": "Uniprot:P31749",
      "in_model": true
    },
    "participant_b": {
      "entity_text": "AHNAK",
      "entity_type": "protein",
      "identifier": "Uniprot:Q09666",
      "in_model": false
    }
  },
  "fries_provenance": [
    {
      "cmu-sentence-epistemic-status": "implication",
      "cmu-sentence-epistemic-value": 0.6,
      "component": "MedScan",
      "frame-file": "PMC2196192.cmu.medscan",
      "frame-id": "relm-PMC2196192-cmu-medscan-665",
      "passage-id": "pass-PMC2196192-UAZ-r1-26",
      "passage-number": 26,
      "passage-section-id": "N/A",
      "passage-section-name": "N/A",
      "sentence": "In addition to our data on phosphorylation of AHNAK by PKB in vitro, several indirect lines of evidence were supportive of this hypothesis: (1) the COOH terminus of AHNAK (where the PKB consensus site is located) is responsible for its subcellular localization ; (2) phosphorylation by PKB induces cytoplasmic sequestration of several known substrates, among them FKHR  and p21 ; and (3) PKB is activated by the formation of cell-cell contacts .",
      "text": "AHNAK by PKB",
      "uaz-sentence": "In addition to our data on phosphorylation of AHNAK by PKB in vitro , several indirect lines of evidence were supportive of this hypothesis : ( 1 ) the COOH terminus of AHNAK ( where the PKB consensus site is located ) is responsible for its subcellular localization                   ; ( 2 ) phosphorylation by PKB induces cytoplasmic sequestration of several known substrates , among them FKHR                      and p21                    ; and ( 3 ) PKB is activated by the formation of cell-cell contacts                                               .",
      "uaz-sentence-start": 146
    }
  ],
  "model_relation": "extension",
  "pmc_id": "PMC2196192",
  "reader_type": "machine",
  "reading_complete": "2015-06-15T20:06:33Z",
  "reading_started": "2015-06-15T20:06:28Z",
  "submitter": "FRIES"
}
