{
  "evidence": ["curcumin-induced decrease in ERK1/2 phosphorylation","Recently , Schwer et al observed that the curcumin induced decrease in ERK1 and 2 phosphorylation was paralleled by HO-1 up regulation and could be prevented by administration of the HO inhibitor SnPP  ."],
  "extracted_information": {
    "interaction_type": "adds_modification",
    "negative_information": false,
    "modifications": [
      {
        "modification_type": "phosphorylation"
      }
    ],
    "participant_a": {
      "entity_text": "curcumin",
      "entity_type": "chemical",
      "identifier": "CHEBI:3962",
      "in_model": true
    },
    "participant_b": {
      "entity_text": "ERK1",
      "entity_type": "protein",
      "identifier": "Uniprot:P27361",
      "in_model": true
    }
  },
  "fries_provenance": [
    {
      "cmu-sentence-epistemic-status": "implication",
      "cmu-sentence-epistemic-value": 0.6,
      "component": "REACH",
      "frame-file": "PMC4002979.uaz.events",
      "frame-id": "evem-PMC4002979-UAZ-r1-64-0-119",
      "passage-id": "pass-PMC4002979-UAZ-r1-64",
      "passage-number": 64,
      "passage-section-id": "N/A",
      "passage-section-name": "discussion",
      "sentence": "Recently , Schwer et al observed that the curcumin induced decrease in ERK1 and 2 phosphorylation was paralleled by HO-1 up regulation and could be prevented by administration of the HO inhibitor SnPP  .",
      "text": "curcumin-induced decrease in ERK1/2 phosphorylation",
      "uaz-sentence": "Recently , Schwer et al observed that the curcumin induced decrease in ERK1 and 2 phosphorylation was paralleled by HO-1 up regulation and could be prevented by administration of the HO inhibitor SnPP  .",
      "uaz-sentence-start": 0
    }
  ],
  "model_relation": "extension",
  "pmc_id": "PMC4002979",
  "reader_type": "machine",
  "reading_complete": "2015-06-15T23:48:02Z",
  "reading_started": "2015-06-15T23:47:57Z",
  "submitter": "FRIES"
}
