{
    "frames": [
        {
            "frame-id": "smap-PMC2199178-cmu-1", 
            "frame-type": "sentence-map", 
            "list1-meta": {
                "component": "nxml2fries", 
                "object-type": "meta-info", 
                "organization": "UAZ"
            }, 
            "list2-meta": {
                "component": "Nicolas-NXML-Parser", 
                "object-type": "meta-info", 
                "organization": "CMU"
            }, 
            "map": [
                {
                    "from": "sent-PMC2199178-UAZ-r1-11-4", 
                    "object-type": "map-range", 
                    "to": "sent-PMC2199178-cmu-28"
                }, 
                {
                    "from": "sent-PMC2199178-UAZ-r1-17-3", 
                    "object-type": "map-range", 
                    "to": "sent-PMC2199178-cmu-42"
                }, 
                {
                    "from": "sent-PMC2199178-UAZ-r1-44-6", 
                    "object-type": "map-range", 
                    "to": "sent-PMC2199178-cmu-150"
                }, 
                {
                    "from": "sent-PMC2199178-UAZ-r1-20-2", 
                    "object-type": "map-range", 
                    "to": "sent-PMC2199178-cmu-48"
                }, 
                {
                    "from": "sent-PMC2199178-UAZ-r1-40-8", 
                    "object-type": "map-range", 
                    "to": "sent-PMC2199178-cmu-133"
                }, 
                {
                    "from": "sent-PMC2199178-UAZ-r1-46-6", 
                    "object-type": "map-range", 
                    "to": "sent-PMC2199178-cmu-170"
                }, 
                {
                    "from": "sent-PMC2199178-UAZ-r1-44-3", 
                    "object-type": "map-range", 
                    "to": "sent-PMC2199178-cmu-147"
                }, 
                {
                    "from": "sent-PMC2199178-UAZ-r1-17-1", 
                    "object-type": "map-range", 
                    "to": "sent-PMC2199178-cmu-40"
                }, 
                {
                    "from": "sent-PMC2199178-UAZ-r1-44-11", 
                    "object-type": "map-range", 
                    "to": "sent-PMC2199178-cmu-155"
                }, 
                {
                    "from": "sent-PMC2199178-UAZ-r1-20-0", 
                    "object-type": "map-range", 
                    "to": "sent-PMC2199178-cmu-46"
                }, 
                {
                    "from": "sent-PMC2199178-UAZ-r1-46-5", 
                    "object-type": "map-range", 
                    "to": "sent-PMC2199178-cmu-169"
                }, 
                {
                    "from": "sent-PMC2199178-UAZ-r1-37-10", 
                    "object-type": "map-range", 
                    "to": "sent-PMC2199178-cmu-122"
                }, 
                {
                    "from": "sent-PMC2199178-UAZ-r1-25-4", 
                    "object-type": "map-range", 
                    "to": "sent-PMC2199178-cmu-67"
                }, 
                {
                    "from": "sent-PMC2199178-UAZ-r1-20-7", 
                    "object-type": "map-range", 
                    "to": "sent-PMC2199178-cmu-53"
                }, 
                {
                    "from": "sent-PMC2199178-UAZ-r1-48-6", 
                    "object-type": "map-range", 
                    "to": "sent-PMC2199178-cmu-184"
                }, 
                {
                    "from": "sent-PMC2199178-UAZ-r1-24-0", 
                    "object-type": "map-range", 
                    "to": "sent-PMC2199178-cmu-60"
                }, 
                {
                    "from": "sent-PMC2199178-UAZ-r1-48-5", 
                    "object-type": "map-range", 
                    "to": "sent-PMC2199178-cmu-183"
                }, 
                {
                    "from": "sent-PMC2199178-UAZ-r1-34-3", 
                    "object-type": "map-range", 
                    "to": "sent-PMC2199178-cmu-99"
                }, 
                {
                    "from": "sent-PMC2199178-UAZ-r1-14-0", 
                    "object-type": "map-range", 
                    "to": "sent-PMC2199178-cmu-35"
                }, 
                {
                    "from": "sent-PMC2199178-UAZ-r1-44-4", 
                    "object-type": "map-range", 
                    "to": "sent-PMC2199178-cmu-148"
                }, 
                {
                    "from": "sent-PMC2199178-UAZ-r1-44-10", 
                    "object-type": "map-range", 
                    "to": "sent-PMC2199178-cmu-154"
                }, 
                {
                    "from": "sent-PMC2199178-UAZ-r1-20-8", 
                    "object-type": "map-range", 
                    "to": "sent-PMC2199178-cmu-54"
                }, 
                {
                    "from": "sent-PMC2199178-UAZ-r1-14-2", 
                    "object-type": "map-range", 
                    "to": "sent-PMC2199178-cmu-37"
                }, 
                {
                    "from": "sent-PMC2199178-UAZ-r1-45-0", 
                    "object-type": "map-range", 
                    "to": "sent-PMC2199178-cmu-156"
                }, 
                {
                    "from": "sent-PMC2199178-UAZ-r1-20-6", 
                    "object-type": "map-range", 
                    "to": "sent-PMC2199178-cmu-52"
                }, 
                {
                    "from": "sent-PMC2199178-UAZ-r1-48-9", 
                    "object-type": "map-range", 
                    "to": "sent-PMC2199178-cmu-187"
                }, 
                {
                    "from": "sent-PMC2199178-UAZ-r1-40-13", 
                    "object-type": "map-range", 
                    "to": "sent-PMC2199178-cmu-87"
                }, 
                {
                    "from": "sent-PMC2199178-UAZ-r1-34-6", 
                    "object-type": "map-range", 
                    "to": "sent-PMC2199178-cmu-102"
                }, 
                {
                    "from": "sent-PMC2199178-UAZ-r1-11-6", 
                    "object-type": "map-range", 
                    "to": "sent-PMC2199178-cmu-30"
                }, 
                {
                    "from": "sent-PMC2199178-UAZ-r1-30-2", 
                    "object-type": "map-range", 
                    "to": "sent-PMC2199178-cmu-72"
                }, 
                {
                    "from": "sent-PMC2199178-UAZ-r1-10-0", 
                    "object-type": "map-range", 
                    "to": "sent-PMC2199178-cmu-23"
                }, 
                {
                    "from": "sent-PMC2199178-UAZ-r1-25-3", 
                    "object-type": "map-range", 
                    "to": "sent-PMC2199178-cmu-66"
                }, 
                {
                    "from": "sent-PMC2199178-UAZ-r1-20-1", 
                    "object-type": "map-range", 
                    "to": "sent-PMC2199178-cmu-47"
                }, 
                {
                    "from": "sent-PMC2199178-UAZ-r1-31-0", 
                    "object-type": "map-range", 
                    "to": "sent-PMC2199178-cmu-88"
                }, 
                {
                    "from": "sent-PMC2199178-UAZ-r1-48-8", 
                    "object-type": "map-range", 
                    "to": "sent-PMC2199178-cmu-186"
                }, 
                {
                    "from": "sent-PMC2199178-UAZ-r1-11-7", 
                    "object-type": "map-range", 
                    "to": "sent-PMC2199178-cmu-31"
                }, 
                {
                    "from": "sent-PMC2199178-UAZ-r1-37-6", 
                    "object-type": "map-range", 
                    "to": "sent-PMC2199178-cmu-110"
                }, 
                {
                    "from": "sent-PMC2199178-UAZ-r1-47-5", 
                    "object-type": "map-range", 
                    "to": "sent-PMC2199178-cmu-176"
                }, 
                {
                    "from": "sent-PMC2199178-UAZ-r1-11-9", 
                    "object-type": "map-range", 
                    "to": "sent-PMC2199178-cmu-33"
                }, 
                {
                    "from": "sent-PMC2199178-UAZ-r1-44-1", 
                    "object-type": "map-range", 
                    "to": "sent-PMC2199178-cmu-145"
                }, 
                {
                    "from": "sent-PMC2199178-UAZ-r1-30-1", 
                    "object-type": "map-range", 
                    "to": "sent-PMC2199178-cmu-71"
                }, 
                {
                    "from": "sent-PMC2199178-UAZ-r1-17-5", 
                    "object-type": "map-range", 
                    "to": "sent-PMC2199178-cmu-44"
                }, 
                {
                    "from": "sent-PMC2199178-UAZ-r1-30-6", 
                    "object-type": "map-range", 
                    "to": "sent-PMC2199178-cmu-77"
                }, 
                {
                    "from": "sent-PMC2199178-UAZ-r1-37-8", 
                    "object-type": "map-range", 
                    "to": "sent-PMC2199178-cmu-112"
                }, 
                {
                    "from": "sent-PMC2199178-UAZ-r1-24-2", 
                    "object-type": "map-range", 
                    "to": "sent-PMC2199178-cmu-62"
                }, 
                {
                    "from": "sent-PMC2199178-UAZ-r1-31-2", 
                    "object-type": "map-range", 
                    "to": "sent-PMC2199178-cmu-90"
                }, 
                {
                    "from": "sent-PMC2199178-UAZ-r1-25-0", 
                    "object-type": "map-range", 
                    "to": "sent-PMC2199178-cmu-63"
                }, 
                {
                    "from": "sent-PMC2199178-UAZ-r1-45-7", 
                    "object-type": "map-range", 
                    "to": "sent-PMC2199178-cmu-163"
                }, 
                {
                    "from": "sent-PMC2199178-UAZ-r1-40-0", 
                    "object-type": "map-range", 
                    "to": "sent-PMC2199178-cmu-164"
                }, 
                {
                    "from": "sent-PMC2199178-UAZ-r1-48-3", 
                    "object-type": "map-range", 
                    "to": "sent-PMC2199178-cmu-181"
                }, 
                {
                    "from": "sent-PMC2199178-UAZ-r1-11-8", 
                    "object-type": "map-range", 
                    "to": "sent-PMC2199178-cmu-32"
                }, 
                {
                    "from": "sent-PMC2199178-UAZ-r1-40-6", 
                    "object-type": "map-range", 
                    "to": "sent-PMC2199178-cmu-131"
                }, 
                {
                    "from": "sent-PMC2199178-UAZ-r1-17-0", 
                    "object-type": "map-range", 
                    "to": "sent-PMC2199178-cmu-39"
                }, 
                {
                    "from": "sent-PMC2199178-UAZ-r1-30-9", 
                    "object-type": "map-range", 
                    "to": "sent-PMC2199178-cmu-85"
                }, 
                {
                    "from": "sent-PMC2199178-UAZ-r1-52-0", 
                    "object-type": "map-range", 
                    "to": "sent-PMC2199178-cmu-57"
                }, 
                {
                    "from": "sent-PMC2199178-UAZ-r1-47-1", 
                    "object-type": "map-range", 
                    "to": "sent-PMC2199178-cmu-172"
                }, 
                {
                    "from": "sent-PMC2199178-UAZ-r1-46-2", 
                    "object-type": "map-range", 
                    "to": "sent-PMC2199178-cmu-166"
                }, 
                {
                    "from": "sent-PMC2199178-UAZ-r1-30-4", 
                    "object-type": "map-range", 
                    "to": "sent-PMC2199178-cmu-74"
                }, 
                {
                    "from": "sent-PMC2199178-UAZ-r1-33-0", 
                    "object-type": "map-range", 
                    "to": "sent-PMC2199178-cmu-95"
                }, 
                {
                    "from": "sent-PMC2199178-UAZ-r1-34-0", 
                    "object-type": "map-range", 
                    "to": "sent-PMC2199178-cmu-96"
                }, 
                {
                    "from": "sent-PMC2199178-UAZ-r1-30-5", 
                    "object-type": "map-range", 
                    "to": "sent-PMC2199178-cmu-75"
                }, 
                {
                    "from": "sent-PMC2199178-UAZ-r1-44-5", 
                    "object-type": "map-range", 
                    "to": "sent-PMC2199178-cmu-149"
                }, 
                {
                    "from": "sent-PMC2199178-UAZ-r1-44-9", 
                    "object-type": "map-range", 
                    "to": "sent-PMC2199178-cmu-153"
                }, 
                {
                    "from": "sent-PMC2199178-UAZ-r1-34-5", 
                    "object-type": "map-range", 
                    "to": "sent-PMC2199178-cmu-101"
                }, 
                {
                    "from": "sent-PMC2199178-UAZ-r1-37-2", 
                    "object-type": "map-range", 
                    "to": "sent-PMC2199178-cmu-106"
                }, 
                {
                    "from": "sent-PMC2199178-UAZ-r1-47-4", 
                    "object-type": "map-range", 
                    "to": "sent-PMC2199178-cmu-175"
                }, 
                {
                    "from": "sent-PMC2199178-UAZ-r1-20-9", 
                    "object-type": "map-range", 
                    "to": "sent-PMC2199178-cmu-55"
                }, 
                {
                    "from": "sent-PMC2199178-UAZ-r1-48-4", 
                    "object-type": "map-range", 
                    "to": "sent-PMC2199178-cmu-182"
                }, 
                {
                    "from": "sent-PMC2199178-UAZ-r1-40-0", 
                    "object-type": "map-range", 
                    "to": "sent-PMC2199178-cmu-124"
                }, 
                {
                    "from": "sent-PMC2199178-UAZ-r1-45-1", 
                    "object-type": "map-range", 
                    "to": "sent-PMC2199178-cmu-157"
                }, 
                {
                    "from": "sent-PMC2199178-UAZ-r1-21-1", 
                    "object-type": "map-range", 
                    "to": "sent-PMC2199178-cmu-58"
                }, 
                {
                    "from": "sent-PMC2199178-UAZ-r1-47-3", 
                    "object-type": "map-range", 
                    "to": "sent-PMC2199178-cmu-174"
                }, 
                {
                    "from": "sent-PMC2199178-UAZ-r1-19-0", 
                    "object-type": "map-range", 
                    "to": "sent-PMC2199178-cmu-45"
                }, 
                {
                    "from": "sent-PMC2199178-UAZ-r1-45-4", 
                    "object-type": "map-range", 
                    "to": "sent-PMC2199178-cmu-160"
                }, 
                {
                    "from": "sent-PMC2199178-UAZ-r1-46-3", 
                    "object-type": "map-range", 
                    "to": "sent-PMC2199178-cmu-185"
                }, 
                {
                    "from": "sent-PMC2199178-UAZ-r1-11-0", 
                    "object-type": "map-range", 
                    "to": "sent-PMC2199178-cmu-24"
                }, 
                {
                    "from": "sent-PMC2199178-UAZ-r1-48-0", 
                    "object-type": "map-range", 
                    "to": "sent-PMC2199178-cmu-178"
                }, 
                {
                    "from": "sent-PMC2199178-UAZ-r1-30-7", 
                    "object-type": "map-range", 
                    "to": "sent-PMC2199178-cmu-82"
                }, 
                {
                    "from": "sent-PMC2199178-UAZ-r1-44-2", 
                    "object-type": "map-range", 
                    "to": "sent-PMC2199178-cmu-146"
                }, 
                {
                    "from": "sent-PMC2199178-UAZ-r1-40-1", 
                    "object-type": "map-range", 
                    "to": "sent-PMC2199178-cmu-125"
                }, 
                {
                    "from": "sent-PMC2199178-UAZ-r1-37-9", 
                    "object-type": "map-range", 
                    "to": "sent-PMC2199178-cmu-121"
                }, 
                {
                    "from": "sent-PMC2199178-UAZ-r1-43-0", 
                    "object-type": "map-range", 
                    "to": "sent-PMC2199178-cmu-141"
                }, 
                {
                    "from": "sent-PMC2199178-UAZ-r1-37-3", 
                    "object-type": "map-range", 
                    "to": "sent-PMC2199178-cmu-107"
                }, 
                {
                    "from": "sent-PMC2199178-UAZ-r1-37-1", 
                    "object-type": "map-range", 
                    "to": "sent-PMC2199178-cmu-105"
                }, 
                {
                    "from": "sent-PMC2199178-UAZ-r1-20-5", 
                    "object-type": "map-range", 
                    "to": "sent-PMC2199178-cmu-51"
                }, 
                {
                    "from": "sent-PMC2199178-UAZ-r1-40-12", 
                    "object-type": "map-range", 
                    "to": "sent-PMC2199178-cmu-138"
                }, 
                {
                    "from": "sent-PMC2199178-UAZ-r1-34-2", 
                    "object-type": "map-range", 
                    "to": "sent-PMC2199178-cmu-98"
                }, 
                {
                    "from": "sent-PMC2199178-UAZ-r1-11-3", 
                    "object-type": "map-range", 
                    "to": "sent-PMC2199178-cmu-27"
                }, 
                {
                    "from": "sent-PMC2199178-UAZ-r1-11-5", 
                    "object-type": "map-range", 
                    "to": "sent-PMC2199178-cmu-29"
                }, 
                {
                    "from": "sent-PMC2199178-UAZ-r1-46-4", 
                    "object-type": "map-range", 
                    "to": "sent-PMC2199178-cmu-168"
                }, 
                {
                    "from": "sent-PMC2199178-UAZ-r1-40-2", 
                    "object-type": "map-range", 
                    "to": "sent-PMC2199178-cmu-126"
                }, 
                {
                    "from": "sent-PMC2199178-UAZ-r1-31-1", 
                    "object-type": "map-range", 
                    "to": "sent-PMC2199178-cmu-89"
                }, 
                {
                    "from": "sent-PMC2199178-UAZ-r1-37-7", 
                    "object-type": "map-range", 
                    "to": "sent-PMC2199178-cmu-111"
                }, 
                {
                    "from": "sent-PMC2199178-UAZ-r1-43-2", 
                    "object-type": "map-range", 
                    "to": "sent-PMC2199178-cmu-143"
                }, 
                {
                    "from": "sent-PMC2199178-UAZ-r1-47-6", 
                    "object-type": "map-range", 
                    "to": "sent-PMC2199178-cmu-177"
                }, 
                {
                    "from": "sent-PMC2199178-UAZ-r1-40-4", 
                    "object-type": "map-range", 
                    "to": "sent-PMC2199178-cmu-128"
                }, 
                {
                    "from": "sent-PMC2199178-UAZ-r1-34-1", 
                    "object-type": "map-range", 
                    "to": "sent-PMC2199178-cmu-97"
                }, 
                {
                    "from": "sent-PMC2199178-UAZ-r1-52-2", 
                    "object-type": "map-range", 
                    "to": "sent-PMC2199178-cmu-50"
                }, 
                {
                    "from": "sent-PMC2199178-UAZ-r1-48-13", 
                    "object-type": "map-range", 
                    "to": "sent-PMC2199178-cmu-191"
                }, 
                {
                    "from": "sent-PMC2199178-UAZ-r1-40-13", 
                    "object-type": "map-range", 
                    "to": "sent-PMC2199178-cmu-139"
                }, 
                {
                    "from": "sent-PMC2199178-UAZ-r1-17-4", 
                    "object-type": "map-range", 
                    "to": "sent-PMC2199178-cmu-43"
                }, 
                {
                    "from": "sent-PMC2199178-UAZ-r1-30-8", 
                    "object-type": "map-range", 
                    "to": "sent-PMC2199178-cmu-84"
                }, 
                {
                    "from": "sent-PMC2199178-UAZ-r1-37-4", 
                    "object-type": "map-range", 
                    "to": "sent-PMC2199178-cmu-108"
                }, 
                {
                    "from": "sent-PMC2199178-UAZ-r1-37-0", 
                    "object-type": "map-range", 
                    "to": "sent-PMC2199178-cmu-104"
                }, 
                {
                    "from": "sent-PMC2199178-UAZ-r1-25-1", 
                    "object-type": "map-range", 
                    "to": "sent-PMC2199178-cmu-64"
                }, 
                {
                    "from": "sent-PMC2199178-UAZ-r1-43-1", 
                    "object-type": "map-range", 
                    "to": "sent-PMC2199178-cmu-142"
                }, 
                {
                    "from": "sent-PMC2199178-UAZ-r1-47-0", 
                    "object-type": "map-range", 
                    "to": "sent-PMC2199178-cmu-171"
                }, 
                {
                    "from": "sent-PMC2199178-UAZ-r1-40-9", 
                    "object-type": "map-range", 
                    "to": "sent-PMC2199178-cmu-135"
                }, 
                {
                    "from": "sent-PMC2199178-UAZ-r1-40-7", 
                    "object-type": "map-range", 
                    "to": "sent-PMC2199178-cmu-132"
                }, 
                {
                    "from": "sent-PMC2199178-UAZ-r1-14-1", 
                    "object-type": "map-range", 
                    "to": "sent-PMC2199178-cmu-36"
                }, 
                {
                    "from": "sent-PMC2199178-UAZ-r1-25-2", 
                    "object-type": "map-range", 
                    "to": "sent-PMC2199178-cmu-65"
                }, 
                {
                    "from": "sent-PMC2199178-UAZ-r1-24-1", 
                    "object-type": "map-range", 
                    "to": "sent-PMC2199178-cmu-61"
                }, 
                {
                    "from": "sent-PMC2199178-UAZ-r1-40-5", 
                    "object-type": "map-range", 
                    "to": "sent-PMC2199178-cmu-129"
                }, 
                {
                    "from": "sent-PMC2199178-UAZ-r1-20-10", 
                    "object-type": "map-range", 
                    "to": "sent-PMC2199178-cmu-56"
                }, 
                {
                    "from": "sent-PMC2199178-UAZ-r1-30-0", 
                    "object-type": "map-range", 
                    "to": "sent-PMC2199178-cmu-70"
                }, 
                {
                    "from": "sent-PMC2199178-UAZ-r1-31-3", 
                    "object-type": "map-range", 
                    "to": "sent-PMC2199178-cmu-94"
                }, 
                {
                    "from": "sent-PMC2199178-UAZ-r1-37-5", 
                    "object-type": "map-range", 
                    "to": "sent-PMC2199178-cmu-109"
                }, 
                {
                    "from": "sent-PMC2199178-UAZ-r1-36-0", 
                    "object-type": "map-range", 
                    "to": "sent-PMC2199178-cmu-103"
                }, 
                {
                    "from": "sent-PMC2199178-UAZ-r1-48-2", 
                    "object-type": "map-range", 
                    "to": "sent-PMC2199178-cmu-180"
                }, 
                {
                    "from": "sent-PMC2199178-UAZ-r1-30-3", 
                    "object-type": "map-range", 
                    "to": "sent-PMC2199178-cmu-73"
                }, 
                {
                    "from": "sent-PMC2199178-UAZ-r1-48-1", 
                    "object-type": "map-range", 
                    "to": "sent-PMC2199178-cmu-179"
                }, 
                {
                    "from": "sent-PMC2199178-UAZ-r1-45-6", 
                    "object-type": "map-range", 
                    "to": "sent-PMC2199178-cmu-162"
                }, 
                {
                    "from": "sent-PMC2199178-UAZ-r1-44-0", 
                    "object-type": "map-range", 
                    "to": "sent-PMC2199178-cmu-144"
                }, 
                {
                    "from": "sent-PMC2199178-UAZ-r1-46-3", 
                    "object-type": "map-range", 
                    "to": "sent-PMC2199178-cmu-167"
                }, 
                {
                    "from": "sent-PMC2199178-UAZ-r1-48-12", 
                    "object-type": "map-range", 
                    "to": "sent-PMC2199178-cmu-190"
                }, 
                {
                    "from": "sent-PMC2199178-UAZ-r1-47-2", 
                    "object-type": "map-range", 
                    "to": "sent-PMC2199178-cmu-173"
                }
            ], 
            "object-meta": {
                "component": "Pradeep-Matcher", 
                "object-type": "meta-info", 
                "organization": "CMU"
            }, 
            "object-type": "frame"
        }, 
        {
            "frame-id": "smap-PMC2199178-cmu-2", 
            "frame-type": "sentence-map", 
            "list1-meta": {
                "component": "MedScan", 
                "object-type": "meta-info", 
                "organization": "CMU"
            }, 
            "list2-meta": {
                "component": "Nicolas-NXML-Parser", 
                "object-type": "meta-info", 
                "organization": "CMU"
            }, 
            "map": [
                {
                    "from": "sent-PMC2199178-medscan-25", 
                    "object-type": "map-range", 
                    "to": "sent-PMC2199178-cmu-28"
                }, 
                {
                    "from": "sent-PMC2199178-medscan-37", 
                    "object-type": "map-range", 
                    "to": "sent-PMC2199178-cmu-42"
                }, 
                {
                    "from": "sent-PMC2199178-medscan-122", 
                    "object-type": "map-range", 
                    "to": "sent-PMC2199178-cmu-150"
                }, 
                {
                    "from": "sent-PMC2199178-medscan-43", 
                    "object-type": "map-range", 
                    "to": "sent-PMC2199178-cmu-48"
                }, 
                {
                    "from": "sent-PMC2199178-medscan-109", 
                    "object-type": "map-range", 
                    "to": "sent-PMC2199178-cmu-133"
                }, 
                {
                    "from": "sent-PMC2199178-medscan-141", 
                    "object-type": "map-range", 
                    "to": "sent-PMC2199178-cmu-170"
                }, 
                {
                    "from": "sent-PMC2199178-medscan-119", 
                    "object-type": "map-range", 
                    "to": "sent-PMC2199178-cmu-147"
                }, 
                {
                    "from": "sent-PMC2199178-medscan-35", 
                    "object-type": "map-range", 
                    "to": "sent-PMC2199178-cmu-40"
                }, 
                {
                    "from": "sent-PMC2199178-medscan-126", 
                    "object-type": "map-range", 
                    "to": "sent-PMC2199178-cmu-155"
                }, 
                {
                    "from": "sent-PMC2199178-medscan-132", 
                    "object-type": "map-range", 
                    "to": "sent-PMC2199178-cmu-161"
                }, 
                {
                    "from": "sent-PMC2199178-medscan-104", 
                    "object-type": "map-range", 
                    "to": "sent-PMC2199178-cmu-127"
                }, 
                {
                    "from": "sent-PMC2199178-medscan-130", 
                    "object-type": "map-range", 
                    "to": "sent-PMC2199178-cmu-159"
                }, 
                {
                    "from": "sent-PMC2199178-medscan-41", 
                    "object-type": "map-range", 
                    "to": "sent-PMC2199178-cmu-46"
                }, 
                {
                    "from": "sent-PMC2199178-medscan-140", 
                    "object-type": "map-range", 
                    "to": "sent-PMC2199178-cmu-169"
                }, 
                {
                    "from": "sent-PMC2199178-medscan-100", 
                    "object-type": "map-range", 
                    "to": "sent-PMC2199178-cmu-122"
                }, 
                {
                    "from": "sent-PMC2199178-medscan-47", 
                    "object-type": "map-range", 
                    "to": "sent-PMC2199178-cmu-53"
                }, 
                {
                    "from": "sent-PMC2199178-medscan-17", 
                    "object-type": "map-range", 
                    "to": "sent-PMC2199178-cmu-18"
                }, 
                {
                    "from": "sent-PMC2199178-medscan-155", 
                    "object-type": "map-range", 
                    "to": "sent-PMC2199178-cmu-184"
                }, 
                {
                    "from": "sent-PMC2199178-medscan-36", 
                    "object-type": "map-range", 
                    "to": "sent-PMC2199178-cmu-41"
                }, 
                {
                    "from": "sent-PMC2199178-medscan-53", 
                    "object-type": "map-range", 
                    "to": "sent-PMC2199178-cmu-60"
                }, 
                {
                    "from": "sent-PMC2199178-medscan-154", 
                    "object-type": "map-range", 
                    "to": "sent-PMC2199178-cmu-183"
                }, 
                {
                    "from": "sent-PMC2199178-medscan-83", 
                    "object-type": "map-range", 
                    "to": "sent-PMC2199178-cmu-99"
                }, 
                {
                    "from": "sent-PMC2199178-medscan-129", 
                    "object-type": "map-range", 
                    "to": "sent-PMC2199178-cmu-158"
                }, 
                {
                    "from": "sent-PMC2199178-medscan-77", 
                    "object-type": "map-range", 
                    "to": "sent-PMC2199178-cmu-92"
                }, 
                {
                    "from": "sent-PMC2199178-medscan-31", 
                    "object-type": "map-range", 
                    "to": "sent-PMC2199178-cmu-35"
                }, 
                {
                    "from": "sent-PMC2199178-medscan-120", 
                    "object-type": "map-range", 
                    "to": "sent-PMC2199178-cmu-148"
                }, 
                {
                    "from": "sent-PMC2199178-medscan-125", 
                    "object-type": "map-range", 
                    "to": "sent-PMC2199178-cmu-154"
                }, 
                {
                    "from": "sent-PMC2199178-medscan-20", 
                    "object-type": "map-range", 
                    "to": "sent-PMC2199178-cmu-21"
                }, 
                {
                    "from": "sent-PMC2199178-medscan-48", 
                    "object-type": "map-range", 
                    "to": "sent-PMC2199178-cmu-54"
                }, 
                {
                    "from": "sent-PMC2199178-medscan-33", 
                    "object-type": "map-range", 
                    "to": "sent-PMC2199178-cmu-37"
                }, 
                {
                    "from": "sent-PMC2199178-medscan-2", 
                    "object-type": "map-range", 
                    "to": "sent-PMC2199178-cmu-3"
                }, 
                {
                    "from": "sent-PMC2199178-medscan-127", 
                    "object-type": "map-range", 
                    "to": "sent-PMC2199178-cmu-156"
                }, 
                {
                    "from": "sent-PMC2199178-medscan-46", 
                    "object-type": "map-range", 
                    "to": "sent-PMC2199178-cmu-52"
                }, 
                {
                    "from": "sent-PMC2199178-medscan-158", 
                    "object-type": "map-range", 
                    "to": "sent-PMC2199178-cmu-187"
                }, 
                {
                    "from": "sent-PMC2199178-medscan-68", 
                    "object-type": "map-range", 
                    "to": "sent-PMC2199178-cmu-79"
                }, 
                {
                    "from": "sent-PMC2199178-medscan-73", 
                    "object-type": "map-range", 
                    "to": "sent-PMC2199178-cmu-87"
                }, 
                {
                    "from": "sent-PMC2199178-medscan-85", 
                    "object-type": "map-range", 
                    "to": "sent-PMC2199178-cmu-102"
                }, 
                {
                    "from": "sent-PMC2199178-medscan-10", 
                    "object-type": "map-range", 
                    "to": "sent-PMC2199178-cmu-11"
                }, 
                {
                    "from": "sent-PMC2199178-medscan-27", 
                    "object-type": "map-range", 
                    "to": "sent-PMC2199178-cmu-30"
                }, 
                {
                    "from": "sent-PMC2199178-medscan-18", 
                    "object-type": "map-range", 
                    "to": "sent-PMC2199178-cmu-19"
                }, 
                {
                    "from": "sent-PMC2199178-medscan-8", 
                    "object-type": "map-range", 
                    "to": "sent-PMC2199178-cmu-9"
                }, 
                {
                    "from": "sent-PMC2199178-medscan-63", 
                    "object-type": "map-range", 
                    "to": "sent-PMC2199178-cmu-72"
                }, 
                {
                    "from": "sent-PMC2199178-medscan-59", 
                    "object-type": "map-range", 
                    "to": "sent-PMC2199178-cmu-66"
                }, 
                {
                    "from": "sent-PMC2199178-medscan-42", 
                    "object-type": "map-range", 
                    "to": "sent-PMC2199178-cmu-47"
                }, 
                {
                    "from": "sent-PMC2199178-medscan-74", 
                    "object-type": "map-range", 
                    "to": "sent-PMC2199178-cmu-88"
                }, 
                {
                    "from": "sent-PMC2199178-medscan-14", 
                    "object-type": "map-range", 
                    "to": "sent-PMC2199178-cmu-15"
                }, 
                {
                    "from": "sent-PMC2199178-medscan-157", 
                    "object-type": "map-range", 
                    "to": "sent-PMC2199178-cmu-186"
                }, 
                {
                    "from": "sent-PMC2199178-medscan-28", 
                    "object-type": "map-range", 
                    "to": "sent-PMC2199178-cmu-31"
                }, 
                {
                    "from": "sent-PMC2199178-medscan-13", 
                    "object-type": "map-range", 
                    "to": "sent-PMC2199178-cmu-14"
                }, 
                {
                    "from": "sent-PMC2199178-medscan-96", 
                    "object-type": "map-range", 
                    "to": "sent-PMC2199178-cmu-116"
                }, 
                {
                    "from": "sent-PMC2199178-medscan-3", 
                    "object-type": "map-range", 
                    "to": "sent-PMC2199178-cmu-4"
                }, 
                {
                    "from": "sent-PMC2199178-medscan-92", 
                    "object-type": "map-range", 
                    "to": "sent-PMC2199178-cmu-110"
                }, 
                {
                    "from": "sent-PMC2199178-medscan-147", 
                    "object-type": "map-range", 
                    "to": "sent-PMC2199178-cmu-176"
                }, 
                {
                    "from": "sent-PMC2199178-medscan-30", 
                    "object-type": "map-range", 
                    "to": "sent-PMC2199178-cmu-33"
                }, 
                {
                    "from": "sent-PMC2199178-medscan-117", 
                    "object-type": "map-range", 
                    "to": "sent-PMC2199178-cmu-145"
                }, 
                {
                    "from": "sent-PMC2199178-medscan-62", 
                    "object-type": "map-range", 
                    "to": "sent-PMC2199178-cmu-71"
                }, 
                {
                    "from": "sent-PMC2199178-medscan-40", 
                    "object-type": "map-range", 
                    "to": "sent-PMC2199178-cmu-44"
                }, 
                {
                    "from": "sent-PMC2199178-medscan-67", 
                    "object-type": "map-range", 
                    "to": "sent-PMC2199178-cmu-77"
                }, 
                {
                    "from": "sent-PMC2199178-medscan-94", 
                    "object-type": "map-range", 
                    "to": "sent-PMC2199178-cmu-112"
                }, 
                {
                    "from": "sent-PMC2199178-medscan-55", 
                    "object-type": "map-range", 
                    "to": "sent-PMC2199178-cmu-62"
                }, 
                {
                    "from": "sent-PMC2199178-medscan-76", 
                    "object-type": "map-range", 
                    "to": "sent-PMC2199178-cmu-90"
                }, 
                {
                    "from": "sent-PMC2199178-medscan-56", 
                    "object-type": "map-range", 
                    "to": "sent-PMC2199178-cmu-63"
                }, 
                {
                    "from": "sent-PMC2199178-medscan-101", 
                    "object-type": "map-range", 
                    "to": "sent-PMC2199178-cmu-164"
                }, 
                {
                    "from": "sent-PMC2199178-medscan-101", 
                    "object-type": "map-range", 
                    "to": "sent-PMC2199178-cmu-164"
                }, 
                {
                    "from": "sent-PMC2199178-medscan-152", 
                    "object-type": "map-range", 
                    "to": "sent-PMC2199178-cmu-181"
                }, 
                {
                    "from": "sent-PMC2199178-medscan-29", 
                    "object-type": "map-range", 
                    "to": "sent-PMC2199178-cmu-32"
                }, 
                {
                    "from": "sent-PMC2199178-medscan-107", 
                    "object-type": "map-range", 
                    "to": "sent-PMC2199178-cmu-131"
                }, 
                {
                    "from": "sent-PMC2199178-medscan-34", 
                    "object-type": "map-range", 
                    "to": "sent-PMC2199178-cmu-39"
                }, 
                {
                    "from": "sent-PMC2199178-medscan-72", 
                    "object-type": "map-range", 
                    "to": "sent-PMC2199178-cmu-85"
                }, 
                {
                    "from": "sent-PMC2199178-medscan-51", 
                    "object-type": "map-range", 
                    "to": "sent-PMC2199178-cmu-57"
                }, 
                {
                    "from": "sent-PMC2199178-medscan-143", 
                    "object-type": "map-range", 
                    "to": "sent-PMC2199178-cmu-172"
                }, 
                {
                    "from": "sent-PMC2199178-medscan-137", 
                    "object-type": "map-range", 
                    "to": "sent-PMC2199178-cmu-166"
                }, 
                {
                    "from": "sent-PMC2199178-medscan-65", 
                    "object-type": "map-range", 
                    "to": "sent-PMC2199178-cmu-74"
                }, 
                {
                    "from": "sent-PMC2199178-medscan-80", 
                    "object-type": "map-range", 
                    "to": "sent-PMC2199178-cmu-96"
                }, 
                {
                    "from": "sent-PMC2199178-medscan-66", 
                    "object-type": "map-range", 
                    "to": "sent-PMC2199178-cmu-75"
                }, 
                {
                    "from": "sent-PMC2199178-medscan-121", 
                    "object-type": "map-range", 
                    "to": "sent-PMC2199178-cmu-149"
                }, 
                {
                    "from": "sent-PMC2199178-medscan-98", 
                    "object-type": "map-range", 
                    "to": "sent-PMC2199178-cmu-118"
                }, 
                {
                    "from": "sent-PMC2199178-medscan-124", 
                    "object-type": "map-range", 
                    "to": "sent-PMC2199178-cmu-153"
                }, 
                {
                    "from": "sent-PMC2199178-medscan-84", 
                    "object-type": "map-range", 
                    "to": "sent-PMC2199178-cmu-101"
                }, 
                {
                    "from": "sent-PMC2199178-medscan-88", 
                    "object-type": "map-range", 
                    "to": "sent-PMC2199178-cmu-106"
                }, 
                {
                    "from": "sent-PMC2199178-medscan-6", 
                    "object-type": "map-range", 
                    "to": "sent-PMC2199178-cmu-7"
                }, 
                {
                    "from": "sent-PMC2199178-medscan-146", 
                    "object-type": "map-range", 
                    "to": "sent-PMC2199178-cmu-175"
                }, 
                {
                    "from": "sent-PMC2199178-medscan-49", 
                    "object-type": "map-range", 
                    "to": "sent-PMC2199178-cmu-55"
                }, 
                {
                    "from": "sent-PMC2199178-medscan-78", 
                    "object-type": "map-range", 
                    "to": "sent-PMC2199178-cmu-93"
                }, 
                {
                    "from": "sent-PMC2199178-medscan-1", 
                    "object-type": "map-range", 
                    "to": "sent-PMC2199178-cmu-2"
                }, 
                {
                    "from": "sent-PMC2199178-medscan-101", 
                    "object-type": "map-range", 
                    "to": "sent-PMC2199178-cmu-124"
                }, 
                {
                    "from": "sent-PMC2199178-medscan-128", 
                    "object-type": "map-range", 
                    "to": "sent-PMC2199178-cmu-157"
                }, 
                {
                    "from": "sent-PMC2199178-medscan-52", 
                    "object-type": "map-range", 
                    "to": "sent-PMC2199178-cmu-58"
                }, 
                {
                    "from": "sent-PMC2199178-medscan-12", 
                    "object-type": "map-range", 
                    "to": "sent-PMC2199178-cmu-13"
                }, 
                {
                    "from": "sent-PMC2199178-medscan-138", 
                    "object-type": "map-range", 
                    "to": "sent-PMC2199178-cmu-185"
                }, 
                {
                    "from": "sent-PMC2199178-medscan-138", 
                    "object-type": "map-range", 
                    "to": "sent-PMC2199178-cmu-185"
                }, 
                {
                    "from": "sent-PMC2199178-medscan-21", 
                    "object-type": "map-range", 
                    "to": "sent-PMC2199178-cmu-24"
                }, 
                {
                    "from": "sent-PMC2199178-medscan-149", 
                    "object-type": "map-range", 
                    "to": "sent-PMC2199178-cmu-178"
                }, 
                {
                    "from": "sent-PMC2199178-medscan-70", 
                    "object-type": "map-range", 
                    "to": "sent-PMC2199178-cmu-82"
                }, 
                {
                    "from": "sent-PMC2199178-medscan-118", 
                    "object-type": "map-range", 
                    "to": "sent-PMC2199178-cmu-146"
                }, 
                {
                    "from": "sent-PMC2199178-medscan-102", 
                    "object-type": "map-range", 
                    "to": "sent-PMC2199178-cmu-125"
                }, 
                {
                    "from": "sent-PMC2199178-medscan-19", 
                    "object-type": "map-range", 
                    "to": "sent-PMC2199178-cmu-20"
                }, 
                {
                    "from": "sent-PMC2199178-medscan-99", 
                    "object-type": "map-range", 
                    "to": "sent-PMC2199178-cmu-121"
                }, 
                {
                    "from": "sent-PMC2199178-medscan-11", 
                    "object-type": "map-range", 
                    "to": "sent-PMC2199178-cmu-12"
                }, 
                {
                    "from": "sent-PMC2199178-medscan-113", 
                    "object-type": "map-range", 
                    "to": "sent-PMC2199178-cmu-141"
                }, 
                {
                    "from": "sent-PMC2199178-medscan-89", 
                    "object-type": "map-range", 
                    "to": "sent-PMC2199178-cmu-107"
                }, 
                {
                    "from": "sent-PMC2199178-medscan-87", 
                    "object-type": "map-range", 
                    "to": "sent-PMC2199178-cmu-105"
                }, 
                {
                    "from": "sent-PMC2199178-medscan-45", 
                    "object-type": "map-range", 
                    "to": "sent-PMC2199178-cmu-51"
                }, 
                {
                    "from": "sent-PMC2199178-medscan-111", 
                    "object-type": "map-range", 
                    "to": "sent-PMC2199178-cmu-138"
                }, 
                {
                    "from": "sent-PMC2199178-medscan-82", 
                    "object-type": "map-range", 
                    "to": "sent-PMC2199178-cmu-98"
                }, 
                {
                    "from": "sent-PMC2199178-medscan-24", 
                    "object-type": "map-range", 
                    "to": "sent-PMC2199178-cmu-27"
                }, 
                {
                    "from": "sent-PMC2199178-medscan-69", 
                    "object-type": "map-range", 
                    "to": "sent-PMC2199178-cmu-80"
                }, 
                {
                    "from": "sent-PMC2199178-medscan-26", 
                    "object-type": "map-range", 
                    "to": "sent-PMC2199178-cmu-29"
                }, 
                {
                    "from": "sent-PMC2199178-medscan-7", 
                    "object-type": "map-range", 
                    "to": "sent-PMC2199178-cmu-8"
                }, 
                {
                    "from": "sent-PMC2199178-medscan-139", 
                    "object-type": "map-range", 
                    "to": "sent-PMC2199178-cmu-168"
                }, 
                {
                    "from": "sent-PMC2199178-medscan-103", 
                    "object-type": "map-range", 
                    "to": "sent-PMC2199178-cmu-126"
                }, 
                {
                    "from": "sent-PMC2199178-medscan-75", 
                    "object-type": "map-range", 
                    "to": "sent-PMC2199178-cmu-89"
                }, 
                {
                    "from": "sent-PMC2199178-medscan-93", 
                    "object-type": "map-range", 
                    "to": "sent-PMC2199178-cmu-111"
                }, 
                {
                    "from": "sent-PMC2199178-medscan-115", 
                    "object-type": "map-range", 
                    "to": "sent-PMC2199178-cmu-143"
                }, 
                {
                    "from": "sent-PMC2199178-medscan-148", 
                    "object-type": "map-range", 
                    "to": "sent-PMC2199178-cmu-177"
                }, 
                {
                    "from": "sent-PMC2199178-medscan-4", 
                    "object-type": "map-range", 
                    "to": "sent-PMC2199178-cmu-5"
                }, 
                {
                    "from": "sent-PMC2199178-medscan-105", 
                    "object-type": "map-range", 
                    "to": "sent-PMC2199178-cmu-128"
                }, 
                {
                    "from": "sent-PMC2199178-medscan-81", 
                    "object-type": "map-range", 
                    "to": "sent-PMC2199178-cmu-97"
                }, 
                {
                    "from": "sent-PMC2199178-medscan-16", 
                    "object-type": "map-range", 
                    "to": "sent-PMC2199178-cmu-17"
                }, 
                {
                    "from": "sent-PMC2199178-medscan-44", 
                    "object-type": "map-range", 
                    "to": "sent-PMC2199178-cmu-50"
                }, 
                {
                    "from": "sent-PMC2199178-medscan-112", 
                    "object-type": "map-range", 
                    "to": "sent-PMC2199178-cmu-139"
                }, 
                {
                    "from": "sent-PMC2199178-medscan-112", 
                    "object-type": "map-range", 
                    "to": "sent-PMC2199178-cmu-139"
                }, 
                {
                    "from": "sent-PMC2199178-medscan-39", 
                    "object-type": "map-range", 
                    "to": "sent-PMC2199178-cmu-43"
                }, 
                {
                    "from": "sent-PMC2199178-medscan-71", 
                    "object-type": "map-range", 
                    "to": "sent-PMC2199178-cmu-84"
                }, 
                {
                    "from": "sent-PMC2199178-medscan-90", 
                    "object-type": "map-range", 
                    "to": "sent-PMC2199178-cmu-108"
                }, 
                {
                    "from": "sent-PMC2199178-medscan-86", 
                    "object-type": "map-range", 
                    "to": "sent-PMC2199178-cmu-104"
                }, 
                {
                    "from": "sent-PMC2199178-medscan-57", 
                    "object-type": "map-range", 
                    "to": "sent-PMC2199178-cmu-64"
                }, 
                {
                    "from": "sent-PMC2199178-medscan-114", 
                    "object-type": "map-range", 
                    "to": "sent-PMC2199178-cmu-142"
                }, 
                {
                    "from": "sent-PMC2199178-medscan-142", 
                    "object-type": "map-range", 
                    "to": "sent-PMC2199178-cmu-171"
                }, 
                {
                    "from": "sent-PMC2199178-medscan-15", 
                    "object-type": "map-range", 
                    "to": "sent-PMC2199178-cmu-16"
                }, 
                {
                    "from": "sent-PMC2199178-medscan-110", 
                    "object-type": "map-range", 
                    "to": "sent-PMC2199178-cmu-135"
                }, 
                {
                    "from": "sent-PMC2199178-medscan-108", 
                    "object-type": "map-range", 
                    "to": "sent-PMC2199178-cmu-132"
                }, 
                {
                    "from": "sent-PMC2199178-medscan-32", 
                    "object-type": "map-range", 
                    "to": "sent-PMC2199178-cmu-36"
                }, 
                {
                    "from": "sent-PMC2199178-medscan-58", 
                    "object-type": "map-range", 
                    "to": "sent-PMC2199178-cmu-65"
                }, 
                {
                    "from": "sent-PMC2199178-medscan-9", 
                    "object-type": "map-range", 
                    "to": "sent-PMC2199178-cmu-10"
                }, 
                {
                    "from": "sent-PMC2199178-medscan-54", 
                    "object-type": "map-range", 
                    "to": "sent-PMC2199178-cmu-61"
                }, 
                {
                    "from": "sent-PMC2199178-medscan-106", 
                    "object-type": "map-range", 
                    "to": "sent-PMC2199178-cmu-129"
                }, 
                {
                    "from": "sent-PMC2199178-medscan-97", 
                    "object-type": "map-range", 
                    "to": "sent-PMC2199178-cmu-117"
                }, 
                {
                    "from": "sent-PMC2199178-medscan-95", 
                    "object-type": "map-range", 
                    "to": "sent-PMC2199178-cmu-114"
                }, 
                {
                    "from": "sent-PMC2199178-medscan-50", 
                    "object-type": "map-range", 
                    "to": "sent-PMC2199178-cmu-56"
                }, 
                {
                    "from": "sent-PMC2199178-medscan-61", 
                    "object-type": "map-range", 
                    "to": "sent-PMC2199178-cmu-70"
                }, 
                {
                    "from": "sent-PMC2199178-medscan-79", 
                    "object-type": "map-range", 
                    "to": "sent-PMC2199178-cmu-94"
                }, 
                {
                    "from": "sent-PMC2199178-medscan-91", 
                    "object-type": "map-range", 
                    "to": "sent-PMC2199178-cmu-109"
                }, 
                {
                    "from": "sent-PMC2199178-medscan-151", 
                    "object-type": "map-range", 
                    "to": "sent-PMC2199178-cmu-180"
                }, 
                {
                    "from": "sent-PMC2199178-medscan-64", 
                    "object-type": "map-range", 
                    "to": "sent-PMC2199178-cmu-73"
                }, 
                {
                    "from": "sent-PMC2199178-medscan-150", 
                    "object-type": "map-range", 
                    "to": "sent-PMC2199178-cmu-179"
                }, 
                {
                    "from": "sent-PMC2199178-medscan-0", 
                    "object-type": "map-range", 
                    "to": "sent-PMC2199178-cmu-1"
                }, 
                {
                    "from": "sent-PMC2199178-medscan-133", 
                    "object-type": "map-range", 
                    "to": "sent-PMC2199178-cmu-162"
                }, 
                {
                    "from": "sent-PMC2199178-medscan-138", 
                    "object-type": "map-range", 
                    "to": "sent-PMC2199178-cmu-167"
                }, 
                {
                    "from": "sent-PMC2199178-medscan-138", 
                    "object-type": "map-range", 
                    "to": "sent-PMC2199178-cmu-167"
                }, 
                {
                    "from": "sent-PMC2199178-medscan-160", 
                    "object-type": "map-range", 
                    "to": "sent-PMC2199178-cmu-190"
                }, 
                {
                    "from": "sent-PMC2199178-medscan-144", 
                    "object-type": "map-range", 
                    "to": "sent-PMC2199178-cmu-173"
                }
            ], 
            "object-meta": {
                "component": "Pradeep-Matcher", 
                "object-type": "meta-info", 
                "organization": "CMU"
            }, 
            "object-type": "frame"
        }
    ], 
    "object-meta": {
        "component": "Pradeep-Matcher", 
        "component-type": "machine", 
        "doc-id": "PMC2199178", 
        "object-type": "meta-info", 
        "organization": "CMU"
    }, 
    "object-type": "frame-collection"
}
