{
    "frames": [
        {
            "frame-id": "smap-PMC3232246-cmu-1", 
            "frame-type": "sentence-map", 
            "list1-meta": {
                "component": "nxml2fries", 
                "object-type": "meta-info", 
                "organization": "UAZ"
            }, 
            "list2-meta": {
                "component": "Nicolas-NXML-Parser", 
                "object-type": "meta-info", 
                "organization": "CMU"
            }, 
            "map": [
                {
                    "from": "sent-PMC3232246-UAZ-r1-43-3", 
                    "object-type": "map-range", 
                    "to": "sent-PMC3232246-cmu-92"
                }, 
                {
                    "from": "sent-PMC3232246-UAZ-r1-55-1", 
                    "object-type": "map-range", 
                    "to": "sent-PMC3232246-cmu-113"
                }, 
                {
                    "from": "sent-PMC3232246-UAZ-r1-43-6", 
                    "object-type": "map-range", 
                    "to": "sent-PMC3232246-cmu-95"
                }, 
                {
                    "from": "sent-PMC3232246-UAZ-r1-63-2", 
                    "object-type": "map-range", 
                    "to": "sent-PMC3232246-cmu-136"
                }, 
                {
                    "from": "sent-PMC3232246-UAZ-r1-109-8", 
                    "object-type": "map-range", 
                    "to": "sent-PMC3232246-cmu-231"
                }, 
                {
                    "from": "sent-PMC3232246-UAZ-r1-49-0", 
                    "object-type": "map-range", 
                    "to": "sent-PMC3232246-cmu-103"
                }, 
                {
                    "from": "sent-PMC3232246-UAZ-r1-111-4", 
                    "object-type": "map-range", 
                    "to": "sent-PMC3232246-cmu-243"
                }, 
                {
                    "from": "sent-PMC3232246-UAZ-r1-112-1", 
                    "object-type": "map-range", 
                    "to": "sent-PMC3232246-cmu-253"
                }, 
                {
                    "from": "sent-PMC3232246-UAZ-r1-61-0", 
                    "object-type": "map-range", 
                    "to": "sent-PMC3232246-cmu-121"
                }, 
                {
                    "from": "sent-PMC3232246-UAZ-r1-110-1", 
                    "object-type": "map-range", 
                    "to": "sent-PMC3232246-cmu-235"
                }, 
                {
                    "from": "sent-PMC3232246-UAZ-r1-99-0", 
                    "object-type": "map-range", 
                    "to": "sent-PMC3232246-cmu-198"
                }, 
                {
                    "from": "sent-PMC3232246-UAZ-r1-26-3", 
                    "object-type": "map-range", 
                    "to": "sent-PMC3232246-cmu-57"
                }, 
                {
                    "from": "sent-PMC3232246-UAZ-r1-62-6", 
                    "object-type": "map-range", 
                    "to": "sent-PMC3232246-cmu-133"
                }, 
                {
                    "from": "sent-PMC3232246-UAZ-r1-62-4", 
                    "object-type": "map-range", 
                    "to": "sent-PMC3232246-cmu-131"
                }, 
                {
                    "from": "sent-PMC3232246-UAZ-r1-40-3", 
                    "object-type": "map-range", 
                    "to": "sent-PMC3232246-cmu-85"
                }, 
                {
                    "from": "sent-PMC3232246-UAZ-r1-33-1", 
                    "object-type": "map-range", 
                    "to": "sent-PMC3232246-cmu-66"
                }, 
                {
                    "from": "sent-PMC3232246-UAZ-r1-7-4", 
                    "object-type": "map-range", 
                    "to": "sent-PMC3232246-cmu-14"
                }, 
                {
                    "from": "sent-PMC3232246-UAZ-r1-111-5", 
                    "object-type": "map-range", 
                    "to": "sent-PMC3232246-cmu-244"
                }, 
                {
                    "from": "sent-PMC3232246-UAZ-r1-33-3", 
                    "object-type": "map-range", 
                    "to": "sent-PMC3232246-cmu-68"
                }, 
                {
                    "from": "sent-PMC3232246-UAZ-r1-87-2", 
                    "object-type": "map-range", 
                    "to": "sent-PMC3232246-cmu-180"
                }, 
                {
                    "from": "sent-PMC3232246-UAZ-r1-30-1", 
                    "object-type": "map-range", 
                    "to": "sent-PMC3232246-cmu-62"
                }, 
                {
                    "from": "sent-PMC3232246-UAZ-r1-43-1", 
                    "object-type": "map-range", 
                    "to": "sent-PMC3232246-cmu-90"
                }, 
                {
                    "from": "sent-PMC3232246-UAZ-r1-111-0", 
                    "object-type": "map-range", 
                    "to": "sent-PMC3232246-cmu-239"
                }, 
                {
                    "from": "sent-PMC3232246-UAZ-r1-63-6", 
                    "object-type": "map-range", 
                    "to": "sent-PMC3232246-cmu-140"
                }, 
                {
                    "from": "sent-PMC3232246-UAZ-r1-63-13", 
                    "object-type": "map-range", 
                    "to": "sent-PMC3232246-cmu-147"
                }, 
                {
                    "from": "sent-PMC3232246-UAZ-r1-111-10", 
                    "object-type": "map-range", 
                    "to": "sent-PMC3232246-cmu-249"
                }, 
                {
                    "from": "sent-PMC3232246-UAZ-r1-111-8", 
                    "object-type": "map-range", 
                    "to": "sent-PMC3232246-cmu-247"
                }, 
                {
                    "from": "sent-PMC3232246-UAZ-r1-109-0", 
                    "object-type": "map-range", 
                    "to": "sent-PMC3232246-cmu-223"
                }, 
                {
                    "from": "sent-PMC3232246-UAZ-r1-68-0", 
                    "object-type": "map-range", 
                    "to": "sent-PMC3232246-cmu-149"
                }, 
                {
                    "from": "sent-PMC3232246-UAZ-r1-37-0", 
                    "object-type": "map-range", 
                    "to": "sent-PMC3232246-cmu-78"
                }, 
                {
                    "from": "sent-PMC3232246-UAZ-r1-46-1", 
                    "object-type": "map-range", 
                    "to": "sent-PMC3232246-cmu-98"
                }, 
                {
                    "from": "sent-PMC3232246-UAZ-r1-110-3", 
                    "object-type": "map-range", 
                    "to": "sent-PMC3232246-cmu-237"
                }, 
                {
                    "from": "sent-PMC3232246-UAZ-r1-106-2", 
                    "object-type": "map-range", 
                    "to": "sent-PMC3232246-cmu-208"
                }, 
                {
                    "from": "sent-PMC3232246-UAZ-r1-7-1", 
                    "object-type": "map-range", 
                    "to": "sent-PMC3232246-cmu-11"
                }, 
                {
                    "from": "sent-PMC3232246-UAZ-r1-7-10", 
                    "object-type": "map-range", 
                    "to": "sent-PMC3232246-cmu-206"
                }, 
                {
                    "from": "sent-PMC3232246-UAZ-r1-75-10", 
                    "object-type": "map-range", 
                    "to": "sent-PMC3232246-cmu-167"
                }, 
                {
                    "from": "sent-PMC3232246-UAZ-r1-20-2", 
                    "object-type": "map-range", 
                    "to": "sent-PMC3232246-cmu-45"
                }, 
                {
                    "from": "sent-PMC3232246-UAZ-r1-37-2", 
                    "object-type": "map-range", 
                    "to": "sent-PMC3232246-cmu-80"
                }, 
                {
                    "from": "sent-PMC3232246-UAZ-r1-112-0", 
                    "object-type": "map-range", 
                    "to": "sent-PMC3232246-cmu-252"
                }, 
                {
                    "from": "sent-PMC3232246-UAZ-r1-58-11", 
                    "object-type": "map-range", 
                    "to": "sent-PMC3232246-cmu-83"
                }, 
                {
                    "from": "sent-PMC3232246-UAZ-r1-63-14", 
                    "object-type": "map-range", 
                    "to": "sent-PMC3232246-cmu-148"
                }, 
                {
                    "from": "sent-PMC3232246-UAZ-r1-54-1", 
                    "object-type": "map-range", 
                    "to": "sent-PMC3232246-cmu-109"
                }, 
                {
                    "from": "sent-PMC3232246-UAZ-r1-60-2", 
                    "object-type": "map-range", 
                    "to": "sent-PMC3232246-cmu-120"
                }, 
                {
                    "from": "sent-PMC3232246-UAZ-r1-93-0", 
                    "object-type": "map-range", 
                    "to": "sent-PMC3232246-cmu-182"
                }, 
                {
                    "from": "sent-PMC3232246-UAZ-r1-107-6", 
                    "object-type": "map-range", 
                    "to": "sent-PMC3232246-cmu-215"
                }, 
                {
                    "from": "sent-PMC3232246-UAZ-r1-69-3", 
                    "object-type": "map-range", 
                    "to": "sent-PMC3232246-cmu-153"
                }, 
                {
                    "from": "sent-PMC3232246-UAZ-r1-108-1", 
                    "object-type": "map-range", 
                    "to": "sent-PMC3232246-cmu-217"
                }, 
                {
                    "from": "sent-PMC3232246-UAZ-r1-109-6", 
                    "object-type": "map-range", 
                    "to": "sent-PMC3232246-cmu-229"
                }, 
                {
                    "from": "sent-PMC3232246-UAZ-r1-19-0", 
                    "object-type": "map-range", 
                    "to": "sent-PMC3232246-cmu-42"
                }, 
                {
                    "from": "sent-PMC3232246-UAZ-r1-36-5", 
                    "object-type": "map-range", 
                    "to": "sent-PMC3232246-cmu-76"
                }, 
                {
                    "from": "sent-PMC3232246-UAZ-r1-36-3", 
                    "object-type": "map-range", 
                    "to": "sent-PMC3232246-cmu-74"
                }, 
                {
                    "from": "sent-PMC3232246-UAZ-r1-30-0", 
                    "object-type": "map-range", 
                    "to": "sent-PMC3232246-cmu-61"
                }, 
                {
                    "from": "sent-PMC3232246-UAZ-r1-97-4", 
                    "object-type": "map-range", 
                    "to": "sent-PMC3232246-cmu-193"
                }, 
                {
                    "from": "sent-PMC3232246-UAZ-r1-97-8", 
                    "object-type": "map-range", 
                    "to": "sent-PMC3232246-cmu-197"
                }, 
                {
                    "from": "sent-PMC3232246-UAZ-r1-60-0", 
                    "object-type": "map-range", 
                    "to": "sent-PMC3232246-cmu-118"
                }, 
                {
                    "from": "sent-PMC3232246-UAZ-r1-43-0", 
                    "object-type": "map-range", 
                    "to": "sent-PMC3232246-cmu-89"
                }, 
                {
                    "from": "sent-PMC3232246-UAZ-r1-75-4", 
                    "object-type": "map-range", 
                    "to": "sent-PMC3232246-cmu-161"
                }, 
                {
                    "from": "sent-PMC3232246-UAZ-r1-20-1", 
                    "object-type": "map-range", 
                    "to": "sent-PMC3232246-cmu-44"
                }, 
                {
                    "from": "sent-PMC3232246-UAZ-r1-109-4", 
                    "object-type": "map-range", 
                    "to": "sent-PMC3232246-cmu-227"
                }, 
                {
                    "from": "sent-PMC3232246-UAZ-r1-97-6", 
                    "object-type": "map-range", 
                    "to": "sent-PMC3232246-cmu-195"
                }, 
                {
                    "from": "sent-PMC3232246-UAZ-r1-55-4", 
                    "object-type": "map-range", 
                    "to": "sent-PMC3232246-cmu-116"
                }, 
                {
                    "from": "sent-PMC3232246-UAZ-r1-63-8", 
                    "object-type": "map-range", 
                    "to": "sent-PMC3232246-cmu-142"
                }, 
                {
                    "from": "sent-PMC3232246-UAZ-r1-109-3", 
                    "object-type": "map-range", 
                    "to": "sent-PMC3232246-cmu-226"
                }, 
                {
                    "from": "sent-PMC3232246-UAZ-r1-7-11", 
                    "object-type": "map-range", 
                    "to": "sent-PMC3232246-cmu-22"
                }, 
                {
                    "from": "sent-PMC3232246-UAZ-r1-6-0", 
                    "object-type": "map-range", 
                    "to": "sent-PMC3232246-cmu-2"
                }, 
                {
                    "from": "sent-PMC3232246-UAZ-r1-40-5", 
                    "object-type": "map-range", 
                    "to": "sent-PMC3232246-cmu-87"
                }, 
                {
                    "from": "sent-PMC3232246-UAZ-r1-16-4", 
                    "object-type": "map-range", 
                    "to": "sent-PMC3232246-cmu-36"
                }, 
                {
                    "from": "sent-PMC3232246-UAZ-r1-111-6", 
                    "object-type": "map-range", 
                    "to": "sent-PMC3232246-cmu-245"
                }, 
                {
                    "from": "sent-PMC3232246-UAZ-r1-20-3", 
                    "object-type": "map-range", 
                    "to": "sent-PMC3232246-cmu-46"
                }, 
                {
                    "from": "sent-PMC3232246-UAZ-r1-7-0", 
                    "object-type": "map-range", 
                    "to": "sent-PMC3232246-cmu-10"
                }, 
                {
                    "from": "sent-PMC3232246-UAZ-r1-93-3", 
                    "object-type": "map-range", 
                    "to": "sent-PMC3232246-cmu-185"
                }, 
                {
                    "from": "sent-PMC3232246-UAZ-r1-93-1", 
                    "object-type": "map-range", 
                    "to": "sent-PMC3232246-cmu-183"
                }, 
                {
                    "from": "sent-PMC3232246-UAZ-r1-111-2", 
                    "object-type": "map-range", 
                    "to": "sent-PMC3232246-cmu-241"
                }, 
                {
                    "from": "sent-PMC3232246-UAZ-r1-63-0", 
                    "object-type": "map-range", 
                    "to": "sent-PMC3232246-cmu-134"
                }, 
                {
                    "from": "sent-PMC3232246-UAZ-r1-15-0", 
                    "object-type": "map-range", 
                    "to": "sent-PMC3232246-cmu-31"
                }, 
                {
                    "from": "sent-PMC3232246-UAZ-r1-75-1", 
                    "object-type": "map-range", 
                    "to": "sent-PMC3232246-cmu-158"
                }, 
                {
                    "from": "sent-PMC3232246-UAZ-r1-33-4", 
                    "object-type": "map-range", 
                    "to": "sent-PMC3232246-cmu-69"
                }, 
                {
                    "from": "sent-PMC3232246-UAZ-r1-109-9", 
                    "object-type": "map-range", 
                    "to": "sent-PMC3232246-cmu-232"
                }, 
                {
                    "from": "sent-PMC3232246-UAZ-r1-111-12", 
                    "object-type": "map-range", 
                    "to": "sent-PMC3232246-cmu-251"
                }, 
                {
                    "from": "sent-PMC3232246-UAZ-r1-36-0", 
                    "object-type": "map-range", 
                    "to": "sent-PMC3232246-cmu-71"
                }, 
                {
                    "from": "sent-PMC3232246-UAZ-r1-111-7", 
                    "object-type": "map-range", 
                    "to": "sent-PMC3232246-cmu-246"
                }, 
                {
                    "from": "sent-PMC3232246-UAZ-r1-46-3", 
                    "object-type": "map-range", 
                    "to": "sent-PMC3232246-cmu-100"
                }, 
                {
                    "from": "sent-PMC3232246-UAZ-r1-55-5", 
                    "object-type": "map-range", 
                    "to": "sent-PMC3232246-cmu-117"
                }, 
                {
                    "from": "sent-PMC3232246-UAZ-r1-40-0", 
                    "object-type": "map-range", 
                    "to": "sent-PMC3232246-cmu-82"
                }, 
                {
                    "from": "sent-PMC3232246-UAZ-r1-106-1", 
                    "object-type": "map-range", 
                    "to": "sent-PMC3232246-cmu-207"
                }, 
                {
                    "from": "sent-PMC3232246-UAZ-r1-110-4", 
                    "object-type": "map-range", 
                    "to": "sent-PMC3232246-cmu-238"
                }, 
                {
                    "from": "sent-PMC3232246-UAZ-r1-7-10", 
                    "object-type": "map-range", 
                    "to": "sent-PMC3232246-cmu-21"
                }, 
                {
                    "from": "sent-PMC3232246-UAZ-r1-26-4", 
                    "object-type": "map-range", 
                    "to": "sent-PMC3232246-cmu-58"
                }, 
                {
                    "from": "sent-PMC3232246-UAZ-r1-100-1", 
                    "object-type": "map-range", 
                    "to": "sent-PMC3232246-cmu-200"
                }, 
                {
                    "from": "sent-PMC3232246-UAZ-r1-107-4", 
                    "object-type": "map-range", 
                    "to": "sent-PMC3232246-cmu-213"
                }, 
                {
                    "from": "sent-PMC3232246-UAZ-r1-8-5", 
                    "object-type": "map-range", 
                    "to": "sent-PMC3232246-cmu-29"
                }, 
                {
                    "from": "sent-PMC3232246-UAZ-r1-108-4", 
                    "object-type": "map-range", 
                    "to": "sent-PMC3232246-cmu-220"
                }, 
                {
                    "from": "sent-PMC3232246-UAZ-r1-37-1", 
                    "object-type": "map-range", 
                    "to": "sent-PMC3232246-cmu-79"
                }, 
                {
                    "from": "sent-PMC3232246-UAZ-r1-62-5", 
                    "object-type": "map-range", 
                    "to": "sent-PMC3232246-cmu-132"
                }, 
                {
                    "from": "sent-PMC3232246-UAZ-r1-33-2", 
                    "object-type": "map-range", 
                    "to": "sent-PMC3232246-cmu-67"
                }, 
                {
                    "from": "sent-PMC3232246-UAZ-r1-29-0", 
                    "object-type": "map-range", 
                    "to": "sent-PMC3232246-cmu-60"
                }, 
                {
                    "from": "sent-PMC3232246-UAZ-r1-6-4", 
                    "object-type": "map-range", 
                    "to": "sent-PMC3232246-cmu-6"
                }, 
                {
                    "from": "sent-PMC3232246-UAZ-r1-8-3", 
                    "object-type": "map-range", 
                    "to": "sent-PMC3232246-cmu-27"
                }, 
                {
                    "from": "sent-PMC3232246-UAZ-r1-7-12", 
                    "object-type": "map-range", 
                    "to": "sent-PMC3232246-cmu-23"
                }, 
                {
                    "from": "sent-PMC3232246-UAZ-r1-110-2", 
                    "object-type": "map-range", 
                    "to": "sent-PMC3232246-cmu-236"
                }, 
                {
                    "from": "sent-PMC3232246-UAZ-r1-100-2", 
                    "object-type": "map-range", 
                    "to": "sent-PMC3232246-cmu-201"
                }, 
                {
                    "from": "sent-PMC3232246-UAZ-r1-26-1", 
                    "object-type": "map-range", 
                    "to": "sent-PMC3232246-cmu-55"
                }, 
                {
                    "from": "sent-PMC3232246-UAZ-r1-100-0", 
                    "object-type": "map-range", 
                    "to": "sent-PMC3232246-cmu-199"
                }, 
                {
                    "from": "sent-PMC3232246-UAZ-r1-6-2", 
                    "object-type": "map-range", 
                    "to": "sent-PMC3232246-cmu-4"
                }, 
                {
                    "from": "sent-PMC3232246-UAZ-r1-107-3", 
                    "object-type": "map-range", 
                    "to": "sent-PMC3232246-cmu-212"
                }, 
                {
                    "from": "sent-PMC3232246-UAZ-r1-75-0", 
                    "object-type": "map-range", 
                    "to": "sent-PMC3232246-cmu-156"
                }, 
                {
                    "from": "sent-PMC3232246-UAZ-r1-109-5", 
                    "object-type": "map-range", 
                    "to": "sent-PMC3232246-cmu-228"
                }, 
                {
                    "from": "sent-PMC3232246-UAZ-r1-6-7", 
                    "object-type": "map-range", 
                    "to": "sent-PMC3232246-cmu-9"
                }, 
                {
                    "from": "sent-PMC3232246-UAZ-r1-30-2", 
                    "object-type": "map-range", 
                    "to": "sent-PMC3232246-cmu-63"
                }, 
                {
                    "from": "sent-PMC3232246-UAZ-r1-26-2", 
                    "object-type": "map-range", 
                    "to": "sent-PMC3232246-cmu-56"
                }, 
                {
                    "from": "sent-PMC3232246-UAZ-r1-43-5", 
                    "object-type": "map-range", 
                    "to": "sent-PMC3232246-cmu-94"
                }, 
                {
                    "from": "sent-PMC3232246-UAZ-r1-63-7", 
                    "object-type": "map-range", 
                    "to": "sent-PMC3232246-cmu-141"
                }, 
                {
                    "from": "sent-PMC3232246-UAZ-r1-69-1", 
                    "object-type": "map-range", 
                    "to": "sent-PMC3232246-cmu-151"
                }, 
                {
                    "from": "sent-PMC3232246-UAZ-r1-8-1", 
                    "object-type": "map-range", 
                    "to": "sent-PMC3232246-cmu-25"
                }, 
                {
                    "from": "sent-PMC3232246-UAZ-r1-107-5", 
                    "object-type": "map-range", 
                    "to": "sent-PMC3232246-cmu-214"
                }, 
                {
                    "from": "sent-PMC3232246-UAZ-r1-7-10", 
                    "object-type": "map-range", 
                    "to": "sent-PMC3232246-cmu-24"
                }, 
                {
                    "from": "sent-PMC3232246-UAZ-r1-108-2", 
                    "object-type": "map-range", 
                    "to": "sent-PMC3232246-cmu-218"
                }, 
                {
                    "from": "sent-PMC3232246-UAZ-r1-6-3", 
                    "object-type": "map-range", 
                    "to": "sent-PMC3232246-cmu-5"
                }, 
                {
                    "from": "sent-PMC3232246-UAZ-r1-7-3", 
                    "object-type": "map-range", 
                    "to": "sent-PMC3232246-cmu-13"
                }, 
                {
                    "from": "sent-PMC3232246-UAZ-r1-55-2", 
                    "object-type": "map-range", 
                    "to": "sent-PMC3232246-cmu-114"
                }, 
                {
                    "from": "sent-PMC3232246-UAZ-r1-54-0", 
                    "object-type": "map-range", 
                    "to": "sent-PMC3232246-cmu-108"
                }, 
                {
                    "from": "sent-PMC3232246-UAZ-r1-107-1", 
                    "object-type": "map-range", 
                    "to": "sent-PMC3232246-cmu-210"
                }, 
                {
                    "from": "sent-PMC3232246-UAZ-r1-108-0", 
                    "object-type": "map-range", 
                    "to": "sent-PMC3232246-cmu-216"
                }, 
                {
                    "from": "sent-PMC3232246-UAZ-r1-62-1", 
                    "object-type": "map-range", 
                    "to": "sent-PMC3232246-cmu-128"
                }, 
                {
                    "from": "sent-PMC3232246-UAZ-r1-69-2", 
                    "object-type": "map-range", 
                    "to": "sent-PMC3232246-cmu-152"
                }, 
                {
                    "from": "sent-PMC3232246-UAZ-r1-75-8", 
                    "object-type": "map-range", 
                    "to": "sent-PMC3232246-cmu-165"
                }, 
                {
                    "from": "sent-PMC3232246-UAZ-r1-97-2", 
                    "object-type": "map-range", 
                    "to": "sent-PMC3232246-cmu-191"
                }, 
                {
                    "from": "sent-PMC3232246-UAZ-r1-100-3", 
                    "object-type": "map-range", 
                    "to": "sent-PMC3232246-cmu-202"
                }, 
                {
                    "from": "sent-PMC3232246-UAZ-r1-109-1", 
                    "object-type": "map-range", 
                    "to": "sent-PMC3232246-cmu-224"
                }, 
                {
                    "from": "sent-PMC3232246-UAZ-r1-55-0", 
                    "object-type": "map-range", 
                    "to": "sent-PMC3232246-cmu-112"
                }, 
                {
                    "from": "sent-PMC3232246-UAZ-r1-79-1", 
                    "object-type": "map-range", 
                    "to": "sent-PMC3232246-cmu-170"
                }, 
                {
                    "from": "sent-PMC3232246-UAZ-r1-62-0", 
                    "object-type": "map-range", 
                    "to": "sent-PMC3232246-cmu-127"
                }, 
                {
                    "from": "sent-PMC3232246-UAZ-r1-75-5", 
                    "object-type": "map-range", 
                    "to": "sent-PMC3232246-cmu-162"
                }, 
                {
                    "from": "sent-PMC3232246-UAZ-r1-69-0", 
                    "object-type": "map-range", 
                    "to": "sent-PMC3232246-cmu-150"
                }, 
                {
                    "from": "sent-PMC3232246-UAZ-r1-35-0", 
                    "object-type": "map-range", 
                    "to": "sent-PMC3232246-cmu-70"
                }, 
                {
                    "from": "sent-PMC3232246-UAZ-r1-61-2", 
                    "object-type": "map-range", 
                    "to": "sent-PMC3232246-cmu-123"
                }, 
                {
                    "from": "sent-PMC3232246-UAZ-r1-111-1", 
                    "object-type": "map-range", 
                    "to": "sent-PMC3232246-cmu-240"
                }, 
                {
                    "from": "sent-PMC3232246-UAZ-r1-63-12", 
                    "object-type": "map-range", 
                    "to": "sent-PMC3232246-cmu-146"
                }, 
                {
                    "from": "sent-PMC3232246-UAZ-r1-63-9", 
                    "object-type": "map-range", 
                    "to": "sent-PMC3232246-cmu-143"
                }, 
                {
                    "from": "sent-PMC3232246-UAZ-r1-63-4", 
                    "object-type": "map-range", 
                    "to": "sent-PMC3232246-cmu-138"
                }, 
                {
                    "from": "sent-PMC3232246-UAZ-r1-75-11", 
                    "object-type": "map-range", 
                    "to": "sent-PMC3232246-cmu-168"
                }, 
                {
                    "from": "sent-PMC3232246-UAZ-r1-36-2", 
                    "object-type": "map-range", 
                    "to": "sent-PMC3232246-cmu-73"
                }, 
                {
                    "from": "sent-PMC3232246-UAZ-r1-49-2", 
                    "object-type": "map-range", 
                    "to": "sent-PMC3232246-cmu-105"
                }, 
                {
                    "from": "sent-PMC3232246-UAZ-r1-63-11", 
                    "object-type": "map-range", 
                    "to": "sent-PMC3232246-cmu-145"
                }, 
                {
                    "from": "sent-PMC3232246-UAZ-r1-79-4", 
                    "object-type": "map-range", 
                    "to": "sent-PMC3232246-cmu-173"
                }, 
                {
                    "from": "sent-PMC3232246-UAZ-r1-23-2", 
                    "object-type": "map-range", 
                    "to": "sent-PMC3232246-cmu-50"
                }, 
                {
                    "from": "sent-PMC3232246-UAZ-r1-79-2", 
                    "object-type": "map-range", 
                    "to": "sent-PMC3232246-cmu-171"
                }, 
                {
                    "from": "sent-PMC3232246-UAZ-r1-93-6", 
                    "object-type": "map-range", 
                    "to": "sent-PMC3232246-cmu-188"
                }, 
                {
                    "from": "sent-PMC3232246-UAZ-r1-36-6", 
                    "object-type": "map-range", 
                    "to": "sent-PMC3232246-cmu-77"
                }, 
                {
                    "from": "sent-PMC3232246-UAZ-r1-49-1", 
                    "object-type": "map-range", 
                    "to": "sent-PMC3232246-cmu-104"
                }, 
                {
                    "from": "sent-PMC3232246-UAZ-r1-74-0", 
                    "object-type": "map-range", 
                    "to": "sent-PMC3232246-cmu-155"
                }, 
                {
                    "from": "sent-PMC3232246-UAZ-r1-18-1", 
                    "object-type": "map-range", 
                    "to": "sent-PMC3232246-cmu-39"
                }, 
                {
                    "from": "sent-PMC3232246-UAZ-r1-7-2", 
                    "object-type": "map-range", 
                    "to": "sent-PMC3232246-cmu-12"
                }, 
                {
                    "from": "sent-PMC3232246-UAZ-r1-54-2", 
                    "object-type": "map-range", 
                    "to": "sent-PMC3232246-cmu-110"
                }, 
                {
                    "from": "sent-PMC3232246-UAZ-r1-46-0", 
                    "object-type": "map-range", 
                    "to": "sent-PMC3232246-cmu-97"
                }, 
                {
                    "from": "sent-PMC3232246-UAZ-r1-83-3", 
                    "object-type": "map-range", 
                    "to": "sent-PMC3232246-cmu-177"
                }, 
                {
                    "from": "sent-PMC3232246-UAZ-r1-20-0", 
                    "object-type": "map-range", 
                    "to": "sent-PMC3232246-cmu-43"
                }, 
                {
                    "from": "sent-PMC3232246-UAZ-r1-79-3", 
                    "object-type": "map-range", 
                    "to": "sent-PMC3232246-cmu-172"
                }, 
                {
                    "from": "sent-PMC3232246-UAZ-r1-109-7", 
                    "object-type": "map-range", 
                    "to": "sent-PMC3232246-cmu-230"
                }, 
                {
                    "from": "sent-PMC3232246-UAZ-r1-16-0", 
                    "object-type": "map-range", 
                    "to": "sent-PMC3232246-cmu-32"
                }, 
                {
                    "from": "sent-PMC3232246-UAZ-r1-33-0", 
                    "object-type": "map-range", 
                    "to": "sent-PMC3232246-cmu-65"
                }, 
                {
                    "from": "sent-PMC3232246-UAZ-r1-111-11", 
                    "object-type": "map-range", 
                    "to": "sent-PMC3232246-cmu-250"
                }, 
                {
                    "from": "sent-PMC3232246-UAZ-r1-7-6", 
                    "object-type": "map-range", 
                    "to": "sent-PMC3232246-cmu-16"
                }, 
                {
                    "from": "sent-PMC3232246-UAZ-r1-83-2", 
                    "object-type": "map-range", 
                    "to": "sent-PMC3232246-cmu-176"
                }, 
                {
                    "from": "sent-PMC3232246-UAZ-r1-97-5", 
                    "object-type": "map-range", 
                    "to": "sent-PMC3232246-cmu-194"
                }, 
                {
                    "from": "sent-PMC3232246-UAZ-r1-75-9", 
                    "object-type": "map-range", 
                    "to": "sent-PMC3232246-cmu-166"
                }, 
                {
                    "from": "sent-PMC3232246-UAZ-r1-7-9", 
                    "object-type": "map-range", 
                    "to": "sent-PMC3232246-cmu-20"
                }, 
                {
                    "from": "sent-PMC3232246-UAZ-r1-75-2", 
                    "object-type": "map-range", 
                    "to": "sent-PMC3232246-cmu-159"
                }, 
                {
                    "from": "sent-PMC3232246-UAZ-r1-87-1", 
                    "object-type": "map-range", 
                    "to": "sent-PMC3232246-cmu-179"
                }, 
                {
                    "from": "sent-PMC3232246-UAZ-r1-62-2", 
                    "object-type": "map-range", 
                    "to": "sent-PMC3232246-cmu-129"
                }, 
                {
                    "from": "sent-PMC3232246-UAZ-r1-61-4", 
                    "object-type": "map-range", 
                    "to": "sent-PMC3232246-cmu-125"
                }, 
                {
                    "from": "sent-PMC3232246-UAZ-r1-6-6", 
                    "object-type": "map-range", 
                    "to": "sent-PMC3232246-cmu-8"
                }, 
                {
                    "from": "sent-PMC3232246-UAZ-r1-63-10", 
                    "object-type": "map-range", 
                    "to": "sent-PMC3232246-cmu-144"
                }, 
                {
                    "from": "sent-PMC3232246-UAZ-r1-23-1", 
                    "object-type": "map-range", 
                    "to": "sent-PMC3232246-cmu-49"
                }, 
                {
                    "from": "sent-PMC3232246-UAZ-r1-100-5", 
                    "object-type": "map-range", 
                    "to": "sent-PMC3232246-cmu-204"
                }, 
                {
                    "from": "sent-PMC3232246-UAZ-r1-97-0", 
                    "object-type": "map-range", 
                    "to": "sent-PMC3232246-cmu-189"
                }, 
                {
                    "from": "sent-PMC3232246-UAZ-r1-23-0", 
                    "object-type": "map-range", 
                    "to": "sent-PMC3232246-cmu-48"
                }, 
                {
                    "from": "sent-PMC3232246-UAZ-r1-8-2", 
                    "object-type": "map-range", 
                    "to": "sent-PMC3232246-cmu-26"
                }, 
                {
                    "from": "sent-PMC3232246-UAZ-r1-75-6", 
                    "object-type": "map-range", 
                    "to": "sent-PMC3232246-cmu-163"
                }, 
                {
                    "from": "sent-PMC3232246-UAZ-r1-18-3", 
                    "object-type": "map-range", 
                    "to": "sent-PMC3232246-cmu-41"
                }, 
                {
                    "from": "sent-PMC3232246-UAZ-r1-109-2", 
                    "object-type": "map-range", 
                    "to": "sent-PMC3232246-cmu-225"
                }, 
                {
                    "from": "sent-PMC3232246-UAZ-r1-110-0", 
                    "object-type": "map-range", 
                    "to": "sent-PMC3232246-cmu-234"
                }, 
                {
                    "from": "sent-PMC3232246-UAZ-r1-93-5", 
                    "object-type": "map-range", 
                    "to": "sent-PMC3232246-cmu-187"
                }, 
                {
                    "from": "sent-PMC3232246-UAZ-r1-107-0", 
                    "object-type": "map-range", 
                    "to": "sent-PMC3232246-cmu-209"
                }, 
                {
                    "from": "sent-PMC3232246-UAZ-r1-61-5", 
                    "object-type": "map-range", 
                    "to": "sent-PMC3232246-cmu-126"
                }, 
                {
                    "from": "sent-PMC3232246-UAZ-r1-63-3", 
                    "object-type": "map-range", 
                    "to": "sent-PMC3232246-cmu-137"
                }, 
                {
                    "from": "sent-PMC3232246-UAZ-r1-107-2", 
                    "object-type": "map-range", 
                    "to": "sent-PMC3232246-cmu-211"
                }, 
                {
                    "from": "sent-PMC3232246-UAZ-r1-87-0", 
                    "object-type": "map-range", 
                    "to": "sent-PMC3232246-cmu-178"
                }, 
                {
                    "from": "sent-PMC3232246-UAZ-r1-36-1", 
                    "object-type": "map-range", 
                    "to": "sent-PMC3232246-cmu-72"
                }, 
                {
                    "from": "sent-PMC3232246-UAZ-r1-92-0", 
                    "object-type": "map-range", 
                    "to": "sent-PMC3232246-cmu-181"
                }, 
                {
                    "from": "sent-PMC3232246-UAZ-r1-69-4", 
                    "object-type": "map-range", 
                    "to": "sent-PMC3232246-cmu-154"
                }, 
                {
                    "from": "sent-PMC3232246-UAZ-r1-43-4", 
                    "object-type": "map-range", 
                    "to": "sent-PMC3232246-cmu-93"
                }, 
                {
                    "from": "sent-PMC3232246-UAZ-r1-63-1", 
                    "object-type": "map-range", 
                    "to": "sent-PMC3232246-cmu-135"
                }, 
                {
                    "from": "sent-PMC3232246-UAZ-r1-53-0", 
                    "object-type": "map-range", 
                    "to": "sent-PMC3232246-cmu-107"
                }, 
                {
                    "from": "sent-PMC3232246-UAZ-r1-16-1", 
                    "object-type": "map-range", 
                    "to": "sent-PMC3232246-cmu-33"
                }, 
                {
                    "from": "sent-PMC3232246-UAZ-r1-100-4", 
                    "object-type": "map-range", 
                    "to": "sent-PMC3232246-cmu-203"
                }, 
                {
                    "from": "sent-PMC3232246-UAZ-r1-46-4", 
                    "object-type": "map-range", 
                    "to": "sent-PMC3232246-cmu-101"
                }, 
                {
                    "from": "sent-PMC3232246-UAZ-r1-83-0", 
                    "object-type": "map-range", 
                    "to": "sent-PMC3232246-cmu-174"
                }, 
                {
                    "from": "sent-PMC3232246-UAZ-r1-32-0", 
                    "object-type": "map-range", 
                    "to": "sent-PMC3232246-cmu-64"
                }, 
                {
                    "from": "sent-PMC3232246-UAZ-r1-62-3", 
                    "object-type": "map-range", 
                    "to": "sent-PMC3232246-cmu-130"
                }, 
                {
                    "from": "sent-PMC3232246-UAZ-r1-40-2", 
                    "object-type": "map-range", 
                    "to": "sent-PMC3232246-cmu-84"
                }, 
                {
                    "from": "sent-PMC3232246-UAZ-r1-26-0", 
                    "object-type": "map-range", 
                    "to": "sent-PMC3232246-cmu-54"
                }, 
                {
                    "from": "sent-PMC3232246-UAZ-r1-108-5", 
                    "object-type": "map-range", 
                    "to": "sent-PMC3232246-cmu-221"
                }, 
                {
                    "from": "sent-PMC3232246-UAZ-r1-97-1", 
                    "object-type": "map-range", 
                    "to": "sent-PMC3232246-cmu-190"
                }, 
                {
                    "from": "sent-PMC3232246-UAZ-r1-18-0", 
                    "object-type": "map-range", 
                    "to": "sent-PMC3232246-cmu-38"
                }, 
                {
                    "from": "sent-PMC3232246-UAZ-r1-63-5", 
                    "object-type": "map-range", 
                    "to": "sent-PMC3232246-cmu-139"
                }, 
                {
                    "from": "sent-PMC3232246-UAZ-r1-111-3", 
                    "object-type": "map-range", 
                    "to": "sent-PMC3232246-cmu-242"
                }, 
                {
                    "from": "sent-PMC3232246-UAZ-r1-6-1", 
                    "object-type": "map-range", 
                    "to": "sent-PMC3232246-cmu-3"
                }, 
                {
                    "from": "sent-PMC3232246-UAZ-r1-61-3", 
                    "object-type": "map-range", 
                    "to": "sent-PMC3232246-cmu-124"
                }, 
                {
                    "from": "sent-PMC3232246-UAZ-r1-7-8", 
                    "object-type": "map-range", 
                    "to": "sent-PMC3232246-cmu-19"
                }, 
                {
                    "from": "sent-PMC3232246-UAZ-r1-40-4", 
                    "object-type": "map-range", 
                    "to": "sent-PMC3232246-cmu-86"
                }, 
                {
                    "from": "sent-PMC3232246-UAZ-r1-60-1", 
                    "object-type": "map-range", 
                    "to": "sent-PMC3232246-cmu-119"
                }, 
                {
                    "from": "sent-PMC3232246-UAZ-r1-79-0", 
                    "object-type": "map-range", 
                    "to": "sent-PMC3232246-cmu-169"
                }, 
                {
                    "from": "sent-PMC3232246-UAZ-r1-28-0", 
                    "object-type": "map-range", 
                    "to": "sent-PMC3232246-cmu-59"
                }
            ], 
            "object-meta": {
                "component": "Pradeep-Matcher", 
                "object-type": "meta-info", 
                "organization": "CMU"
            }, 
            "object-type": "frame"
        }, 
        {
            "frame-id": "smap-PMC3232246-cmu-2", 
            "frame-type": "sentence-map", 
            "list1-meta": {
                "component": "MedScan", 
                "object-type": "meta-info", 
                "organization": "CMU"
            }, 
            "list2-meta": {
                "component": "Nicolas-NXML-Parser", 
                "object-type": "meta-info", 
                "organization": "CMU"
            }, 
            "map": [
                {
                    "from": "sent-PMC3232246-medscan-84", 
                    "object-type": "map-range", 
                    "to": "sent-PMC3232246-cmu-92"
                }, 
                {
                    "from": "sent-PMC3232246-medscan-101", 
                    "object-type": "map-range", 
                    "to": "sent-PMC3232246-cmu-113"
                }, 
                {
                    "from": "sent-PMC3232246-medscan-87", 
                    "object-type": "map-range", 
                    "to": "sent-PMC3232246-cmu-95"
                }, 
                {
                    "from": "sent-PMC3232246-medscan-133", 
                    "object-type": "map-range", 
                    "to": "sent-PMC3232246-cmu-136"
                }, 
                {
                    "from": "sent-PMC3232246-medscan-93", 
                    "object-type": "map-range", 
                    "to": "sent-PMC3232246-cmu-103"
                }, 
                {
                    "from": "sent-PMC3232246-medscan-271", 
                    "object-type": "map-range", 
                    "to": "sent-PMC3232246-cmu-243"
                }, 
                {
                    "from": "sent-PMC3232246-medscan-281", 
                    "object-type": "map-range", 
                    "to": "sent-PMC3232246-cmu-253"
                }, 
                {
                    "from": "sent-PMC3232246-medscan-118", 
                    "object-type": "map-range", 
                    "to": "sent-PMC3232246-cmu-121"
                }, 
                {
                    "from": "sent-PMC3232246-medscan-263", 
                    "object-type": "map-range", 
                    "to": "sent-PMC3232246-cmu-235"
                }, 
                {
                    "from": "sent-PMC3232246-medscan-55", 
                    "object-type": "map-range", 
                    "to": "sent-PMC3232246-cmu-57"
                }, 
                {
                    "from": "sent-PMC3232246-medscan-130", 
                    "object-type": "map-range", 
                    "to": "sent-PMC3232246-cmu-133"
                }, 
                {
                    "from": "sent-PMC3232246-medscan-128", 
                    "object-type": "map-range", 
                    "to": "sent-PMC3232246-cmu-131"
                }, 
                {
                    "from": "sent-PMC3232246-medscan-37", 
                    "object-type": "map-range", 
                    "to": "sent-PMC3232246-cmu-37"
                }, 
                {
                    "from": "sent-PMC3232246-medscan-78", 
                    "object-type": "map-range", 
                    "to": "sent-PMC3232246-cmu-85"
                }, 
                {
                    "from": "sent-PMC3232246-medscan-62", 
                    "object-type": "map-range", 
                    "to": "sent-PMC3232246-cmu-66"
                }, 
                {
                    "from": "sent-PMC3232246-medscan-12", 
                    "object-type": "map-range", 
                    "to": "sent-PMC3232246-cmu-14"
                }, 
                {
                    "from": "sent-PMC3232246-medscan-272", 
                    "object-type": "map-range", 
                    "to": "sent-PMC3232246-cmu-244"
                }, 
                {
                    "from": "sent-PMC3232246-medscan-64", 
                    "object-type": "map-range", 
                    "to": "sent-PMC3232246-cmu-68"
                }, 
                {
                    "from": "sent-PMC3232246-medscan-199", 
                    "object-type": "map-range", 
                    "to": "sent-PMC3232246-cmu-180"
                }, 
                {
                    "from": "sent-PMC3232246-medscan-221", 
                    "object-type": "map-range", 
                    "to": "sent-PMC3232246-cmu-192"
                }, 
                {
                    "from": "sent-PMC3232246-medscan-59", 
                    "object-type": "map-range", 
                    "to": "sent-PMC3232246-cmu-62"
                }, 
                {
                    "from": "sent-PMC3232246-medscan-82", 
                    "object-type": "map-range", 
                    "to": "sent-PMC3232246-cmu-90"
                }, 
                {
                    "from": "sent-PMC3232246-medscan-267", 
                    "object-type": "map-range", 
                    "to": "sent-PMC3232246-cmu-239"
                }, 
                {
                    "from": "sent-PMC3232246-medscan-137", 
                    "object-type": "map-range", 
                    "to": "sent-PMC3232246-cmu-140"
                }, 
                {
                    "from": "sent-PMC3232246-medscan-171", 
                    "object-type": "map-range", 
                    "to": "sent-PMC3232246-cmu-164"
                }, 
                {
                    "from": "sent-PMC3232246-medscan-50", 
                    "object-type": "map-range", 
                    "to": "sent-PMC3232246-cmu-51"
                }, 
                {
                    "from": "sent-PMC3232246-medscan-144", 
                    "object-type": "map-range", 
                    "to": "sent-PMC3232246-cmu-147"
                }, 
                {
                    "from": "sent-PMC3232246-medscan-277", 
                    "object-type": "map-range", 
                    "to": "sent-PMC3232246-cmu-249"
                }, 
                {
                    "from": "sent-PMC3232246-medscan-275", 
                    "object-type": "map-range", 
                    "to": "sent-PMC3232246-cmu-247"
                }, 
                {
                    "from": "sent-PMC3232246-medscan-251", 
                    "object-type": "map-range", 
                    "to": "sent-PMC3232246-cmu-223"
                }, 
                {
                    "from": "sent-PMC3232246-medscan-72", 
                    "object-type": "map-range", 
                    "to": "sent-PMC3232246-cmu-78"
                }, 
                {
                    "from": "sent-PMC3232246-medscan-89", 
                    "object-type": "map-range", 
                    "to": "sent-PMC3232246-cmu-98"
                }, 
                {
                    "from": "sent-PMC3232246-medscan-265", 
                    "object-type": "map-range", 
                    "to": "sent-PMC3232246-cmu-237"
                }, 
                {
                    "from": "sent-PMC3232246-medscan-237", 
                    "object-type": "map-range", 
                    "to": "sent-PMC3232246-cmu-208"
                }, 
                {
                    "from": "sent-PMC3232246-medscan-235", 
                    "object-type": "map-range", 
                    "to": "sent-PMC3232246-cmu-206"
                }, 
                {
                    "from": "sent-PMC3232246-medscan-235", 
                    "object-type": "map-range", 
                    "to": "sent-PMC3232246-cmu-206"
                }, 
                {
                    "from": "sent-PMC3232246-medscan-174", 
                    "object-type": "map-range", 
                    "to": "sent-PMC3232246-cmu-167"
                }, 
                {
                    "from": "sent-PMC3232246-medscan-45", 
                    "object-type": "map-range", 
                    "to": "sent-PMC3232246-cmu-45"
                }, 
                {
                    "from": "sent-PMC3232246-medscan-74", 
                    "object-type": "map-range", 
                    "to": "sent-PMC3232246-cmu-80"
                }, 
                {
                    "from": "sent-PMC3232246-medscan-280", 
                    "object-type": "map-range", 
                    "to": "sent-PMC3232246-cmu-252"
                }, 
                {
                    "from": "sent-PMC3232246-medscan-76", 
                    "object-type": "map-range", 
                    "to": "sent-PMC3232246-cmu-83"
                }, 
                {
                    "from": "sent-PMC3232246-medscan-145", 
                    "object-type": "map-range", 
                    "to": "sent-PMC3232246-cmu-148"
                }, 
                {
                    "from": "sent-PMC3232246-medscan-97", 
                    "object-type": "map-range", 
                    "to": "sent-PMC3232246-cmu-109"
                }, 
                {
                    "from": "sent-PMC3232246-medscan-117", 
                    "object-type": "map-range", 
                    "to": "sent-PMC3232246-cmu-120"
                }, 
                {
                    "from": "sent-PMC3232246-medscan-204", 
                    "object-type": "map-range", 
                    "to": "sent-PMC3232246-cmu-182"
                }, 
                {
                    "from": "sent-PMC3232246-medscan-244", 
                    "object-type": "map-range", 
                    "to": "sent-PMC3232246-cmu-215"
                }, 
                {
                    "from": "sent-PMC3232246-medscan-156", 
                    "object-type": "map-range", 
                    "to": "sent-PMC3232246-cmu-153"
                }, 
                {
                    "from": "sent-PMC3232246-medscan-246", 
                    "object-type": "map-range", 
                    "to": "sent-PMC3232246-cmu-217"
                }, 
                {
                    "from": "sent-PMC3232246-medscan-257", 
                    "object-type": "map-range", 
                    "to": "sent-PMC3232246-cmu-229"
                }, 
                {
                    "from": "sent-PMC3232246-medscan-42", 
                    "object-type": "map-range", 
                    "to": "sent-PMC3232246-cmu-42"
                }, 
                {
                    "from": "sent-PMC3232246-medscan-70", 
                    "object-type": "map-range", 
                    "to": "sent-PMC3232246-cmu-76"
                }, 
                {
                    "from": "sent-PMC3232246-medscan-69", 
                    "object-type": "map-range", 
                    "to": "sent-PMC3232246-cmu-74"
                }, 
                {
                    "from": "sent-PMC3232246-medscan-58", 
                    "object-type": "map-range", 
                    "to": "sent-PMC3232246-cmu-61"
                }, 
                {
                    "from": "sent-PMC3232246-medscan-222", 
                    "object-type": "map-range", 
                    "to": "sent-PMC3232246-cmu-193"
                }, 
                {
                    "from": "sent-PMC3232246-medscan-226", 
                    "object-type": "map-range", 
                    "to": "sent-PMC3232246-cmu-197"
                }, 
                {
                    "from": "sent-PMC3232246-medscan-208", 
                    "object-type": "map-range", 
                    "to": "sent-PMC3232246-cmu-186"
                }, 
                {
                    "from": "sent-PMC3232246-medscan-81", 
                    "object-type": "map-range", 
                    "to": "sent-PMC3232246-cmu-89"
                }, 
                {
                    "from": "sent-PMC3232246-medscan-168", 
                    "object-type": "map-range", 
                    "to": "sent-PMC3232246-cmu-161"
                }, 
                {
                    "from": "sent-PMC3232246-medscan-44", 
                    "object-type": "map-range", 
                    "to": "sent-PMC3232246-cmu-44"
                }, 
                {
                    "from": "sent-PMC3232246-medscan-255", 
                    "object-type": "map-range", 
                    "to": "sent-PMC3232246-cmu-227"
                }, 
                {
                    "from": "sent-PMC3232246-medscan-224", 
                    "object-type": "map-range", 
                    "to": "sent-PMC3232246-cmu-195"
                }, 
                {
                    "from": "sent-PMC3232246-medscan-104", 
                    "object-type": "map-range", 
                    "to": "sent-PMC3232246-cmu-116"
                }, 
                {
                    "from": "sent-PMC3232246-medscan-139", 
                    "object-type": "map-range", 
                    "to": "sent-PMC3232246-cmu-142"
                }, 
                {
                    "from": "sent-PMC3232246-medscan-254", 
                    "object-type": "map-range", 
                    "to": "sent-PMC3232246-cmu-226"
                }, 
                {
                    "from": "sent-PMC3232246-medscan-0", 
                    "object-type": "map-range", 
                    "to": "sent-PMC3232246-cmu-2"
                }, 
                {
                    "from": "sent-PMC3232246-medscan-80", 
                    "object-type": "map-range", 
                    "to": "sent-PMC3232246-cmu-87"
                }, 
                {
                    "from": "sent-PMC3232246-medscan-35", 
                    "object-type": "map-range", 
                    "to": "sent-PMC3232246-cmu-36"
                }, 
                {
                    "from": "sent-PMC3232246-medscan-273", 
                    "object-type": "map-range", 
                    "to": "sent-PMC3232246-cmu-245"
                }, 
                {
                    "from": "sent-PMC3232246-medscan-46", 
                    "object-type": "map-range", 
                    "to": "sent-PMC3232246-cmu-46"
                }, 
                {
                    "from": "sent-PMC3232246-medscan-8", 
                    "object-type": "map-range", 
                    "to": "sent-PMC3232246-cmu-10"
                }, 
                {
                    "from": "sent-PMC3232246-medscan-207", 
                    "object-type": "map-range", 
                    "to": "sent-PMC3232246-cmu-185"
                }, 
                {
                    "from": "sent-PMC3232246-medscan-205", 
                    "object-type": "map-range", 
                    "to": "sent-PMC3232246-cmu-183"
                }, 
                {
                    "from": "sent-PMC3232246-medscan-269", 
                    "object-type": "map-range", 
                    "to": "sent-PMC3232246-cmu-241"
                }, 
                {
                    "from": "sent-PMC3232246-medscan-40", 
                    "object-type": "map-range", 
                    "to": "sent-PMC3232246-cmu-40"
                }, 
                {
                    "from": "sent-PMC3232246-medscan-131", 
                    "object-type": "map-range", 
                    "to": "sent-PMC3232246-cmu-134"
                }, 
                {
                    "from": "sent-PMC3232246-medscan-99", 
                    "object-type": "map-range", 
                    "to": "sent-PMC3232246-cmu-111"
                }, 
                {
                    "from": "sent-PMC3232246-medscan-165", 
                    "object-type": "map-range", 
                    "to": "sent-PMC3232246-cmu-158"
                }, 
                {
                    "from": "sent-PMC3232246-medscan-5", 
                    "object-type": "map-range", 
                    "to": "sent-PMC3232246-cmu-7"
                }, 
                {
                    "from": "sent-PMC3232246-medscan-5", 
                    "object-type": "map-range", 
                    "to": "sent-PMC3232246-cmu-7"
                }, 
                {
                    "from": "sent-PMC3232246-medscan-65", 
                    "object-type": "map-range", 
                    "to": "sent-PMC3232246-cmu-69"
                }, 
                {
                    "from": "sent-PMC3232246-medscan-260", 
                    "object-type": "map-range", 
                    "to": "sent-PMC3232246-cmu-232"
                }, 
                {
                    "from": "sent-PMC3232246-medscan-279", 
                    "object-type": "map-range", 
                    "to": "sent-PMC3232246-cmu-251"
                }, 
                {
                    "from": "sent-PMC3232246-medscan-66", 
                    "object-type": "map-range", 
                    "to": "sent-PMC3232246-cmu-71"
                }, 
                {
                    "from": "sent-PMC3232246-medscan-13", 
                    "object-type": "map-range", 
                    "to": "sent-PMC3232246-cmu-15"
                }, 
                {
                    "from": "sent-PMC3232246-medscan-274", 
                    "object-type": "map-range", 
                    "to": "sent-PMC3232246-cmu-246"
                }, 
                {
                    "from": "sent-PMC3232246-medscan-91", 
                    "object-type": "map-range", 
                    "to": "sent-PMC3232246-cmu-100"
                }, 
                {
                    "from": "sent-PMC3232246-medscan-105", 
                    "object-type": "map-range", 
                    "to": "sent-PMC3232246-cmu-117"
                }, 
                {
                    "from": "sent-PMC3232246-medscan-236", 
                    "object-type": "map-range", 
                    "to": "sent-PMC3232246-cmu-207"
                }, 
                {
                    "from": "sent-PMC3232246-medscan-235", 
                    "object-type": "map-range", 
                    "to": "sent-PMC3232246-cmu-21"
                }, 
                {
                    "from": "sent-PMC3232246-medscan-235", 
                    "object-type": "map-range", 
                    "to": "sent-PMC3232246-cmu-21"
                }, 
                {
                    "from": "sent-PMC3232246-medscan-56", 
                    "object-type": "map-range", 
                    "to": "sent-PMC3232246-cmu-58"
                }, 
                {
                    "from": "sent-PMC3232246-medscan-228", 
                    "object-type": "map-range", 
                    "to": "sent-PMC3232246-cmu-200"
                }, 
                {
                    "from": "sent-PMC3232246-medscan-242", 
                    "object-type": "map-range", 
                    "to": "sent-PMC3232246-cmu-213"
                }, 
                {
                    "from": "sent-PMC3232246-medscan-26", 
                    "object-type": "map-range", 
                    "to": "sent-PMC3232246-cmu-29"
                }, 
                {
                    "from": "sent-PMC3232246-medscan-221", 
                    "object-type": "map-range", 
                    "to": "sent-PMC3232246-cmu-184"
                }, 
                {
                    "from": "sent-PMC3232246-medscan-221", 
                    "object-type": "map-range", 
                    "to": "sent-PMC3232246-cmu-184"
                }, 
                {
                    "from": "sent-PMC3232246-medscan-73", 
                    "object-type": "map-range", 
                    "to": "sent-PMC3232246-cmu-79"
                }, 
                {
                    "from": "sent-PMC3232246-medscan-129", 
                    "object-type": "map-range", 
                    "to": "sent-PMC3232246-cmu-132"
                }, 
                {
                    "from": "sent-PMC3232246-medscan-63", 
                    "object-type": "map-range", 
                    "to": "sent-PMC3232246-cmu-67"
                }, 
                {
                    "from": "sent-PMC3232246-medscan-57", 
                    "object-type": "map-range", 
                    "to": "sent-PMC3232246-cmu-60"
                }, 
                {
                    "from": "sent-PMC3232246-medscan-4", 
                    "object-type": "map-range", 
                    "to": "sent-PMC3232246-cmu-6"
                }, 
                {
                    "from": "sent-PMC3232246-medscan-192", 
                    "object-type": "map-range", 
                    "to": "sent-PMC3232246-cmu-175"
                }, 
                {
                    "from": "sent-PMC3232246-medscan-24", 
                    "object-type": "map-range", 
                    "to": "sent-PMC3232246-cmu-27"
                }, 
                {
                    "from": "sent-PMC3232246-medscan-20", 
                    "object-type": "map-range", 
                    "to": "sent-PMC3232246-cmu-23"
                }, 
                {
                    "from": "sent-PMC3232246-medscan-264", 
                    "object-type": "map-range", 
                    "to": "sent-PMC3232246-cmu-236"
                }, 
                {
                    "from": "sent-PMC3232246-medscan-229", 
                    "object-type": "map-range", 
                    "to": "sent-PMC3232246-cmu-201"
                }, 
                {
                    "from": "sent-PMC3232246-medscan-53", 
                    "object-type": "map-range", 
                    "to": "sent-PMC3232246-cmu-55"
                }, 
                {
                    "from": "sent-PMC3232246-medscan-227", 
                    "object-type": "map-range", 
                    "to": "sent-PMC3232246-cmu-199"
                }, 
                {
                    "from": "sent-PMC3232246-medscan-2", 
                    "object-type": "map-range", 
                    "to": "sent-PMC3232246-cmu-4"
                }, 
                {
                    "from": "sent-PMC3232246-medscan-241", 
                    "object-type": "map-range", 
                    "to": "sent-PMC3232246-cmu-212"
                }, 
                {
                    "from": "sent-PMC3232246-medscan-164", 
                    "object-type": "map-range", 
                    "to": "sent-PMC3232246-cmu-156"
                }, 
                {
                    "from": "sent-PMC3232246-medscan-256", 
                    "object-type": "map-range", 
                    "to": "sent-PMC3232246-cmu-228"
                }, 
                {
                    "from": "sent-PMC3232246-medscan-60", 
                    "object-type": "map-range", 
                    "to": "sent-PMC3232246-cmu-63"
                }, 
                {
                    "from": "sent-PMC3232246-medscan-54", 
                    "object-type": "map-range", 
                    "to": "sent-PMC3232246-cmu-56"
                }, 
                {
                    "from": "sent-PMC3232246-medscan-86", 
                    "object-type": "map-range", 
                    "to": "sent-PMC3232246-cmu-94"
                }, 
                {
                    "from": "sent-PMC3232246-medscan-138", 
                    "object-type": "map-range", 
                    "to": "sent-PMC3232246-cmu-141"
                }, 
                {
                    "from": "sent-PMC3232246-medscan-154", 
                    "object-type": "map-range", 
                    "to": "sent-PMC3232246-cmu-151"
                }, 
                {
                    "from": "sent-PMC3232246-medscan-22", 
                    "object-type": "map-range", 
                    "to": "sent-PMC3232246-cmu-25"
                }, 
                {
                    "from": "sent-PMC3232246-medscan-235", 
                    "object-type": "map-range", 
                    "to": "sent-PMC3232246-cmu-24"
                }, 
                {
                    "from": "sent-PMC3232246-medscan-235", 
                    "object-type": "map-range", 
                    "to": "sent-PMC3232246-cmu-24"
                }, 
                {
                    "from": "sent-PMC3232246-medscan-247", 
                    "object-type": "map-range", 
                    "to": "sent-PMC3232246-cmu-218"
                }, 
                {
                    "from": "sent-PMC3232246-medscan-3", 
                    "object-type": "map-range", 
                    "to": "sent-PMC3232246-cmu-5"
                }, 
                {
                    "from": "sent-PMC3232246-medscan-11", 
                    "object-type": "map-range", 
                    "to": "sent-PMC3232246-cmu-13"
                }, 
                {
                    "from": "sent-PMC3232246-medscan-102", 
                    "object-type": "map-range", 
                    "to": "sent-PMC3232246-cmu-114"
                }, 
                {
                    "from": "sent-PMC3232246-medscan-96", 
                    "object-type": "map-range", 
                    "to": "sent-PMC3232246-cmu-108"
                }, 
                {
                    "from": "sent-PMC3232246-medscan-90", 
                    "object-type": "map-range", 
                    "to": "sent-PMC3232246-cmu-99"
                }, 
                {
                    "from": "sent-PMC3232246-medscan-239", 
                    "object-type": "map-range", 
                    "to": "sent-PMC3232246-cmu-210"
                }, 
                {
                    "from": "sent-PMC3232246-medscan-245", 
                    "object-type": "map-range", 
                    "to": "sent-PMC3232246-cmu-216"
                }, 
                {
                    "from": "sent-PMC3232246-medscan-125", 
                    "object-type": "map-range", 
                    "to": "sent-PMC3232246-cmu-128"
                }, 
                {
                    "from": "sent-PMC3232246-medscan-155", 
                    "object-type": "map-range", 
                    "to": "sent-PMC3232246-cmu-152"
                }, 
                {
                    "from": "sent-PMC3232246-medscan-172", 
                    "object-type": "map-range", 
                    "to": "sent-PMC3232246-cmu-165"
                }, 
                {
                    "from": "sent-PMC3232246-medscan-230", 
                    "object-type": "map-range", 
                    "to": "sent-PMC3232246-cmu-202"
                }, 
                {
                    "from": "sent-PMC3232246-medscan-252", 
                    "object-type": "map-range", 
                    "to": "sent-PMC3232246-cmu-224"
                }, 
                {
                    "from": "sent-PMC3232246-medscan-100", 
                    "object-type": "map-range", 
                    "to": "sent-PMC3232246-cmu-112"
                }, 
                {
                    "from": "sent-PMC3232246-medscan-169", 
                    "object-type": "map-range", 
                    "to": "sent-PMC3232246-cmu-162"
                }, 
                {
                    "from": "sent-PMC3232246-medscan-153", 
                    "object-type": "map-range", 
                    "to": "sent-PMC3232246-cmu-150"
                }, 
                {
                    "from": "sent-PMC3232246-medscan-276", 
                    "object-type": "map-range", 
                    "to": "sent-PMC3232246-cmu-248"
                }, 
                {
                    "from": "sent-PMC3232246-medscan-268", 
                    "object-type": "map-range", 
                    "to": "sent-PMC3232246-cmu-240"
                }, 
                {
                    "from": "sent-PMC3232246-medscan-143", 
                    "object-type": "map-range", 
                    "to": "sent-PMC3232246-cmu-146"
                }, 
                {
                    "from": "sent-PMC3232246-medscan-140", 
                    "object-type": "map-range", 
                    "to": "sent-PMC3232246-cmu-143"
                }, 
                {
                    "from": "sent-PMC3232246-medscan-135", 
                    "object-type": "map-range", 
                    "to": "sent-PMC3232246-cmu-138"
                }, 
                {
                    "from": "sent-PMC3232246-medscan-68", 
                    "object-type": "map-range", 
                    "to": "sent-PMC3232246-cmu-73"
                }, 
                {
                    "from": "sent-PMC3232246-medscan-95", 
                    "object-type": "map-range", 
                    "to": "sent-PMC3232246-cmu-105"
                }, 
                {
                    "from": "sent-PMC3232246-medscan-261", 
                    "object-type": "map-range", 
                    "to": "sent-PMC3232246-cmu-233"
                }, 
                {
                    "from": "sent-PMC3232246-medscan-142", 
                    "object-type": "map-range", 
                    "to": "sent-PMC3232246-cmu-145"
                }, 
                {
                    "from": "sent-PMC3232246-medscan-180", 
                    "object-type": "map-range", 
                    "to": "sent-PMC3232246-cmu-173"
                }, 
                {
                    "from": "sent-PMC3232246-medscan-25", 
                    "object-type": "map-range", 
                    "to": "sent-PMC3232246-cmu-28"
                }, 
                {
                    "from": "sent-PMC3232246-medscan-49", 
                    "object-type": "map-range", 
                    "to": "sent-PMC3232246-cmu-50"
                }, 
                {
                    "from": "sent-PMC3232246-medscan-178", 
                    "object-type": "map-range", 
                    "to": "sent-PMC3232246-cmu-171"
                }, 
                {
                    "from": "sent-PMC3232246-medscan-210", 
                    "object-type": "map-range", 
                    "to": "sent-PMC3232246-cmu-188"
                }, 
                {
                    "from": "sent-PMC3232246-medscan-103", 
                    "object-type": "map-range", 
                    "to": "sent-PMC3232246-cmu-115"
                }, 
                {
                    "from": "sent-PMC3232246-medscan-94", 
                    "object-type": "map-range", 
                    "to": "sent-PMC3232246-cmu-104"
                }, 
                {
                    "from": "sent-PMC3232246-medscan-31", 
                    "object-type": "map-range", 
                    "to": "sent-PMC3232246-cmu-34"
                }, 
                {
                    "from": "sent-PMC3232246-medscan-225", 
                    "object-type": "map-range", 
                    "to": "sent-PMC3232246-cmu-196"
                }, 
                {
                    "from": "sent-PMC3232246-medscan-39", 
                    "object-type": "map-range", 
                    "to": "sent-PMC3232246-cmu-39"
                }, 
                {
                    "from": "sent-PMC3232246-medscan-10", 
                    "object-type": "map-range", 
                    "to": "sent-PMC3232246-cmu-12"
                }, 
                {
                    "from": "sent-PMC3232246-medscan-98", 
                    "object-type": "map-range", 
                    "to": "sent-PMC3232246-cmu-110"
                }, 
                {
                    "from": "sent-PMC3232246-medscan-88", 
                    "object-type": "map-range", 
                    "to": "sent-PMC3232246-cmu-97"
                }, 
                {
                    "from": "sent-PMC3232246-medscan-194", 
                    "object-type": "map-range", 
                    "to": "sent-PMC3232246-cmu-177"
                }, 
                {
                    "from": "sent-PMC3232246-medscan-43", 
                    "object-type": "map-range", 
                    "to": "sent-PMC3232246-cmu-43"
                }, 
                {
                    "from": "sent-PMC3232246-medscan-179", 
                    "object-type": "map-range", 
                    "to": "sent-PMC3232246-cmu-172"
                }, 
                {
                    "from": "sent-PMC3232246-medscan-124", 
                    "object-type": "map-range", 
                    "to": "sent-PMC3232246-cmu-32"
                }, 
                {
                    "from": "sent-PMC3232246-medscan-124", 
                    "object-type": "map-range", 
                    "to": "sent-PMC3232246-cmu-32"
                }, 
                {
                    "from": "sent-PMC3232246-medscan-61", 
                    "object-type": "map-range", 
                    "to": "sent-PMC3232246-cmu-65"
                }, 
                {
                    "from": "sent-PMC3232246-medscan-278", 
                    "object-type": "map-range", 
                    "to": "sent-PMC3232246-cmu-250"
                }, 
                {
                    "from": "sent-PMC3232246-medscan-14", 
                    "object-type": "map-range", 
                    "to": "sent-PMC3232246-cmu-16"
                }, 
                {
                    "from": "sent-PMC3232246-medscan-193", 
                    "object-type": "map-range", 
                    "to": "sent-PMC3232246-cmu-176"
                }, 
                {
                    "from": "sent-PMC3232246-medscan-223", 
                    "object-type": "map-range", 
                    "to": "sent-PMC3232246-cmu-194"
                }, 
                {
                    "from": "sent-PMC3232246-medscan-173", 
                    "object-type": "map-range", 
                    "to": "sent-PMC3232246-cmu-166"
                }, 
                {
                    "from": "sent-PMC3232246-medscan-198", 
                    "object-type": "map-range", 
                    "to": "sent-PMC3232246-cmu-179"
                }, 
                {
                    "from": "sent-PMC3232246-medscan-126", 
                    "object-type": "map-range", 
                    "to": "sent-PMC3232246-cmu-129"
                }, 
                {
                    "from": "sent-PMC3232246-medscan-33", 
                    "object-type": "map-range", 
                    "to": "sent-PMC3232246-cmu-35"
                }, 
                {
                    "from": "sent-PMC3232246-medscan-122", 
                    "object-type": "map-range", 
                    "to": "sent-PMC3232246-cmu-125"
                }, 
                {
                    "from": "sent-PMC3232246-medscan-141", 
                    "object-type": "map-range", 
                    "to": "sent-PMC3232246-cmu-144"
                }, 
                {
                    "from": "sent-PMC3232246-medscan-48", 
                    "object-type": "map-range", 
                    "to": "sent-PMC3232246-cmu-49"
                }, 
                {
                    "from": "sent-PMC3232246-medscan-218", 
                    "object-type": "map-range", 
                    "to": "sent-PMC3232246-cmu-189"
                }, 
                {
                    "from": "sent-PMC3232246-medscan-47", 
                    "object-type": "map-range", 
                    "to": "sent-PMC3232246-cmu-48"
                }, 
                {
                    "from": "sent-PMC3232246-medscan-23", 
                    "object-type": "map-range", 
                    "to": "sent-PMC3232246-cmu-26"
                }, 
                {
                    "from": "sent-PMC3232246-medscan-170", 
                    "object-type": "map-range", 
                    "to": "sent-PMC3232246-cmu-163"
                }, 
                {
                    "from": "sent-PMC3232246-medscan-41", 
                    "object-type": "map-range", 
                    "to": "sent-PMC3232246-cmu-41"
                }, 
                {
                    "from": "sent-PMC3232246-medscan-262", 
                    "object-type": "map-range", 
                    "to": "sent-PMC3232246-cmu-234"
                }, 
                {
                    "from": "sent-PMC3232246-medscan-209", 
                    "object-type": "map-range", 
                    "to": "sent-PMC3232246-cmu-187"
                }, 
                {
                    "from": "sent-PMC3232246-medscan-15", 
                    "object-type": "map-range", 
                    "to": "sent-PMC3232246-cmu-18"
                }, 
                {
                    "from": "sent-PMC3232246-medscan-123", 
                    "object-type": "map-range", 
                    "to": "sent-PMC3232246-cmu-126"
                }, 
                {
                    "from": "sent-PMC3232246-medscan-134", 
                    "object-type": "map-range", 
                    "to": "sent-PMC3232246-cmu-137"
                }, 
                {
                    "from": "sent-PMC3232246-medscan-51", 
                    "object-type": "map-range", 
                    "to": "sent-PMC3232246-cmu-52"
                }, 
                {
                    "from": "sent-PMC3232246-medscan-240", 
                    "object-type": "map-range", 
                    "to": "sent-PMC3232246-cmu-211"
                }, 
                {
                    "from": "sent-PMC3232246-medscan-67", 
                    "object-type": "map-range", 
                    "to": "sent-PMC3232246-cmu-72"
                }, 
                {
                    "from": "sent-PMC3232246-medscan-167", 
                    "object-type": "map-range", 
                    "to": "sent-PMC3232246-cmu-160"
                }, 
                {
                    "from": "sent-PMC3232246-medscan-248", 
                    "object-type": "map-range", 
                    "to": "sent-PMC3232246-cmu-219"
                }, 
                {
                    "from": "sent-PMC3232246-medscan-157", 
                    "object-type": "map-range", 
                    "to": "sent-PMC3232246-cmu-154"
                }, 
                {
                    "from": "sent-PMC3232246-medscan-85", 
                    "object-type": "map-range", 
                    "to": "sent-PMC3232246-cmu-93"
                }, 
                {
                    "from": "sent-PMC3232246-medscan-132", 
                    "object-type": "map-range", 
                    "to": "sent-PMC3232246-cmu-135"
                }, 
                {
                    "from": "sent-PMC3232246-medscan-30", 
                    "object-type": "map-range", 
                    "to": "sent-PMC3232246-cmu-33"
                }, 
                {
                    "from": "sent-PMC3232246-medscan-231", 
                    "object-type": "map-range", 
                    "to": "sent-PMC3232246-cmu-203"
                }, 
                {
                    "from": "sent-PMC3232246-medscan-92", 
                    "object-type": "map-range", 
                    "to": "sent-PMC3232246-cmu-101"
                }, 
                {
                    "from": "sent-PMC3232246-medscan-191", 
                    "object-type": "map-range", 
                    "to": "sent-PMC3232246-cmu-174"
                }, 
                {
                    "from": "sent-PMC3232246-medscan-127", 
                    "object-type": "map-range", 
                    "to": "sent-PMC3232246-cmu-130"
                }, 
                {
                    "from": "sent-PMC3232246-medscan-77", 
                    "object-type": "map-range", 
                    "to": "sent-PMC3232246-cmu-84"
                }, 
                {
                    "from": "sent-PMC3232246-medscan-52", 
                    "object-type": "map-range", 
                    "to": "sent-PMC3232246-cmu-54"
                }, 
                {
                    "from": "sent-PMC3232246-medscan-250", 
                    "object-type": "map-range", 
                    "to": "sent-PMC3232246-cmu-221"
                }, 
                {
                    "from": "sent-PMC3232246-medscan-219", 
                    "object-type": "map-range", 
                    "to": "sent-PMC3232246-cmu-190"
                }, 
                {
                    "from": "sent-PMC3232246-medscan-38", 
                    "object-type": "map-range", 
                    "to": "sent-PMC3232246-cmu-38"
                }, 
                {
                    "from": "sent-PMC3232246-medscan-136", 
                    "object-type": "map-range", 
                    "to": "sent-PMC3232246-cmu-139"
                }, 
                {
                    "from": "sent-PMC3232246-medscan-270", 
                    "object-type": "map-range", 
                    "to": "sent-PMC3232246-cmu-242"
                }, 
                {
                    "from": "sent-PMC3232246-medscan-1", 
                    "object-type": "map-range", 
                    "to": "sent-PMC3232246-cmu-3"
                }, 
                {
                    "from": "sent-PMC3232246-medscan-16", 
                    "object-type": "map-range", 
                    "to": "sent-PMC3232246-cmu-19"
                }, 
                {
                    "from": "sent-PMC3232246-medscan-79", 
                    "object-type": "map-range", 
                    "to": "sent-PMC3232246-cmu-86"
                }, 
                {
                    "from": "sent-PMC3232246-medscan-116", 
                    "object-type": "map-range", 
                    "to": "sent-PMC3232246-cmu-119"
                }, 
                {
                    "from": "sent-PMC3232246-medscan-176", 
                    "object-type": "map-range", 
                    "to": "sent-PMC3232246-cmu-169"
                }
            ], 
            "object-meta": {
                "component": "Pradeep-Matcher", 
                "object-type": "meta-info", 
                "organization": "CMU"
            }, 
            "object-type": "frame"
        }
    ], 
    "object-meta": {
        "component": "Pradeep-Matcher", 
        "component-type": "machine", 
        "doc-id": "PMC3232246", 
        "object-type": "meta-info", 
        "organization": "CMU"
    }, 
    "object-type": "frame-collection"
}
