{
  "evidence": ["Deficiency in PKC\\u03b2 and ensuing defective I\\u03baB kinase\\u03b1 and I\\u03baB kinase\\u03b2 phosphorylation result in impaired I\\u03baB\\u03b1 phosphorylation and degradation ( A, middle panel).","Here we demonstrate that PKC\\u03b2 selectively controls phosphorylation of I\\u03baB kinase\\u03b1 in mature B cells and is required for the efficient B cell antigen receptor-induced I\\u03baB\\u03b1 phosphorylation, degradation, and subsequent nuclear factor-\\u03baB induction.","PKC\\u03b2 and ensuing defective I\\u03baB kinase\\u03b1 and I\\u03baB kinase\\u03b2 phosphorylation result in impaired I\\u03baB\\u03b1","PKC\\u03b2 selectively controls phosphorylation of I\\u03baB kinase\\u03b1 in mature B cells and is required for the efficient B cell antigen receptor-induced I\\u03baB\\u03b1"],
  "extracted_information": {
    "interaction_type": "increases",
    "negative_information": false,
    "participant_a": {
      "entity_text": "PKC\\u03b2",
      "entity_type": "protein",
      "identifier": "Uniprot:I3L1Z0",
      "in_model": true
    },
    "participant_b": {
      "entity_text": "I\\u03baB\\u03b1",
      "entity_type": "protein",
      "identifier": "Uniprot:P25963",
      "in_model": true
    }
  },
  "fries_provenance": [
    {
      "cmu-sentence-epistemic-status": "hypothesis",
      "cmu-sentence-epistemic-value": 0.3,
      "component": "MedScan",
      "frame-file": "PMC2193563.cmu.medscan",
      "frame-id": "relm-PMC2193563-cmu-medscan-507",
      "passage-id": "pass-PMC2193563-UAZ-r1-11",
      "passage-number": 11,
      "passage-section-id": "N/A",
      "passage-section-name": "N/A",
      "sentence": "Here we demonstrate that PKC\\u03b2 selectively controls phosphorylation of I\\u03baB kinase\\u03b1 in mature B cells and is required for the efficient B cell antigen receptor-induced I\\u03baB\\u03b1 phosphorylation, degradation, and subsequent nuclear factor-\\u03baB induction.",
      "text": "PKC\\u03b2 selectively controls phosphorylation of I\\u03baB kinase\\u03b1 in mature B cells and is required for the efficient B cell antigen receptor-induced I\\u03baB\\u03b1",
      "uaz-sentence": "Here we demonstrate that PKCbeta selectively controls phosphorylation of IKKalpha in mature B cells and is required for the efficient BCR induced IkappaBalpha phosphorylation , degradation , and subsequent NF-kappaB induction .",
      "uaz-sentence-start": 0
    },
    {
      "cmu-sentence-epistemic-status": "hypothesis",
      "cmu-sentence-epistemic-value": 0.3,
      "component": "MedScan",
      "frame-file": "PMC2193563.cmu.medscan",
      "frame-id": "relm-PMC2193563-cmu-medscan-521",
      "sentence": "Deficiency in PKC\\u03b2 and ensuing defective I\\u03baB kinase\\u03b1 and I\\u03baB kinase\\u03b2 phosphorylation result in impaired I\\u03baB\\u03b1 phosphorylation and degradation ( A, middle panel).",
      "text": "PKC\\u03b2 and ensuing defective I\\u03baB kinase\\u03b1 and I\\u03baB kinase\\u03b2 phosphorylation result in impaired I\\u03baB\\u03b1"
    }
  ],
  "model_relation": "extension",
  "pmc_id": "PMC2193563",
  "reader_type": "machine",
  "reading_complete": "2015-06-15T20:00:57Z",
  "reading_started": "2015-06-15T20:00:52Z",
  "submitter": "FRIES"
}
