{
    "frames": [
        {
            "binds-constituent1": [
                "purified SH3 domains immobilized on a membrane ( TranSignal SH3 Domain Arrays , Panomics ) using a His-tagged C-terminal domain of SYNJ2 that contains all five PRDs"
            ], 
            "frame-id": "imp-PMC3547897-cmu-pradsys-348", 
            "frame-type": "implication", 
            "implication-type": "binds", 
            "object-meta": {
                "object-type": "meta-info", 
                "organization": "CMU"
            }, 
            "object-type": "frame", 
            "sentence": "sent-PMC3547897-cmu-15"
        }, 
        {
            "binds-constituent1": [
                "SYNJ2"
            ], 
            "binds-constituent2": [
                "Src"
            ], 
            "frame-id": "imp-PMC3547897-cmu-pradsys-349", 
            "frame-type": "implication", 
            "implication-type": "binds", 
            "object-meta": {
                "object-type": "meta-info", 
                "organization": "CMU"
            }, 
            "object-type": "frame", 
            "sentence": "sent-PMC3547897-cmu-17", 
            "transfection-molecule": [
                "Grb2", 
                "the Src family of kinases ( SFK )"
            ]
        }, 
        {
            "binds-constituent1": [
                "Src"
            ], 
            "frame-id": "imp-PMC3547897-cmu-pradsys-350", 
            "frame-type": "implication", 
            "implication-type": "binds", 
            "object-meta": {
                "object-type": "meta-info", 
                "organization": "CMU"
            }, 
            "object-type": "frame", 
            "sentence": "sent-PMC3547897-cmu-18"
        }, 
        {
            "cell-type": [
                "HEK293 cells"
            ], 
            "frame-id": "imp-PMC3547897-cmu-pradsys-351", 
            "frame-type": "implication", 
            "implication-type": "binds", 
            "object-meta": {
                "object-type": "meta-info", 
                "organization": "CMU"
            }, 
            "object-type": "frame", 
            "sentence": "sent-PMC3547897-cmu-19", 
            "transfection-molecule": [
                "full length Lyn"
            ]
        }, 
        {
            "binds-constituent1": [
                "Lyn", 
                "Fyn", 
                "SYNJ2"
            ], 
            "binds-site": [
                "or"
            ], 
            "cell-type": [
                "co-expressing cells"
            ], 
            "frame-id": "imp-PMC3547897-cmu-pradsys-352", 
            "frame-type": "implication", 
            "implication-type": "binds", 
            "object-meta": {
                "object-type": "meta-info", 
                "organization": "CMU"
            }, 
            "object-type": "frame", 
            "sentence": "sent-PMC3547897-cmu-20"
        }, 
        {
            "binds-constituent1": [
                "SYNJ2"
            ], 
            "frame-id": "imp-PMC3547897-cmu-pradsys-353", 
            "frame-type": "implication", 
            "implication-type": "binds", 
            "object-meta": {
                "object-type": "meta-info", 
                "organization": "CMU"
            }, 
            "object-type": "frame", 
            "sentence": "sent-PMC3547897-cmu-24"
        }, 
        {
            "binds-constituent2": [
                "an immobilized SYNJ2 C-terminal domain GST-fusion protein"
            ], 
            "frame-id": "imp-PMC3547897-cmu-pradsys-354", 
            "frame-type": "implication", 
            "implication-type": "binds", 
            "object-meta": {
                "object-type": "meta-info", 
                "organization": "CMU"
            }, 
            "object-type": "frame", 
            "process": [
                "precipitated", 
                "SNB19 glioblastoma cell lysates"
            ], 
            "sentence": "sent-PMC3547897-cmu-25"
        }, 
        {
            "binds-constituent1": [
                "SYNJ2"
            ], 
            "cell-type": [
                "HEK293 cells"
            ], 
            "frame-id": "imp-PMC3547897-cmu-pradsys-355", 
            "frame-type": "implication", 
            "implication-type": "binds", 
            "object-meta": {
                "object-type": "meta-info", 
                "organization": "CMU"
            }, 
            "object-type": "frame", 
            "sentence": "sent-PMC3547897-cmu-27"
        }, 
        {
            "cell-type": [
                "HEK293 cells"
            ], 
            "frame-id": "imp-PMC3547897-cmu-pradsys-356", 
            "frame-type": "implication", 
            "implication-type": "binds", 
            "object-meta": {
                "object-type": "meta-info", 
                "organization": "CMU"
            }, 
            "object-type": "frame", 
            "sentence": "sent-PMC3547897-cmu-29"
        }, 
        {
            "binds-constituent1": [
                "SYNJ2"
            ], 
            "frame-id": "imp-PMC3547897-cmu-pradsys-357", 
            "frame-type": "implication", 
            "implication-type": "binds", 
            "object-meta": {
                "object-type": "meta-info", 
                "organization": "CMU"
            }, 
            "object-type": "frame", 
            "sentence": "sent-PMC3547897-cmu-30"
        }, 
        {
            "binds-constituent2": [
                "Src phosphorylates SYNJ2", 
                "Src"
            ], 
            "cell-type": [
                "293T cells"
            ], 
            "frame-id": "imp-PMC3547897-cmu-pradsys-358", 
            "frame-type": "implication", 
            "implication-type": "binds", 
            "ip-molecule": [
                "anti-Myc"
            ], 
            "object-meta": {
                "object-type": "meta-info", 
                "organization": "CMU"
            }, 
            "object-type": "frame", 
            "sentence": "sent-PMC3547897-cmu-31"
        }, 
        {
            "binds-constituent2": [
                "endogenous SYNJ2"
            ], 
            "cell-type": [
                "Src-transformed or control SNB19 glioblastoma cells"
            ], 
            "frame-id": "imp-PMC3547897-cmu-pradsys-359", 
            "frame-type": "implication", 
            "implication-type": "binds", 
            "object-meta": {
                "object-type": "meta-info", 
                "organization": "CMU"
            }, 
            "object-type": "frame", 
            "sentence": "sent-PMC3547897-cmu-34"
        }, 
        {
            "frame-id": "imp-PMC3547897-cmu-pradsys-360", 
            "frame-type": "implication", 
            "implication-type": "binds", 
            "object-meta": {
                "object-type": "meta-info", 
                "organization": "CMU"
            }, 
            "object-type": "frame", 
            "process": [
                "vitro phosphorylation assay"
            ], 
            "sentence": "sent-PMC3547897-cmu-36", 
            "transfection-molecule": [
                "Src"
            ]
        }, 
        {
            "cell-type": [
                "Phosphorylated SYNJ2 peptides"
            ], 
            "frame-id": "imp-PMC3547897-cmu-pradsys-361", 
            "frame-type": "implication", 
            "implication-type": "binds", 
            "object-meta": {
                "object-type": "meta-info", 
                "organization": "CMU"
            }, 
            "object-type": "frame", 
            "sentence": "sent-PMC3547897-cmu-37"
        }, 
        {
            "binds-constituent1": [
                "The only tyrosine-phosphorylated residue detected was Tyr490"
            ], 
            "frame-id": "imp-PMC3547897-cmu-pradsys-362", 
            "frame-type": "implication", 
            "implication-type": "binds", 
            "object-meta": {
                "object-type": "meta-info", 
                "organization": "CMU"
            }, 
            "object-type": "frame", 
            "sentence": "sent-PMC3547897-cmu-38"
        }, 
        {
            "binds-constituent1": [
                "Sac1"
            ], 
            "frame-id": "imp-PMC3547897-cmu-pradsys-363", 
            "frame-type": "implication", 
            "implication-type": "binds", 
            "object-meta": {
                "object-type": "meta-info", 
                "organization": "CMU"
            }, 
            "object-type": "frame", 
            "sentence": "sent-PMC3547897-cmu-39"
        }, 
        {
            "binds-constituent1": [
                "Tyr490"
            ], 
            "frame-id": "imp-PMC3547897-cmu-pradsys-364", 
            "frame-type": "implication", 
            "implication-type": "binds", 
            "object-meta": {
                "object-type": "meta-info", 
                "organization": "CMU"
            }, 
            "object-type": "frame", 
            "sentence": "sent-PMC3547897-cmu-40"
        }, 
        {
            "frame-id": "imp-PMC3547897-cmu-pradsys-365", 
            "frame-type": "implication", 
            "implication-type": "binds", 
            "object-meta": {
                "object-type": "meta-info", 
                "organization": "CMU"
            }, 
            "object-type": "frame", 
            "sentence": "sent-PMC3547897-cmu-41", 
            "transfection-molecule": [
                "SYNJ2 ( Fig"
            ]
        }, 
        {
            "binds-constituent1": [
                "Src", 
                "PI"
            ], 
            "binds-constituent2": [
                "PtdInd"
            ], 
            "binds-site": [
                "( 3,4 ) P2 from"
            ], 
            "frame-id": "imp-PMC3547897-cmu-pradsys-366", 
            "frame-type": "implication", 
            "implication-type": "binds", 
            "object-meta": {
                "object-type": "meta-info", 
                "organization": "CMU"
            }, 
            "object-type": "frame", 
            "sentence": "sent-PMC3547897-cmu-43"
        }, 
        {
            "binds-constituent2": [
                "Src"
            ], 
            "frame-id": "imp-PMC3547897-cmu-pradsys-367", 
            "frame-type": "implication", 
            "implication-type": "binds", 
            "object-meta": {
                "object-type": "meta-info", 
                "organization": "CMU"
            }, 
            "object-type": "frame", 
            "sentence": "sent-PMC3547897-cmu-44"
        }, 
        {
            "binds-constituent1": [
                "SYNJ2"
            ], 
            "binds-constituent2": [
                "SYNJ2-Y490A", 
                "Src"
            ], 
            "frame-id": "imp-PMC3547897-cmu-pradsys-368", 
            "frame-type": "implication", 
            "implication-type": "binds", 
            "object-meta": {
                "object-type": "meta-info", 
                "organization": "CMU"
            }, 
            "object-type": "frame", 
            "sentence": "sent-PMC3547897-cmu-46"
        }, 
        {
            "binds-controller": [
                "Tyr490"
            ], 
            "frame-id": "imp-PMC3547897-cmu-pradsys-369", 
            "frame-type": "implication", 
            "implication-type": "binds", 
            "object-meta": {
                "object-type": "meta-info", 
                "organization": "CMU"
            }, 
            "object-type": "frame", 
            "sentence": "sent-PMC3547897-cmu-47"
        }, 
        {
            "binds-constituent1": [
                "SYNJ2"
            ], 
            "cell-type": [
                "SNB19 cells"
            ], 
            "frame-id": "imp-PMC3547897-cmu-pradsys-370", 
            "frame-type": "implication", 
            "implication-type": "binds", 
            "m-val": [
                "depleted endogenous SYNJ2"
            ], 
            "object-meta": {
                "object-type": "meta-info", 
                "organization": "CMU"
            }, 
            "object-type": "frame", 
            "sentence": "sent-PMC3547897-cmu-48"
        }, 
        {
            "binds-constituent2": [
                "SYNJ2", 
                "endogenous SYNJ2"
            ], 
            "frame-id": "imp-PMC3547897-cmu-pradsys-371", 
            "frame-type": "implication", 
            "implication-type": "binds", 
            "object-meta": {
                "object-type": "meta-info", 
                "organization": "CMU"
            }, 
            "object-type": "frame", 
            "sentence": "sent-PMC3547897-cmu-49"
        }, 
        {
            "binds-constituent1": [
                "endogenous", 
                "the Y490A mutant"
            ], 
            "binds-site": [
                "the inhibitory effect of depleting"
            ], 
            "frame-id": "imp-PMC3547897-cmu-pradsys-372", 
            "frame-type": "implication", 
            "implication-type": "binds", 
            "object-meta": {
                "object-type": "meta-info", 
                "organization": "CMU"
            }, 
            "object-type": "frame", 
            "sentence": "sent-PMC3547897-cmu-50"
        }, 
        {
            "coreference-target": [
                "the Sac1-deficient mutant"
            ], 
            "frame-id": "imp-PMC3547897-cmu-pradsys-373", 
            "frame-type": "implication", 
            "implication-type": "binds", 
            "object-meta": {
                "object-type": "meta-info", 
                "organization": "CMU"
            }, 
            "object-type": "frame", 
            "sentence": "sent-PMC3547897-cmu-53"
        }, 
        {
            "binds-constituent1": [
                "Tyr490"
            ], 
            "frame-id": "imp-PMC3547897-cmu-pradsys-374", 
            "frame-type": "implication", 
            "implication-type": "binds", 
            "object-meta": {
                "object-type": "meta-info", 
                "organization": "CMU"
            }, 
            "object-type": "frame", 
            "sentence": "sent-PMC3547897-cmu-54"
        }
    ], 
    "object-meta": {
        "component": "Pradeep-System", 
        "component-type": "machine", 
        "doc-id": "PMC3547897", 
        "object-type": "meta-info", 
        "organization": "CMU"
    }, 
    "object-type": "frame-collection"
}
