\relax 
\providecommand\HyperFirstAtBeginDocument{\AtBeginDocument}
\HyperFirstAtBeginDocument{\ifx\hyper@anchor\@undefined
\global\let\oldcontentsline\contentsline
\gdef\contentsline#1#2#3#4{\oldcontentsline{#1}{#2}{#3}}
\global\let\oldnewlabel\newlabel
\gdef\newlabel#1#2{\newlabelxx{#1}#2}
\gdef\newlabelxx#1#2#3#4#5#6{\oldnewlabel{#1}{{#2}{#3}}}
\AtEndDocument{\ifx\hyper@anchor\@undefined
\let\contentsline\oldcontentsline
\let\newlabel\oldnewlabel
\fi}
\fi}
\global\let\hyper@last\relax 
\gdef\HyperFirstAtBeginDocument#1{#1}
\providecommand\HyField@AuxAddToFields[1]{}
\citation{potassco}
\select@language{english}
\@writefile{toc}{\select@language{english}}
\@writefile{lof}{\select@language{english}}
\@writefile{lot}{\select@language{english}}
\@writefile{brf}{\backcite{potassco}{{1}{\ensuremath  {*}}{Doc-Start}}}
\citation{potassco}
\citation{GNUgpl}
\citation{potassco}
\citation{lparseManual}
\citation{siniso02a}
\citation{potassco}
\@writefile{toc}{\contentsline {section}{\numberline {1}Introduction}{4}{section.1}}
\newlabel{sec:introduction}{{1}{4}{Introduction\relax }{section.1}{}}
\@writefile{brf}{\backcite{potassco}{{4}{1}{section.1}}}
\@writefile{brf}{\backcite{GNUgpl}{{4}{1}{section.1}}}
\@writefile{brf}{\backcite{potassco}{{4}{1}{section.1}}}
\@writefile{brf}{\backcite{lparseManual}{{4}{1}{lstnumber.-2.3}}}
\@writefile{brf}{\backcite{siniso02a}{{4}{1}{lstnumber.-2.3}}}
\@writefile{brf}{\backcite{potassco}{{5}{1}{lstnumber.-2.3}}}
\@input{figures/hanoi.aux}
\citation{martru99a}
\citation{niemela99a}
\citation{schlipf95a}
\@writefile{lof}{\contentsline {figure}{\numberline {1}{\ignorespaces Towers of Hanoi Initial Situation}}{6}{figure.1}}
\newlabel{fig:toh_inst}{{1}{6}{Towers of Hanoi Initial Situation\relax }{figure.1}{}}
\@writefile{toc}{\contentsline {section}{\numberline {2}Quickstart}{6}{section.2}}
\newlabel{sec:quickstart}{{2}{6}{Quickstart\relax }{section.2}{}}
\@writefile{brf}{\backcite{martru99a,niemela99a,schlipf95a}{{6}{2}{section.2}}}
\@writefile{toc}{\contentsline {subsection}{\numberline {2.1}Problem Instance}{6}{subsection.2.1}}
\citation{lifschitz02a}
\@writefile{toc}{\contentsline {subsection}{\numberline {2.2}Problem Encoding}{7}{subsection.2.2}}
\@writefile{brf}{\backcite{lifschitz02a}{{7}{2.2}{subsection.2.2}}}
\@writefile{toc}{\contentsline {subsection}{\numberline {2.3}Problem Solution}{8}{subsection.2.3}}
\citation{gescth07a}
\citation{gekanesc07b}
\@writefile{toc}{\contentsline {section}{\numberline {3}Input Languages}{9}{section.3}}
\newlabel{sec:language}{{3}{9}{Input Languages\relax }{section.3}{}}
\@writefile{toc}{\contentsline {subsection}{\numberline {3.1}Input Language of \texttt  {gringo}\ and \texttt  {clingo}}{9}{subsection.3.1}}
\newlabel{subsec:lang:gringo}{{3.1}{9}{Input Language of \gringo \ and \clingo \relax }{subsection.3.1}{}}
\@writefile{brf}{\backcite{gescth07a}{{9}{3.1}{subsection.3.1}}}
\@writefile{brf}{\backcite{gekanesc07b}{{9}{3.1}{subsection.3.1}}}
\@writefile{toc}{\contentsline {subsubsection}{\numberline {3.1.1}Normal Programs and Integrity Constraints}{9}{subsubsection.3.1.1}}
\newlabel{subsec:gringo:normal}{{3.1.1}{9}{Normal Programs and Integrity Constraints\relax }{subsubsection.3.1.1}{}}
\newlabel{eq:normal:rule}{{3.1.1}{9}{Normal Programs and Integrity Constraints\relax }{figure.2}{}}
\@writefile{lof}{\contentsline {figure}{\numberline {2}{\ignorespaces Terms}}{10}{figure.2}}
\newlabel{fig:terms}{{2}{10}{Terms\relax }{figure.2}{}}
\citation{gellif91a}
\@writefile{toc}{\contentsline {subsubsection}{\numberline {3.1.2}Classical Negation}{11}{subsubsection.3.1.2}}
\newlabel{subsec:gringo:negation}{{3.1.2}{11}{Classical Negation\relax }{subsubsection.3.1.2}{}}
\@writefile{brf}{\backcite{gellif91a}{{11}{3.1.2}{subsubsection.3.1.2}}}
\newlabel{ex:flies:neg}{{3.1}{11}{\relax }{example.3.1}{}}
\@writefile{lol}{\contentsline {lstlisting}{examples/flycn.lp}{11}{lstlisting.-8}}
\citation{eitgot95a}
\citation{linzha04a}
\citation{gekanesc07b}
\citation{angelinesc05c}
\citation{siniso02a}
\citation{warsch04a}
\citation{drgegrkakoossc08a}
\citation{gilima06a}
\citation{lierler05a}
\citation{janisesiyo06a}
\citation{dlv03a}
\citation{eitpol06a}
\@writefile{toc}{\contentsline {subsubsection}{\numberline {3.1.3}Disjunction}{12}{subsubsection.3.1.3}}
\newlabel{subsec:gringo:disjunction}{{3.1.3}{12}{Disjunction\relax }{subsubsection.3.1.3}{}}
\@writefile{brf}{\backcite{eitgot95a}{{12}{3.1.3}{subsubsection.3.1.3}}}
\@writefile{brf}{\backcite{linzha04a}{{12}{3.1.3}{subsubsection.3.1.3}}}
\@writefile{brf}{\backcite{gekanesc07b}{{12}{3.1.3}{subsubsection.3.1.3}}}
\@writefile{brf}{\backcite{angelinesc05c}{{12}{3.1.3}{subsubsection.3.1.3}}}
\@writefile{brf}{\backcite{siniso02a}{{12}{3.1.3}{subsubsection.3.1.3}}}
\@writefile{brf}{\backcite{warsch04a}{{12}{3.1.3}{subsubsection.3.1.3}}}
\@writefile{brf}{\backcite{drgegrkakoossc08a}{{12}{3.1.3}{subsubsection.3.1.3}}}
\@writefile{brf}{\backcite{gilima06a,lierler05a}{{12}{3.1.3}{subsubsection.3.1.3}}}
\@writefile{brf}{\backcite{janisesiyo06a}{{12}{3.1.3}{subsubsection.3.1.3}}}
\@writefile{brf}{\backcite{eitpol06a}{{12}{3.1.3}{subsubsection.3.1.3}}}
\@writefile{toc}{\contentsline {subsubsection}{\numberline {3.1.4}Built-In Arithmetic Functions}{12}{subsubsection.3.1.4}}
\newlabel{subsec:gringo:arith}{{3.1.4}{12}{Built-In Arithmetic Functions\relax }{subsubsection.3.1.4}{}}
\newlabel{ex:arith:fun}{{3.2}{12}{\relax }{example.3.2}{}}
\@writefile{lol}{\contentsline {lstlisting}{examples/arithf.lp}{12}{lstlisting.-11}}
\@writefile{brf}{\backcite{dlv03a}{{12}{3}{Hfootnote.3}}}
\@writefile{toc}{\contentsline {subsubsection}{\numberline {3.1.5}Built-In Comparison Predicates}{13}{subsubsection.3.1.5}}
\newlabel{subsec:gringo:comp}{{3.1.5}{13}{Built-In Comparison Predicates\relax }{subsubsection.3.1.5}{}}
\newlabel{ex:arith:pred}{{3.3}{13}{\relax }{example.3.3}{}}
\@writefile{lol}{\contentsline {lstlisting}{examples/arithc.lp}{13}{lstlisting.-12}}
\@writefile{lol}{\contentsline {lstlisting}{examples/symbc.lp}{13}{lstlisting.-13}}
\@writefile{toc}{\contentsline {subsubsection}{\numberline {3.1.6}Assignments}{14}{subsubsection.3.1.6}}
\newlabel{subsec:gringo:assign}{{3.1.6}{14}{Assignments\relax }{subsubsection.3.1.6}{}}
\newlabel{ex:assign}{{3.4}{14}{\relax }{example.3.4}{}}
\@writefile{lol}{\contentsline {lstlisting}{examples/assign.lp}{14}{lstlisting.-14}}
\newlabel{ex:unify}{{3.5}{14}{\relax }{example.3.5}{}}
\@writefile{lol}{\contentsline {lstlisting}{examples/unify.lp}{14}{lstlisting.-15}}
\@writefile{toc}{\contentsline {subsubsection}{\numberline {3.1.7}Intervals}{14}{subsubsection.3.1.7}}
\newlabel{subsec:gringo:interval}{{3.1.7}{14}{Intervals\relax }{subsubsection.3.1.7}{}}
\newlabel{ex:int}{{3.6}{15}{\relax }{example.3.6}{}}
\@writefile{lol}{\contentsline {lstlisting}{examples/int.lp}{15}{lstlisting.-17}}
\@writefile{toc}{\contentsline {subsubsection}{\numberline {3.1.8}Conditions}{16}{subsubsection.3.1.8}}
\newlabel{subsec:gringo:condition}{{3.1.8}{16}{Conditions\relax }{subsubsection.3.1.8}{}}
\newlabel{ex:cond}{{3.7}{16}{\relax }{example.3.7}{}}
\@writefile{lol}{\contentsline {lstlisting}{examples/cond.lp}{16}{lstlisting.-21}}
\@writefile{lol}{\contentsline {lstlisting}{examples/twocond.lp}{16}{lstlisting.-23}}
\@writefile{toc}{\contentsline {subsubsection}{\numberline {3.1.9}Pooling}{17}{subsubsection.3.1.9}}
\newlabel{subsec:gringo:pool}{{3.1.9}{17}{Pooling\relax }{subsubsection.3.1.9}{}}
\newlabel{ex:pool}{{3.8}{17}{\relax }{example.3.8}{}}
\@writefile{lol}{\contentsline {lstlisting}{examples/pool.lp}{17}{lstlisting.-25}}
\newlabel{ex:sep}{{3.9}{17}{\relax }{example.3.9}{}}
\@writefile{lol}{\contentsline {lstlisting}{examples/sep.lp}{17}{lstlisting.-27}}
\citation{siniso02a}
\citation{lparseManual}
\@writefile{toc}{\contentsline {subsubsection}{\numberline {3.1.10}Aggregates}{18}{subsubsection.3.1.10}}
\newlabel{subsec:gringo:aggregate}{{3.1.10}{18}{Aggregates\relax }{subsubsection.3.1.10}{}}
\@writefile{brf}{\backcite{siniso02a,lparseManual}{{18}{3.1.10}{lstnumber.-31.2}}}
\citation{siniso02a}
\citation{lparseManual}
\@writefile{brf}{\backcite{siniso02a,lparseManual}{{19}{3.1.10}{lstnumber.-35.2}}}
\newlabel{ex:aggr}{{3.10}{19}{\relax }{example.3.10}{}}
\@writefile{lol}{\contentsline {lstlisting}{examples/aggr.lp}{19}{lstlisting.-36}}
\citation{lparseManual}
\@writefile{toc}{\contentsline {subsubsection}{\numberline {3.1.11}Optimization}{22}{subsubsection.3.1.11}}
\newlabel{subsec:gringo:optimize}{{3.1.11}{22}{Optimization\relax }{subsubsection.3.1.11}{}}
\@writefile{brf}{\backcite{lparseManual}{{22}{3.1.11}{subsubsection.3.1.11}}}
\newlabel{ex:opt}{{3.11}{22}{\relax }{example.3.11}{}}
\@writefile{lol}{\contentsline {lstlisting}{examples/opt.lp}{22}{lstlisting.-46}}
\@writefile{toc}{\contentsline {subsubsection}{\numberline {3.1.12}Meta-Statements}{23}{subsubsection.3.1.12}}
\newlabel{subsec:gringo:meta}{{3.1.12}{23}{Meta-Statements\relax }{subsubsection.3.1.12}{}}
\@writefile{toc}{\contentsline {paragraph}{Comments.}{23}{section*.4}}
\@writefile{toc}{\contentsline {paragraph}{Hiding Predicates.}{23}{section*.5}}
\@writefile{toc}{\contentsline {paragraph}{Constant Replacement.}{24}{section*.6}}
\@writefile{toc}{\contentsline {paragraph}{Domain Declarations.}{24}{section*.7}}
\@writefile{toc}{\contentsline {paragraph}{Compute Statements.}{24}{section*.8}}
\citation{lparseManual}
\@writefile{toc}{\contentsline {paragraph}{External Statements.}{25}{section*.9}}
\@writefile{brf}{\backcite{lparseManual}{{25}{3.1.12}{lstnumber.-56.3}}}
\@writefile{toc}{\contentsline {subsubsection}{\numberline {3.1.13}Integrated Scripting Language}{26}{subsubsection.3.1.13}}
\newlabel{subsec:lang:lua}{{3.1.13}{26}{Integrated Scripting Language\relax }{subsubsection.3.1.13}{}}
\@writefile{lol}{\contentsline {lstlisting}{examples/luaf.lp}{26}{lstlisting.-58}}
\@writefile{lot}{\contentsline {table}{\numberline {1}{\ignorespaces The Val meta-table.}}{27}{table.1}}
\newlabel{tab:val}{{1}{27}{The Val meta-table}{table.1}{}}
\newlabel{ex:lua:values}{{3.16}{27}{\relax }{example.3.16}{}}
\@writefile{lol}{\contentsline {lstlisting}{examples/luav.lp}{27}{lstlisting.-59}}
\@writefile{lot}{\contentsline {table}{\numberline {2}{\ignorespaces The Assignment meta-table.}}{28}{table.2}}
\newlabel{tab:assignment}{{2}{28}{The Assignment meta-table}{table.2}{}}
\@writefile{lol}{\contentsline {lstlisting}{examples/sql.lp}{28}{lstlisting.-60}}
\citation{gekakaosscth08a}
\@writefile{toc}{\contentsline {subsection}{\numberline {3.2}Input Language of \texttt  {iclingo}}{29}{subsection.3.2}}
\newlabel{subsec:lang:iclingo}{{3.2}{29}{Input Language of \iclingo \relax }{subsection.3.2}{}}
\@writefile{brf}{\backcite{gekakaosscth08a}{{29}{3.2}{subsection.3.2}}}
\citation{gekakaosscth08a}
\@writefile{brf}{\backcite{gekakaosscth08a}{{30}{3.2}{lstnumber.-61.3}}}
\@writefile{lol}{\contentsline {lstlisting}{examples/inc.lp}{30}{lstlisting.-62}}
\citation{gekanesc07b}
\citation{lparseManual}
\citation{dimacs}
\citation{gekanesc07b}
\citation{lparseManual}
\citation{dimacs}
\citation{bihemawa08a}
\citation{robewa06a}
\@writefile{toc}{\contentsline {subsection}{\numberline {3.3}Input Language of \texttt  {clasp}}{31}{subsection.3.3}}
\newlabel{subsec:lang:clasp}{{3.3}{31}{Input Language of \clasp \relax }{subsection.3.3}{}}
\@writefile{brf}{\backcite{gekanesc07b}{{31}{3.3}{subsection.3.3}}}
\@writefile{brf}{\backcite{lparseManual}{{31}{3.3}{subsection.3.3}}}
\@writefile{brf}{\backcite{dimacs}{{31}{3.3}{lstnumber.-64.1}}}
\@writefile{brf}{\backcite{gekanesc07b}{{31}{3.3}{lstnumber.-65.1}}}
\@writefile{brf}{\backcite{lparseManual}{{31}{3.3}{lstnumber.-65.1}}}
\@writefile{brf}{\backcite{dimacs}{{31}{3.3}{lstnumber.-67.1}}}
\citation{martru99a}
\citation{niemela99a}
\citation{schlipf95a}
\citation{papadimitriou94a}
\citation{lifschitz02a}
\@writefile{lof}{\contentsline {figure}{\numberline {3}{\ignorespaces A Directed Graph with Six Nodes and 17 Edges.}}{32}{figure.3}}
\newlabel{fig:graph}{{3}{32}{A Directed Graph with Six Nodes and 17 Edges}{figure.3}{}}
\@writefile{toc}{\contentsline {section}{\numberline {4}Examples}{32}{section.4}}
\newlabel{sec:examples}{{4}{32}{Examples\relax }{section.4}{}}
\@writefile{brf}{\backcite{bihemawa08a}{{32}{4}{section.4}}}
\@writefile{brf}{\backcite{robewa06a}{{32}{4}{section.4}}}
\@writefile{toc}{\contentsline {subsection}{\numberline {4.1}$N$-Coloring}{32}{subsection.4.1}}
\newlabel{subsec:ex:color}{{4.1}{32}{\texorpdfstring {$N$}{N}-Coloring\relax }{subsection.4.1}{}}
\@writefile{brf}{\backcite{martru99a,niemela99a,schlipf95a}{{32}{4.1}{subsection.4.1}}}
\@writefile{brf}{\backcite{papadimitriou94a}{{32}{4.1}{subsection.4.1}}}
\@writefile{toc}{\contentsline {subsubsection}{\numberline {4.1.1}Problem Instance}{32}{subsubsection.4.1.1}}
\newlabel{subsec:color:instance}{{4.1.1}{32}{Problem Instance\relax }{subsubsection.4.1.1}{}}
\@writefile{lol}{\contentsline {lstlisting}{examples/graph.lp}{32}{lstlisting.-69}}
\@writefile{lof}{\contentsline {figure}{\numberline {4}{\ignorespaces A $3$-Coloring for the Graph in Figure~\ref  {fig:graph}.}}{33}{figure.4}}
\newlabel{fig:color}{{4}{33}{A $3$-Coloring for the Graph in Figure~\ref {fig:graph}}{figure.4}{}}
\@writefile{toc}{\contentsline {subsubsection}{\numberline {4.1.2}Problem Encoding}{33}{subsubsection.4.1.2}}
\newlabel{subsec:color:encoding}{{4.1.2}{33}{Problem Encoding\relax }{subsubsection.4.1.2}{}}
\@writefile{brf}{\backcite{lifschitz02a}{{33}{4.1.2}{subsubsection.4.1.2}}}
\@writefile{lol}{\contentsline {lstlisting}{examples/color.lp}{33}{lstlisting.-70}}
\@writefile{toc}{\contentsline {subsubsection}{\numberline {4.1.3}Problem Solution}{33}{subsubsection.4.1.3}}
\newlabel{subsec:color:solution}{{4.1.3}{33}{Problem Solution\relax }{subsubsection.4.1.3}{}}
\citation{papadimitriou94a}
\citation{lifschitz02a}
\@writefile{lof}{\contentsline {figure}{\numberline {5}{\ignorespaces The Graph from Figure~\ref  {fig:graph} along with Edge Costs.}}{34}{figure.5}}
\newlabel{fig:costs}{{5}{34}{The Graph from Figure~\ref {fig:graph} along with Edge Costs}{figure.5}{}}
\@writefile{toc}{\contentsline {subsection}{\numberline {4.2}Traveling Salesperson}{34}{subsection.4.2}}
\newlabel{subsec:ex:tsp}{{4.2}{34}{Traveling Salesperson\relax }{subsection.4.2}{}}
\@writefile{brf}{\backcite{papadimitriou94a}{{34}{4.2}{subsection.4.2}}}
\@writefile{toc}{\contentsline {subsubsection}{\numberline {4.2.1}Problem Instance}{34}{subsubsection.4.2.1}}
\newlabel{subsec:tsp:instance}{{4.2.1}{34}{Problem Instance\relax }{subsubsection.4.2.1}{}}
\@writefile{lol}{\contentsline {lstlisting}{examples/costs.lp}{34}{lstlisting.-74}}
\citation{erdlif03a}
\citation{fages94a}
\citation{bihemawa08a}
\citation{robewa06a}
\@writefile{toc}{\contentsline {subsubsection}{\numberline {4.2.2}Problem Encoding}{35}{subsubsection.4.2.2}}
\newlabel{subsec:tsp:encoding}{{4.2.2}{35}{Problem Encoding\relax }{subsubsection.4.2.2}{}}
\@writefile{brf}{\backcite{lifschitz02a}{{35}{4.2.2}{subsubsection.4.2.2}}}
\@writefile{lol}{\contentsline {lstlisting}{examples/ham.lp}{35}{lstlisting.-75}}
\@writefile{brf}{\backcite{erdlif03a,fages94a}{{35}{4.2.2}{lstnumber.-76.2}}}
\@writefile{brf}{\backcite{bihemawa08a}{{35}{4.2.2}{lstnumber.-76.2}}}
\@writefile{brf}{\backcite{robewa06a}{{35}{4.2.2}{lstnumber.-76.2}}}
\@writefile{lol}{\contentsline {lstlisting}{examples/min.lp}{35}{lstlisting.-77}}
\citation{lparseManual}
\@writefile{lof}{\contentsline {figure}{\numberline {6}{\ignorespaces A Minimum-Cost Round Trip.}}{36}{figure.6}}
\newlabel{fig:tsp}{{6}{36}{A Minimum-Cost Round Trip}{figure.6}{}}
\@writefile{toc}{\contentsline {subsubsection}{\numberline {4.2.3}Problem Solution}{36}{subsubsection.4.2.3}}
\newlabel{subsec:tsp:solution}{{4.2.3}{36}{Problem Solution\relax }{subsubsection.4.2.3}{}}
\@writefile{brf}{\backcite{lparseManual}{{36}{4.2.3}{lstnumber.-78.8}}}
\citation{gupnau92a}
\citation{gekakaosscth08a}
\citation{erdemBW}
\@writefile{toc}{\contentsline {subsection}{\numberline {4.3}Blocks-World Planning}{37}{subsection.4.3}}
\newlabel{subsec:ex:block}{{4.3}{37}{Blocks-World Planning\relax }{subsection.4.3}{}}
\@writefile{brf}{\backcite{gupnau92a}{{37}{4.3}{subsection.4.3}}}
\@writefile{brf}{\backcite{gekakaosscth08a}{{37}{4.3}{subsection.4.3}}}
\@writefile{toc}{\contentsline {subsubsection}{\numberline {4.3.1}Problem Instance}{37}{subsubsection.4.3.1}}
\newlabel{subsec:block:instance}{{4.3.1}{37}{Problem Instance\relax }{subsubsection.4.3.1}{}}
\@writefile{lol}{\contentsline {lstlisting}{examples/world0.lp}{37}{lstlisting.-79}}
\@writefile{brf}{\backcite{erdemBW}{{37}{12}{Hfootnote.12}}}
\@writefile{toc}{\contentsline {subsubsection}{\numberline {4.3.2}Problem Encoding}{38}{subsubsection.4.3.2}}
\newlabel{subsec:block:encoding}{{4.3.2}{38}{Problem Encoding\relax }{subsubsection.4.3.2}{}}
\@writefile{lol}{\contentsline {lstlisting}{examples/blocks.lp}{38}{lstlisting.-80}}
\citation{gekakaosscth08a}
\@writefile{brf}{\backcite{gekakaosscth08a}{{39}{4.3.2}{lstnumber.-80.26}}}
\@writefile{toc}{\contentsline {subsubsection}{\numberline {4.3.3}Problem Solution}{39}{subsubsection.4.3.3}}
\newlabel{subsec:block:solution}{{4.3.3}{39}{Problem Solution\relax }{subsubsection.4.3.3}{}}
\citation{GNUcoding}
\@writefile{toc}{\contentsline {section}{\numberline {5}Command Line Options}{40}{section.5}}
\newlabel{sec:options}{{5}{40}{Command Line Options\relax }{section.5}{}}
\@writefile{brf}{\backcite{GNUcoding}{{40}{5}{section.5}}}
\@writefile{toc}{\contentsline {subsection}{\numberline {5.1}\texttt  {gringo}\ Options}{40}{subsection.5.1}}
\newlabel{subsec:opt:gringo}{{5.1}{40}{\gringo \ Options\relax }{subsection.5.1}{}}
\citation{lparseManual}
\citation{gellif91a}
\citation{gekanesc07b}
\citation{siniso02a}
\citation{linzha04a}
\citation{siniso02a}
\@writefile{brf}{\backcite{lparseManual}{{41}{5.1}{lstnumber.-82.1}}}
\@writefile{brf}{\backcite{gellif91a}{{41}{5.1}{lstnumber.-82.1}}}
\@writefile{brf}{\backcite{gekanesc07b,siniso02a,linzha04a}{{41}{5.1}{lstnumber.-83.1}}}
\@writefile{toc}{\contentsline {subsection}{\numberline {5.2}\texttt  {clingo}\ Options}{41}{subsection.5.2}}
\newlabel{subsec:opt:clingo}{{5.2}{41}{\clingo \ Options\relax }{subsection.5.2}{}}
\@writefile{brf}{\backcite{siniso02a}{{41}{5.2}{lstnumber.-84.1}}}
\citation{gekanesc07b}
\citation{lparseManual}
\@writefile{toc}{\contentsline {subsection}{\numberline {5.3}\texttt  {iclingo}\ Options}{42}{subsection.5.3}}
\newlabel{subsec:opt:iclingo}{{5.3}{42}{\iclingo \ Options\relax }{subsection.5.3}{}}
\@writefile{toc}{\contentsline {subsection}{\numberline {5.4}\texttt  {clasp}\ Options}{43}{subsection.5.4}}
\newlabel{subsec:opt:clasp}{{5.4}{43}{\clasp \ Options\relax }{subsection.5.4}{}}
\@writefile{brf}{\backcite{gekanesc07b}{{43}{5.4}{subsection.5.4}}}
\@writefile{brf}{\backcite{lparseManual}{{43}{5.4}{subsection.5.4}}}
\@writefile{toc}{\contentsline {subsubsection}{\numberline {5.4.1}General Options}{43}{subsubsection.5.4.1}}
\newlabel{subsec:clasp:general}{{5.4.1}{43}{General Options\relax }{subsubsection.5.4.1}{}}
\citation{gekanesc07c}
\citation{gekanesc07c}
\citation{gekasc09a}
\citation{gekanesc07c}
\citation{apblwa88a}
\citation{siniso02a}
\citation{gekanesc08a}
\@writefile{brf}{\backcite{gekanesc07c}{{44}{5.4.1}{subsubsection.5.4.1}}}
\@writefile{brf}{\backcite{gekanesc07c}{{44}{5.4.1}{subsubsection.5.4.1}}}
\@writefile{brf}{\backcite{gekasc09a}{{44}{5.4.1}{subsubsection.5.4.1}}}
\@writefile{brf}{\backcite{gekanesc07c}{{44}{5.4.1}{subsubsection.5.4.1}}}
\@writefile{brf}{\backcite{apblwa88a}{{44}{5.4.1}{subsubsection.5.4.1}}}
\@writefile{brf}{\backcite{siniso02a}{{44}{5.4.1}{subsubsection.5.4.1}}}
\citation{eenbie05a}
\citation{freeman95}
\citation{angelinesc05c}
\citation{golnov02a}
\citation{ryan04a}
\citation{momazhzhma01a}
\citation{siniso02a}
\citation{een03a}
\@writefile{brf}{\backcite{gekanesc08a}{{45}{5.4.1}{subsubsection.5.4.1}}}
\@writefile{brf}{\backcite{eenbie05a}{{45}{5.4.1}{subsubsection.5.4.1}}}
\@writefile{toc}{\contentsline {subsubsection}{\numberline {5.4.2}Search Options}{45}{subsubsection.5.4.2}}
\newlabel{subsec:clasp:search}{{5.4.2}{45}{Search Options\relax }{subsubsection.5.4.2}{}}
\@writefile{brf}{\backcite{freeman95}{{45}{5.4.2}{subsubsection.5.4.2}}}
\@writefile{brf}{\backcite{angelinesc05c}{{45}{5.4.2}{subsubsection.5.4.2}}}
\@writefile{brf}{\backcite{golnov02a}{{45}{5.4.2}{subsubsection.5.4.2}}}
\@writefile{brf}{\backcite{ryan04a}{{45}{5.4.2}{subsubsection.5.4.2}}}
\@writefile{brf}{\backcite{momazhzhma01a}{{45}{5.4.2}{subsubsection.5.4.2}}}
\@writefile{brf}{\backcite{siniso02a}{{45}{5.4.2}{subsubsection.5.4.2}}}
\@writefile{brf}{\backcite{een03a}{{45}{5.4.2}{subsubsection.5.4.2}}}
\citation{lusizu93a}
\citation{eensor03a}
\citation{biere08a}
\citation{ryvstr08a}
\citation{gekanesc07c}
\citation{pipdar07a}
\citation{eenbie05a}
\citation{soreen05a}
\citation{gekanesc07a}
\citation{gerosc91a}
\citation{linzha04a}
\@writefile{toc}{\contentsline {subsubsection}{\numberline {5.4.3}Lookback Options}{46}{subsubsection.5.4.3}}
\newlabel{subsec:clasp:back}{{5.4.3}{46}{Lookback Options\relax }{subsubsection.5.4.3}{}}
\@writefile{brf}{\backcite{lusizu93a}{{46}{5.4.3}{subsubsection.5.4.3}}}
\@writefile{brf}{\backcite{eensor03a}{{46}{5.4.3}{subsubsection.5.4.3}}}
\@writefile{brf}{\backcite{biere08a}{{46}{5.4.3}{subsubsection.5.4.3}}}
\@writefile{brf}{\backcite{ryvstr08a}{{46}{5.4.3}{subsubsection.5.4.3}}}
\@writefile{brf}{\backcite{gekanesc07c}{{46}{5.4.3}{subsubsection.5.4.3}}}
\@writefile{brf}{\backcite{pipdar07a}{{46}{5.4.3}{subsubsection.5.4.3}}}
\@writefile{brf}{\backcite{eenbie05a}{{46}{5.4.3}{subsubsection.5.4.3}}}
\@writefile{brf}{\backcite{soreen05a}{{46}{5.4.3}{subsubsection.5.4.3}}}
\citation{ryan04a}
\citation{lusizu93a}
\citation{gekasc09b}
\@writefile{brf}{\backcite{gekanesc07a}{{47}{5.4.3}{subsubsection.5.4.3}}}
\@writefile{brf}{\backcite{gerosc91a}{{47}{5.4.3}{subsubsection.5.4.3}}}
\@writefile{brf}{\backcite{linzha04a}{{47}{5.4.3}{subsubsection.5.4.3}}}
\@writefile{brf}{\backcite{ryan04a}{{47}{5.4.3}{subsubsection.5.4.3}}}
\@writefile{brf}{\backcite{lusizu93a}{{47}{5.4.3}{subsubsection.5.4.3}}}
\@writefile{brf}{\backcite{gekasc09b}{{47}{5.4.3}{subsubsection.5.4.3}}}
\@writefile{toc}{\contentsline {section}{\numberline {6}Errors and Warnings}{47}{section.6}}
\newlabel{sec:error:warn}{{6}{47}{Errors and Warnings\relax }{section.6}{}}
\@writefile{toc}{\contentsline {subsection}{\numberline {6.1}Errors}{47}{subsection.6.1}}
\newlabel{subsec:error}{{6.1}{47}{Errors\relax }{subsection.6.1}{}}
\citation{lparseManual}
\citation{lparseManual}
\citation{lparseManual}
\citation{drgegrkakoossc08a}
\@writefile{brf}{\backcite{lparseManual}{{48}{6.1}{lstnumber.-93.1}}}
\@writefile{brf}{\backcite{lparseManual}{{48}{6.1}{lstnumber.-93.1}}}
\@writefile{brf}{\backcite{lparseManual}{{48}{6.1}{lstnumber.-95.1}}}
\citation{drgegrkakoossc08a}
\citation{eitgot95a}
\citation{papadimitriou94a}
\citation{gejaosscth08a}
\citation{lparseManual}
\citation{robewa06a}
\citation{melgel08a}
\citation{niolti06a}
\@writefile{brf}{\backcite{drgegrkakoossc08a}{{49}{6.1}{lstnumber.-96.2}}}
\@writefile{toc}{\contentsline {subsection}{\numberline {6.2}Warnings}{49}{subsection.6.2}}
\newlabel{subsec:warn}{{6.2}{49}{Warnings\relax }{subsection.6.2}{}}
\@writefile{toc}{\contentsline {section}{\numberline {7}Future Work}{49}{section.7}}
\newlabel{sec:future}{{7}{49}{Future Work\relax }{section.7}{}}
\@writefile{brf}{\backcite{drgegrkakoossc08a}{{49}{7}{section.7}}}
\@writefile{brf}{\backcite{eitgot95a}{{49}{7}{section.7}}}
\@writefile{brf}{\backcite{papadimitriou94a}{{49}{7}{section.7}}}
\@writefile{brf}{\backcite{gejaosscth08a}{{49}{7}{section.7}}}
\@writefile{brf}{\backcite{lparseManual}{{49}{7}{section.7}}}
\@writefile{brf}{\backcite{robewa06a}{{49}{7}{section.7}}}
\@writefile{brf}{\backcite{melgel08a,niolti06a}{{49}{7}{section.7}}}
\bibstyle{plain}
\bibdata{guide}
\citation{gescth07a}
\citation{lparseManual}
\citation{syrjanen01a}
\citation{asparagus}
\@writefile{toc}{\contentsline {section}{References}{50}{section*.10}}
\@writefile{toc}{\contentsline {section}{\numberline {A}Differences to the Language of \texttt  {lparse}}{50}{appendix.A}}
\newlabel{sec:lparse}{{A}{50}{Differences to the Language of \lparse \relax }{appendix.A}{}}
\@writefile{brf}{\backcite{gescth07a}{{50}{A}{appendix.A}}}
\@writefile{brf}{\backcite{lparseManual}{{50}{A}{appendix.A}}}
\@writefile{brf}{\backcite{syrjanen01a}{{50}{A}{appendix.A}}}
\@writefile{brf}{\backcite{asparagus}{{50}{A}{appendix.A}}}
