{
  "evidence": ["ARF6(T27N) inhibits GH","In line with the finding that ARF6 ( T27N ) inhibits GH secretion from PC12 cells , this observation suggests that activation of ARF6 is critically important for calcium evoked exocytosis of dense-core secretory granules ."],
  "extracted_information": {
    "interaction_type": "decreases_activity",
    "negative_information": false,
    "participant_a": {
      "features": [
        {
          "feature_type": "mutation",
          "from_base": "T",
          "site": 27,
          "to_base": "N"
        }
      ],
      "entity_text": "ARF6",
      "entity_type": "protein",
      "identifier": "Uniprot:P62330",
      "in_model": true
    },
    "participant_b": {
      "entity_text": "GH",
      "entity_type": "protein",
      "identifier": "Uniprot:P01241",
      "in_model": false
    }
  },
  "fries_provenance": [
    {
      "cmu-sentence-epistemic-status": "implication",
      "cmu-sentence-epistemic-value": 0.6,
      "component": "REACH",
      "frame-file": "PMC2173505.uaz.events",
      "frame-id": "evem-PMC2173505-UAZ-r1-37-3-26",
      "passage-id": "pass-PMC2173505-UAZ-r1-37",
      "passage-number": 37,
      "passage-section-id": "N/A",
      "passage-section-name": "N/A",
      "sentence": "In line with the finding that ARF6 ( T27N ) inhibits GH secretion from PC12 cells , this observation suggests that activation of ARF6 is critically important for calcium evoked exocytosis of dense-core secretory granules .",
      "text": "ARF6(T27N) inhibits GH",
      "uaz-sentence": "In line with the finding that ARF6 ( T27N ) inhibits GH secretion from PC12 cells , this observation suggests that activation of ARF6 is critically important for calcium evoked exocytosis of dense-core secretory granules .",
      "uaz-sentence-start": 709
    }
  ],
  "model_relation": "extension",
  "pmc_id": "PMC2173505",
  "reader_type": "machine",
  "reading_complete": "2015-06-15T19:46:36Z",
  "reading_started": "2015-06-15T19:46:31Z",
  "submitter": "FRIES"
}
