{
  "evidence": ["glucose deficiency resulted in a substantial increase of ATF4","We observed that glucose deficiency resulted in a substantial increase of ATF4 in eIF2\\u03b1S/S mouse embryonic fibroblasts but not in eIF2\\u03b1A/A mouse embryonic fibroblasts for the various periods of treatment ( Ba)."],
  "extracted_information": {
    "interaction_type": "decreases",
    "negative_information": false,
    "participant_a": {
      "entity_text": "glucose",
      "entity_type": "chemical",
      "identifier": "CHEBI:4167",
      "in_model": false
    },
    "participant_b": {
      "entity_text": "ATF4",
      "entity_type": "protein",
      "identifier": "Uniprot:P18848",
      "in_model": true
    }
  },
  "fries_provenance": [
    {
      "component": "MedScan",
      "frame-file": "PMC2938387.cmu.medscan",
      "frame-id": "relm-PMC2938387-cmu-medscan-828",
      "sentence": "We observed that glucose deficiency resulted in a substantial increase of ATF4 in eIF2\\u03b1S/S mouse embryonic fibroblasts but not in eIF2\\u03b1A/A mouse embryonic fibroblasts for the various periods of treatment ( Ba).",
      "text": "glucose deficiency resulted in a substantial increase of ATF4"
    }
  ],
  "model_relation": "extension",
  "pmc_id": "PMC2938387",
  "reader_type": "machine",
  "reading_complete": "2015-06-15T21:29:44Z",
  "reading_started": "2015-06-15T21:29:39Z",
  "submitter": "FRIES"
}
