{
    "frames": [
        {
            "end-pos": {
                "context-end": "which/1", 
                "object-type": "relative-pos", 
                "offset": 99, 
                "reference": "sent-PMC3081413-medscan-1"
            }, 
            "frame-id": "ment-PMC3081413-cmu-junsys-4", 
            "frame-type": "entity-mention", 
            "object-meta": {
                "component": "Jun-System", 
                "object-type": "meta-info", 
                "organization": "CMU"
            }, 
            "object-type": "frame", 
            "sentence": "sent-PMC3081413-medscan-1", 
            "start-pos": {
                "context-start": "which/1", 
                "object-type": "relative-pos", 
                "offset": 94, 
                "reference": "sent-PMC3081413-medscan-1"
            }, 
            "text": "which", 
            "xrefs": []
        }, 
        {
            "end-pos": {
                "context-end": "cancer/1", 
                "object-type": "relative-pos", 
                "offset": 110, 
                "reference": "sent-PMC3081413-medscan-5"
            }, 
            "frame-id": "ment-PMC3081413-cmu-junsys-14", 
            "frame-type": "entity-mention", 
            "object-meta": {
                "component": "Jun-System", 
                "object-type": "meta-info", 
                "organization": "CMU"
            }, 
            "object-type": "frame", 
            "sentence": "sent-PMC3081413-medscan-5", 
            "start-pos": {
                "context-start": "cancer/1", 
                "object-type": "relative-pos", 
                "offset": 104, 
                "reference": "sent-PMC3081413-medscan-5"
            }, 
            "text": "cancer", 
            "xrefs": []
        }, 
        {
            "end-pos": {
                "context-end": "which/1", 
                "object-type": "relative-pos", 
                "offset": 117, 
                "reference": "sent-PMC3081413-medscan-5"
            }, 
            "frame-id": "ment-PMC3081413-cmu-junsys-15", 
            "frame-type": "entity-mention", 
            "object-meta": {
                "component": "Jun-System", 
                "object-type": "meta-info", 
                "organization": "CMU"
            }, 
            "object-type": "frame", 
            "sentence": "sent-PMC3081413-medscan-5", 
            "start-pos": {
                "context-start": "which/1", 
                "object-type": "relative-pos", 
                "offset": 112, 
                "reference": "sent-PMC3081413-medscan-5"
            }, 
            "text": "which", 
            "xrefs": []
        }, 
        {
            "end-pos": {
                "context-end": "domain/1", 
                "object-type": "relative-pos", 
                "offset": 56, 
                "reference": "sent-PMC3081413-medscan-8"
            }, 
            "frame-id": "ment-PMC3081413-cmu-junsys-28", 
            "frame-type": "entity-mention", 
            "object-meta": {
                "component": "Jun-System", 
                "object-type": "meta-info", 
                "organization": "CMU"
            }, 
            "object-type": "frame", 
            "sentence": "sent-PMC3081413-medscan-8", 
            "start-pos": {
                "context-start": "domain/1", 
                "object-type": "relative-pos", 
                "offset": 50, 
                "reference": "sent-PMC3081413-medscan-8"
            }, 
            "text": "domain", 
            "xrefs": []
        }, 
        {
            "end-pos": {
                "context-end": "which/1", 
                "object-type": "relative-pos", 
                "offset": 91, 
                "reference": "sent-PMC3081413-medscan-8"
            }, 
            "frame-id": "ment-PMC3081413-cmu-junsys-29", 
            "frame-type": "entity-mention", 
            "object-meta": {
                "component": "Jun-System", 
                "object-type": "meta-info", 
                "organization": "CMU"
            }, 
            "object-type": "frame", 
            "sentence": "sent-PMC3081413-medscan-8", 
            "start-pos": {
                "context-start": "which/1", 
                "object-type": "relative-pos", 
                "offset": 86, 
                "reference": "sent-PMC3081413-medscan-8"
            }, 
            "text": "which", 
            "xrefs": []
        }, 
        {
            "end-pos": {
                "context-end": "pathway/1", 
                "object-type": "relative-pos", 
                "offset": 61, 
                "reference": "sent-PMC3081413-medscan-10"
            }, 
            "frame-id": "ment-PMC3081413-cmu-junsys-35", 
            "frame-type": "entity-mention", 
            "object-meta": {
                "component": "Jun-System", 
                "object-type": "meta-info", 
                "organization": "CMU"
            }, 
            "object-type": "frame", 
            "sentence": "sent-PMC3081413-medscan-10", 
            "start-pos": {
                "context-start": "pathway/1", 
                "object-type": "relative-pos", 
                "offset": 54, 
                "reference": "sent-PMC3081413-medscan-10"
            }, 
            "text": "pathway", 
            "xrefs": []
        }, 
        {
            "end-pos": {
                "context-end": "domain/1", 
                "object-type": "relative-pos", 
                "offset": 159, 
                "reference": "sent-PMC3081413-medscan-27"
            }, 
            "frame-id": "ment-PMC3081413-cmu-junsys-66", 
            "frame-type": "entity-mention", 
            "object-meta": {
                "component": "Jun-System", 
                "object-type": "meta-info", 
                "organization": "CMU"
            }, 
            "object-type": "frame", 
            "sentence": "sent-PMC3081413-medscan-27", 
            "start-pos": {
                "context-start": "domain/1", 
                "object-type": "relative-pos", 
                "offset": 153, 
                "reference": "sent-PMC3081413-medscan-27"
            }, 
            "text": "domain", 
            "xrefs": []
        }, 
        {
            "end-pos": {
                "context-end": "which/1", 
                "object-type": "relative-pos", 
                "offset": 50, 
                "reference": "sent-PMC3081413-medscan-28"
            }, 
            "frame-id": "ment-PMC3081413-cmu-junsys-67", 
            "frame-type": "entity-mention", 
            "object-meta": {
                "component": "Jun-System", 
                "object-type": "meta-info", 
                "organization": "CMU"
            }, 
            "object-type": "frame", 
            "sentence": "sent-PMC3081413-medscan-28", 
            "start-pos": {
                "context-start": "which/1", 
                "object-type": "relative-pos", 
                "offset": 45, 
                "reference": "sent-PMC3081413-medscan-28"
            }, 
            "text": "which", 
            "xrefs": []
        }, 
        {
            "end-pos": {
                "context-end": "which/1", 
                "object-type": "relative-pos", 
                "offset": 50, 
                "reference": "sent-PMC3081413-medscan-28"
            }, 
            "frame-id": "ment-PMC3081413-cmu-junsys-69", 
            "frame-type": "entity-mention", 
            "object-meta": {
                "component": "Jun-System", 
                "object-type": "meta-info", 
                "organization": "CMU"
            }, 
            "object-type": "frame", 
            "sentence": "sent-PMC3081413-medscan-28", 
            "start-pos": {
                "context-start": "which/1", 
                "object-type": "relative-pos", 
                "offset": 45, 
                "reference": "sent-PMC3081413-medscan-28"
            }, 
            "text": "which", 
            "xrefs": []
        }, 
        {
            "end-pos": {
                "context-end": "domain/1", 
                "object-type": "relative-pos", 
                "offset": 17, 
                "reference": "sent-PMC3081413-medscan-31"
            }, 
            "frame-id": "ment-PMC3081413-cmu-junsys-75", 
            "frame-type": "entity-mention", 
            "object-meta": {
                "component": "Jun-System", 
                "object-type": "meta-info", 
                "organization": "CMU"
            }, 
            "object-type": "frame", 
            "sentence": "sent-PMC3081413-medscan-31", 
            "start-pos": {
                "context-start": "domain/1", 
                "object-type": "relative-pos", 
                "offset": 11, 
                "reference": "sent-PMC3081413-medscan-31"
            }, 
            "text": "domain", 
            "xrefs": []
        }, 
        {
            "end-pos": {
                "context-end": "inhibitor/1", 
                "object-type": "relative-pos", 
                "offset": 13, 
                "reference": "sent-PMC3081413-medscan-34"
            }, 
            "frame-id": "ment-PMC3081413-cmu-junsys-78", 
            "frame-type": "entity-mention", 
            "object-meta": {
                "component": "Jun-System", 
                "object-type": "meta-info", 
                "organization": "CMU"
            }, 
            "object-type": "frame", 
            "sentence": "sent-PMC3081413-medscan-34", 
            "start-pos": {
                "context-start": "inhibitor/1", 
                "object-type": "relative-pos", 
                "offset": 4, 
                "reference": "sent-PMC3081413-medscan-34"
            }, 
            "text": "inhibitor", 
            "xrefs": []
        }, 
        {
            "end-pos": {
                "context-end": "segment/1", 
                "object-type": "relative-pos", 
                "offset": 22, 
                "reference": "sent-PMC3081413-medscan-36"
            }, 
            "frame-id": "ment-PMC3081413-cmu-junsys-82", 
            "frame-type": "entity-mention", 
            "object-meta": {
                "component": "Jun-System", 
                "object-type": "meta-info", 
                "organization": "CMU"
            }, 
            "object-type": "frame", 
            "sentence": "sent-PMC3081413-medscan-36", 
            "start-pos": {
                "context-start": "segment/1", 
                "object-type": "relative-pos", 
                "offset": 15, 
                "reference": "sent-PMC3081413-medscan-36"
            }, 
            "text": "segment", 
            "xrefs": []
        }, 
        {
            "end-pos": {
                "context-end": "which/1", 
                "object-type": "relative-pos", 
                "offset": 29, 
                "reference": "sent-PMC3081413-medscan-36"
            }, 
            "frame-id": "ment-PMC3081413-cmu-junsys-83", 
            "frame-type": "entity-mention", 
            "object-meta": {
                "component": "Jun-System", 
                "object-type": "meta-info", 
                "organization": "CMU"
            }, 
            "object-type": "frame", 
            "sentence": "sent-PMC3081413-medscan-36", 
            "start-pos": {
                "context-start": "which/1", 
                "object-type": "relative-pos", 
                "offset": 24, 
                "reference": "sent-PMC3081413-medscan-36"
            }, 
            "text": "which", 
            "xrefs": []
        }, 
        {
            "end-pos": {
                "context-end": "\u03b210/1", 
                "object-type": "relative-pos", 
                "offset": 59, 
                "reference": "sent-PMC3081413-medscan-40"
            }, 
            "frame-id": "ment-PMC3081413-cmu-junsys-84", 
            "frame-type": "entity-mention", 
            "object-meta": {
                "component": "Jun-System", 
                "object-type": "meta-info", 
                "organization": "CMU"
            }, 
            "object-type": "frame", 
            "sentence": "sent-PMC3081413-medscan-40", 
            "start-pos": {
                "context-start": "\u03b210/1", 
                "object-type": "relative-pos", 
                "offset": 56, 
                "reference": "sent-PMC3081413-medscan-40"
            }, 
            "text": "\u03b210", 
            "xrefs": []
        }, 
        {
            "end-pos": {
                "context-end": "which/1", 
                "object-type": "relative-pos", 
                "offset": 66, 
                "reference": "sent-PMC3081413-medscan-40"
            }, 
            "frame-id": "ment-PMC3081413-cmu-junsys-85", 
            "frame-type": "entity-mention", 
            "object-meta": {
                "component": "Jun-System", 
                "object-type": "meta-info", 
                "organization": "CMU"
            }, 
            "object-type": "frame", 
            "sentence": "sent-PMC3081413-medscan-40", 
            "start-pos": {
                "context-start": "which/1", 
                "object-type": "relative-pos", 
                "offset": 61, 
                "reference": "sent-PMC3081413-medscan-40"
            }, 
            "text": "which", 
            "xrefs": []
        }, 
        {
            "end-pos": {
                "context-end": "domain/1", 
                "object-type": "relative-pos", 
                "offset": 21, 
                "reference": "sent-PMC3081413-medscan-42"
            }, 
            "frame-id": "ment-PMC3081413-cmu-junsys-90", 
            "frame-type": "entity-mention", 
            "object-meta": {
                "component": "Jun-System", 
                "object-type": "meta-info", 
                "organization": "CMU"
            }, 
            "object-type": "frame", 
            "sentence": "sent-PMC3081413-medscan-42", 
            "start-pos": {
                "context-start": "domain/1", 
                "object-type": "relative-pos", 
                "offset": 15, 
                "reference": "sent-PMC3081413-medscan-42"
            }, 
            "text": "domain", 
            "xrefs": []
        }, 
        {
            "end-pos": {
                "context-end": "interaction/1", 
                "object-type": "relative-pos", 
                "offset": 66, 
                "reference": "sent-PMC3081413-medscan-76"
            }, 
            "frame-id": "ment-PMC3081413-cmu-junsys-159", 
            "frame-type": "entity-mention", 
            "object-meta": {
                "component": "Jun-System", 
                "object-type": "meta-info", 
                "organization": "CMU"
            }, 
            "object-type": "frame", 
            "sentence": "sent-PMC3081413-medscan-76", 
            "start-pos": {
                "context-start": "interaction/1", 
                "object-type": "relative-pos", 
                "offset": 55, 
                "reference": "sent-PMC3081413-medscan-76"
            }, 
            "text": "interaction", 
            "xrefs": []
        }, 
        {
            "end-pos": {
                "context-end": "which/1", 
                "object-type": "relative-pos", 
                "offset": 73, 
                "reference": "sent-PMC3081413-medscan-76"
            }, 
            "frame-id": "ment-PMC3081413-cmu-junsys-160", 
            "frame-type": "entity-mention", 
            "object-meta": {
                "component": "Jun-System", 
                "object-type": "meta-info", 
                "organization": "CMU"
            }, 
            "object-type": "frame", 
            "sentence": "sent-PMC3081413-medscan-76", 
            "start-pos": {
                "context-start": "which/1", 
                "object-type": "relative-pos", 
                "offset": 68, 
                "reference": "sent-PMC3081413-medscan-76"
            }, 
            "text": "which", 
            "xrefs": []
        }, 
        {
            "end-pos": {
                "context-end": "interaction/1", 
                "object-type": "relative-pos", 
                "offset": 102, 
                "reference": "sent-PMC3081413-medscan-77"
            }, 
            "frame-id": "ment-PMC3081413-cmu-junsys-161", 
            "frame-type": "entity-mention", 
            "object-meta": {
                "component": "Jun-System", 
                "object-type": "meta-info", 
                "organization": "CMU"
            }, 
            "object-type": "frame", 
            "sentence": "sent-PMC3081413-medscan-77", 
            "start-pos": {
                "context-start": "interaction/1", 
                "object-type": "relative-pos", 
                "offset": 91, 
                "reference": "sent-PMC3081413-medscan-77"
            }, 
            "text": "interaction", 
            "xrefs": []
        }, 
        {
            "end-pos": {
                "context-end": "mutant/1", 
                "object-type": "relative-pos", 
                "offset": 90, 
                "reference": "sent-PMC3081413-medscan-81"
            }, 
            "frame-id": "ment-PMC3081413-cmu-junsys-172", 
            "frame-type": "entity-mention", 
            "object-meta": {
                "component": "Jun-System", 
                "object-type": "meta-info", 
                "organization": "CMU"
            }, 
            "object-type": "frame", 
            "sentence": "sent-PMC3081413-medscan-81", 
            "start-pos": {
                "context-start": "mutant/1", 
                "object-type": "relative-pos", 
                "offset": 84, 
                "reference": "sent-PMC3081413-medscan-81"
            }, 
            "text": "mutant", 
            "xrefs": []
        }, 
        {
            "end-pos": {
                "context-end": "which/1", 
                "object-type": "relative-pos", 
                "offset": 103, 
                "reference": "sent-PMC3081413-medscan-81"
            }, 
            "frame-id": "ment-PMC3081413-cmu-junsys-173", 
            "frame-type": "entity-mention", 
            "object-meta": {
                "component": "Jun-System", 
                "object-type": "meta-info", 
                "organization": "CMU"
            }, 
            "object-type": "frame", 
            "sentence": "sent-PMC3081413-medscan-81", 
            "start-pos": {
                "context-start": "which/1", 
                "object-type": "relative-pos", 
                "offset": 98, 
                "reference": "sent-PMC3081413-medscan-81"
            }, 
            "text": "which", 
            "xrefs": []
        }, 
        {
            "end-pos": {
                "context-end": "sequence/1", 
                "object-type": "relative-pos", 
                "offset": 213, 
                "reference": "sent-PMC3081413-medscan-84"
            }, 
            "frame-id": "ment-PMC3081413-cmu-junsys-183", 
            "frame-type": "entity-mention", 
            "object-meta": {
                "component": "Jun-System", 
                "object-type": "meta-info", 
                "organization": "CMU"
            }, 
            "object-type": "frame", 
            "sentence": "sent-PMC3081413-medscan-84", 
            "start-pos": {
                "context-start": "sequence/1", 
                "object-type": "relative-pos", 
                "offset": 205, 
                "reference": "sent-PMC3081413-medscan-84"
            }, 
            "text": "sequence", 
            "xrefs": []
        }, 
        {
            "end-pos": {
                "context-end": "mechanism/1", 
                "object-type": "relative-pos", 
                "offset": 85, 
                "reference": "sent-PMC3081413-medscan-88"
            }, 
            "frame-id": "ment-PMC3081413-cmu-junsys-189", 
            "frame-type": "entity-mention", 
            "object-meta": {
                "component": "Jun-System", 
                "object-type": "meta-info", 
                "organization": "CMU"
            }, 
            "object-type": "frame", 
            "sentence": "sent-PMC3081413-medscan-88", 
            "start-pos": {
                "context-start": "mechanism/1", 
                "object-type": "relative-pos", 
                "offset": 76, 
                "reference": "sent-PMC3081413-medscan-88"
            }, 
            "text": "mechanism", 
            "xrefs": []
        }, 
        {
            "end-pos": {
                "context-end": "which/1", 
                "object-type": "relative-pos", 
                "offset": 94, 
                "reference": "sent-PMC3081413-medscan-88"
            }, 
            "frame-id": "ment-PMC3081413-cmu-junsys-190", 
            "frame-type": "entity-mention", 
            "object-meta": {
                "component": "Jun-System", 
                "object-type": "meta-info", 
                "organization": "CMU"
            }, 
            "object-type": "frame", 
            "sentence": "sent-PMC3081413-medscan-88", 
            "start-pos": {
                "context-start": "which/1", 
                "object-type": "relative-pos", 
                "offset": 89, 
                "reference": "sent-PMC3081413-medscan-88"
            }, 
            "text": "which", 
            "xrefs": []
        }, 
        {
            "end-pos": {
                "object-type": "relative-pos", 
                "offset": -1, 
                "reference": "NOT LINKED"
            }, 
            "frame-id": "ment-PMC3081413-cmu-junsys-251", 
            "frame-type": "entity-mention", 
            "object-meta": {
                "component": "Jun-System", 
                "object-type": "meta-info", 
                "organization": "CMU"
            }, 
            "object-type": "frame", 
            "sentence": "NOT LINKED", 
            "start-pos": {
                "object-type": "relative-pos", 
                "offset": -1, 
                "reference": "NOT LINKED"
            }, 
            "text": "oligomerization", 
            "xrefs": []
        }, 
        {
            "end-pos": {
                "context-end": "which/1", 
                "object-type": "relative-pos", 
                "offset": 186, 
                "reference": "sent-PMC3081413-medscan-127"
            }, 
            "frame-id": "ment-PMC3081413-cmu-junsys-252", 
            "frame-type": "entity-mention", 
            "object-meta": {
                "component": "Jun-System", 
                "object-type": "meta-info", 
                "organization": "CMU"
            }, 
            "object-type": "frame", 
            "sentence": "sent-PMC3081413-medscan-127", 
            "start-pos": {
                "context-start": "which/1", 
                "object-type": "relative-pos", 
                "offset": 181, 
                "reference": "sent-PMC3081413-medscan-127"
            }, 
            "text": "which", 
            "xrefs": []
        }, 
        {
            "end-pos": {
                "context-end": "Third/1", 
                "object-type": "relative-pos", 
                "offset": 5, 
                "reference": "sent-PMC3081413-medscan-133"
            }, 
            "frame-id": "ment-PMC3081413-cmu-junsys-263", 
            "frame-type": "entity-mention", 
            "object-meta": {
                "component": "Jun-System", 
                "object-type": "meta-info", 
                "organization": "CMU"
            }, 
            "object-type": "frame", 
            "sentence": "sent-PMC3081413-medscan-133", 
            "start-pos": {
                "context-start": "Third/1", 
                "object-type": "relative-pos", 
                "offset": 0, 
                "reference": "sent-PMC3081413-medscan-133"
            }, 
            "text": "Third", 
            "xrefs": []
        }, 
        {
            "end-pos": {
                "context-end": "interaction/1", 
                "object-type": "relative-pos", 
                "offset": 23, 
                "reference": "sent-PMC3081413-medscan-134"
            }, 
            "frame-id": "ment-PMC3081413-cmu-junsys-266", 
            "frame-type": "entity-mention", 
            "object-meta": {
                "component": "Jun-System", 
                "object-type": "meta-info", 
                "organization": "CMU"
            }, 
            "object-type": "frame", 
            "sentence": "sent-PMC3081413-medscan-134", 
            "start-pos": {
                "context-start": "interaction/1", 
                "object-type": "relative-pos", 
                "offset": 12, 
                "reference": "sent-PMC3081413-medscan-134"
            }, 
            "text": "interaction", 
            "xrefs": []
        }, 
        {
            "end-pos": {
                "context-end": "which/1", 
                "object-type": "relative-pos", 
                "offset": 92, 
                "reference": "sent-PMC3081413-medscan-157"
            }, 
            "frame-id": "ment-PMC3081413-cmu-junsys-298", 
            "frame-type": "entity-mention", 
            "object-meta": {
                "component": "Jun-System", 
                "object-type": "meta-info", 
                "organization": "CMU"
            }, 
            "object-type": "frame", 
            "sentence": "sent-PMC3081413-medscan-157", 
            "start-pos": {
                "context-start": "which/1", 
                "object-type": "relative-pos", 
                "offset": 87, 
                "reference": "sent-PMC3081413-medscan-157"
            }, 
            "text": "which", 
            "xrefs": []
        }, 
        {
            "end-pos": {
                "context-end": "model/1", 
                "object-type": "relative-pos", 
                "offset": 131, 
                "reference": "sent-PMC3081413-medscan-172"
            }, 
            "frame-id": "ment-PMC3081413-cmu-junsys-306", 
            "frame-type": "entity-mention", 
            "object-meta": {
                "component": "Jun-System", 
                "object-type": "meta-info", 
                "organization": "CMU"
            }, 
            "object-type": "frame", 
            "sentence": "sent-PMC3081413-medscan-172", 
            "start-pos": {
                "context-start": "model/1", 
                "object-type": "relative-pos", 
                "offset": 126, 
                "reference": "sent-PMC3081413-medscan-172"
            }, 
            "text": "model", 
            "xrefs": []
        }, 
        {
            "end-pos": {
                "context-end": "which/1", 
                "object-type": "relative-pos", 
                "offset": 148, 
                "reference": "sent-PMC3081413-medscan-169"
            }, 
            "frame-id": "ment-PMC3081413-cmu-junsys-307", 
            "frame-type": "entity-mention", 
            "object-meta": {
                "component": "Jun-System", 
                "object-type": "meta-info", 
                "organization": "CMU"
            }, 
            "object-type": "frame", 
            "sentence": "sent-PMC3081413-medscan-169", 
            "start-pos": {
                "context-start": "which/1", 
                "object-type": "relative-pos", 
                "offset": 143, 
                "reference": "sent-PMC3081413-medscan-169"
            }, 
            "text": "which", 
            "xrefs": []
        }, 
        {
            "end-pos": {
                "context-end": "point/1", 
                "object-type": "relative-pos", 
                "offset": 104, 
                "reference": "sent-PMC3081413-medscan-190"
            }, 
            "frame-id": "ment-PMC3081413-cmu-junsys-323", 
            "frame-type": "entity-mention", 
            "object-meta": {
                "component": "Jun-System", 
                "object-type": "meta-info", 
                "organization": "CMU"
            }, 
            "object-type": "frame", 
            "sentence": "sent-PMC3081413-medscan-190", 
            "start-pos": {
                "context-start": "point/1", 
                "object-type": "relative-pos", 
                "offset": 99, 
                "reference": "sent-PMC3081413-medscan-190"
            }, 
            "text": "point", 
            "xrefs": []
        }, 
        {
            "end-pos": {
                "context-end": "which/1", 
                "object-type": "relative-pos", 
                "offset": 117, 
                "reference": "sent-PMC3081413-medscan-190"
            }, 
            "frame-id": "ment-PMC3081413-cmu-junsys-324", 
            "frame-type": "entity-mention", 
            "object-meta": {
                "component": "Jun-System", 
                "object-type": "meta-info", 
                "organization": "CMU"
            }, 
            "object-type": "frame", 
            "sentence": "sent-PMC3081413-medscan-190", 
            "start-pos": {
                "context-start": "which/1", 
                "object-type": "relative-pos", 
                "offset": 112, 
                "reference": "sent-PMC3081413-medscan-190"
            }, 
            "text": "which", 
            "xrefs": []
        }, 
        {
            "arguments": [], 
            "context": "mediates activation", 
            "end-pos": {
                "context-end": "mediates/1", 
                "object-type": "relative-pos", 
                "offset": 19, 
                "reference": "sent-PMC3081413-medscan-10"
            }, 
            "frame-id": "eve-PMC3081413-cmu-junsys-345", 
            "frame-type": "event-mention", 
            "object-meta": {
                "component": "Jun-System", 
                "object-type": "meta-info", 
                "organization": "CMU"
            }, 
            "object-type": "frame", 
            "sentence": "sent-PMC3081413-medscan-10", 
            "start-pos": {
                "context-start": "mediates/1", 
                "object-type": "relative-pos", 
                "offset": 11, 
                "reference": "sent-PMC3081413-medscan-10"
            }, 
            "text": "mediates", 
            "type": "mediate"
        }, 
        {
            "arguments": [
                {
                    "arg": "ment-PMC3081413-cmu-junsys-35", 
                    "object-type": "argument", 
                    "type": "arg1"
                }
            ], 
            "context": "activation of the canonical NF-\u03baB pathway", 
            "end-pos": {
                "context-end": "activation/1", 
                "object-type": "relative-pos", 
                "offset": 30, 
                "reference": "sent-PMC3081413-medscan-10"
            }, 
            "frame-id": "eve-PMC3081413-cmu-junsys-346", 
            "frame-type": "event-mention", 
            "object-meta": {
                "component": "Jun-System", 
                "object-type": "meta-info", 
                "organization": "CMU"
            }, 
            "object-type": "frame", 
            "sentence": "sent-PMC3081413-medscan-10", 
            "start-pos": {
                "context-start": "activation/1", 
                "object-type": "relative-pos", 
                "offset": 20, 
                "reference": "sent-PMC3081413-medscan-10"
            }, 
            "text": "activation", 
            "type": "activate"
        }, 
        {
            "arguments": [
                {
                    "arg": "ment-PMC3081413-cmu-medscan-50", 
                    "object-type": "argument", 
                    "type": "arg1"
                }
            ], 
            "context": "IKK activation", 
            "end-pos": {
                "context-end": "activation/2", 
                "object-type": "relative-pos", 
                "offset": 76, 
                "reference": "sent-PMC3081413-medscan-15"
            }, 
            "frame-id": "eve-PMC3081413-cmu-junsys-347", 
            "frame-type": "event-mention", 
            "object-meta": {
                "component": "Jun-System", 
                "object-type": "meta-info", 
                "organization": "CMU"
            }, 
            "object-type": "frame", 
            "sentence": "sent-PMC3081413-medscan-15", 
            "start-pos": {
                "context-start": "activation/2", 
                "object-type": "relative-pos", 
                "offset": 66, 
                "reference": "sent-PMC3081413-medscan-15"
            }, 
            "text": "activation", 
            "type": "activate"
        }, 
        {
            "arguments": [
                {
                    "arg": "ment-PMC3081413-cmu-junsys-75", 
                    "object-type": "argument", 
                    "type": "arg0"
                }
            ], 
            "context": "domain binds", 
            "end-pos": {
                "object-type": "relative-pos", 
                "offset": -1, 
                "reference": "NOT LINKED"
            }, 
            "frame-id": "eve-PMC3081413-cmu-junsys-348", 
            "frame-type": "event-mention", 
            "object-meta": {
                "component": "Jun-System", 
                "object-type": "meta-info", 
                "organization": "CMU"
            }, 
            "object-type": "frame", 
            "sentence": "NOT LINKED", 
            "start-pos": {
                "object-type": "relative-pos", 
                "offset": -1, 
                "reference": "NOT LINKED"
            }, 
            "text": "binds", 
            "type": "bind"
        }, 
        {
            "arguments": [
                {
                    "arg": "ment-PMC3081413-cmu-junsys-78", 
                    "object-type": "argument", 
                    "type": "arg0"
                }
            ], 
            "context": "inhibitor binds", 
            "end-pos": {
                "context-end": "binds/1", 
                "object-type": "relative-pos", 
                "offset": 19, 
                "reference": "sent-PMC3081413-medscan-34"
            }, 
            "frame-id": "eve-PMC3081413-cmu-junsys-349", 
            "frame-type": "event-mention", 
            "object-meta": {
                "component": "Jun-System", 
                "object-type": "meta-info", 
                "organization": "CMU"
            }, 
            "object-type": "frame", 
            "sentence": "sent-PMC3081413-medscan-34", 
            "start-pos": {
                "context-start": "binds/1", 
                "object-type": "relative-pos", 
                "offset": 14, 
                "reference": "sent-PMC3081413-medscan-34"
            }, 
            "text": "binds", 
            "type": "bind"
        }, 
        {
            "arguments": [
                {
                    "arg": "ment-PMC3081413-cmu-junsys-90", 
                    "object-type": "argument", 
                    "type": "arg0"
                }
            ], 
            "context": "domain binds", 
            "end-pos": {
                "context-end": "binds/1", 
                "object-type": "relative-pos", 
                "offset": 27, 
                "reference": "sent-PMC3081413-medscan-42"
            }, 
            "frame-id": "eve-PMC3081413-cmu-junsys-350", 
            "frame-type": "event-mention", 
            "object-meta": {
                "component": "Jun-System", 
                "object-type": "meta-info", 
                "organization": "CMU"
            }, 
            "object-type": "frame", 
            "sentence": "sent-PMC3081413-medscan-42", 
            "start-pos": {
                "context-start": "binds/1", 
                "object-type": "relative-pos", 
                "offset": 22, 
                "reference": "sent-PMC3081413-medscan-42"
            }, 
            "text": "binds", 
            "type": "bind"
        }, 
        {
            "arguments": [
                {
                    "arg": "ment-PMC3081413-cmu-medscan-96", 
                    "object-type": "argument", 
                    "type": "arg1"
                }
            ], 
            "context": "NF-\u03baB activation", 
            "end-pos": {
                "context-end": "activation/1", 
                "object-type": "relative-pos", 
                "offset": 200, 
                "reference": "sent-PMC3081413-medscan-49"
            }, 
            "frame-id": "eve-PMC3081413-cmu-junsys-351", 
            "frame-type": "event-mention", 
            "object-meta": {
                "component": "Jun-System", 
                "object-type": "meta-info", 
                "organization": "CMU"
            }, 
            "object-type": "frame", 
            "sentence": "sent-PMC3081413-medscan-49", 
            "start-pos": {
                "context-start": "activation/1", 
                "object-type": "relative-pos", 
                "offset": 190, 
                "reference": "sent-PMC3081413-medscan-49"
            }, 
            "text": "activation", 
            "type": "activate"
        }, 
        {
            "arguments": [
                {
                    "arg": "ment-PMC3081413-cmu-junsys-160", 
                    "object-type": "argument", 
                    "type": "arg0"
                }, 
                {
                    "arg": "ment-PMC3081413-cmu-junsys-161", 
                    "object-type": "argument", 
                    "type": "arg1"
                }
            ], 
            "context": "which increases substrate interaction", 
            "end-pos": {
                "context-end": "increases/1", 
                "object-type": "relative-pos", 
                "offset": 83, 
                "reference": "sent-PMC3081413-medscan-76"
            }, 
            "frame-id": "eve-PMC3081413-cmu-junsys-352", 
            "frame-type": "event-mention", 
            "object-meta": {
                "component": "Jun-System", 
                "object-type": "meta-info", 
                "organization": "CMU"
            }, 
            "object-type": "frame", 
            "sentence": "sent-PMC3081413-medscan-76", 
            "start-pos": {
                "context-start": "increases/1", 
                "object-type": "relative-pos", 
                "offset": 74, 
                "reference": "sent-PMC3081413-medscan-76"
            }, 
            "text": "increases", 
            "type": "increase"
        }, 
        {
            "arguments": [
                {
                    "arg": "ment-PMC3081413-cmu-medscan-178", 
                    "object-type": "argument", 
                    "type": "arg1"
                }
            ], 
            "context": "I\u03baB\u03b1 phosphorylation", 
            "end-pos": {
                "context-end": "phosphorylation/1", 
                "object-type": "relative-pos", 
                "offset": 38, 
                "reference": "sent-PMC3081413-medscan-83"
            }, 
            "frame-id": "eve-PMC3081413-cmu-junsys-353", 
            "frame-type": "event-mention", 
            "object-meta": {
                "component": "Jun-System", 
                "object-type": "meta-info", 
                "organization": "CMU"
            }, 
            "object-type": "frame", 
            "sentence": "sent-PMC3081413-medscan-83", 
            "start-pos": {
                "context-start": "phosphorylation/1", 
                "object-type": "relative-pos", 
                "offset": 23, 
                "reference": "sent-PMC3081413-medscan-83"
            }, 
            "text": "phosphorylation", 
            "type": "phosphorylation"
        }, 
        {
            "arguments": [
                {
                    "arg": "ment-PMC3081413-cmu-junsys-183", 
                    "object-type": "argument", 
                    "type": "arg1"
                }
            ], 
            "context": "phosphorylation of the C-terminal PEST sequence", 
            "end-pos": {
                "object-type": "relative-pos", 
                "offset": -1, 
                "reference": "NOT LINKED"
            }, 
            "frame-id": "eve-PMC3081413-cmu-junsys-354", 
            "frame-type": "event-mention", 
            "object-meta": {
                "component": "Jun-System", 
                "object-type": "meta-info", 
                "organization": "CMU"
            }, 
            "object-type": "frame", 
            "sentence": "NOT LINKED", 
            "start-pos": {
                "object-type": "relative-pos", 
                "offset": -1, 
                "reference": "NOT LINKED"
            }, 
            "text": "phosphorylation", 
            "type": "phosphorylation"
        }, 
        {
            "arguments": [
                {
                    "arg": "ment-PMC3081413-cmu-medscan-192", 
                    "object-type": "argument", 
                    "type": "arg1"
                }
            ], 
            "context": "TAK1 activation", 
            "end-pos": {
                "context-end": "activation/1", 
                "object-type": "relative-pos", 
                "offset": 38, 
                "reference": "sent-PMC3081413-medscan-89"
            }, 
            "frame-id": "eve-PMC3081413-cmu-junsys-355", 
            "frame-type": "event-mention", 
            "object-meta": {
                "component": "Jun-System", 
                "object-type": "meta-info", 
                "organization": "CMU"
            }, 
            "object-type": "frame", 
            "sentence": "sent-PMC3081413-medscan-89", 
            "start-pos": {
                "context-start": "activation/1", 
                "object-type": "relative-pos", 
                "offset": 28, 
                "reference": "sent-PMC3081413-medscan-89"
            }, 
            "text": "activation", 
            "type": "activate"
        }, 
        {
            "arguments": [
                {
                    "arg": "ment-PMC3081413-cmu-medscan-221", 
                    "object-type": "argument", 
                    "type": "arg1"
                }
            ], 
            "context": "IKK\u03b2 activation", 
            "end-pos": {
                "context-end": "activation/2", 
                "object-type": "relative-pos", 
                "offset": 141, 
                "reference": "sent-PMC3081413-medscan-113"
            }, 
            "frame-id": "eve-PMC3081413-cmu-junsys-356", 
            "frame-type": "event-mention", 
            "object-meta": {
                "component": "Jun-System", 
                "object-type": "meta-info", 
                "organization": "CMU"
            }, 
            "object-type": "frame", 
            "sentence": "sent-PMC3081413-medscan-113", 
            "start-pos": {
                "context-start": "activation/2", 
                "object-type": "relative-pos", 
                "offset": 131, 
                "reference": "sent-PMC3081413-medscan-113"
            }, 
            "text": "activation", 
            "type": "activate"
        }, 
        {
            "arguments": [
                {
                    "arg": "ment-PMC3081413-cmu-medscan-222", 
                    "object-type": "argument", 
                    "type": "arg1"
                }
            ], 
            "context": "IKK\u03b2 activation", 
            "end-pos": {
                "context-end": "activation/2", 
                "object-type": "relative-pos", 
                "offset": 141, 
                "reference": "sent-PMC3081413-medscan-113"
            }, 
            "frame-id": "eve-PMC3081413-cmu-junsys-357", 
            "frame-type": "event-mention", 
            "object-meta": {
                "component": "Jun-System", 
                "object-type": "meta-info", 
                "organization": "CMU"
            }, 
            "object-type": "frame", 
            "sentence": "sent-PMC3081413-medscan-113", 
            "start-pos": {
                "context-start": "activation/2", 
                "object-type": "relative-pos", 
                "offset": 131, 
                "reference": "sent-PMC3081413-medscan-113"
            }, 
            "text": "activation", 
            "type": "activate"
        }, 
        {
            "arguments": [
                {
                    "arg": "ment-PMC3081413-cmu-medscan-232", 
                    "object-type": "argument", 
                    "type": "arg1"
                }
            ], 
            "context": "IKK\u03b2 activation", 
            "end-pos": {
                "context-end": "activation/2", 
                "object-type": "relative-pos", 
                "offset": 132, 
                "reference": "sent-PMC3081413-medscan-117"
            }, 
            "frame-id": "eve-PMC3081413-cmu-junsys-358", 
            "frame-type": "event-mention", 
            "object-meta": {
                "component": "Jun-System", 
                "object-type": "meta-info", 
                "organization": "CMU"
            }, 
            "object-type": "frame", 
            "sentence": "sent-PMC3081413-medscan-117", 
            "start-pos": {
                "context-start": "activation/2", 
                "object-type": "relative-pos", 
                "offset": 122, 
                "reference": "sent-PMC3081413-medscan-117"
            }, 
            "text": "activation", 
            "type": "activate"
        }, 
        {
            "arguments": [
                {
                    "arg": "ment-PMC3081413-cmu-junsys-263", 
                    "object-type": "argument", 
                    "type": "arg0"
                }, 
                {
                    "arg": "ment-PMC3081413-cmu-junsys-266", 
                    "object-type": "argument", 
                    "type": "arg1"
                }
            ], 
            "context": "Third, phosphorylation at the PEST by Casein kinase 2 or other kinases may regulate I\u03baB\u03b1 interaction", 
            "end-pos": {
                "object-type": "relative-pos", 
                "offset": -1, 
                "reference": "sent-PMC3081413-medscan-133"
            }, 
            "frame-id": "eve-PMC3081413-cmu-junsys-359", 
            "frame-type": "event-mention", 
            "object-meta": {
                "component": "Jun-System", 
                "object-type": "meta-info", 
                "organization": "CMU"
            }, 
            "object-type": "frame", 
            "sentence": "sent-PMC3081413-medscan-133", 
            "start-pos": {
                "object-type": "relative-pos", 
                "offset": -1, 
                "reference": "sent-PMC3081413-medscan-133"
            }, 
            "text": "regulate", 
            "type": "regulate"
        }, 
        {
            "frame-id": "ent-PMC3081413-cmu-junsys-361", 
            "frame-type": "entity", 
            "members": [
                "ment-PMC3081413-cmu-medscan-3", 
                "ment-PMC3081413-cmu-junsys-4"
            ], 
            "object-meta": {
                "component": "Jun-System", 
                "object-type": "meta-info", 
                "organization": "CMU"
            }, 
            "object-type": "frame"
        }, 
        {
            "frame-id": "ent-PMC3081413-cmu-junsys-362", 
            "frame-type": "entity", 
            "members": [
                "ment-PMC3081413-cmu-junsys-14", 
                "ment-PMC3081413-cmu-junsys-15"
            ], 
            "object-meta": {
                "component": "Jun-System", 
                "object-type": "meta-info", 
                "organization": "CMU"
            }, 
            "object-type": "frame"
        }, 
        {
            "frame-id": "ent-PMC3081413-cmu-junsys-363", 
            "frame-type": "entity", 
            "members": [
                "ment-PMC3081413-cmu-junsys-28", 
                "ment-PMC3081413-cmu-junsys-29"
            ], 
            "object-meta": {
                "component": "Jun-System", 
                "object-type": "meta-info", 
                "organization": "CMU"
            }, 
            "object-type": "frame"
        }, 
        {
            "frame-id": "ent-PMC3081413-cmu-junsys-364", 
            "frame-type": "entity", 
            "members": [
                "ment-PMC3081413-cmu-junsys-66", 
                "ment-PMC3081413-cmu-junsys-67"
            ], 
            "object-meta": {
                "component": "Jun-System", 
                "object-type": "meta-info", 
                "organization": "CMU"
            }, 
            "object-type": "frame"
        }, 
        {
            "frame-id": "ent-PMC3081413-cmu-junsys-365", 
            "frame-type": "entity", 
            "members": [
                "ment-PMC3081413-cmu-medscan-68", 
                "ment-PMC3081413-cmu-junsys-69"
            ], 
            "object-meta": {
                "component": "Jun-System", 
                "object-type": "meta-info", 
                "organization": "CMU"
            }, 
            "object-type": "frame"
        }, 
        {
            "frame-id": "ent-PMC3081413-cmu-junsys-366", 
            "frame-type": "entity", 
            "members": [
                "ment-PMC3081413-cmu-junsys-82", 
                "ment-PMC3081413-cmu-junsys-83"
            ], 
            "object-meta": {
                "component": "Jun-System", 
                "object-type": "meta-info", 
                "organization": "CMU"
            }, 
            "object-type": "frame"
        }, 
        {
            "frame-id": "ent-PMC3081413-cmu-junsys-367", 
            "frame-type": "entity", 
            "members": [
                "ment-PMC3081413-cmu-junsys-84", 
                "ment-PMC3081413-cmu-junsys-85"
            ], 
            "object-meta": {
                "component": "Jun-System", 
                "object-type": "meta-info", 
                "organization": "CMU"
            }, 
            "object-type": "frame"
        }, 
        {
            "frame-id": "ent-PMC3081413-cmu-junsys-368", 
            "frame-type": "entity", 
            "members": [
                "ment-PMC3081413-cmu-junsys-159", 
                "ment-PMC3081413-cmu-junsys-160"
            ], 
            "object-meta": {
                "component": "Jun-System", 
                "object-type": "meta-info", 
                "organization": "CMU"
            }, 
            "object-type": "frame"
        }, 
        {
            "frame-id": "ent-PMC3081413-cmu-junsys-369", 
            "frame-type": "entity", 
            "members": [
                "ment-PMC3081413-cmu-junsys-172", 
                "ment-PMC3081413-cmu-junsys-173"
            ], 
            "object-meta": {
                "component": "Jun-System", 
                "object-type": "meta-info", 
                "organization": "CMU"
            }, 
            "object-type": "frame"
        }, 
        {
            "frame-id": "ent-PMC3081413-cmu-junsys-370", 
            "frame-type": "entity", 
            "members": [
                "ment-PMC3081413-cmu-junsys-189", 
                "ment-PMC3081413-cmu-junsys-190"
            ], 
            "object-meta": {
                "component": "Jun-System", 
                "object-type": "meta-info", 
                "organization": "CMU"
            }, 
            "object-type": "frame"
        }, 
        {
            "frame-id": "ent-PMC3081413-cmu-junsys-371", 
            "frame-type": "entity", 
            "members": [
                "ment-PMC3081413-cmu-junsys-251", 
                "ment-PMC3081413-cmu-junsys-252"
            ], 
            "object-meta": {
                "component": "Jun-System", 
                "object-type": "meta-info", 
                "organization": "CMU"
            }, 
            "object-type": "frame"
        }, 
        {
            "frame-id": "ent-PMC3081413-cmu-junsys-372", 
            "frame-type": "entity", 
            "members": [
                "ment-PMC3081413-cmu-medscan-297", 
                "ment-PMC3081413-cmu-junsys-298"
            ], 
            "object-meta": {
                "component": "Jun-System", 
                "object-type": "meta-info", 
                "organization": "CMU"
            }, 
            "object-type": "frame"
        }, 
        {
            "frame-id": "ent-PMC3081413-cmu-junsys-373", 
            "frame-type": "entity", 
            "members": [
                "ment-PMC3081413-cmu-junsys-306", 
                "ment-PMC3081413-cmu-junsys-307"
            ], 
            "object-meta": {
                "component": "Jun-System", 
                "object-type": "meta-info", 
                "organization": "CMU"
            }, 
            "object-type": "frame"
        }, 
        {
            "frame-id": "ent-PMC3081413-cmu-junsys-374", 
            "frame-type": "entity", 
            "members": [
                "ment-PMC3081413-cmu-junsys-323", 
                "ment-PMC3081413-cmu-junsys-324"
            ], 
            "object-meta": {
                "component": "Jun-System", 
                "object-type": "meta-info", 
                "organization": "CMU"
            }, 
            "object-type": "frame"
        }
    ], 
    "object-meta": {
        "component": "Jun-System", 
        "component-type": "machine", 
        "doc-id": "PMC3081413", 
        "object-type": "meta-info", 
        "organization": "CMU"
    }, 
    "object-type": "frame-collection"
}
