{
    "frames": [
        {
            "frame-id": "sent-PMC2841713-cmu-0", 
            "frame-type": "sentence", 
            "object-type": "frame", 
            "start-pos": {
                "object-type": "absolute-pos", 
                "offset": 0
            }, 
            "text": "XML Paper ( id '2841713 ' ) : 'Regression of murine lung tumors by the let-7 microRNA '"
        }, 
        {
            "frame-id": "sent-PMC2841713-cmu-1", 
            "frame-type": "sentence", 
            "object-type": "frame", 
            "start-pos": {
                "object-type": "absolute-pos", 
                "offset": 1
            }, 
            "text": "Introduction"
        }, 
        {
            "frame-id": "sent-PMC2841713-cmu-2", 
            "frame-type": "sentence", 
            "object-type": "frame", 
            "start-pos": {
                "object-type": "absolute-pos", 
                "offset": 2
            }, 
            "text": "MicroRNAs ( miRNAs ) control various cellular processes such as cell death , differentiation , and development and are implicated in human diseases , including cancer ( Esquela-Kerscher and Slack , 2006 ) ."
        }, 
        {
            "frame-id": "sent-PMC2841713-cmu-3", 
            "frame-type": "sentence", 
            "object-type": "frame", 
            "start-pos": {
                "object-type": "absolute-pos", 
                "offset": 3
            }, 
            "text": "Aberrant expression of specific miRNAs is associated with tumorigenesis and miRNA coding genes are often found in fragile genomic regions gained and lost in cancers ( Calin et al. , 2004b ; Sevignani et al. , 2007 ) ."
        }, 
        {
            "frame-id": "sent-PMC2841713-cmu-4", 
            "frame-type": "sentence", 
            "object-type": "frame", 
            "start-pos": {
                "object-type": "absolute-pos", 
                "offset": 4
            }, 
            "text": "Many members of one miRNA family in particular , let-7 , map to chromosomal regions frequently deleted in lung cancer ( Calin et al. , 2004b ) , and reduced let-7 expression in non-small cell lung cancer ( NSCLC ) patients is correlated with poor prognosis ( Takamizawa et al. , 2004 ; Yanaihara et al. , 2006 ) ."
        }, 
        {
            "frame-id": "sent-PMC2841713-cmu-5", 
            "frame-type": "sentence", 
            "object-type": "frame", 
            "start-pos": {
                "object-type": "absolute-pos", 
                "offset": 5
            }, 
            "text": "Moreover , let-7 miRNAs are thought to function as tumor suppressors through their negative regulation of multiple oncogenes , such as RAS , MYC , HMGA2 , and promoters of cell cycle progression , such as CDC25A , CDK6 , and Cyclin D2 ( Johnson et al. , 2007 ; Johnson et al. , 2005 ; Lee and Dutta , 2007 ; Mayr et al. , 2007 ; Park et al. , 2007 ; Sampson et al. , 2007 ; Yu et al. , 2007 ) ."
        }, 
        {
            "frame-id": "sent-PMC2841713-cmu-6", 
            "frame-type": "sentence", 
            "object-type": "frame", 
            "start-pos": {
                "object-type": "absolute-pos", 
                "offset": 6
            }, 
            "text": "Administration of let-7 blocks the growth of cultured lung cancer cells and also prevents the onset of tumor formation in a mouse model of NSCLC ( Esquela-Kerscher et al. , 2008 ; Johnson et al. , 2007 ; Kumar et al. , 2008 ) ."
        }, 
        {
            "frame-id": "sent-PMC2841713-cmu-7", 
            "frame-type": "sentence", 
            "object-type": "frame", 
            "start-pos": {
                "object-type": "absolute-pos", 
                "offset": 7
            }, 
            "text": "Materials and Methods"
        }, 
        {
            "frame-id": "sent-PMC2841713-cmu-8", 
            "frame-type": "sentence", 
            "object-type": "frame", 
            "start-pos": {
                "object-type": "absolute-pos", 
                "offset": 8
            }, 
            "text": "Lung cancer xenografts"
        }, 
        {
            "frame-id": "sent-PMC2841713-cmu-9", 
            "frame-type": "sentence", 
            "object-type": "frame", 
            "start-pos": {
                "object-type": "absolute-pos", 
                "offset": 9
            }, 
            "text": "Human H460 non-small cell lung carcinoma cells were cultured in RPMI media ( Invitrogen , Carlsbad , CA ) following standard tissue culture procedures ."
        }, 
        {
            "frame-id": "sent-PMC2841713-cmu-10", 
            "frame-type": "sentence", 
            "object-type": "frame", 
            "start-pos": {
                "object-type": "absolute-pos", 
                "offset": 10
            }, 
            "text": "H460 cells were trypsinized , counted and subcutaneously injected into the lower back of 6\u20138 week old NOD/SCID mice ( Jackson Laboratories , Bar Harbor , MA ) using 3 \u00d7 106 cells in 100 \u03bcl RPMI with 50 % matrigel ( BD Biosciences , San Jose , CA ) per injection ."
        }, 
        {
            "frame-id": "sent-PMC2841713-cmu-11", 
            "frame-type": "sentence", 
            "object-type": "frame", 
            "start-pos": {
                "object-type": "absolute-pos", 
                "offset": 11
            }, 
            "text": "Once cancer cells have developed palpable tumors caliper measurements were taken daily and tumor volume was calculated using the formula V = length \u00d7 width2/2 , in which the length is greater than the width ."
        }, 
        {
            "frame-id": "sent-PMC2841713-cmu-12", 
            "frame-type": "sentence", 
            "object-type": "frame", 
            "start-pos": {
                "object-type": "absolute-pos", 
                "offset": 12
            }, 
            "text": "When tumors reached an average volume of 150 mm3 , 50 \u03bcl synthetic miRNA complexed with the siPORTamine transfection reagent ( Ambion ) was delivered intratumorally in 3-day intervals ."
        }, 
        {
            "frame-id": "sent-PMC2841713-cmu-13", 
            "frame-type": "sentence", 
            "object-type": "frame", 
            "start-pos": {
                "object-type": "absolute-pos", 
                "offset": 13
            }, 
            "text": "Synthetic miRNAs are double-stranded and ready-to-use miRNA mimics and were purchased from Ambion , Life Technologies , Austin , TX ( pre-miR ; cat ."
        }, 
        {
            "frame-id": "sent-PMC2841713-cmu-14", 
            "frame-type": "sentence", 
            "object-type": "frame", 
            "start-pos": {
                "object-type": "absolute-pos", 
                "offset": 14
            }, 
            "text": "no ."
        }, 
        {
            "frame-id": "sent-PMC2841713-cmu-15", 
            "frame-type": "sentence", 
            "object-type": "frame", 
            "start-pos": {
                "object-type": "absolute-pos", 
                "offset": 15
            }, 
            "text": "AM17100 ) ."
        }, 
        {
            "frame-id": "sent-PMC2841713-cmu-16", 
            "frame-type": "sentence", 
            "object-type": "frame", 
            "start-pos": {
                "object-type": "absolute-pos", 
                "offset": 16
            }, 
            "text": "For each injection , 6.25 ug miRNA was complexed with 1.6 \u03bcl siPORTamine ( Ambion ; cat ."
        }, 
        {
            "frame-id": "sent-PMC2841713-cmu-17", 
            "frame-type": "sentence", 
            "object-type": "frame", 
            "start-pos": {
                "object-type": "absolute-pos", 
                "offset": 17
            }, 
            "text": "no ."
        }, 
        {
            "frame-id": "sent-PMC2841713-cmu-18", 
            "frame-type": "sentence", 
            "object-type": "frame", 
            "start-pos": {
                "object-type": "absolute-pos", 
                "offset": 18
            }, 
            "text": "AM4502 ) reagent in 50 \u03bcl phosphate-buffered saline ."
        }, 
        {
            "frame-id": "sent-PMC2841713-cmu-19", 
            "frame-type": "sentence", 
            "object-type": "frame", 
            "start-pos": {
                "object-type": "absolute-pos", 
                "offset": 19
            }, 
            "text": "Mice were sacrificed by CO2 inhalation either one or three days after the last treatment , and tumors were collected and prepared for histology and RNA isolation ."
        }, 
        {
            "frame-id": "sent-PMC2841713-cmu-20", 
            "frame-type": "sentence", 
            "object-type": "frame", 
            "start-pos": {
                "object-type": "absolute-pos", 
                "offset": 20
            }, 
            "text": "All animal experiments were performed under an IACUC approved animal study protocol ."
        }, 
        {
            "frame-id": "sent-PMC2841713-cmu-21", 
            "frame-type": "sentence", 
            "object-type": "frame", 
            "start-pos": {
                "object-type": "absolute-pos", 
                "offset": 21
            }, 
            "text": "Quantitative real-time PCR"
        }, 
        {
            "frame-id": "sent-PMC2841713-cmu-22", 
            "frame-type": "sentence", 
            "object-type": "frame", 
            "start-pos": {
                "object-type": "absolute-pos", 
                "offset": 22
            }, 
            "text": "Total RNA from H460 tumors was isolated using the mirVANA PARIS RNA isolation kit ( Ambion , Austin , TX ) following manufacturer\u2019s instructions ."
        }, 
        {
            "frame-id": "sent-PMC2841713-cmu-23", 
            "frame-type": "sentence", 
            "object-type": "frame", 
            "start-pos": {
                "object-type": "absolute-pos", 
                "offset": 23
            }, 
            "text": "For RT-PCR detection of let-7 mRNA targets in H460 xenografts , 500 ng purified RNA was reverse transcribed with random decamers using MMLV-RT ( cat ."
        }, 
        {
            "frame-id": "sent-PMC2841713-cmu-24", 
            "frame-type": "sentence", 
            "object-type": "frame", 
            "start-pos": {
                "object-type": "absolute-pos", 
                "offset": 24
            }, 
            "text": "no ."
        }, 
        {
            "frame-id": "sent-PMC2841713-cmu-25", 
            "frame-type": "sentence", 
            "object-type": "frame", 
            "start-pos": {
                "object-type": "absolute-pos", 
                "offset": 25
            }, 
            "text": "28025-021 , Invitrogen , Carlsbad , CA ) with the following incubations : 42\u00b0C for 60 min ; 85\u00b0C for 5 min ."
        }, 
        {
            "frame-id": "sent-PMC2841713-cmu-26", 
            "frame-type": "sentence", 
            "object-type": "frame", 
            "start-pos": {
                "object-type": "absolute-pos", 
                "offset": 26
            }, 
            "text": "For RT-PCR detection of the let-7b oligonucleotide , 10 ng purified RNA was heat-denatured at 70 \u00b0C for 2 min and reverse transcribed using the let-7b TaqMan miRNA Assay ( Applied Biosystems , Foster City , CA ) with the following conditions : 16\u00b0C for 30 min ; 42\u00b0C for 30 min ; 85\u00b0C for 5 min and MMLV-RT ( Invitrogen ) ."
        }, 
        {
            "frame-id": "sent-PMC2841713-cmu-27", 
            "frame-type": "sentence", 
            "object-type": "frame", 
            "start-pos": {
                "object-type": "absolute-pos", 
                "offset": 27
            }, 
            "text": "Gene and let-7b expression levels were determined by real-time PCR using Platinum Taq Polymerase reagents ( Invitrogen ) on the ABI Prism 7900 SDS ( Applied Biosystems ) ."
        }, 
        {
            "frame-id": "sent-PMC2841713-cmu-28", 
            "frame-type": "sentence", 
            "object-type": "frame", 
            "start-pos": {
                "object-type": "absolute-pos", 
                "offset": 28
            }, 
            "text": "TaqMan Gene Expression Assays ( Applied Biosystems ) were used with the following cycling conditions : 95\u00b0C for 1 min ( initial denature ) ; then 50 cycles of 95\u00b0C for 5 sec , 60\u00b0C for 30 sec ."
        }, 
        {
            "frame-id": "sent-PMC2841713-cmu-29", 
            "frame-type": "sentence", 
            "object-type": "frame", 
            "start-pos": {
                "object-type": "absolute-pos", 
                "offset": 29
            }, 
            "text": "The 18S rRNA was amplified as an internal reference to adjust for well-to-well variances in amount of starting template ."
        }, 
        {
            "frame-id": "sent-PMC2841713-cmu-30", 
            "frame-type": "sentence", 
            "object-type": "frame", 
            "start-pos": {
                "object-type": "absolute-pos", 
                "offset": 30
            }, 
            "text": "The let-7b TaqMan miRNA Assay ( Applied Biosystems ) was used with the following cycling conditions : 95\u00b0C for 1 min ( initial denature ) ; then 50 cycles of 95\u00b0C for 15 sec , 60\u00b0C for 1 min ."
        }, 
        {
            "frame-id": "sent-PMC2841713-cmu-31", 
            "frame-type": "sentence", 
            "object-type": "frame", 
            "start-pos": {
                "object-type": "absolute-pos", 
                "offset": 31
            }, 
            "text": "Total copy numbers of let-7b molecules in tumor tissues were calculated using a standard curve generated with 103\u20131012let-7b copies amplified on the same plate ."
        }, 
        {
            "frame-id": "sent-PMC2841713-cmu-32", 
            "frame-type": "sentence", 
            "object-type": "frame", 
            "start-pos": {
                "object-type": "absolute-pos", 
                "offset": 32
            }, 
            "text": "Quantification of levels of let-7a , was performed using the Taqman microRNA PCR system ( ABI , per standard protocol ) ."
        }, 
        {
            "frame-id": "sent-PMC2841713-cmu-33", 
            "frame-type": "sentence", 
            "object-type": "frame", 
            "start-pos": {
                "object-type": "absolute-pos", 
                "offset": 33
            }, 
            "text": "Levels were normalized to mice treated with Ad-Cre alone ( baseline ) to determine changes in expression levels 4 weeks post lentivirus infection ."
        }, 
        {
            "frame-id": "sent-PMC2841713-cmu-34", 
            "frame-type": "sentence", 
            "object-type": "frame", 
            "start-pos": {
                "object-type": "absolute-pos", 
                "offset": 34
            }, 
            "text": "Tumor histologies and immunohistochemistries"
        }, 
        {
            "frame-id": "sent-PMC2841713-cmu-35", 
            "frame-type": "sentence", 
            "object-type": "frame", 
            "start-pos": {
                "object-type": "absolute-pos", 
                "offset": 35
            }, 
            "text": "Tumor tissues were fixed in formalin and embedded in paraffin using the Microm Tissue Embedding Center ( Labequip , Ltd. ; Markham , Ontario , Canada ) ."
        }, 
        {
            "frame-id": "sent-PMC2841713-cmu-36", 
            "frame-type": "sentence", 
            "object-type": "frame", 
            "start-pos": {
                "object-type": "absolute-pos", 
                "offset": 36
            }, 
            "text": "5 \u03bcm tissue sections were prepared and stained with hematoxylin and eosin ( H & E ) according to standard protocols ."
        }, 
        {
            "frame-id": "sent-PMC2841713-cmu-37", 
            "frame-type": "sentence", 
            "object-type": "frame", 
            "start-pos": {
                "object-type": "absolute-pos", 
                "offset": 37
            }, 
            "text": "For immunohistochemistries , primary antibodies specific for Ki-67 ( cat ."
        }, 
        {
            "frame-id": "sent-PMC2841713-cmu-38", 
            "frame-type": "sentence", 
            "object-type": "frame", 
            "start-pos": {
                "object-type": "absolute-pos", 
                "offset": 38
            }, 
            "text": "no ."
        }, 
        {
            "frame-id": "sent-PMC2841713-cmu-39", 
            "frame-type": "sentence", 
            "object-type": "frame", 
            "start-pos": {
                "object-type": "absolute-pos", 
                "offset": 39
            }, 
            "text": "M7249 ; DAKO , Carpinteria , CA ) , active Caspase-3 ( cat ."
        }, 
        {
            "frame-id": "sent-PMC2841713-cmu-40", 
            "frame-type": "sentence", 
            "object-type": "frame", 
            "start-pos": {
                "object-type": "absolute-pos", 
                "offset": 40
            }, 
            "text": "no ."
        }, 
        {
            "frame-id": "sent-PMC2841713-cmu-41", 
            "frame-type": "sentence", 
            "object-type": "frame", 
            "start-pos": {
                "object-type": "absolute-pos", 
                "offset": 41
            }, 
            "text": "AF835 ; R & D Systems , Minneapolis , MN ) , N-Ras ( cat ."
        }, 
        {
            "frame-id": "sent-PMC2841713-cmu-42", 
            "frame-type": "sentence", 
            "object-type": "frame", 
            "start-pos": {
                "object-type": "absolute-pos", 
                "offset": 42
            }, 
            "text": "no ."
        }, 
        {
            "frame-id": "sent-PMC2841713-cmu-43", 
            "frame-type": "sentence", 
            "object-type": "frame", 
            "start-pos": {
                "object-type": "absolute-pos", 
                "offset": 43
            }, 
            "text": "sc-20 ; Santa Cruz Biotechnology , Santa Cruz , CA ) and CDC25A ( cat ."
        }, 
        {
            "frame-id": "sent-PMC2841713-cmu-44", 
            "frame-type": "sentence", 
            "object-type": "frame", 
            "start-pos": {
                "object-type": "absolute-pos", 
                "offset": 44
            }, 
            "text": "no ."
        }, 
        {
            "frame-id": "sent-PMC2841713-cmu-45", 
            "frame-type": "sentence", 
            "object-type": "frame", 
            "start-pos": {
                "object-type": "absolute-pos", 
                "offset": 45
            }, 
            "text": "sc-97 ; Santa Cruz Biotechnology ) were used ."
        }, 
        {
            "frame-id": "sent-PMC2841713-cmu-46", 
            "frame-type": "sentence", 
            "object-type": "frame", 
            "start-pos": {
                "object-type": "absolute-pos", 
                "offset": 46
            }, 
            "text": "All antibodies were visualized by secondary horseradish peroxidase-conjugated immunoglobulins ( cat ."
        }, 
        {
            "frame-id": "sent-PMC2841713-cmu-47", 
            "frame-type": "sentence", 
            "object-type": "frame", 
            "start-pos": {
                "object-type": "absolute-pos", 
                "offset": 47
            }, 
            "text": "no ."
        }, 
        {
            "frame-id": "sent-PMC2841713-cmu-48", 
            "frame-type": "sentence", 
            "object-type": "frame", 
            "start-pos": {
                "object-type": "absolute-pos", 
                "offset": 48
            }, 
            "text": "ab6721 ; Abcam , Cambridge , MA ) ."
        }, 
        {
            "frame-id": "sent-PMC2841713-cmu-49", 
            "frame-type": "sentence", 
            "object-type": "frame", 
            "start-pos": {
                "object-type": "absolute-pos", 
                "offset": 49
            }, 
            "text": "Briefly , slides were washed in tris-buffered saline ( TBS ; 10 mM Tris , 150 mM NaCl , pH 7.6 ) and incubated in 3 % ( v/v ) hydrogen peroxide for 10 min to suppress endogenous activity ."
        }, 
        {
            "frame-id": "sent-PMC2841713-cmu-50", 
            "frame-type": "sentence", 
            "object-type": "frame", 
            "start-pos": {
                "object-type": "absolute-pos", 
                "offset": 50
            }, 
            "text": "Slides were washed with TBS and incubated in 5 % ( v/v ) normal goat serum ( cat ."
        }, 
        {
            "frame-id": "sent-PMC2841713-cmu-51", 
            "frame-type": "sentence", 
            "object-type": "frame", 
            "start-pos": {
                "object-type": "absolute-pos", 
                "offset": 51
            }, 
            "text": "no ."
        }, 
        {
            "frame-id": "sent-PMC2841713-cmu-52", 
            "frame-type": "sentence", 
            "object-type": "frame", 
            "start-pos": {
                "object-type": "absolute-pos", 
                "offset": 52
            }, 
            "text": "005-000-001 ; Jackson ImmuResearch Laboratories , Inc. , West Grove , PA ) diluted in incubation buffer ( 0.1 % [ w/v ] BSA in TBS ) to reduce nonspecific binding of antibodies ."
        }, 
        {
            "frame-id": "sent-PMC2841713-cmu-53", 
            "frame-type": "sentence", 
            "object-type": "frame", 
            "start-pos": {
                "object-type": "absolute-pos", 
                "offset": 53
            }, 
            "text": "Slides were incubated with primary antibodies in incubation buffer overnight at 4\u00b0C ."
        }, 
        {
            "frame-id": "sent-PMC2841713-cmu-54", 
            "frame-type": "sentence", 
            "object-type": "frame", 
            "start-pos": {
                "object-type": "absolute-pos", 
                "offset": 54
            }, 
            "text": "After several washes in TBS , secondary antibodies were added and incubated for 60 min at room temperature ."
        }, 
        {
            "frame-id": "sent-PMC2841713-cmu-55", 
            "frame-type": "sentence", 
            "object-type": "frame", 
            "start-pos": {
                "object-type": "absolute-pos", 
                "offset": 55
            }, 
            "text": "Secondary antibodies were visualized by adding 3,3\u2032-diaminobenzidine ( DAB ; cat ."
        }, 
        {
            "frame-id": "sent-PMC2841713-cmu-56", 
            "frame-type": "sentence", 
            "object-type": "frame", 
            "start-pos": {
                "object-type": "absolute-pos", 
                "offset": 56
            }, 
            "text": "no ."
        }, 
        {
            "frame-id": "sent-PMC2841713-cmu-57", 
            "frame-type": "sentence", 
            "object-type": "frame", 
            "start-pos": {
                "object-type": "absolute-pos", 
                "offset": 57
            }, 
            "text": "K3465 ; DAKO ) for 2\u20135 minutes , followed by several washing steps ."
        }, 
        {
            "frame-id": "sent-PMC2841713-cmu-58", 
            "frame-type": "sentence", 
            "object-type": "frame", 
            "start-pos": {
                "object-type": "absolute-pos", 
                "offset": 58
            }, 
            "text": "Negative controls were performed by omitting the primary antibody ."
        }, 
        {
            "frame-id": "sent-PMC2841713-cmu-59", 
            "frame-type": "sentence", 
            "object-type": "frame", 
            "start-pos": {
                "object-type": "absolute-pos", 
                "offset": 59
            }, 
            "text": "The slides were counterstained with hematoxylin for 10 seconds and mounted on cover slips with mounting medium ( cat ."
        }, 
        {
            "frame-id": "sent-PMC2841713-cmu-60", 
            "frame-type": "sentence", 
            "object-type": "frame", 
            "start-pos": {
                "object-type": "absolute-pos", 
                "offset": 60
            }, 
            "text": "no ."
        }, 
        {
            "frame-id": "sent-PMC2841713-cmu-61", 
            "frame-type": "sentence", 
            "object-type": "frame", 
            "start-pos": {
                "object-type": "absolute-pos", 
                "offset": 61
            }, 
            "text": "4112 ; Richard-Allan Scientific , Kalamazoo , MI ) ."
        }, 
        {
            "frame-id": "sent-PMC2841713-cmu-62", 
            "frame-type": "sentence", 
            "object-type": "frame", 
            "start-pos": {
                "object-type": "absolute-pos", 
                "offset": 62
            }, 
            "text": "For determining apoptotic bodies by TUNEL assay , ApopTag Plus Peroxidase In Situ Apoptosis Kit ( Chemicon , Temecula , CA , USA ) was used according to the manufacturer\u2019s instructions ."
        }, 
        {
            "frame-id": "sent-PMC2841713-cmu-63", 
            "frame-type": "sentence", 
            "object-type": "frame", 
            "start-pos": {
                "object-type": "absolute-pos", 
                "offset": 63
            }, 
            "text": "Anti-scr and anti-let-7 synthesis"
        }, 
        {
            "frame-id": "sent-PMC2841713-cmu-64", 
            "frame-type": "sentence", 
            "object-type": "frame", 
            "start-pos": {
                "object-type": "absolute-pos", 
                "offset": 64
            }, 
            "text": "The anti-miRs were synthesized by the Keck Facility ( Yale University New Haven , CT , USA ) ."
        }, 
        {
            "frame-id": "sent-PMC2841713-cmu-65", 
            "frame-type": "sentence", 
            "object-type": "frame", 
            "start-pos": {
                "object-type": "absolute-pos", 
                "offset": 65
            }, 
            "text": "To enhance their stability the anti-miRs were generated using 2\u2032-O-methyl-modified nucleotides ( italic ) and phosphorothioate bonds ( * ) as follows:"
        }, 
        {
            "frame-id": "sent-PMC2841713-cmu-66", 
            "frame-type": "sentence", 
            "object-type": "frame", 
            "start-pos": {
                "object-type": "absolute-pos", 
                "offset": 66
            }, 
            "text": "anti-let-7g : 5\u2032 A*C*UGUACAAACUACUACCU*C*A 3\u2032 ;"
        }, 
        {
            "frame-id": "sent-PMC2841713-cmu-67", 
            "frame-type": "sentence", 
            "object-type": "frame", 
            "start-pos": {
                "object-type": "absolute-pos", 
                "offset": 67
            }, 
            "text": "anti-scramble : 5\u2032C*U*CAACAACGUAUAUUCAG*C*A 3\u2032 ."
        }, 
        {
            "frame-id": "sent-PMC2841713-cmu-68", 
            "frame-type": "sentence", 
            "object-type": "frame", 
            "start-pos": {
                "object-type": "absolute-pos", 
                "offset": 68
            }, 
            "text": "The anti-scramble RNA was designed using the Scramble RNA software to have same GC % than anti-let-7g but no homology with the mouse genome ( Levenkova et al. , 2004 ) ."
        }, 
        {
            "frame-id": "sent-PMC2841713-cmu-69", 
            "frame-type": "sentence", 
            "object-type": "frame", 
            "start-pos": {
                "object-type": "absolute-pos", 
                "offset": 69
            }, 
            "text": "The anti-miR-reporter has a fluorescein amidite ( FAM ) attached at 5\u2032 of anti-let-7g to follow their delivery using a fluorescent microscope with GFP detection wavelengths ."
        }, 
        {
            "frame-id": "sent-PMC2841713-cmu-70", 
            "frame-type": "sentence", 
            "object-type": "frame", 
            "start-pos": {
                "object-type": "absolute-pos", 
                "offset": 70
            }, 
            "text": "In vivo adenoviral infection and anti-miR delivery to LSL-K-ras G12D mice"
        }, 
        {
            "frame-id": "sent-PMC2841713-cmu-71", 
            "frame-type": "sentence", 
            "object-type": "frame", 
            "start-pos": {
                "object-type": "absolute-pos", 
                "offset": 71
            }, 
            "text": "Approximately 6-week-old LSL-K-ras G12D animals were anesthetized with an isoflurane/propylene glycol mixture and intranasally co-inoculated with adenovirus and anti-miRs ( anti-let-7g or scrambled ) ."
        }, 
        {
            "frame-id": "sent-PMC2841713-cmu-72", 
            "frame-type": "sentence", 
            "object-type": "frame", 
            "start-pos": {
                "object-type": "absolute-pos", 
                "offset": 72
            }, 
            "text": "The protocol was adapted from ( Bitko and Barik , 2008 ; Bitko et al. , 2005 ; Esquela-Kerscher et al. , 2008 ; Jackson et al. , 2001 ) : 5\u00d7108 PFU of Ad-Cre , 60 \u03bcg of anti-miR and 0.01M CaCl2 were mixed in a final volume of 125 \u03bcl of MEM and inoculated to the mice in two 62.5 \u03bcL instillations as described ( Jackson et al. , 2001 ) ."
        }, 
        {
            "frame-id": "sent-PMC2841713-cmu-73", 
            "frame-type": "sentence", 
            "object-type": "frame", 
            "start-pos": {
                "object-type": "absolute-pos", 
                "offset": 73
            }, 
            "text": "Ad-Cre , used to induce tumor formation in LSL-K-ras G12D mice , was purchased from the Gene Transfer Vector Core Facility at the University of Iowa ."
        }, 
        {
            "frame-id": "sent-PMC2841713-cmu-74", 
            "frame-type": "sentence", 
            "object-type": "frame", 
            "start-pos": {
                "object-type": "absolute-pos", 
                "offset": 74
            }, 
            "text": "Mice were sacrificed 7 weeks post-infection , and the PBS-perfused lungs were retained for analysis ."
        }, 
        {
            "frame-id": "sent-PMC2841713-cmu-75", 
            "frame-type": "sentence", 
            "object-type": "frame", 
            "start-pos": {
                "object-type": "absolute-pos", 
                "offset": 75
            }, 
            "text": "Lungs were prepared for histological analysis to examine tumor burden by fixing the tissue in 4 % paraformaldehyde overnight , embedded in paraffin and stained with hematoxylin and eosin ."
        }, 
        {
            "frame-id": "sent-PMC2841713-cmu-76", 
            "frame-type": "sentence", 
            "object-type": "frame", 
            "start-pos": {
                "object-type": "absolute-pos", 
                "offset": 76
            }, 
            "text": "The delivery of anti-miRs in the lung was tested using anti-miR-5\u2032 FAM oligonucleotides using a fluorescent microscope ."
        }, 
        {
            "frame-id": "sent-PMC2841713-cmu-77", 
            "frame-type": "sentence", 
            "object-type": "frame", 
            "start-pos": {
                "object-type": "absolute-pos", 
                "offset": 77
            }, 
            "text": "Ad-Cre recombination was tested using a PCR assay to verify that K-ras G12D mice had undergone Cre-mediated removal of the stop element at the mutant K-ras locus as previously described ( Jackson et al. , 2001 ) ."
        }, 
        {
            "frame-id": "sent-PMC2841713-cmu-78", 
            "frame-type": "sentence", 
            "object-type": "frame", 
            "start-pos": {
                "object-type": "absolute-pos", 
                "offset": 78
            }, 
            "text": "Lung and tumor areas were quantified using ImageJ software in manual measurement mode as described previously ( Esquela-Kerscher et al. , 2008 ) ."
        }, 
        {
            "frame-id": "sent-PMC2841713-cmu-79", 
            "frame-type": "sentence", 
            "object-type": "frame", 
            "start-pos": {
                "object-type": "absolute-pos", 
                "offset": 79
            }, 
            "text": "The overall tumor burden was measured as a ratio of total tumor area to total lung area by taking the average of every seventh slide section throughout the lung ."
        }, 
        {
            "frame-id": "sent-PMC2841713-cmu-80", 
            "frame-type": "sentence", 
            "object-type": "frame", 
            "start-pos": {
                "object-type": "absolute-pos", 
                "offset": 80
            }, 
            "text": "Nomenclature based on that of Nikitin et al ."
        }, 
        {
            "frame-id": "sent-PMC2841713-cmu-81", 
            "frame-type": "sentence", 
            "object-type": "frame", 
            "start-pos": {
                "object-type": "absolute-pos", 
                "offset": 81
            }, 
            "text": "( Nikitin et al. , 2004 ) ."
        }, 
        {
            "frame-id": "sent-PMC2841713-cmu-82", 
            "frame-type": "sentence", 
            "object-type": "frame", 
            "start-pos": {
                "object-type": "absolute-pos", 
                "offset": 82
            }, 
            "text": "Viral constructs and in vivo infection"
        }, 
        {
            "frame-id": "sent-PMC2841713-cmu-83", 
            "frame-type": "sentence", 
            "object-type": "frame", 
            "start-pos": {
                "object-type": "absolute-pos", 
                "offset": 83
            }, 
            "text": "Adenovirus expressing Cre-recombinase was obtained as described previously ( Jackson et al. , 2001 ) ."
        }, 
        {
            "frame-id": "sent-PMC2841713-cmu-84", 
            "frame-type": "sentence", 
            "object-type": "frame", 
            "start-pos": {
                "object-type": "absolute-pos", 
                "offset": 84
            }, 
            "text": "Lentivirus expressing let-7a was purchased from Select Biosciences ( Mountain View , CA ) ."
        }, 
        {
            "frame-id": "sent-PMC2841713-cmu-85", 
            "frame-type": "sentence", 
            "object-type": "frame", 
            "start-pos": {
                "object-type": "absolute-pos", 
                "offset": 85
            }, 
            "text": "LSL-K-ras G12D ( Jackson et al. , 2001 ) ( strain number 01XJ6 ) mice were obtained from the NCI-Frederick Mouse Repository and treated with Adenovirus and Lentivirus as described previously ( Esquela-Kerscher et al. , 2008 ) ."
        }, 
        {
            "frame-id": "sent-PMC2841713-cmu-86", 
            "frame-type": "sentence", 
            "object-type": "frame", 
            "start-pos": {
                "object-type": "absolute-pos", 
                "offset": 86
            }, 
            "text": "Results"
        }, 
        {
            "frame-id": "sent-PMC2841713-cmu-87", 
            "frame-type": "sentence", 
            "object-type": "frame", 
            "start-pos": {
                "object-type": "absolute-pos", 
                "offset": 87
            }, 
            "text": "In vivo anti-let-7 delivery to lungs leads to increased tumor burden"
        }, 
        {
            "frame-id": "sent-PMC2841713-cmu-88", 
            "frame-type": "sentence", 
            "object-type": "frame", 
            "start-pos": {
                "object-type": "absolute-pos", 
                "offset": 88
            }, 
            "text": "Available data suggest that the let-7 miRNA functions as a tumor suppressor that is frequently lost in non-small cell lung cancer ( NSCLC ) ( Johnson et al. , 2005 ; Takamizawa et al. , 2004 ; Yanaihara et al. , 2006 ) , yet no loss of function assays have been reported to formally test this hypothesis ."
        }, 
        {
            "frame-id": "sent-PMC2841713-cmu-89", 
            "frame-type": "sentence", 
            "object-type": "frame", 
            "start-pos": {
                "object-type": "absolute-pos", 
                "offset": 89
            }, 
            "text": "The mouse let-7 miRNA family consists of multiple members , encoded by 12 genes in the mouse genome , nine of which code for unique mature let-7 molecules , and three that code for redundant sequences ( Roush and Slack , 2008 ) ."
        }, 
        {
            "frame-id": "sent-PMC2841713-cmu-90", 
            "frame-type": "sentence", 
            "object-type": "frame", 
            "start-pos": {
                "object-type": "absolute-pos", 
                "offset": 90
            }, 
            "text": "We previously showed that five of the let-7 family members , let-7a , let-7b , let-7c , let-7d , and let-7g consistently reduced the number of proliferating A549 and HepG2 cells by similar levels ( Johnson et al. , 2007 ) ."
        }, 
        {
            "frame-id": "sent-PMC2841713-cmu-91", 
            "frame-type": "sentence", 
            "object-type": "frame", 
            "start-pos": {
                "object-type": "absolute-pos", 
                "offset": 91
            }, 
            "text": "Because we have not yet detected a difference with any particular let-7 family member , this suggests functional redundancy ."
        }, 
        {
            "frame-id": "sent-PMC2841713-cmu-92", 
            "frame-type": "sentence", 
            "object-type": "frame", 
            "start-pos": {
                "object-type": "absolute-pos", 
                "offset": 92
            }, 
            "text": "Since it is likely that their biological functions overlap , in vivo loss of functional genetic tests with the let-7 family are technically difficult ."
        }, 
        {
            "frame-id": "sent-PMC2841713-cmu-93", 
            "frame-type": "sentence", 
            "object-type": "frame", 
            "start-pos": {
                "object-type": "absolute-pos", 
                "offset": 93
            }, 
            "text": "To circumvent this difficulty , we developed a novel protocol to test the role of let-7 family members as tumor suppressors in a well-characterized K-ras autochthonous NSCLC mouse model lung ( Jackson et al. , 2001 ) , LSL-K-ras G12D , containing a Cre recombinase dependent allele of activated Kras with endogenous 5\u2032 and 3\u2032 regions ."
        }, 
        {
            "frame-id": "sent-PMC2841713-cmu-94", 
            "frame-type": "sentence", 
            "object-type": "frame", 
            "start-pos": {
                "object-type": "absolute-pos", 
                "offset": 94
            }, 
            "text": "We combined a successful protocol for delivery of small RNAs by intranasal passage ( Bitko and Barik , 2008 ; Bitko et al. , 2005 ) with established in vivo antisense technology ( Krutzfeldt et al. , 2005 ) ."
        }, 
        {
            "frame-id": "sent-PMC2841713-cmu-95", 
            "frame-type": "sentence", 
            "object-type": "frame", 
            "start-pos": {
                "object-type": "absolute-pos", 
                "offset": 95
            }, 
            "text": "We designed an anti-miR molecule targeting the let-7g sequence ( anti-let-7g ) and a control with same GC percentage but no homology in the mouse genome ( anti-scrambled ( scr ) ) ( See Materials and Methods for details ) ."
        }, 
        {
            "frame-id": "sent-PMC2841713-cmu-96", 
            "frame-type": "sentence", 
            "object-type": "frame", 
            "start-pos": {
                "object-type": "absolute-pos", 
                "offset": 96
            }, 
            "text": "We chose let-7g for this experiment because let-7g maps to 3p21 which has been implicated in the initiation of human lung cancers ( Calin et al. , 2004a ) and also because there is evidence suggesting that let-7g mediated tumor suppression is especially potent in tumors harboring oncogenic K-ras mutations ( Kumar et al. , 2008 ) ."
        }, 
        {
            "frame-id": "sent-PMC2841713-cmu-97", 
            "frame-type": "sentence", 
            "object-type": "frame", 
            "start-pos": {
                "object-type": "absolute-pos", 
                "offset": 97
            }, 
            "text": "However , we did not rule out the possibility that our anti-let-7g molecule cross-reacts with other let-7 family members due to their high similarity ."
        }, 
        {
            "frame-id": "sent-PMC2841713-cmu-98", 
            "frame-type": "sentence", 
            "object-type": "frame", 
            "start-pos": {
                "object-type": "absolute-pos", 
                "offset": 98
            }, 
            "text": "To monitor the delivery of anti-miRs to the lung , we labeled the anti-miR with a FAM molecule attached at its 5\u2032OH ."
        }, 
        {
            "frame-id": "sent-PMC2841713-cmu-99", 
            "frame-type": "sentence", 
            "object-type": "frame", 
            "start-pos": {
                "object-type": "absolute-pos", 
                "offset": 99
            }, 
            "text": "We inoculated this labeled anti-miR into mouse lungs by intranasal passage and harvested their lungs 2 hours ( h ) and 16h later ."
        }, 
        {
            "frame-id": "sent-PMC2841713-cmu-100", 
            "frame-type": "sentence", 
            "object-type": "frame", 
            "start-pos": {
                "object-type": "absolute-pos", 
                "offset": 100
            }, 
            "text": "Both time points showed similar fluorescence signal in the lung ( Suppl Fig ."
        }, 
        {
            "frame-id": "sent-PMC2841713-cmu-101", 
            "frame-type": "sentence", 
            "object-type": "frame", 
            "start-pos": {
                "object-type": "absolute-pos", 
                "offset": 101
            }, 
            "text": "1 ) , demonstrating efficient and quick up-take of the modified RNAs ."
        }, 
        {
            "frame-id": "sent-PMC2841713-cmu-102", 
            "frame-type": "sentence", 
            "object-type": "frame", 
            "start-pos": {
                "object-type": "absolute-pos", 
                "offset": 102
            }, 
            "text": "These observations match previously reported data from Bitko et al ."
        }, 
        {
            "frame-id": "sent-PMC2841713-cmu-103", 
            "frame-type": "sentence", 
            "object-type": "frame", 
            "start-pos": {
                "object-type": "absolute-pos", 
                "offset": 103
            }, 
            "text": "( Bitko and Barik , 2008 ) showing that naked siRNAs can be successfully delivered to the lung via intranasal passage and remain stable ."
        }, 
        {
            "frame-id": "sent-PMC2841713-cmu-104", 
            "frame-type": "sentence", 
            "object-type": "frame", 
            "start-pos": {
                "object-type": "absolute-pos", 
                "offset": 104
            }, 
            "text": "We transiently delivered non-labeled anti-miRs to mice carrying a knock-in activated K-rasG12D allele , that we had simultaneously inoculated with an adenovirus expressing Cre recombinase ( Ad-Cre ) to activate LSL-K-ras G12D ( Suppl ."
        }, 
        {
            "frame-id": "sent-PMC2841713-cmu-105", 
            "frame-type": "sentence", 
            "object-type": "frame", 
            "start-pos": {
                "object-type": "absolute-pos", 
                "offset": 105
            }, 
            "text": "Fig 2 ) and initiate lung tumors ( as described in Esquela-Kerscher et al ."
        }, 
        {
            "frame-id": "sent-PMC2841713-cmu-106", 
            "frame-type": "sentence", 
            "object-type": "frame", 
            "start-pos": {
                "object-type": "absolute-pos", 
                "offset": 106
            }, 
            "text": "( Esquela-Kerscher et al. , 2008 ) ) ."
        }, 
        {
            "frame-id": "sent-PMC2841713-cmu-107", 
            "frame-type": "sentence", 
            "object-type": "frame", 
            "start-pos": {
                "object-type": "absolute-pos", 
                "offset": 107
            }, 
            "text": "In both cases , the lungs show a range of proliferative lesions including bronchiolar papillary hyperplasia , adenoma , atypical adenomatous hyperplasia and focal low grade adenocarcinoma ."
        }, 
        {
            "frame-id": "sent-PMC2841713-cmu-108", 
            "frame-type": "sentence", 
            "object-type": "frame", 
            "start-pos": {
                "object-type": "absolute-pos", 
                "offset": 108
            }, 
            "text": "However , mice treated with anti-let-7g ( n=5 ) displayed more extensive ( p < 0.01 ) tumor burden 7 weeks after intranasal inoculation relative to anti-scr control ( n=5 ) with more prominent bronchiolar papillary hyperplasia ( Fig ."
        }, 
        {
            "frame-id": "sent-PMC2841713-cmu-109", 
            "frame-type": "sentence", 
            "object-type": "frame", 
            "start-pos": {
                "object-type": "absolute-pos", 
                "offset": 109
            }, 
            "text": "1 ) ."
        }, 
        {
            "frame-id": "sent-PMC2841713-cmu-110", 
            "frame-type": "sentence", 
            "object-type": "frame", 
            "start-pos": {
                "object-type": "absolute-pos", 
                "offset": 110
            }, 
            "text": "We speculate that transient knock-down of let-7g ( and potentially other let-7 family members ) function enhances tumorgenicity by elevating levels of let-7 target genes soon after delivery ."
        }, 
        {
            "frame-id": "sent-PMC2841713-cmu-111", 
            "frame-type": "sentence", 
            "object-type": "frame", 
            "start-pos": {
                "object-type": "absolute-pos", 
                "offset": 111
            }, 
            "text": "This could act synergistically with the K-ras mutation to form a more aggressive NSCLC phenotype similar to the case of the double mutant mouse model K-ras G12D ; Trp-53flox/flox ( Jackson et al. , 2005 ) ."
        }, 
        {
            "frame-id": "sent-PMC2841713-cmu-112", 
            "frame-type": "sentence", 
            "object-type": "frame", 
            "start-pos": {
                "object-type": "absolute-pos", 
                "offset": 112
            }, 
            "text": "This experiment demonstrates a role for let-7 in the suppression of lung tumors via K-ras ( Johnson et al. , 2005 ) in vivo and is strong evidence that let-7 functions as a tumor suppressor in the lung ."
        }, 
        {
            "frame-id": "sent-PMC2841713-cmu-113", 
            "frame-type": "sentence", 
            "object-type": "frame", 
            "start-pos": {
                "object-type": "absolute-pos", 
                "offset": 113
            }, 
            "text": "Intratumoral delivery of let-7 reduces tumor size in a lung cancer xenograft model"
        }, 
        {
            "frame-id": "sent-PMC2841713-cmu-114", 
            "frame-type": "sentence", 
            "object-type": "frame", 
            "start-pos": {
                "object-type": "absolute-pos", 
                "offset": 114
            }, 
            "text": "To study the anti-tumorigenic role of let-7 in lung cancer , we had previously examined two murine models of human lung cancer , a xenograft model using human lung cancer cells and the LSL-K-ras-G12D model ."
        }, 
        {
            "frame-id": "sent-PMC2841713-cmu-115", 
            "frame-type": "sentence", 
            "object-type": "frame", 
            "start-pos": {
                "object-type": "absolute-pos", 
                "offset": 115
            }, 
            "text": "In the latter mouse model , tumorigenesis was initiated by the activation of a gain of function K-ras G12D gene through the inhalation of Ad-Cre ( Jackson et al. , 2001 ) as described above ."
        }, 
        {
            "frame-id": "sent-PMC2841713-cmu-116", 
            "frame-type": "sentence", 
            "object-type": "frame", 
            "start-pos": {
                "object-type": "absolute-pos", 
                "offset": 116
            }, 
            "text": "Using these models , we showed that let-7 suppresses lung tumor initiation , resulting in a 66 % reduction of tumor burden when comparing K-ras G12D mice treated with let-7 miRNA to those that were treated with a control miRNA , respectively ( Esquela-Kerscher et al. , 2008 ) ."
        }, 
        {
            "frame-id": "sent-PMC2841713-cmu-117", 
            "frame-type": "sentence", 
            "object-type": "frame", 
            "start-pos": {
                "object-type": "absolute-pos", 
                "offset": 117
            }, 
            "text": "Similar findings were made by the Jack\u2019s lab ( Kumar et al. , 2008 ) ."
        }, 
        {
            "frame-id": "sent-PMC2841713-cmu-118", 
            "frame-type": "sentence", 
            "object-type": "frame", 
            "start-pos": {
                "object-type": "absolute-pos", 
                "offset": 118
            }, 
            "text": "Since in both studies the let-7 miRNA was delivered at the same time as tumorigenesis was initiated , these two studies showed that let-7 may be useful as a preventive therapy against lung cancer in the LSL-K-ras G12D mice ."
        }, 
        {
            "frame-id": "sent-PMC2841713-cmu-119", 
            "frame-type": "sentence", 
            "object-type": "frame", 
            "start-pos": {
                "object-type": "absolute-pos", 
                "offset": 119
            }, 
            "text": "While these results revealed an inherent anti-oncogenic activity of let-7 during tumorigenesis , the therapeutic potential of let-7 on established tumors remained unknown ."
        }, 
        {
            "frame-id": "sent-PMC2841713-cmu-120", 
            "frame-type": "sentence", 
            "object-type": "frame", 
            "start-pos": {
                "object-type": "absolute-pos", 
                "offset": 120
            }, 
            "text": "Because most newly diagnosed cases of NSCLC are locally advanced or metastatic at presentation and refractory to most currently applied therapies ( Isobe et al. , 2005 ) , we explored the therapeutic potential of let-7 in established tumors ."
        }, 
        {
            "frame-id": "sent-PMC2841713-cmu-121", 
            "frame-type": "sentence", 
            "object-type": "frame", 
            "start-pos": {
                "object-type": "absolute-pos", 
                "offset": 121
            }, 
            "text": "Immunodeficient NOD/SCID mice were subcutaneously inoculated with human H460 lung cancer cells and housed until the tumor cells \u2013 initially loosely distributed in matrigel \u2013 had formed solid and palpable tumors with an average volume of 100\u2013150 mm3 ."
        }, 
        {
            "frame-id": "sent-PMC2841713-cmu-122", 
            "frame-type": "sentence", 
            "object-type": "frame", 
            "start-pos": {
                "object-type": "absolute-pos", 
                "offset": 122
            }, 
            "text": "We chose the H460 cell line for this study because it is among the most aggressively growing NSCLC xenografts and is among the cell lines most resistant to other targeted therapies ( Hohla et al. , 2007 ; Siegfried et al. , 1999 ) ."
        }, 
        {
            "frame-id": "sent-PMC2841713-cmu-123", 
            "frame-type": "sentence", 
            "object-type": "frame", 
            "start-pos": {
                "object-type": "absolute-pos", 
                "offset": 123
            }, 
            "text": "Beginning on day 11 following inoculation , let-7b or a negative control miRNA ( miR-NC ) were repeatedly administered by intratumoral injections every 3 days ."
        }, 
        {
            "frame-id": "sent-PMC2841713-cmu-124", 
            "frame-type": "sentence", 
            "object-type": "frame", 
            "start-pos": {
                "object-type": "absolute-pos", 
                "offset": 124
            }, 
            "text": "These synthetic miRNAs were complexed with siPORTamine ( siPORT ) , a lipid-based transfection reagent that enhances cellular uptake of the oligonucleotide ."
        }, 
        {
            "frame-id": "sent-PMC2841713-cmu-125", 
            "frame-type": "sentence", 
            "object-type": "frame", 
            "start-pos": {
                "object-type": "absolute-pos", 
                "offset": 125
            }, 
            "text": "All mice were sacrificed once control animals developed tumors that exceeded an average volume of 600 mm3 ( day 21 ) ."
        }, 
        {
            "frame-id": "sent-PMC2841713-cmu-126", 
            "frame-type": "sentence", 
            "object-type": "frame", 
            "start-pos": {
                "object-type": "absolute-pos", 
                "offset": 126
            }, 
            "text": "As shown in Figure 2A , mice that received miR-NC developed tumors at a pace similar to those treated with siPORT alone or phosphate-buffered saline ( PBS ) ."
        }, 
        {
            "frame-id": "sent-PMC2841713-cmu-127", 
            "frame-type": "sentence", 
            "object-type": "frame", 
            "start-pos": {
                "object-type": "absolute-pos", 
                "offset": 127
            }, 
            "text": "In contrast , local delivery of synthetic let-7b induced a specific inhibitory response and robustly interfered with tumor growth ."
        }, 
        {
            "frame-id": "sent-PMC2841713-cmu-128", 
            "frame-type": "sentence", 
            "object-type": "frame", 
            "start-pos": {
                "object-type": "absolute-pos", 
                "offset": 128
            }, 
            "text": "Images of tumor-bearing mice on the day of sacrifice are shown in Figure 2B ."
        }, 
        {
            "frame-id": "sent-PMC2841713-cmu-129", 
            "frame-type": "sentence", 
            "object-type": "frame", 
            "start-pos": {
                "object-type": "absolute-pos", 
                "offset": 129
            }, 
            "text": "A histological analysis revealed that tumors treated with miR-NC or siPORT were densely packed with viable H460 cells and only occasionally contained small necrotic areas ( Fig ."
        }, 
        {
            "frame-id": "sent-PMC2841713-cmu-130", 
            "frame-type": "sentence", 
            "object-type": "frame", 
            "start-pos": {
                "object-type": "absolute-pos", 
                "offset": 130
            }, 
            "text": "2C , left panel , center and bottom ) ."
        }, 
        {
            "frame-id": "sent-PMC2841713-cmu-131", 
            "frame-type": "sentence", 
            "object-type": "frame", 
            "start-pos": {
                "object-type": "absolute-pos", 
                "offset": 131
            }, 
            "text": "These pockets of dead cells are likely due to the aggressive nature of H460 cells that rapidly outgrow other cancer cells and compete for blood supply and nutrients ( Edinger and Thompson , 2004 ) ."
        }, 
        {
            "frame-id": "sent-PMC2841713-cmu-132", 
            "frame-type": "sentence", 
            "object-type": "frame", 
            "start-pos": {
                "object-type": "absolute-pos", 
                "offset": 132
            }, 
            "text": "Tumors that received let-7b , however , contained large areas filled with cell debris ( Fig ."
        }, 
        {
            "frame-id": "sent-PMC2841713-cmu-133", 
            "frame-type": "sentence", 
            "object-type": "frame", 
            "start-pos": {
                "object-type": "absolute-pos", 
                "offset": 133
            }, 
            "text": "2C , left panel , top ) ."
        }, 
        {
            "frame-id": "sent-PMC2841713-cmu-134", 
            "frame-type": "sentence", 
            "object-type": "frame", 
            "start-pos": {
                "object-type": "absolute-pos", 
                "offset": 134
            }, 
            "text": "These tumors also had enlarged necrotic cores in agreement with the supposition that intratumoral injections preferentially deliver the therapeutic to the center of the tumor ."
        }, 
        {
            "frame-id": "sent-PMC2841713-cmu-135", 
            "frame-type": "sentence", 
            "object-type": "frame", 
            "start-pos": {
                "object-type": "absolute-pos", 
                "offset": 135
            }, 
            "text": "To get better insight into the mechanism of action , we performed immunohistochemistry stains using antibodies specific for the Ki-67 and caspase 3 proteins , markers for cellular proliferation and apoptosis , respectively ."
        }, 
        {
            "frame-id": "sent-PMC2841713-cmu-136", 
            "frame-type": "sentence", 
            "object-type": "frame", 
            "start-pos": {
                "object-type": "absolute-pos", 
                "offset": 136
            }, 
            "text": "As shown in Figure 2C ( right panel ) , H460 cells displayed reduced levels of Ki-67 in response to let-7b treatment ."
        }, 
        {
            "frame-id": "sent-PMC2841713-cmu-137", 
            "frame-type": "sentence", 
            "object-type": "frame", 
            "start-pos": {
                "object-type": "absolute-pos", 
                "offset": 137
            }, 
            "text": "In contrast , caspase 3 levels remained unaltered ."
        }, 
        {
            "frame-id": "sent-PMC2841713-cmu-138", 
            "frame-type": "sentence", 
            "object-type": "frame", 
            "start-pos": {
                "object-type": "absolute-pos", 
                "offset": 138
            }, 
            "text": "It is possible that let-7 does not specifically induce the apoptotic cascade or alternatively , apoptosis induced by let-7 occurred immediately after administration and is no longer detectable at the time of the analysis ."
        }, 
        {
            "frame-id": "sent-PMC2841713-cmu-139", 
            "frame-type": "sentence", 
            "object-type": "frame", 
            "start-pos": {
                "object-type": "absolute-pos", 
                "offset": 139
            }, 
            "text": "This observation is in accord with our previous observations and indicates a role for let-7 over-expression in interfering with cell cycle progression rather than a major role in directly inducing programmed cell death ( Esquela-Kerscher et al. , 2008 ; Johnson et al. , 2007 ) ."
        }, 
        {
            "frame-id": "sent-PMC2841713-cmu-140", 
            "frame-type": "sentence", 
            "object-type": "frame", 
            "start-pos": {
                "object-type": "absolute-pos", 
                "offset": 140
            }, 
            "text": "To better correlate the therapeutic response with the delivery of let-7b , we determined the presence of let-7b oligonucleotides in tumor tissues 24 hours after the final administration ."
        }, 
        {
            "frame-id": "sent-PMC2841713-cmu-141", 
            "frame-type": "sentence", 
            "object-type": "frame", 
            "start-pos": {
                "object-type": "absolute-pos", 
                "offset": 141
            }, 
            "text": "Total RNA from H460 tumors treated with let-7b , miR-NC , siPORT or PBS were analyzed by quantitative real-time PCR ( qRT-PCR ) using let-7b specific primers ."
        }, 
        {
            "frame-id": "sent-PMC2841713-cmu-142", 
            "frame-type": "sentence", 
            "object-type": "frame", 
            "start-pos": {
                "object-type": "absolute-pos", 
                "offset": 142
            }, 
            "text": "Tumors injected with the let-7b oligo contained ~14-fold more let-7b miRNA compared to the endogenous levels that are present in the controls ( Fig ."
        }, 
        {
            "frame-id": "sent-PMC2841713-cmu-143", 
            "frame-type": "sentence", 
            "object-type": "frame", 
            "start-pos": {
                "object-type": "absolute-pos", 
                "offset": 143
            }, 
            "text": "3A ) ."
        }, 
        {
            "frame-id": "sent-PMC2841713-cmu-144", 
            "frame-type": "sentence", 
            "object-type": "frame", 
            "start-pos": {
                "object-type": "absolute-pos", 
                "offset": 144
            }, 
            "text": "Since crude tumor tissue was used for this analysis , these levels include extracellular as well as intracellular let-7b ."
        }, 
        {
            "frame-id": "sent-PMC2841713-cmu-145", 
            "frame-type": "sentence", 
            "object-type": "frame", 
            "start-pos": {
                "object-type": "absolute-pos", 
                "offset": 145
            }, 
            "text": "To confirm that the synthetic let-7b has successfully been delivered into the cytoplasm of H460 tumor cells and actively engages in the RNA-induced silencing pathway , we evaluated the mRNA levels of NRAS and CDK6 , both of which are directly targeted by the let-7 miRNA ( Esquela-Kerscher et al. , 2005 ; Johnson et al. , 2007 ) ."
        }, 
        {
            "frame-id": "sent-PMC2841713-cmu-146", 
            "frame-type": "sentence", 
            "object-type": "frame", 
            "start-pos": {
                "object-type": "absolute-pos", 
                "offset": 146
            }, 
            "text": "We chose N-ras as a readout for let-7 activity because unlike the K-ras mRNA , N-ras mRNA seems to undergo degradation in response to let-7 treatment ( Johnson et al. , 2005 ) ."
        }, 
        {
            "frame-id": "sent-PMC2841713-cmu-147", 
            "frame-type": "sentence", 
            "object-type": "frame", 
            "start-pos": {
                "object-type": "absolute-pos", 
                "offset": 147
            }, 
            "text": "As shown in Figure 3B , both transcripts were strongly repressed in tumors that have been injected with the let-7b miRNA ."
        }, 
        {
            "frame-id": "sent-PMC2841713-cmu-148", 
            "frame-type": "sentence", 
            "object-type": "frame", 
            "start-pos": {
                "object-type": "absolute-pos", 
                "offset": 148
            }, 
            "text": "Hence , these mRNA levels inversely correlate with increased accumulation of let-7b in these tumors , illustrating the successful cellular uptake of the synthetic let-7 mimetic ( see Fig ."
        }, 
        {
            "frame-id": "sent-PMC2841713-cmu-149", 
            "frame-type": "sentence", 
            "object-type": "frame", 
            "start-pos": {
                "object-type": "absolute-pos", 
                "offset": 149
            }, 
            "text": "3A ) ."
        }, 
        {
            "frame-id": "sent-PMC2841713-cmu-150", 
            "frame-type": "sentence", 
            "object-type": "frame", 
            "start-pos": {
                "object-type": "absolute-pos", 
                "offset": 150
            }, 
            "text": "In addition , the down-regulation of let-7 targets was confirmed on the protein level by immunohistochemistry directed against proteins for which suitable antibodies were available ( Fig ."
        }, 
        {
            "frame-id": "sent-PMC2841713-cmu-151", 
            "frame-type": "sentence", 
            "object-type": "frame", 
            "start-pos": {
                "object-type": "absolute-pos", 
                "offset": 151
            }, 
            "text": "3C ) ."
        }, 
        {
            "frame-id": "sent-PMC2841713-cmu-152", 
            "frame-type": "sentence", 
            "object-type": "frame", 
            "start-pos": {
                "object-type": "absolute-pos", 
                "offset": 152
            }, 
            "text": "Similar to the reduction of the mRNA , tumors treated with let-7b lacked expression of NRAS protein relative to tumors that received either miR-NC or siPORT ."
        }, 
        {
            "frame-id": "sent-PMC2841713-cmu-153", 
            "frame-type": "sentence", 
            "object-type": "frame", 
            "start-pos": {
                "object-type": "absolute-pos", 
                "offset": 153
            }, 
            "text": "CDC25A protein , another let-7 target that was less responsive on the mRNA level , also showed reduced protein expression in tumors that were injected with let-7b ( Johnson et al. , 2007 ) ."
        }, 
        {
            "frame-id": "sent-PMC2841713-cmu-154", 
            "frame-type": "sentence", 
            "object-type": "frame", 
            "start-pos": {
                "object-type": "absolute-pos", 
                "offset": 154
            }, 
            "text": "Thus , the synthetic let-7b miRNA successfully entered H460 tumor cells and activated the let-7 silencing pathway to suppress its targets and reduce tumor growth ."
        }, 
        {
            "frame-id": "sent-PMC2841713-cmu-155", 
            "frame-type": "sentence", 
            "object-type": "frame", 
            "start-pos": {
                "object-type": "absolute-pos", 
                "offset": 155
            }, 
            "text": "Intranasal delivery of let-7 reduces established K-ras dependent lung tumors"
        }, 
        {
            "frame-id": "sent-PMC2841713-cmu-156", 
            "frame-type": "sentence", 
            "object-type": "frame", 
            "start-pos": {
                "object-type": "absolute-pos", 
                "offset": 156
            }, 
            "text": "To address whether let-7 miRNA can reduce tumor burden in late stage K-ras G12D animal lungs , 5 \u00d7 108 plaque-forming units ( p.f.u ) of Ad-Cre were administered intranasally to six-week-old LSL-Kras-G12D mice and the mice were maintained for 10 weeks ."
        }, 
        {
            "frame-id": "sent-PMC2841713-cmu-157", 
            "frame-type": "sentence", 
            "object-type": "frame", 
            "start-pos": {
                "object-type": "absolute-pos", 
                "offset": 157
            }, 
            "text": "The 10 weeks post-infection group was split into 3 sets ."
        }, 
        {
            "frame-id": "sent-PMC2841713-cmu-158", 
            "frame-type": "sentence", 
            "object-type": "frame", 
            "start-pos": {
                "object-type": "absolute-pos", 
                "offset": 158
            }, 
            "text": "One set acted as a baseline for the study ( n=6 ) ( Fig ."
        }, 
        {
            "frame-id": "sent-PMC2841713-cmu-159", 
            "frame-type": "sentence", 
            "object-type": "frame", 
            "start-pos": {
                "object-type": "absolute-pos", 
                "offset": 159
            }, 
            "text": "4A , bottom , left and center panels , ) ."
        }, 
        {
            "frame-id": "sent-PMC2841713-cmu-160", 
            "frame-type": "sentence", 
            "object-type": "frame", 
            "start-pos": {
                "object-type": "absolute-pos", 
                "offset": 160
            }, 
            "text": "A second set was treated with 1\u00d7 106 infectious units ( i.f.u ) of a lentiviral vector expressing let-7a ( lenti-let-7 that showed a three to four fold up-regulation of let-7 miRNA in A549 cells ( Suppl Fig ."
        }, 
        {
            "frame-id": "sent-PMC2841713-cmu-161", 
            "frame-type": "sentence", 
            "object-type": "frame", 
            "start-pos": {
                "object-type": "absolute-pos", 
                "offset": 161
            }, 
            "text": "3 ) ) ."
        }, 
        {
            "frame-id": "sent-PMC2841713-cmu-162", 
            "frame-type": "sentence", 
            "object-type": "frame", 
            "start-pos": {
                "object-type": "absolute-pos", 
                "offset": 162
            }, 
            "text": "The third set was treated with a control empty lentiviral vector ( lenti-control ) ."
        }, 
        {
            "frame-id": "sent-PMC2841713-cmu-163", 
            "frame-type": "sentence", 
            "object-type": "frame", 
            "start-pos": {
                "object-type": "absolute-pos", 
                "offset": 163
            }, 
            "text": "Baseline animals were sacrificed at 10 weeks post Ad-Cre infection ."
        }, 
        {
            "frame-id": "sent-PMC2841713-cmu-164", 
            "frame-type": "sentence", 
            "object-type": "frame", 
            "start-pos": {
                "object-type": "absolute-pos", 
                "offset": 164
            }, 
            "text": "All other animals were incubated further and sacrificed either 2 or 4 weeks post lentivirus infection , and lung morphology , cell proliferation and apoptosis were assessed immunohistochemically ."
        }, 
        {
            "frame-id": "sent-PMC2841713-cmu-165", 
            "frame-type": "sentence", 
            "object-type": "frame", 
            "start-pos": {
                "object-type": "absolute-pos", 
                "offset": 165
            }, 
            "text": "We observed similar lung morphology for both baseline mice and lenti-control mice that were sacrificed at 2 and 4 weeks post lentivirus infection ."
        }, 
        {
            "frame-id": "sent-PMC2841713-cmu-166", 
            "frame-type": "sentence", 
            "object-type": "frame", 
            "start-pos": {
                "object-type": "absolute-pos", 
                "offset": 166
            }, 
            "text": "Baseline mice and lenti-controls showed bronchiolar papillary hyperplasia and extensive replacement of the parenchyma predominantly by papillary adenocarcinoma ( Figure 4A lower two rows , Fig 4B , suppl Fig 4 ) ."
        }, 
        {
            "frame-id": "sent-PMC2841713-cmu-167", 
            "frame-type": "sentence", 
            "object-type": "frame", 
            "start-pos": {
                "object-type": "absolute-pos", 
                "offset": 167
            }, 
            "text": "In mice given lenti-let-7 , we observed residual bronchiolar papillary hyperplasia but markedly reduced parenchymal tumor burden when compared to those treated with the lenti-control ( 75 % reduction in tumor area ) and the baseline animals ( 64 % reduction ) , respectively ( Fig ."
        }, 
        {
            "frame-id": "sent-PMC2841713-cmu-168", 
            "frame-type": "sentence", 
            "object-type": "frame", 
            "start-pos": {
                "object-type": "absolute-pos", 
                "offset": 168
            }, 
            "text": "4A , Top ; Fig ."
        }, 
        {
            "frame-id": "sent-PMC2841713-cmu-169", 
            "frame-type": "sentence", 
            "object-type": "frame", 
            "start-pos": {
                "object-type": "absolute-pos", 
                "offset": 169
            }, 
            "text": "4B ; Suppl Fig ."
        }, 
        {
            "frame-id": "sent-PMC2841713-cmu-170", 
            "frame-type": "sentence", 
            "object-type": "frame", 
            "start-pos": {
                "object-type": "absolute-pos", 
                "offset": 170
            }, 
            "text": "4 ) ."
        }, 
        {
            "frame-id": "sent-PMC2841713-cmu-171", 
            "frame-type": "sentence", 
            "object-type": "frame", 
            "start-pos": {
                "object-type": "absolute-pos", 
                "offset": 171
            }, 
            "text": "Also , a qRT-PCR analysis revealed that lungs from mice treated with lenti-let-7 contained ~5-fold more let-7 oligonucleotides compared to controls ( Suppl ."
        }, 
        {
            "frame-id": "sent-PMC2841713-cmu-172", 
            "frame-type": "sentence", 
            "object-type": "frame", 
            "start-pos": {
                "object-type": "absolute-pos", 
                "offset": 172
            }, 
            "text": "fig ."
        }, 
        {
            "frame-id": "sent-PMC2841713-cmu-173", 
            "frame-type": "sentence", 
            "object-type": "frame", 
            "start-pos": {
                "object-type": "absolute-pos", 
                "offset": 173
            }, 
            "text": "5A ) ."
        }, 
        {
            "frame-id": "sent-PMC2841713-cmu-174", 
            "frame-type": "sentence", 
            "object-type": "frame", 
            "start-pos": {
                "object-type": "absolute-pos", 
                "offset": 174
            }, 
            "text": "These results show that let-7 can effectively cause remission of lung tumors in an advanced K-ras activated NSCLC mouse model ."
        }, 
        {
            "frame-id": "sent-PMC2841713-cmu-175", 
            "frame-type": "sentence", 
            "object-type": "frame", 
            "start-pos": {
                "object-type": "absolute-pos", 
                "offset": 175
            }, 
            "text": "To evaluate the form of cell death in vivo , we performed TdT-mediated dUTP nick end labeling ( TUNEL ) assays and Ki67 staining to measure the level of apoptosis and proliferation , respectively ."
        }, 
        {
            "frame-id": "sent-PMC2841713-cmu-176", 
            "frame-type": "sentence", 
            "object-type": "frame", 
            "start-pos": {
                "object-type": "absolute-pos", 
                "offset": 176
            }, 
            "text": "Consistent with the H460 xenograft model , let-7 treated lungs , the control and baseline lungs showed similar levels of TUNEL-positive cells ( Suppl fig ."
        }, 
        {
            "frame-id": "sent-PMC2841713-cmu-177", 
            "frame-type": "sentence", 
            "object-type": "frame", 
            "start-pos": {
                "object-type": "absolute-pos", 
                "offset": 177
            }, 
            "text": "4B ) ."
        }, 
        {
            "frame-id": "sent-PMC2841713-cmu-178", 
            "frame-type": "sentence", 
            "object-type": "frame", 
            "start-pos": {
                "object-type": "absolute-pos", 
                "offset": 178
            }, 
            "text": "In contrast , let-7 treated lungs lacked Ki67 , suggesting that let-7 over-expression interfered with proliferation of tumor cells in lungs with activated K-ras G12D ( Fig ."
        }, 
        {
            "frame-id": "sent-PMC2841713-cmu-179", 
            "frame-type": "sentence", 
            "object-type": "frame", 
            "start-pos": {
                "object-type": "absolute-pos", 
                "offset": 179
            }, 
            "text": "4A , top , right panel ) ."
        }, 
        {
            "frame-id": "sent-PMC2841713-cmu-180", 
            "frame-type": "sentence", 
            "object-type": "frame", 
            "start-pos": {
                "object-type": "absolute-pos", 
                "offset": 180
            }, 
            "text": "Therefore , we conclude that let-7 blocks tumor growth by repressing proliferation and eliminating tumor cells potentially through a non-apoptotic mechanism ."
        }, 
        {
            "frame-id": "sent-PMC2841713-cmu-181", 
            "frame-type": "sentence", 
            "object-type": "frame", 
            "start-pos": {
                "object-type": "absolute-pos", 
                "offset": 181
            }, 
            "text": "Apoptosis-unrelated cell death as a means to eliminate cancer cells is a common mechanism of many therapeutic agents and is reminiscent of the prevailing form of cell death in solid tumors after cytotoxic therapy ( Brown and Wilson , 2003 ) ."
        }, 
        {
            "frame-id": "sent-PMC2841713-cmu-182", 
            "frame-type": "sentence", 
            "object-type": "frame", 
            "start-pos": {
                "object-type": "absolute-pos", 
                "offset": 182
            }, 
            "text": "Let-7 over-expression may lead to cytotoxic-type damage or may disrupt DNA repair pathways that would correct for naturally occurring damage in the quickly dividing cancer cells ."
        }, 
        {
            "frame-id": "sent-PMC2841713-cmu-183", 
            "frame-type": "sentence", 
            "object-type": "frame", 
            "start-pos": {
                "object-type": "absolute-pos", 
                "offset": 183
            }, 
            "text": "Discussion"
        }, 
        {
            "frame-id": "sent-PMC2841713-cmu-184", 
            "frame-type": "sentence", 
            "object-type": "frame", 
            "start-pos": {
                "object-type": "absolute-pos", 
                "offset": 184
            }, 
            "text": "While much work remains to be done to determine the tumor-suppressive mechanism of let-7 in in vivo lung tumors , studies from our lab , the Jack\u2019s group , and others suggest that let-7 may act through direct repression of the Kras , HMGA2 , and c-Myc oncogenes ( Johnson et al. , 2005 ; Kumar et al. , 2008 ; Lee and Dutta , 2007 ; Sampson et al. , 2007 ) ."
        }, 
        {
            "frame-id": "sent-PMC2841713-cmu-185", 
            "frame-type": "sentence", 
            "object-type": "frame", 
            "start-pos": {
                "object-type": "absolute-pos", 
                "offset": 185
            }, 
            "text": "Although Kras might seem to be a critical target in this mouse model , we speculate that other targets are also important , as a recent study showed that the sole inhibition of c-Myc resulted in significant inhibition of tumor formation in early stage , and reduction of tumors in late stage K-ras activated lungs ( Soucek et al. , 2008 ) ."
        }, 
        {
            "frame-id": "sent-PMC2841713-cmu-186", 
            "frame-type": "sentence", 
            "object-type": "frame", 
            "start-pos": {
                "object-type": "absolute-pos", 
                "offset": 186
            }, 
            "text": "In conclusion , our studies show that let-7 is a tumor suppressor in lung cancer , and provide proof-of-concept for let-7 replacement therapy as a novel and promising modality to treat lung cancer ."
        }, 
        {
            "frame-id": "sent-PMC2841713-cmu-187", 
            "frame-type": "sentence", 
            "object-type": "frame", 
            "start-pos": {
                "object-type": "absolute-pos", 
                "offset": 187
            }, 
            "text": "Similar to targeted therapies that tackle a gain-of-function in cancer , such as EGFR inhibitors , the reintroduction of the let-7 tumor suppressor miRNA interferes with the oncogenic properties of tumor cells and induces a therapeutic response ."
        }, 
        {
            "frame-id": "sent-PMC2841713-cmu-188", 
            "frame-type": "sentence", 
            "object-type": "frame", 
            "start-pos": {
                "object-type": "absolute-pos", 
                "offset": 188
            }, 
            "text": "In contrast to an inhibitory approach , however , \u201cmiRNA replacement therapy\u201d seeks to restore expression and function of a naturally occurring molecule ."
        }, 
        {
            "frame-id": "sent-PMC2841713-cmu-189", 
            "frame-type": "sentence", 
            "object-type": "frame", 
            "start-pos": {
                "object-type": "absolute-pos", 
                "offset": 189
            }, 
            "text": "Hence , miRNA replacement therapy represents a unique therapeutic opportunity following a different strategy than small molecule inhibitors , siRNAs and miRNA antagonists , and deserves further exploration ."
        }, 
        {
            "frame-id": "sent-PMC2841713-cmu-190", 
            "frame-type": "sentence", 
            "object-type": "frame", 
            "start-pos": {
                "object-type": "absolute-pos", 
                "offset": 190
            }, 
            "text": "This approach has been successfully demonstrated for liver and metastatic prostate cancer ( Kota et al. , 2009 ; Takeshita et al. , 2009 ) ."
        }, 
        {
            "frame-id": "sent-PMC2841713-cmu-191", 
            "frame-type": "sentence", 
            "object-type": "frame", 
            "start-pos": {
                "object-type": "absolute-pos", 
                "offset": 191
            }, 
            "text": "While our results presented here suggest that let-7 miRNAs may prove useful in the treatment of human NSCLC , the challenge of a let-7 therapy will be the successful delivery of the miRNA to the tumor cells ."
        }, 
        {
            "frame-id": "sent-PMC2841713-cmu-192", 
            "frame-type": "sentence", 
            "object-type": "frame", 
            "start-pos": {
                "object-type": "absolute-pos", 
                "offset": 192
            }, 
            "text": "Local delivery of synthetic let-7 by intratumoral injections resulted in strong inhibition of overall tumor growth ."
        }, 
        {
            "frame-id": "sent-PMC2841713-cmu-193", 
            "frame-type": "sentence", 
            "object-type": "frame", 
            "start-pos": {
                "object-type": "absolute-pos", 
                "offset": 193
            }, 
            "text": "However , this delivery route might be inadequate in a clinical setting as peripheral tumor cells remained present and showed limited knock-down of let-7 targets by immunohistochemistry ."
        }, 
        {
            "frame-id": "sent-PMC2841713-cmu-194", 
            "frame-type": "sentence", 
            "object-type": "frame", 
            "start-pos": {
                "object-type": "absolute-pos", 
                "offset": 194
            }, 
            "text": "Therefore , a delivery technology that facilitates universal access to all tumor cells , such as a systemic delivery route , might be needed to make a let-7 therapeutic more efficacious ."
        }, 
        {
            "frame-id": "sent-PMC2841713-cmu-195", 
            "frame-type": "sentence", 
            "object-type": "frame", 
            "start-pos": {
                "object-type": "absolute-pos", 
                "offset": 195
            }, 
            "text": "Alternatively , adenoviral or retroviral delivery of let-7 , as demonstrated here , could become useful tools in the treatment of respiratory malignancies ."
        }, 
        {
            "frame-id": "sent-PMC2841713-cmu-196", 
            "frame-type": "sentence", 
            "object-type": "frame", 
            "start-pos": {
                "object-type": "absolute-pos", 
                "offset": 196
            }, 
            "text": "Supplementary Material"
        }
    ], 
    "object-meta": {
        "component": "Nicolas-NXML-Parser", 
        "component-type": "machine", 
        "doc-id": "PMC2841713", 
        "object-type": "meta-info", 
        "organization": "CMU"
    }, 
    "object-type": "frame-collection"
}
