{
    "frames": [
        {
            "cell-type": [
                "MCL cells"
            ], 
            "frame-id": "imp-PMC3063577-cmu-pradsys-247", 
            "frame-type": "implication", 
            "implication-type": "binds", 
            "object-meta": {
                "object-type": "meta-info", 
                "organization": "CMU"
            }, 
            "object-type": "frame", 
            "sentence": "sent-PMC3063577-cmu-22"
        }, 
        {
            "binds-controller": [
                "PhosphoScan analysis"
            ], 
            "frame-id": "imp-PMC3063577-cmu-pradsys-248", 
            "frame-type": "implication", 
            "implication-type": "binds", 
            "object-meta": {
                "object-type": "meta-info", 
                "organization": "CMU"
            }, 
            "object-type": "frame", 
            "sentence": "sent-PMC3063577-cmu-24"
        }, 
        {
            "binds-constituent1": [
                "PhosphoScan analysis identified 421 unique"
            ], 
            "frame-id": "imp-PMC3063577-cmu-pradsys-249", 
            "frame-type": "implication", 
            "implication-type": "binds", 
            "object-meta": {
                "object-type": "meta-info", 
                "organization": "CMU"
            }, 
            "object-type": "frame", 
            "sentence": "sent-PMC3063577-cmu-25"
        }, 
        {
            "binds-constituent1": [
                "potential therapeutic targets.Table 1Top 50 phospho-peptides identified ( number of phospho peptides corresponding to the specific protein"
            ], 
            "frame-id": "imp-PMC3063577-cmu-pradsys-250", 
            "frame-type": "implication", 
            "implication-type": "binds", 
            "object-meta": {
                "object-type": "meta-info", 
                "organization": "CMU"
            }, 
            "object-type": "frame", 
            "sentence": "sent-PMC3063577-cmu-28"
        }, 
        {
            "binds-site": [
                "Protein nameGranta-519Jeko-1MAVER-1Rec-1BCR pathwayKynaseCdc217381626*CDK210341418*CDK310331317*Syk919243**SHIP7181010*PAG91448*PRP431982*Lyn41097**Ig-beta02220*Hck3853**WASP2743*SHP-14741*Btk01141**cofilin 12751SgK2236144*LANP-L0653PKCD4324**GCET25710*HSP90B5502GSK3A2343**GSK3B2343**p38-alpha2361**hnRNP A15231GRF-11424SPTBN10541SPTBN1 iso20541PLCG22430*DYRK1A1431*Lck4212**HSP90A2411Blk2321**IRAP1430DDX34300PL104300Cbl-b1311*BCAP1410Dok30600*ANXA21221VIM2220L-plastin0420ENO10222PIK3R11221**DYRK1B1221*Src1212**Fyn1212**Yes1212*hnRNP 2H92310hnRNP U2310hnRNP"
            ], 
            "frame-id": "imp-PMC3063577-cmu-pradsys-251", 
            "frame-type": "implication", 
            "implication-type": "binds", 
            "object-meta": {
                "object-type": "meta-info", 
                "organization": "CMU"
            }, 
            "object-type": "frame", 
            "sentence": "sent-PMC3063577-cmu-30"
        }, 
        {
            "cell-type": [
                "the four MCL cell lines"
            ], 
            "frame-id": "imp-PMC3063577-cmu-pradsys-252", 
            "frame-type": "implication", 
            "implication-type": "binds", 
            "object-meta": {
                "object-type": "meta-info", 
                "organization": "CMU"
            }, 
            "object-type": "frame", 
            "sentence": "sent-PMC3063577-cmu-31"
        }, 
        {
            "binds-constituent2": [
                "MCL"
            ], 
            "frame-id": "imp-PMC3063577-cmu-pradsys-253", 
            "frame-type": "implication", 
            "implication-type": "binds", 
            "object-meta": {
                "object-type": "meta-info", 
                "organization": "CMU"
            }, 
            "object-type": "frame", 
            "sentence": "sent-PMC3063577-cmu-35", 
            "transfection-molecule": [
                "31"
            ]
        }, 
        {
            "binds-constituent1": [
                "CDK3"
            ], 
            "frame-id": "imp-PMC3063577-cmu-pradsys-254", 
            "frame-type": "implication", 
            "implication-type": "binds", 
            "object-meta": {
                "object-type": "meta-info", 
                "organization": "CMU"
            }, 
            "object-type": "frame", 
            "sentence": "sent-PMC3063577-cmu-36"
        }, 
        {
            "binds-constituent2": [
                "MCL"
            ], 
            "frame-id": "imp-PMC3063577-cmu-pradsys-255", 
            "frame-type": "implication", 
            "implication-type": "binds", 
            "object-meta": {
                "object-type": "meta-info", 
                "organization": "CMU"
            }, 
            "object-type": "frame", 
            "sentence": "sent-PMC3063577-cmu-37"
        }, 
        {
            "binds-constituent1": [
                "Syk"
            ], 
            "cell-type": [
                "many other BCR pathway members"
            ], 
            "frame-id": "imp-PMC3063577-cmu-pradsys-256", 
            "frame-type": "implication", 
            "implication-type": "binds", 
            "object-meta": {
                "object-type": "meta-info", 
                "organization": "CMU"
            }, 
            "object-type": "frame", 
            "sentence": "sent-PMC3063577-cmu-38"
        }, 
        {
            "assay-molecule": [
                "Genomes"
            ], 
            "binds-constituent1": [
                "Kyoto", 
                "Genes"
            ], 
            "binds-site": [
                "Encyclopedia of"
            ], 
            "frame-id": "imp-PMC3063577-cmu-pradsys-257", 
            "frame-type": "implication", 
            "implication-type": "binds", 
            "object-meta": {
                "object-type": "meta-info", 
                "organization": "CMU"
            }, 
            "object-type": "frame", 
            "sentence": "sent-PMC3063577-cmu-40"
        }, 
        {
            "binds-controller": [
                "cell receptor signaling pathway ( 17.16-fold enrichment )"
            ], 
            "frame-id": "imp-PMC3063577-cmu-pradsys-258", 
            "frame-type": "implication", 
            "implication-type": "binds", 
            "object-meta": {
                "object-type": "meta-info", 
                "organization": "CMU"
            }, 
            "object-type": "frame", 
            "sentence": "sent-PMC3063577-cmu-41"
        }, 
        {
            "coreference-target": [
                "the proteins belonging to the most enriched pathways"
            ], 
            "frame-id": "imp-PMC3063577-cmu-pradsys-259", 
            "frame-type": "implication", 
            "implication-type": "binds", 
            "object-meta": {
                "object-type": "meta-info", 
                "organization": "CMU"
            }, 
            "object-type": "frame", 
            "sentence": "sent-PMC3063577-cmu-42"
        }, 
        {
            "binds-constituent2": [
                "the canonical KEGG BCR pathway"
            ], 
            "frame-id": "imp-PMC3063577-cmu-pradsys-260", 
            "frame-type": "implication", 
            "implication-type": "binds", 
            "object-meta": {
                "object-type": "meta-info", 
                "organization": "CMU"
            }, 
            "object-type": "frame", 
            "sentence": "sent-PMC3063577-cmu-43"
        }, 
        {
            "binds-site": [
                "the precise final effect"
            ], 
            "frame-id": "imp-PMC3063577-cmu-pradsys-261", 
            "frame-type": "implication", 
            "implication-type": "binds", 
            "object-meta": {
                "object-type": "meta-info", 
                "organization": "CMU"
            }, 
            "object-type": "frame", 
            "sentence": "sent-PMC3063577-cmu-46"
        }, 
        {
            "binds-constituent1": [
                "Kyoto", 
                "Genes"
            ], 
            "binds-site": [
                "Encyclopedia of"
            ], 
            "frame-id": "imp-PMC3063577-cmu-pradsys-262", 
            "frame-type": "implication", 
            "implication-type": "binds", 
            "object-meta": {
                "object-type": "meta-info", 
                "organization": "CMU"
            }, 
            "object-type": "frame", 
            "sentence": "sent-PMC3063577-cmu-48"
        }, 
        {
            "binds-constituent1": [
                "KEGG"
            ], 
            "frame-id": "imp-PMC3063577-cmu-pradsys-263", 
            "frame-type": "implication", 
            "implication-type": "binds", 
            "object-meta": {
                "object-type": "meta-info", 
                "organization": "CMU"
            }, 
            "object-type": "frame", 
            "sentence": "sent-PMC3063577-cmu-49"
        }, 
        {
            "binds-constituent1": [
                "BCR"
            ], 
            "frame-id": "imp-PMC3063577-cmu-pradsys-264", 
            "frame-type": "implication", 
            "implication-type": "binds", 
            "object-meta": {
                "object-type": "meta-info", 
                "organization": "CMU"
            }, 
            "object-type": "frame", 
            "sentence": "sent-PMC3063577-cmu-51"
        }, 
        {
            "binds-constituent1": [
                "Blnk"
            ], 
            "frame-id": "imp-PMC3063577-cmu-pradsys-265", 
            "frame-type": "implication", 
            "implication-type": "binds", 
            "object-meta": {
                "object-type": "meta-info", 
                "organization": "CMU"
            }, 
            "object-type": "frame", 
            "sentence": "sent-PMC3063577-cmu-52"
        }, 
        {
            "frame-id": "imp-PMC3063577-cmu-pradsys-266", 
            "frame-type": "implication", 
            "implication-type": "binds", 
            "object-meta": {
                "object-type": "meta-info", 
                "organization": "CMU"
            }, 
            "object-type": "frame", 
            "sentence": "sent-PMC3063577-cmu-53", 
            "transfection-molecule": [
                "Y323"
            ]
        }, 
        {
            "frame-id": "imp-PMC3063577-cmu-pradsys-267", 
            "frame-type": "implication", 
            "implication-type": "binds", 
            "m-val": [
                "no basal levels"
            ], 
            "object-meta": {
                "object-type": "meta-info", 
                "organization": "CMU"
            }, 
            "object-type": "frame", 
            "sentence": "sent-PMC3063577-cmu-55"
        }, 
        {
            "assay-molecule": [
                "phospho-GSK3alfa/beta"
            ], 
            "frame-id": "imp-PMC3063577-cmu-pradsys-268", 
            "frame-type": "implication", 
            "implication-type": "binds", 
            "object-meta": {
                "object-type": "meta-info", 
                "organization": "CMU"
            }, 
            "object-type": "frame", 
            "sentence": "sent-PMC3063577-cmu-56"
        }, 
        {
            "frame-id": "imp-PMC3063577-cmu-pradsys-269", 
            "frame-type": "implication", 
            "implication-type": "binds", 
            "ip-molecule": [
                "an appropriate antigen stimulation"
            ], 
            "object-meta": {
                "object-type": "meta-info", 
                "organization": "CMU"
            }, 
            "object-type": "frame", 
            "sentence": "sent-PMC3063577-cmu-57"
        }, 
        {
            "assay-molecule": [
                "Syk", 
                "Blnk"
            ], 
            "frame-id": "imp-PMC3063577-cmu-pradsys-270", 
            "frame-type": "implication", 
            "implication-type": "binds", 
            "object-meta": {
                "object-type": "meta-info", 
                "organization": "CMU"
            }, 
            "object-type": "frame", 
            "sentence": "sent-PMC3063577-cmu-62"
        }, 
        {
            "frame-id": "imp-PMC3063577-cmu-pradsys-271", 
            "frame-type": "implication", 
            "implication-type": "binds", 
            "object-meta": {
                "object-type": "meta-info", 
                "organization": "CMU"
            }, 
            "object-type": "frame", 
            "sentence": "sent-PMC3063577-cmu-63", 
            "transfection-molecule": [
                "active ( phosphorylated ) BCR pathway members in MCL tissues.Fig"
            ]
        }, 
        {
            "frame-id": "imp-PMC3063577-cmu-pradsys-272", 
            "frame-type": "implication", 
            "implication-type": "binds", 
            "object-meta": {
                "object-type": "meta-info", 
                "organization": "CMU"
            }, 
            "object-type": "frame", 
            "sentence": "sent-PMC3063577-cmu-66", 
            "transfection-molecule": [
                "2", 
                "5"
            ]
        }, 
        {
            "cell-type": [
                "MCL leukemic cells"
            ], 
            "frame-id": "imp-PMC3063577-cmu-pradsys-273", 
            "frame-type": "implication", 
            "implication-type": "binds", 
            "object-meta": {
                "object-type": "meta-info", 
                "organization": "CMU"
            }, 
            "object-type": "frame", 
            "sentence": "sent-PMC3063577-cmu-68"
        }, 
        {
            "binds-constituent1": [
                "BCR"
            ], 
            "frame-id": "imp-PMC3063577-cmu-pradsys-274", 
            "frame-type": "implication", 
            "implication-type": "binds", 
            "object-meta": {
                "object-type": "meta-info", 
                "organization": "CMU"
            }, 
            "object-type": "frame", 
            "sentence": "sent-PMC3063577-cmu-69"
        }, 
        {
            "binds-constituent1": [
                "B-CLL"
            ], 
            "binds-constituent2": [
                "BCR"
            ], 
            "cell-type": [
                "MCL cells"
            ], 
            "frame-id": "imp-PMC3063577-cmu-pradsys-275", 
            "frame-type": "implication", 
            "implication-type": "binds", 
            "m-val": [
                "no detectable phospho-Syk Y352"
            ], 
            "object-meta": {
                "object-type": "meta-info", 
                "organization": "CMU"
            }, 
            "object-type": "frame", 
            "sentence": "sent-PMC3063577-cmu-70", 
            "transfection-molecule": [
                "Y323"
            ]
        }, 
        {
            "binds-constituent2": [
                "recurrent B-cell non-Hodgkin lymphoma"
            ], 
            "binds-controller": [
                "9"
            ], 
            "frame-id": "imp-PMC3063577-cmu-pradsys-276", 
            "frame-type": "implication", 
            "implication-type": "binds", 
            "ip-molecule": [
                "available oral Syk inhibitor"
            ], 
            "object-meta": {
                "object-type": "meta-info", 
                "organization": "CMU"
            }, 
            "object-type": "frame", 
            "sentence": "sent-PMC3063577-cmu-71"
        }, 
        {
            "binds-constituent1": [
                "B-CLL"
            ], 
            "binds-constituent2": [
                "MCL"
            ], 
            "frame-id": "imp-PMC3063577-cmu-pradsys-277", 
            "frame-type": "implication", 
            "implication-type": "binds", 
            "object-meta": {
                "object-type": "meta-info", 
                "organization": "CMU"
            }, 
            "object-type": "frame", 
            "sentence": "sent-PMC3063577-cmu-75"
        }, 
        {
            "binds-constituent1": [
                "Syk"
            ], 
            "frame-id": "imp-PMC3063577-cmu-pradsys-278", 
            "frame-type": "implication", 
            "implication-type": "binds", 
            "object-meta": {
                "object-type": "meta-info", 
                "organization": "CMU"
            }, 
            "object-type": "frame", 
            "sentence": "sent-PMC3063577-cmu-76"
        }, 
        {
            "binds-controller": [
                "BCR signaling pathway"
            ], 
            "cell-type": [
                "MCL cells"
            ], 
            "frame-id": "imp-PMC3063577-cmu-pradsys-279", 
            "frame-type": "implication", 
            "implication-type": "binds", 
            "object-meta": {
                "object-type": "meta-info", 
                "organization": "CMU"
            }, 
            "object-type": "frame", 
            "sentence": "sent-PMC3063577-cmu-77"
        }, 
        {
            "frame-id": "imp-PMC3063577-cmu-pradsys-280", 
            "frame-type": "implication", 
            "implication-type": "binds", 
            "incubation-reagent": [
                "the MCL cell line Jeko-1 [ 11 ]"
            ], 
            "object-meta": {
                "object-type": "meta-info", 
                "organization": "CMU"
            }, 
            "object-type": "frame", 
            "sentence": "sent-PMC3063577-cmu-78"
        }, 
        {
            "binds-constituent1": [
                "LD50"
            ], 
            "frame-id": "imp-PMC3063577-cmu-pradsys-281", 
            "frame-type": "implication", 
            "implication-type": "binds", 
            "object-meta": {
                "object-type": "meta-info", 
                "organization": "CMU"
            }, 
            "object-type": "frame", 
            "process": [
                "evidenced by Annexin V staining ,"
            ], 
            "sentence": "sent-PMC3063577-cmu-80", 
            "transfection-molecule": [
                "MCL cell lines Jeko-1 , UPN-1 , Mino , Maver-1"
            ]
        }, 
        {
            "cell-type": [
                "live cells"
            ], 
            "frame-id": "imp-PMC3063577-cmu-pradsys-282", 
            "frame-type": "implication", 
            "implication-type": "binds", 
            "object-meta": {
                "object-type": "meta-info", 
                "organization": "CMU"
            }, 
            "object-type": "frame", 
            "sentence": "sent-PMC3063577-cmu-83"
        }, 
        {
            "binds-constituent1": [
                "Annexin V staining"
            ], 
            "frame-id": "imp-PMC3063577-cmu-pradsys-283", 
            "frame-type": "implication", 
            "implication-type": "binds", 
            "object-meta": {
                "object-type": "meta-info", 
                "organization": "CMU"
            }, 
            "object-type": "frame", 
            "sentence": "sent-PMC3063577-cmu-84"
        }, 
        {
            "frame-id": "imp-PMC3063577-cmu-pradsys-284", 
            "frame-type": "implication", 
            "implication-type": "binds", 
            "object-meta": {
                "object-type": "meta-info", 
                "organization": "CMU"
            }, 
            "object-type": "frame", 
            "sentence": "sent-PMC3063577-cmu-85", 
            "transfection-molecule": [
                "BCR pathway ( Supplemental Table 4 )"
            ]
        }, 
        {
            "assay-molecule": [
                "MAVER-1"
            ], 
            "frame-id": "imp-PMC3063577-cmu-pradsys-285", 
            "frame-type": "implication", 
            "implication-type": "binds", 
            "object-meta": {
                "object-type": "meta-info", 
                "organization": "CMU"
            }, 
            "object-type": "frame", 
            "sentence": "sent-PMC3063577-cmu-86"
        }, 
        {
            "cell-type": [
                "Cyclin D1 protein levels", 
                "untreated cells"
            ], 
            "frame-id": "imp-PMC3063577-cmu-pradsys-286", 
            "frame-type": "implication", 
            "implication-type": "binds", 
            "object-meta": {
                "object-type": "meta-info", 
                "organization": "CMU"
            }, 
            "object-type": "frame", 
            "sentence": "sent-PMC3063577-cmu-88"
        }, 
        {
            "binds-constituent1": [
                "corresponding CCND1 mRNA"
            ], 
            "frame-id": "imp-PMC3063577-cmu-pradsys-287", 
            "frame-type": "implication", 
            "implication-type": "binds", 
            "object-meta": {
                "object-type": "meta-info", 
                "organization": "CMU"
            }, 
            "object-type": "frame", 
            "sentence": "sent-PMC3063577-cmu-89"
        }, 
        {
            "binds-site": [
                "the CCND1 gene"
            ], 
            "frame-id": "imp-PMC3063577-cmu-pradsys-288", 
            "frame-type": "implication", 
            "implication-type": "binds", 
            "object-meta": {
                "object-type": "meta-info", 
                "organization": "CMU"
            }, 
            "object-type": "frame", 
            "sentence": "sent-PMC3063577-cmu-91"
        }, 
        {
            "binds-constituent1": [
                "BCR"
            ], 
            "frame-id": "imp-PMC3063577-cmu-pradsys-289", 
            "frame-type": "implication", 
            "implication-type": "binds", 
            "object-meta": {
                "object-type": "meta-info", 
                "organization": "CMU"
            }, 
            "object-type": "frame", 
            "sentence": "sent-PMC3063577-cmu-92"
        }, 
        {
            "cell-type": [
                "CCND1 gene in breast carcinoma cells"
            ], 
            "frame-id": "imp-PMC3063577-cmu-pradsys-290", 
            "frame-type": "implication", 
            "implication-type": "binds", 
            "object-meta": {
                "object-type": "meta-info", 
                "organization": "CMU"
            }, 
            "object-type": "frame", 
            "sentence": "sent-PMC3063577-cmu-95"
        }, 
        {
            "assay-molecule": [
                "Stat3"
            ], 
            "cell-type": [
                "MCL cells Syk"
            ], 
            "frame-id": "imp-PMC3063577-cmu-pradsys-291", 
            "frame-type": "implication", 
            "implication-type": "binds", 
            "object-meta": {
                "object-type": "meta-info", 
                "organization": "CMU"
            }, 
            "object-type": "frame", 
            "sentence": "sent-PMC3063577-cmu-96"
        }, 
        {
            "binds-constituent1": [
                "Stat3", 
                "Stat3", 
                "Jeko-1", 
                "Maver-1"
            ], 
            "frame-id": "imp-PMC3063577-cmu-pradsys-292", 
            "frame-type": "implication", 
            "implication-type": "binds", 
            "object-meta": {
                "object-type": "meta-info", 
                "organization": "CMU"
            }, 
            "object-type": "frame", 
            "sentence": "sent-PMC3063577-cmu-97"
        }, 
        {
            "frame-id": "imp-PMC3063577-cmu-pradsys-293", 
            "frame-type": "implication", 
            "implication-type": "binds", 
            "ip-molecule": [
                "Stat3"
            ], 
            "object-meta": {
                "object-type": "meta-info", 
                "organization": "CMU"
            }, 
            "object-type": "frame", 
            "sentence": "sent-PMC3063577-cmu-98"
        }, 
        {
            "assay-molecule": [
                "Stat3"
            ], 
            "frame-id": "imp-PMC3063577-cmu-pradsys-294", 
            "frame-type": "implication", 
            "implication-type": "binds", 
            "object-meta": {
                "object-type": "meta-info", 
                "organization": "CMU"
            }, 
            "object-type": "frame", 
            "sentence": "sent-PMC3063577-cmu-99"
        }, 
        {
            "binds-constituent1": [
                "Cyclin D1 degradation"
            ], 
            "frame-id": "imp-PMC3063577-cmu-pradsys-295", 
            "frame-type": "implication", 
            "implication-type": "binds", 
            "object-meta": {
                "object-type": "meta-info", 
                "organization": "CMU"
            }, 
            "object-type": "frame", 
            "sentence": "sent-PMC3063577-cmu-101"
        }, 
        {
            "binds-constituent2": [
                "Cyclin D1"
            ], 
            "frame-id": "imp-PMC3063577-cmu-pradsys-296", 
            "frame-type": "implication", 
            "implication-type": "binds", 
            "object-meta": {
                "object-type": "meta-info", 
                "organization": "CMU"
            }, 
            "object-type": "frame", 
            "sentence": "sent-PMC3063577-cmu-102"
        }, 
        {
            "assay-molecule": [
                "MAVER-1"
            ], 
            "binds-constituent1": [
                "UPN-1"
            ], 
            "frame-id": "imp-PMC3063577-cmu-pradsys-297", 
            "frame-type": "implication", 
            "implication-type": "binds", 
            "object-meta": {
                "object-type": "meta-info", 
                "organization": "CMU"
            }, 
            "object-type": "frame", 
            "sentence": "sent-PMC3063577-cmu-103"
        }, 
        {
            "frame-id": "imp-PMC3063577-cmu-pradsys-298", 
            "frame-type": "implication", 
            "implication-type": "binds", 
            "m-val": [
                "did not reach statistical significance"
            ], 
            "object-meta": {
                "object-type": "meta-info", 
                "organization": "CMU"
            }, 
            "object-type": "frame", 
            "sentence": "sent-PMC3063577-cmu-104"
        }, 
        {
            "assay-molecule": [
                "Mino"
            ], 
            "binds-constituent1": [
                "Jeko-1"
            ], 
            "frame-id": "imp-PMC3063577-cmu-pradsys-299", 
            "frame-type": "implication", 
            "implication-type": "binds", 
            "object-meta": {
                "object-type": "meta-info", 
                "organization": "CMU"
            }, 
            "object-type": "frame", 
            "sentence": "sent-PMC3063577-cmu-105"
        }, 
        {
            "binds-constituent1": [
                "SYK"
            ], 
            "binds-site": [
                "an r = 0.88 ("
            ], 
            "frame-id": "imp-PMC3063577-cmu-pradsys-300", 
            "frame-type": "implication", 
            "implication-type": "binds", 
            "object-meta": {
                "object-type": "meta-info", 
                "organization": "CMU"
            }, 
            "object-type": "frame", 
            "sentence": "sent-PMC3063577-cmu-106"
        }, 
        {
            "binds-constituent1": [
                "Apoptosis"
            ], 
            "frame-id": "imp-PMC3063577-cmu-pradsys-301", 
            "frame-type": "implication", 
            "implication-type": "binds", 
            "object-meta": {
                "object-type": "meta-info", 
                "organization": "CMU"
            }, 
            "object-type": "frame", 
            "sentence": "sent-PMC3063577-cmu-108"
        }, 
        {
            "assay-molecule": [
                "Bax"
            ], 
            "frame-id": "imp-PMC3063577-cmu-pradsys-302", 
            "frame-type": "implication", 
            "implication-type": "binds", 
            "object-meta": {
                "object-type": "meta-info", 
                "organization": "CMU"
            }, 
            "object-type": "frame", 
            "sentence": "sent-PMC3063577-cmu-111"
        }, 
        {
            "binds-constituent1": [
                "Jeko-1"
            ], 
            "frame-id": "imp-PMC3063577-cmu-pradsys-303", 
            "frame-type": "implication", 
            "implication-type": "binds", 
            "object-meta": {
                "object-type": "meta-info", 
                "organization": "CMU"
            }, 
            "object-type": "frame", 
            "sentence": "sent-PMC3063577-cmu-112"
        }, 
        {
            "binds-constituent1": [
                "Bax"
            ], 
            "binds-constituent2": [
                "Jeko-1"
            ], 
            "binds-site": [
                "( a pro-apoptotic Bcl-2 family member ) in"
            ], 
            "frame-id": "imp-PMC3063577-cmu-pradsys-304", 
            "frame-type": "implication", 
            "implication-type": "binds", 
            "object-meta": {
                "object-type": "meta-info", 
                "organization": "CMU"
            }, 
            "object-type": "frame", 
            "sentence": "sent-PMC3063577-cmu-113"
        }, 
        {
            "binds-constituent2": [
                "Jeko-1"
            ], 
            "frame-id": "imp-PMC3063577-cmu-pradsys-305", 
            "frame-type": "implication", 
            "implication-type": "binds", 
            "object-meta": {
                "object-type": "meta-info", 
                "organization": "CMU"
            }, 
            "object-type": "frame", 
            "sentence": "sent-PMC3063577-cmu-114"
        }, 
        {
            "binds-constituent1": [
                "Piceatannol"
            ], 
            "frame-id": "imp-PMC3063577-cmu-pradsys-306", 
            "frame-type": "implication", 
            "implication-type": "binds", 
            "object-meta": {
                "object-type": "meta-info", 
                "organization": "CMU"
            }, 
            "object-type": "frame", 
            "sentence": "sent-PMC3063577-cmu-115"
        }, 
        {
            "binds-constituent1": [
                "Syk"
            ], 
            "frame-id": "imp-PMC3063577-cmu-pradsys-307", 
            "frame-type": "implication", 
            "implication-type": "binds", 
            "object-meta": {
                "object-type": "meta-info", 
                "organization": "CMU"
            }, 
            "object-type": "frame", 
            "sentence": "sent-PMC3063577-cmu-116"
        }, 
        {
            "frame-id": "imp-PMC3063577-cmu-pradsys-308", 
            "frame-type": "implication", 
            "implication-type": "binds", 
            "object-meta": {
                "object-type": "meta-info", 
                "organization": "CMU"
            }, 
            "object-type": "frame", 
            "sentence": "sent-PMC3063577-cmu-117", 
            "transfection-molecule": [
                "Y352"
            ]
        }, 
        {
            "binds-constituent2": [
                "Syk"
            ], 
            "binds-site": [
                "the linker region of"
            ], 
            "frame-id": "imp-PMC3063577-cmu-pradsys-309", 
            "frame-type": "implication", 
            "implication-type": "binds", 
            "object-meta": {
                "object-type": "meta-info", 
                "organization": "CMU"
            }, 
            "object-type": "frame", 
            "sentence": "sent-PMC3063577-cmu-119"
        }, 
        {
            "binds-constituent2": [
                "Syk Y352"
            ], 
            "frame-id": "imp-PMC3063577-cmu-pradsys-310", 
            "frame-type": "implication", 
            "implication-type": "binds", 
            "object-meta": {
                "object-type": "meta-info", 
                "organization": "CMU"
            }, 
            "object-type": "frame", 
            "sentence": "sent-PMC3063577-cmu-121"
        }, 
        {
            "binds-controller": [
                "Y323"
            ], 
            "frame-id": "imp-PMC3063577-cmu-pradsys-311", 
            "frame-type": "implication", 
            "implication-type": "binds", 
            "object-meta": {
                "object-type": "meta-info", 
                "organization": "CMU"
            }, 
            "object-type": "frame", 
            "sentence": "sent-PMC3063577-cmu-123"
        }, 
        {
            "binds-constituent1": [
                "Jeko-1"
            ], 
            "cell-type": [
                "MAVER-1 cells"
            ], 
            "frame-id": "imp-PMC3063577-cmu-pradsys-312", 
            "frame-type": "implication", 
            "implication-type": "binds", 
            "object-meta": {
                "object-type": "meta-info", 
                "organization": "CMU"
            }, 
            "object-type": "frame", 
            "sentence": "sent-PMC3063577-cmu-125"
        }, 
        {
            "cell-type": [
                "cytoplasmic compartment of MCL cell lines"
            ], 
            "frame-id": "imp-PMC3063577-cmu-pradsys-313", 
            "frame-type": "implication", 
            "implication-type": "binds", 
            "object-meta": {
                "object-type": "meta-info", 
                "organization": "CMU"
            }, 
            "object-type": "frame", 
            "sentence": "sent-PMC3063577-cmu-127"
        }, 
        {
            "binds-site": [
                "the nucleus of MCL cell lines ( Jeko-1"
            ], 
            "frame-id": "imp-PMC3063577-cmu-pradsys-314", 
            "frame-type": "implication", 
            "implication-type": "binds", 
            "object-meta": {
                "object-type": "meta-info", 
                "organization": "CMU"
            }, 
            "object-type": "frame", 
            "sentence": "sent-PMC3063577-cmu-128"
        }, 
        {
            "binds-constituent1": [
                "P-Syk Y525"
            ], 
            "frame-id": "imp-PMC3063577-cmu-pradsys-315", 
            "frame-type": "implication", 
            "implication-type": "binds", 
            "object-meta": {
                "object-type": "meta-info", 
                "organization": "CMU"
            }, 
            "object-type": "frame", 
            "sentence": "sent-PMC3063577-cmu-132"
        }, 
        {
            "cell-type": [
                "the five MCL cell lines Jeko-1"
            ], 
            "frame-id": "imp-PMC3063577-cmu-pradsys-316", 
            "frame-type": "implication", 
            "implication-type": "binds", 
            "object-meta": {
                "object-type": "meta-info", 
                "organization": "CMU"
            }, 
            "object-type": "frame", 
            "sentence": "sent-PMC3063577-cmu-135"
        }, 
        {
            "binds-constituent2": [
                "Syk"
            ], 
            "binds-site": [
                "proteolytic 36 kDa isoform of"
            ], 
            "frame-id": "imp-PMC3063577-cmu-pradsys-317", 
            "frame-type": "implication", 
            "implication-type": "binds", 
            "object-meta": {
                "object-type": "meta-info", 
                "organization": "CMU"
            }, 
            "object-type": "frame", 
            "sentence": "sent-PMC3063577-cmu-136"
        }, 
        {
            "binds-constituent2": [
                "Syk", 
                "isoform-specific SYK RT-PCR experiments"
            ], 
            "frame-id": "imp-PMC3063577-cmu-pradsys-318", 
            "frame-type": "implication", 
            "implication-type": "binds", 
            "object-meta": {
                "object-type": "meta-info", 
                "organization": "CMU"
            }, 
            "object-type": "frame", 
            "sentence": "sent-PMC3063577-cmu-137"
        }
    ], 
    "object-meta": {
        "component": "Pradeep-System", 
        "component-type": "machine", 
        "doc-id": "PMC3063577", 
        "object-type": "meta-info", 
        "organization": "CMU"
    }, 
    "object-type": "frame-collection"
}
