{
  "evidence": ["Mutations of the S130 residue and in vitro phosphorylation indeed suggested that this phosphorylation can reduce the stoichiometry or stability of p21 binding to CDK4 complexes , resulting in increased T172 phosphorylation of p21 bound CDK4 .","phosphorylation of p21"],
  "extracted_information": {
    "interaction_type": "adds_modification",
    "negative_information": false,
    "modifications": [
      {
        "modification_type": "phosphorylation"
      },
      {
        "modification_type": "phosphorylation"
      }
    ],
    "participant_b": {
      "entity_text": "p21",
      "entity_type": "protein",
      "identifier": "Uniprot:P38936",
      "in_model": true
    }
  },
  "fries_provenance": [
    {
      "cmu-sentence-epistemic-status": "implication",
      "cmu-sentence-epistemic-value": 0.6,
      "component": "REACH",
      "frame-file": "PMC3667761.uaz.events",
      "frame-id": "evem-PMC3667761-UAZ-r1-99-7-227",
      "passage-id": "pass-PMC3667761-UAZ-r1-99",
      "passage-number": 99,
      "passage-section-id": "s3b",
      "passage-section-name": "N/A",
      "sentence": "Mutations of the S130 residue and in vitro phosphorylation indeed suggested that this phosphorylation can reduce the stoichiometry or stability of p21 binding to CDK4 complexes , resulting in increased T172 phosphorylation of p21 bound CDK4 .",
      "text": "phosphorylation of p21",
      "uaz-sentence": "Mutations of the S130 residue and in vitro phosphorylation indeed suggested that this phosphorylation can reduce the stoichiometry or stability of p21 binding to CDK4 complexes , resulting in increased T172 phosphorylation of p21 bound CDK4 .",
      "uaz-sentence-start": 1355
    }
  ],
  "model_relation": "extension",
  "pmc_id": "PMC3667761",
  "reader_type": "machine",
  "reading_complete": "2015-06-15T23:20:54Z",
  "reading_started": "2015-06-15T23:20:49Z",
  "submitter": "FRIES"
}
