{
  "frames":[
    {
      "is-hypothesis":true,
      "frame-id":"evem-PMC3479211-UAZ-r1-98-6-1",
      "text":"p32 in p32-/- cells restored mitochondrial ATP",
      "arguments":[
        {
          "text":"ATP",
          "argument-type":"entity",
          "object-type":"argument",
          "index":0,
          "argument-label":"controlled",
          "arg":"ment-PMC3479211-UAZ-r1-98-6-507"
        },
        {
          "text":"p32",
          "argument-type":"entity",
          "object-type":"argument",
          "index":0,
          "argument-label":"controller",
          "arg":"ment-PMC3479211-UAZ-r1-98-6-506"
        }
      ],
      "type":"activation",
      "frame-type":"event-mention",
      "subtype":"positive-activation",
      "end-pos":{
        "reference":"pass-PMC3479211-UAZ-r1-98",
        "offset":1317,
        "object-type":"relative-pos"
      },
      "object-type":"frame",
      "start-pos":{
        "reference":"pass-PMC3479211-UAZ-r1-98",
        "offset":1271,
        "object-type":"relative-pos"
      },
      "sentence":"sent-PMC3479211-UAZ-r1-98-6",
      "found-by":"Positive_activation_syntax_1_verb",
      "object-meta":{
        "component":"REACH",
        "object-type":"meta-info"
      },
      "verbose-text":"Re-expression of p32 in p32-/- cells restored mitochondrial ATP production , but not the introduction of an empty vector , indicating that p32 is required for efficient ATP production via OXPHOS ."
    },
    {
      "frame-id":"evem-PMC3479211-UAZ-r1-102-2-2",
      "text":"pyruvate (1 mM) was able to rescue the proliferation of p32-/- MEFs",
      "arguments":[
        {
          "text":"p32-/- MEFs",
          "argument-type":"entity",
          "object-type":"argument",
          "index":0,
          "argument-label":"controlled",
          "arg":"ment-PMC3479211-UAZ-r1-102-2-530"
        },
        {
          "text":"pyruvate",
          "argument-type":"entity",
          "object-type":"argument",
          "index":0,
          "argument-label":"controller",
          "arg":"ment-PMC3479211-UAZ-r1-102-2-529"
        }
      ],
      "type":"activation",
      "frame-type":"event-mention",
      "subtype":"positive-activation",
      "end-pos":{
        "reference":"pass-PMC3479211-UAZ-r1-102",
        "offset":329,
        "object-type":"relative-pos"
      },
      "object-type":"frame",
      "start-pos":{
        "reference":"pass-PMC3479211-UAZ-r1-102",
        "offset":262,
        "object-type":"relative-pos"
      },
      "sentence":"sent-PMC3479211-UAZ-r1-102-2",
      "found-by":"Positive_activation_syntax_1_verb",
      "object-meta":{
        "component":"REACH",
        "object-type":"meta-info"
      },
      "verbose-text":"Only pyruvate ( 1 mM ) was able to rescue the proliferation of p32-/- MEFs                         ; addition of high glucose ( 3500 mg and l ) and uridine ( 0.2 mM ) did not rescue proliferation ( data not shown ) ."
    },
    {
      "is-hypothesis":true,
      "frame-id":"evem-PMC3479211-UAZ-r1-102-1-3",
      "text":"glucose, pyruvate or uridine could rescue the proliferation of p32-/- MEFs",
      "arguments":[
        {
          "text":"p32-/- MEFs",
          "argument-type":"entity",
          "object-type":"argument",
          "index":0,
          "argument-label":"controlled",
          "arg":"ment-PMC3479211-UAZ-r1-102-1-528"
        },
        {
          "text":"glucose",
          "argument-type":"entity",
          "object-type":"argument",
          "index":0,
          "argument-label":"controller",
          "arg":"ment-PMC3479211-UAZ-r1-102-1-525"
        }
      ],
      "type":"activation",
      "frame-type":"event-mention",
      "subtype":"positive-activation",
      "end-pos":{
        "reference":"pass-PMC3479211-UAZ-r1-102",
        "offset":208,
        "object-type":"relative-pos"
      },
      "object-type":"frame",
      "start-pos":{
        "reference":"pass-PMC3479211-UAZ-r1-102",
        "offset":134,
        "object-type":"relative-pos"
      },
      "sentence":"sent-PMC3479211-UAZ-r1-102-1",
      "found-by":"Positive_activation_syntax_1_verb",
      "object-meta":{
        "component":"REACH",
        "object-type":"meta-info"
      },
      "verbose-text":"To determine whether the addition of high glucose , pyruvate or uridine could rescue the proliferation of p32-/- MEFs , we added each of these supplements separately ."
    },
    {
      "is-hypothesis":true,
      "frame-id":"evem-PMC3479211-UAZ-r1-102-1-4",
      "text":"pyruvate or uridine could rescue the proliferation of p32-/- MEFs",
      "arguments":[
        {
          "text":"p32-/- MEFs",
          "argument-type":"entity",
          "object-type":"argument",
          "index":0,
          "argument-label":"controlled",
          "arg":"ment-PMC3479211-UAZ-r1-102-1-528"
        },
        {
          "text":"pyruvate",
          "argument-type":"entity",
          "object-type":"argument",
          "index":0,
          "argument-label":"controller",
          "arg":"ment-PMC3479211-UAZ-r1-102-1-526"
        }
      ],
      "type":"activation",
      "frame-type":"event-mention",
      "subtype":"positive-activation",
      "end-pos":{
        "reference":"pass-PMC3479211-UAZ-r1-102",
        "offset":208,
        "object-type":"relative-pos"
      },
      "object-type":"frame",
      "start-pos":{
        "reference":"pass-PMC3479211-UAZ-r1-102",
        "offset":143,
        "object-type":"relative-pos"
      },
      "sentence":"sent-PMC3479211-UAZ-r1-102-1",
      "found-by":"Positive_activation_syntax_1_verb",
      "object-meta":{
        "component":"REACH",
        "object-type":"meta-info"
      },
      "verbose-text":"To determine whether the addition of high glucose , pyruvate or uridine could rescue the proliferation of p32-/- MEFs , we added each of these supplements separately ."
    },
    {
      "is-hypothesis":true,
      "frame-id":"evem-PMC3479211-UAZ-r1-102-1-5",
      "text":"uridine could rescue the proliferation of p32-/- MEFs",
      "arguments":[
        {
          "text":"p32-/- MEFs",
          "argument-type":"entity",
          "object-type":"argument",
          "index":0,
          "argument-label":"controlled",
          "arg":"ment-PMC3479211-UAZ-r1-102-1-528"
        },
        {
          "text":"uridine",
          "argument-type":"entity",
          "object-type":"argument",
          "index":0,
          "argument-label":"controller",
          "arg":"ment-PMC3479211-UAZ-r1-102-1-527"
        }
      ],
      "type":"activation",
      "frame-type":"event-mention",
      "subtype":"positive-activation",
      "end-pos":{
        "reference":"pass-PMC3479211-UAZ-r1-102",
        "offset":208,
        "object-type":"relative-pos"
      },
      "object-type":"frame",
      "start-pos":{
        "reference":"pass-PMC3479211-UAZ-r1-102",
        "offset":155,
        "object-type":"relative-pos"
      },
      "sentence":"sent-PMC3479211-UAZ-r1-102-1",
      "found-by":"Positive_activation_syntax_1_verb",
      "object-meta":{
        "component":"REACH",
        "object-type":"meta-info"
      },
      "verbose-text":"To determine whether the addition of high glucose , pyruvate or uridine could rescue the proliferation of p32-/- MEFs , we added each of these supplements separately ."
    },
    {
      "is-hypothesis":true,
      "frame-id":"evem-PMC3479211-UAZ-r1-126-0-6",
      "text":"p32 deficiency did not reduce mtDNA transcripts",
      "arguments":[
        {
          "text":"mtDNA transcripts",
          "argument-type":"entity",
          "object-type":"argument",
          "index":0,
          "argument-label":"controlled",
          "arg":"ment-PMC3479211-UAZ-r1-126-0-775"
        },
        {
          "text":"p32",
          "argument-type":"entity",
          "object-type":"argument",
          "index":0,
          "argument-label":"controller",
          "arg":"ment-PMC3479211-UAZ-r1-126-0-774"
        }
      ],
      "type":"activation",
      "frame-type":"event-mention",
      "subtype":"negative-activation",
      "is-negated":true,
      "end-pos":{
        "reference":"pass-PMC3479211-UAZ-r1-126",
        "offset":55,
        "object-type":"relative-pos"
      },
      "object-type":"frame",
      "start-pos":{
        "reference":"pass-PMC3479211-UAZ-r1-126",
        "offset":8,
        "object-type":"relative-pos"
      },
      "sentence":"sent-PMC3479211-UAZ-r1-126-0",
      "found-by":"Negative_activation_syntax_1_verb",
      "object-meta":{
        "component":"REACH",
        "object-type":"meta-info"
      },
      "verbose-text":"Because p32 deficiency did not reduce mtDNA transcripts or affect biogenesis of mitoribosomes                    , and p32 interacted with all mitochondrial mRNAs                          , we considered that p32 may bind to mRNAs via their poly ( A ) tail or in a sequence independent manner ."
    },
    {
      "frame-id":"evem-PMC3479211-UAZ-r1-131-2-7",
      "text":"p32 were acetylated",
      "arguments":[
        {
          "text":"p32",
          "argument-type":"entity",
          "object-type":"argument",
          "index":0,
          "argument-label":"theme",
          "arg":"ment-PMC3479211-UAZ-r1-131-2-863"
        }
      ],
      "type":"protein-modification",
      "frame-type":"event-mention",
      "subtype":"acetylation",
      "end-pos":{
        "reference":"pass-PMC3479211-UAZ-r1-131",
        "offset":279,
        "object-type":"relative-pos"
      },
      "object-type":"frame",
      "start-pos":{
        "reference":"pass-PMC3479211-UAZ-r1-131",
        "offset":260,
        "object-type":"relative-pos"
      },
      "sentence":"sent-PMC3479211-UAZ-r1-131-2",
      "found-by":"Acetylation_syntax_2_verb",
      "object-meta":{
        "component":"REACH",
        "object-type":"meta-info"
      },
      "verbose-text":"A global analysis of lysine acetylation revealed that lysines 91 and 95 of human p32 were acetylated     ."
    },
    {
      "frame-id":"evem-PMC3479211-UAZ-r1-132-3-8",
      "text":"p32 restored COXI",
      "arguments":[
        {
          "text":"COXI",
          "argument-type":"entity",
          "object-type":"argument",
          "index":0,
          "argument-label":"controlled",
          "arg":"ment-PMC3479211-UAZ-r1-132-3-892"
        },
        {
          "text":"p32",
          "argument-type":"entity",
          "object-type":"argument",
          "index":0,
          "argument-label":"controller",
          "arg":"ment-PMC3479211-UAZ-r1-132-3-891"
        }
      ],
      "type":"activation",
      "frame-type":"event-mention",
      "subtype":"positive-activation",
      "end-pos":{
        "reference":"pass-PMC3479211-UAZ-r1-132",
        "offset":395,
        "object-type":"relative-pos"
      },
      "object-type":"frame",
      "start-pos":{
        "reference":"pass-PMC3479211-UAZ-r1-132",
        "offset":378,
        "object-type":"relative-pos"
      },
      "sentence":"sent-PMC3479211-UAZ-r1-132-3",
      "found-by":"Positive_activation_syntax_1_verb",
      "object-meta":{
        "component":"REACH",
        "object-type":"meta-info"
      },
      "verbose-text":"Re-expression of wild-type p32 restored COXI and COXIII ( lane 3 ) ."
    },
    {
      "frame-id":"evem-PMC3479211-UAZ-r1-132-3-9",
      "text":"p32 restored COXI and COXIII",
      "arguments":[
        {
          "text":"COXIII",
          "argument-type":"entity",
          "object-type":"argument",
          "index":0,
          "argument-label":"controlled",
          "arg":"ment-PMC3479211-UAZ-r1-132-3-893"
        },
        {
          "text":"p32",
          "argument-type":"entity",
          "object-type":"argument",
          "index":0,
          "argument-label":"controller",
          "arg":"ment-PMC3479211-UAZ-r1-132-3-891"
        }
      ],
      "type":"activation",
      "frame-type":"event-mention",
      "subtype":"positive-activation",
      "end-pos":{
        "reference":"pass-PMC3479211-UAZ-r1-132",
        "offset":406,
        "object-type":"relative-pos"
      },
      "object-type":"frame",
      "start-pos":{
        "reference":"pass-PMC3479211-UAZ-r1-132",
        "offset":378,
        "object-type":"relative-pos"
      },
      "sentence":"sent-PMC3479211-UAZ-r1-132-3",
      "found-by":"Positive_activation_syntax_1_verb",
      "object-meta":{
        "component":"REACH",
        "object-type":"meta-info"
      },
      "verbose-text":"Re-expression of wild-type p32 restored COXI and COXIII ( lane 3 ) ."
    },
    {
      "is-hypothesis":true,
      "frame-id":"evem-PMC3479211-UAZ-r1-141-1-10",
      "text":"p32 in p32-/- cells partially restored complex activity, mitochondrial ATP",
      "arguments":[
        {
          "text":"ATP",
          "argument-type":"entity",
          "object-type":"argument",
          "index":0,
          "argument-label":"controlled",
          "arg":"ment-PMC3479211-UAZ-r1-141-1-950"
        },
        {
          "text":"p32",
          "argument-type":"entity",
          "object-type":"argument",
          "index":0,
          "argument-label":"controller",
          "arg":"ment-PMC3479211-UAZ-r1-141-1-949"
        }
      ],
      "type":"activation",
      "frame-type":"event-mention",
      "subtype":"positive-activation",
      "end-pos":{
        "reference":"pass-PMC3479211-UAZ-r1-141",
        "offset":268,
        "object-type":"relative-pos"
      },
      "object-type":"frame",
      "start-pos":{
        "reference":"pass-PMC3479211-UAZ-r1-141",
        "offset":194,
        "object-type":"relative-pos"
      },
      "sentence":"sent-PMC3479211-UAZ-r1-141-1",
      "found-by":"Positive_activation_syntax_1_verb",
      "object-meta":{
        "component":"REACH",
        "object-type":"meta-info"
      },
      "verbose-text":"Even at low-level expression in p32-/- MEFs , re-expression of p32 in p32-/- cells partially restored complex activity , mitochondrial ATP production , cell proliferation and protein translation , suggesting that a small amount of p32 rescues the mitochondrial respiratory function via mitochondrial translational regulation ."
    },
    {
      "frame-id":"evem-PMC3479211-UAZ-r1-143-1-11",
      "text":"RelA, the dominant NF-kappaB transactivating subunit, markedly enhances glucose",
      "arguments":[
        {
          "text":"glucose",
          "argument-type":"entity",
          "object-type":"argument",
          "index":0,
          "argument-label":"controlled",
          "arg":"ment-PMC3479211-UAZ-r1-143-1-968"
        },
        {
          "text":"RelA",
          "argument-type":"entity",
          "object-type":"argument",
          "index":0,
          "argument-label":"controller",
          "arg":"ment-PMC3479211-UAZ-r1-143-1-966"
        }
      ],
      "type":"activation",
      "frame-type":"event-mention",
      "subtype":"negative-activation",
      "end-pos":{
        "reference":"pass-PMC3479211-UAZ-r1-143",
        "offset":303,
        "object-type":"relative-pos"
      },
      "object-type":"frame",
      "start-pos":{
        "reference":"pass-PMC3479211-UAZ-r1-143",
        "offset":224,
        "object-type":"relative-pos"
      },
      "sentence":"sent-PMC3479211-UAZ-r1-143-1",
      "found-by":"Positive_activation_syntax_1_verb",
      "object-meta":{
        "component":"REACH",
        "object-type":"meta-info"
      },
      "verbose-text":"The knockdown of RelA , the dominant NF-kappaB transactivating subunit , markedly enhances glucose consumption and lactate production in MEFs under normal culture conditions ."
    },
    {
      "frame-id":"evem-PMC3479211-UAZ-r1-143-1-12",
      "text":"RelA, the dominant NF-kappaB transactivating subunit, markedly enhances glucose consumption and lactate",
      "arguments":[
        {
          "text":"lactate",
          "argument-type":"entity",
          "object-type":"argument",
          "index":0,
          "argument-label":"controlled",
          "arg":"ment-PMC3479211-UAZ-r1-143-1-969"
        },
        {
          "text":"RelA",
          "argument-type":"entity",
          "object-type":"argument",
          "index":0,
          "argument-label":"controller",
          "arg":"ment-PMC3479211-UAZ-r1-143-1-966"
        }
      ],
      "type":"activation",
      "frame-type":"event-mention",
      "subtype":"negative-activation",
      "end-pos":{
        "reference":"pass-PMC3479211-UAZ-r1-143",
        "offset":327,
        "object-type":"relative-pos"
      },
      "object-type":"frame",
      "start-pos":{
        "reference":"pass-PMC3479211-UAZ-r1-143",
        "offset":224,
        "object-type":"relative-pos"
      },
      "sentence":"sent-PMC3479211-UAZ-r1-143-1",
      "found-by":"Positive_activation_syntax_1_verb",
      "object-meta":{
        "component":"REACH",
        "object-type":"meta-info"
      },
      "verbose-text":"The knockdown of RelA , the dominant NF-kappaB transactivating subunit , markedly enhances glucose consumption and lactate production in MEFs under normal culture conditions ."
    },
    {
      "frame-id":"evem-PMC3479211-UAZ-r1-143-1-13",
      "text":"NF-kappaB transactivating subunit, markedly enhances glucose",
      "arguments":[
        {
          "text":"glucose",
          "argument-type":"entity",
          "object-type":"argument",
          "index":0,
          "argument-label":"controlled",
          "arg":"ment-PMC3479211-UAZ-r1-143-1-968"
        },
        {
          "text":"NF-kappaB",
          "argument-type":"entity",
          "object-type":"argument",
          "index":0,
          "argument-label":"controller",
          "arg":"ment-PMC3479211-UAZ-r1-143-1-967"
        }
      ],
      "type":"activation",
      "frame-type":"event-mention",
      "subtype":"negative-activation",
      "end-pos":{
        "reference":"pass-PMC3479211-UAZ-r1-143",
        "offset":303,
        "object-type":"relative-pos"
      },
      "object-type":"frame",
      "start-pos":{
        "reference":"pass-PMC3479211-UAZ-r1-143",
        "offset":243,
        "object-type":"relative-pos"
      },
      "sentence":"sent-PMC3479211-UAZ-r1-143-1",
      "found-by":"Positive_activation_syntax_1_verb",
      "object-meta":{
        "component":"REACH",
        "object-type":"meta-info"
      },
      "verbose-text":"The knockdown of RelA , the dominant NF-kappaB transactivating subunit , markedly enhances glucose consumption and lactate production in MEFs under normal culture conditions ."
    },
    {
      "frame-id":"evem-PMC3479211-UAZ-r1-143-1-14",
      "text":"NF-kappaB transactivating subunit, markedly enhances glucose consumption and lactate",
      "arguments":[
        {
          "text":"lactate",
          "argument-type":"entity",
          "object-type":"argument",
          "index":0,
          "argument-label":"controlled",
          "arg":"ment-PMC3479211-UAZ-r1-143-1-969"
        },
        {
          "text":"NF-kappaB",
          "argument-type":"entity",
          "object-type":"argument",
          "index":0,
          "argument-label":"controller",
          "arg":"ment-PMC3479211-UAZ-r1-143-1-967"
        }
      ],
      "type":"activation",
      "frame-type":"event-mention",
      "subtype":"negative-activation",
      "end-pos":{
        "reference":"pass-PMC3479211-UAZ-r1-143",
        "offset":327,
        "object-type":"relative-pos"
      },
      "object-type":"frame",
      "start-pos":{
        "reference":"pass-PMC3479211-UAZ-r1-143",
        "offset":243,
        "object-type":"relative-pos"
      },
      "sentence":"sent-PMC3479211-UAZ-r1-143-1",
      "found-by":"Positive_activation_syntax_1_verb",
      "object-meta":{
        "component":"REACH",
        "object-type":"meta-info"
      },
      "verbose-text":"The knockdown of RelA , the dominant NF-kappaB transactivating subunit , markedly enhances glucose consumption and lactate production in MEFs under normal culture conditions ."
    },
    {
      "frame-id":"evem-PMC3479211-UAZ-r1-143-0-15",
      "text":"ATP production in p32-/- MEFs",
      "arguments":[
        {
          "text":"p32-/- MEFs",
          "argument-type":"entity",
          "object-type":"argument",
          "index":0,
          "argument-label":"controlled",
          "arg":"ment-PMC3479211-UAZ-r1-143-0-965"
        },
        {
          "text":"ATP",
          "argument-type":"entity",
          "object-type":"argument",
          "index":0,
          "argument-label":"controller",
          "arg":"ment-PMC3479211-UAZ-r1-143-0-964"
        }
      ],
      "type":"activation",
      "frame-type":"event-mention",
      "subtype":"positive-activation",
      "end-pos":{
        "reference":"pass-PMC3479211-UAZ-r1-143",
        "offset":205,
        "object-type":"relative-pos"
      },
      "object-type":"frame",
      "start-pos":{
        "reference":"pass-PMC3479211-UAZ-r1-143",
        "offset":176,
        "object-type":"relative-pos"
      },
      "sentence":"sent-PMC3479211-UAZ-r1-143-0",
      "found-by":"Positive_activation_syntax_3_noun",
      "object-meta":{
        "component":"REACH",
        "object-type":"meta-info"
      },
      "verbose-text":"We observed that the total ATP level was significantly higher in p32-knockout MEFs than in wild-type MEFs            , and the total ATP level is almost the same as glycolytic ATP production in p32-/- MEFs ."
    },
    {
      "frame-id":"evem-PMC3479211-UAZ-r1-144-2-16",
      "text":"p32 into p32-/- cells well rescues complex I",
      "arguments":[
        {
          "text":"complex I",
          "argument-type":"entity",
          "object-type":"argument",
          "index":0,
          "argument-label":"controlled",
          "arg":"ment-PMC3479211-UAZ-r1-144-2-983"
        },
        {
          "text":"p32",
          "argument-type":"entity",
          "object-type":"argument",
          "index":0,
          "argument-label":"controller",
          "arg":"ment-PMC3479211-UAZ-r1-144-2-982"
        }
      ],
      "type":"activation",
      "frame-type":"event-mention",
      "subtype":"positive-activation",
      "end-pos":{
        "reference":"pass-PMC3479211-UAZ-r1-144",
        "offset":436,
        "object-type":"relative-pos"
      },
      "object-type":"frame",
      "start-pos":{
        "reference":"pass-PMC3479211-UAZ-r1-144",
        "offset":392,
        "object-type":"relative-pos"
      },
      "sentence":"sent-PMC3479211-UAZ-r1-144-2",
      "found-by":"Positive_activation_syntax_1_verb",
      "object-meta":{
        "component":"REACH",
        "object-type":"meta-info"
      },
      "verbose-text":"Re-introduction of p32 into p32-/- cells well rescues complex I activity , but can not compensate the reduced activity of complexes III and IV to a similar extent ."
    },
    {
      "text":"adenylate kinase 3, AUH and carnitine acetyltransferase bound",
      "frame-id":"evem-PMC3479211-UAZ-r1-145-3-17",
      "arguments":[
        {
          "text":"AUH",
          "argument-type":"entity",
          "object-type":"argument",
          "index":0,
          "argument-label":"theme",
          "arg":"ment-PMC3479211-UAZ-r1-145-3-994"
        },
        {
          "text":"adenylate kinase 3",
          "argument-type":"entity",
          "object-type":"argument",
          "index":1,
          "argument-label":"theme",
          "arg":"ment-PMC3479211-UAZ-r1-145-3-993"
        }
      ],
      "type":"complex-assembly",
      "frame-type":"event-mention",
      "end-pos":{
        "reference":"pass-PMC3479211-UAZ-r1-145",
        "offset":609,
        "object-type":"relative-pos"
      },
      "object-type":"frame",
      "start-pos":{
        "reference":"pass-PMC3479211-UAZ-r1-145",
        "offset":548,
        "object-type":"relative-pos"
      },
      "found-by":"binding1b",
      "sentence":"sent-PMC3479211-UAZ-r1-145-3",
      "verbose-text":"That study also showed by affinity purification that mitochondrial adenylate kinase 3 , AUH and carnitine acetyltransferase bound poly ( A ) , but not poly ( U ) , while p32 bound poly ( U ) but not poly ( A ) .",
      "object-meta":{
        "component":"REACH",
        "object-type":"meta-info"
      }
    },
    {
      "text":"adenylate kinase 3, AUH and carnitine acetyltransferase bound",
      "frame-id":"evem-PMC3479211-UAZ-r1-145-3-18",
      "arguments":[
        {
          "text":"carnitine acetyltransferase",
          "argument-type":"entity",
          "object-type":"argument",
          "index":0,
          "argument-label":"theme",
          "arg":"ment-PMC3479211-UAZ-r1-145-3-995"
        },
        {
          "text":"adenylate kinase 3",
          "argument-type":"entity",
          "object-type":"argument",
          "index":1,
          "argument-label":"theme",
          "arg":"ment-PMC3479211-UAZ-r1-145-3-993"
        }
      ],
      "type":"complex-assembly",
      "frame-type":"event-mention",
      "end-pos":{
        "reference":"pass-PMC3479211-UAZ-r1-145",
        "offset":609,
        "object-type":"relative-pos"
      },
      "object-type":"frame",
      "start-pos":{
        "reference":"pass-PMC3479211-UAZ-r1-145",
        "offset":548,
        "object-type":"relative-pos"
      },
      "found-by":"binding1b",
      "sentence":"sent-PMC3479211-UAZ-r1-145-3",
      "verbose-text":"That study also showed by affinity purification that mitochondrial adenylate kinase 3 , AUH and carnitine acetyltransferase bound poly ( A ) , but not poly ( U ) , while p32 bound poly ( U ) but not poly ( A ) .",
      "object-meta":{
        "component":"REACH",
        "object-type":"meta-info"
      }
    },
    {
      "is-hypothesis":true,
      "frame-id":"evem-PMC3479211-UAZ-r1-147-2-19",
      "text":"p32 is acetylated",
      "arguments":[
        {
          "text":"p32",
          "argument-type":"entity",
          "object-type":"argument",
          "index":0,
          "argument-label":"theme",
          "arg":"ment-PMC3479211-UAZ-r1-147-2-1010"
        }
      ],
      "type":"protein-modification",
      "frame-type":"event-mention",
      "subtype":"acetylation",
      "end-pos":{
        "reference":"pass-PMC3479211-UAZ-r1-147",
        "offset":393,
        "object-type":"relative-pos"
      },
      "object-type":"frame",
      "start-pos":{
        "reference":"pass-PMC3479211-UAZ-r1-147",
        "offset":376,
        "object-type":"relative-pos"
      },
      "sentence":"sent-PMC3479211-UAZ-r1-147-2",
      "found-by":"Acetylation_syntax_2_verb",
      "object-meta":{
        "component":"REACH",
        "object-type":"meta-info"
      },
      "verbose-text":"A global analysis of lysine acetylation showed that p32 is acetylated at lysines 91 and 95 in human cell lines     , suggesting a possible role of the lysine acetylation in p32 function and mitochondrial mRNA regulation ."
    }
  ],
  "object-type":"frame-collection",
  "object-meta":{
    "processing-end":"2015-06-14T21:41:24Z",
    "doc-id":"PMC3479211",
    "component-type":"machine",
    "component":"REACH",
    "processing-start":"2015-06-14T21:37:04Z",
    "object-type":"meta-info",
    "organization":"UAZ"
  }
}
