{
  "evidence": ["Both PDK1 and PDK2 are dependent on 3 ' - phosphorylated membrane phosphatidylinositols for phosphorylation of AKT , and we previously showed that beta1 integrins use the p110alpha PI3K catalytic subunit for the generation of such phospholipids     .","phosphorylated membrane phosphatidylinositols for phosphorylation of AKT"],
  "extracted_information": {
    "interaction_type": "adds_modification",
    "negative_information": false,
    "modifications": [
      {
        "modification_type": "phosphorylation"
      },
      {
        "modification_type": "phosphorylation"
      }
    ],
    "participant_b": {
      "entity_text": "AKT",
      "entity_type": "protein",
      "identifier": "Uniprot:P31749",
      "in_model": true
    }
  },
  "fries_provenance": [
    {
      "cmu-sentence-epistemic-status": "implication",
      "cmu-sentence-epistemic-value": 0.6,
      "component": "REACH",
      "frame-file": "PMC3284553.uaz.events",
      "frame-id": "evem-PMC3284553-UAZ-r1-61-0-49",
      "passage-id": "pass-PMC3284553-UAZ-r1-61",
      "passage-number": 61,
      "passage-section-id": "s3",
      "passage-section-name": "N/A",
      "sentence": "Both PDK1 and PDK2 are dependent on 3 ' - phosphorylated membrane phosphatidylinositols for phosphorylation of AKT , and we previously showed that beta1 integrins use the p110alpha PI3K catalytic subunit for the generation of such phospholipids     .",
      "text": "phosphorylated membrane phosphatidylinositols for phosphorylation of AKT",
      "uaz-sentence": "Both PDK1 and PDK2 are dependent on 3 ' - phosphorylated membrane phosphatidylinositols for phosphorylation of AKT , and we previously showed that beta1 integrins use the p110alpha PI3K catalytic subunit for the generation of such phospholipids     .",
      "uaz-sentence-start": 0
    }
  ],
  "model_relation": "extension",
  "pmc_id": "PMC3284553",
  "reader_type": "machine",
  "reading_complete": "2015-06-15T22:37:55Z",
  "reading_started": "2015-06-15T22:37:50Z",
  "submitter": "FRIES"
}
