{
  "evidence": ["phosphorylated on several tyrosine residues upon binding to laminin 5 or activation of the EGF-R","The integrin is associated with a tyrosine kinase and becomes phosphorylated on several tyrosine residues upon binding to laminin 5 or activation of the EGF-R                                               ."],
  "extracted_information": {
    "interaction_type": "adds_modification",
    "negative_information": false,
    "modifications": [
      {
        "modification_type": "phosphorylation"
      },
      {
        "modification_type": "phosphorylation"
      }
    ],
    "participant_b": {
      "entity_text": "EGF-R",
      "entity_type": "protein",
      "identifier": "Uniprot:P00533",
      "in_model": true
    }
  },
  "fries_provenance": [
    {
      "cmu-sentence-epistemic-status": "implication",
      "cmu-sentence-epistemic-value": 0.6,
      "component": "REACH",
      "frame-file": "PMC2150849.uaz.events",
      "frame-id": "evem-PMC2150849-UAZ-r1-11-2-3",
      "passage-id": "pass-PMC2150849-UAZ-r1-11",
      "passage-number": 11,
      "passage-section-id": "N/A",
      "passage-section-name": "N/A",
      "sentence": "The integrin is associated with a tyrosine kinase and becomes phosphorylated on several tyrosine residues upon binding to laminin 5 or activation of the EGF-R                                               .",
      "text": "phosphorylated on several tyrosine residues upon binding to laminin 5 or activation of the EGF-R",
      "uaz-sentence": "The integrin is associated with a tyrosine kinase and becomes phosphorylated on several tyrosine residues upon binding to laminin 5 or activation of the EGF-R                                               .",
      "uaz-sentence-start": 358
    }
  ],
  "model_relation": "extension",
  "pmc_id": "PMC2150849",
  "reader_type": "machine",
  "reading_complete": "2015-06-15T19:29:51Z",
  "reading_started": "2015-06-15T19:29:46Z",
  "submitter": "FRIES"
}
