{
    "frames": [
        {
            "frame-id": "epi-PMC4174894-cmu-nicosys-161", 
            "frame-type": "epistemics", 
            "object-meta": {
                "object-type": "meta-info", 
                "organization": "CMU"
            }, 
            "object-type": "frame", 
            "sentence": "sent-PMC4174894-cmu-12", 
            "status": "belief", 
            "value": 0.9
        }, 
        {
            "frame-id": "epi-PMC4174894-cmu-nicosys-162", 
            "frame-type": "epistemics", 
            "object-meta": {
                "object-type": "meta-info", 
                "organization": "CMU"
            }, 
            "object-type": "frame", 
            "sentence": "sent-PMC4174894-cmu-16", 
            "status": "implication", 
            "value": 0.6
        }, 
        {
            "frame-id": "epi-PMC4174894-cmu-nicosys-163", 
            "frame-type": "epistemics", 
            "object-meta": {
                "object-type": "meta-info", 
                "organization": "CMU"
            }, 
            "object-type": "frame", 
            "sentence": "sent-PMC4174894-cmu-19", 
            "status": "belief", 
            "value": 0.9
        }, 
        {
            "frame-id": "epi-PMC4174894-cmu-nicosys-164", 
            "frame-type": "epistemics", 
            "object-meta": {
                "object-type": "meta-info", 
                "organization": "CMU"
            }, 
            "object-type": "frame", 
            "sentence": "sent-PMC4174894-cmu-22", 
            "status": "belief", 
            "value": 0.9
        }, 
        {
            "frame-id": "epi-PMC4174894-cmu-nicosys-165", 
            "frame-type": "epistemics", 
            "object-meta": {
                "object-type": "meta-info", 
                "organization": "CMU"
            }, 
            "object-type": "frame", 
            "sentence": "sent-PMC4174894-cmu-46", 
            "status": "belief", 
            "value": 0.9
        }, 
        {
            "frame-id": "epi-PMC4174894-cmu-nicosys-166", 
            "frame-type": "epistemics", 
            "object-meta": {
                "object-type": "meta-info", 
                "organization": "CMU"
            }, 
            "object-type": "frame", 
            "sentence": "sent-PMC4174894-cmu-50", 
            "status": "belief", 
            "value": 0.9
        }, 
        {
            "frame-id": "epi-PMC4174894-cmu-nicosys-167", 
            "frame-type": "epistemics", 
            "object-meta": {
                "object-type": "meta-info", 
                "organization": "CMU"
            }, 
            "object-type": "frame", 
            "sentence": "sent-PMC4174894-cmu-53", 
            "status": "implication", 
            "value": 0.6
        }, 
        {
            "frame-id": "epi-PMC4174894-cmu-nicosys-168", 
            "frame-type": "epistemics", 
            "object-meta": {
                "object-type": "meta-info", 
                "organization": "CMU"
            }, 
            "object-type": "frame", 
            "sentence": "sent-PMC4174894-cmu-65", 
            "status": "implication", 
            "value": 0.6
        }, 
        {
            "frame-id": "epi-PMC4174894-cmu-nicosys-169", 
            "frame-type": "epistemics", 
            "object-meta": {
                "object-type": "meta-info", 
                "organization": "CMU"
            }, 
            "object-type": "frame", 
            "sentence": "sent-PMC4174894-cmu-72", 
            "status": "implication", 
            "value": 0.6
        }, 
        {
            "frame-id": "epi-PMC4174894-cmu-nicosys-170", 
            "frame-type": "epistemics", 
            "object-meta": {
                "object-type": "meta-info", 
                "organization": "CMU"
            }, 
            "object-type": "frame", 
            "sentence": "sent-PMC4174894-cmu-77", 
            "status": "belief", 
            "value": 0.9
        }, 
        {
            "frame-id": "epi-PMC4174894-cmu-nicosys-171", 
            "frame-type": "epistemics", 
            "object-meta": {
                "object-type": "meta-info", 
                "organization": "CMU"
            }, 
            "object-type": "frame", 
            "sentence": "sent-PMC4174894-cmu-82", 
            "status": "implication", 
            "value": 0.6
        }, 
        {
            "frame-id": "epi-PMC4174894-cmu-nicosys-172", 
            "frame-type": "epistemics", 
            "object-meta": {
                "object-type": "meta-info", 
                "organization": "CMU"
            }, 
            "object-type": "frame", 
            "sentence": "sent-PMC4174894-cmu-84", 
            "status": "implication", 
            "value": 0.6
        }, 
        {
            "frame-id": "epi-PMC4174894-cmu-nicosys-173", 
            "frame-type": "epistemics", 
            "object-meta": {
                "object-type": "meta-info", 
                "organization": "CMU"
            }, 
            "object-type": "frame", 
            "sentence": "sent-PMC4174894-cmu-84", 
            "status": "implication", 
            "value": 0.6
        }, 
        {
            "frame-id": "epi-PMC4174894-cmu-nicosys-174", 
            "frame-type": "epistemics", 
            "object-meta": {
                "object-type": "meta-info", 
                "organization": "CMU"
            }, 
            "object-type": "frame", 
            "sentence": "sent-PMC4174894-cmu-85", 
            "status": "implication", 
            "value": 0.6
        }, 
        {
            "frame-id": "epi-PMC4174894-cmu-nicosys-175", 
            "frame-type": "epistemics", 
            "object-meta": {
                "object-type": "meta-info", 
                "organization": "CMU"
            }, 
            "object-type": "frame", 
            "sentence": "sent-PMC4174894-cmu-85", 
            "status": "implication", 
            "value": 0.6
        }
    ], 
    "object-meta": {
        "component": "Nicolas-System", 
        "component-type": "machine", 
        "doc-id": "PMC4174894", 
        "object-type": "meta-info", 
        "organization": "CMU"
    }, 
    "object-type": "frame-collection"
}
