{
  "evidence": ["Although p21 and p27 probably have different functions in the cytoplasm as opposed to the nucleus , our results indicate that cytoplasmic p21 and p27 bind Cdk2 and might in fact serve to control Cdk2 localization in a regulated manner .","binding of p21 and p27 to Cdk2","Growth arrest induced by TGF-beta + rapamycin correlates well with increased binding of p21 and p27 to Cdk2 , and with inhibition of Cdk2 activity .","p21 and p27 bind Cdk2"],
  "extracted_information": {
    "interaction_type": "binds",
    "negative_information": false,
    "participant_a": {
      "entity_text": "p21",
      "entity_type": "protein",
      "identifier": "Uniprot:P38936",
      "in_model": true
    },
    "participant_b": {
      "entity_text": "Cdk2",
      "entity_type": "protein",
      "identifier": "Uniprot:P24941",
      "in_model": false
    }
  },
  "fries_provenance": [
    {
      "cmu-sentence-epistemic-status": "implication",
      "cmu-sentence-epistemic-value": 0.6,
      "component": "REACH",
      "frame-file": "PMC400660.uaz.events",
      "frame-id": "evem-PMC400660-UAZ-r1-17-3-21",
      "passage-id": "pass-PMC400660-UAZ-r1-17",
      "passage-number": 17,
      "passage-section-id": "N/A",
      "passage-section-name": "N/A",
      "sentence": "Growth arrest induced by TGF-beta + rapamycin correlates well with increased binding of p21 and p27 to Cdk2 , and with inhibition of Cdk2 activity .",
      "text": "binding of p21 and p27 to Cdk2",
      "uaz-sentence": "Growth arrest induced by TGF-beta + rapamycin correlates well with increased binding of p21 and p27 to Cdk2 , and with inhibition of Cdk2 activity .",
      "uaz-sentence-start": 886
    },
    {
      "cmu-sentence-epistemic-status": "implication",
      "cmu-sentence-epistemic-value": 0.6,
      "component": "REACH",
      "frame-file": "PMC400660.uaz.events",
      "frame-id": "evem-PMC400660-UAZ-r1-66-3-131",
      "passage-id": "pass-PMC400660-UAZ-r1-66",
      "passage-number": 66,
      "passage-section-id": "N/A",
      "passage-section-name": "N/A",
      "sentence": "Although p21 and p27 probably have different functions in the cytoplasm as opposed to the nucleus , our results indicate that cytoplasmic p21 and p27 bind Cdk2 and might in fact serve to control Cdk2 localization in a regulated manner .",
      "text": "p21 and p27 bind Cdk2",
      "uaz-event-epistemic-status": "hypothesis",
      "uaz-sentence": "Although p21 and p27 probably have different functions in the cytoplasm as opposed to the nucleus , our results indicate that cytoplasmic p21 and p27 bind Cdk2 and might in fact serve to control Cdk2 localization in a regulated manner .",
      "uaz-sentence-start": 444
    }
  ],
  "model_relation": "extension",
  "pmc_id": "PMC400660",
  "reader_type": "machine",
  "reading_complete": "2015-06-15T23:48:45Z",
  "reading_started": "2015-06-15T23:48:40Z",
  "submitter": "FRIES"
}
