{
  "evidence": ["phosphorylated on Thr160 (P-Thr160-Cdk2), p27, or p21","were subjected to immunoprecipitation with Cdk2 antibody or preimmune rabbit IgG , and the immunoprecipitates were probed with antibodies specific for Cdk2 , Cdk2 phosphorylated on Tyr15 ( P-Tyr15-Cdk2 ) , Cdk2 phosphorylated on Thr160 ( P-Thr160-Cdk2 ) , p27 , or p21 ."],
  "extracted_information": {
    "interaction_type": "adds_modification",
    "negative_information": false,
    "modifications": [
      {
        "modification_type": "phosphorylation",
        "site": 160
      }
    ],
    "participant_b": {
      "entity_text": "p21",
      "entity_type": "protein",
      "identifier": "Uniprot:P38936",
      "in_model": true
    }
  },
  "fries_provenance": [
    {
      "component": "REACH",
      "frame-file": "PMC400660.uaz.events",
      "frame-id": "evem-PMC400660-UAZ-r1-181-5-149",
      "passage-id": "pass-PMC400660-UAZ-r1-181",
      "passage-number": 181,
      "passage-section-id": "fig-4",
      "passage-section-name": "fig-4",
      "sentence": "were subjected to immunoprecipitation with Cdk2 antibody or preimmune rabbit IgG , and the immunoprecipitates were probed with antibodies specific for Cdk2 , Cdk2 phosphorylated on Tyr15 ( P-Tyr15-Cdk2 ) , Cdk2 phosphorylated on Thr160 ( P-Thr160-Cdk2 ) , p27 , or p21 .",
      "text": "phosphorylated on Thr160 (P-Thr160-Cdk2), p27, or p21",
      "uaz-sentence": "were subjected to immunoprecipitation with Cdk2 antibody or preimmune rabbit IgG , and the immunoprecipitates were probed with antibodies specific for Cdk2 , Cdk2 phosphorylated on Tyr15 ( P-Tyr15-Cdk2 ) , Cdk2 phosphorylated on Thr160 ( P-Thr160-Cdk2 ) , p27 , or p21 .",
      "uaz-sentence-start": 587
    }
  ],
  "model_relation": "extension",
  "pmc_id": "PMC400660",
  "reader_type": "machine",
  "reading_complete": "2015-06-15T23:48:45Z",
  "reading_started": "2015-06-15T23:48:40Z",
  "submitter": "FRIES"
}
