{
  "evidence": ["Rb phosphorylated on Ser249/Thr252","were analyzed by immunoblotting with antibodies specific for Rb phosphorylated on Thr821 ( P-Rb ( Thr821 ) ) , Rb phosphorylated on Ser249 and Thr252 ( P-Rb ( Ser249 and Thr252 ) ) , and total Rb ."],
  "extracted_information": {
    "interaction_type": "adds_modification",
    "negative_information": false,
    "modifications": [
      {
        "modification_type": "phosphorylation",
        "site": 249
      },
      {
        "modification_type": "phosphorylation",
        "site": 252
      }
    ],
    "participant_b": {
      "entity_text": "Rb",
      "entity_type": "protein",
      "identifier": "Uniprot:P06400",
      "in_model": true
    }
  },
  "fries_provenance": [
    {
      "component": "REACH",
      "frame-file": "PMC400660.uaz.events",
      "frame-id": "evem-PMC400660-UAZ-r1-177-2-142",
      "passage-id": "pass-PMC400660-UAZ-r1-177",
      "passage-number": 177,
      "passage-section-id": "fig-2",
      "passage-section-name": "fig-2",
      "sentence": "were analyzed by immunoblotting with antibodies specific for Rb phosphorylated on Thr821 ( P-Rb ( Thr821 ) ) , Rb phosphorylated on Ser249 and Thr252 ( P-Rb ( Ser249 and Thr252 ) ) , and total Rb .",
      "text": "Rb phosphorylated on Ser249/Thr252",
      "uaz-sentence": "were analyzed by immunoblotting with antibodies specific for Rb phosphorylated on Thr821 ( P-Rb ( Thr821 ) ) , Rb phosphorylated on Ser249 and Thr252 ( P-Rb ( Ser249 and Thr252 ) ) , and total Rb .",
      "uaz-sentence-start": 141
    }
  ],
  "model_relation": "extension",
  "pmc_id": "PMC400660",
  "reader_type": "machine",
  "reading_complete": "2015-06-15T23:48:45Z",
  "reading_started": "2015-06-15T23:48:40Z",
  "submitter": "FRIES"
}
