{
  "frames":[
    {
      "frame-id":"evem-PMC3032566-UAZ-r1-21-0-1",
      "text":"Fra-1 in RAW macrophages by siRNA downregulates IL-6 and Stat3, decreases the release of pro-angiogenesis factors and inhibits migration and invasion of 4T1",
      "arguments":[
        {
          "text":"4T1",
          "argument-type":"entity",
          "object-type":"argument",
          "index":0,
          "argument-label":"controlled",
          "arg":"ment-PMC3032566-UAZ-r1-21-0-118"
        },
        {
          "text":"Fra-1",
          "argument-type":"entity",
          "object-type":"argument",
          "index":0,
          "argument-label":"controller",
          "arg":"ment-PMC3032566-UAZ-r1-21-0-115"
        }
      ],
      "type":"activation",
      "frame-type":"event-mention",
      "subtype":"negative-activation",
      "end-pos":{
        "reference":"pass-PMC3032566-UAZ-r1-21",
        "offset":169,
        "object-type":"relative-pos"
      },
      "object-type":"frame",
      "start-pos":{
        "reference":"pass-PMC3032566-UAZ-r1-21",
        "offset":13,
        "object-type":"relative-pos"
      },
      "sentence":"sent-PMC3032566-UAZ-r1-21-0",
      "found-by":"Negative_activation_syntax_1_verb",
      "object-meta":{
        "component":"REACH",
        "object-type":"meta-info"
      },
      "verbose-text":"Knockdown of Fra-1 in RAW macrophages by siRNA downregulates IL-6 and Stat3 , decreases the release of pro-angiogenesis factors and inhibits migration and invasion of 4T1 breast cancer cells"
    },
    {
      "frame-id":"evem-PMC3032566-UAZ-r1-23-2-2",
      "text":"Fra-1 in TAMs can enhance the malignancy of 4T1 tumor cell by activating the IL-6",
      "arguments":[
        {
          "text":"IL-6",
          "argument-type":"entity",
          "object-type":"argument",
          "index":0,
          "argument-label":"controlled",
          "arg":"ment-PMC3032566-UAZ-r1-23-2-150"
        },
        {
          "text":"Fra-1",
          "argument-type":"entity",
          "object-type":"argument",
          "index":0,
          "argument-label":"controller",
          "arg":"ment-PMC3032566-UAZ-r1-23-2-148"
        }
      ],
      "type":"activation",
      "frame-type":"event-mention",
      "subtype":"positive-activation",
      "end-pos":{
        "reference":"pass-PMC3032566-UAZ-r1-23",
        "offset":477,
        "object-type":"relative-pos"
      },
      "object-type":"frame",
      "start-pos":{
        "reference":"pass-PMC3032566-UAZ-r1-23",
        "offset":396,
        "object-type":"relative-pos"
      },
      "sentence":"sent-PMC3032566-UAZ-r1-23-2",
      "found-by":"Positive_activation_syntax_1_verb",
      "object-meta":{
        "component":"REACH",
        "object-type":"meta-info"
      },
      "verbose-text":"Apparently , activation of Fra-1 in TAMs can enhance the malignancy of 4T1 tumor cell by activating the IL-6 / JAK and Stat3 signaling pathway ."
    },
    {
      "frame-id":"evem-PMC3032566-UAZ-r1-36-2-3",
      "text":"Fra-1 could activate the IL-6",
      "arguments":[
        {
          "text":"IL-6",
          "argument-type":"entity",
          "object-type":"argument",
          "index":0,
          "argument-label":"controlled",
          "arg":"ment-PMC3032566-UAZ-r1-36-2-275"
        },
        {
          "text":"Fra-1",
          "argument-type":"entity",
          "object-type":"argument",
          "index":0,
          "argument-label":"controller",
          "arg":"ment-PMC3032566-UAZ-r1-36-2-274"
        }
      ],
      "type":"activation",
      "frame-type":"event-mention",
      "subtype":"positive-activation",
      "end-pos":{
        "reference":"pass-PMC3032566-UAZ-r1-36",
        "offset":653,
        "object-type":"relative-pos"
      },
      "object-type":"frame",
      "start-pos":{
        "reference":"pass-PMC3032566-UAZ-r1-36",
        "offset":624,
        "object-type":"relative-pos"
      },
      "sentence":"sent-PMC3032566-UAZ-r1-36-2",
      "found-by":"Positive_activation_syntax_1_verb",
      "object-meta":{
        "component":"REACH",
        "object-type":"meta-info"
      },
      "verbose-text":"In fact , during the analysis of the mouse IL-6 promoter , several AP-1 sites were identified in the promoter region of the IL-6 gene and Fra-1 could activate the IL-6 promoter in prostate cancer cells as demonstrated by electrophoretic mobility shift assays                      ."
    }
  ],
  "object-type":"frame-collection",
  "object-meta":{
    "processing-end":"2015-06-14T20:58:52Z",
    "doc-id":"PMC3032566",
    "component-type":"machine",
    "component":"REACH",
    "processing-start":"2015-06-14T20:56:19Z",
    "object-type":"meta-info",
    "organization":"UAZ"
  }
}
