{
  "evidence": ["HIPK2 can restore p53","HIPK2 depletion inhibits p53","HIPK2 function/dysfunction can severely influence p53","HIPK2 is a positive regulator of p53 that phosphorylates p53","HIPK2 leading on the one hand to de-repression of the HIF-1\\u03b1 activity and on the other hand to inhibition of p53","HIPK2-induced p53","Interestingly, we provided evidence here for the first time that zinc counteracted the hypoxia-induced HIPK2 downregulation and re-established HIPK2 recruitment to HIF-1\\u03b1 promoter with repression of HIF-1 target genes; notably, zinc restored p53/serine 46//46 apoptotic response to drug inhibited by hypoxia.","It has been shown that HIPK2 is activated by severe DNA damage , , , , that induces p53serine 46//46 phosphorylation that, in a feedback regulatory loop, strengthens the HIPK2 activity through a p53-mediated caspase-induced mechanism and selectively induces apoptotic genes while inhibits the cell-cycle arrest-related p21 and MDM2 genes , .","Of note, ectopic HIPK2 can restore p53/serine 46//46 apoptotic activity and overcome chemoresistance, as shown in an ovarian cancer model resistant to cisplatin .","The purpose of our investigation was to evaluate whether hypoxia could deregulate the HIPK2-induced p53 dependent apoptotic transcriptional activity in response to drug and therefore contribute to chemoresistance and whether zinc could counteract this HIPK2/p53serine 46//46 inhibition.","Therefore, HIPK2 function/dysfunction can severely influence p53 oncosuppressor activity.","To this aim, 293 cells were co-transfected with p53AIP1-luc reporter and HIPK2 expression vector."],
  "extracted_information": {
    "interaction_type": "increases",
    "negative_information": false,
    "participant_a": {
      "entity_text": "HIPK2",
      "entity_type": "protein",
      "identifier": "Uniprot:Q9H2X6",
      "in_model": false
    },
    "participant_b": {
      "entity_text": "p53",
      "entity_type": "protein",
      "identifier": "Uniprot:P04637",
      "in_model": true
    }
  },
  "fries_provenance": [
    {
      "cmu-sentence-epistemic-status": "hypothesis",
      "cmu-sentence-epistemic-value": 0.3,
      "component": "MedScan",
      "frame-file": "PMC2729407.cmu.medscan",
      "frame-id": "relm-PMC2729407-cmu-medscan-855",
      "passage-id": "pass-PMC2729407-UAZ-r1-18",
      "passage-number": 18,
      "passage-section-id": "s1",
      "passage-section-name": "N/A",
      "sentence": "The purpose of our investigation was to evaluate whether hypoxia could deregulate the HIPK2-induced p53 dependent apoptotic transcriptional activity in response to drug and therefore contribute to chemoresistance and whether zinc could counteract this HIPK2/p53serine 46//46 inhibition.",
      "text": "HIPK2-induced p53",
      "uaz-sentence": "The purpose of our investigation was to evaluate whether hypoxia could deregulate the HIPK2 induced p53 dependent apoptotic transcriptional activity in response to drug and therefore contribute to chemoresistance and whether zinc could counteract this HIPK2 and p53Ser46 inhibition .",
      "uaz-sentence-start": 0
    },
    {
      "cmu-sentence-epistemic-status": "hypothesis",
      "cmu-sentence-epistemic-value": 0.3,
      "component": "MedScan",
      "frame-file": "PMC2729407.cmu.medscan",
      "frame-id": "relm-PMC2729407-cmu-medscan-895",
      "passage-id": "pass-PMC2729407-UAZ-r1-39",
      "passage-number": 39,
      "passage-section-id": "s2c",
      "passage-section-name": "N/A",
      "sentence": "To this aim, 293 cells were co-transfected with p53AIP1-luc reporter and HIPK2 expression vector.",
      "text": "HIPK2-induced p53",
      "uaz-sentence": "To this aim , 293 cells were co-transfected with p53AIP1-luc reporter and HIPK2 expression vector .",
      "uaz-sentence-start": 1758
    },
    {
      "cmu-sentence-epistemic-status": "hypothesis",
      "cmu-sentence-epistemic-value": 0.3,
      "component": "MedScan",
      "frame-file": "PMC2729407.cmu.medscan",
      "frame-id": "relm-PMC2729407-cmu-medscan-920",
      "passage-id": "pass-PMC2729407-UAZ-r1-58",
      "passage-number": 58,
      "passage-section-id": "s3",
      "passage-section-name": "N/A",
      "sentence": "Interestingly, we provided evidence here for the first time that zinc counteracted the hypoxia-induced HIPK2 downregulation and re-established HIPK2 recruitment to HIF-1\\u03b1 promoter with repression of HIF-1 target genes; notably, zinc restored p53/serine 46//46 apoptotic response to drug inhibited by hypoxia.",
      "text": "HIPK2 leading on the one hand to de-repression of the HIF-1\\u03b1 activity and on the other hand to inhibition of p53",
      "uaz-sentence": "Interestingly , we provided evidence here for the first time that zinc counteracted the hypoxia induced HIPK2 downregulation and re-established HIPK2 recruitment to HIF-1alpha promoter with repression of HIF-1 target genes ; notably , zinc restored p53 and Ser46 apoptotic response to drug inhibited by hypoxia .",
      "uaz-sentence-start": 1044
    },
    {
      "cmu-sentence-epistemic-status": "hypothesis",
      "cmu-sentence-epistemic-value": 0.3,
      "component": "MedScan",
      "frame-file": "PMC2729407.cmu.medscan",
      "frame-id": "relm-PMC2729407-cmu-medscan-924",
      "passage-id": "pass-PMC2729407-UAZ-r1-59",
      "passage-number": 59,
      "passage-section-id": "s3",
      "passage-section-name": "N/A",
      "sentence": "Of note, ectopic HIPK2 can restore p53/serine 46//46 apoptotic activity and overcome chemoresistance, as shown in an ovarian cancer model resistant to cisplatin .",
      "text": "HIPK2 is a positive regulator of p53 that phosphorylates p53",
      "uaz-sentence": "Of note , ectopic HIPK2 can restore p53 and Ser46 apoptotic activity and overcome chemoresistance , as shown in an ovarian cancer model resistant to cisplatin     .",
      "uaz-sentence-start": 696
    },
    {
      "cmu-sentence-epistemic-status": "hypothesis",
      "cmu-sentence-epistemic-value": 0.3,
      "component": "MedScan",
      "frame-file": "PMC2729407.cmu.medscan",
      "frame-id": "relm-PMC2729407-cmu-medscan-925",
      "passage-id": "pass-PMC2729407-UAZ-r1-59",
      "passage-number": 59,
      "passage-section-id": "s3",
      "passage-section-name": "N/A",
      "sentence": "Of note, ectopic HIPK2 can restore p53/serine 46//46 apoptotic activity and overcome chemoresistance, as shown in an ovarian cancer model resistant to cisplatin .",
      "text": "HIPK2 depletion inhibits p53",
      "uaz-sentence": "Of note , ectopic HIPK2 can restore p53 and Ser46 apoptotic activity and overcome chemoresistance , as shown in an ovarian cancer model resistant to cisplatin     .",
      "uaz-sentence-start": 696
    },
    {
      "cmu-sentence-epistemic-status": "hypothesis",
      "cmu-sentence-epistemic-value": 0.3,
      "component": "MedScan",
      "frame-file": "PMC2729407.cmu.medscan",
      "frame-id": "relm-PMC2729407-cmu-medscan-927",
      "passage-id": "pass-PMC2729407-UAZ-r1-59",
      "passage-number": 59,
      "passage-section-id": "s3",
      "passage-section-name": "N/A",
      "sentence": "Therefore, HIPK2 function/dysfunction can severely influence p53 oncosuppressor activity.",
      "text": "HIPK2 can restore p53",
      "uaz-sentence": "Therefore , HIPK2 function and dysfunction can severely influence p53 oncosuppressor activity .",
      "uaz-sentence-start": 1295
    },
    {
      "cmu-sentence-epistemic-status": "hypothesis",
      "cmu-sentence-epistemic-value": 0.3,
      "component": "MedScan",
      "frame-file": "PMC2729407.cmu.medscan",
      "frame-id": "relm-PMC2729407-cmu-medscan-929",
      "passage-id": "pass-PMC2729407-UAZ-r1-60",
      "passage-number": 60,
      "passage-section-id": "s3",
      "passage-section-name": "N/A",
      "sentence": "It has been shown that HIPK2 is activated by severe DNA damage , , , , that induces p53serine 46//46 phosphorylation that, in a feedback regulatory loop, strengthens the HIPK2 activity through a p53-mediated caspase-induced mechanism and selectively induces apoptotic genes while inhibits the cell-cycle arrest-related p21 and MDM2 genes , .",
      "text": "HIPK2 function/dysfunction can severely influence p53",
      "uaz-sentence": "It has been shown that HIPK2 is activated by severe DNA damage    ,    ,     ,     ,      that induces p53Ser46 phosphorylation that , in a feedback regulatory loop , strengthens the HIPK2 activity through a p53 mediated caspase induced mechanism      and selectively induces apoptotic genes while inhibits the cell-cycle arrest related p21 and MDM2 genes     ,     .",
      "uaz-sentence-start": 0
    }
  ],
  "model_relation": "extension",
  "pmc_id": "PMC2729407",
  "reader_type": "machine",
  "reading_complete": "2015-06-15T20:51:49Z",
  "reading_started": "2015-06-15T20:51:44Z",
  "submitter": "FRIES"
}
