{
  "evidence": ["As shown in , zinc supplementation fully restored HIPK2-induced p53AIP1-luc activity reduced by cobalt, while treatments with cobalt or zinc alone did not induce p53AIP1 luciferase activity.","zinc supplementation fully restored HIPK2-induced p53AIP1"],
  "extracted_information": {
    "interaction_type": "increases",
    "negative_information": false,
    "participant_a": {
      "entity_text": "zinc",
      "entity_type": "chemical",
      "identifier": "CHEBI:49972",
      "in_model": true
    },
    "participant_b": {
      "entity_text": "p53AIP1",
      "entity_type": "protein",
      "identifier": "Uniprot:Q9HCN2",
      "in_model": false
    }
  },
  "fries_provenance": [
    {
      "component": "MedScan",
      "frame-file": "PMC2729407.cmu.medscan",
      "frame-id": "relm-PMC2729407-cmu-medscan-897",
      "sentence": "As shown in , zinc supplementation fully restored HIPK2-induced p53AIP1-luc activity reduced by cobalt, while treatments with cobalt or zinc alone did not induce p53AIP1 luciferase activity.",
      "text": "zinc supplementation fully restored HIPK2-induced p53AIP1"
    }
  ],
  "model_relation": "extension",
  "pmc_id": "PMC2729407",
  "reader_type": "machine",
  "reading_complete": "2015-06-15T20:51:49Z",
  "reading_started": "2015-06-15T20:51:44Z",
  "submitter": "FRIES"
}
