{
  "evidence": ["( d ) The binding of NHERF1 to Fzd4 is caused by direct interactions .","As seen in          , NHERF1 co-immunoprecipitated with Fzd4 .","binding of NHERF1 to Fzd4","Further support to the conclusion that these interactions are direct is the demonstration that the interaction of recombinant NHERF1 with V537A-Fzd4 is very significantly reduced when compared to the wild type receptor .","NHERF1 binds Fzd4","NHERF1 co-immunoprecipitated with Fzd4","NHERF1 with V537A-Fzd4","The results , shown in          , demonstrate that recombinant NHERF1 binds Fzd4 , supporting the hypothesis that the interactions between NHERF1 and Fzd receptors are direct .","Therefore , NHERF1 binds Fzd4 via the receptor 's terminal PDZ ligand ."],
  "extracted_information": {
    "interaction_type": "binds",
    "negative_information": false,
    "participant_a": {
      "entity_text": "NHERF1",
      "entity_type": "protein",
      "identifier": "Uniprot:O14745",
      "in_model": true
    },
    "participant_b": {
      "entity_text": "Fzd4",
      "entity_type": "protein",
      "identifier": "Uniprot:Q9ULV1",
      "in_model": false
    }
  },
  "fries_provenance": [
    {
      "component": "REACH",
      "frame-file": "PMC2995822.uaz.events",
      "frame-id": "evem-PMC2995822-UAZ-r1-11-3-7",
      "passage-id": "pass-PMC2995822-UAZ-r1-11",
      "passage-number": 11,
      "passage-section-id": "S2",
      "passage-section-name": "N/A",
      "sentence": "As seen in          , NHERF1 co-immunoprecipitated with Fzd4 .",
      "text": "NHERF1 co-immunoprecipitated with Fzd4",
      "uaz-sentence": "As seen in          , NHERF1 co-immunoprecipitated with Fzd4 .",
      "uaz-sentence-start": 442
    },
    {
      "cmu-sentence-epistemic-status": "implication",
      "cmu-sentence-epistemic-value": 0.6,
      "component": "REACH",
      "frame-file": "PMC2995822.uaz.events",
      "frame-id": "evem-PMC2995822-UAZ-r1-11-7-9",
      "passage-id": "pass-PMC2995822-UAZ-r1-11",
      "passage-number": 11,
      "passage-section-id": "S2",
      "passage-section-name": "N/A",
      "sentence": "Therefore , NHERF1 binds Fzd4 via the receptor 's terminal PDZ ligand .",
      "text": "NHERF1 binds Fzd4",
      "uaz-sentence": "Therefore , NHERF1 binds Fzd4 via the receptor 's terminal PDZ ligand .",
      "uaz-sentence-start": 974
    },
    {
      "component": "REACH",
      "frame-file": "PMC2995822.uaz.events",
      "frame-id": "evem-PMC2995822-UAZ-r1-13-1-12",
      "passage-id": "pass-PMC2995822-UAZ-r1-13",
      "passage-number": 13,
      "passage-section-id": "S2",
      "passage-section-name": "N/A",
      "sentence": "The results , shown in          , demonstrate that recombinant NHERF1 binds Fzd4 , supporting the hypothesis that the interactions between NHERF1 and Fzd receptors are direct .",
      "text": "NHERF1 binds Fzd4",
      "uaz-event-epistemic-status": "hypothesis",
      "uaz-sentence": "The results , shown in          , demonstrate that recombinant NHERF1 binds Fzd4 , supporting the hypothesis that the interactions between NHERF1 and Fzd receptors are direct .",
      "uaz-sentence-start": 166
    },
    {
      "component": "REACH",
      "frame-file": "PMC2995822.uaz.events",
      "frame-id": "evem-PMC2995822-UAZ-r1-90-8-45",
      "passage-id": "pass-PMC2995822-UAZ-r1-90",
      "passage-number": 90,
      "passage-section-id": "fig-1",
      "passage-section-name": "fig-1",
      "sentence": "( d ) The binding of NHERF1 to Fzd4 is caused by direct interactions .",
      "text": "binding of NHERF1 to Fzd4",
      "uaz-sentence": "( d ) The binding of NHERF1 to Fzd4 is caused by direct interactions .",
      "uaz-sentence-start": 848
    },
    {
      "cmu-sentence-epistemic-status": "hypothesis",
      "cmu-sentence-epistemic-value": 0.3,
      "component": "MedScan",
      "frame-file": "PMC2995822.cmu.medscan",
      "frame-id": "relm-PMC2995822-cmu-medscan-522",
      "passage-id": "pass-PMC2995822-UAZ-r1-13",
      "passage-number": 13,
      "passage-section-id": "S2",
      "passage-section-name": "N/A",
      "sentence": "Further support to the conclusion that these interactions are direct is the demonstration that the interaction of recombinant NHERF1 with V537A-Fzd4 is very significantly reduced when compared to the wild type receptor .",
      "text": "NHERF1 with V537A-Fzd4",
      "uaz-sentence": "Further support to the conclusion that these interactions are direct is the demonstration that the interaction of recombinant NHERF1 with V537A-Fzd4 is very significantly reduced when compared to the wild type receptor            .",
      "uaz-sentence-start": 340
    }
  ],
  "model_relation": "extension",
  "pmc_id": "PMC2995822",
  "reader_type": "machine",
  "reading_complete": "2015-06-15T21:40:47Z",
  "reading_started": "2015-06-15T21:40:42Z",
  "submitter": "FRIES"
}
