{
  "evidence": ["c-Src by rapamycin","Consistent with the notion that cSrc is upstream of the EGFR, our findings also show that although the EGFR kinase inhibitor AG1478, inhibited EGFR autophosphorylation on Y1173 (not shown) and Erk1/2 as well as RSK activation , the activation of c-Src by rapamycin was not altered ; these data also demonstrate that AG1478 did not inhibit c-Src activity.","However, our findings reported here unravel a novel paradigm by which rapamycin regulates the EGFR via c-Src kinase and identify a hitherto undefined mechanism by which rapamycin promotes cell survival and drug resistance.","rapamycin activates c-Src"],
  "extracted_information": {
    "interaction_type": "increases",
    "negative_information": false,
    "participant_a": {
      "entity_text": "rapamycin",
      "entity_type": "chemical",
      "identifier": "CHEBI:9168",
      "in_model": false
    },
    "participant_b": {
      "entity_text": "c-Src",
      "entity_type": "protein",
      "identifier": "Uniprot:Q9H7V3",
      "in_model": true
    }
  },
  "fries_provenance": [
    {
      "cmu-sentence-epistemic-status": "implication",
      "cmu-sentence-epistemic-value": 0.6,
      "component": "MedScan",
      "frame-file": "PMC2653860.cmu.medscan",
      "frame-id": "relm-PMC2653860-cmu-medscan-778",
      "passage-id": "pass-PMC2653860-UAZ-r1-17",
      "passage-number": 17,
      "passage-section-id": "S2",
      "passage-section-name": "results|discussion",
      "sentence": "Consistent with the notion that cSrc is upstream of the EGFR, our findings also show that although the EGFR kinase inhibitor AG1478, inhibited EGFR autophosphorylation on Y1173 (not shown) and Erk1/2 as well as RSK activation , the activation of c-Src by rapamycin was not altered ; these data also demonstrate that AG1478 did not inhibit c-Src activity.",
      "text": "c-Src by rapamycin",
      "uaz-sentence": "Consistent with the notion that cSrc is upstream of the EGFR , our findings also show that although the EGFR kinase inhibitor AG1478 , inhibited EGFR autophosphorylation on Y1173 ( not shown ) and Erk1 and 2 as well as RSK activation          , the activation of c-Src by rapamycin was not altered          ; these data also demonstrate that AG1478 did not inhibit c-Src activity .",
      "uaz-sentence-start": 3257
    },
    {
      "cmu-sentence-epistemic-status": "belief",
      "cmu-sentence-epistemic-value": 0.9,
      "component": "MedScan",
      "frame-file": "PMC2653860.cmu.medscan",
      "frame-id": "relm-PMC2653860-cmu-medscan-786",
      "passage-id": "pass-PMC2653860-UAZ-r1-20",
      "passage-number": 20,
      "passage-section-id": "S2",
      "passage-section-name": "results|discussion",
      "sentence": "However, our findings reported here unravel a novel paradigm by which rapamycin regulates the EGFR via c-Src kinase and identify a hitherto undefined mechanism by which rapamycin promotes cell survival and drug resistance.",
      "text": "rapamycin activates c-Src",
      "uaz-sentence": "However , our findings reported here unravel a novel paradigm by which rapamycin regulates the EGFR via c-Src kinase and identify a hitherto undefined mechanism by which rapamycin promotes cell survival and drug resistance .",
      "uaz-sentence-start": 2150
    }
  ],
  "model_relation": "extension",
  "pmc_id": "PMC2653860",
  "reader_type": "machine",
  "reading_complete": "2015-06-15T20:39:20Z",
  "reading_started": "2015-06-15T20:39:15Z",
  "submitter": "FRIES"
}
