{
    "frames": [
        {
            "cell-type": [
                "WPE-stem cells"
            ], 
            "frame-id": "imp-PMC2831952-cmu-pradsys-307", 
            "frame-type": "implication", 
            "implication-type": "binds", 
            "object-meta": {
                "object-type": "meta-info", 
                "organization": "CMU"
            }, 
            "object-type": "frame", 
            "sentence": "sent-PMC2831952-cmu-124"
        }, 
        {
            "cell-type": [
                "malignant cells"
            ], 
            "frame-id": "imp-PMC2831952-cmu-pradsys-308", 
            "frame-type": "implication", 
            "implication-type": "binds", 
            "object-meta": {
                "object-type": "meta-info", 
                "organization": "CMU"
            }, 
            "object-type": "frame", 
            "sentence": "sent-PMC2831952-cmu-125"
        }, 
        {
            "cell-type": [
                "WPE-stem cells", 
                "single cells"
            ], 
            "frame-id": "imp-PMC2831952-cmu-pradsys-309", 
            "frame-type": "implication", 
            "implication-type": "binds", 
            "object-meta": {
                "object-type": "meta-info", 
                "organization": "CMU"
            }, 
            "object-type": "frame", 
            "sentence": "sent-PMC2831952-cmu-126"
        }, 
        {
            "cell-type": [
                "Arsenite-treated cells"
            ], 
            "frame-id": "imp-PMC2831952-cmu-pradsys-310", 
            "frame-type": "implication", 
            "implication-type": "binds", 
            "object-meta": {
                "object-type": "meta-info", 
                "organization": "CMU"
            }, 
            "object-type": "frame", 
            "sentence": "sent-PMC2831952-cmu-129"
        }, 
        {
            "cell-type": [
                "mesenchymal-like cells"
            ], 
            "frame-id": "imp-PMC2831952-cmu-pradsys-311", 
            "frame-type": "implication", 
            "implication-type": "binds", 
            "object-meta": {
                "object-type": "meta-info", 
                "organization": "CMU"
            }, 
            "object-type": "frame", 
            "sentence": "sent-PMC2831952-cmu-130"
        }, 
        {
            "assay-molecule": [
                "K5"
            ], 
            "cell-type": [
                "putative prostate epithelial SC/progenitor cells"
            ], 
            "frame-id": "imp-PMC2831952-cmu-pradsys-312", 
            "frame-type": "implication", 
            "implication-type": "binds", 
            "object-meta": {
                "object-type": "meta-info", 
                "organization": "CMU"
            }, 
            "object-type": "frame", 
            "sentence": "sent-PMC2831952-cmu-131"
        }, 
        {
            "assay-molecule": [
                "As-CSCs"
            ], 
            "cell-type": [
                "untreated cells"
            ], 
            "frame-id": "imp-PMC2831952-cmu-pradsys-313", 
            "frame-type": "implication", 
            "implication-type": "binds", 
            "object-meta": {
                "object-type": "meta-info", 
                "organization": "CMU"
            }, 
            "object-type": "frame", 
            "sentence": "sent-PMC2831952-cmu-133"
        }, 
        {
            "cell-type": [
                "viable cells"
            ], 
            "frame-id": "imp-PMC2831952-cmu-pradsys-314", 
            "frame-type": "implication", 
            "implication-type": "binds", 
            "object-meta": {
                "object-type": "meta-info", 
                "organization": "CMU"
            }, 
            "object-type": "frame", 
            "sentence": "sent-PMC2831952-cmu-135"
        }, 
        {
            "cell-type": [
                "adherent cells"
            ], 
            "frame-id": "imp-PMC2831952-cmu-pradsys-315", 
            "frame-type": "implication", 
            "implication-type": "binds", 
            "object-meta": {
                "object-type": "meta-info", 
                "organization": "CMU"
            }, 
            "object-type": "frame", 
            "sentence": "sent-PMC2831952-cmu-141", 
            "transfection-molecule": [
                "either control ( sphere"
            ]
        }, 
        {
            "cell-type": [
                "arsenite-exposed cells or either adherent or sphere control cells"
            ], 
            "frame-id": "imp-PMC2831952-cmu-pradsys-316", 
            "frame-type": "implication", 
            "implication-type": "binds", 
            "object-meta": {
                "object-type": "meta-info", 
                "organization": "CMU"
            }, 
            "object-type": "frame", 
            "sentence": "sent-PMC2831952-cmu-142"
        }, 
        {
            "cell-type": [
                "sphere cells", 
                "adherent cells"
            ], 
            "frame-id": "imp-PMC2831952-cmu-pradsys-317", 
            "frame-type": "implication", 
            "implication-type": "binds", 
            "object-meta": {
                "object-type": "meta-info", 
                "organization": "CMU"
            }, 
            "object-type": "frame", 
            "sentence": "sent-PMC2831952-cmu-143"
        }, 
        {
            "cell-type": [
                "adherent cells or pooled control cells"
            ], 
            "frame-id": "imp-PMC2831952-cmu-pradsys-318", 
            "frame-type": "implication", 
            "implication-type": "binds", 
            "object-meta": {
                "object-type": "meta-info", 
                "organization": "CMU"
            }, 
            "object-type": "frame", 
            "sentence": "sent-PMC2831952-cmu-144"
        }, 
        {
            "binds-controller": [
                "CSC phenotype acquisition"
            ], 
            "frame-id": "imp-PMC2831952-cmu-pradsys-319", 
            "frame-type": "implication", 
            "implication-type": "binds", 
            "object-meta": {
                "object-type": "meta-info", 
                "organization": "CMU"
            }, 
            "object-type": "frame", 
            "sentence": "sent-PMC2831952-cmu-146"
        }, 
        {
            "frame-id": "imp-PMC2831952-cmu-pradsys-320", 
            "frame-type": "implication", 
            "implication-type": "binds", 
            "object-meta": {
                "object-type": "meta-info", 
                "organization": "CMU"
            }, 
            "object-type": "frame", 
            "sentence": "sent-PMC2831952-cmu-148", 
            "transfection-molecule": [
                "ABCG2"
            ]
        }, 
        {
            "cell-type": [
                "SC/progenitor cells"
            ], 
            "frame-id": "imp-PMC2831952-cmu-pradsys-321", 
            "frame-type": "implication", 
            "implication-type": "binds", 
            "object-meta": {
                "object-type": "meta-info", 
                "organization": "CMU"
            }, 
            "object-type": "frame", 
            "sentence": "sent-PMC2831952-cmu-149"
        }, 
        {
            "cell-type": [
                "differentiated cells"
            ], 
            "frame-id": "imp-PMC2831952-cmu-pradsys-322", 
            "frame-type": "implication", 
            "implication-type": "binds", 
            "object-meta": {
                "object-type": "meta-info", 
                "organization": "CMU"
            }, 
            "object-type": "frame", 
            "sentence": "sent-PMC2831952-cmu-150"
        }, 
        {
            "binds-controller": [
                "SC marker p63"
            ], 
            "frame-id": "imp-PMC2831952-cmu-pradsys-323", 
            "frame-type": "implication", 
            "implication-type": "binds", 
            "object-meta": {
                "object-type": "meta-info", 
                "organization": "CMU"
            }, 
            "object-type": "frame", 
            "sentence": "sent-PMC2831952-cmu-155"
        }
    ], 
    "object-meta": {
        "component": "Pradeep-System", 
        "component-type": "machine", 
        "doc-id": "PMC2831952", 
        "object-type": "meta-info", 
        "organization": "CMU"
    }, 
    "object-type": "frame-collection"
}
