{
    "frames": [
        {
            "frame-id": "sent-PMC3963982-cmu-0", 
            "frame-type": "sentence", 
            "object-type": "frame", 
            "start-pos": {
                "object-type": "absolute-pos", 
                "offset": 0
            }, 
            "text": "XML Paper ( id '3963982 ' ) : 'Curcumin and Vitamin E Protect against Adverse Effects of Benzo [ a ] pyrene in Lung Epithelial Cells '"
        }, 
        {
            "frame-id": "sent-PMC3963982-cmu-1", 
            "frame-type": "sentence", 
            "object-type": "frame", 
            "start-pos": {
                "object-type": "absolute-pos", 
                "offset": 1
            }, 
            "text": "Introduction"
        }, 
        {
            "frame-id": "sent-PMC3963982-cmu-2", 
            "frame-type": "sentence", 
            "object-type": "frame", 
            "start-pos": {
                "object-type": "absolute-pos", 
                "offset": 2
            }, 
            "text": "Lung cancer is the leading cause of cancer death worldwide and is estimated to be responsible for 1.38 million deaths in 2013 [ 1 ] ."
        }, 
        {
            "frame-id": "sent-PMC3963982-cmu-3", 
            "frame-type": "sentence", 
            "object-type": "frame", 
            "start-pos": {
                "object-type": "absolute-pos", 
                "offset": 3
            }, 
            "text": "Cigarette smoking is the prominent cause of lung cancer , and polycyclic aromatic hydrocarbons ( PAHs ) , such as benzo [ a ] pyrene ( BaP ) , are the major carcinogens in cigarette smoke and play a critical role in lung carcinogenesis [ 2 ] ."
        }, 
        {
            "frame-id": "sent-PMC3963982-cmu-4", 
            "frame-type": "sentence", 
            "object-type": "frame", 
            "start-pos": {
                "object-type": "absolute-pos", 
                "offset": 4
            }, 
            "text": "BaP is known to be the most potent carcinogen and has been listed as a Group 1 carcinogen by the International Agency for Research on Cancer ( IARC ) ."
        }, 
        {
            "frame-id": "sent-PMC3963982-cmu-5", 
            "frame-type": "sentence", 
            "object-type": "frame", 
            "start-pos": {
                "object-type": "absolute-pos", 
                "offset": 5
            }, 
            "text": "BaP can be metabolized to its ultimate carcinogen , BaP-7,8-diol-9,10-epoxide ( BPDE ) , by cytochrome P450 ( CYPs ) enzymes ."
        }, 
        {
            "frame-id": "sent-PMC3963982-cmu-6", 
            "frame-type": "sentence", 
            "object-type": "frame", 
            "start-pos": {
                "object-type": "absolute-pos", 
                "offset": 6
            }, 
            "text": "BPDE then can either be detoxified by Phase II enzymes or covalently bound to DNA and cause DNA damage , which can further lead to genetic mutation [ 3 ] ."
        }, 
        {
            "frame-id": "sent-PMC3963982-cmu-7", 
            "frame-type": "sentence", 
            "object-type": "frame", 
            "start-pos": {
                "object-type": "absolute-pos", 
                "offset": 7
            }, 
            "text": "Research indicates that BaP elicits other toxic effects in target cells , such as oxidative stress ."
        }, 
        {
            "frame-id": "sent-PMC3963982-cmu-8", 
            "frame-type": "sentence", 
            "object-type": "frame", 
            "start-pos": {
                "object-type": "absolute-pos", 
                "offset": 8
            }, 
            "text": "For instance , BaP metabolites involved in the redox cycle produce reactive oxygen species ( ROS ) including superoxide anion radicals ( O2- ) and hydrogen peroxide ( H2O2 ) [ 4 ] ."
        }, 
        {
            "frame-id": "sent-PMC3963982-cmu-9", 
            "frame-type": "sentence", 
            "object-type": "frame", 
            "start-pos": {
                "object-type": "absolute-pos", 
                "offset": 9
            }, 
            "text": "Genetic mutations and free radicals/ROS resulting from BaP exposure play a vital role in lung carcinogenesis [ 5 ] ."
        }, 
        {
            "frame-id": "sent-PMC3963982-cmu-10", 
            "frame-type": "sentence", 
            "object-type": "frame", 
            "start-pos": {
                "object-type": "absolute-pos", 
                "offset": 10
            }, 
            "text": "The formation and persistence of BaP-DNA adducts is understood to be one of the first events in tumor initiation [ 6 ] ."
        }, 
        {
            "frame-id": "sent-PMC3963982-cmu-11", 
            "frame-type": "sentence", 
            "object-type": "frame", 
            "start-pos": {
                "object-type": "absolute-pos", 
                "offset": 11
            }, 
            "text": "BPDE-DNA adducts play an essential role in BaP-induced DNA damage , and the quantity of adducts may be an important determinant of the cell destination in response to BaP exposure [ 7 ] ."
        }, 
        {
            "frame-id": "sent-PMC3963982-cmu-12", 
            "frame-type": "sentence", 
            "object-type": "frame", 
            "start-pos": {
                "object-type": "absolute-pos", 
                "offset": 12
            }, 
            "text": "Besides the DNA-adducts , the induction of oxidative stress is another molecular mechanism through which BaP induces cytotoxicity ."
        }, 
        {
            "frame-id": "sent-PMC3963982-cmu-13", 
            "frame-type": "sentence", 
            "object-type": "frame", 
            "start-pos": {
                "object-type": "absolute-pos", 
                "offset": 13
            }, 
            "text": "Excessive ROS has shown carcinogenic , teratogenic , and mutagenic potential in cells ."
        }, 
        {
            "frame-id": "sent-PMC3963982-cmu-14", 
            "frame-type": "sentence", 
            "object-type": "frame", 
            "start-pos": {
                "object-type": "absolute-pos", 
                "offset": 14
            }, 
            "text": "For example , ROS can cause DNA damage resulting in the formation of 7,8-dihydro-8-oxo-2\u2032-deoxyguanosine ( 8-oxo-dGuo ) lesions [ 8 ] , [ 9 ] ."
        }, 
        {
            "frame-id": "sent-PMC3963982-cmu-15", 
            "frame-type": "sentence", 
            "object-type": "frame", 
            "start-pos": {
                "object-type": "absolute-pos", 
                "offset": 15
            }, 
            "text": "In response to DNA damage , the activation of cell cycle checkpoints is further needed to monitor the progress of the cell cycle ."
        }, 
        {
            "frame-id": "sent-PMC3963982-cmu-16", 
            "frame-type": "sentence", 
            "object-type": "frame", 
            "start-pos": {
                "object-type": "absolute-pos", 
                "offset": 16
            }, 
            "text": "G1/S phase checkpoints prevent the replication of damaged DNA , while G2/M checkpoints inhibit the segregation of damaged chromosomes during mitosis [ 10 ] ."
        }, 
        {
            "frame-id": "sent-PMC3963982-cmu-17", 
            "frame-type": "sentence", 
            "object-type": "frame", 
            "start-pos": {
                "object-type": "absolute-pos", 
                "offset": 17
            }, 
            "text": "Beyond oxidative and/or DNA damage , as well as alterations in the cell cycle , cells could respond to BaP through other molecular mechanisms ."
        }, 
        {
            "frame-id": "sent-PMC3963982-cmu-18", 
            "frame-type": "sentence", 
            "object-type": "frame", 
            "start-pos": {
                "object-type": "absolute-pos", 
                "offset": 18
            }, 
            "text": "The Phase I enzymes , CYP 1A1 and 1B1 , and Phase II enzymes , superoxide dismutase ( SOD ) and catechol-O-methyl transferases ( COMT ) are some of the enzymes responsible in metabolism of BaP ."
        }, 
        {
            "frame-id": "sent-PMC3963982-cmu-19", 
            "frame-type": "sentence", 
            "object-type": "frame", 
            "start-pos": {
                "object-type": "absolute-pos", 
                "offset": 19
            }, 
            "text": "Upon BaP exposure , Phase I enzymes are responsible for the transformation of BaP into its ultimate carcinogen , BPDE , while the Phase II drug-metabolizing enzyme , COMT , has been reported to inactivate BaP into less toxic or inactive metabolites [ 11 ] ."
        }, 
        {
            "frame-id": "sent-PMC3963982-cmu-20", 
            "frame-type": "sentence", 
            "object-type": "frame", 
            "start-pos": {
                "object-type": "absolute-pos", 
                "offset": 20
            }, 
            "text": "Similarly , molecular targets such as p53 , poly [ ADP-ribose ] polymerase 1 ( PARP-1 ) , and survivin could be activated by oxidative stress and/or genotoxic stress [ 12 ] - [ 14 ] ."
        }, 
        {
            "frame-id": "sent-PMC3963982-cmu-21", 
            "frame-type": "sentence", 
            "object-type": "frame", 
            "start-pos": {
                "object-type": "absolute-pos", 
                "offset": 21
            }, 
            "text": "The activation of p53 by PAHs alleviates MDM2-dependent inhibition of p53 activity [ 15 ] and further controls the cell cycle and regulated apoptosis in mammalian cells [ 16 ] , [ 17 ] ."
        }, 
        {
            "frame-id": "sent-PMC3963982-cmu-22", 
            "frame-type": "sentence", 
            "object-type": "frame", 
            "start-pos": {
                "object-type": "absolute-pos", 
                "offset": 22
            }, 
            "text": "PARP-1 is a DNA damage signaling molecule implicated in several crucial cellular processes : DNA replication , transcription , DNA repair , apoptosis , and genome stability [ 18 ] ."
        }, 
        {
            "frame-id": "sent-PMC3963982-cmu-23", 
            "frame-type": "sentence", 
            "object-type": "frame", 
            "start-pos": {
                "object-type": "absolute-pos", 
                "offset": 23
            }, 
            "text": "Survivin is a member of the inhibitor of apoptosis protein family and is another well-known protein critical to cell survival and it could possibly provide protection against cellular stress [ 19 ] ."
        }, 
        {
            "frame-id": "sent-PMC3963982-cmu-24", 
            "frame-type": "sentence", 
            "object-type": "frame", 
            "start-pos": {
                "object-type": "absolute-pos", 
                "offset": 24
            }, 
            "text": "Finally , Bcl-2 is involved in cell survival promotion whereas Bax expresses pro-apoptotic properties [ 20 ] , [ 21 ] ."
        }, 
        {
            "frame-id": "sent-PMC3963982-cmu-25", 
            "frame-type": "sentence", 
            "object-type": "frame", 
            "start-pos": {
                "object-type": "absolute-pos", 
                "offset": 25
            }, 
            "text": "Numerous natural compounds have demonstrated anti-cancer and/or chemopreventive effects upon ingestion [ 22 ] ."
        }, 
        {
            "frame-id": "sent-PMC3963982-cmu-26", 
            "frame-type": "sentence", 
            "object-type": "frame", 
            "start-pos": {
                "object-type": "absolute-pos", 
                "offset": 26
            }, 
            "text": "Curcumin , the active compound derived from turmeric , has exhibited chemopreventive potential against a variety of cancers , including lung cancer [ 23 ] \u2013 [ 25 ] ."
        }, 
        {
            "frame-id": "sent-PMC3963982-cmu-27", 
            "frame-type": "sentence", 
            "object-type": "frame", 
            "start-pos": {
                "object-type": "absolute-pos", 
                "offset": 27
            }, 
            "text": "Many beneficial effects caused by curcumin are attributed to its antioxidative properties since it is a powerful scavenger of the superoxide anion , the hydroxyl radical , and nitrogen dioxide [ 26 ] \u2013 [ 28 ] ."
        }, 
        {
            "frame-id": "sent-PMC3963982-cmu-28", 
            "frame-type": "sentence", 
            "object-type": "frame", 
            "start-pos": {
                "object-type": "absolute-pos", 
                "offset": 28
            }, 
            "text": "\u03b1-tocopherol , the most abundant and active vitamin E ( VE ) family member , also functions as a chain-breaking antioxidant that prevents the propagation of free radicals [ 29 ] ."
        }, 
        {
            "frame-id": "sent-PMC3963982-cmu-29", 
            "frame-type": "sentence", 
            "object-type": "frame", 
            "start-pos": {
                "object-type": "absolute-pos", 
                "offset": 29
            }, 
            "text": "As a potent antioxidant , VE has been implicated in the prevention of several cancers , particularly lung cancer [ 30 ] ."
        }, 
        {
            "frame-id": "sent-PMC3963982-cmu-30", 
            "frame-type": "sentence", 
            "object-type": "frame", 
            "start-pos": {
                "object-type": "absolute-pos", 
                "offset": 30
            }, 
            "text": "Although curcumin and VE can quench ROS formed from carcinogen exposure and may act as chemopreventive compounds functioning through their antioxidative properties , their molecular mechanisms against acute BaP exposure have not been fully characterized ."
        }, 
        {
            "frame-id": "sent-PMC3963982-cmu-31", 
            "frame-type": "sentence", 
            "object-type": "frame", 
            "start-pos": {
                "object-type": "absolute-pos", 
                "offset": 31
            }, 
            "text": "The overall objective of this study was therefore to elucidate the role of curcumin and VE in cellular remediation after acute exposure to BaP ."
        }, 
        {
            "frame-id": "sent-PMC3963982-cmu-32", 
            "frame-type": "sentence", 
            "object-type": "frame", 
            "start-pos": {
                "object-type": "absolute-pos", 
                "offset": 32
            }, 
            "text": "In the present study , normal human lung epithelial cells , BEAS-2B , were treated with BaP for 24 h , and then in an effort to prevent or eliminate cytotoxicity , oxidative stress , and DNA damage , cells were treated with curcumin or VE ."
        }, 
        {
            "frame-id": "sent-PMC3963982-cmu-33", 
            "frame-type": "sentence", 
            "object-type": "frame", 
            "start-pos": {
                "object-type": "absolute-pos", 
                "offset": 33
            }, 
            "text": "Additionally , the molecular mechanisms , including the regulation of metabolizing enzymes , alterations of cell cycle , and modulation of p53/PARP-1/survivin/Bax/Bcl-2 were investigated ."
        }, 
        {
            "frame-id": "sent-PMC3963982-cmu-34", 
            "frame-type": "sentence", 
            "object-type": "frame", 
            "start-pos": {
                "object-type": "absolute-pos", 
                "offset": 34
            }, 
            "text": "Methods and Materials"
        }, 
        {
            "frame-id": "sent-PMC3963982-cmu-35", 
            "frame-type": "sentence", 
            "object-type": "frame", 
            "start-pos": {
                "object-type": "absolute-pos", 
                "offset": 35
            }, 
            "text": "Chemicals"
        }, 
        {
            "frame-id": "sent-PMC3963982-cmu-36", 
            "frame-type": "sentence", 
            "object-type": "frame", 
            "start-pos": {
                "object-type": "absolute-pos", 
                "offset": 36
            }, 
            "text": "Curcumin ( 98 % pure ) , BaP , \u03b1-tocopherol succinate , and dimethylsulfoxide ( DMSO ) were purchased from Sigma Chemical Co. ( MO , USA ) ."
        }, 
        {
            "frame-id": "sent-PMC3963982-cmu-37", 
            "frame-type": "sentence", 
            "object-type": "frame", 
            "start-pos": {
                "object-type": "absolute-pos", 
                "offset": 37
            }, 
            "text": "Curcumin and \u03b1-tocopherol were dissolved in DMSO at a concentration of 50 \u03bcM and all the solutions were stored in a dark-colored bottle at \u221280\u00b0C as a stock solution ."
        }, 
        {
            "frame-id": "sent-PMC3963982-cmu-38", 
            "frame-type": "sentence", 
            "object-type": "frame", 
            "start-pos": {
                "object-type": "absolute-pos", 
                "offset": 38
            }, 
            "text": "The stock was diluted to the required concentration with growth media immediately before use ."
        }, 
        {
            "frame-id": "sent-PMC3963982-cmu-39", 
            "frame-type": "sentence", 
            "object-type": "frame", 
            "start-pos": {
                "object-type": "absolute-pos", 
                "offset": 39
            }, 
            "text": "3- ( 4,5-Dimethylthiazol-2-yl ) -2,5- diphenyltetrazolium bromide ( MTT ) was purchased from Usb Corporation ( CA , USA ) ."
        }, 
        {
            "frame-id": "sent-PMC3963982-cmu-40", 
            "frame-type": "sentence", 
            "object-type": "frame", 
            "start-pos": {
                "object-type": "absolute-pos", 
                "offset": 40
            }, 
            "text": "DNeasy Blood and Tissue kits were purchased from QIAGEN ( MD , USA ) ."
        }, 
        {
            "frame-id": "sent-PMC3963982-cmu-41", 
            "frame-type": "sentence", 
            "object-type": "frame", 
            "start-pos": {
                "object-type": "absolute-pos", 
                "offset": 41
            }, 
            "text": "Acetonitrile ( ACN ) and ammonium formate ( AF ) were purchased from Merck ( Darmstadt , Germany ) and HCl ( 1 N ) was from Fisher Scientific ( Fair Lawn , NJ ) ."
        }, 
        {
            "frame-id": "sent-PMC3963982-cmu-42", 
            "frame-type": "sentence", 
            "object-type": "frame", 
            "start-pos": {
                "object-type": "absolute-pos", 
                "offset": 42
            }, 
            "text": "BaP-tetrol standards , including r-7 , c-10 , t-8 , t-9-tetrahydroxy-7,8,9,10-tetrahydrobenzo [ a ] pyrene ( BaP tetrol I-1 ) , and r-7 , t-9 , t-10 , t-8-tetrahydroxy-7,8,9,10-tetrahydrobenzo [ a ] pyrene ( BaP tetrol I-2 ) were purchased from the MRIGlobal Chemical Carcinogen Reference Standard Repository ( MO , USA ) ."
        }, 
        {
            "frame-id": "sent-PMC3963982-cmu-43", 
            "frame-type": "sentence", 
            "object-type": "frame", 
            "start-pos": {
                "object-type": "absolute-pos", 
                "offset": 43
            }, 
            "text": "Cell culture"
        }, 
        {
            "frame-id": "sent-PMC3963982-cmu-44", 
            "frame-type": "sentence", 
            "object-type": "frame", 
            "start-pos": {
                "object-type": "absolute-pos", 
                "offset": 44
            }, 
            "text": "Human bronchial epithelial cell line , BEAS-2B , was obtained from American Type Culture Collection ( ATCC ) ."
        }, 
        {
            "frame-id": "sent-PMC3963982-cmu-45", 
            "frame-type": "sentence", 
            "object-type": "frame", 
            "start-pos": {
                "object-type": "absolute-pos", 
                "offset": 45
            }, 
            "text": "The cells were cultured as described in our previous study [ 31 ] ."
        }, 
        {
            "frame-id": "sent-PMC3963982-cmu-46", 
            "frame-type": "sentence", 
            "object-type": "frame", 
            "start-pos": {
                "object-type": "absolute-pos", 
                "offset": 46
            }, 
            "text": "In brief , after the flasks/dishes/plates were coated , BEAS-2B cells were cultured in LHC-9 ( Life Technology , MI ) completed growth medium containing 50U penicillin/mL and 50 \u03bcg/mL streptomycin ."
        }, 
        {
            "frame-id": "sent-PMC3963982-cmu-47", 
            "frame-type": "sentence", 
            "object-type": "frame", 
            "start-pos": {
                "object-type": "absolute-pos", 
                "offset": 47
            }, 
            "text": "The cells were then incubated at 37\u00b0C in 95 % air and 5 % CO2 ."
        }, 
        {
            "frame-id": "sent-PMC3963982-cmu-48", 
            "frame-type": "sentence", 
            "object-type": "frame", 
            "start-pos": {
                "object-type": "absolute-pos", 
                "offset": 48
            }, 
            "text": "At 80 % confluence , cells were harvested using 0.05 % trypsin/EDTA solution ( HyClone ) and were then sub-cultured ."
        }, 
        {
            "frame-id": "sent-PMC3963982-cmu-49", 
            "frame-type": "sentence", 
            "object-type": "frame", 
            "start-pos": {
                "object-type": "absolute-pos", 
                "offset": 49
            }, 
            "text": "MTT assay"
        }, 
        {
            "frame-id": "sent-PMC3963982-cmu-50", 
            "frame-type": "sentence", 
            "object-type": "frame", 
            "start-pos": {
                "object-type": "absolute-pos", 
                "offset": 50
            }, 
            "text": "BEAS-2B cells were seeded into 96-well plates at a density of 1.3\u00d7104 cells/well ."
        }, 
        {
            "frame-id": "sent-PMC3963982-cmu-51", 
            "frame-type": "sentence", 
            "object-type": "frame", 
            "start-pos": {
                "object-type": "absolute-pos", 
                "offset": 51
            }, 
            "text": "Cells were treated with the following : 1 ) BaP alone ( 0\u201380 \u03bcM ) for 24 and 48 h ; 2 ) curcumin ( 0\u201380 \u03bcM ) or VE ( 0\u201380 \u03bcM ) individually for 24 , 48 , and 72 h ; 3 ) co-treatment with BaP ( 5 \u03bcM ) and curcumin ( 0\u201380 \u03bcM ) for 24 h ; and 4 ) co-treatment with BaP ( 5 \u03bcM ) and VE ( 0\u201380 \u03bcM ) for 24 h. The MTT solution ( 5 mg/mL ) was added to the cells and incubated for 3 h at 37\u00b0C ."
        }, 
        {
            "frame-id": "sent-PMC3963982-cmu-52", 
            "frame-type": "sentence", 
            "object-type": "frame", 
            "start-pos": {
                "object-type": "absolute-pos", 
                "offset": 52
            }, 
            "text": "After removal of the culture medium , the cells were dissolved by DMSO and absorbance was measured at 570 nm with a reference wavelength at 630 nm ."
        }, 
        {
            "frame-id": "sent-PMC3963982-cmu-53", 
            "frame-type": "sentence", 
            "object-type": "frame", 
            "start-pos": {
                "object-type": "absolute-pos", 
                "offset": 53
            }, 
            "text": "The results were expressed as the percent of viable cells compared to the vehicle controls ."
        }, 
        {
            "frame-id": "sent-PMC3963982-cmu-54", 
            "frame-type": "sentence", 
            "object-type": "frame", 
            "start-pos": {
                "object-type": "absolute-pos", 
                "offset": 54
            }, 
            "text": "ROS production"
        }, 
        {
            "frame-id": "sent-PMC3963982-cmu-55", 
            "frame-type": "sentence", 
            "object-type": "frame", 
            "start-pos": {
                "object-type": "absolute-pos", 
                "offset": 55
            }, 
            "text": "ROS formation in cells was detected using 2,7-dichlorofluorescein diacetate ( DCFDA ) ( Sigma Chemical Co. , MO ) as described previously [ 32 ] ."
        }, 
        {
            "frame-id": "sent-PMC3963982-cmu-56", 
            "frame-type": "sentence", 
            "object-type": "frame", 
            "start-pos": {
                "object-type": "absolute-pos", 
                "offset": 56
            }, 
            "text": "Briefly , cells were seeded into 96-well plates with different drug treatments for 24 h and were washed with 200 \u03bcL 1\u00d7 phosphate buffered saline ( PBS ) ."
        }, 
        {
            "frame-id": "sent-PMC3963982-cmu-57", 
            "frame-type": "sentence", 
            "object-type": "frame", 
            "start-pos": {
                "object-type": "absolute-pos", 
                "offset": 57
            }, 
            "text": "After washing , the cells were incubated at 37\u00b0C in 100 \u03bcL 1\u00d7 PBS containing 20 \u03bcM ( final concentration ) DCFDA for 45 min ."
        }, 
        {
            "frame-id": "sent-PMC3963982-cmu-58", 
            "frame-type": "sentence", 
            "object-type": "frame", 
            "start-pos": {
                "object-type": "absolute-pos", 
                "offset": 58
            }, 
            "text": "Then , the fluorescence released was measured at an excitation of 485 nm and emission of 535 nm ."
        }, 
        {
            "frame-id": "sent-PMC3963982-cmu-59", 
            "frame-type": "sentence", 
            "object-type": "frame", 
            "start-pos": {
                "object-type": "absolute-pos", 
                "offset": 59
            }, 
            "text": "The results were expressed as fold increase in fluorescence emission compared to the vehicle controls ."
        }, 
        {
            "frame-id": "sent-PMC3963982-cmu-60", 
            "frame-type": "sentence", 
            "object-type": "frame", 
            "start-pos": {
                "object-type": "absolute-pos", 
                "offset": 60
            }, 
            "text": "Flow cytometry"
        }, 
        {
            "frame-id": "sent-PMC3963982-cmu-61", 
            "frame-type": "sentence", 
            "object-type": "frame", 
            "start-pos": {
                "object-type": "absolute-pos", 
                "offset": 61
            }, 
            "text": "For cell cycle analysis , a total of 2\u00d7105 cells from each treatment group were collected and fixed in 70 % ethanol for more than 24 h at 4\u00b0C ."
        }, 
        {
            "frame-id": "sent-PMC3963982-cmu-62", 
            "frame-type": "sentence", 
            "object-type": "frame", 
            "start-pos": {
                "object-type": "absolute-pos", 
                "offset": 62
            }, 
            "text": "Cells were stained with Guava Cell Cycle Reagent ( Millipore Corporation , MA ) and run on a Guava EasyCyte Flow Cytometer ( Millipore ) ."
        }, 
        {
            "frame-id": "sent-PMC3963982-cmu-63", 
            "frame-type": "sentence", 
            "object-type": "frame", 
            "start-pos": {
                "object-type": "absolute-pos", 
                "offset": 63
            }, 
            "text": "A total of 5\u00d7103 events were counted and the percentage of cells in the pre-G1 , G0/G1 , S , and G2/M phases of the cell cycle were determined using GuavaSoft software ( Millipore ) ."
        }, 
        {
            "frame-id": "sent-PMC3963982-cmu-64", 
            "frame-type": "sentence", 
            "object-type": "frame", 
            "start-pos": {
                "object-type": "absolute-pos", 
                "offset": 64
            }, 
            "text": "Each sample was run in triplicate ."
        }, 
        {
            "frame-id": "sent-PMC3963982-cmu-65", 
            "frame-type": "sentence", 
            "object-type": "frame", 
            "start-pos": {
                "object-type": "absolute-pos", 
                "offset": 65
            }, 
            "text": "DNA adduct analysis"
        }, 
        {
            "frame-id": "sent-PMC3963982-cmu-66", 
            "frame-type": "sentence", 
            "object-type": "frame", 
            "start-pos": {
                "object-type": "absolute-pos", 
                "offset": 66
            }, 
            "text": "DNA adducts were measured for each DNA sample using high-performance liquid chromatography ( HPLC ) [ 33 ] , [ 34 ] ."
        }, 
        {
            "frame-id": "sent-PMC3963982-cmu-67", 
            "frame-type": "sentence", 
            "object-type": "frame", 
            "start-pos": {
                "object-type": "absolute-pos", 
                "offset": 67
            }, 
            "text": "Cells ( 2.5\u00d7106 cells ) were exposed to various test compounds for 24 h. After trypsinization , DNA was extracted from the cells using the DNeasy Blood and Tissue kit ( QIAGEN Sciences , MD ) , according to the manufacturer 's instructions , and the DNA quantity was estimated by Nano-Drop 1000 Spectrophotometer ( Thermo Scientific , Waltham , MA ) at 260/280 nm ."
        }, 
        {
            "frame-id": "sent-PMC3963982-cmu-68", 
            "frame-type": "sentence", 
            "object-type": "frame", 
            "start-pos": {
                "object-type": "absolute-pos", 
                "offset": 68
            }, 
            "text": "For analysis , DNA samples were dissolved in 0.1 N HCl and acid hydrolyzed at 90\u00b0C for 3 h ."
        }, 
        {
            "frame-id": "sent-PMC3963982-cmu-69", 
            "frame-type": "sentence", 
            "object-type": "frame", 
            "start-pos": {
                "object-type": "absolute-pos", 
                "offset": 69
            }, 
            "text": "The BPDE tetrol adducts were determined by HPLC , model 1100 ( Agilent Technologies , Wilmington , DE ) , equipped with a G1321A fluorescence detector , a G1313A Automatic Liquid Sampler , and a G1311A Quat Pump ."
        }, 
        {
            "frame-id": "sent-PMC3963982-cmu-70", 
            "frame-type": "sentence", 
            "object-type": "frame", 
            "start-pos": {
                "object-type": "absolute-pos", 
                "offset": 70
            }, 
            "text": "ChemStation ( Agilent Technologies ) was used for instrument control , data acquisition , and analyses ."
        }, 
        {
            "frame-id": "sent-PMC3963982-cmu-71", 
            "frame-type": "sentence", 
            "object-type": "frame", 
            "start-pos": {
                "object-type": "absolute-pos", 
                "offset": 71
            }, 
            "text": "In brief , 60 \u03bcL of each sample was injected onto a C18 column ( 5 \u03bcm , 4.6\u00d7250 mm ; W. R. Grace & Co , OR ) ."
        }, 
        {
            "frame-id": "sent-PMC3963982-cmu-72", 
            "frame-type": "sentence", 
            "object-type": "frame", 
            "start-pos": {
                "object-type": "absolute-pos", 
                "offset": 72
            }, 
            "text": "The column was eluted for 32 min at a flow rate of 1 mL/min ."
        }, 
        {
            "frame-id": "sent-PMC3963982-cmu-73", 
            "frame-type": "sentence", 
            "object-type": "frame", 
            "start-pos": {
                "object-type": "absolute-pos", 
                "offset": 73
            }, 
            "text": "The mobile phase consisted of Solvent A ( 5 % ACN with 10 mM AF ) and Solvent B ( 100 % ACN with 10 mM AF ) , and the gradient elution started with 10 % Solution B for 5 min , ramped to 100 % Solution B for 20 min , holding for 5 min , and returning to the initial gradient of 90\u223610 ( A\u2236B ) and holding for 7 min ."
        }, 
        {
            "frame-id": "sent-PMC3963982-cmu-74", 
            "frame-type": "sentence", 
            "object-type": "frame", 
            "start-pos": {
                "object-type": "absolute-pos", 
                "offset": 74
            }, 
            "text": "The excitation and emission wavelengths for the detector were 344 and 398 nm , respectively ."
        }, 
        {
            "frame-id": "sent-PMC3963982-cmu-75", 
            "frame-type": "sentence", 
            "object-type": "frame", 
            "start-pos": {
                "object-type": "absolute-pos", 
                "offset": 75
            }, 
            "text": "Identification of the metabolites was accomplished by comparison of retention times of the samples , with the standards ."
        }, 
        {
            "frame-id": "sent-PMC3963982-cmu-76", 
            "frame-type": "sentence", 
            "object-type": "frame", 
            "start-pos": {
                "object-type": "absolute-pos", 
                "offset": 76
            }, 
            "text": "The amount of adducts per \u03bcg of DNA sample were estimated using the standard curve generated by the fluorescence peak heights of an authentic BaP-tetrol standard ."
        }, 
        {
            "frame-id": "sent-PMC3963982-cmu-77", 
            "frame-type": "sentence", 
            "object-type": "frame", 
            "start-pos": {
                "object-type": "absolute-pos", 
                "offset": 77
            }, 
            "text": "Relative amounts of BPDE tetrols in each group were compared to the BaP group , in which the adduct amount was set at 100 % ."
        }, 
        {
            "frame-id": "sent-PMC3963982-cmu-78", 
            "frame-type": "sentence", 
            "object-type": "frame", 
            "start-pos": {
                "object-type": "absolute-pos", 
                "offset": 78
            }, 
            "text": "Quantitative real-time PCR ( qRT-PCR )"
        }, 
        {
            "frame-id": "sent-PMC3963982-cmu-79", 
            "frame-type": "sentence", 
            "object-type": "frame", 
            "start-pos": {
                "object-type": "absolute-pos", 
                "offset": 79
            }, 
            "text": "A one-step real time PCR ( RT-PCR ) kit with SYBR green was used for amplification of total RNA ( 50 ng ) ."
        }, 
        {
            "frame-id": "sent-PMC3963982-cmu-80", 
            "frame-type": "sentence", 
            "object-type": "frame", 
            "start-pos": {
                "object-type": "absolute-pos", 
                "offset": 80
            }, 
            "text": "Reactions were set-up following the manufacturer 's instructions ( Bio-Rad , CA ) ."
        }, 
        {
            "frame-id": "sent-PMC3963982-cmu-81", 
            "frame-type": "sentence", 
            "object-type": "frame", 
            "start-pos": {
                "object-type": "absolute-pos", 
                "offset": 81
            }, 
            "text": "Single-step RT-PCR amplifications were performed using the iCycler IQ ( Bio-Rad ) programmed for reverse transcription at 50\u00b0C for 15 min , denaturation and reverse transcriptase enzyme inactivation at 95\u00b0C for 5 min , followed by 40 cycles each containing 10 seconds for denaturation at 95\u00b0C and 30 seconds for annealing and extension at 60\u00b0C ."
        }, 
        {
            "frame-id": "sent-PMC3963982-cmu-82", 
            "frame-type": "sentence", 
            "object-type": "frame", 
            "start-pos": {
                "object-type": "absolute-pos", 
                "offset": 82
            }, 
            "text": "Specificity of the PCR products was confirmed by melt curve analysis ."
        }, 
        {
            "frame-id": "sent-PMC3963982-cmu-83", 
            "frame-type": "sentence", 
            "object-type": "frame", 
            "start-pos": {
                "object-type": "absolute-pos", 
                "offset": 83
            }, 
            "text": "Data were normalized to Ct values of GAPDH from the same sample and the fold-changes in the expression of each gene were calculated using the \u0394\u0394Ct method ."
        }, 
        {
            "frame-id": "sent-PMC3963982-cmu-84", 
            "frame-type": "sentence", 
            "object-type": "frame", 
            "start-pos": {
                "object-type": "absolute-pos", 
                "offset": 84
            }, 
            "text": "A non-template control was included in each experiment ."
        }, 
        {
            "frame-id": "sent-PMC3963982-cmu-85", 
            "frame-type": "sentence", 
            "object-type": "frame", 
            "start-pos": {
                "object-type": "absolute-pos", 
                "offset": 85
            }, 
            "text": "Primer sequences used are provided in Table 1 ."
        }, 
        {
            "frame-id": "sent-PMC3963982-cmu-86", 
            "frame-type": "sentence", 
            "object-type": "frame", 
            "start-pos": {
                "object-type": "absolute-pos", 
                "offset": 86
            }, 
            "text": "Western blot analysis"
        }, 
        {
            "frame-id": "sent-PMC3963982-cmu-87", 
            "frame-type": "sentence", 
            "object-type": "frame", 
            "start-pos": {
                "object-type": "absolute-pos", 
                "offset": 87
            }, 
            "text": "After drug treatment for 24 h , the cells were washed and lysed in RIPA lysis buffer ."
        }, 
        {
            "frame-id": "sent-PMC3963982-cmu-88", 
            "frame-type": "sentence", 
            "object-type": "frame", 
            "start-pos": {
                "object-type": "absolute-pos", 
                "offset": 88
            }, 
            "text": "Protein concentrations were measured using the Bio-Rad Bradford protein assay ( Bio-Rad Life Science , Hercules , CA ) ."
        }, 
        {
            "frame-id": "sent-PMC3963982-cmu-89", 
            "frame-type": "sentence", 
            "object-type": "frame", 
            "start-pos": {
                "object-type": "absolute-pos", 
                "offset": 89
            }, 
            "text": "Protein lysate was separated using 12 % SDS-polyacrylamide gel electrophoresis and then transferred to polyvinylidene fluoride ( PVDF ) membranes ."
        }, 
        {
            "frame-id": "sent-PMC3963982-cmu-90", 
            "frame-type": "sentence", 
            "object-type": "frame", 
            "start-pos": {
                "object-type": "absolute-pos", 
                "offset": 90
            }, 
            "text": "The immobilized proteins were then incubated in blocking buffer containing 3 % nonfat , dry milk in 1\u00d7PBS and 0.1 % Tween 20 ( 1\u00d7 PBST ) ."
        }, 
        {
            "frame-id": "sent-PMC3963982-cmu-91", 
            "frame-type": "sentence", 
            "object-type": "frame", 
            "start-pos": {
                "object-type": "absolute-pos", 
                "offset": 91
            }, 
            "text": "After blocking , the membranes were probed with the appropriate primary antibody overnight at 4\u00b0C ."
        }, 
        {
            "frame-id": "sent-PMC3963982-cmu-92", 
            "frame-type": "sentence", 
            "object-type": "frame", 
            "start-pos": {
                "object-type": "absolute-pos", 
                "offset": 92
            }, 
            "text": "Immunoblotting was performed using phospho-p53 ( Ser15 ) ( p-p53 ) , p53 , PARP-1 , COMT , SOD-1 , and survivin ( Santa Cruz Biotechnology , Santa Cruz , CA ) , and \u03b1-tubulin ( for the internal control , Cell Signaling ) ."
        }, 
        {
            "frame-id": "sent-PMC3963982-cmu-93", 
            "frame-type": "sentence", 
            "object-type": "frame", 
            "start-pos": {
                "object-type": "absolute-pos", 
                "offset": 93
            }, 
            "text": "After washing , the membranes were incubated with the corresponding secondary antibody ( Santa Cruz ) for 1 h at room temperature ."
        }, 
        {
            "frame-id": "sent-PMC3963982-cmu-94", 
            "frame-type": "sentence", 
            "object-type": "frame", 
            "start-pos": {
                "object-type": "absolute-pos", 
                "offset": 94
            }, 
            "text": "After a brief incubation with enhanced chemiluminescence , the blots on the membrane were exposed to X-ray film ( Fujifilm Corporation , Tokyo ) ."
        }, 
        {
            "frame-id": "sent-PMC3963982-cmu-95", 
            "frame-type": "sentence", 
            "object-type": "frame", 
            "start-pos": {
                "object-type": "absolute-pos", 
                "offset": 95
            }, 
            "text": "Statistical analyses"
        }, 
        {
            "frame-id": "sent-PMC3963982-cmu-96", 
            "frame-type": "sentence", 
            "object-type": "frame", 
            "start-pos": {
                "object-type": "absolute-pos", 
                "offset": 96
            }, 
            "text": "Factorial analysis of variance ( ANOVA ) was performed to test the effects of BaP , curcumin , and/or VE on cell viability , ROS production , and DNA adducts ."
        }, 
        {
            "frame-id": "sent-PMC3963982-cmu-97", 
            "frame-type": "sentence", 
            "object-type": "frame", 
            "start-pos": {
                "object-type": "absolute-pos", 
                "offset": 97
            }, 
            "text": "Probit analysis was performed to calculate the IC50s ."
        }, 
        {
            "frame-id": "sent-PMC3963982-cmu-98", 
            "frame-type": "sentence", 
            "object-type": "frame", 
            "start-pos": {
                "object-type": "absolute-pos", 
                "offset": 98
            }, 
            "text": "Protein/band intensity in western blots was determined using Quantity One software and each protein tested was compared to the internal control , \u03b1-tubulin ."
        }, 
        {
            "frame-id": "sent-PMC3963982-cmu-99", 
            "frame-type": "sentence", 
            "object-type": "frame", 
            "start-pos": {
                "object-type": "absolute-pos", 
                "offset": 99
            }, 
            "text": "One-way ANOVA was used to determine the difference in gene and protein expression between groups ."
        }, 
        {
            "frame-id": "sent-PMC3963982-cmu-100", 
            "frame-type": "sentence", 
            "object-type": "frame", 
            "start-pos": {
                "object-type": "absolute-pos", 
                "offset": 100
            }, 
            "text": "All analyses were performed using SPSS 13.0 software ."
        }, 
        {
            "frame-id": "sent-PMC3963982-cmu-101", 
            "frame-type": "sentence", 
            "object-type": "frame", 
            "start-pos": {
                "object-type": "absolute-pos", 
                "offset": 101
            }, 
            "text": "Differences at P < 0.05 were considered statistically significant ."
        }, 
        {
            "frame-id": "sent-PMC3963982-cmu-102", 
            "frame-type": "sentence", 
            "object-type": "frame", 
            "start-pos": {
                "object-type": "absolute-pos", 
                "offset": 102
            }, 
            "text": "Results"
        }, 
        {
            "frame-id": "sent-PMC3963982-cmu-103", 
            "frame-type": "sentence", 
            "object-type": "frame", 
            "start-pos": {
                "object-type": "absolute-pos", 
                "offset": 103
            }, 
            "text": "Curcumin and VE decrease BaP-induced cytotoxicity"
        }, 
        {
            "frame-id": "sent-PMC3963982-cmu-104", 
            "frame-type": "sentence", 
            "object-type": "frame", 
            "start-pos": {
                "object-type": "absolute-pos", 
                "offset": 104
            }, 
            "text": "The effect of BaP on the cytotoxicity of BEAS-2B cells was determined by MTT assay ."
        }, 
        {
            "frame-id": "sent-PMC3963982-cmu-105", 
            "frame-type": "sentence", 
            "object-type": "frame", 
            "start-pos": {
                "object-type": "absolute-pos", 
                "offset": 105
            }, 
            "text": "After 24 and 48 h of treatment , BaP ( 1.25\u201380 \u03bcM ) was found to induce cytotoxicity in a dose-dependent manner ( Figure 1 ) ."
        }, 
        {
            "frame-id": "sent-PMC3963982-cmu-106", 
            "frame-type": "sentence", 
            "object-type": "frame", 
            "start-pos": {
                "object-type": "absolute-pos", 
                "offset": 106
            }, 
            "text": "Since BaP at concentrations greater than 5 \u03bcM induced significant cytotoxicity in BEAS-2B cells compared to the control and 5 \u03bcM of BaP was an environmentally and occupationally relevant concentration , this dose was used in subsequent experiments ."
        }, 
        {
            "frame-id": "sent-PMC3963982-cmu-107", 
            "frame-type": "sentence", 
            "object-type": "frame", 
            "start-pos": {
                "object-type": "absolute-pos", 
                "offset": 107
            }, 
            "text": "To determine curcumin- or VE- induced cytotoxicity in BEAS-2B cells , cells were cultured in the absence ( vehicle control ) or presence of curcumin or VE at concentrations of 1.25\u201380 \u03bcM ."
        }, 
        {
            "frame-id": "sent-PMC3963982-cmu-108", 
            "frame-type": "sentence", 
            "object-type": "frame", 
            "start-pos": {
                "object-type": "absolute-pos", 
                "offset": 108
            }, 
            "text": "As shown in Figures 2A & 3A , BEAS-2B cell growth was significantly inhibited in a dose- and time-dependent manner ( P < 0.01 ) ."
        }, 
        {
            "frame-id": "sent-PMC3963982-cmu-109", 
            "frame-type": "sentence", 
            "object-type": "frame", 
            "start-pos": {
                "object-type": "absolute-pos", 
                "offset": 109
            }, 
            "text": "The IC50s of curcumin in BEAS-2B cells are 21 , 19 , and 17 \u03bcM at 24 , 48 , and 72 h , respectively ."
        }, 
        {
            "frame-id": "sent-PMC3963982-cmu-110", 
            "frame-type": "sentence", 
            "object-type": "frame", 
            "start-pos": {
                "object-type": "absolute-pos", 
                "offset": 110
            }, 
            "text": "For VE , IC50s can be observed at 48 and 72 h at 47 and 35 \u03bcM , respectively ."
        }, 
        {
            "frame-id": "sent-PMC3963982-cmu-111", 
            "frame-type": "sentence", 
            "object-type": "frame", 
            "start-pos": {
                "object-type": "absolute-pos", 
                "offset": 111
            }, 
            "text": "The possible protective effects of curcumin and VE on BaP-induced cytotoxicity were then examined ."
        }, 
        {
            "frame-id": "sent-PMC3963982-cmu-112", 
            "frame-type": "sentence", 
            "object-type": "frame", 
            "start-pos": {
                "object-type": "absolute-pos", 
                "offset": 112
            }, 
            "text": "As shown in Figure 2B , the number of viable cells exposed to 5 \u03bcM BaP was 76 % of the control , and the number of viable cells co-treated with curcumin at 1.25 , 2.5 , and 5 \u03bcM increased in a significant manner to 88 , 92 , and 93 % , respectively ( P < 0.05 , BaP+Curcumin vs. BaP ) ."
        }, 
        {
            "frame-id": "sent-PMC3963982-cmu-113", 
            "frame-type": "sentence", 
            "object-type": "frame", 
            "start-pos": {
                "object-type": "absolute-pos", 
                "offset": 113
            }, 
            "text": "Similar results can be found in Figure 3B , when cells co-treated with 5 , 10 , and 20 \u03bcM VE viable cells increased y to 96 , 99 , and 99 % , respectively ( P < 0.01 , BaP+VE vs. BaP ) ."
        }, 
        {
            "frame-id": "sent-PMC3963982-cmu-114", 
            "frame-type": "sentence", 
            "object-type": "frame", 
            "start-pos": {
                "object-type": "absolute-pos", 
                "offset": 114
            }, 
            "text": "Based on the cytoprotective data , 5 \u03bcM of curcumin and 20 \u03bcM of VE were used in the subsequent experiments ."
        }, 
        {
            "frame-id": "sent-PMC3963982-cmu-115", 
            "frame-type": "sentence", 
            "object-type": "frame", 
            "start-pos": {
                "object-type": "absolute-pos", 
                "offset": 115
            }, 
            "text": "Curcumin and VE act as a ROS scavenger"
        }, 
        {
            "frame-id": "sent-PMC3963982-cmu-116", 
            "frame-type": "sentence", 
            "object-type": "frame", 
            "start-pos": {
                "object-type": "absolute-pos", 
                "offset": 116
            }, 
            "text": "As shown in Figure 4 , treatment of cells with 5 \u03bcM BaP induced a 20 % increase in ROS production compared to the control ( P < 0.05 ) ."
        }, 
        {
            "frame-id": "sent-PMC3963982-cmu-117", 
            "frame-type": "sentence", 
            "object-type": "frame", 
            "start-pos": {
                "object-type": "absolute-pos", 
                "offset": 117
            }, 
            "text": "Treatment with curcumin or VE alone did not alter ROS levels compared to the untreated control group ."
        }, 
        {
            "frame-id": "sent-PMC3963982-cmu-118", 
            "frame-type": "sentence", 
            "object-type": "frame", 
            "start-pos": {
                "object-type": "absolute-pos", 
                "offset": 118
            }, 
            "text": "However , BaP-induced ROS production was significantly reduced to 85 % by curcumin ( P < 0.05 ) and to 72 % by VE ( P < 0.01 ) ."
        }, 
        {
            "frame-id": "sent-PMC3963982-cmu-119", 
            "frame-type": "sentence", 
            "object-type": "frame", 
            "start-pos": {
                "object-type": "absolute-pos", 
                "offset": 119
            }, 
            "text": "Effects of curcumin and VE on BaP-induced DNA adducts"
        }, 
        {
            "frame-id": "sent-PMC3963982-cmu-120", 
            "frame-type": "sentence", 
            "object-type": "frame", 
            "start-pos": {
                "object-type": "absolute-pos", 
                "offset": 120
            }, 
            "text": "The effects of curcumin and VE on BaP-induced DNA adducts are presented in Figure 5 ."
        }, 
        {
            "frame-id": "sent-PMC3963982-cmu-121", 
            "frame-type": "sentence", 
            "object-type": "frame", 
            "start-pos": {
                "object-type": "absolute-pos", 
                "offset": 121
            }, 
            "text": "The relative DNA adduct amounts show that BaP alone formed significant levels of DNA adducts after the exposure of BEAS-2B cells to 5 \u03bcM BaP for 24 h ( P < 0.01 ) ."
        }, 
        {
            "frame-id": "sent-PMC3963982-cmu-122", 
            "frame-type": "sentence", 
            "object-type": "frame", 
            "start-pos": {
                "object-type": "absolute-pos", 
                "offset": 122
            }, 
            "text": "Co-treatment of BaP with curcumin or VE resulted in the prevention of BPDE-DNA adduct formation in cells ."
        }, 
        {
            "frame-id": "sent-PMC3963982-cmu-123", 
            "frame-type": "sentence", 
            "object-type": "frame", 
            "start-pos": {
                "object-type": "absolute-pos", 
                "offset": 123
            }, 
            "text": "Compared to BaP alone , the relative BPDE-DNA adducts of cells co-treated with 5 \u03bcM curcumin or 20 \u03bcM VE significantly decreased to 7 % or 50 % , respectively ( P < 0.01 , BaP+Curcumin vs. BaP ; P < 0.01 , BaP + VE vs. BaP ) ."
        }, 
        {
            "frame-id": "sent-PMC3963982-cmu-124", 
            "frame-type": "sentence", 
            "object-type": "frame", 
            "start-pos": {
                "object-type": "absolute-pos", 
                "offset": 124
            }, 
            "text": "Effects of antioxidants on BaP-induced cell cycle phase distribution"
        }, 
        {
            "frame-id": "sent-PMC3963982-cmu-125", 
            "frame-type": "sentence", 
            "object-type": "frame", 
            "start-pos": {
                "object-type": "absolute-pos", 
                "offset": 125
            }, 
            "text": "Flow cytometry analysis revealed that treatment with 5 \u03bcM BaP for 24 h significantly decreased the number of cells in the G0/G1 phase by 11.9 % ( P < 0.05 ) , with a concomitant increase in the G2/M phase from 23.2 % to 32.7 % ( Table 2 ) ."
        }, 
        {
            "frame-id": "sent-PMC3963982-cmu-126", 
            "frame-type": "sentence", 
            "object-type": "frame", 
            "start-pos": {
                "object-type": "absolute-pos", 
                "offset": 126
            }, 
            "text": "The G2/M phase accumulation induced by BaP was suppressed 3.2 % by curcumin and 4.0 % by VE ."
        }, 
        {
            "frame-id": "sent-PMC3963982-cmu-127", 
            "frame-type": "sentence", 
            "object-type": "frame", 
            "start-pos": {
                "object-type": "absolute-pos", 
                "offset": 127
            }, 
            "text": "In addition , flow cytometry analysis showed no apoptotic cells in any groups ( data not shown ) ."
        }, 
        {
            "frame-id": "sent-PMC3963982-cmu-128", 
            "frame-type": "sentence", 
            "object-type": "frame", 
            "start-pos": {
                "object-type": "absolute-pos", 
                "offset": 128
            }, 
            "text": "Effect of curcumin and VE on BaP-involved metabolism"
        }, 
        {
            "frame-id": "sent-PMC3963982-cmu-129", 
            "frame-type": "sentence", 
            "object-type": "frame", 
            "start-pos": {
                "object-type": "absolute-pos", 
                "offset": 129
            }, 
            "text": "The effects of antioxidants on the BaP-induced expression of the CYP1 family ( CYP1A1 , 1B1 , and 1A2 ) and CYP3A4 in BEAS-2B cells were investigated ."
        }, 
        {
            "frame-id": "sent-PMC3963982-cmu-130", 
            "frame-type": "sentence", 
            "object-type": "frame", 
            "start-pos": {
                "object-type": "absolute-pos", 
                "offset": 130
            }, 
            "text": "CYP1A1 and CYP1B1 mRNA expression levels in the 24 h BaP-treated group were 140-fold ( P < 0.01 ) and 6-fold ( P < 0.05 ) greater than the control group , respectively ."
        }, 
        {
            "frame-id": "sent-PMC3963982-cmu-131", 
            "frame-type": "sentence", 
            "object-type": "frame", 
            "start-pos": {
                "object-type": "absolute-pos", 
                "offset": 131
            }, 
            "text": "However , BaP did not significantly induce CYP1A2 and CYP3A4 mRNA expression ( Figures 6A & 6B ) ."
        }, 
        {
            "frame-id": "sent-PMC3963982-cmu-132", 
            "frame-type": "sentence", 
            "object-type": "frame", 
            "start-pos": {
                "object-type": "absolute-pos", 
                "offset": 132
            }, 
            "text": "Furthermore , we explored whether the suppressive effect of antioxidants on BaP-DNA adduct formation was mediated through metabolic enzymes ."
        }, 
        {
            "frame-id": "sent-PMC3963982-cmu-133", 
            "frame-type": "sentence", 
            "object-type": "frame", 
            "start-pos": {
                "object-type": "absolute-pos", 
                "offset": 133
            }, 
            "text": "Although curcumin and VE markedly suppressed BaP-DNA adduct formation , CYP gene expression was not significantly changed after co-treatment with 5 \u03bcM curcumin or 20 \u03bcM VE ( Figures 6A & 6B ) ."
        }, 
        {
            "frame-id": "sent-PMC3963982-cmu-134", 
            "frame-type": "sentence", 
            "object-type": "frame", 
            "start-pos": {
                "object-type": "absolute-pos", 
                "offset": 134
            }, 
            "text": "The effects of BaP on Phase II enzymes , COMT and SOD-1 , were evaluated by western blot ( data not shown ) ."
        }, 
        {
            "frame-id": "sent-PMC3963982-cmu-135", 
            "frame-type": "sentence", 
            "object-type": "frame", 
            "start-pos": {
                "object-type": "absolute-pos", 
                "offset": 135
            }, 
            "text": "BaP-treated cells did not show significant changes in SOD-1 protein expression compared to the vehicle control , while curcumin and VE did not alter SOD-1 expression ."
        }, 
        {
            "frame-id": "sent-PMC3963982-cmu-136", 
            "frame-type": "sentence", 
            "object-type": "frame", 
            "start-pos": {
                "object-type": "absolute-pos", 
                "offset": 136
            }, 
            "text": "COMT western blots demonstrated that membrane-bound COMT had no significant changes among any groups but soluble COMT was significantly up-regulated in BaP-exposed cells after VE treatment compare to that in BaP alone ( P < 0.05 ; data not shown ) ."
        }, 
        {
            "frame-id": "sent-PMC3963982-cmu-137", 
            "frame-type": "sentence", 
            "object-type": "frame", 
            "start-pos": {
                "object-type": "absolute-pos", 
                "offset": 137
            }, 
            "text": "Effects of curcumin and VE on protein expression and/or activation of p53 , PARP-1 , and survivin , and mRNA expression of Bax/Bcl-2"
        }, 
        {
            "frame-id": "sent-PMC3963982-cmu-138", 
            "frame-type": "sentence", 
            "object-type": "frame", 
            "start-pos": {
                "object-type": "absolute-pos", 
                "offset": 138
            }, 
            "text": "As shown in Figures 7A & 7B , further analysis of the p53 pathway showed no difference in the level of total cellular p53 between control- and BaP-treated cells ."
        }, 
        {
            "frame-id": "sent-PMC3963982-cmu-139", 
            "frame-type": "sentence", 
            "object-type": "frame", 
            "start-pos": {
                "object-type": "absolute-pos", 
                "offset": 139
            }, 
            "text": "However , phosphorylation of p53 at Ser15 ( p-p53 ) was markedly increased following BaP exposure in BEAS-2B cells ( P < 0.01 ) ."
        }, 
        {
            "frame-id": "sent-PMC3963982-cmu-140", 
            "frame-type": "sentence", 
            "object-type": "frame", 
            "start-pos": {
                "object-type": "absolute-pos", 
                "offset": 140
            }, 
            "text": "Although curcumin or VE by itself did not alter the expression level of p-p53 compared to the control , BaP-induced p-p53 was significantly diminished in the presence of 5 \u03bcM curcumin and 20 \u03bcM VE ( P < 0.01 ) ."
        }, 
        {
            "frame-id": "sent-PMC3963982-cmu-141", 
            "frame-type": "sentence", 
            "object-type": "frame", 
            "start-pos": {
                "object-type": "absolute-pos", 
                "offset": 141
            }, 
            "text": "After 24 h of BaP exposure , PARP-1 protein expression significantly increased compared to the vehicle control ( P < 0.05 ) and co-treatment with curcumin or VE resulted in a significant decrease in BaP-induced PARP-1 ( P < 0.05 ) ( Figures 7A & 7B ) ."
        }, 
        {
            "frame-id": "sent-PMC3963982-cmu-142", 
            "frame-type": "sentence", 
            "object-type": "frame", 
            "start-pos": {
                "object-type": "absolute-pos", 
                "offset": 142
            }, 
            "text": "Survivin displayed a significant decrease in protein expression after BaP exposure ( P < 0.05 , Figures 7A & 7B ) ."
        }, 
        {
            "frame-id": "sent-PMC3963982-cmu-143", 
            "frame-type": "sentence", 
            "object-type": "frame", 
            "start-pos": {
                "object-type": "absolute-pos", 
                "offset": 143
            }, 
            "text": "Curcumin and VE by itself did not alter the expression levels of survivin compared to the control ."
        }, 
        {
            "frame-id": "sent-PMC3963982-cmu-144", 
            "frame-type": "sentence", 
            "object-type": "frame", 
            "start-pos": {
                "object-type": "absolute-pos", 
                "offset": 144
            }, 
            "text": "However , exposed cells treated with BaP+Curcumin significantly up-regulated survivin expression compared to the BaP group ( P < 0.05 ) ."
        }, 
        {
            "frame-id": "sent-PMC3963982-cmu-145", 
            "frame-type": "sentence", 
            "object-type": "frame", 
            "start-pos": {
                "object-type": "absolute-pos", 
                "offset": 145
            }, 
            "text": "Finally , the ratio of Bax/Bcl-2 was significantly increased in cells treated with BaP ( P < 0.05 ) , but decreased in cells treated with VE compared to the vehicle control ( P < 0.01 ) ."
        }, 
        {
            "frame-id": "sent-PMC3963982-cmu-146", 
            "frame-type": "sentence", 
            "object-type": "frame", 
            "start-pos": {
                "object-type": "absolute-pos", 
                "offset": 146
            }, 
            "text": "Moreover , the ratio of Bax/Bcl-2 was significantly decreased after cells were treated with BaP+VE compared to those with BaP alone ( P < 0.05 ) ."
        }, 
        {
            "frame-id": "sent-PMC3963982-cmu-147", 
            "frame-type": "sentence", 
            "object-type": "frame", 
            "start-pos": {
                "object-type": "absolute-pos", 
                "offset": 147
            }, 
            "text": "Discussion"
        }, 
        {
            "frame-id": "sent-PMC3963982-cmu-148", 
            "frame-type": "sentence", 
            "object-type": "frame", 
            "start-pos": {
                "object-type": "absolute-pos", 
                "offset": 148
            }, 
            "text": "In the present study , the antioxidants curcumin and VE demonstrated significant cytoprotective effects against BaP-induced cytotoxicity in BEAS-2B cells by decreasing ROS production ."
        }, 
        {
            "frame-id": "sent-PMC3963982-cmu-149", 
            "frame-type": "sentence", 
            "object-type": "frame", 
            "start-pos": {
                "object-type": "absolute-pos", 
                "offset": 149
            }, 
            "text": "Furthermore , increased p53 activation and PARP-1 expression induced by BaP were reduced after treatment with curcumin and VE ."
        }, 
        {
            "frame-id": "sent-PMC3963982-cmu-150", 
            "frame-type": "sentence", 
            "object-type": "frame", 
            "start-pos": {
                "object-type": "absolute-pos", 
                "offset": 150
            }, 
            "text": "Down-regulation of survivin occurred after BaP exposure , but curcumin treatment resulted in a significant increase in survivin expression in cells exposed to BaP ."
        }, 
        {
            "frame-id": "sent-PMC3963982-cmu-151", 
            "frame-type": "sentence", 
            "object-type": "frame", 
            "start-pos": {
                "object-type": "absolute-pos", 
                "offset": 151
            }, 
            "text": "To our knowledge , there is no report of the protective role of curcumin and VE against short-term BaP-induced cellular damage in human normal lung epithelial cells ."
        }, 
        {
            "frame-id": "sent-PMC3963982-cmu-152", 
            "frame-type": "sentence", 
            "object-type": "frame", 
            "start-pos": {
                "object-type": "absolute-pos", 
                "offset": 152
            }, 
            "text": "Therefore , this is the first study demonstrating the protective potential of curcumin and VE and their mechanisms of action in normal lung epithelial cells after acute BaP exposure ."
        }, 
        {
            "frame-id": "sent-PMC3963982-cmu-153", 
            "frame-type": "sentence", 
            "object-type": "frame", 
            "start-pos": {
                "object-type": "absolute-pos", 
                "offset": 153
            }, 
            "text": "Both curcumin and VE shared similar chemoprotective effects against BaP exposure potentially through their common antioxidative properties , as well as other unique pathways to these two natural compounds ."
        }, 
        {
            "frame-id": "sent-PMC3963982-cmu-154", 
            "frame-type": "sentence", 
            "object-type": "frame", 
            "start-pos": {
                "object-type": "absolute-pos", 
                "offset": 154
            }, 
            "text": "The dose of BaP used in this experiment , 5 \u03bcM , is regarded as an environmentally and occupationally relevant concentration [ 31 ] , [ 35 ] , [ 36 ] , and this dose is a commonly used concentration in toxicity studies using human cell lines or tissues [ 35 ] \u2013 [ 38 ] ."
        }, 
        {
            "frame-id": "sent-PMC3963982-cmu-155", 
            "frame-type": "sentence", 
            "object-type": "frame", 
            "start-pos": {
                "object-type": "absolute-pos", 
                "offset": 155
            }, 
            "text": "In the present study , cytotoxicity and DNA damage were observed in the BEAS-2B cells at this concentration , suggesting this dose could be potentially harmful for human populations that are exposed to BaP through environmental and/or occupational sources ."
        }, 
        {
            "frame-id": "sent-PMC3963982-cmu-156", 
            "frame-type": "sentence", 
            "object-type": "frame", 
            "start-pos": {
                "object-type": "absolute-pos", 
                "offset": 156
            }, 
            "text": "However , no apoptotic cells were observed after this short-term BaP exposure , suggesting the occurrence of cellular growth inhibition/arrest instead of apoptosis after acute BaP exposure ."
        }, 
        {
            "frame-id": "sent-PMC3963982-cmu-157", 
            "frame-type": "sentence", 
            "object-type": "frame", 
            "start-pos": {
                "object-type": "absolute-pos", 
                "offset": 157
            }, 
            "text": "Curcumin has been shown to exhibit pleiotropic effects on cell death and survival , such as at high concentrations it induces apoptosis or inhibits cell proliferation ; however , at low concentrations , it protects cells from various toxins [ 39 ] , [ 40 ] ."
        }, 
        {
            "frame-id": "sent-PMC3963982-cmu-158", 
            "frame-type": "sentence", 
            "object-type": "frame", 
            "start-pos": {
                "object-type": "absolute-pos", 
                "offset": 158
            }, 
            "text": "In the present study , curcumin at a low , non-cytotoxic concentration of 5 \u03bcM , protected against BaP-induced cytotoxicity ."
        }, 
        {
            "frame-id": "sent-PMC3963982-cmu-159", 
            "frame-type": "sentence", 
            "object-type": "frame", 
            "start-pos": {
                "object-type": "absolute-pos", 
                "offset": 159
            }, 
            "text": "This is consistent with other studies showing the protective effects of curcumin at this dose [ 41 ] , [ 42 ] ."
        }, 
        {
            "frame-id": "sent-PMC3963982-cmu-160", 
            "frame-type": "sentence", 
            "object-type": "frame", 
            "start-pos": {
                "object-type": "absolute-pos", 
                "offset": 160
            }, 
            "text": "Similar to curcumin , VE has been recognized to have biphasic attributes [ 43 ] ."
        }, 
        {
            "frame-id": "sent-PMC3963982-cmu-161", 
            "frame-type": "sentence", 
            "object-type": "frame", 
            "start-pos": {
                "object-type": "absolute-pos", 
                "offset": 161
            }, 
            "text": "In the present study , curcumin ( 5 \u03bcM ) and VE ( 20 \u03bcM ) were selected because these natural compounds showed no effects on cytotoxicity whereas this dose had the greatest protective effects against BaP-induced cytotoxicity ."
        }, 
        {
            "frame-id": "sent-PMC3963982-cmu-162", 
            "frame-type": "sentence", 
            "object-type": "frame", 
            "start-pos": {
                "object-type": "absolute-pos", 
                "offset": 162
            }, 
            "text": "The protective effects of curcumin and/or VE against oxidative damage have been reported in both animal and in vitro studies [ 44 ] \u2013 [ 46 ] ."
        }, 
        {
            "frame-id": "sent-PMC3963982-cmu-163", 
            "frame-type": "sentence", 
            "object-type": "frame", 
            "start-pos": {
                "object-type": "absolute-pos", 
                "offset": 163
            }, 
            "text": "In the present study , both curcumin and VE attenuated BaP-induced ROS production , demonstrating the direct scavenging effect of these antioxidants on free radicals ."
        }, 
        {
            "frame-id": "sent-PMC3963982-cmu-164", 
            "frame-type": "sentence", 
            "object-type": "frame", 
            "start-pos": {
                "object-type": "absolute-pos", 
                "offset": 164
            }, 
            "text": "These results are consistent with other studies that confirm the protective effects of curcumin and VE against oxidative stress related to BaP metabolism [ 47 ] , [ 48 ] ."
        }, 
        {
            "frame-id": "sent-PMC3963982-cmu-165", 
            "frame-type": "sentence", 
            "object-type": "frame", 
            "start-pos": {
                "object-type": "absolute-pos", 
                "offset": 165
            }, 
            "text": "Given the adverse cytotoxic effects resulted from ROS , the reduction in BaP-induced ROS by curcumin or VE treatment could lead to decreased cytotoxicity in BaP treated BEAS-2B cells ."
        }, 
        {
            "frame-id": "sent-PMC3963982-cmu-166", 
            "frame-type": "sentence", 
            "object-type": "frame", 
            "start-pos": {
                "object-type": "absolute-pos", 
                "offset": 166
            }, 
            "text": "Co-treatment with BaP and curcumin or VE resulted in the significant reduction of BPDE-DNA adduct formation in BEAS-2B cells ."
        }, 
        {
            "frame-id": "sent-PMC3963982-cmu-167", 
            "frame-type": "sentence", 
            "object-type": "frame", 
            "start-pos": {
                "object-type": "absolute-pos", 
                "offset": 167
            }, 
            "text": "It has been reported that the formation of DNA adducts induced by dimethyl benzanthracene ( carcinogenic PAH ) were suppressed by curcumin [ 49 ] ."
        }, 
        {
            "frame-id": "sent-PMC3963982-cmu-168", 
            "frame-type": "sentence", 
            "object-type": "frame", 
            "start-pos": {
                "object-type": "absolute-pos", 
                "offset": 168
            }, 
            "text": "Similarly , polyphenols inhibited BaP-derived DNA adduct formation in vitro in a dose-dependent manner [ 50 ] ."
        }, 
        {
            "frame-id": "sent-PMC3963982-cmu-169", 
            "frame-type": "sentence", 
            "object-type": "frame", 
            "start-pos": {
                "object-type": "absolute-pos", 
                "offset": 169
            }, 
            "text": "Currently , there are no studies reporting the attenuation of DNA adduct formation in BaP-treated cells after VE exposure , and the present study is the first to report the protective effects of VE against DNA damage caused by short-term BaP exposure ."
        }, 
        {
            "frame-id": "sent-PMC3963982-cmu-170", 
            "frame-type": "sentence", 
            "object-type": "frame", 
            "start-pos": {
                "object-type": "absolute-pos", 
                "offset": 170
            }, 
            "text": "The diminished DNA damage and ROS induction after curcumin and VE treatment was further reflected by the cell cycle analysis ."
        }, 
        {
            "frame-id": "sent-PMC3963982-cmu-171", 
            "frame-type": "sentence", 
            "object-type": "frame", 
            "start-pos": {
                "object-type": "absolute-pos", 
                "offset": 171
            }, 
            "text": "BaP induced cell cycle arrest at the G2/M phase , which is consistent with previous findings [ 10 ] ."
        }, 
        {
            "frame-id": "sent-PMC3963982-cmu-172", 
            "frame-type": "sentence", 
            "object-type": "frame", 
            "start-pos": {
                "object-type": "absolute-pos", 
                "offset": 172
            }, 
            "text": "Although 5 \u03bcM of curcumin and 20 \u03bcM of VE did not change the cell cycle of BEAS-2B with individual treatment , the fraction of cells in the G2/M phase after co-treatment of BaP and curcumin or VE were slightly but significantly decreased compared to the BaP alone group ."
        }, 
        {
            "frame-id": "sent-PMC3963982-cmu-173", 
            "frame-type": "sentence", 
            "object-type": "frame", 
            "start-pos": {
                "object-type": "absolute-pos", 
                "offset": 173
            }, 
            "text": "Among the four Phase I genes ( CYP1A1/1B1/1A2/3A4 ) measured , the mRNA level of CYP1B1 was the most abundant in BEAS-2B cells ."
        }, 
        {
            "frame-id": "sent-PMC3963982-cmu-174", 
            "frame-type": "sentence", 
            "object-type": "frame", 
            "start-pos": {
                "object-type": "absolute-pos", 
                "offset": 174
            }, 
            "text": "After BaP treatment , CYP1A1 and 1B1 were found to be significantly induced ."
        }, 
        {
            "frame-id": "sent-PMC3963982-cmu-175", 
            "frame-type": "sentence", 
            "object-type": "frame", 
            "start-pos": {
                "object-type": "absolute-pos", 
                "offset": 175
            }, 
            "text": "These findings are consistent with previous studies suggesting that CYP1A1 and CYP1B1 expression in lung tissue from smokers and ex-smokers is significantly greater than in non-smokers [ 51 ] , [ 52 ] ."
        }, 
        {
            "frame-id": "sent-PMC3963982-cmu-176", 
            "frame-type": "sentence", 
            "object-type": "frame", 
            "start-pos": {
                "object-type": "absolute-pos", 
                "offset": 176
            }, 
            "text": "Additionally , the expression levels of the four CYP genes analyzed were not significantly modified after BaP-treated cells were co-treated with curcumin and VE ."
        }, 
        {
            "frame-id": "sent-PMC3963982-cmu-177", 
            "frame-type": "sentence", 
            "object-type": "frame", 
            "start-pos": {
                "object-type": "absolute-pos", 
                "offset": 177
            }, 
            "text": "These data reveal that the decreased DNA damage after BaP exposed-cells co-treated with curcumin or VE is not a result of the induction/inhibition of CYP genes involved in BaP metabolism ."
        }, 
        {
            "frame-id": "sent-PMC3963982-cmu-178", 
            "frame-type": "sentence", 
            "object-type": "frame", 
            "start-pos": {
                "object-type": "absolute-pos", 
                "offset": 178
            }, 
            "text": "The Phase II enzyme , SOD , is essential for the elimination of ROS and studies have observed that in rats , a correlation between increased SOD expression and BaP exposure exists [ 53 ] and similarly , COMT has been known to detoxify B [ a ] P-7,8-dione [ 54 ] ."
        }, 
        {
            "frame-id": "sent-PMC3963982-cmu-179", 
            "frame-type": "sentence", 
            "object-type": "frame", 
            "start-pos": {
                "object-type": "absolute-pos", 
                "offset": 179
            }, 
            "text": "The unchanged SOD-1 and COMT protein levels after BaP exposure observed in the present study suggest that other Phase II enzymes might be involved in the detoxification of BaP-induced damage , which requires further study ."
        }, 
        {
            "frame-id": "sent-PMC3963982-cmu-180", 
            "frame-type": "sentence", 
            "object-type": "frame", 
            "start-pos": {
                "object-type": "absolute-pos", 
                "offset": 180
            }, 
            "text": "BaP-induced oxidative stress and mitochondrial dysfunction can induce p53 activation and aggravate p53-dependent apoptosis [ 15 ] , [ 16 ] ."
        }, 
        {
            "frame-id": "sent-PMC3963982-cmu-181", 
            "frame-type": "sentence", 
            "object-type": "frame", 
            "start-pos": {
                "object-type": "absolute-pos", 
                "offset": 181
            }, 
            "text": "In this study , it was found that co-treatment of BEAS-2B cells with curcumin or VE could reduce BaP-induced cytotoxicity and G2/M cell cycle arrest , as well as DNA adducts in BEAS-2B cells ."
        }, 
        {
            "frame-id": "sent-PMC3963982-cmu-182", 
            "frame-type": "sentence", 
            "object-type": "frame", 
            "start-pos": {
                "object-type": "absolute-pos", 
                "offset": 182
            }, 
            "text": "These findings were further supported by the fact that BaP-induced p53 activation ( phosphorylated at Ser15 of p53 ) and PARP-1 protein expression were attenuated after cells were co-treated with curcumin or VE ."
        }, 
        {
            "frame-id": "sent-PMC3963982-cmu-183", 
            "frame-type": "sentence", 
            "object-type": "frame", 
            "start-pos": {
                "object-type": "absolute-pos", 
                "offset": 183
            }, 
            "text": "It is recognized that phosphorylation of Ser15 in p53 is an early critical event in the stabilization and activation of p53 in response to genotoxicity [ 55 ] ."
        }, 
        {
            "frame-id": "sent-PMC3963982-cmu-184", 
            "frame-type": "sentence", 
            "object-type": "frame", 
            "start-pos": {
                "object-type": "absolute-pos", 
                "offset": 184
            }, 
            "text": "The decreased BaP-activated phospho-p53 expression could possibly be attributed to the decline in oxidative stress and DNA damage in BaP-exposed cells by both curcumin and VE ."
        }, 
        {
            "frame-id": "sent-PMC3963982-cmu-185", 
            "frame-type": "sentence", 
            "object-type": "frame", 
            "start-pos": {
                "object-type": "absolute-pos", 
                "offset": 185
            }, 
            "text": "In line with our findings , Tao et al found that BaP significantly augmented PARP-1 expression in human bronchial epithelial cells [ 14 ] ."
        }, 
        {
            "frame-id": "sent-PMC3963982-cmu-186", 
            "frame-type": "sentence", 
            "object-type": "frame", 
            "start-pos": {
                "object-type": "absolute-pos", 
                "offset": 186
            }, 
            "text": "Upon VE and curcumin treatment , BaP-induced PARP-1 levels were significantly decreased , implicating a reduction in DNA damage ."
        }, 
        {
            "frame-id": "sent-PMC3963982-cmu-187", 
            "frame-type": "sentence", 
            "object-type": "frame", 
            "start-pos": {
                "object-type": "absolute-pos", 
                "offset": 187
            }, 
            "text": "In addition to p53 and PARP-1 , survivin and Bax/Bcl-2 played critical roles in cell survival signaling [ 56 ] , [ 57 ] ."
        }, 
        {
            "frame-id": "sent-PMC3963982-cmu-188", 
            "frame-type": "sentence", 
            "object-type": "frame", 
            "start-pos": {
                "object-type": "absolute-pos", 
                "offset": 188
            }, 
            "text": "A significant decrease in survivin expression occurred in cells exposed to BaP , further validating the cytotoxicity data ."
        }, 
        {
            "frame-id": "sent-PMC3963982-cmu-189", 
            "frame-type": "sentence", 
            "object-type": "frame", 
            "start-pos": {
                "object-type": "absolute-pos", 
                "offset": 189
            }, 
            "text": "Curcumin elicited a significant increase in survivin expression that could potentially result in the survival of the BaP-damaged cells ."
        }, 
        {
            "frame-id": "sent-PMC3963982-cmu-190", 
            "frame-type": "sentence", 
            "object-type": "frame", 
            "start-pos": {
                "object-type": "absolute-pos", 
                "offset": 190
            }, 
            "text": "Furthermore , excess Bax can be deleterious to cell survival due to the promotion of Bax homodimers , while excess Bcl-2 was associated with cellular protection [ 20 ] , [ 21 ] ."
        }, 
        {
            "frame-id": "sent-PMC3963982-cmu-191", 
            "frame-type": "sentence", 
            "object-type": "frame", 
            "start-pos": {
                "object-type": "absolute-pos", 
                "offset": 191
            }, 
            "text": "The decreased ratio of Bax/Bcl-2 observed after VE treatment further indicated that the promoted cell growth/survival could be regulated by the Bcl-2 family in addition to the other signaling molecules such as p53 , PARP-1 , and survivin ."
        }, 
        {
            "frame-id": "sent-PMC3963982-cmu-192", 
            "frame-type": "sentence", 
            "object-type": "frame", 
            "start-pos": {
                "object-type": "absolute-pos", 
                "offset": 192
            }, 
            "text": "In summary , the exposure of BaP to normal human lung epithelial cells induced cytotoxicity , ROS generation , DNA damage , Phase I enzymes , cell cycle arrest , and p53/PARP-1/survivin alterations ."
        }, 
        {
            "frame-id": "sent-PMC3963982-cmu-193", 
            "frame-type": "sentence", 
            "object-type": "frame", 
            "start-pos": {
                "object-type": "absolute-pos", 
                "offset": 193
            }, 
            "text": "Both curcumin and VE by itself showed no adverse effects but provided protection against BaP-induced cytotoxicity through reducing ROS and DNA damage , and/or altering p53/PARP-1/survivin/Bax/Bcl-2 expression/activation in lung BEAS-2B cells ."
        }, 
        {
            "frame-id": "sent-PMC3963982-cmu-194", 
            "frame-type": "sentence", 
            "object-type": "frame", 
            "start-pos": {
                "object-type": "absolute-pos", 
                "offset": 194
            }, 
            "text": "Although this study revealed curcumin and VE to be promising chemoprotective agents , further studies are needed to address the effectiveness and molecular mechanisms underlying the protective effects of curcumin and VE in BaP-induced lung carcinogenesis using in vitro long-term exposure models as well as in vivo animal models ."
        }
    ], 
    "object-meta": {
        "component": "Nicolas-NXML-Parser", 
        "component-type": "machine", 
        "doc-id": "PMC3963982", 
        "object-type": "meta-info", 
        "organization": "CMU"
    }, 
    "object-type": "frame-collection"
}
