{
  "evidence": ["HDAC3 can functionally attenuate the CBP-upregulated GCMa","HDAC3 can reverse the stabilizing effect of CBP on GCMa by comparing the half-lives of GCMa","On the other hand , since acetylation of GCMa by CBP increases the stability of GCMa , we examined whether HDAC3 can reverse the stabilizing effect of CBP on GCMa by comparing the half-lives of GCMa in 293T cells transfected with different combinations of pHA-GCMa , pCBP-Flag and pHDAC3-Flag .","Our study identified HDAC3 as a key factor reversing GCMa acetylation and suggests that HDAC3 can functionally attenuate the CBP upregulated GCMa activity in the activated signaling pathway leading to placental cell fusion ."],
  "extracted_information": {
    "interaction_type": "decreases_activity",
    "negative_information": false,
    "participant_a": {
      "entity_text": "HDAC3",
      "entity_type": "protein",
      "identifier": "Uniprot:O15379",
      "in_model": false
    },
    "participant_b": {
      "entity_text": "GCMa",
      "entity_type": "protein",
      "identifier": "Uniprot:Q9NP62",
      "in_model": true
    }
  },
  "fries_provenance": [
    {
      "cmu-sentence-epistemic-status": "implication",
      "cmu-sentence-epistemic-value": 0.6,
      "component": "REACH",
      "frame-file": "PMC1401512.uaz.events",
      "frame-id": "evem-PMC1401512-UAZ-r1-50-9-88",
      "passage-id": "pass-PMC1401512-UAZ-r1-50",
      "passage-number": 50,
      "passage-section-id": "N/A",
      "passage-section-name": "N/A",
      "sentence": "On the other hand , since acetylation of GCMa by CBP increases the stability of GCMa , we examined whether HDAC3 can reverse the stabilizing effect of CBP on GCMa by comparing the half-lives of GCMa in 293T cells transfected with different combinations of pHA-GCMa , pCBP-Flag and pHDAC3-Flag .",
      "text": "HDAC3 can reverse the stabilizing effect of CBP on GCMa by comparing the half-lives of GCMa",
      "uaz-event-epistemic-status": "hypothesis",
      "uaz-sentence": "On the other hand , since acetylation of GCMa by CBP increases the stability of GCMa , we examined whether HDAC3 can reverse the stabilizing effect of CBP on GCMa by comparing the half-lives of GCMa in 293T cells transfected with different combinations of pHA-GCMa , pCBP-Flag and pHDAC3-Flag .",
      "uaz-sentence-start": 1336
    },
    {
      "cmu-sentence-epistemic-status": "implication",
      "cmu-sentence-epistemic-value": 0.6,
      "component": "REACH",
      "frame-file": "PMC1401512.uaz.events",
      "frame-id": "evem-PMC1401512-UAZ-r1-9-9-20",
      "passage-id": "pass-PMC1401512-UAZ-r1-9",
      "passage-number": 9,
      "passage-section-id": "N/A",
      "passage-section-name": "N/A",
      "sentence": "Our study identified HDAC3 as a key factor reversing GCMa acetylation and suggests that HDAC3 can functionally attenuate the CBP upregulated GCMa activity in the activated signaling pathway leading to placental cell fusion .",
      "text": "HDAC3 can functionally attenuate the CBP-upregulated GCMa",
      "uaz-event-epistemic-status": "hypothesis",
      "uaz-sentence": "Our study identified HDAC3 as a key factor reversing GCMa acetylation and suggests that HDAC3 can functionally attenuate the CBP upregulated GCMa activity in the activated signaling pathway leading to placental cell fusion .",
      "uaz-sentence-start": 1206
    }
  ],
  "model_relation": "extension",
  "pmc_id": "PMC1401512",
  "reader_type": "machine",
  "reading_complete": "2015-06-15T18:49:55Z",
  "reading_started": "2015-06-15T18:49:50Z",
  "submitter": "FRIES"
}
