{
    "frames": [
        {
            "frame-id": "smap-PMC3059992-cmu-1", 
            "frame-type": "sentence-map", 
            "list1-meta": {
                "component": "nxml2fries", 
                "object-type": "meta-info", 
                "organization": "UAZ"
            }, 
            "list2-meta": {
                "component": "Nicolas-NXML-Parser", 
                "object-type": "meta-info", 
                "organization": "CMU"
            }, 
            "map": [
                {
                    "from": "sent-PMC3059992-UAZ-r1-94-7", 
                    "object-type": "map-range", 
                    "to": "sent-PMC3059992-cmu-258"
                }, 
                {
                    "from": "sent-PMC3059992-UAZ-r1-28-3", 
                    "object-type": "map-range", 
                    "to": "sent-PMC3059992-cmu-55"
                }, 
                {
                    "from": "sent-PMC3059992-UAZ-r1-31-2", 
                    "object-type": "map-range", 
                    "to": "sent-PMC3059992-cmu-61"
                }, 
                {
                    "from": "sent-PMC3059992-UAZ-r1-78-3", 
                    "object-type": "map-range", 
                    "to": "sent-PMC3059992-cmu-163"
                }, 
                {
                    "from": "sent-PMC3059992-UAZ-r1-97-3", 
                    "object-type": "map-range", 
                    "to": "sent-PMC3059992-cmu-263"
                }, 
                {
                    "from": "sent-PMC3059992-UAZ-r1-93-4", 
                    "object-type": "map-range", 
                    "to": "sent-PMC3059992-cmu-248"
                }, 
                {
                    "from": "sent-PMC3059992-UAZ-r1-65-3", 
                    "object-type": "map-range", 
                    "to": "sent-PMC3059992-cmu-128"
                }, 
                {
                    "from": "sent-PMC3059992-UAZ-r1-61-3", 
                    "object-type": "map-range", 
                    "to": "sent-PMC3059992-cmu-116"
                }, 
                {
                    "from": "sent-PMC3059992-UAZ-r1-25-4", 
                    "object-type": "map-range", 
                    "to": "sent-PMC3059992-cmu-47"
                }, 
                {
                    "from": "sent-PMC3059992-UAZ-r1-90-3", 
                    "object-type": "map-range", 
                    "to": "sent-PMC3059992-cmu-215"
                }, 
                {
                    "from": "sent-PMC3059992-UAZ-r1-76-0", 
                    "object-type": "map-range", 
                    "to": "sent-PMC3059992-cmu-151"
                }, 
                {
                    "from": "sent-PMC3059992-UAZ-r1-89-11", 
                    "object-type": "map-range", 
                    "to": "sent-PMC3059992-cmu-205"
                }, 
                {
                    "from": "sent-PMC3059992-UAZ-r1-97-0", 
                    "object-type": "map-range", 
                    "to": "sent-PMC3059992-cmu-260"
                }, 
                {
                    "from": "sent-PMC3059992-UAZ-r1-89-13", 
                    "object-type": "map-range", 
                    "to": "sent-PMC3059992-cmu-207"
                }, 
                {
                    "from": "sent-PMC3059992-UAZ-r1-86-3", 
                    "object-type": "map-range", 
                    "to": "sent-PMC3059992-cmu-179"
                }, 
                {
                    "from": "sent-PMC3059992-UAZ-r1-65-2", 
                    "object-type": "map-range", 
                    "to": "sent-PMC3059992-cmu-127"
                }, 
                {
                    "from": "sent-PMC3059992-UAZ-r1-80-2", 
                    "object-type": "map-range", 
                    "to": "sent-PMC3059992-cmu-169"
                }, 
                {
                    "from": "sent-PMC3059992-UAZ-r1-69-0", 
                    "object-type": "map-range", 
                    "to": "sent-PMC3059992-cmu-135"
                }, 
                {
                    "from": "sent-PMC3059992-UAZ-r1-92-5", 
                    "object-type": "map-range", 
                    "to": "sent-PMC3059992-cmu-243"
                }, 
                {
                    "from": "sent-PMC3059992-UAZ-r1-86-2", 
                    "object-type": "map-range", 
                    "to": "sent-PMC3059992-cmu-178"
                }, 
                {
                    "from": "sent-PMC3059992-UAZ-r1-91-4", 
                    "object-type": "map-range", 
                    "to": "sent-PMC3059992-cmu-226"
                }, 
                {
                    "from": "sent-PMC3059992-UAZ-r1-97-1", 
                    "object-type": "map-range", 
                    "to": "sent-PMC3059992-cmu-261"
                }, 
                {
                    "from": "sent-PMC3059992-UAZ-r1-69-2", 
                    "object-type": "map-range", 
                    "to": "sent-PMC3059992-cmu-137"
                }, 
                {
                    "from": "sent-PMC3059992-UAZ-r1-64-0", 
                    "object-type": "map-range", 
                    "to": "sent-PMC3059992-cmu-122"
                }, 
                {
                    "from": "sent-PMC3059992-UAZ-r1-83-2", 
                    "object-type": "map-range", 
                    "to": "sent-PMC3059992-cmu-173"
                }, 
                {
                    "from": "sent-PMC3059992-UAZ-r1-91-2", 
                    "object-type": "map-range", 
                    "to": "sent-PMC3059992-cmu-222"
                }, 
                {
                    "from": "sent-PMC3059992-UAZ-r1-86-1", 
                    "object-type": "map-range", 
                    "to": "sent-PMC3059992-cmu-177"
                }, 
                {
                    "from": "sent-PMC3059992-UAZ-r1-34-0", 
                    "object-type": "map-range", 
                    "to": "sent-PMC3059992-cmu-63"
                }, 
                {
                    "from": "sent-PMC3059992-UAZ-r1-93-2", 
                    "object-type": "map-range", 
                    "to": "sent-PMC3059992-cmu-246"
                }, 
                {
                    "from": "sent-PMC3059992-UAZ-r1-68-4", 
                    "object-type": "map-range", 
                    "to": "sent-PMC3059992-cmu-134"
                }, 
                {
                    "from": "sent-PMC3059992-UAZ-r1-65-0", 
                    "object-type": "map-range", 
                    "to": "sent-PMC3059992-cmu-125"
                }, 
                {
                    "from": "sent-PMC3059992-UAZ-r1-94-2", 
                    "object-type": "map-range", 
                    "to": "sent-PMC3059992-cmu-251"
                }, 
                {
                    "from": "sent-PMC3059992-UAZ-r1-76-4", 
                    "object-type": "map-range", 
                    "to": "sent-PMC3059992-cmu-155"
                }, 
                {
                    "from": "sent-PMC3059992-UAZ-r1-17-0", 
                    "object-type": "map-range", 
                    "to": "sent-PMC3059992-cmu-15"
                }, 
                {
                    "from": "sent-PMC3059992-UAZ-r1-94-5", 
                    "object-type": "map-range", 
                    "to": "sent-PMC3059992-cmu-255"
                }, 
                {
                    "from": "sent-PMC3059992-UAZ-r1-91-8", 
                    "object-type": "map-range", 
                    "to": "sent-PMC3059992-cmu-231"
                }, 
                {
                    "from": "sent-PMC3059992-UAZ-r1-68-1", 
                    "object-type": "map-range", 
                    "to": "sent-PMC3059992-cmu-131"
                }, 
                {
                    "from": "sent-PMC3059992-UAZ-r1-91-11", 
                    "object-type": "map-range", 
                    "to": "sent-PMC3059992-cmu-234"
                }, 
                {
                    "from": "sent-PMC3059992-UAZ-r1-28-0", 
                    "object-type": "map-range", 
                    "to": "sent-PMC3059992-cmu-49"
                }, 
                {
                    "from": "sent-PMC3059992-UAZ-r1-18-2", 
                    "object-type": "map-range", 
                    "to": "sent-PMC3059992-cmu-31"
                }, 
                {
                    "from": "sent-PMC3059992-UAZ-r1-41-0", 
                    "object-type": "map-range", 
                    "to": "sent-PMC3059992-cmu-80"
                }, 
                {
                    "from": "sent-PMC3059992-UAZ-r1-25-0", 
                    "object-type": "map-range", 
                    "to": "sent-PMC3059992-cmu-43"
                }, 
                {
                    "from": "sent-PMC3059992-UAZ-r1-77-0", 
                    "object-type": "map-range", 
                    "to": "sent-PMC3059992-cmu-157"
                }, 
                {
                    "from": "sent-PMC3059992-UAZ-r1-90-1", 
                    "object-type": "map-range", 
                    "to": "sent-PMC3059992-cmu-211"
                }, 
                {
                    "from": "sent-PMC3059992-UAZ-r1-76-2", 
                    "object-type": "map-range", 
                    "to": "sent-PMC3059992-cmu-153"
                }, 
                {
                    "from": "sent-PMC3059992-UAZ-r1-94-4", 
                    "object-type": "map-range", 
                    "to": "sent-PMC3059992-cmu-254"
                }, 
                {
                    "from": "sent-PMC3059992-UAZ-r1-16-2", 
                    "object-type": "map-range", 
                    "to": "sent-PMC3059992-cmu-7"
                }, 
                {
                    "from": "sent-PMC3059992-UAZ-r1-89-0", 
                    "object-type": "map-range", 
                    "to": "sent-PMC3059992-cmu-187"
                }, 
                {
                    "from": "sent-PMC3059992-UAZ-r1-18-0", 
                    "object-type": "map-range", 
                    "to": "sent-PMC3059992-cmu-26"
                }, 
                {
                    "from": "sent-PMC3059992-UAZ-r1-16-3", 
                    "object-type": "map-range", 
                    "to": "sent-PMC3059992-cmu-12"
                }, 
                {
                    "from": "sent-PMC3059992-UAZ-r1-69-3", 
                    "object-type": "map-range", 
                    "to": "sent-PMC3059992-cmu-138"
                }, 
                {
                    "from": "sent-PMC3059992-UAZ-r1-68-3", 
                    "object-type": "map-range", 
                    "to": "sent-PMC3059992-cmu-133"
                }, 
                {
                    "from": "sent-PMC3059992-UAZ-r1-64-2", 
                    "object-type": "map-range", 
                    "to": "sent-PMC3059992-cmu-124"
                }, 
                {
                    "from": "sent-PMC3059992-UAZ-r1-94-0", 
                    "object-type": "map-range", 
                    "to": "sent-PMC3059992-cmu-249"
                }, 
                {
                    "from": "sent-PMC3059992-UAZ-r1-91-9", 
                    "object-type": "map-range", 
                    "to": "sent-PMC3059992-cmu-232"
                }, 
                {
                    "from": "sent-PMC3059992-UAZ-r1-91-0", 
                    "object-type": "map-range", 
                    "to": "sent-PMC3059992-cmu-219"
                }, 
                {
                    "from": "sent-PMC3059992-UAZ-r1-89-6", 
                    "object-type": "map-range", 
                    "to": "sent-PMC3059992-cmu-197"
                }, 
                {
                    "from": "sent-PMC3059992-UAZ-r1-75-0", 
                    "object-type": "map-range", 
                    "to": "sent-PMC3059992-cmu-146"
                }, 
                {
                    "from": "sent-PMC3059992-UAZ-r1-89-4", 
                    "object-type": "map-range", 
                    "to": "sent-PMC3059992-cmu-195"
                }, 
                {
                    "from": "sent-PMC3059992-UAZ-r1-93-1", 
                    "object-type": "map-range", 
                    "to": "sent-PMC3059992-cmu-245"
                }, 
                {
                    "from": "sent-PMC3059992-UAZ-r1-47-0", 
                    "object-type": "map-range", 
                    "to": "sent-PMC3059992-cmu-88"
                }, 
                {
                    "from": "sent-PMC3059992-UAZ-r1-89-8", 
                    "object-type": "map-range", 
                    "to": "sent-PMC3059992-cmu-201"
                }, 
                {
                    "from": "sent-PMC3059992-UAZ-r1-75-4", 
                    "object-type": "map-range", 
                    "to": "sent-PMC3059992-cmu-150"
                }, 
                {
                    "from": "sent-PMC3059992-UAZ-r1-25-3", 
                    "object-type": "map-range", 
                    "to": "sent-PMC3059992-cmu-46"
                }, 
                {
                    "from": "sent-PMC3059992-UAZ-r1-86-4", 
                    "object-type": "map-range", 
                    "to": "sent-PMC3059992-cmu-180"
                }, 
                {
                    "from": "sent-PMC3059992-UAZ-r1-80-1", 
                    "object-type": "map-range", 
                    "to": "sent-PMC3059992-cmu-168"
                }, 
                {
                    "from": "sent-PMC3059992-UAZ-r1-28-1", 
                    "object-type": "map-range", 
                    "to": "sent-PMC3059992-cmu-52"
                }, 
                {
                    "from": "sent-PMC3059992-UAZ-r1-76-5", 
                    "object-type": "map-range", 
                    "to": "sent-PMC3059992-cmu-156"
                }, 
                {
                    "from": "sent-PMC3059992-UAZ-r1-16-0", 
                    "object-type": "map-range", 
                    "to": "sent-PMC3059992-cmu-1"
                }, 
                {
                    "from": "sent-PMC3059992-UAZ-r1-89-2", 
                    "object-type": "map-range", 
                    "to": "sent-PMC3059992-cmu-193"
                }, 
                {
                    "from": "sent-PMC3059992-UAZ-r1-86-6", 
                    "object-type": "map-range", 
                    "to": "sent-PMC3059992-cmu-182"
                }, 
                {
                    "from": "sent-PMC3059992-UAZ-r1-194-3", 
                    "object-type": "map-range", 
                    "to": "sent-PMC3059992-cmu-109"
                }, 
                {
                    "from": "sent-PMC3059992-UAZ-r1-76-3", 
                    "object-type": "map-range", 
                    "to": "sent-PMC3059992-cmu-154"
                }, 
                {
                    "from": "sent-PMC3059992-UAZ-r1-92-2", 
                    "object-type": "map-range", 
                    "to": "sent-PMC3059992-cmu-239"
                }, 
                {
                    "from": "sent-PMC3059992-UAZ-r1-75-2", 
                    "object-type": "map-range", 
                    "to": "sent-PMC3059992-cmu-148"
                }, 
                {
                    "from": "sent-PMC3059992-UAZ-r1-89-1", 
                    "object-type": "map-range", 
                    "to": "sent-PMC3059992-cmu-188"
                }, 
                {
                    "from": "sent-PMC3059992-UAZ-r1-27-0", 
                    "object-type": "map-range", 
                    "to": "sent-PMC3059992-cmu-48"
                }, 
                {
                    "from": "sent-PMC3059992-UAZ-r1-16-1", 
                    "object-type": "map-range", 
                    "to": "sent-PMC3059992-cmu-4"
                }, 
                {
                    "from": "sent-PMC3059992-UAZ-r1-72-2", 
                    "object-type": "map-range", 
                    "to": "sent-PMC3059992-cmu-142"
                }, 
                {
                    "from": "sent-PMC3059992-UAZ-r1-41-2", 
                    "object-type": "map-range", 
                    "to": "sent-PMC3059992-cmu-82"
                }, 
                {
                    "from": "sent-PMC3059992-UAZ-r1-72-1", 
                    "object-type": "map-range", 
                    "to": "sent-PMC3059992-cmu-141"
                }, 
                {
                    "from": "sent-PMC3059992-UAZ-r1-47-1", 
                    "object-type": "map-range", 
                    "to": "sent-PMC3059992-cmu-89"
                }, 
                {
                    "from": "sent-PMC3059992-UAZ-r1-94-1", 
                    "object-type": "map-range", 
                    "to": "sent-PMC3059992-cmu-250"
                }, 
                {
                    "from": "sent-PMC3059992-UAZ-r1-34-1", 
                    "object-type": "map-range", 
                    "to": "sent-PMC3059992-cmu-64"
                }, 
                {
                    "from": "sent-PMC3059992-UAZ-r1-41-1", 
                    "object-type": "map-range", 
                    "to": "sent-PMC3059992-cmu-81"
                }, 
                {
                    "from": "sent-PMC3059992-UAZ-r1-92-3", 
                    "object-type": "map-range", 
                    "to": "sent-PMC3059992-cmu-241"
                }, 
                {
                    "from": "sent-PMC3059992-UAZ-r1-72-3", 
                    "object-type": "map-range", 
                    "to": "sent-PMC3059992-cmu-143"
                }, 
                {
                    "from": "sent-PMC3059992-UAZ-r1-68-0", 
                    "object-type": "map-range", 
                    "to": "sent-PMC3059992-cmu-130"
                }, 
                {
                    "from": "sent-PMC3059992-UAZ-r1-92-1", 
                    "object-type": "map-range", 
                    "to": "sent-PMC3059992-cmu-238"
                }, 
                {
                    "from": "sent-PMC3059992-UAZ-r1-83-0", 
                    "object-type": "map-range", 
                    "to": "sent-PMC3059992-cmu-171"
                }, 
                {
                    "from": "sent-PMC3059992-UAZ-r1-86-5", 
                    "object-type": "map-range", 
                    "to": "sent-PMC3059992-cmu-181"
                }, 
                {
                    "from": "sent-PMC3059992-UAZ-r1-86-9", 
                    "object-type": "map-range", 
                    "to": "sent-PMC3059992-cmu-185"
                }, 
                {
                    "from": "sent-PMC3059992-UAZ-r1-89-12", 
                    "object-type": "map-range", 
                    "to": "sent-PMC3059992-cmu-206"
                }, 
                {
                    "from": "sent-PMC3059992-UAZ-r1-76-1", 
                    "object-type": "map-range", 
                    "to": "sent-PMC3059992-cmu-152"
                }, 
                {
                    "from": "sent-PMC3059992-UAZ-r1-92-4", 
                    "object-type": "map-range", 
                    "to": "sent-PMC3059992-cmu-242"
                }, 
                {
                    "from": "sent-PMC3059992-UAZ-r1-31-1", 
                    "object-type": "map-range", 
                    "to": "sent-PMC3059992-cmu-60"
                }, 
                {
                    "from": "sent-PMC3059992-UAZ-r1-90-5", 
                    "object-type": "map-range", 
                    "to": "sent-PMC3059992-cmu-218"
                }, 
                {
                    "from": "sent-PMC3059992-UAZ-r1-86-7", 
                    "object-type": "map-range", 
                    "to": "sent-PMC3059992-cmu-183"
                }, 
                {
                    "from": "sent-PMC3059992-UAZ-r1-94-6", 
                    "object-type": "map-range", 
                    "to": "sent-PMC3059992-cmu-257"
                }, 
                {
                    "from": "sent-PMC3059992-UAZ-r1-60-0", 
                    "object-type": "map-range", 
                    "to": "sent-PMC3059992-cmu-112"
                }, 
                {
                    "from": "sent-PMC3059992-UAZ-r1-92-0", 
                    "object-type": "map-range", 
                    "to": "sent-PMC3059992-cmu-236"
                }, 
                {
                    "from": "sent-PMC3059992-UAZ-r1-86-0", 
                    "object-type": "map-range", 
                    "to": "sent-PMC3059992-cmu-176"
                }, 
                {
                    "from": "sent-PMC3059992-UAZ-r1-97-2", 
                    "object-type": "map-range", 
                    "to": "sent-PMC3059992-cmu-262"
                }, 
                {
                    "from": "sent-PMC3059992-UAZ-r1-72-0", 
                    "object-type": "map-range", 
                    "to": "sent-PMC3059992-cmu-140"
                }, 
                {
                    "from": "sent-PMC3059992-UAZ-r1-17-1", 
                    "object-type": "map-range", 
                    "to": "sent-PMC3059992-cmu-17"
                }, 
                {
                    "from": "sent-PMC3059992-UAZ-r1-91-5", 
                    "object-type": "map-range", 
                    "to": "sent-PMC3059992-cmu-227"
                }, 
                {
                    "from": "sent-PMC3059992-UAZ-r1-78-1", 
                    "object-type": "map-range", 
                    "to": "sent-PMC3059992-cmu-161"
                }, 
                {
                    "from": "sent-PMC3059992-UAZ-r1-28-4", 
                    "object-type": "map-range", 
                    "to": "sent-PMC3059992-cmu-56"
                }, 
                {
                    "from": "sent-PMC3059992-UAZ-r1-86-8", 
                    "object-type": "map-range", 
                    "to": "sent-PMC3059992-cmu-184"
                }, 
                {
                    "from": "sent-PMC3059992-UAZ-r1-25-1", 
                    "object-type": "map-range", 
                    "to": "sent-PMC3059992-cmu-44"
                }, 
                {
                    "from": "sent-PMC3059992-UAZ-r1-93-0", 
                    "object-type": "map-range", 
                    "to": "sent-PMC3059992-cmu-244"
                }, 
                {
                    "from": "sent-PMC3059992-UAZ-r1-79-1", 
                    "object-type": "map-range", 
                    "to": "sent-PMC3059992-cmu-165"
                }, 
                {
                    "from": "sent-PMC3059992-UAZ-r1-89-10", 
                    "object-type": "map-range", 
                    "to": "sent-PMC3059992-cmu-204"
                }, 
                {
                    "from": "sent-PMC3059992-UAZ-r1-91-12", 
                    "object-type": "map-range", 
                    "to": "sent-PMC3059992-cmu-235"
                }, 
                {
                    "from": "sent-PMC3059992-UAZ-r1-61-5", 
                    "object-type": "map-range", 
                    "to": "sent-PMC3059992-cmu-118"
                }, 
                {
                    "from": "sent-PMC3059992-UAZ-r1-77-1", 
                    "object-type": "map-range", 
                    "to": "sent-PMC3059992-cmu-158"
                }, 
                {
                    "from": "sent-PMC3059992-UAZ-r1-25-2", 
                    "object-type": "map-range", 
                    "to": "sent-PMC3059992-cmu-45"
                }, 
                {
                    "from": "sent-PMC3059992-UAZ-r1-91-6", 
                    "object-type": "map-range", 
                    "to": "sent-PMC3059992-cmu-228"
                }, 
                {
                    "from": "sent-PMC3059992-UAZ-r1-90-0", 
                    "object-type": "map-range", 
                    "to": "sent-PMC3059992-cmu-208"
                }, 
                {
                    "from": "sent-PMC3059992-UAZ-r1-83-3", 
                    "object-type": "map-range", 
                    "to": "sent-PMC3059992-cmu-174"
                }, 
                {
                    "from": "sent-PMC3059992-UAZ-r1-91-7", 
                    "object-type": "map-range", 
                    "to": "sent-PMC3059992-cmu-230"
                }, 
                {
                    "from": "sent-PMC3059992-UAZ-r1-91-3", 
                    "object-type": "map-range", 
                    "to": "sent-PMC3059992-cmu-224"
                }, 
                {
                    "from": "sent-PMC3059992-UAZ-r1-89-9", 
                    "object-type": "map-range", 
                    "to": "sent-PMC3059992-cmu-202"
                }, 
                {
                    "from": "sent-PMC3059992-UAZ-r1-18-1", 
                    "object-type": "map-range", 
                    "to": "sent-PMC3059992-cmu-29"
                }, 
                {
                    "from": "sent-PMC3059992-UAZ-r1-79-2", 
                    "object-type": "map-range", 
                    "to": "sent-PMC3059992-cmu-166"
                }, 
                {
                    "from": "sent-PMC3059992-UAZ-r1-89-7", 
                    "object-type": "map-range", 
                    "to": "sent-PMC3059992-cmu-198"
                }, 
                {
                    "from": "sent-PMC3059992-UAZ-r1-93-3", 
                    "object-type": "map-range", 
                    "to": "sent-PMC3059992-cmu-247"
                }, 
                {
                    "from": "sent-PMC3059992-UAZ-r1-31-0", 
                    "object-type": "map-range", 
                    "to": "sent-PMC3059992-cmu-58"
                }, 
                {
                    "from": "sent-PMC3059992-UAZ-r1-75-3", 
                    "object-type": "map-range", 
                    "to": "sent-PMC3059992-cmu-149"
                }, 
                {
                    "from": "sent-PMC3059992-UAZ-r1-68-2", 
                    "object-type": "map-range", 
                    "to": "sent-PMC3059992-cmu-132"
                }, 
                {
                    "from": "sent-PMC3059992-UAZ-r1-80-0", 
                    "object-type": "map-range", 
                    "to": "sent-PMC3059992-cmu-167"
                }, 
                {
                    "from": "sent-PMC3059992-UAZ-r1-28-2", 
                    "object-type": "map-range", 
                    "to": "sent-PMC3059992-cmu-54"
                }, 
                {
                    "from": "sent-PMC3059992-UAZ-r1-77-2", 
                    "object-type": "map-range", 
                    "to": "sent-PMC3059992-cmu-159"
                }, 
                {
                    "from": "sent-PMC3059992-UAZ-r1-44-1", 
                    "object-type": "map-range", 
                    "to": "sent-PMC3059992-cmu-85"
                }, 
                {
                    "from": "sent-PMC3059992-UAZ-r1-94-3", 
                    "object-type": "map-range", 
                    "to": "sent-PMC3059992-cmu-253"
                }, 
                {
                    "from": "sent-PMC3059992-UAZ-r1-89-3", 
                    "object-type": "map-range", 
                    "to": "sent-PMC3059992-cmu-194"
                }, 
                {
                    "from": "sent-PMC3059992-UAZ-r1-90-4", 
                    "object-type": "map-range", 
                    "to": "sent-PMC3059992-cmu-217"
                }, 
                {
                    "from": "sent-PMC3059992-UAZ-r1-17-2", 
                    "object-type": "map-range", 
                    "to": "sent-PMC3059992-cmu-18"
                }, 
                {
                    "from": "sent-PMC3059992-UAZ-r1-61-2", 
                    "object-type": "map-range", 
                    "to": "sent-PMC3059992-cmu-115"
                }, 
                {
                    "from": "sent-PMC3059992-UAZ-r1-75-1", 
                    "object-type": "map-range", 
                    "to": "sent-PMC3059992-cmu-147"
                }, 
                {
                    "from": "sent-PMC3059992-UAZ-r1-64-1", 
                    "object-type": "map-range", 
                    "to": "sent-PMC3059992-cmu-123"
                }, 
                {
                    "from": "sent-PMC3059992-UAZ-r1-69-1", 
                    "object-type": "map-range", 
                    "to": "sent-PMC3059992-cmu-136"
                }, 
                {
                    "from": "sent-PMC3059992-UAZ-r1-17-3", 
                    "object-type": "map-range", 
                    "to": "sent-PMC3059992-cmu-25"
                }, 
                {
                    "from": "sent-PMC3059992-UAZ-r1-90-2", 
                    "object-type": "map-range", 
                    "to": "sent-PMC3059992-cmu-213"
                }, 
                {
                    "from": "sent-PMC3059992-UAZ-r1-18-3", 
                    "object-type": "map-range", 
                    "to": "sent-PMC3059992-cmu-33"
                }, 
                {
                    "from": "sent-PMC3059992-UAZ-r1-79-0", 
                    "object-type": "map-range", 
                    "to": "sent-PMC3059992-cmu-164"
                }
            ], 
            "object-meta": {
                "component": "Pradeep-Matcher", 
                "object-type": "meta-info", 
                "organization": "CMU"
            }, 
            "object-type": "frame"
        }, 
        {
            "frame-id": "smap-PMC3059992-cmu-2", 
            "frame-type": "sentence-map", 
            "list1-meta": {
                "component": "MedScan", 
                "object-type": "meta-info", 
                "organization": "CMU"
            }, 
            "list2-meta": {
                "component": "Nicolas-NXML-Parser", 
                "object-type": "meta-info", 
                "organization": "CMU"
            }, 
            "map": [
                {
                    "from": "sent-PMC3059992-medscan-180", 
                    "object-type": "map-range", 
                    "to": "sent-PMC3059992-cmu-258"
                }, 
                {
                    "from": "sent-PMC3059992-medscan-25", 
                    "object-type": "map-range", 
                    "to": "sent-PMC3059992-cmu-55"
                }, 
                {
                    "from": "sent-PMC3059992-medscan-64", 
                    "object-type": "map-range", 
                    "to": "sent-PMC3059992-cmu-110"
                }, 
                {
                    "from": "sent-PMC3059992-medscan-29", 
                    "object-type": "map-range", 
                    "to": "sent-PMC3059992-cmu-61"
                }, 
                {
                    "from": "sent-PMC3059992-medscan-49", 
                    "object-type": "map-range", 
                    "to": "sent-PMC3059992-cmu-91"
                }, 
                {
                    "from": "sent-PMC3059992-medscan-184", 
                    "object-type": "map-range", 
                    "to": "sent-PMC3059992-cmu-263"
                }, 
                {
                    "from": "sent-PMC3059992-medscan-172", 
                    "object-type": "map-range", 
                    "to": "sent-PMC3059992-cmu-248"
                }, 
                {
                    "from": "sent-PMC3059992-medscan-76", 
                    "object-type": "map-range", 
                    "to": "sent-PMC3059992-cmu-128"
                }, 
                {
                    "from": "sent-PMC3059992-medscan-36", 
                    "object-type": "map-range", 
                    "to": "sent-PMC3059992-cmu-71"
                }, 
                {
                    "from": "sent-PMC3059992-medscan-68", 
                    "object-type": "map-range", 
                    "to": "sent-PMC3059992-cmu-116"
                }, 
                {
                    "from": "sent-PMC3059992-medscan-21", 
                    "object-type": "map-range", 
                    "to": "sent-PMC3059992-cmu-47"
                }, 
                {
                    "from": "sent-PMC3059992-medscan-146", 
                    "object-type": "map-range", 
                    "to": "sent-PMC3059992-cmu-215"
                }, 
                {
                    "from": "sent-PMC3059992-medscan-96", 
                    "object-type": "map-range", 
                    "to": "sent-PMC3059992-cmu-151"
                }, 
                {
                    "from": "sent-PMC3059992-medscan-74", 
                    "object-type": "map-range", 
                    "to": "sent-PMC3059992-cmu-126"
                }, 
                {
                    "from": "sent-PMC3059992-medscan-140", 
                    "object-type": "map-range", 
                    "to": "sent-PMC3059992-cmu-205"
                }, 
                {
                    "from": "sent-PMC3059992-medscan-181", 
                    "object-type": "map-range", 
                    "to": "sent-PMC3059992-cmu-260"
                }, 
                {
                    "from": "sent-PMC3059992-medscan-142", 
                    "object-type": "map-range", 
                    "to": "sent-PMC3059992-cmu-207"
                }, 
                {
                    "from": "sent-PMC3059992-medscan-60", 
                    "object-type": "map-range", 
                    "to": "sent-PMC3059992-cmu-106"
                }, 
                {
                    "from": "sent-PMC3059992-medscan-75", 
                    "object-type": "map-range", 
                    "to": "sent-PMC3059992-cmu-127"
                }, 
                {
                    "from": "sent-PMC3059992-medscan-114", 
                    "object-type": "map-range", 
                    "to": "sent-PMC3059992-cmu-169"
                }, 
                {
                    "from": "sent-PMC3059992-medscan-82", 
                    "object-type": "map-range", 
                    "to": "sent-PMC3059992-cmu-135"
                }, 
                {
                    "from": "sent-PMC3059992-medscan-167", 
                    "object-type": "map-range", 
                    "to": "sent-PMC3059992-cmu-243"
                }, 
                {
                    "from": "sent-PMC3059992-medscan-121", 
                    "object-type": "map-range", 
                    "to": "sent-PMC3059992-cmu-178"
                }, 
                {
                    "from": "sent-PMC3059992-medscan-153", 
                    "object-type": "map-range", 
                    "to": "sent-PMC3059992-cmu-226"
                }, 
                {
                    "from": "sent-PMC3059992-medscan-182", 
                    "object-type": "map-range", 
                    "to": "sent-PMC3059992-cmu-261"
                }, 
                {
                    "from": "sent-PMC3059992-medscan-84", 
                    "object-type": "map-range", 
                    "to": "sent-PMC3059992-cmu-137"
                }, 
                {
                    "from": "sent-PMC3059992-medscan-71", 
                    "object-type": "map-range", 
                    "to": "sent-PMC3059992-cmu-122"
                }, 
                {
                    "from": "sent-PMC3059992-medscan-117", 
                    "object-type": "map-range", 
                    "to": "sent-PMC3059992-cmu-173"
                }, 
                {
                    "from": "sent-PMC3059992-medscan-41", 
                    "object-type": "map-range", 
                    "to": "sent-PMC3059992-cmu-77"
                }, 
                {
                    "from": "sent-PMC3059992-medscan-151", 
                    "object-type": "map-range", 
                    "to": "sent-PMC3059992-cmu-222"
                }, 
                {
                    "from": "sent-PMC3059992-medscan-34", 
                    "object-type": "map-range", 
                    "to": "sent-PMC3059992-cmu-69"
                }, 
                {
                    "from": "sent-PMC3059992-medscan-120", 
                    "object-type": "map-range", 
                    "to": "sent-PMC3059992-cmu-177"
                }, 
                {
                    "from": "sent-PMC3059992-medscan-30", 
                    "object-type": "map-range", 
                    "to": "sent-PMC3059992-cmu-63"
                }, 
                {
                    "from": "sent-PMC3059992-medscan-170", 
                    "object-type": "map-range", 
                    "to": "sent-PMC3059992-cmu-246"
                }, 
                {
                    "from": "sent-PMC3059992-medscan-72", 
                    "object-type": "map-range", 
                    "to": "sent-PMC3059992-cmu-125"
                }, 
                {
                    "from": "sent-PMC3059992-medscan-72", 
                    "object-type": "map-range", 
                    "to": "sent-PMC3059992-cmu-125"
                }, 
                {
                    "from": "sent-PMC3059992-medscan-175", 
                    "object-type": "map-range", 
                    "to": "sent-PMC3059992-cmu-251"
                }, 
                {
                    "from": "sent-PMC3059992-medscan-4", 
                    "object-type": "map-range", 
                    "to": "sent-PMC3059992-cmu-15"
                }, 
                {
                    "from": "sent-PMC3059992-medscan-55", 
                    "object-type": "map-range", 
                    "to": "sent-PMC3059992-cmu-99"
                }, 
                {
                    "from": "sent-PMC3059992-medscan-157", 
                    "object-type": "map-range", 
                    "to": "sent-PMC3059992-cmu-231"
                }, 
                {
                    "from": "sent-PMC3059992-medscan-78", 
                    "object-type": "map-range", 
                    "to": "sent-PMC3059992-cmu-131"
                }, 
                {
                    "from": "sent-PMC3059992-medscan-160", 
                    "object-type": "map-range", 
                    "to": "sent-PMC3059992-cmu-234"
                }, 
                {
                    "from": "sent-PMC3059992-medscan-10", 
                    "object-type": "map-range", 
                    "to": "sent-PMC3059992-cmu-31"
                }, 
                {
                    "from": "sent-PMC3059992-medscan-42", 
                    "object-type": "map-range", 
                    "to": "sent-PMC3059992-cmu-80"
                }, 
                {
                    "from": "sent-PMC3059992-medscan-16", 
                    "object-type": "map-range", 
                    "to": "sent-PMC3059992-cmu-43"
                }, 
                {
                    "from": "sent-PMC3059992-medscan-144", 
                    "object-type": "map-range", 
                    "to": "sent-PMC3059992-cmu-211"
                }, 
                {
                    "from": "sent-PMC3059992-medscan-35", 
                    "object-type": "map-range", 
                    "to": "sent-PMC3059992-cmu-70"
                }, 
                {
                    "from": "sent-PMC3059992-medscan-98", 
                    "object-type": "map-range", 
                    "to": "sent-PMC3059992-cmu-153"
                }, 
                {
                    "from": "sent-PMC3059992-medscan-177", 
                    "object-type": "map-range", 
                    "to": "sent-PMC3059992-cmu-254"
                }, 
                {
                    "from": "sent-PMC3059992-medscan-129", 
                    "object-type": "map-range", 
                    "to": "sent-PMC3059992-cmu-187"
                }, 
                {
                    "from": "sent-PMC3059992-medscan-8", 
                    "object-type": "map-range", 
                    "to": "sent-PMC3059992-cmu-26"
                }, 
                {
                    "from": "sent-PMC3059992-medscan-3", 
                    "object-type": "map-range", 
                    "to": "sent-PMC3059992-cmu-12"
                }, 
                {
                    "from": "sent-PMC3059992-medscan-85", 
                    "object-type": "map-range", 
                    "to": "sent-PMC3059992-cmu-138"
                }, 
                {
                    "from": "sent-PMC3059992-medscan-80", 
                    "object-type": "map-range", 
                    "to": "sent-PMC3059992-cmu-133"
                }, 
                {
                    "from": "sent-PMC3059992-medscan-187", 
                    "object-type": "map-range", 
                    "to": "sent-PMC3059992-cmu-266"
                }, 
                {
                    "from": "sent-PMC3059992-medscan-158", 
                    "object-type": "map-range", 
                    "to": "sent-PMC3059992-cmu-232"
                }, 
                {
                    "from": "sent-PMC3059992-medscan-149", 
                    "object-type": "map-range", 
                    "to": "sent-PMC3059992-cmu-219"
                }, 
                {
                    "from": "sent-PMC3059992-medscan-135", 
                    "object-type": "map-range", 
                    "to": "sent-PMC3059992-cmu-197"
                }, 
                {
                    "from": "sent-PMC3059992-medscan-91", 
                    "object-type": "map-range", 
                    "to": "sent-PMC3059992-cmu-146"
                }, 
                {
                    "from": "sent-PMC3059992-medscan-133", 
                    "object-type": "map-range", 
                    "to": "sent-PMC3059992-cmu-195"
                }, 
                {
                    "from": "sent-PMC3059992-medscan-14", 
                    "object-type": "map-range", 
                    "to": "sent-PMC3059992-cmu-39"
                }, 
                {
                    "from": "sent-PMC3059992-medscan-47", 
                    "object-type": "map-range", 
                    "to": "sent-PMC3059992-cmu-88"
                }, 
                {
                    "from": "sent-PMC3059992-medscan-137", 
                    "object-type": "map-range", 
                    "to": "sent-PMC3059992-cmu-201"
                }, 
                {
                    "from": "sent-PMC3059992-medscan-95", 
                    "object-type": "map-range", 
                    "to": "sent-PMC3059992-cmu-150"
                }, 
                {
                    "from": "sent-PMC3059992-medscan-19", 
                    "object-type": "map-range", 
                    "to": "sent-PMC3059992-cmu-46"
                }, 
                {
                    "from": "sent-PMC3059992-medscan-123", 
                    "object-type": "map-range", 
                    "to": "sent-PMC3059992-cmu-180"
                }, 
                {
                    "from": "sent-PMC3059992-medscan-38", 
                    "object-type": "map-range", 
                    "to": "sent-PMC3059992-cmu-74"
                }, 
                {
                    "from": "sent-PMC3059992-medscan-51", 
                    "object-type": "map-range", 
                    "to": "sent-PMC3059992-cmu-93"
                }, 
                {
                    "from": "sent-PMC3059992-medscan-113", 
                    "object-type": "map-range", 
                    "to": "sent-PMC3059992-cmu-168"
                }, 
                {
                    "from": "sent-PMC3059992-medscan-101", 
                    "object-type": "map-range", 
                    "to": "sent-PMC3059992-cmu-156"
                }, 
                {
                    "from": "sent-PMC3059992-medscan-0", 
                    "object-type": "map-range", 
                    "to": "sent-PMC3059992-cmu-1"
                }, 
                {
                    "from": "sent-PMC3059992-medscan-131", 
                    "object-type": "map-range", 
                    "to": "sent-PMC3059992-cmu-193"
                }, 
                {
                    "from": "sent-PMC3059992-medscan-125", 
                    "object-type": "map-range", 
                    "to": "sent-PMC3059992-cmu-182"
                }, 
                {
                    "from": "sent-PMC3059992-medscan-53", 
                    "object-type": "map-range", 
                    "to": "sent-PMC3059992-cmu-96"
                }, 
                {
                    "from": "sent-PMC3059992-medscan-37", 
                    "object-type": "map-range", 
                    "to": "sent-PMC3059992-cmu-73"
                }, 
                {
                    "from": "sent-PMC3059992-medscan-63", 
                    "object-type": "map-range", 
                    "to": "sent-PMC3059992-cmu-109"
                }, 
                {
                    "from": "sent-PMC3059992-medscan-54", 
                    "object-type": "map-range", 
                    "to": "sent-PMC3059992-cmu-97"
                }, 
                {
                    "from": "sent-PMC3059992-medscan-93", 
                    "object-type": "map-range", 
                    "to": "sent-PMC3059992-cmu-148"
                }, 
                {
                    "from": "sent-PMC3059992-medscan-130", 
                    "object-type": "map-range", 
                    "to": "sent-PMC3059992-cmu-188"
                }, 
                {
                    "from": "sent-PMC3059992-medscan-1", 
                    "object-type": "map-range", 
                    "to": "sent-PMC3059992-cmu-4"
                }, 
                {
                    "from": "sent-PMC3059992-medscan-88", 
                    "object-type": "map-range", 
                    "to": "sent-PMC3059992-cmu-142"
                }, 
                {
                    "from": "sent-PMC3059992-medscan-57", 
                    "object-type": "map-range", 
                    "to": "sent-PMC3059992-cmu-102"
                }, 
                {
                    "from": "sent-PMC3059992-medscan-44", 
                    "object-type": "map-range", 
                    "to": "sent-PMC3059992-cmu-82"
                }, 
                {
                    "from": "sent-PMC3059992-medscan-87", 
                    "object-type": "map-range", 
                    "to": "sent-PMC3059992-cmu-141"
                }, 
                {
                    "from": "sent-PMC3059992-medscan-48", 
                    "object-type": "map-range", 
                    "to": "sent-PMC3059992-cmu-89"
                }, 
                {
                    "from": "sent-PMC3059992-medscan-15", 
                    "object-type": "map-range", 
                    "to": "sent-PMC3059992-cmu-40"
                }, 
                {
                    "from": "sent-PMC3059992-medscan-174", 
                    "object-type": "map-range", 
                    "to": "sent-PMC3059992-cmu-250"
                }, 
                {
                    "from": "sent-PMC3059992-medscan-31", 
                    "object-type": "map-range", 
                    "to": "sent-PMC3059992-cmu-64"
                }, 
                {
                    "from": "sent-PMC3059992-medscan-43", 
                    "object-type": "map-range", 
                    "to": "sent-PMC3059992-cmu-81"
                }, 
                {
                    "from": "sent-PMC3059992-medscan-165", 
                    "object-type": "map-range", 
                    "to": "sent-PMC3059992-cmu-241"
                }, 
                {
                    "from": "sent-PMC3059992-medscan-89", 
                    "object-type": "map-range", 
                    "to": "sent-PMC3059992-cmu-143"
                }, 
                {
                    "from": "sent-PMC3059992-medscan-77", 
                    "object-type": "map-range", 
                    "to": "sent-PMC3059992-cmu-130"
                }, 
                {
                    "from": "sent-PMC3059992-medscan-163", 
                    "object-type": "map-range", 
                    "to": "sent-PMC3059992-cmu-238"
                }, 
                {
                    "from": "sent-PMC3059992-medscan-124", 
                    "object-type": "map-range", 
                    "to": "sent-PMC3059992-cmu-181"
                }, 
                {
                    "from": "sent-PMC3059992-medscan-32", 
                    "object-type": "map-range", 
                    "to": "sent-PMC3059992-cmu-67"
                }, 
                {
                    "from": "sent-PMC3059992-medscan-128", 
                    "object-type": "map-range", 
                    "to": "sent-PMC3059992-cmu-185"
                }, 
                {
                    "from": "sent-PMC3059992-medscan-39", 
                    "object-type": "map-range", 
                    "to": "sent-PMC3059992-cmu-75"
                }, 
                {
                    "from": "sent-PMC3059992-medscan-141", 
                    "object-type": "map-range", 
                    "to": "sent-PMC3059992-cmu-206"
                }, 
                {
                    "from": "sent-PMC3059992-medscan-58", 
                    "object-type": "map-range", 
                    "to": "sent-PMC3059992-cmu-103"
                }, 
                {
                    "from": "sent-PMC3059992-medscan-166", 
                    "object-type": "map-range", 
                    "to": "sent-PMC3059992-cmu-242"
                }, 
                {
                    "from": "sent-PMC3059992-medscan-28", 
                    "object-type": "map-range", 
                    "to": "sent-PMC3059992-cmu-60"
                }, 
                {
                    "from": "sent-PMC3059992-medscan-33", 
                    "object-type": "map-range", 
                    "to": "sent-PMC3059992-cmu-68"
                }, 
                {
                    "from": "sent-PMC3059992-medscan-66", 
                    "object-type": "map-range", 
                    "to": "sent-PMC3059992-cmu-114"
                }, 
                {
                    "from": "sent-PMC3059992-medscan-148", 
                    "object-type": "map-range", 
                    "to": "sent-PMC3059992-cmu-218"
                }, 
                {
                    "from": "sent-PMC3059992-medscan-185", 
                    "object-type": "map-range", 
                    "to": "sent-PMC3059992-cmu-265"
                }, 
                {
                    "from": "sent-PMC3059992-medscan-61", 
                    "object-type": "map-range", 
                    "to": "sent-PMC3059992-cmu-107"
                }, 
                {
                    "from": "sent-PMC3059992-medscan-90", 
                    "object-type": "map-range", 
                    "to": "sent-PMC3059992-cmu-144"
                }, 
                {
                    "from": "sent-PMC3059992-medscan-126", 
                    "object-type": "map-range", 
                    "to": "sent-PMC3059992-cmu-183"
                }, 
                {
                    "from": "sent-PMC3059992-medscan-65", 
                    "object-type": "map-range", 
                    "to": "sent-PMC3059992-cmu-113"
                }, 
                {
                    "from": "sent-PMC3059992-medscan-52", 
                    "object-type": "map-range", 
                    "to": "sent-PMC3059992-cmu-94"
                }, 
                {
                    "from": "sent-PMC3059992-medscan-179", 
                    "object-type": "map-range", 
                    "to": "sent-PMC3059992-cmu-257"
                }, 
                {
                    "from": "sent-PMC3059992-medscan-119", 
                    "object-type": "map-range", 
                    "to": "sent-PMC3059992-cmu-176"
                }, 
                {
                    "from": "sent-PMC3059992-medscan-183", 
                    "object-type": "map-range", 
                    "to": "sent-PMC3059992-cmu-262"
                }, 
                {
                    "from": "sent-PMC3059992-medscan-86", 
                    "object-type": "map-range", 
                    "to": "sent-PMC3059992-cmu-140"
                }, 
                {
                    "from": "sent-PMC3059992-medscan-5", 
                    "object-type": "map-range", 
                    "to": "sent-PMC3059992-cmu-17"
                }, 
                {
                    "from": "sent-PMC3059992-medscan-154", 
                    "object-type": "map-range", 
                    "to": "sent-PMC3059992-cmu-227"
                }, 
                {
                    "from": "sent-PMC3059992-medscan-26", 
                    "object-type": "map-range", 
                    "to": "sent-PMC3059992-cmu-56"
                }, 
                {
                    "from": "sent-PMC3059992-medscan-127", 
                    "object-type": "map-range", 
                    "to": "sent-PMC3059992-cmu-184"
                }, 
                {
                    "from": "sent-PMC3059992-medscan-17", 
                    "object-type": "map-range", 
                    "to": "sent-PMC3059992-cmu-44"
                }, 
                {
                    "from": "sent-PMC3059992-medscan-168", 
                    "object-type": "map-range", 
                    "to": "sent-PMC3059992-cmu-244"
                }, 
                {
                    "from": "sent-PMC3059992-medscan-40", 
                    "object-type": "map-range", 
                    "to": "sent-PMC3059992-cmu-76"
                }, 
                {
                    "from": "sent-PMC3059992-medscan-110", 
                    "object-type": "map-range", 
                    "to": "sent-PMC3059992-cmu-165"
                }, 
                {
                    "from": "sent-PMC3059992-medscan-139", 
                    "object-type": "map-range", 
                    "to": "sent-PMC3059992-cmu-204"
                }, 
                {
                    "from": "sent-PMC3059992-medscan-161", 
                    "object-type": "map-range", 
                    "to": "sent-PMC3059992-cmu-235"
                }, 
                {
                    "from": "sent-PMC3059992-medscan-103", 
                    "object-type": "map-range", 
                    "to": "sent-PMC3059992-cmu-158"
                }, 
                {
                    "from": "sent-PMC3059992-medscan-59", 
                    "object-type": "map-range", 
                    "to": "sent-PMC3059992-cmu-105"
                }, 
                {
                    "from": "sent-PMC3059992-medscan-18", 
                    "object-type": "map-range", 
                    "to": "sent-PMC3059992-cmu-45"
                }, 
                {
                    "from": "sent-PMC3059992-medscan-155", 
                    "object-type": "map-range", 
                    "to": "sent-PMC3059992-cmu-228"
                }, 
                {
                    "from": "sent-PMC3059992-medscan-143", 
                    "object-type": "map-range", 
                    "to": "sent-PMC3059992-cmu-208"
                }, 
                {
                    "from": "sent-PMC3059992-medscan-118", 
                    "object-type": "map-range", 
                    "to": "sent-PMC3059992-cmu-174"
                }, 
                {
                    "from": "sent-PMC3059992-medscan-50", 
                    "object-type": "map-range", 
                    "to": "sent-PMC3059992-cmu-92"
                }, 
                {
                    "from": "sent-PMC3059992-medscan-156", 
                    "object-type": "map-range", 
                    "to": "sent-PMC3059992-cmu-230"
                }, 
                {
                    "from": "sent-PMC3059992-medscan-13", 
                    "object-type": "map-range", 
                    "to": "sent-PMC3059992-cmu-37"
                }, 
                {
                    "from": "sent-PMC3059992-medscan-138", 
                    "object-type": "map-range", 
                    "to": "sent-PMC3059992-cmu-202"
                }, 
                {
                    "from": "sent-PMC3059992-medscan-9", 
                    "object-type": "map-range", 
                    "to": "sent-PMC3059992-cmu-29"
                }, 
                {
                    "from": "sent-PMC3059992-medscan-111", 
                    "object-type": "map-range", 
                    "to": "sent-PMC3059992-cmu-166"
                }, 
                {
                    "from": "sent-PMC3059992-medscan-111", 
                    "object-type": "map-range", 
                    "to": "sent-PMC3059992-cmu-166"
                }, 
                {
                    "from": "sent-PMC3059992-medscan-136", 
                    "object-type": "map-range", 
                    "to": "sent-PMC3059992-cmu-198"
                }, 
                {
                    "from": "sent-PMC3059992-medscan-171", 
                    "object-type": "map-range", 
                    "to": "sent-PMC3059992-cmu-247"
                }, 
                {
                    "from": "sent-PMC3059992-medscan-56", 
                    "object-type": "map-range", 
                    "to": "sent-PMC3059992-cmu-101"
                }, 
                {
                    "from": "sent-PMC3059992-medscan-27", 
                    "object-type": "map-range", 
                    "to": "sent-PMC3059992-cmu-58"
                }, 
                {
                    "from": "sent-PMC3059992-medscan-94", 
                    "object-type": "map-range", 
                    "to": "sent-PMC3059992-cmu-149"
                }, 
                {
                    "from": "sent-PMC3059992-medscan-134", 
                    "object-type": "map-range", 
                    "to": "sent-PMC3059992-cmu-196"
                }, 
                {
                    "from": "sent-PMC3059992-medscan-112", 
                    "object-type": "map-range", 
                    "to": "sent-PMC3059992-cmu-167"
                }, 
                {
                    "from": "sent-PMC3059992-medscan-24", 
                    "object-type": "map-range", 
                    "to": "sent-PMC3059992-cmu-54"
                }, 
                {
                    "from": "sent-PMC3059992-medscan-104", 
                    "object-type": "map-range", 
                    "to": "sent-PMC3059992-cmu-159"
                }, 
                {
                    "from": "sent-PMC3059992-medscan-46", 
                    "object-type": "map-range", 
                    "to": "sent-PMC3059992-cmu-85"
                }, 
                {
                    "from": "sent-PMC3059992-medscan-176", 
                    "object-type": "map-range", 
                    "to": "sent-PMC3059992-cmu-253"
                }, 
                {
                    "from": "sent-PMC3059992-medscan-132", 
                    "object-type": "map-range", 
                    "to": "sent-PMC3059992-cmu-194"
                }, 
                {
                    "from": "sent-PMC3059992-medscan-147", 
                    "object-type": "map-range", 
                    "to": "sent-PMC3059992-cmu-217"
                }, 
                {
                    "from": "sent-PMC3059992-medscan-69", 
                    "object-type": "map-range", 
                    "to": "sent-PMC3059992-cmu-115"
                }, 
                {
                    "from": "sent-PMC3059992-medscan-69", 
                    "object-type": "map-range", 
                    "to": "sent-PMC3059992-cmu-115"
                }, 
                {
                    "from": "sent-PMC3059992-medscan-72", 
                    "object-type": "map-range", 
                    "to": "sent-PMC3059992-cmu-123"
                }, 
                {
                    "from": "sent-PMC3059992-medscan-72", 
                    "object-type": "map-range", 
                    "to": "sent-PMC3059992-cmu-123"
                }, 
                {
                    "from": "sent-PMC3059992-medscan-83", 
                    "object-type": "map-range", 
                    "to": "sent-PMC3059992-cmu-136"
                }, 
                {
                    "from": "sent-PMC3059992-medscan-7", 
                    "object-type": "map-range", 
                    "to": "sent-PMC3059992-cmu-25"
                }, 
                {
                    "from": "sent-PMC3059992-medscan-145", 
                    "object-type": "map-range", 
                    "to": "sent-PMC3059992-cmu-213"
                }, 
                {
                    "from": "sent-PMC3059992-medscan-62", 
                    "object-type": "map-range", 
                    "to": "sent-PMC3059992-cmu-108"
                }, 
                {
                    "from": "sent-PMC3059992-medscan-11", 
                    "object-type": "map-range", 
                    "to": "sent-PMC3059992-cmu-33"
                }, 
                {
                    "from": "sent-PMC3059992-medscan-109", 
                    "object-type": "map-range", 
                    "to": "sent-PMC3059992-cmu-164"
                }
            ], 
            "object-meta": {
                "component": "Pradeep-Matcher", 
                "object-type": "meta-info", 
                "organization": "CMU"
            }, 
            "object-type": "frame"
        }
    ], 
    "object-meta": {
        "component": "Pradeep-Matcher", 
        "component-type": "machine", 
        "doc-id": "PMC3059992", 
        "object-type": "meta-info", 
        "organization": "CMU"
    }, 
    "object-type": "frame-collection"
}
