{
  "evidence": ["curcumin modulates the activation of NF-kappaB","Methods We have recently demonstrated that in chondrocytes resveratrol modulates the NF-kappaB pathway by inhibiting the proteasome , while curcumin modulates the activation of NF-kappaB by inhibiting upstream kinases ( Akt ) .","We have recently demonstrated that in chondrocytes resveratrol modulates the NF-kappaB pathway by inhibiting the proteasome , while curcumin modulates the activation of NF-kappaB by inhibiting upstream kinases ( Akt ) ."],
  "extracted_information": {
    "interaction_type": "increases_activity",
    "negative_information": false,
    "participant_a": {
      "entity_text": "curcumin",
      "entity_type": "chemical",
      "identifier": "CHEBI:3962",
      "in_model": true
    },
    "participant_b": {
      "entity_text": "NF-kappaB",
      "entity_type": "protein",
      "identifier": "ungrounded",
      "in_model": false
    }
  },
  "fries_provenance": [
    {
      "component": "REACH",
      "frame-file": "PMC3003513.uaz.events",
      "frame-id": "evem-PMC3003513-UAZ-r1-1-4-6",
      "passage-id": "pass-PMC3003513-UAZ-r1-1",
      "passage-number": 1,
      "passage-section-id": "N/A",
      "passage-section-name": "abstract",
      "sentence": "Methods We have recently demonstrated that in chondrocytes resveratrol modulates the NF-kappaB pathway by inhibiting the proteasome , while curcumin modulates the activation of NF-kappaB by inhibiting upstream kinases ( Akt ) .",
      "text": "curcumin modulates the activation of NF-kappaB",
      "uaz-sentence": "Methods We have recently demonstrated that in chondrocytes resveratrol modulates the NF-kappaB pathway by inhibiting the proteasome , while curcumin modulates the activation of NF-kappaB by inhibiting upstream kinases ( Akt ) .",
      "uaz-sentence-start": 487
    },
    {
      "component": "REACH",
      "frame-file": "PMC3003513.uaz.events",
      "frame-id": "evem-PMC3003513-UAZ-r1-7-0-9",
      "passage-id": "pass-PMC3003513-UAZ-r1-7",
      "passage-number": 7,
      "passage-section-id": "N/A",
      "passage-section-name": "N/A",
      "sentence": "We have recently demonstrated that in chondrocytes resveratrol modulates the NF-kappaB pathway by inhibiting the proteasome , while curcumin modulates the activation of NF-kappaB by inhibiting upstream kinases ( Akt ) .",
      "text": "curcumin modulates the activation of NF-kappaB",
      "uaz-sentence": "We have recently demonstrated that in chondrocytes resveratrol modulates the NF-kappaB pathway by inhibiting the proteasome , while curcumin modulates the activation of NF-kappaB by inhibiting upstream kinases ( Akt ) .",
      "uaz-sentence-start": 0
    }
  ],
  "model_relation": "extension",
  "pmc_id": "PMC3003513",
  "reader_type": "machine",
  "reading_complete": "2015-06-15T21:43:32Z",
  "reading_started": "2015-06-15T21:43:27Z",
  "submitter": "FRIES"
}
