{
  "evidence": ["resveratrol and/or curcumin suppressed IL-1\\u03b2-induced downregulation of the cartilage-specific extracellular matrix component collagen type II and of the cartilage-specific master transcription factor Sox-9","The activation and translocation of p65 from the cytoplasm to the nucleus could be inhibited clearly by resveratrol and curcumin in IL-1\\u03b2-stimulated human chondrocytes."],
  "extracted_information": {
    "interaction_type": "decreases",
    "negative_information": false,
    "participant_a": {
      "entity_text": "resveratrol",
      "entity_type": "chemical",
      "identifier": "CHEBI:27881",
      "in_model": true
    },
    "participant_b": {
      "entity_text": "transcription factor Sox-9",
      "entity_type": "protein",
      "identifier": "Uniprot:P48436",
      "in_model": true
    }
  },
  "fries_provenance": [
    {
      "cmu-sentence-epistemic-status": "implication",
      "cmu-sentence-epistemic-value": 0.6,
      "component": "MedScan",
      "frame-file": "PMC3003513.cmu.medscan",
      "frame-id": "relm-PMC3003513-cmu-medscan-1331",
      "passage-id": "pass-PMC3003513-UAZ-r1-139",
      "passage-number": 139,
      "passage-section-id": "N/A",
      "passage-section-name": "N/A",
      "sentence": "The activation and translocation of p65 from the cytoplasm to the nucleus could be inhibited clearly by resveratrol and curcumin in IL-1\\u03b2-stimulated human chondrocytes.",
      "text": "resveratrol and/or curcumin suppressed IL-1\\u03b2-induced downregulation of the cartilage-specific extracellular matrix component collagen type II and of the cartilage-specific master transcription factor Sox-9",
      "uaz-sentence": "The activation and translocation of p65 from the cytoplasm to the nucleus could be inhibited clearly by resveratrol and curcumin in IL-1beta-stimulated human chondrocytes .",
      "uaz-sentence-start": 1020
    }
  ],
  "model_relation": "extension",
  "pmc_id": "PMC3003513",
  "reader_type": "machine",
  "reading_complete": "2015-06-15T21:43:32Z",
  "reading_started": "2015-06-15T21:43:27Z",
  "submitter": "FRIES"
}
