{
  "evidence": ["FAK 3'UTR with substitution of four nucleotides within the miR-7 binding site was not reduced by miR-7","This suggested that miR-7 interacts with the FAK mRNA 3 ' UTR through binding with the site 1 position because the activity of the luciferase reporter that carries a binding site 1 mutant FAK 3 ' UTR with substitution of four nucleotides within the miR-7 binding site was not reduced by miR-7          ."],
  "extracted_information": {
    "interaction_type": "decreases_activity",
    "negative_information": true,
    "participant_a": {
      "entity_text": "miR-7",
      "entity_type": "protein",
      "identifier": "Uniprot:Q8NHL6",
      "in_model": false
    },
    "participant_b": {
      "entity_text": "FAK",
      "entity_type": "protein",
      "identifier": "Uniprot:Q05397",
      "in_model": true
    }
  },
  "fries_provenance": [
    {
      "cmu-sentence-epistemic-status": "implication",
      "cmu-sentence-epistemic-value": 0.6,
      "component": "REACH",
      "frame-file": "PMC3410899.uaz.events",
      "frame-id": "evem-PMC3410899-UAZ-r1-19-8-4",
      "passage-id": "pass-PMC3410899-UAZ-r1-19",
      "passage-number": 19,
      "passage-section-id": "s2b",
      "passage-section-name": "N/A",
      "sentence": "This suggested that miR-7 interacts with the FAK mRNA 3 ' UTR through binding with the site 1 position because the activity of the luciferase reporter that carries a binding site 1 mutant FAK 3 ' UTR with substitution of four nucleotides within the miR-7 binding site was not reduced by miR-7          .",
      "text": "FAK 3'UTR with substitution of four nucleotides within the miR-7 binding site was not reduced by miR-7",
      "uaz-sentence": "This suggested that miR-7 interacts with the FAK mRNA 3 ' UTR through binding with the site 1 position because the activity of the luciferase reporter that carries a binding site 1 mutant FAK 3 ' UTR with substitution of four nucleotides within the miR-7 binding site was not reduced by miR-7          .",
      "uaz-sentence-start": 1215
    }
  ],
  "model_relation": "extension",
  "pmc_id": "PMC3410899",
  "reader_type": "machine",
  "reading_complete": "2015-06-15T22:52:53Z",
  "reading_started": "2015-06-15T22:52:48Z",
  "submitter": "FRIES"
}
