{
  "evidence": ["EGFR inhibitor gefitinib","Importantly , we showed that the clinically used EGFR inhibitor gefitinib has efficacy for preventing bacterial replication in both infected macrophages and mice , suggesting that EGFR is relevant in vivo .","Using the LC3 conversion assay , we determined that relative to uninfected macrophages or infected macrophages treated with DMSO control , both the EGFR inhibitor gefitinib and the serotonin transport inhibitor fluoxetine significantly enhanced autophagy            ."],
  "extracted_information": {
    "interaction_type": "decreases_activity",
    "negative_information": false,
    "participant_a": {
      "entity_text": "gefitinib",
      "entity_type": "chemical",
      "identifier": "CHEBI:38917",
      "in_model": false
    },
    "participant_b": {
      "entity_text": "EGFR",
      "entity_type": "protein",
      "identifier": "Uniprot:P00533",
      "in_model": true
    }
  },
  "fries_provenance": [
    {
      "cmu-sentence-epistemic-status": "implication",
      "cmu-sentence-epistemic-value": 0.6,
      "component": "REACH",
      "frame-file": "PMC3930586.uaz.events",
      "frame-id": "evem-PMC3930586-UAZ-r1-16-12-5",
      "passage-id": "pass-PMC3930586-UAZ-r1-16",
      "passage-number": 16,
      "passage-section-id": "s1",
      "passage-section-name": "N/A",
      "sentence": "Importantly , we showed that the clinically used EGFR inhibitor gefitinib has efficacy for preventing bacterial replication in both infected macrophages and mice , suggesting that EGFR is relevant in vivo .",
      "text": "EGFR inhibitor gefitinib",
      "uaz-event-epistemic-status": "hypothesis",
      "uaz-sentence": "Importantly , we showed that the clinically used EGFR inhibitor gefitinib has efficacy for preventing bacterial replication in both infected macrophages and mice , suggesting that EGFR is relevant in vivo .",
      "uaz-sentence-start": 2137
    },
    {
      "cmu-sentence-epistemic-status": "implication",
      "cmu-sentence-epistemic-value": 0.6,
      "component": "REACH",
      "frame-file": "PMC3930586.uaz.events",
      "frame-id": "evem-PMC3930586-UAZ-r1-43-4-10",
      "passage-id": "pass-PMC3930586-UAZ-r1-43",
      "passage-number": 43,
      "passage-section-id": "s2d",
      "passage-section-name": "N/A",
      "sentence": "Using the LC3 conversion assay , we determined that relative to uninfected macrophages or infected macrophages treated with DMSO control , both the EGFR inhibitor gefitinib and the serotonin transport inhibitor fluoxetine significantly enhanced autophagy            .",
      "text": "EGFR inhibitor gefitinib",
      "uaz-sentence": "Using the LC3 conversion assay , we determined that relative to uninfected macrophages or infected macrophages treated with DMSO control , both the EGFR inhibitor gefitinib and the serotonin transport inhibitor fluoxetine significantly enhanced autophagy            .",
      "uaz-sentence-start": 884
    }
  ],
  "model_relation": "extension",
  "pmc_id": "PMC3930586",
  "reader_type": "machine",
  "reading_complete": "2015-06-15T23:41:31Z",
  "reading_started": "2015-06-15T23:41:26Z",
  "submitter": "FRIES"
}
