{
  "evidence": ["flecainide and quinidine, which block sodium","We identified several ion channel inhibitors in our screen , including niguldipine and verapamil , which block calcium channels , and flecainide and quinidine , which block sodium channels ."],
  "extracted_information": {
    "interaction_type": "decreases_activity",
    "negative_information": false,
    "participant_a": {
      "entity_text": "flecainide",
      "entity_type": "chemical",
      "identifier": "CHEBI:75984",
      "in_model": false
    },
    "participant_b": {
      "entity_text": "sodium",
      "entity_type": "chemical",
      "identifier": "CHEBI:49766",
      "in_model": true
    }
  },
  "fries_provenance": [
    {
      "cmu-sentence-epistemic-status": "implication",
      "cmu-sentence-epistemic-value": 0.6,
      "component": "REACH",
      "frame-file": "PMC3930586.uaz.events",
      "frame-id": "evem-PMC3930586-UAZ-r1-84-0-30",
      "passage-id": "pass-PMC3930586-UAZ-r1-84",
      "passage-number": 84,
      "passage-section-id": "s3",
      "passage-section-name": "N/A",
      "sentence": "We identified several ion channel inhibitors in our screen , including niguldipine and verapamil , which block calcium channels , and flecainide and quinidine , which block sodium channels .",
      "text": "flecainide and quinidine, which block sodium",
      "uaz-sentence": "We identified several ion channel inhibitors in our screen , including niguldipine and verapamil , which block calcium channels , and flecainide and quinidine , which block sodium channels .",
      "uaz-sentence-start": 0
    }
  ],
  "model_relation": "extension",
  "pmc_id": "PMC3930586",
  "reader_type": "machine",
  "reading_complete": "2015-06-15T23:41:31Z",
  "reading_started": "2015-06-15T23:41:26Z",
  "submitter": "FRIES"
}
