{
    "frames": [
        {
            "frame-id": "sent-PMC2064837-medscan-0", 
            "frame-type": "sentence", 
            "object-type": "frame", 
            "start-pos": {
                "object-type": "absolute-pos", 
                "offset": 0
            }, 
            "text": "Scratch-induced disruption of tissue culture monolayers has been used to study aspects of directed cell migration in a variety of cell types, including fibroblasts, astrocytes, endothelial cells, and epithelial cells."
        }, 
        {
            "frame-id": "sent-PMC2064837-medscan-1", 
            "frame-type": "sentence", 
            "object-type": "frame", 
            "start-pos": {
                "object-type": "absolute-pos", 
                "offset": 1
            }, 
            "text": "With most primary nontransformed cells, migration involves coordinated movement of the monolayer in a manner more similar to the morphogenetic movements seen during development, such as dorsal closure and convergent extension, than the movement of single cells such as in neutrophil chemotaxis.  GLOSSARY{4130593={CellProcess=4005109 CellType=10000097}}"
        }, 
        {
            "frame-id": "sent-PMC2064837-medscan-2", 
            "frame-type": "sentence", 
            "object-type": "frame", 
            "start-pos": {
                "object-type": "absolute-pos", 
                "offset": 2
            }, 
            "text": "Disruption of the monolayer causes the loss of cell-cell contacts and a major consequence of this is to induce polarity in cells proximal to the scratch."
        }, 
        {
            "frame-id": "sent-PMC2064837-medscan-3", 
            "frame-type": "sentence", 
            "object-type": "frame", 
            "start-pos": {
                "object-type": "absolute-pos", 
                "offset": 3
            }, 
            "text": "One aspect of polarization is the formation of actin-rich protrusions, specifically at the front of the cell ."
        }, 
        {
            "frame-id": "sent-PMC2064837-medscan-4", 
            "frame-type": "sentence", 
            "object-type": "frame", 
            "start-pos": {
                "object-type": "absolute-pos", 
                "offset": 4
            }, 
            "text": "A second aspect of polarization involves the microtubule cytoskeleton and can be visualized as reorientation of the centrosome and Golgi to face the front of the cell."
        }, 
        {
            "frame-id": "sent-PMC2064837-medscan-5", 
            "frame-type": "sentence", 
            "object-type": "frame", 
            "start-pos": {
                "object-type": "absolute-pos", 
                "offset": 5
            }, 
            "text": "This involves the association of microtubule plus-end tips with plasma membrane complexes at the leading edge as well as movement of the nucleus to the back of the cell ( ; ; )."
        }, 
        {
            "frame-id": "sent-PMC2064837-medscan-6", 
            "frame-type": "sentence", 
            "object-type": "frame", 
            "start-pos": {
                "object-type": "absolute-pos", 
                "offset": 6
            }, 
            "text": "Numerous studies have now shown that the small GTPase Cdc42, or one of its close relatives, is required for polarization of the actin and microtubule cytoskeletons in astrocytes, primary fibroblasts, 3T3 fibroblasts, Vero epithelial cells, and endothelial cells ( ; , ; ; ; ; ; )."
        }, 
        {
            "frame-id": "sent-PMC2064837-medscan-7", 
            "frame-type": "sentence", 
            "object-type": "frame", 
            "start-pos": {
                "object-type": "absolute-pos", 
                "offset": 7
            }, 
            "text": "Studies of the signaling pathways controlling microtubule polarization in different adherent cell types have identified a complex consisting of the scaffold protein Par6 and an atypical PKC downstream of Cdc42."
        }, 
        {
            "frame-id": "sent-PMC2064837-medscan-8", 
            "frame-type": "sentence", 
            "object-type": "frame", 
            "start-pos": {
                "object-type": "absolute-pos", 
                "offset": 8
            }, 
            "text": "Localized activation of Cdc42 leads to localized activation of the Par6/atypical PKC complex, and this has now been described in astrocytes , primary rat fibroblasts , 3T3 fibroblasts , and endothelial cells ."
        }, 
        {
            "frame-id": "sent-PMC2064837-medscan-9", 
            "frame-type": "sentence", 
            "object-type": "frame", 
            "start-pos": {
                "object-type": "absolute-pos", 
                "offset": 9
            }, 
            "text": "The Par6/atypical PKC complex has at least two crucial activities in this process."
        }, 
        {
            "frame-id": "sent-PMC2064837-medscan-10", 
            "frame-type": "sentence", 
            "object-type": "frame", 
            "start-pos": {
                "object-type": "absolute-pos", 
                "offset": 10
            }, 
            "text": "First, it is required for the accumulation of the tumor suppressor protein adenomatous polyposis coli at the plus-end tips of microtubules, specifically at the leading edge."
        }, 
        {
            "frame-id": "sent-PMC2064837-medscan-11", 
            "frame-type": "sentence", 
            "object-type": "frame", 
            "start-pos": {
                "object-type": "absolute-pos", 
                "offset": 11
            }, 
            "text": "In primary astrocytes, GSK-3\u03b2 is phosphorylated at Ser9//9 by PKC\u03b6 , and this was assumed to be the likely mechanism for inhibition of kinase activity leading to adenomatous polyposis coli accumulation."
        }, 
        {
            "frame-id": "sent-PMC2064837-medscan-12", 
            "frame-type": "sentence", 
            "object-type": "frame", 
            "start-pos": {
                "object-type": "absolute-pos", 
                "offset": 12
            }, 
            "text": "A second activity of the Par6/atypical PKC complex is to promote the accumulation of another tumor suppressor protein Dlg (Discs Large) in the plasma membrane at the leading edge."
        }, 
        {
            "frame-id": "sent-PMC2064837-medscan-13", 
            "frame-type": "sentence", 
            "object-type": "frame", 
            "start-pos": {
                "object-type": "absolute-pos", 
                "offset": 13
            }, 
            "text": "The subsequent association of microtubule-bound adenomatous polyposis coli with membrane-bound Dlg is required for microtubule polarization and centrosome reorientation ."
        }, 
        {
            "frame-id": "sent-PMC2064837-medscan-14", 
            "frame-type": "sentence", 
            "object-type": "frame", 
            "start-pos": {
                "object-type": "absolute-pos", 
                "offset": 14
            }, 
            "text": "It is likely that many other cellular activities are required for reorganization of the microtubule cytoskeleton; for example IQGAP, another Cdc42 effector, is required both for protrusion polarity as well adenomatous polyposis coli and microtubule polarity  and the dynein/dynactin complex is required for centrosome reorientation and mDia and EB1, regulated by Rho, also contribute to adenomatous polyposis coli localization and stabilization ."
        }, 
        {
            "frame-id": "sent-PMC2064837-medscan-15", 
            "frame-type": "sentence", 
            "object-type": "frame", 
            "start-pos": {
                "object-type": "absolute-pos", 
                "offset": 15
            }, 
            "text": "In this report, we reexamined the significance of GSK-3 phosphorylation using fibroblasts derived from knock-in mice in which the phosphorylation sites of both GSK3\u03b1 and \u03b2 isoforms (Ser21//21 and Ser9//9, respectively) have been replaced with Ala ."
        }, 
        {
            "frame-id": "sent-PMC2064837-medscan-16", 
            "frame-type": "sentence", 
            "object-type": "frame", 
            "start-pos": {
                "object-type": "absolute-pos", 
                "offset": 16
            }, 
            "text": "We find that GSK-3 phosphorylation is not required for Golgi/centrosome reorientation, but instead dishevelled , axin, and Wnt ligands are required."
        }, 
        {
            "frame-id": "sent-PMC2064837-medscan-17", 
            "frame-type": "sentence", 
            "object-type": "frame", 
            "start-pos": {
                "object-type": "absolute-pos", 
                "offset": 17
            }, 
            "text": "It appears that a Cdc42/Par6/atypical PKC signaling pathway cooperates with a noncanonical Wnt signaling pathway to promote polarization of the microtubule cytoskeleton."
        }, 
        {
            "frame-id": "sent-PMC2064837-medscan-18", 
            "frame-type": "sentence", 
            "object-type": "frame", 
            "start-pos": {
                "object-type": "absolute-pos", 
                "offset": 18
            }, 
            "text": "We previously reported that localized inhibition of GSK-3\u03b2 is required for centrosome/Golgi reorientation and that GSK-3\u03b2 is phosphorylated downstream of Cdc42/Par6/PKC\u03b6 in migrating astrocytes and fibroblasts ."
        }, 
        {
            "frame-id": "sent-PMC2064837-medscan-19", 
            "frame-type": "sentence", 
            "object-type": "frame", 
            "start-pos": {
                "object-type": "absolute-pos", 
                "offset": 19
            }, 
            "text": "To investigate whether phosphorylation is the mechanism of GSK-3 inhibition, we analyzed primary embryonic fibroblasts derived from double knock-in mice in which Ser21//21 of GSK-3\u03b1 and Ser9//9 of GSK-3\u03b2 have been replaced with nonphosphorylatable Ala residues (to be referred to as GSK-3SA) ."
        }, 
        {
            "frame-id": "sent-PMC2064837-medscan-20", 
            "frame-type": "sentence", 
            "object-type": "frame", 
            "start-pos": {
                "object-type": "absolute-pos", 
                "offset": 20
            }, 
            "text": "After scratching a monolayer, GSK-3SA cells showed no defect in reorientation of the centrosome or the Golgi compared with littermate wild-type fibroblasts (GSK-3WT), both exhibiting \u223c70% reorientation as early as 2 h after wounding ."
        }, 
        {
            "frame-id": "sent-PMC2064837-medscan-21", 
            "frame-type": "sentence", 
            "object-type": "frame", 
            "start-pos": {
                "object-type": "absolute-pos", 
                "offset": 21
            }, 
            "text": "The experiment is scored such that 33% corresponds to random orientation."
        }, 
        {
            "frame-id": "sent-PMC2064837-medscan-22", 
            "frame-type": "sentence", 
            "object-type": "frame", 
            "start-pos": {
                "object-type": "absolute-pos", 
                "offset": 22
            }, 
            "text": "Furthermore, small molecule inhibitors of GSK-3 blocked centrosome and Golgi reorientation in GSK-3SA and GSK-3WT cells to the same extent ."
        }, 
        {
            "frame-id": "sent-PMC2064837-medscan-23", 
            "frame-type": "sentence", 
            "object-type": "frame", 
            "start-pos": {
                "object-type": "absolute-pos", 
                "offset": 23
            }, 
            "text": "We conclude that although phosphorylation of GSK-3 occurs as a consequence of inducing directed cell migration, the spatially localized inhibition of GSK-3 occurs through a mechanism that does not involve GSK-3 phosphorylation."
        }, 
        {
            "frame-id": "sent-PMC2064837-medscan-24", 
            "frame-type": "sentence", 
            "object-type": "frame", 
            "start-pos": {
                "object-type": "absolute-pos", 
                "offset": 24
            }, 
            "text": "GSK-3 inhibition is mediated by dishevelled and not by phosphorylation. (A) Golgi reorientation toward the scratch was quantified in GSK-3WT and GSK-3SA MEFs."
        }, 
        {
            "frame-id": "sent-PMC2064837-medscan-25", 
            "frame-type": "sentence", 
            "object-type": "frame", 
            "start-pos": {
                "object-type": "absolute-pos", 
                "offset": 25
            }, 
            "text": "Cells were pretreated for 1 h with indicated inhibitors, or 0.1% DMSO as control: 20 \u03bcM SB216763 or 5 \u03bcM CHIR99021 (both are GSK-3 inhibitors). *, P < 0.001; **, P < 0.01 in t test when compared with DMSO control. (B) Dvl1, 2, and 3 are efficiently depleted using specific siRNAs, also in combination (depletion >95%), compared with nonspecific control siRNA oligo. atypical PKC serves as loading control."
        }, 
        {
            "frame-id": "sent-PMC2064837-medscan-26", 
            "frame-type": "sentence", 
            "object-type": "frame", 
            "start-pos": {
                "object-type": "absolute-pos", 
                "offset": 26
            }, 
            "text": "Arrows indicate position of dishevelled protein. (C) Golgi and centrosome reorientation were measured in cells depleted of single dishevelled isoforms or their combinations."
        }, 
        {
            "frame-id": "sent-PMC2064837-medscan-27", 
            "frame-type": "sentence", 
            "object-type": "frame", 
            "start-pos": {
                "object-type": "absolute-pos", 
                "offset": 27
            }, 
            "text": "Red bar marks basal level expected from random Golgi/centrosome reorientation (33%). *, P < 0.01; **, P > 0.05, in t test when compared with control."
        }, 
        {
            "frame-id": "sent-PMC2064837-medscan-28", 
            "frame-type": "sentence", 
            "object-type": "frame", 
            "start-pos": {
                "object-type": "absolute-pos", 
                "offset": 28
            }, 
            "text": "An alternative mechanism of inhibiting GSK-3 activity is seen during Wnt signaling and involves protein-protein interactions mediated by dishevelled ."
        }, 
        {
            "frame-id": "sent-PMC2064837-medscan-29", 
            "frame-type": "sentence", 
            "object-type": "frame", 
            "start-pos": {
                "object-type": "absolute-pos", 
                "offset": 29
            }, 
            "text": "Wnt ligands induce the interaction of dishevelled with the large scaffold protein axin, leading to dissociation of GSK-3 from a complex containing axin, adenomatous polyposis coli, and \u03b2-catenin ."
        }, 
        {
            "frame-id": "sent-PMC2064837-medscan-30", 
            "frame-type": "sentence", 
            "object-type": "frame", 
            "start-pos": {
                "object-type": "absolute-pos", 
                "offset": 30
            }, 
            "text": "To determine whether dishevelled is required for centrosome reorientation, all three dishevelled isoforms were depleted in rat embryo fibroblasts using specific siRNA ."
        }, 
        {
            "frame-id": "sent-PMC2064837-medscan-31", 
            "frame-type": "sentence", 
            "object-type": "frame", 
            "start-pos": {
                "object-type": "absolute-pos", 
                "offset": 31
            }, 
            "text": "Depletion of single dishevelled isoforms had varying partial effects, but depletion of all three dishevelled isoforms completely inhibited centrosome and Golgi reorientation ( ; red line represents random orientation)."
        }, 
        {
            "frame-id": "sent-PMC2064837-medscan-32", 
            "frame-type": "sentence", 
            "object-type": "frame", 
            "start-pos": {
                "object-type": "absolute-pos", 
                "offset": 32
            }, 
            "text": "This suggests that localized inhibition of GSK-3 is mediated by dishevelled."
        }, 
        {
            "frame-id": "sent-PMC2064837-medscan-33", 
            "frame-type": "sentence", 
            "object-type": "frame", 
            "start-pos": {
                "object-type": "absolute-pos", 
                "offset": 33
            }, 
            "text": "To analyze which domains of dishevelled are required for reorientation, full-length Dvl2 or different dishevelled domain constructs were microinjected into the nuclei of leading edge cells immediately after scratching a rat embryo fibroblast monolayer ."
        }, 
        {
            "frame-id": "sent-PMC2064837-medscan-34", 
            "frame-type": "sentence", 
            "object-type": "frame", 
            "start-pos": {
                "object-type": "absolute-pos", 
                "offset": 34
            }, 
            "text": "Cells expressing full-length Dvl2 exhibited complete loss of reorientation ."
        }, 
        {
            "frame-id": "sent-PMC2064837-medscan-35", 
            "frame-type": "sentence", 
            "object-type": "frame", 
            "start-pos": {
                "object-type": "absolute-pos", 
                "offset": 35
            }, 
            "text": "Overexpression of dishevelled also blocked centrosome reorientation in GSK-3SA knock-in cells (unpublished data)."
        }, 
        {
            "frame-id": "sent-PMC2064837-medscan-36", 
            "frame-type": "sentence", 
            "object-type": "frame", 
            "start-pos": {
                "object-type": "absolute-pos", 
                "offset": 36
            }, 
            "text": "This suggests that overexpression of dishevelled interferes with the polarized inhibition of GSK-3, as has been observed in other situations ( ; ; )."
        }, 
        {
            "frame-id": "sent-PMC2064837-medscan-37", 
            "frame-type": "sentence", 
            "object-type": "frame", 
            "start-pos": {
                "object-type": "absolute-pos", 
                "offset": 37
            }, 
            "text": "Constructs containing the DIX domain (DIX and DIX+PDZ) were also able to block reorientation, while the PDZ alone, DEP domain, or \u0394DIX had no effect on reorientation , suggesting that dishevelled regulates reorientation through its DIX domain."
        }, 
        {
            "frame-id": "sent-PMC2064837-medscan-38", 
            "frame-type": "sentence", 
            "object-type": "frame", 
            "start-pos": {
                "object-type": "absolute-pos", 
                "offset": 38
            }, 
            "text": "Axin and dishevelled are required for reorientation in a DIX-dependent mechanism. (A) The different Dvl2 constructs used in microinjection experiments. (B) Golgi and centrosome reorientation were measured in cells microinjected with RFP-F control, or various Dvl2 domain-constructs. *, P < 0.01; **, P > 0.05, in t test when compared with control. (C) Axin is efficiently depleted with siRNA, also when combined with Dvl2 and 3 (right panel). atypical PKC serves as loading control. (D) Golgi and centrosome reorientation were measured in axin-depleted cells and in cells depleted of axin together with Dvl2 and 3. (E) Golgi reorientation was measured in cells microinjected with full-length axin or axin\u0394DIX."
        }, 
        {
            "frame-id": "sent-PMC2064837-medscan-39", 
            "frame-type": "sentence", 
            "object-type": "frame", 
            "start-pos": {
                "object-type": "absolute-pos", 
                "offset": 39
            }, 
            "text": "Red bar marks basal level expected from random Golgi/centrosome reorientation (33%). *, P < 0.005 in t test when compared with control."
        }, 
        {
            "frame-id": "sent-PMC2064837-medscan-40", 
            "frame-type": "sentence", 
            "object-type": "frame", 
            "start-pos": {
                "object-type": "absolute-pos", 
                "offset": 40
            }, 
            "text": "The DIX domain interacts with dishevelled itself and with axin ."
        }, 
        {
            "frame-id": "sent-PMC2064837-medscan-41", 
            "frame-type": "sentence", 
            "object-type": "frame", 
            "start-pos": {
                "object-type": "absolute-pos", 
                "offset": 41
            }, 
            "text": "To examine whether axin is required for reorientation, siRNA was used ."
        }, 
        {
            "frame-id": "sent-PMC2064837-medscan-42", 
            "frame-type": "sentence", 
            "object-type": "frame", 
            "start-pos": {
                "object-type": "absolute-pos", 
                "offset": 42
            }, 
            "text": "Interestingly, axin depletion blocked reorientation to a similar degree as Dvl2 or Dvl3 depletion ."
        }, 
        {
            "frame-id": "sent-PMC2064837-medscan-43", 
            "frame-type": "sentence", 
            "object-type": "frame", 
            "start-pos": {
                "object-type": "absolute-pos", 
                "offset": 43
            }, 
            "text": "Moreover, when axin was depleted together with Dvl2 and Dvl3, reorientation was completely inhibited, suggesting that Dvl2 and Dvl3 cooperate with axin, likely through a direct interaction."
        }, 
        {
            "frame-id": "sent-PMC2064837-medscan-44", 
            "frame-type": "sentence", 
            "object-type": "frame", 
            "start-pos": {
                "object-type": "absolute-pos", 
                "offset": 44
            }, 
            "text": "Axin overexpression after microinjection of an expression construct also blocked reorientation, whereas expression of axin lacking the DIX domain did not , emphasizing the important role for the DIX domain in this process."
        }, 
        {
            "frame-id": "sent-PMC2064837-medscan-45", 
            "frame-type": "sentence", 
            "object-type": "frame", 
            "start-pos": {
                "object-type": "absolute-pos", 
                "offset": 45
            }, 
            "text": "Because dishevelled and axin are key components of Wnt signaling pathways and are also required for centrosome/Golgi reorientation, we tested whether Wnt ligands themselves might be involved."
        }, 
        {
            "frame-id": "sent-PMC2064837-medscan-46", 
            "frame-type": "sentence", 
            "object-type": "frame", 
            "start-pos": {
                "object-type": "absolute-pos", 
                "offset": 46
            }, 
            "text": "Wnt signaling was blocked using recombinant soluble Frizzled-related protein 1 , a naturally occurring antagonist of the Wnt pathway, which acts by binding to Wnt ligands and sequestering them away from frizzled receptors . soluble Frizzled-related protein 1 treatment led to substantial inhibition of centrosome/Golgi reorientation, suggesting that Wnts are involved in reorientation ."
        }, 
        {
            "frame-id": "sent-PMC2064837-medscan-47", 
            "frame-type": "sentence", 
            "object-type": "frame", 
            "start-pos": {
                "object-type": "absolute-pos", 
                "offset": 47
            }, 
            "text": "In contrast, recombinant Dickkopf1 (Dkk1) protein, another antagonist that specifically inhibits a subset of Wnt ligands that are required only for the canonical Wnt pathway, did not significantly block reorientation, implying that one or more Wnts belonging to the noncanonical family are responsible ."
        }, 
        {
            "frame-id": "sent-PMC2064837-medscan-48", 
            "frame-type": "sentence", 
            "object-type": "frame", 
            "start-pos": {
                "object-type": "absolute-pos", 
                "offset": 48
            }, 
            "text": "Importantly, both antagonists blocked \u03b2-catenin stabilization in L-cells treated with Wnt3a, confirming their activity as negative regulators of Wnt signaling (unpublished data)."
        }, 
        {
            "frame-id": "sent-PMC2064837-medscan-49", 
            "frame-type": "sentence", 
            "object-type": "frame", 
            "start-pos": {
                "object-type": "absolute-pos", 
                "offset": 49
            }, 
            "text": "Wnt5a is required for reorientation and dishevelled phosphorylation. (A) Cells were pretreated for 1 h with the indicated concentrations of recombinant Dkk1 or soluble Frizzled-related protein 1 proteins (these concentrations were based on previous reports [ ] and were also determined by titration) or with PBS as control."
        }, 
        {
            "frame-id": "sent-PMC2064837-medscan-50", 
            "frame-type": "sentence", 
            "object-type": "frame", 
            "start-pos": {
                "object-type": "absolute-pos", 
                "offset": 50
            }, 
            "text": "Golgi and centrosome reorientation were measured 4.5 h after wounding. (B) Dvl2 and Dvl3 phosphorylation can be detected as a band-shift in Western blots preformed on 7.5% SDS/polyacrylamide gels, indicated by arrowheads. 5 \u03bcg/ml soluble Frizzled-related protein 1 or 1 \u03bcg/ml Dkk1 was used. atypical PKC serves as loading control. (C) Wnt5a protein can be detected in fibroblast cell extracts by Western blot."
        }, 
        {
            "frame-id": "sent-PMC2064837-medscan-51", 
            "frame-type": "sentence", 
            "object-type": "frame", 
            "start-pos": {
                "object-type": "absolute-pos", 
                "offset": 51
            }, 
            "text": "Protein levels do not change over the time course of migration."
        }, 
        {
            "frame-id": "sent-PMC2064837-medscan-52", 
            "frame-type": "sentence", 
            "object-type": "frame", 
            "start-pos": {
                "object-type": "absolute-pos", 
                "offset": 52
            }, 
            "text": "Tubulin serves as loading control. (D) Wnt5a protein can be efficiently depleted using two different siRNA oligos."
        }, 
        {
            "frame-id": "sent-PMC2064837-medscan-53", 
            "frame-type": "sentence", 
            "object-type": "frame", 
            "start-pos": {
                "object-type": "absolute-pos", 
                "offset": 53
            }, 
            "text": "Tubulin serves as loading control. (E) Centrosome and Golgi reorientation were measured in Wnt5a-depleted cells."
        }, 
        {
            "frame-id": "sent-PMC2064837-medscan-54", 
            "frame-type": "sentence", 
            "object-type": "frame", 
            "start-pos": {
                "object-type": "absolute-pos", 
                "offset": 54
            }, 
            "text": "Red bar marks basal level expected from random Golgi/centrosome reorientation (33%). (F) Dvl2 and Dvl3 phosphorylation was visualized in cells treated with control or two different Wnt5a siRNA oligos."
        }, 
        {
            "frame-id": "sent-PMC2064837-medscan-55", 
            "frame-type": "sentence", 
            "object-type": "frame", 
            "start-pos": {
                "object-type": "absolute-pos", 
                "offset": 55
            }, 
            "text": "Arrows indicate differently phosphorylated forms of dishevelled and atypical PKC serves as loading control."
        }, 
        {
            "frame-id": "sent-PMC2064837-medscan-56", 
            "frame-type": "sentence", 
            "object-type": "frame", 
            "start-pos": {
                "object-type": "absolute-pos", 
                "offset": 56
            }, 
            "text": "dishevelled activity has been reported to be controlled by multiple phosphorylation events ( ; ; ), which can be observed as a series of band shifts on Western blots ."
        }, 
        {
            "frame-id": "sent-PMC2064837-medscan-57", 
            "frame-type": "sentence", 
            "object-type": "frame", 
            "start-pos": {
                "object-type": "absolute-pos", 
                "offset": 57
            }, 
            "text": "To examine whether the block in centrosome reorientation by soluble Frizzled-related protein 1 impacts dishevelled phosphorylation, we examined Dvl2 and Dvl3 mobility on 7.5% polyacrylamide-SDS gels ."
        }, 
        {
            "frame-id": "sent-PMC2064837-medscan-58", 
            "frame-type": "sentence", 
            "object-type": "frame", 
            "start-pos": {
                "object-type": "absolute-pos", 
                "offset": 58
            }, 
            "text": "Dvl2 and Dvl3 appear as multiple bands even in unscratched, confluent rat embryo fibroblast monolayers, suggesting some constitutive phosphorylation ( , top panel lanes 1 and 9)."
        }, 
        {
            "frame-id": "sent-PMC2064837-medscan-59", 
            "frame-type": "sentence", 
            "object-type": "frame", 
            "start-pos": {
                "object-type": "absolute-pos", 
                "offset": 59
            }, 
            "text": "Addition of sFRP-1, but not Dkk-1 caused a significant increase in gel mobility ( , lanes 5 and 13, respectively), suggesting that dishevelled is phosphorylated in monolayers and that this is dependent on a constitutive, noncanonical-like Wnt activity."
        }, 
        {
            "frame-id": "sent-PMC2064837-medscan-60", 
            "frame-type": "sentence", 
            "object-type": "frame", 
            "start-pos": {
                "object-type": "absolute-pos", 
                "offset": 60
            }, 
            "text": "Scratching the monolayer resulted in no major changes in the mobility of dishevelled."
        }, 
        {
            "frame-id": "sent-PMC2064837-medscan-61", 
            "frame-type": "sentence", 
            "object-type": "frame", 
            "start-pos": {
                "object-type": "absolute-pos", 
                "offset": 61
            }, 
            "text": "Recent reports describe Wnt5a as a regulator of noncanonical Wnt signaling, specifically during events requiring cell migration in vertebrates ( ; ; ; ; ; ; )."
        }, 
        {
            "frame-id": "sent-PMC2064837-medscan-62", 
            "frame-type": "sentence", 
            "object-type": "frame", 
            "start-pos": {
                "object-type": "absolute-pos", 
                "offset": 62
            }, 
            "text": "This prompted us to examine a possible role for Wnt5a in polarized cell migration."
        }, 
        {
            "frame-id": "sent-PMC2064837-medscan-63", 
            "frame-type": "sentence", 
            "object-type": "frame", 
            "start-pos": {
                "object-type": "absolute-pos", 
                "offset": 63
            }, 
            "text": "Wnt5a protein could be detected by Western blot, though its levels remained constant throughout a 2-h time course after scratching, confirming that primary fibroblasts constitutively produce Wnt5a ."
        }, 
        {
            "frame-id": "sent-PMC2064837-medscan-64", 
            "frame-type": "sentence", 
            "object-type": "frame", 
            "start-pos": {
                "object-type": "absolute-pos", 
                "offset": 64
            }, 
            "text": "To address the role of Wnt5a in centrosome/Golgi reorientation, Wnt5a was depleted using two different specific siRNA oligonucleotides ."
        }, 
        {
            "frame-id": "sent-PMC2064837-medscan-65", 
            "frame-type": "sentence", 
            "object-type": "frame", 
            "start-pos": {
                "object-type": "absolute-pos", 
                "offset": 65
            }, 
            "text": "Both siRNA oligonucleotides led to substantial inhibition of reorientation, suggesting that Wnt5a is likely to be the major Wnt ligand regulating polarity in these cells . siRNA-mediated depletion of two other Wnt ligands, Wnt1 and Wnt3a, did not block reorientation (unpublished data)."
        }, 
        {
            "frame-id": "sent-PMC2064837-medscan-66", 
            "frame-type": "sentence", 
            "object-type": "frame", 
            "start-pos": {
                "object-type": "absolute-pos", 
                "offset": 66
            }, 
            "text": "Furthermore, dishevelled mobility on gels was significantly increased by both Wnt5a siRNA oligos, suggesting that dishevelled phosphorylation is dependent on Wnt5a ."
        }, 
        {
            "frame-id": "sent-PMC2064837-medscan-67", 
            "frame-type": "sentence", 
            "object-type": "frame", 
            "start-pos": {
                "object-type": "absolute-pos", 
                "offset": 67
            }, 
            "text": "Although we cannot exclude the possibility that other Wnts are expressed and involved, these data support an important role for Wnt5a in polarization of the centrosome/Golgi."
        }, 
        {
            "frame-id": "sent-PMC2064837-medscan-68", 
            "frame-type": "sentence", 
            "object-type": "frame", 
            "start-pos": {
                "object-type": "absolute-pos", 
                "offset": 68
            }, 
            "text": "A key step in the pathway controlling centrosome/Golgi reorientation is adenomatous polyposis coli recruitment to microtubule plus ends ."
        }, 
        {
            "frame-id": "sent-PMC2064837-medscan-69", 
            "frame-type": "sentence", 
            "object-type": "frame", 
            "start-pos": {
                "object-type": "absolute-pos", 
                "offset": 69
            }, 
            "text": "In control scratched monolayers, adenomatous polyposis coli is localized along microtubules but is enriched at the leading edge ."
        }, 
        {
            "frame-id": "sent-PMC2064837-medscan-70", 
            "frame-type": "sentence", 
            "object-type": "frame", 
            "start-pos": {
                "object-type": "absolute-pos", 
                "offset": 70
            }, 
            "text": "In dishevelled-depleted cells, adenomatous polyposis coli is mislocalized; it is found along all microtubules at the back as well as the front of the cell and is enriched in the perinuclear region ."
        }, 
        {
            "frame-id": "sent-PMC2064837-medscan-71", 
            "frame-type": "sentence", 
            "object-type": "frame", 
            "start-pos": {
                "object-type": "absolute-pos", 
                "offset": 71
            }, 
            "text": "adenomatous polyposis coli localization was also greatly affected by axin or Wnt5a depletion ( , respectively), showing loss of microtubule tip accumulation and concentration of adenomatous polyposis coli in the perinuclear region."
        }, 
        {
            "frame-id": "sent-PMC2064837-medscan-72", 
            "frame-type": "sentence", 
            "object-type": "frame", 
            "start-pos": {
                "object-type": "absolute-pos", 
                "offset": 72
            }, 
            "text": "adenomatous polyposis coli localization in cells treated with soluble Frizzled-related protein 1 was similar to that of cells treated with Wnt5a siRNA (unpublished data)."
        }, 
        {
            "frame-id": "sent-PMC2064837-medscan-73", 
            "frame-type": "sentence", 
            "object-type": "frame", 
            "start-pos": {
                "object-type": "absolute-pos", 
                "offset": 73
            }, 
            "text": "Quantifying the effects of siRNA on adenomatous polyposis coli localization demonstrates that dishevelled, axin, and Wnt5a are all required for proper adenomatous polyposis coli polarization ."
        }, 
        {
            "frame-id": "sent-PMC2064837-medscan-74", 
            "frame-type": "sentence", 
            "object-type": "frame", 
            "start-pos": {
                "object-type": "absolute-pos", 
                "offset": 74
            }, 
            "text": "Wnt signaling is required for the accumulation of adenomatous polyposis coli on microtubules at the leading edge. (A-D) Confocal images of cells treated with control siRNA (A); all three dishevelled isoform siRNAs (B); Axin siRNA (C); Wnt5a siRNA (D) and stained for adenomatous polyposis coli (green) and microtubules (red)."
        }, 
        {
            "frame-id": "sent-PMC2064837-medscan-75", 
            "frame-type": "sentence", 
            "object-type": "frame", 
            "start-pos": {
                "object-type": "absolute-pos", 
                "offset": 75
            }, 
            "text": "Higher magnification of areas marked with dashed-line squares are shown in bottom panel (a-d)."
        }, 
        {
            "frame-id": "sent-PMC2064837-medscan-76", 
            "frame-type": "sentence", 
            "object-type": "frame", 
            "start-pos": {
                "object-type": "absolute-pos", 
                "offset": 76
            }, 
            "text": "Arrowheads point to regions of adenomatous polyposis coli accumulation, at the front of control-siRNA cells, at the back of All-dishevelled-siRNA cells, or at the perinuclear region of Axin-siRNA or Wnt5a-siRNA cells. (E) adenomatous polyposis coli polarization was quantified as described in Materials and methods."
        }, 
        {
            "frame-id": "sent-PMC2064837-medscan-77", 
            "frame-type": "sentence", 
            "object-type": "frame", 
            "start-pos": {
                "object-type": "absolute-pos", 
                "offset": 77
            }, 
            "text": "dishevelled can be regulated by protein-protein interactions, leading to changes in its subcellular localization and subsequent complex formation ( ; ; ; )."
        }, 
        {
            "frame-id": "sent-PMC2064837-medscan-78", 
            "frame-type": "sentence", 
            "object-type": "frame", 
            "start-pos": {
                "object-type": "absolute-pos", 
                "offset": 78
            }, 
            "text": "Because we have previously shown that the Par6/atypical PKC/Cdc42 complex is also required for polarized adenomatous polyposis coli accumulation, we looked for a biochemical interaction between these two signaling pathways."
        }, 
        {
            "frame-id": "sent-PMC2064837-medscan-79", 
            "frame-type": "sentence", 
            "object-type": "frame", 
            "start-pos": {
                "object-type": "absolute-pos", 
                "offset": 79
            }, 
            "text": "Dvl2 was immunoprecipitated from cells pretreated with an atypical PKC inhibitor (G\u00f66983), a Wnt inhibitor (soluble Frizzled-related protein 1), or a Cdc42 inhibitor (Toxin B10463)."
        }, 
        {
            "frame-id": "sent-PMC2064837-medscan-80", 
            "frame-type": "sentence", 
            "object-type": "frame", 
            "start-pos": {
                "object-type": "absolute-pos", 
                "offset": 80
            }, 
            "text": "In untreated cells, atypical PKC could be found in a complex with Dvl2 and Dvl3, and this was increased upon scratching ."
        }, 
        {
            "frame-id": "sent-PMC2064837-medscan-81", 
            "frame-type": "sentence", 
            "object-type": "frame", 
            "start-pos": {
                "object-type": "absolute-pos", 
                "offset": 81
            }, 
            "text": "Although the increase is modest, scratching induces localized changes in signaling activities at the front of the cell and this is very different, for example, from adding a soluble agonist."
        }, 
        {
            "frame-id": "sent-PMC2064837-medscan-82", 
            "frame-type": "sentence", 
            "object-type": "frame", 
            "start-pos": {
                "object-type": "absolute-pos", 
                "offset": 82
            }, 
            "text": "When Wnt signaling or Cdc42 activity was blocked, the induced, but not the basal level of this interaction was lost, suggesting both Wnt and Cdc42 activities are required to promote a Dvl2/atypical PKC interaction after scratching ."
        }, 
        {
            "frame-id": "sent-PMC2064837-medscan-83", 
            "frame-type": "sentence", 
            "object-type": "frame", 
            "start-pos": {
                "object-type": "absolute-pos", 
                "offset": 83
            }, 
            "text": "In contrast, atypical PKC inhibitors did not block this interaction, suggesting atypical PKC activity was not required for Dvl2/atypical PKC complex formation."
        }, 
        {
            "frame-id": "sent-PMC2064837-medscan-84", 
            "frame-type": "sentence", 
            "object-type": "frame", 
            "start-pos": {
                "object-type": "absolute-pos", 
                "offset": 84
            }, 
            "text": "Dvl2 and atypical PKC form a complex after scratching in a Wnt- and Cdc42-dependent manner. (A) Endogenous dishevelled was immunoprecipitated using monoclonal antibodies against Dvl2 or Dvl3 from cell extracts 30 min after scratching."
        }, 
        {
            "frame-id": "sent-PMC2064837-medscan-85", 
            "frame-type": "sentence", 
            "object-type": "frame", 
            "start-pos": {
                "object-type": "absolute-pos", 
                "offset": 85
            }, 
            "text": "Top panel shows coimmunoprecipitated atypical PKC and immunoprecipitated Dvl2 (Western blotting was done using a rabbit antibody against Dvl2), and middle panel shows the coimmunoprecipitated atypical PKC and immunoprecipitated Dvl3. atypical PKC levels in 10% of total input extract were used as loading control (bottom panel)."
        }, 
        {
            "frame-id": "sent-PMC2064837-medscan-86", 
            "frame-type": "sentence", 
            "object-type": "frame", 
            "start-pos": {
                "object-type": "absolute-pos", 
                "offset": 86
            }, 
            "text": "Control immunoprecipitation (right panel) using a nonspecific antibody (mouse anti-Myc) demonstrates the specificity of atypical PKC immunoprecipitations. (B) Endogenous Dvl2 was immunoprecipitated from extracts of cells that had been pretreated for 1 h with 8 \u03bcM G\u00f66983 (atypical PKC inhibitor), 5 \u03bcg/ml soluble Frizzled-related protein 1 (Wnt inhibitor), or 5 ng/ml Toxin B10463 (Rho GTPase inhibitor) and then scratched and left for 30 min."
        }, 
        {
            "frame-id": "sent-PMC2064837-medscan-87", 
            "frame-type": "sentence", 
            "object-type": "frame", 
            "start-pos": {
                "object-type": "absolute-pos", 
                "offset": 87
            }, 
            "text": "Top two panels show coimmunoprecipitated atypical PKC and immunoprecipitated Dvl2. atypical PKC levels in 10% of total input extract were used as loading control. (C) Quantification of fold increase in dishevelled2-atypical PKC interaction after scratching cell monolayer is shown. atypical PKC levels were normalized to Dvl2 levels (i.e., the sum of the two migrating species)."
        }, 
        {
            "frame-id": "sent-PMC2064837-medscan-88", 
            "frame-type": "sentence", 
            "object-type": "frame", 
            "start-pos": {
                "object-type": "absolute-pos", 
                "offset": 88
            }, 
            "text": "Average of three independent experiments is shown."
        }, 
        {
            "frame-id": "sent-PMC2064837-medscan-89", 
            "frame-type": "sentence", 
            "object-type": "frame", 
            "start-pos": {
                "object-type": "absolute-pos", 
                "offset": 89
            }, 
            "text": "Red bar marks basal (un-induced) levels."
        }, 
        {
            "frame-id": "sent-PMC2064837-medscan-90", 
            "frame-type": "sentence", 
            "object-type": "frame", 
            "start-pos": {
                "object-type": "absolute-pos", 
                "offset": 90
            }, 
            "text": "In conclusion, whereas dishevelled, axin, adenomatous polyposis coli, and GSK-3 participate in canonical Wnt signaling to promote a transcriptional response, the Wnt5a/dishevelled effects described here represent a noncanonical pathway that is independent of transcription and involves polarization of microtubules."
        }, 
        {
            "frame-id": "sent-PMC2064837-medscan-91", 
            "frame-type": "sentence", 
            "object-type": "frame", 
            "start-pos": {
                "object-type": "absolute-pos", 
                "offset": 91
            }, 
            "text": "Although Wnt5a is constitutively expressed in these cells, the scratch-induced generation of a new leading edge leads to spatially localized activation of the Cdc42/Par6/atypical PKC complex and these two pathways are both required to control polarity."
        }, 
        {
            "frame-id": "sent-PMC2064837-medscan-92", 
            "frame-type": "sentence", 
            "object-type": "frame", 
            "start-pos": {
                "object-type": "absolute-pos", 
                "offset": 92
            }, 
            "text": "The regulation of polarity by Wnt5a could therefore occur by (a) its polarized secretion, (b) polarized activation of its receptor, or (c) polarized activation of the downstream signal transduction pathway ( , ; )."
        }, 
        {
            "frame-id": "sent-PMC2064837-medscan-93", 
            "frame-type": "sentence", 
            "object-type": "frame", 
            "start-pos": {
                "object-type": "absolute-pos", 
                "offset": 93
            }, 
            "text": "The biochemical link between Cdc42/Par6/atypical PKC and Wnt5a/dishevelled is not clear, though we have identified an interaction between atypical PKC and Dvl2, which is increased soon after scratching."
        }, 
        {
            "frame-id": "sent-PMC2064837-medscan-94", 
            "frame-type": "sentence", 
            "object-type": "frame", 
            "start-pos": {
                "object-type": "absolute-pos", 
                "offset": 94
            }, 
            "text": "The results described here provide new insights into the role of noncanonical Wnt pathways in establishing microtubule polarity and identify a potential link between Cdc42 and Wnt signaling pathways, whereby polarization of Wnt signaling can occur in a Cdc42-dependent manner, in response to an external cue."
        }, 
        {
            "frame-id": "sent-PMC2064837-medscan-95", 
            "frame-type": "sentence", 
            "object-type": "frame", 
            "start-pos": {
                "object-type": "absolute-pos", 
                "offset": 95
            }, 
            "text": "The following antibodies were used: mouse anti-Dvl1, rabbit anti-Dvl2 (used for Western blot), mouse anti-Dvl2 (used for immunoprecipitation), mouse anti-Dvl3, rabbit anti-atypical PKC, (Santa Cruz Biotechnology, Inc.), rabbit anti-axin (Zymed Laboratories), goat anti-Wnt5a (R&D Systems), mouse anti-p115 (Golgi marker), mouse anti-tubulin (used for IF), mouse anti-myc, (Cancer Research UK, London), rabbit anti-pericentrin (Covance), rat anti-\u03b1-tubulin (used for Western blot) (Harlan), and rabbit anti-adenomatous polyposis coli (a gift from Inke Nathke, University of Dundee, UK)."
        }, 
        {
            "frame-id": "sent-PMC2064837-medscan-96", 
            "frame-type": "sentence", 
            "object-type": "frame", 
            "start-pos": {
                "object-type": "absolute-pos", 
                "offset": 96
            }, 
            "text": "Secondary antibodies coupled to HRP were from Jackson ImmunoResearch Laboratories."
        }, 
        {
            "frame-id": "sent-PMC2064837-medscan-97", 
            "frame-type": "sentence", 
            "object-type": "frame", 
            "start-pos": {
                "object-type": "absolute-pos", 
                "offset": 97
            }, 
            "text": "Secondary antibodies used for immunofluorescence and fluorescent phalloidin were from Molecular Probes."
        }, 
        {
            "frame-id": "sent-PMC2064837-medscan-98", 
            "frame-type": "sentence", 
            "object-type": "frame", 
            "start-pos": {
                "object-type": "absolute-pos", 
                "offset": 98
            }, 
            "text": "The following reagents were used: recombinant human sFRP-1 and recombinant human Dkk-1 (R&D Systems), G\u00f66983, Toxin B10463 (Calbiochem), SB216763 (Tocris), and CHIR99021 (a gift from Philip Cohen, University of Dundee, UK)."
        }, 
        {
            "frame-id": "sent-PMC2064837-medscan-99", 
            "frame-type": "sentence", 
            "object-type": "frame", 
            "start-pos": {
                "object-type": "absolute-pos", 
                "offset": 99
            }, 
            "text": "Full-length cDNA of mouse Dvl2 was a gift from Trevor Dale (Institute of Cancer Research, UK)."
        }, 
        {
            "frame-id": "sent-PMC2064837-medscan-100", 
            "frame-type": "sentence", 
            "object-type": "frame", 
            "start-pos": {
                "object-type": "absolute-pos", 
                "offset": 100
            }, 
            "text": "Deletion mutants of Dvl2 were made using PCR amplification of fragments of interest and subcloning into pRK5myc."
        }, 
        {
            "frame-id": "sent-PMC2064837-medscan-101", 
            "frame-type": "sentence", 
            "object-type": "frame", 
            "start-pos": {
                "object-type": "absolute-pos", 
                "offset": 101
            }, 
            "text": "All sequences were confirmed by sequencing (MWG Biotech)."
        }, 
        {
            "frame-id": "sent-PMC2064837-medscan-102", 
            "frame-type": "sentence", 
            "object-type": "frame", 
            "start-pos": {
                "object-type": "absolute-pos", 
                "offset": 102
            }, 
            "text": "RFP-F, a farnesylated form of RFP that is targeted to the membrane, was described previously ."
        }, 
        {
            "frame-id": "sent-PMC2064837-medscan-103", 
            "frame-type": "sentence", 
            "object-type": "frame", 
            "start-pos": {
                "object-type": "absolute-pos", 
                "offset": 103
            }, 
            "text": "Axin constructs were a gift from Robert Kypta (Hammersmith Hospital, UK)."
        }, 
        {
            "frame-id": "sent-PMC2064837-medscan-104", 
            "frame-type": "sentence", 
            "object-type": "frame", 
            "start-pos": {
                "object-type": "absolute-pos", 
                "offset": 104
            }, 
            "text": "Primary ratembryonic fibroblasts (rat embryo fibroblast) were prepared as described previously ."
        }, 
        {
            "frame-id": "sent-PMC2064837-medscan-105", 
            "frame-type": "sentence", 
            "object-type": "frame", 
            "start-pos": {
                "object-type": "absolute-pos", 
                "offset": 105
            }, 
            "text": "Primary mouse embryonic fibroblasts were provided by ."
        }, 
        {
            "frame-id": "sent-PMC2064837-medscan-106", 
            "frame-type": "sentence", 
            "object-type": "frame", 
            "start-pos": {
                "object-type": "absolute-pos", 
                "offset": 106
            }, 
            "text": "Only cells from passage 2-3 were used in all experiments."
        }, 
        {
            "frame-id": "sent-PMC2064837-medscan-107", 
            "frame-type": "sentence", 
            "object-type": "frame", 
            "start-pos": {
                "object-type": "absolute-pos", 
                "offset": 107
            }, 
            "text": "Both cell types were maintained in DME supplemented with 10% fetal calf serum, streptomycin, and penicillin at 37\u00b0C."
        }, 
        {
            "frame-id": "sent-PMC2064837-medscan-108", 
            "frame-type": "sentence", 
            "object-type": "frame", 
            "start-pos": {
                "object-type": "absolute-pos", 
                "offset": 108
            }, 
            "text": "rat embryo fibroblasts were maintained in 10% CO2 and mouse embryonic fibroblasts in 5% CO2."
        }, 
        {
            "frame-id": "sent-PMC2064837-medscan-109", 
            "frame-type": "sentence", 
            "object-type": "frame", 
            "start-pos": {
                "object-type": "absolute-pos", 
                "offset": 109
            }, 
            "text": "Microinjections were performed as previously described ."
        }, 
        {
            "frame-id": "sent-PMC2064837-medscan-110", 
            "frame-type": "sentence", 
            "object-type": "frame", 
            "start-pos": {
                "object-type": "absolute-pos", 
                "offset": 110
            }, 
            "text": "In brief, confluent cell monolayers grown on glass coverslips were scratched with a P2 tip. 30 min later, cells along the wound edge were microinjected with 0.4 \u03bcg/\u03bcl cDNA of interest plus 0.15 \u03bcg/\u03bcl pRFP-F, which served as an injection tracer and membrane marker."
        }, 
        {
            "frame-id": "sent-PMC2064837-medscan-111", 
            "frame-type": "sentence", 
            "object-type": "frame", 
            "start-pos": {
                "object-type": "absolute-pos", 
                "offset": 111
            }, 
            "text": "Cells were fixed 4.5 h later."
        }, 
        {
            "frame-id": "sent-PMC2064837-medscan-112", 
            "frame-type": "sentence", 
            "object-type": "frame", 
            "start-pos": {
                "object-type": "absolute-pos", 
                "offset": 112
            }, 
            "text": "Polarization was determined 4.5 h or 2 h after scratching of rat embryo fibroblast or mouse embryonic fibroblasts monolayers, respectively."
        }, 
        {
            "frame-id": "sent-PMC2064837-medscan-113", 
            "frame-type": "sentence", 
            "object-type": "frame", 
            "start-pos": {
                "object-type": "absolute-pos", 
                "offset": 113
            }, 
            "text": "Golgi was detected using antibodies against p115 and centrosome was detected using antibodies against pericentrin."
        }, 
        {
            "frame-id": "sent-PMC2064837-medscan-114", 
            "frame-type": "sentence", 
            "object-type": "frame", 
            "start-pos": {
                "object-type": "absolute-pos", 
                "offset": 114
            }, 
            "text": "First row cells showing the Golgi/centrosome located in front of the nucleus and in the 120\u00b0 sector facing the wound, were counted as oriented ."
        }, 
        {
            "frame-id": "sent-PMC2064837-medscan-115", 
            "frame-type": "sentence", 
            "object-type": "frame", 
            "start-pos": {
                "object-type": "absolute-pos", 
                "offset": 115
            }, 
            "text": "For adenomatous polyposis colipolarization, cells exhibiting front accumulation of adenomatous polyposis coli were counted as polarized."
        }, 
        {
            "frame-id": "sent-PMC2064837-medscan-116", 
            "frame-type": "sentence", 
            "object-type": "frame", 
            "start-pos": {
                "object-type": "absolute-pos", 
                "offset": 116
            }, 
            "text": "Cells exhibiting uniform distribution or perinuclear staining were counted as nonpolarized."
        }, 
        {
            "frame-id": "sent-PMC2064837-medscan-117", 
            "frame-type": "sentence", 
            "object-type": "frame", 
            "start-pos": {
                "object-type": "absolute-pos", 
                "offset": 117
            }, 
            "text": "For drug-treated or siRNA-treated cells at least 100 cells were counted per coverslip."
        }, 
        {
            "frame-id": "sent-PMC2064837-medscan-118", 
            "frame-type": "sentence", 
            "object-type": "frame", 
            "start-pos": {
                "object-type": "absolute-pos", 
                "offset": 118
            }, 
            "text": "For microinjected coverslips at least 50 cells were counted per coverslip."
        }, 
        {
            "frame-id": "sent-PMC2064837-medscan-119", 
            "frame-type": "sentence", 
            "object-type": "frame", 
            "start-pos": {
                "object-type": "absolute-pos", 
                "offset": 119
            }, 
            "text": "Each data point represents at least three independent experiments."
        }, 
        {
            "frame-id": "sent-PMC2064837-medscan-120", 
            "frame-type": "sentence", 
            "object-type": "frame", 
            "start-pos": {
                "object-type": "absolute-pos", 
                "offset": 120
            }, 
            "text": "Error bars represent SD and statistical tests were performed using a two-tailed t test with equal variances."
        }, 
        {
            "frame-id": "sent-PMC2064837-medscan-121", 
            "frame-type": "sentence", 
            "object-type": "frame", 
            "start-pos": {
                "object-type": "absolute-pos", 
                "offset": 121
            }, 
            "text": "Unless otherwise specified, all double-stranded predesigned HPLC-grade siRNA oligos were obtained from MWG Biotech. siRNA treatment was performed as previously described ."
        }, 
        {
            "frame-id": "sent-PMC2064837-medscan-122", 
            "frame-type": "sentence", 
            "object-type": "frame", 
            "start-pos": {
                "object-type": "absolute-pos", 
                "offset": 122
            }, 
            "text": "In brief, a total of 600 pmol of siRNA oligos were introduced into 1.5 \u00d7 106 cells by nucleofection (Amaxa) using solution V, program G-09."
        }, 
        {
            "frame-id": "sent-PMC2064837-medscan-123", 
            "frame-type": "sentence", 
            "object-type": "frame", 
            "start-pos": {
                "object-type": "absolute-pos", 
                "offset": 123
            }, 
            "text": "Cells were replated at a density of 5 \u00d7 104/cm2 and assayed 72 h later."
        }, 
        {
            "frame-id": "sent-PMC2064837-medscan-124", 
            "frame-type": "sentence", 
            "object-type": "frame", 
            "start-pos": {
                "object-type": "absolute-pos", 
                "offset": 124
            }, 
            "text": "Efficient depletion was observed 2-3 d after nucleofection, and was quantified by Western blot."
        }, 
        {
            "frame-id": "sent-PMC2064837-medscan-125", 
            "frame-type": "sentence", 
            "object-type": "frame", 
            "start-pos": {
                "object-type": "absolute-pos", 
                "offset": 125
            }, 
            "text": "The following siRNA oligos were used: rat Dvl1 (Ambion) GGAGGAGAUCUUCGACGACtt, rat Dvl2 GUACCAGCUUAGGAGAUUCtt, rat Dvl3 GGAAGAGAUCUCGGAUGACtt, rat axin GUAUCGUUGUGGCCUACUAtt, rat Wnt5a (#1) UAACACGUAUUCGAACUUAtt, rat Wnt5a (#2) GCACAGUGGACAACACUUCtt, nonspecific control AGGUAGUGUAAUCGCCUUGtt."
        }, 
        {
            "frame-id": "sent-PMC2064837-medscan-126", 
            "frame-type": "sentence", 
            "object-type": "frame", 
            "start-pos": {
                "object-type": "absolute-pos", 
                "offset": 126
            }, 
            "text": "Confluent monolayers grown on 60-mm dishes and scratched 24 times using a multi-channel pipette fitted with four P2 tips."
        }, 
        {
            "frame-id": "sent-PMC2064837-medscan-127", 
            "frame-type": "sentence", 
            "object-type": "frame", 
            "start-pos": {
                "object-type": "absolute-pos", 
                "offset": 127
            }, 
            "text": "When drug treatments were performed, cells were preincubated with drugs in complete media for 1 h (or 3 h for Toxin B10463)."
        }, 
        {
            "frame-id": "sent-PMC2064837-medscan-128", 
            "frame-type": "sentence", 
            "object-type": "frame", 
            "start-pos": {
                "object-type": "absolute-pos", 
                "offset": 128
            }, 
            "text": "Cells were washed with ice-cold PBS containing 1 mM sodium orthovanadate and lysed in IP lysis buffer (10 mM Tris, pH 7.4, 140 mM NaCl, 5 mM EDTA, 25 mM NaF, 10 mM sodium pyrophosphate, 1% NP-40, supplemented freshly with 1 mM sodium orthovanadate, 5 mM sodium glycerophosphate, 2 mM PMSF, and one Roche Complete tablet/50 ml)."
        }, 
        {
            "frame-id": "sent-PMC2064837-medscan-129", 
            "frame-type": "sentence", 
            "object-type": "frame", 
            "start-pos": {
                "object-type": "absolute-pos", 
                "offset": 129
            }, 
            "text": "Extracts were cleared by centrifugation at 14,000 rpm for 15 min at 4\u00b0C."
        }, 
        {
            "frame-id": "sent-PMC2064837-medscan-130", 
            "frame-type": "sentence", 
            "object-type": "frame", 
            "start-pos": {
                "object-type": "absolute-pos", 
                "offset": 130
            }, 
            "text": "Protein concentration was measured using Bradford assay (Bio-Rad Laboratories)."
        }, 
        {
            "frame-id": "sent-PMC2064837-medscan-131", 
            "frame-type": "sentence", 
            "object-type": "frame", 
            "start-pos": {
                "object-type": "absolute-pos", 
                "offset": 131
            }, 
            "text": "For coimmunoprecipitation, 200-\u03bcg protein extracts were precleared for 1 h with protein G-Sepharose (Sigma-Aldrich)."
        }, 
        {
            "frame-id": "sent-PMC2064837-medscan-132", 
            "frame-type": "sentence", 
            "object-type": "frame", 
            "start-pos": {
                "object-type": "absolute-pos", 
                "offset": 132
            }, 
            "text": "Extracts were then incubated for 2 h with 1 \u03bcg of antibody, and then with protein G-Sepharose for an additional hour."
        }, 
        {
            "frame-id": "sent-PMC2064837-medscan-133", 
            "frame-type": "sentence", 
            "object-type": "frame", 
            "start-pos": {
                "object-type": "absolute-pos", 
                "offset": 133
            }, 
            "text": "Beads were washed four times with IP lysis buffer before loading."
        }, 
        {
            "frame-id": "sent-PMC2064837-medscan-134", 
            "frame-type": "sentence", 
            "object-type": "frame", 
            "start-pos": {
                "object-type": "absolute-pos", 
                "offset": 134
            }, 
            "text": "For straight Western blot, equal protein amounts ranging between 10-20 \u03bcg were typically loaded."
        }, 
        {
            "frame-id": "sent-PMC2064837-medscan-135", 
            "frame-type": "sentence", 
            "object-type": "frame", 
            "start-pos": {
                "object-type": "absolute-pos", 
                "offset": 135
            }, 
            "text": "Standard SDS-PAGE and Western blot techniques were used."
        }, 
        {
            "frame-id": "sent-PMC2064837-medscan-136", 
            "frame-type": "sentence", 
            "object-type": "frame", 
            "start-pos": {
                "object-type": "absolute-pos", 
                "offset": 136
            }, 
            "text": "Immunoprecipitation of Dvl2 was performed using a monoclonal antibody, which preferentially recognizes the nonphosphorylated form of Dvl2 by Western blot , although in our hands it can immunoprecipitate both phosphorylated and nonphosphorylated forms."
        }, 
        {
            "frame-id": "sent-PMC2064837-medscan-137", 
            "frame-type": "sentence", 
            "object-type": "frame", 
            "start-pos": {
                "object-type": "absolute-pos", 
                "offset": 137
            }, 
            "text": "Western blot for Dvl2 was performed using a rabbit antibody, which recognizes both forms."
        }, 
        {
            "frame-id": "sent-PMC2064837-medscan-138", 
            "frame-type": "sentence", 
            "object-type": "frame", 
            "start-pos": {
                "object-type": "absolute-pos", 
                "offset": 138
            }, 
            "text": "Cells growing on glass coverslips were washed once in PBS and fixed with 4% paraformaldehyde in PBS (pH 7.4) for 15 min at room temperature, or in methanol, prechilled to -20\u00b0C, 5 min at -20\u00b0C."
        }, 
        {
            "frame-id": "sent-PMC2064837-medscan-139", 
            "frame-type": "sentence", 
            "object-type": "frame", 
            "start-pos": {
                "object-type": "absolute-pos", 
                "offset": 139
            }, 
            "text": "Cells were blocked and permeabilized in 0.2% saponin/2%BSA/PBS for 30 min at room temperature or overnight at 4\u00b0C."
        }, 
        {
            "frame-id": "sent-PMC2064837-medscan-140", 
            "frame-type": "sentence", 
            "object-type": "frame", 
            "start-pos": {
                "object-type": "absolute-pos", 
                "offset": 140
            }, 
            "text": "Primary antibodies were incubated overnight in PBS/2%BSA/0.2% saponin."
        }, 
        {
            "frame-id": "sent-PMC2064837-medscan-141", 
            "frame-type": "sentence", 
            "object-type": "frame", 
            "start-pos": {
                "object-type": "absolute-pos", 
                "offset": 141
            }, 
            "text": "Coverslips were washed in PBS and incubated with secondary antibodies for 1 h at room temperature."
        }, 
        {
            "frame-id": "sent-PMC2064837-medscan-142", 
            "frame-type": "sentence", 
            "object-type": "frame", 
            "start-pos": {
                "object-type": "absolute-pos", 
                "offset": 142
            }, 
            "text": "Hoechst 33342 (Molecular Probes) was used at 1 \u03bcg/ml for nuclear staining."
        }, 
        {
            "frame-id": "sent-PMC2064837-medscan-143", 
            "frame-type": "sentence", 
            "object-type": "frame", 
            "start-pos": {
                "object-type": "absolute-pos", 
                "offset": 143
            }, 
            "text": "Confocal images were taken with a MRC1024 (Bio-Rad Laboratories) confocal OptiphotII (Nikon) microscope using a 60\u00d7 objective (NA 1.4) and a Kr/Ar laser."
        }, 
        {
            "frame-id": "sent-PMC2064837-medscan-144", 
            "frame-type": "sentence", 
            "object-type": "frame", 
            "start-pos": {
                "object-type": "absolute-pos", 
                "offset": 144
            }, 
            "text": "Immunofluorescent images were taken with Axioplan microscope using a 63\u00d7 oil immersion objective (NA 1.4)."
        }, 
        {
            "frame-id": "sent-PMC2064837-medscan-145", 
            "frame-type": "sentence", 
            "object-type": "frame", 
            "start-pos": {
                "object-type": "absolute-pos", 
                "offset": 145
            }, 
            "text": "Images were acquired with an ORCA-ER (Hamamatsu) camera using Openlab software (Improvision)."
        }, 
        {
            "frame-id": "sent-PMC2064837-medscan-146", 
            "frame-type": "sentence", 
            "object-type": "frame", 
            "start-pos": {
                "object-type": "absolute-pos", 
                "offset": 146
            }, 
            "text": "Images were analyzed and processed for presentation using brightness and contrast adjustments (same settings for all images) with ImageJ and Adobe Photoshop CS."
        }
    ], 
    "object-meta": {
        "component": "MedScan", 
        "component-type": "machine", 
        "doc-id": "PMC2064837", 
        "object-type": "meta-info", 
        "organization": "CMU"
    }, 
    "object-type": "frame-collection"
}
