{
  "evidence": ["Phosphorylation at serine 118 in the AF-1 domain of ERalpha","Phosphorylation at serine 118 in the AF-1 domain of ERalpha has been demonstrated by us and other researchers to be important for ERalpha activity                                                                                                     ."],
  "extracted_information": {
    "interaction_type": "adds_modification",
    "negative_information": false,
    "modifications": [
      {
        "modification_type": "phosphorylation"
      },
      {
        "modification_type": "phosphorylation",
        "site": 118
      }
    ],
    "participant_b": {
      "entity_text": "ERalpha",
      "entity_type": "protein",
      "identifier": "Uniprot:P03372",
      "in_model": true
    }
  },
  "fries_provenance": [
    {
      "component": "REACH",
      "frame-file": "PMC2277492.uaz.events",
      "frame-id": "evem-PMC2277492-UAZ-r1-49-0-47",
      "passage-id": "pass-PMC2277492-UAZ-r1-49",
      "passage-number": 49,
      "passage-section-id": "N/A",
      "passage-section-name": "N/A",
      "sentence": "Phosphorylation at serine 118 in the AF-1 domain of ERalpha has been demonstrated by us and other researchers to be important for ERalpha activity                                                                                                     .",
      "text": "Phosphorylation at serine 118 in the AF-1 domain of ERalpha",
      "uaz-sentence": "Phosphorylation at serine 118 in the AF-1 domain of ERalpha has been demonstrated by us and other researchers to be important for ERalpha activity                                                                                                     .",
      "uaz-sentence-start": 0
    }
  ],
  "model_relation": "extension",
  "pmc_id": "PMC2277492",
  "reader_type": "machine",
  "reading_complete": "2015-06-15T20:17:09Z",
  "reading_started": "2015-06-15T20:17:04Z",
  "submitter": "FRIES"
}
