{
  "evidence": ["bicuculline promotes dendritic growth in cultured hippocampal neurons via activation of NMDA receptors","To address this question we used our previously described model of activity-dependent dendritic growth in which the GABAA receptor antagonist bicuculline promotes dendritic growth in cultured hippocampal neurons via activation of NMDA receptors ."],
  "extracted_information": {
    "interaction_type": "increases",
    "negative_information": false,
    "participant_a": {
      "entity_text": "bicuculline",
      "entity_type": "chemical",
      "identifier": "PubChem:10237",
      "in_model": false
    },
    "participant_b": {
      "entity_text": "NMDA receptors",
      "entity_type": "complex",
      "identifier": "GO:0017146",
      "in_model": true
    }
  },
  "fries_provenance": [
    {
      "cmu-sentence-epistemic-status": "implication",
      "cmu-sentence-epistemic-value": 0.6,
      "component": "MedScan",
      "frame-file": "PMC3404671.cmu.medscan",
      "frame-id": "relm-PMC3404671-cmu-medscan-456",
      "sentence": "To address this question we used our previously described model of activity-dependent dendritic growth in which the GABAA receptor antagonist bicuculline promotes dendritic growth in cultured hippocampal neurons via activation of NMDA receptors .",
      "text": "bicuculline promotes dendritic growth in cultured hippocampal neurons via activation of NMDA receptors"
    }
  ],
  "model_relation": "extension",
  "pmc_id": "PMC3404671",
  "reader_type": "machine",
  "reading_complete": "2015-06-15T22:52:34Z",
  "reading_started": "2015-06-15T22:52:29Z",
  "submitter": "FRIES"
}
