{
  "evidence": ["Enhancement of low pH on formaldehyde- or capsaicin induced TRPV1 currents in TRPV1-CHO cells in vitro and formaldehyde induced C-fiber discharges in vivo .","Furthermore , electrophysiological experiments showed that low concentration formaldehyde elicited TRPV1 currents could be significantly potentiated by low pH ( 6.0 ) .","pH on formaldehyde- or capsaicin-induced TRPV1","TRPV1 currents could be significantly potentiated by low pH"],
  "extracted_information": {
    "interaction_type": "increases_activity",
    "negative_information": false,
    "participant_a": {
      "entity_text": "pH",
      "entity_type": "protein",
      "identifier": "Uniprot:P01298",
      "in_model": false
    },
    "participant_b": {
      "entity_text": "TRPV1",
      "entity_type": "protein",
      "identifier": "Uniprot:Q8NER1",
      "in_model": true
    }
  },
  "fries_provenance": [
    {
      "component": "REACH",
      "frame-file": "PMC2858155.uaz.events",
      "frame-id": "evem-PMC2858155-UAZ-r1-2-8-2",
      "passage-id": "pass-PMC2858155-UAZ-r1-2",
      "passage-number": 2,
      "passage-section-id": "N/A",
      "passage-section-name": "abstract",
      "sentence": "Furthermore , electrophysiological experiments showed that low concentration formaldehyde elicited TRPV1 currents could be significantly potentiated by low pH ( 6.0 ) .",
      "text": "TRPV1 currents could be significantly potentiated by low pH",
      "uaz-sentence": "Furthermore , electrophysiological experiments showed that low concentration formaldehyde elicited TRPV1 currents could be significantly potentiated by low pH ( 6.0 ) .",
      "uaz-sentence-start": 1307
    },
    {
      "component": "REACH",
      "frame-file": "PMC2858155.uaz.events",
      "frame-id": "evem-PMC2858155-UAZ-r1-50-0-19",
      "passage-id": "pass-PMC2858155-UAZ-r1-50",
      "passage-number": 50,
      "passage-section-id": "fig-5",
      "passage-section-name": "fig-5",
      "sentence": "Enhancement of low pH on formaldehyde- or capsaicin induced TRPV1 currents in TRPV1-CHO cells in vitro and formaldehyde induced C-fiber discharges in vivo .",
      "text": "pH on formaldehyde- or capsaicin-induced TRPV1",
      "uaz-sentence": "Enhancement of low pH on formaldehyde- or capsaicin induced TRPV1 currents in TRPV1-CHO cells in vitro and formaldehyde induced C-fiber discharges in vivo .",
      "uaz-sentence-start": 0
    },
    {
      "component": "REACH",
      "frame-file": "PMC2858155.uaz.events",
      "frame-id": "evem-PMC2858155-UAZ-r1-8-3-3",
      "passage-id": "pass-PMC2858155-UAZ-r1-8",
      "passage-number": 8,
      "passage-section-id": "N/A",
      "passage-section-name": "N/A",
      "sentence": "Furthermore , electrophysiological experiments showed that low concentration formaldehyde elicited TRPV1 currents could be significantly potentiated by low pH ( 6.0 ) .",
      "text": "TRPV1 currents could be significantly potentiated by low pH",
      "uaz-sentence": "Furthermore , electrophysiological experiments showed that low concentration formaldehyde elicited TRPV1 currents could be significantly potentiated by low pH ( 6.0 ) .",
      "uaz-sentence-start": 640
    }
  ],
  "model_relation": "extension",
  "pmc_id": "PMC2858155",
  "reader_type": "machine",
  "reading_complete": "2015-06-15T21:16:56Z",
  "reading_started": "2015-06-15T21:16:51Z",
  "submitter": "FRIES"
}
