{
    "frames": [
        {
            "frame-id": "sent-PMC3660582-medscan-0", 
            "frame-type": "sentence", 
            "object-type": "frame", 
            "start-pos": {
                "object-type": "absolute-pos", 
                "offset": 0
            }, 
            "text": "The endocrine disruptor bisphenol A is ubiquitous in the environment."
        }, 
        {
            "frame-id": "sent-PMC3660582-medscan-1", 
            "frame-type": "sentence", 
            "object-type": "frame", 
            "start-pos": {
                "object-type": "absolute-pos", 
                "offset": 1
            }, 
            "text": "Its estrogenic activity was first identified in the 1930s ."
        }, 
        {
            "frame-id": "sent-PMC3660582-medscan-2", 
            "frame-type": "sentence", 
            "object-type": "frame", 
            "start-pos": {
                "object-type": "absolute-pos", 
                "offset": 2
            }, 
            "text": "Since the 1950s, bisphenol A has been used in the manufacture of polycarbonate plastics, epoxy resins, dental sealants, as well as numerous other products , ."
        }, 
        {
            "frame-id": "sent-PMC3660582-medscan-3", 
            "frame-type": "sentence", 
            "object-type": "frame", 
            "start-pos": {
                "object-type": "absolute-pos", 
                "offset": 3
            }, 
            "text": "Measurable levels of bisphenol A have been detected in human neonatal and adult serum, amniotic fluid, placenta, milk and urine ."
        }, 
        {
            "frame-id": "sent-PMC3660582-medscan-4", 
            "frame-type": "sentence", 
            "object-type": "frame", 
            "start-pos": {
                "object-type": "absolute-pos", 
                "offset": 4
            }, 
            "text": "Higher bisphenol A levels in urine have been found in children when compared with adults ."
        }, 
        {
            "frame-id": "sent-PMC3660582-medscan-5", 
            "frame-type": "sentence", 
            "object-type": "frame", 
            "start-pos": {
                "object-type": "absolute-pos", 
                "offset": 5
            }, 
            "text": "Blood sampling revealed that internal exposures to the active, un-conjugated bisphenol A in human serum are in the range of 0.5-10 ng/mL, with most studies suggesting an average internal exposure of approximately 1-3 ng/mL ."
        }, 
        {
            "frame-id": "sent-PMC3660582-medscan-6", 
            "frame-type": "sentence", 
            "object-type": "frame", 
            "start-pos": {
                "object-type": "absolute-pos", 
                "offset": 6
            }, 
            "text": "In vitro studies involving nuclear estrogen receptors have revealed that bisphenol A is significantly less potent than estradiol-17\u03b2; for this reason, some considered it a \"weak\" estrogen (reviewed in )."
        }, 
        {
            "frame-id": "sent-PMC3660582-medscan-7", 
            "frame-type": "sentence", 
            "object-type": "frame", 
            "start-pos": {
                "object-type": "absolute-pos", 
                "offset": 7
            }, 
            "text": "However, studies involving fetal and perinatal exposure to low doses of bisphenol A in rodents have documented persistent alterations in the structure and function of estrogen target tissues such as the hypothalamus , ovaries, vagina, uterus and mammary glands - ."
        }, 
        {
            "frame-id": "sent-PMC3660582-medscan-8", 
            "frame-type": "sentence", 
            "object-type": "frame", 
            "start-pos": {
                "object-type": "absolute-pos", 
                "offset": 8
            }, 
            "text": "At embryonic day 18 , mammary glands of the bisphenol A-exposed CD-1 mouse fetuses revealed accelerated differentiation of the fat pad and altered collagen localization in the mesenchyme, while a decrease in cell size, delayed lumen formation, and increased ductal area were observed in the epithelium ."
        }, 
        {
            "frame-id": "sent-PMC3660582-medscan-9", 
            "frame-type": "sentence", 
            "object-type": "frame", 
            "start-pos": {
                "object-type": "absolute-pos", 
                "offset": 9
            }, 
            "text": "In mice perinatally exposed to bisphenol A, a delay in ductal invasion of the mammary stroma was observed at puberty, and increased lateral branching and terminal ends were observed at adulthood , ."
        }, 
        {
            "frame-id": "sent-PMC3660582-medscan-10", 
            "frame-type": "sentence", 
            "object-type": "frame", 
            "start-pos": {
                "object-type": "absolute-pos", 
                "offset": 10
            }, 
            "text": "The mammary glands of mice exposed perinatally to a low dose of bisphenol A also exhibited a heightened response to estradiol during adult life and developed intraductal hyperplasias, which are considered pre-neoplastic lesions ."
        }, 
        {
            "frame-id": "sent-PMC3660582-medscan-11", 
            "frame-type": "sentence", 
            "object-type": "frame", 
            "start-pos": {
                "object-type": "absolute-pos", 
                "offset": 11
            }, 
            "text": "Similarly, in the rat model, prenatal exposure to bisphenol A resulted in the development of intraductal hyperplasias and carcinomas in situ ."
        }, 
        {
            "frame-id": "sent-PMC3660582-medscan-12", 
            "frame-type": "sentence", 
            "object-type": "frame", 
            "start-pos": {
                "object-type": "absolute-pos", 
                "offset": 12
            }, 
            "text": "Exposure to bisphenol A during development was also linked to increased sensitivity of the rat mammary gland to chemical carcinogens , ."
        }, 
        {
            "frame-id": "sent-PMC3660582-medscan-13", 
            "frame-type": "sentence", 
            "object-type": "frame", 
            "start-pos": {
                "object-type": "absolute-pos", 
                "offset": 13
            }, 
            "text": "These studies clearly indicate that the fetal mammary gland is a target of bisphenol A and that its effects exacerbate at puberty and beyond, long after exposure has ended."
        }, 
        {
            "frame-id": "sent-PMC3660582-medscan-14", 
            "frame-type": "sentence", 
            "object-type": "frame", 
            "start-pos": {
                "object-type": "absolute-pos", 
                "offset": 14
            }, 
            "text": "In this study we determined whether transcriptional changes occurred in E19 peri-ductal stroma and epithelium of bisphenol A-exposed fetal mammary glands at a dose which had previously been shown to result in morphological alterations at this time-point ."
        }, 
        {
            "frame-id": "sent-PMC3660582-medscan-15", 
            "frame-type": "sentence", 
            "object-type": "frame", 
            "start-pos": {
                "object-type": "absolute-pos", 
                "offset": 15
            }, 
            "text": "The analysis of these two compartments of the mammary gland was important as mammogenesis and carcinogenesis are mediated by stromal-epithelial interactions ."
        }, 
        {
            "frame-id": "sent-PMC3660582-medscan-16", 
            "frame-type": "sentence", 
            "object-type": "frame", 
            "start-pos": {
                "object-type": "absolute-pos", 
                "offset": 16
            }, 
            "text": "Transcriptional effects of bisphenol A were compared with those of a potent steroidal estrogen, ethinylestradiol (EE2), to obtain insights into whether the biological effects of bisphenol A were explained by its estrogenic activity."
        }, 
        {
            "frame-id": "sent-PMC3660582-medscan-17", 
            "frame-type": "sentence", 
            "object-type": "frame", 
            "start-pos": {
                "object-type": "absolute-pos", 
                "offset": 17
            }, 
            "text": "We also used ER\u03b1-null [ER\u03b1(-/-)] mice to determine roles of estrogen receptor \u03b1 (ER\u03b1) in the transcriptional actions of bisphenol A and EE2."
        }, 
        {
            "frame-id": "sent-PMC3660582-medscan-18", 
            "frame-type": "sentence", 
            "object-type": "frame", 
            "start-pos": {
                "object-type": "absolute-pos", 
                "offset": 18
            }, 
            "text": "Our data indicate that bisphenol A and EE2 differentially affect the transcriptomes of the fetal mammary epithelium and peri-ductal stroma, with an implication that these estrogenic compounds act directly on the stromal cells, which in turn affect gene expression in the epithelial cells."
        }, 
        {
            "frame-id": "sent-PMC3660582-medscan-19", 
            "frame-type": "sentence", 
            "object-type": "frame", 
            "start-pos": {
                "object-type": "absolute-pos", 
                "offset": 19
            }, 
            "text": "Mice heterozygous for the ER\u03b1 gene [ER\u03b1(+/-)] of C57BL/6 background were generously provided by Dr."
        }, 
        {
            "frame-id": "sent-PMC3660582-medscan-20", 
            "frame-type": "sentence", 
            "object-type": "frame", 
            "start-pos": {
                "object-type": "absolute-pos", 
                "offset": 20
            }, 
            "text": "Pierre Chambon ."
        }, 
        {
            "frame-id": "sent-PMC3660582-medscan-21", 
            "frame-type": "sentence", 
            "object-type": "frame", 
            "start-pos": {
                "object-type": "absolute-pos", 
                "offset": 21
            }, 
            "text": "Mice were maintained in temperature- and light-controlled (14-hr light, 10-hr dark cycle) conditions at the Tufts University School of Medicine animal facility."
        }, 
        {
            "frame-id": "sent-PMC3660582-medscan-22", 
            "frame-type": "sentence", 
            "object-type": "frame", 
            "start-pos": {
                "object-type": "absolute-pos", 
                "offset": 22
            }, 
            "text": "All animal procedures were approved by the Tufts University and Tufts Medical Center Institutional Animal Care and Use Committee in accordance with the Guide for Care and Use of Laboratory Animals."
        }, 
        {
            "frame-id": "sent-PMC3660582-medscan-23", 
            "frame-type": "sentence", 
            "object-type": "frame", 
            "start-pos": {
                "object-type": "absolute-pos", 
                "offset": 23
            }, 
            "text": "Cages and bedding tested negligible for estrogenicity by the E-SCREEN assay ; water was supplied from glass bottles only."
        }, 
        {
            "frame-id": "sent-PMC3660582-medscan-24", 
            "frame-type": "sentence", 
            "object-type": "frame", 
            "start-pos": {
                "object-type": "absolute-pos", 
                "offset": 24
            }, 
            "text": "Food (2018 Rodent Diet, Harlan Teklad; Indianapolis, IN) was supplied ad libitum; estrogenicity of feed was measured at <20 pmol of estrogen equivalents per gram ."
        }, 
        {
            "frame-id": "sent-PMC3660582-medscan-25", 
            "frame-type": "sentence", 
            "object-type": "frame", 
            "start-pos": {
                "object-type": "absolute-pos", 
                "offset": 25
            }, 
            "text": "Sexually mature ER\u03b1(+/-) male and ER\u03b1(+/-) female mice were mated."
        }, 
        {
            "frame-id": "sent-PMC3660582-medscan-26", 
            "frame-type": "sentence", 
            "object-type": "frame", 
            "start-pos": {
                "object-type": "absolute-pos", 
                "offset": 26
            }, 
            "text": "The morning of vaginal plug observation was designated E1."
        }, 
        {
            "frame-id": "sent-PMC3660582-medscan-27", 
            "frame-type": "sentence", 
            "object-type": "frame", 
            "start-pos": {
                "object-type": "absolute-pos", 
                "offset": 27
            }, 
            "text": "Mice were weighed and implanted, on the evening of E8, with Alzet osmotic pumps (Alza Corp., Palo Alto, CA) designed to deliver either 50% dimethylsulfoxide (vehicle control) or 250 ng bisphenol A/kg BW/d or 10 ng EE2/kg BW/d (positive control for estrogenic action) dissolved in vehicle."
        }, 
        {
            "frame-id": "sent-PMC3660582-medscan-28", 
            "frame-type": "sentence", 
            "object-type": "frame", 
            "start-pos": {
                "object-type": "absolute-pos", 
                "offset": 28
            }, 
            "text": "The actual dose delivered to pregnant dams would be expected to decrease as pregnancy progressed due to increasing weight of the fetuses (the pregnant dams increased their body weight by 37% on average between E8 and E19)."
        }, 
        {
            "frame-id": "sent-PMC3660582-medscan-29", 
            "frame-type": "sentence", 
            "object-type": "frame", 
            "start-pos": {
                "object-type": "absolute-pos", 
                "offset": 29
            }, 
            "text": "The treatment lasted until the mice were sacrificed on E19."
        }, 
        {
            "frame-id": "sent-PMC3660582-medscan-30", 
            "frame-type": "sentence", 
            "object-type": "frame", 
            "start-pos": {
                "object-type": "absolute-pos", 
                "offset": 30
            }, 
            "text": "Pregnant mice were injected with a sub-lethal dose of ketamine and xylazine and the fetuses were delivered by caesarean section and decapitated."
        }, 
        {
            "frame-id": "sent-PMC3660582-medscan-31", 
            "frame-type": "sentence", 
            "object-type": "frame", 
            "start-pos": {
                "object-type": "absolute-pos", 
                "offset": 31
            }, 
            "text": "The genotypes of fetuses were determined from tail snips , and only female ER\u03b1(+/+) and ER\u03b1(-/-) fetuses were used in the study."
        }, 
        {
            "frame-id": "sent-PMC3660582-medscan-32", 
            "frame-type": "sentence", 
            "object-type": "frame", 
            "start-pos": {
                "object-type": "absolute-pos", 
                "offset": 32
            }, 
            "text": "Female fetuses were identified by anogenital distance and confirmed by the presence of ovaries and uteri during dissection."
        }, 
        {
            "frame-id": "sent-PMC3660582-medscan-33", 
            "frame-type": "sentence", 
            "object-type": "frame", 
            "start-pos": {
                "object-type": "absolute-pos", 
                "offset": 33
            }, 
            "text": "One typical fetus was selected from each litter and subjected to analyses."
        }, 
        {
            "frame-id": "sent-PMC3660582-medscan-34", 
            "frame-type": "sentence", 
            "object-type": "frame", 
            "start-pos": {
                "object-type": "absolute-pos", 
                "offset": 34
            }, 
            "text": "Similarly, from each treated litter, only one fetus of each genotype [ER\u03b1(+/+) and ER\u03b1(-/-)] was sampled."
        }, 
        {
            "frame-id": "sent-PMC3660582-medscan-35", 
            "frame-type": "sentence", 
            "object-type": "frame", 
            "start-pos": {
                "object-type": "absolute-pos", 
                "offset": 35
            }, 
            "text": "This study was conducted in C57BL/6 mice, because this strain was found to be sensitive to bisphenol A and also because the ER\u03b1(-/-) mice, used in this study, were of this strain."
        }, 
        {
            "frame-id": "sent-PMC3660582-medscan-36", 
            "frame-type": "sentence", 
            "object-type": "frame", 
            "start-pos": {
                "object-type": "absolute-pos", 
                "offset": 36
            }, 
            "text": "Previous morphometric analyses of fetal mammary glands exposed to bisphenol A had been conducted in the CD-1 mouse sacrificed at embryonic day 18 ."
        }, 
        {
            "frame-id": "sent-PMC3660582-medscan-37", 
            "frame-type": "sentence", 
            "object-type": "frame", 
            "start-pos": {
                "object-type": "absolute-pos", 
                "offset": 37
            }, 
            "text": "A comparison of the development of fetal mammary glands of these two mouse strains demonstrated that the C57BL/6 at E19 is most comparable to the embryonic day 18 stage in the CD1 mouse ( and )."
        }, 
        {
            "frame-id": "sent-PMC3660582-medscan-38", 
            "frame-type": "sentence", 
            "object-type": "frame", 
            "start-pos": {
                "object-type": "absolute-pos", 
                "offset": 38
            }, 
            "text": "The fourth inguinal mammary glands of female fetuses (from three independent litters per treatment group for both ER\u03b1(+/+) and ER\u03b1(-/-) mice) were isolated with the aid of a stereo-microscope (Zeiss New York, NY) under RNAse-free conditions as described previously ."
        }, 
        {
            "frame-id": "sent-PMC3660582-medscan-39", 
            "frame-type": "sentence", 
            "object-type": "frame", 
            "start-pos": {
                "object-type": "absolute-pos", 
                "offset": 39
            }, 
            "text": "The glands were spread onto porous specimen collection bags and then placed in vials containing RNAlater (Invitrogen, Carlsbad, CA), for mRNA expression studies or fixed in 4% paraformaldehyde in 0.1 M phosphate buffered saline for 18-20 hours at room temperature for histological analyses."
        }, 
        {
            "frame-id": "sent-PMC3660582-medscan-40", 
            "frame-type": "sentence", 
            "object-type": "frame", 
            "start-pos": {
                "object-type": "absolute-pos", 
                "offset": 40
            }, 
            "text": "The glands preserved in RNAlater at 4\u00b0C for 2-5 days were embedded with Optimal Cutting Temperature compound and only one mammary gland/fetus was sectioned on a cryostat (Microm HM560) (18 \u00b5m thickness)."
        }, 
        {
            "frame-id": "sent-PMC3660582-medscan-41", 
            "frame-type": "sentence", 
            "object-type": "frame", 
            "start-pos": {
                "object-type": "absolute-pos", 
                "offset": 41
            }, 
            "text": "The paraformaldehyde-fixed tissues were embedded in paraffin and sectioned on a microtome (Leica RM2155) (5 \u00b5m thickness)."
        }, 
        {
            "frame-id": "sent-PMC3660582-medscan-42", 
            "frame-type": "sentence", 
            "object-type": "frame", 
            "start-pos": {
                "object-type": "absolute-pos", 
                "offset": 42
            }, 
            "text": "One mammary gland from each pup was sectioned in its entirety and all frozen sections were stained with the Arcturus HistoGene Frozen Section Staining kit (Applied Biosystems, Carlsbad, CA) under RNase-free conditions using the manufacturer's protocol."
        }, 
        {
            "frame-id": "sent-PMC3660582-medscan-43", 
            "frame-type": "sentence", 
            "object-type": "frame", 
            "start-pos": {
                "object-type": "absolute-pos", 
                "offset": 43
            }, 
            "text": "Only sections containing epithelial ducts, which amounted to 4-6 sections/mammary gland, were used further."
        }, 
        {
            "frame-id": "sent-PMC3660582-medscan-44", 
            "frame-type": "sentence", 
            "object-type": "frame", 
            "start-pos": {
                "object-type": "absolute-pos", 
                "offset": 44
            }, 
            "text": "The peri-ductal stroma, which corresponded to approximately 100 \u00b5m from the outer boundary of the epithelium, and the epithelial ducts were separately captured using the Arcturus PixCell IIe Laser Capture Microdissection System (Applied Biosystems, Carlsbad, CA) ."
        }, 
        {
            "frame-id": "sent-PMC3660582-medscan-45", 
            "frame-type": "sentence", 
            "object-type": "frame", 
            "start-pos": {
                "object-type": "absolute-pos", 
                "offset": 45
            }, 
            "text": "All the epithelium from one mammary gland was pooled into one tube while all of the peri-ductal stroma was collected in a second tube for a single sample of each treatment and genotype."
        }, 
        {
            "frame-id": "sent-PMC3660582-medscan-46", 
            "frame-type": "sentence", 
            "object-type": "frame", 
            "start-pos": {
                "object-type": "absolute-pos", 
                "offset": 46
            }, 
            "text": "Total RNA was isolated from the laser-captured tissue specimens using the Arcturus PicoPure RNA isolation kit (Life Technologies Corporation, Carlsbad, CA) and amplified using the Ovation Pico WTA System (NuGEN Technologies, San Carlos, CA)."
        }, 
        {
            "frame-id": "sent-PMC3660582-medscan-47", 
            "frame-type": "sentence", 
            "object-type": "frame", 
            "start-pos": {
                "object-type": "absolute-pos", 
                "offset": 47
            }, 
            "text": "Amplified cDNA (5 \u00b5g/sample) was labeled with biotin using the Encore Biotin Module (NuGEN Technologies) and then hybridized to the Mouse Genome 430 2.0 Array (Affymetrix Santa Clara, CA) according to the manufacturer's instructions."
        }, 
        {
            "frame-id": "sent-PMC3660582-medscan-48", 
            "frame-type": "sentence", 
            "object-type": "frame", 
            "start-pos": {
                "object-type": "absolute-pos", 
                "offset": 48
            }, 
            "text": "The extremely limited amounts of the laser-captured RNA samples prevented direct assessments of their integrity."
        }, 
        {
            "frame-id": "sent-PMC3660582-medscan-49", 
            "frame-type": "sentence", 
            "object-type": "frame", 
            "start-pos": {
                "object-type": "absolute-pos", 
                "offset": 49
            }, 
            "text": "However, size distributions of the amplified cDNA species determined by Agilent Bioanalyzer (Agilent Technologies, Santa Clara, CA) did not show any significant signs of RNA degradation."
        }, 
        {
            "frame-id": "sent-PMC3660582-medscan-50", 
            "frame-type": "sentence", 
            "object-type": "frame", 
            "start-pos": {
                "object-type": "absolute-pos", 
                "offset": 50
            }, 
            "text": "The 3'/5' signal intensity ratios of housekeeping genes detected by Affymetrix microarrays were not greater than 2.0, supporting the integrity of the RNA samples."
        }, 
        {
            "frame-id": "sent-PMC3660582-medscan-51", 
            "frame-type": "sentence", 
            "object-type": "frame", 
            "start-pos": {
                "object-type": "absolute-pos", 
                "offset": 51
            }, 
            "text": "The.CEL files were generated by Affymetrix GCOS and subjected to the Robust Multiarray Averaging method of normalization using Partek Genomics Suite (Partek Inc., St. Louis, MO)."
        }, 
        {
            "frame-id": "sent-PMC3660582-medscan-52", 
            "frame-type": "sentence", 
            "object-type": "frame", 
            "start-pos": {
                "object-type": "absolute-pos", 
                "offset": 52
            }, 
            "text": "The normalized microarray signal intensities were log transformed, and differentially expressed genes were identified by one-way ANOVA (p<0.05) using Partek or by Welch's t-test (two-sided, p<0.05; further filtered for genes whose expression changed by at least 2-fold) using GeneSifter Analysis Edition v3.7 (Geospiza, Inc., Seattle WA)."
        }, 
        {
            "frame-id": "sent-PMC3660582-medscan-53", 
            "frame-type": "sentence", 
            "object-type": "frame", 
            "start-pos": {
                "object-type": "absolute-pos", 
                "offset": 53
            }, 
            "text": "Because applications of multiple testing corrections (Bonferroni and Benjamini-Hochberg) to these microarray data sets resulted in excessive suppression of discovery power for identification of differentially expressed genes, the subsequent analyses were performed with genes selected without such corrections."
        }, 
        {
            "frame-id": "sent-PMC3660582-medscan-54", 
            "frame-type": "sentence", 
            "object-type": "frame", 
            "start-pos": {
                "object-type": "absolute-pos", 
                "offset": 54
            }, 
            "text": "Two-dimensional hierarchical clustering was performed using Partek, and Gene Ontology analysis was performed using GeneSifter."
        }, 
        {
            "frame-id": "sent-PMC3660582-medscan-55", 
            "frame-type": "sentence", 
            "object-type": "frame", 
            "start-pos": {
                "object-type": "absolute-pos", 
                "offset": 55
            }, 
            "text": "The signal intensities of specific transcripts of interest determined by microarrays were compared to identify significant differences between the treatment groups (t-test, p<0.05 cutoff)."
        }, 
        {
            "frame-id": "sent-PMC3660582-medscan-56", 
            "frame-type": "sentence", 
            "object-type": "frame", 
            "start-pos": {
                "object-type": "absolute-pos", 
                "offset": 56
            }, 
            "text": "SYBR Green quantitative RT-PCR was performed as previously described ."
        }, 
        {
            "frame-id": "sent-PMC3660582-medscan-57", 
            "frame-type": "sentence", 
            "object-type": "frame", 
            "start-pos": {
                "object-type": "absolute-pos", 
                "offset": 57
            }, 
            "text": "Forward and reverse PCR primers were as follows: Krt8 (F: gagtctgggatgcagaacatgag; R: gtgcggctgaaagtgttgg), Fabp4 (F: ctggtgcaggtgcagaagt; R: aatttccatccaggcctctt), PPAR\u03b3 (F: aggccgagaaggagaagctgttg; R: tggccacctctttgctctgctc), and RPL19 (Ribosomal protein L19) (F: atcgccaatgccaactcc; R: tcatccttctcatccaggtca)."
        }, 
        {
            "frame-id": "sent-PMC3660582-medscan-58", 
            "frame-type": "sentence", 
            "object-type": "frame", 
            "start-pos": {
                "object-type": "absolute-pos", 
                "offset": 58
            }, 
            "text": "RNA isolated from an intact E19 mammary gland section was included as a positive control calibrator."
        }, 
        {
            "frame-id": "sent-PMC3660582-medscan-59", 
            "frame-type": "sentence", 
            "object-type": "frame", 
            "start-pos": {
                "object-type": "absolute-pos", 
                "offset": 59
            }, 
            "text": "The cycle threshold values of the gene of interest for each sample were normalized to the housekeeping gene (RPL19) followed by the calculation of fold-change in gene expression with respect to the calibrator sample."
        }, 
        {
            "frame-id": "sent-PMC3660582-medscan-60", 
            "frame-type": "sentence", 
            "object-type": "frame", 
            "start-pos": {
                "object-type": "absolute-pos", 
                "offset": 60
            }, 
            "text": "Paraffin sections were treated with xylene to remove paraffin and rehydrated through a series of alcohols and phosphate buffered saline."
        }, 
        {
            "frame-id": "sent-PMC3660582-medscan-61", 
            "frame-type": "sentence", 
            "object-type": "frame", 
            "start-pos": {
                "object-type": "absolute-pos", 
                "offset": 61
            }, 
            "text": "For antigen retrieval, sections were exposed to pepsin (0.1% in 0.01 N HCl, pH2.0; Sigma-Aldrich Co., MO) for 50 minutes at 37\u00b0C."
        }, 
        {
            "frame-id": "sent-PMC3660582-medscan-62", 
            "frame-type": "sentence", 
            "object-type": "frame", 
            "start-pos": {
                "object-type": "absolute-pos", 
                "offset": 62
            }, 
            "text": "Sections were incubated overnight at 4\u00b0C in a humid chamber with primary antibody for the focal adhesion protein Tenascin (1\u2236150 dilution, Millipore Corp, Billerica MA)."
        }, 
        {
            "frame-id": "sent-PMC3660582-medscan-63", 
            "frame-type": "sentence", 
            "object-type": "frame", 
            "start-pos": {
                "object-type": "absolute-pos", 
                "offset": 63
            }, 
            "text": "Biotinylated goat anti-rabbit IgG (1\u2236150 dilution, Zymed, San Francisco, CA) was applied to sections for 1 hour in a humidified chamber at room temperature."
        }, 
        {
            "frame-id": "sent-PMC3660582-medscan-64", 
            "frame-type": "sentence", 
            "object-type": "frame", 
            "start-pos": {
                "object-type": "absolute-pos", 
                "offset": 64
            }, 
            "text": "Slides were rinsed with phosphate buffered saline and detection of positive cells was accomplished using alkaline phosphatase (Vectastain ABC-AP kit; Vector, Burlingame, CA)."
        }, 
        {
            "frame-id": "sent-PMC3660582-medscan-65", 
            "frame-type": "sentence", 
            "object-type": "frame", 
            "start-pos": {
                "object-type": "absolute-pos", 
                "offset": 65
            }, 
            "text": "Samples were counterstained with Harris' hematoxylin, dehydrated and mounted in a permanent mounting medium."
        }, 
        {
            "frame-id": "sent-PMC3660582-medscan-66", 
            "frame-type": "sentence", 
            "object-type": "frame", 
            "start-pos": {
                "object-type": "absolute-pos", 
                "offset": 66
            }, 
            "text": "Mammary glands of E19 female fetuses, exposed to bisphenol A (250 ng/kg BW/day), EE2 (10 ng/kg BW/day), or vehicle from E8 until E19, with ER\u03b1(-/-) and ER\u03b1(+/+) genotypes were harvested and the epithelium and peri-ductal stroma of these glands were separated by LCM."
        }, 
        {
            "frame-id": "sent-PMC3660582-medscan-67", 
            "frame-type": "sentence", 
            "object-type": "frame", 
            "start-pos": {
                "object-type": "absolute-pos", 
                "offset": 67
            }, 
            "text": "Accurate LCM capture of the epithelial and peri-ductal stromal compartments is shown in (and )."
        }, 
        {
            "frame-id": "sent-PMC3660582-medscan-68", 
            "frame-type": "sentence", 
            "object-type": "frame", 
            "start-pos": {
                "object-type": "absolute-pos", 
                "offset": 68
            }, 
            "text": "Expression of the mRNA transcripts for an epithelium-specific marker gene (Krt8, encoding cytokeratin 8) and the mammary stroma-specific marker genes (Fabp4 and PPAR\u03b3, encoding fatty acid binding protein 4 and peroxisome proliferator activated receptor \u03b3, respectively) demonstrated greater than 95% purity of each of these laser-captured compartments ."
        }, 
        {
            "frame-id": "sent-PMC3660582-medscan-69", 
            "frame-type": "sentence", 
            "object-type": "frame", 
            "start-pos": {
                "object-type": "absolute-pos", 
                "offset": 69
            }, 
            "text": "Laser capture microdissection of the epithelium and peri-ductal stroma of E19 mammary gland; (A) Frozen section stained with Histogene stain; (B) peri-ductal stroma surrounding the epithelium isolated on an HS LCM cap; (C) epithelium isolated on an HS LCM cap; (D) expression of genes specific to the peri-ductal stroma and epithelium assessed by Real-Time RT-qPCR."
        }, 
        {
            "frame-id": "sent-PMC3660582-medscan-70", 
            "frame-type": "sentence", 
            "object-type": "frame", 
            "start-pos": {
                "object-type": "absolute-pos", 
                "offset": 70
            }, 
            "text": "Data expressed as fold change relative to the tissue compartment with least expression (*p<0.05)."
        }, 
        {
            "frame-id": "sent-PMC3660582-medscan-71", 
            "frame-type": "sentence", 
            "object-type": "frame", 
            "start-pos": {
                "object-type": "absolute-pos", 
                "offset": 71
            }, 
            "text": "In order to determine transcriptional effects of fetal exposure to bisphenol A and EE2 in the epithelial and stromal compartments of fetal mouse mammary glands, mRNA expression profiles of the LCM-captured tissues were examined by Affymetrix microarray."
        }, 
        {
            "frame-id": "sent-PMC3660582-medscan-72", 
            "frame-type": "sentence", 
            "object-type": "frame", 
            "start-pos": {
                "object-type": "absolute-pos", 
                "offset": 72
            }, 
            "text": "Principal component analysis on their transcriptomal profiles revealed a clear separation of the epithelial and stromal compartments , confirming the absence of significant cross contaminations between these two distinct compartments."
        }, 
        {
            "frame-id": "sent-PMC3660582-medscan-73", 
            "frame-type": "sentence", 
            "object-type": "frame", 
            "start-pos": {
                "object-type": "absolute-pos", 
                "offset": 73
            }, 
            "text": "As expected from the Principal component analysis which can identify only gross variability , , no significant transcriptomal changes caused by the deficiency of ER\u03b1  or exposure to the estrogenic compounds were observed ."
        }, 
        {
            "frame-id": "sent-PMC3660582-medscan-74", 
            "frame-type": "sentence", 
            "object-type": "frame", 
            "start-pos": {
                "object-type": "absolute-pos", 
                "offset": 74
            }, 
            "text": "Likewise the morphological differences observed in the mammary glands at this age between the stroma and epithelium is obvious, while the difference due to hormone treatment is subtle."
        }, 
        {
            "frame-id": "sent-PMC3660582-medscan-75", 
            "frame-type": "sentence", 
            "object-type": "frame", 
            "start-pos": {
                "object-type": "absolute-pos", 
                "offset": 75
            }, 
            "text": "Principal Component Analysis of the microarray data of E19 mammary glands indicating differences in global gene expression (A) between the epithelium (red) and peri-ductal stroma (blue); (B) between ER\u03b1(+/+) (blue) and ER\u03b1(-/-) mice (red) and (C) between the three treatment groups: bisphenol A (red), EE2 (blue) and vehicle (green)."
        }, 
        {
            "frame-id": "sent-PMC3660582-medscan-76", 
            "frame-type": "sentence", 
            "object-type": "frame", 
            "start-pos": {
                "object-type": "absolute-pos", 
                "offset": 76
            }, 
            "text": "In the peri-ductal stroma, hierarchical clustering analysis on 2036 genes pre-selected by ANOVA for differential expression (p<0.05) between vehicle and bisphenol A or vehicle and EE2 demonstrated clear separation of their mRNA expression profiles along the three exposure groups ."
        }, 
        {
            "frame-id": "sent-PMC3660582-medscan-77", 
            "frame-type": "sentence", 
            "object-type": "frame", 
            "start-pos": {
                "object-type": "absolute-pos", 
                "offset": 77
            }, 
            "text": "In this heatmap, five distinct clusters of genes were recognized as shown in . also shows a heatmap of the same hierarchical clustering analysis on 5348 genes selected by ANOVA (p<0.05), expressed in the epithelial compartment."
        }, 
        {
            "frame-id": "sent-PMC3660582-medscan-78", 
            "frame-type": "sentence", 
            "object-type": "frame", 
            "start-pos": {
                "object-type": "absolute-pos", 
                "offset": 78
            }, 
            "text": "The size of the gene clusters representing differential transcriptional effects of bisphenol A and EE2 (i.e., sum of numbers of genes belonging to clusters 2, 3, and 5) were remarkably smaller in the epithelium compared with those of the peri-ductal compartment (459 of 5348 genes for the epithelial compartment versus 789 of 2036 genes for the stromal one; p<0.001-Fisher Exact Test)."
        }, 
        {
            "frame-id": "sent-PMC3660582-medscan-79", 
            "frame-type": "sentence", 
            "object-type": "frame", 
            "start-pos": {
                "object-type": "absolute-pos", 
                "offset": 79
            }, 
            "text": "These results suggest that the transcriptional response of peri-ductal stromal cells partially distinguishes the two estrogenic agents (bisphenol A and EE2) whereas the response to these agents by epithelial cells was largely identical."
        }, 
        {
            "frame-id": "sent-PMC3660582-medscan-80", 
            "frame-type": "sentence", 
            "object-type": "frame", 
            "start-pos": {
                "object-type": "absolute-pos", 
                "offset": 80
            }, 
            "text": "The absence of ER\u03b1 did not significantly alter the global transcriptional responses to bisphenol A and EE2 of either compartment."
        }, 
        {
            "frame-id": "sent-PMC3660582-medscan-81", 
            "frame-type": "sentence", 
            "object-type": "frame", 
            "start-pos": {
                "object-type": "absolute-pos", 
                "offset": 81
            }, 
            "text": "This result suggests that ER\u03b1 may not play a major role as a mediator of the bisphenol A effects observed during fetal life."
        }, 
        {
            "frame-id": "sent-PMC3660582-medscan-82", 
            "frame-type": "sentence", 
            "object-type": "frame", 
            "start-pos": {
                "object-type": "absolute-pos", 
                "offset": 82
            }, 
            "text": "However, these observations do not rule out involvement of ER\u03b1 for the regulation of a small set of transcripts as shown below."
        }, 
        {
            "frame-id": "sent-PMC3660582-medscan-83", 
            "frame-type": "sentence", 
            "object-type": "frame", 
            "start-pos": {
                "object-type": "absolute-pos", 
                "offset": 83
            }, 
            "text": "Effect of fetal exposure to bisphenol A, EE2 and vehicle on the transcriptomal profiles of (A) peri-ductal stroma and (B) epithelium: hierarchical clustering analysis."
        }, 
        {
            "frame-id": "sent-PMC3660582-medscan-84", 
            "frame-type": "sentence", 
            "object-type": "frame", 
            "start-pos": {
                "object-type": "absolute-pos", 
                "offset": 84
            }, 
            "text": "Status for ER\u03b1 is indicated on the left (Green: ER\u03b1(+/+), Black: ER\u03b1(-/-)) and treatment is indicated on the right of the heat maps."
        }, 
        {
            "frame-id": "sent-PMC3660582-medscan-85", 
            "frame-type": "sentence", 
            "object-type": "frame", 
            "start-pos": {
                "object-type": "absolute-pos", 
                "offset": 85
            }, 
            "text": "Unique gene clusters observed are shown on the top of the heat maps."
        }, 
        {
            "frame-id": "sent-PMC3660582-medscan-86", 
            "frame-type": "sentence", 
            "object-type": "frame", 
            "start-pos": {
                "object-type": "absolute-pos", 
                "offset": 86
            }, 
            "text": "Gene Ontology analysis on genes with altered mRNA expression following fetal exposure to bisphenol A in the peri-ductal stroma of ER\u03b1(+/+) mice pointed to alterations in the focal adhesion pathway (Z-scores: up-regulation by bisphenol A = 1.08, down-regulation by bisphenol A = 2.3)."
        }, 
        {
            "frame-id": "sent-PMC3660582-medscan-87", 
            "frame-type": "sentence", 
            "object-type": "frame", 
            "start-pos": {
                "object-type": "absolute-pos", 
                "offset": 87
            }, 
            "text": "Expression of the mRNA transcripts for genes encoding the extracellular matrix components, such as tenascin , was significantly down-regulated along with other extracellular matrix components  in the bisphenol A-exposed mice."
        }, 
        {
            "frame-id": "sent-PMC3660582-medscan-88", 
            "frame-type": "sentence", 
            "object-type": "frame", 
            "start-pos": {
                "object-type": "absolute-pos", 
                "offset": 88
            }, 
            "text": "Agreeing with this observation made by mRNA microarray analysis, immunohistochemical examination demonstrated a significantly decreased expression of tenascin protein in the peri-ductal stroma of bisphenol A-exposed mice ."
        }, 
        {
            "frame-id": "sent-PMC3660582-medscan-89", 
            "frame-type": "sentence", 
            "object-type": "frame", 
            "start-pos": {
                "object-type": "absolute-pos", 
                "offset": 89
            }, 
            "text": "Additionally, the actin-binding protein filamin b was up-regulated by bisphenol A exposure (signal intensity in arbitrary units were 31.8\u00b14.2 and 445.6\u00b1245.3 for vehicle- and bisphenol A-exposed mice, respectively)."
        }, 
        {
            "frame-id": "sent-PMC3660582-medscan-90", 
            "frame-type": "sentence", 
            "object-type": "frame", 
            "start-pos": {
                "object-type": "absolute-pos", 
                "offset": 90
            }, 
            "text": "These results correlate with our previous findings showing profound changes in matrix organization in the peri-ductal stroma ."
        }, 
        {
            "frame-id": "sent-PMC3660582-medscan-91", 
            "frame-type": "sentence", 
            "object-type": "frame", 
            "start-pos": {
                "object-type": "absolute-pos", 
                "offset": 91
            }, 
            "text": "This in turn may alter the biomechanical properties of the cells within it which reorganize their cytoskeleton, as suggested by the expression of filamin b."
        }, 
        {
            "frame-id": "sent-PMC3660582-medscan-92", 
            "frame-type": "sentence", 
            "object-type": "frame", 
            "start-pos": {
                "object-type": "absolute-pos", 
                "offset": 92
            }, 
            "text": "Immunohistochemical localization of TnC in (A) vehicle and (B) bisphenol A-exposed mammary glands of ER\u03b1(+/+) mice at E19."
        }, 
        {
            "frame-id": "sent-PMC3660582-medscan-93", 
            "frame-type": "sentence", 
            "object-type": "frame", 
            "start-pos": {
                "object-type": "absolute-pos", 
                "offset": 93
            }, 
            "text": "Red alkaline phosphatase staining of TnC is observed in the peri-ductal stroma. (*epithelial ducts; scale bar = 100 \u00b5m)."
        }, 
        {
            "frame-id": "sent-PMC3660582-medscan-94", 
            "frame-type": "sentence", 
            "object-type": "frame", 
            "start-pos": {
                "object-type": "absolute-pos", 
                "offset": 94
            }, 
            "text": "Genes involved in the ontology category of the 'focal adhesion' pathway altered in the peri-ductal stroma of ER\u03b1(+/+) bisphenol A mice compared to ER\u03b1(+/+) Vehicle mice. (The Affymetrix probe ID and gene identifier are mentioned for each transcript of interest)."
        }, 
        {
            "frame-id": "sent-PMC3660582-medscan-95", 
            "frame-type": "sentence", 
            "object-type": "frame", 
            "start-pos": {
                "object-type": "absolute-pos", 
                "offset": 95
            }, 
            "text": "Although the adipogenesis pathway did not appear to be altered in our microarray data, significant changes in mRNA expression of several genes involved in adipogenesis were detected."
        }, 
        {
            "frame-id": "sent-PMC3660582-medscan-96", 
            "frame-type": "sentence", 
            "object-type": "frame", 
            "start-pos": {
                "object-type": "absolute-pos", 
                "offset": 96
            }, 
            "text": "In the peri-ductal stroma of both ER\u03b1(+/+) and ER\u03b1(-/-) mice, significant increases in the expression of PPAR\u03b3, a master gene of adipogenesis, as well as other adipogenic genes such as low density lipoprotein receptor (Ldlr), G protein-coupled receptor 81 (GPR81), and Fabp4 were observed in the bisphenol A-exposed mammary glands ."
        }, 
        {
            "frame-id": "sent-PMC3660582-medscan-97", 
            "frame-type": "sentence", 
            "object-type": "frame", 
            "start-pos": {
                "object-type": "absolute-pos", 
                "offset": 97
            }, 
            "text": "This increased expression of genes involved in adipogenesis is consistent with our previous observations at embryonic day 18 showing an increase in the number of adipocytes containing lipid droplets and expressing Fabp4, in the peri-ductal stroma of bisphenol A-exposed mice ."
        }, 
        {
            "frame-id": "sent-PMC3660582-medscan-98", 
            "frame-type": "sentence", 
            "object-type": "frame", 
            "start-pos": {
                "object-type": "absolute-pos", 
                "offset": 98
            }, 
            "text": "Genes involved in adipogenesis, identified in the peri-ductal stroma of vehicle versus bisphenol A-exposed mice."
        }, 
        {
            "frame-id": "sent-PMC3660582-medscan-99", 
            "frame-type": "sentence", 
            "object-type": "frame", 
            "start-pos": {
                "object-type": "absolute-pos", 
                "offset": 99
            }, 
            "text": "Data from ER\u03b1(+/+) and ER\u03b1(-/-) mice for both treatment groups was pooled for this analysis. (The Affymetrix probe ID and gene identifier are mentioned for each transcript of interest)."
        }, 
        {
            "frame-id": "sent-PMC3660582-medscan-100", 
            "frame-type": "sentence", 
            "object-type": "frame", 
            "start-pos": {
                "object-type": "absolute-pos", 
                "offset": 100
            }, 
            "text": "In the epithelium, the Gene Ontology category of genes regulating apoptosis was altered by bisphenol A exposure in ER\u03b1(+/+) mice (Z-scores: up-regulation by bisphenol A = 2.03, down-regulation by bisphenol A = 1.88)."
        }, 
        {
            "frame-id": "sent-PMC3660582-medscan-101", 
            "frame-type": "sentence", 
            "object-type": "frame", 
            "start-pos": {
                "object-type": "absolute-pos", 
                "offset": 101
            }, 
            "text": "The anti-apoptotic genes baculoviral IAP repeat-containing protein 2 and v-abl Abelson murine leukemia viral oncogene homolog 1 (Abl1) were significantly up-regulated in bisphenol A-exposed mice ."
        }, 
        {
            "frame-id": "sent-PMC3660582-medscan-102", 
            "frame-type": "sentence", 
            "object-type": "frame", 
            "start-pos": {
                "object-type": "absolute-pos", 
                "offset": 102
            }, 
            "text": "These results are consistent with our previous observations of decreased apoptosis in the ductal cords of bisphenol A-exposed mice, resulting in delayed lumen formation ."
        }, 
        {
            "frame-id": "sent-PMC3660582-medscan-103", 
            "frame-type": "sentence", 
            "object-type": "frame", 
            "start-pos": {
                "object-type": "absolute-pos", 
                "offset": 103
            }, 
            "text": "Genes involved in the ontology category of 'regulation of apoptosis' altered in the epithelium of ER\u03b1(+/+) bisphenol A mice compared to ER\u03b1(+/+) Vehicle mice. ('a' indicates statistical significance; the Affymetrix probe ID and gene identifier are mentioned for each transcript of interest)."
        }, 
        {
            "frame-id": "sent-PMC3660582-medscan-104", 
            "frame-type": "sentence", 
            "object-type": "frame", 
            "start-pos": {
                "object-type": "absolute-pos", 
                "offset": 104
            }, 
            "text": "bisphenol A is known to bind to receptors other than ERs, albeit at significantly lower affinity."
        }, 
        {
            "frame-id": "sent-PMC3660582-medscan-105", 
            "frame-type": "sentence", 
            "object-type": "frame", 
            "start-pos": {
                "object-type": "absolute-pos", 
                "offset": 105
            }, 
            "text": "Messenger RNA transcripts for these receptors were expressed in the mammary peri-ductal stroma and epithelium ."
        }, 
        {
            "frame-id": "sent-PMC3660582-medscan-106", 
            "frame-type": "sentence", 
            "object-type": "frame", 
            "start-pos": {
                "object-type": "absolute-pos", 
                "offset": 106
            }, 
            "text": "Expression of ER\u03b1 was observed only in the stroma of ER\u03b1(+/+) mice agreeing with a previous study , and was absent in the ER\u03b1(-/-) mice ."
        }, 
        {
            "frame-id": "sent-PMC3660582-medscan-107", 
            "frame-type": "sentence", 
            "object-type": "frame", 
            "start-pos": {
                "object-type": "absolute-pos", 
                "offset": 107
            }, 
            "text": "ER\u03b2 and estrogen-related receptor gamma (Esrrg) are known to be activated by binding to bisphenol A , but the mRNA transcripts for these genes were not detected in either the epithelium or the peri-ductal stroma of the fetal mammary glands."
        }, 
        {
            "frame-id": "sent-PMC3660582-medscan-108", 
            "frame-type": "sentence", 
            "object-type": "frame", 
            "start-pos": {
                "object-type": "absolute-pos", 
                "offset": 108
            }, 
            "text": "However, the expression of ER\u03b2 has been shown to occur in the whole mammary gland at embryonic day 18 in CD1 mice as well as in mammary glands of C57BL/6 mice that are cleared of epithelium (whole stroma) at E19 (unpublished data)."
        }, 
        {
            "frame-id": "sent-PMC3660582-medscan-109", 
            "frame-type": "sentence", 
            "object-type": "frame", 
            "start-pos": {
                "object-type": "absolute-pos", 
                "offset": 109
            }, 
            "text": "ER\u03b2 expression is clearly absent in the epithelial ducts and may hence be expressed in the regions beyond the peri-ductal stroma that was examined in the current study."
        }, 
        {
            "frame-id": "sent-PMC3660582-medscan-110", 
            "frame-type": "sentence", 
            "object-type": "frame", 
            "start-pos": {
                "object-type": "absolute-pos", 
                "offset": 110
            }, 
            "text": "The G protein-coupled receptor 30 (GPR30), a recently discovered receptor for bisphenol A and estrogen , , was expressed only in the peri-ductal stroma of fetal mammary glands of ER\u03b1(+/+) mice and was not detectable in ER\u03b1(-/-) mice."
        }, 
        {
            "frame-id": "sent-PMC3660582-medscan-111", 
            "frame-type": "sentence", 
            "object-type": "frame", 
            "start-pos": {
                "object-type": "absolute-pos", 
                "offset": 111
            }, 
            "text": "Androgen receptor was expressed only in the stroma whereas thyroid hormone receptor \u03b1 (Thra) and glucocorticoid receptor (Nr3c1) were expressed in both the peri-ductal stroma and epithelial compartments ."
        }, 
        {
            "frame-id": "sent-PMC3660582-medscan-112", 
            "frame-type": "sentence", 
            "object-type": "frame", 
            "start-pos": {
                "object-type": "absolute-pos", 
                "offset": 112
            }, 
            "text": "Transcripts detected in epithelium and peri-ductal stroma of the mammary gland in ER\u03b1(+/+) and ER\u03b1(-/-) mice treated with vehicle. [Signal intensity in arbitrary units: +(100-200); ++(200-400); +++(400 and higher); - (below 100)]."
        }, 
        {
            "frame-id": "sent-PMC3660582-medscan-113", 
            "frame-type": "sentence", 
            "object-type": "frame", 
            "start-pos": {
                "object-type": "absolute-pos", 
                "offset": 113
            }, 
            "text": "First, we identified genes with mRNA expression affected at least 2-fold by exposure to either bisphenol A or EE2 compared to vehicle."
        }, 
        {
            "frame-id": "sent-PMC3660582-medscan-114", 
            "frame-type": "sentence", 
            "object-type": "frame", 
            "start-pos": {
                "object-type": "absolute-pos", 
                "offset": 114
            }, 
            "text": "Next, we removed genes that showed comparable estrogen responsiveness (p<0.05) in the ER\u03b1(+/+) and the ER\u03b1(-/-) mice."
        }, 
        {
            "frame-id": "sent-PMC3660582-medscan-115", 
            "frame-type": "sentence", 
            "object-type": "frame", 
            "start-pos": {
                "object-type": "absolute-pos", 
                "offset": 115
            }, 
            "text": "When this procedure was applied to both epithelial and stromal compartments, a total of 266 genes passed these criteria ( -d), and five of them were known to be involved in mammary gland development ."
        }, 
        {
            "frame-id": "sent-PMC3660582-medscan-116", 
            "frame-type": "sentence", 
            "object-type": "frame", 
            "start-pos": {
                "object-type": "absolute-pos", 
                "offset": 116
            }, 
            "text": "The hepatocyte growth factor receptor/Met proto-oncogene (Met), implicated in branching of the mammary gland , was up-regulated in the ER\u03b1(+/+) epithelium following exposure to estrogens but not in the epithelium of the ER\u03b1(-/-) mice."
        }, 
        {
            "frame-id": "sent-PMC3660582-medscan-117", 
            "frame-type": "sentence", 
            "object-type": "frame", 
            "start-pos": {
                "object-type": "absolute-pos", 
                "offset": 117
            }, 
            "text": "Transglutaminase 2 , known to catalyze extracellular matrix cross-links , , was also up-regulated upon exposure to the estrogens in the epithelium."
        }, 
        {
            "frame-id": "sent-PMC3660582-medscan-118", 
            "frame-type": "sentence", 
            "object-type": "frame", 
            "start-pos": {
                "object-type": "absolute-pos", 
                "offset": 118
            }, 
            "text": "In contrast, zyxin (Zyx), which is involved in mechanical-force-dependent facilitation of actin polymerization at focal adhesions , was down-regulated in the estrogen-exposed epithelium."
        }, 
        {
            "frame-id": "sent-PMC3660582-medscan-119", 
            "frame-type": "sentence", 
            "object-type": "frame", 
            "start-pos": {
                "object-type": "absolute-pos", 
                "offset": 119
            }, 
            "text": "In the peri-ductal stroma, peptidyl-prolyl cis/trans isomerase (Pin1), a gene overexpressed in breast tumors , was up-regulated following exposure to the estrogens while the tripartite motif-containing 29 , a gene suppressed in prostate and breast cancer , was down-regulated in an ER\u03b1 dependent manner."
        }, 
        {
            "frame-id": "sent-PMC3660582-medscan-120", 
            "frame-type": "sentence", 
            "object-type": "frame", 
            "start-pos": {
                "object-type": "absolute-pos", 
                "offset": 120
            }, 
            "text": "Transcripts affected by estrogen treatment in the ER\u03b1(+/+) but not in ER\u03b1(-/-) mice. (The values in the table indicate the ratio of the average signal intensity for that gene. Only genes with an increase or decrease in expression ratio \u22652.0, between vehicle and at least one estrogen treatment, are listed. The Affymetrix probe ID and gene identifier are mentioned for each transcript of interest)."
        }, 
        {
            "frame-id": "sent-PMC3660582-medscan-121", 
            "frame-type": "sentence", 
            "object-type": "frame", 
            "start-pos": {
                "object-type": "absolute-pos", 
                "offset": 121
            }, 
            "text": "Previous studies in our lab, conducted in mice born to mothers dosed with 250 ng bisphenol A/kg BW/d as in the present study, have shown an altered fetal mammary gland phenotype ."
        }, 
        {
            "frame-id": "sent-PMC3660582-medscan-122", 
            "frame-type": "sentence", 
            "object-type": "frame", 
            "start-pos": {
                "object-type": "absolute-pos", 
                "offset": 122
            }, 
            "text": "This dose, administered to their mothers is considered a 'low dose' as it is 200-times lower than the reference dose of 50 \u00b5g/kg BW/d defined by the US Environmental Protection Agency which is the maximal acceptable oral dose of a toxic substance."
        }, 
        {
            "frame-id": "sent-PMC3660582-medscan-123", 
            "frame-type": "sentence", 
            "object-type": "frame", 
            "start-pos": {
                "object-type": "absolute-pos", 
                "offset": 123
            }, 
            "text": "In addition, the levels of total bisphenol A in the serum of the pregnant mice administered this dose would be below the detectable limit of 0.3 ng/ml (BSR- personal communication)."
        }, 
        {
            "frame-id": "sent-PMC3660582-medscan-124", 
            "frame-type": "sentence", 
            "object-type": "frame", 
            "start-pos": {
                "object-type": "absolute-pos", 
                "offset": 124
            }, 
            "text": "In order to determine whether the effects previously observed at this bisphenol A dose are due to its estrogenic activity, we performed transcriptomal analyses on the stromal and epithelial compartments of the fetal mouse mammary gland during the period of bisphenol A or EE2 exposure."
        }, 
        {
            "frame-id": "sent-PMC3660582-medscan-125", 
            "frame-type": "sentence", 
            "object-type": "frame", 
            "start-pos": {
                "object-type": "absolute-pos", 
                "offset": 125
            }, 
            "text": "Clustering analysis demonstrated significant similarities in the transcriptomal changes induced by exposure to bisphenol A and EE2, the similarity being more complete in the epithelial compartment."
        }, 
        {
            "frame-id": "sent-PMC3660582-medscan-126", 
            "frame-type": "sentence", 
            "object-type": "frame", 
            "start-pos": {
                "object-type": "absolute-pos", 
                "offset": 126
            }, 
            "text": "Because of these similarities in the transcriptomal responses of the developing mammary gland resulting from exposure to EE2 and bisphenol A, we conclude that bisphenol A acts as an estrogenic agent in this tissue."
        }, 
        {
            "frame-id": "sent-PMC3660582-medscan-127", 
            "frame-type": "sentence", 
            "object-type": "frame", 
            "start-pos": {
                "object-type": "absolute-pos", 
                "offset": 127
            }, 
            "text": "Recent publications have demonstrated estrogenic action of bisphenol A in other tissues."
        }, 
        {
            "frame-id": "sent-PMC3660582-medscan-128", 
            "frame-type": "sentence", 
            "object-type": "frame", 
            "start-pos": {
                "object-type": "absolute-pos", 
                "offset": 128
            }, 
            "text": "For example, low-dose effects of bisphenol A on insulin secretion are obliterated in the ER\u03b1 and ER\u03b2 null mutant mice ."
        }, 
        {
            "frame-id": "sent-PMC3660582-medscan-129", 
            "frame-type": "sentence", 
            "object-type": "frame", 
            "start-pos": {
                "object-type": "absolute-pos", 
                "offset": 129
            }, 
            "text": "The mammary gland mesenchyme plays an inductive role on mammary epithelial morphogenesis ."
        }, 
        {
            "frame-id": "sent-PMC3660582-medscan-130", 
            "frame-type": "sentence", 
            "object-type": "frame", 
            "start-pos": {
                "object-type": "absolute-pos", 
                "offset": 130
            }, 
            "text": "From the present study, we conclude that the expression of ER\u03b1 mRNA is detected only in the stromal compartment."
        }, 
        {
            "frame-id": "sent-PMC3660582-medscan-131", 
            "frame-type": "sentence", 
            "object-type": "frame", 
            "start-pos": {
                "object-type": "absolute-pos", 
                "offset": 131
            }, 
            "text": "The expression of both ER\u03b1 and ER\u03b2 in the developing mammary glands has been well documented."
        }, 
        {
            "frame-id": "sent-PMC3660582-medscan-132", 
            "frame-type": "sentence", 
            "object-type": "frame", 
            "start-pos": {
                "object-type": "absolute-pos", 
                "offset": 132
            }, 
            "text": "Previous studies have shown that the expression of mRNAs for ER\u03b1 and ER\u03b2 are first observed in the mesenchyme surrounding the mammary bud at E12.5 ."
        }, 
        {
            "frame-id": "sent-PMC3660582-medscan-133", 
            "frame-type": "sentence", 
            "object-type": "frame", 
            "start-pos": {
                "object-type": "absolute-pos", 
                "offset": 133
            }, 
            "text": "At embryonic day 18, ER\u03b1 is detected predominantly in the mammary mesenchyme and very few cells in the epithelium are ER\u03b1 positive when examined by immunohistochemistry ."
        }, 
        {
            "frame-id": "sent-PMC3660582-medscan-134", 
            "frame-type": "sentence", 
            "object-type": "frame", 
            "start-pos": {
                "object-type": "absolute-pos", 
                "offset": 134
            }, 
            "text": "The expression of ER\u03b1 shifts mainly to the epithelium only at post-natal time-points ."
        }, 
        {
            "frame-id": "sent-PMC3660582-medscan-135", 
            "frame-type": "sentence", 
            "object-type": "frame", 
            "start-pos": {
                "object-type": "absolute-pos", 
                "offset": 135
            }, 
            "text": "Although in the present study ER\u03b2 expression was not detected in the transcriptome of the stroma immediately adjacent to the epithelium (peri-ductal stroma), its involvement in bisphenol A action cannot be ruled out, given that it was detected in RNA extracted from the whole fetal mammary gland at embryonic day 18 as well as from RNA extracted from the entire stroma and not just the peri-ductal region, at E19 (unpublished data)."
        }, 
        {
            "frame-id": "sent-PMC3660582-medscan-136", 
            "frame-type": "sentence", 
            "object-type": "frame", 
            "start-pos": {
                "object-type": "absolute-pos", 
                "offset": 136
            }, 
            "text": "In the present study, the presence of the mRNA transcripts for GPR30 in the peri-ductal stroma raises the possibility that bisphenol A or EE2 could also exert their estrogenic effects through this receptor in addition to the classical nuclear ERs."
        }, 
        {
            "frame-id": "sent-PMC3660582-medscan-137", 
            "frame-type": "sentence", 
            "object-type": "frame", 
            "start-pos": {
                "object-type": "absolute-pos", 
                "offset": 137
            }, 
            "text": "However, this membrane receptor is only expressed at this developmental stage in the ER\u03b1(+/+) mice, thus, the estrogenic effects observed in the ER\u03b1(-/-) mice cannot be attributed to GPR30 action."
        }, 
        {
            "frame-id": "sent-PMC3660582-medscan-138", 
            "frame-type": "sentence", 
            "object-type": "frame", 
            "start-pos": {
                "object-type": "absolute-pos", 
                "offset": 138
            }, 
            "text": "The expression of the estrogen receptors in the stroma along with undetectable levels of these receptors in the epithelium makes the stroma a likely estrogen target at this period of mammary development."
        }, 
        {
            "frame-id": "sent-PMC3660582-medscan-139", 
            "frame-type": "sentence", 
            "object-type": "frame", 
            "start-pos": {
                "object-type": "absolute-pos", 
                "offset": 139
            }, 
            "text": "We further propose that the stroma may integrate the estrogenic input into a common set of mediators of stromal-epithelial interactions that in turn influence the epithelium."
        }, 
        {
            "frame-id": "sent-PMC3660582-medscan-140", 
            "frame-type": "sentence", 
            "object-type": "frame", 
            "start-pos": {
                "object-type": "absolute-pos", 
                "offset": 140
            }, 
            "text": "While gene clusters 1 and 4 of the hierarchical cluster analysis show very similar expression patterns in bisphenol A and EE2 exposed mice, clusters 2, 3, and 5 demonstrate differential effects of the two estrogens."
        }, 
        {
            "frame-id": "sent-PMC3660582-medscan-141", 
            "frame-type": "sentence", 
            "object-type": "frame", 
            "start-pos": {
                "object-type": "absolute-pos", 
                "offset": 141
            }, 
            "text": "This may be due to actions of bisphenol A on nuclear receptors other than ER\u03b1 and \u03b2 that bind bisphenol A and not EE2."
        }, 
        {
            "frame-id": "sent-PMC3660582-medscan-142", 
            "frame-type": "sentence", 
            "object-type": "frame", 
            "start-pos": {
                "object-type": "absolute-pos", 
                "offset": 142
            }, 
            "text": "These include Nr3c1 , Androgen receptor and Thra ."
        }, 
        {
            "frame-id": "sent-PMC3660582-medscan-143", 
            "frame-type": "sentence", 
            "object-type": "frame", 
            "start-pos": {
                "object-type": "absolute-pos", 
                "offset": 143
            }, 
            "text": "Expression of each of these receptors has been confirmed in the fetal mammary gland in the present study."
        }, 
        {
            "frame-id": "sent-PMC3660582-medscan-144", 
            "frame-type": "sentence", 
            "object-type": "frame", 
            "start-pos": {
                "object-type": "absolute-pos", 
                "offset": 144
            }, 
            "text": "It is however important to note that binding affinity of bisphenol A to Androgen receptor and Thra is 10-fold and 100-fold lower respectively relative to the classical ERs."
        }, 
        {
            "frame-id": "sent-PMC3660582-medscan-145", 
            "frame-type": "sentence", 
            "object-type": "frame", 
            "start-pos": {
                "object-type": "absolute-pos", 
                "offset": 145
            }, 
            "text": "In the peri-ductal stroma, there was a decrease in expression of the mRNA transcripts for tenascin and Vcan, which are known to modulate the biomechanical properties of the extracellular matrix , as well as cell adhesion ."
        }, 
        {
            "frame-id": "sent-PMC3660582-medscan-146", 
            "frame-type": "sentence", 
            "object-type": "frame", 
            "start-pos": {
                "object-type": "absolute-pos", 
                "offset": 146
            }, 
            "text": "Similarly, increased expression of genes involved in adipogenesis such as Fabp4, PPAR\u03b3 and Ldlr was also consistent with our previous study showing increased adipogenesis in the periductal stroma of bisphenol A-exposed fetal mammary glands ."
        }, 
        {
            "frame-id": "sent-PMC3660582-medscan-147", 
            "frame-type": "sentence", 
            "object-type": "frame", 
            "start-pos": {
                "object-type": "absolute-pos", 
                "offset": 147
            }, 
            "text": "Accelerated adipogenesis may be the underlying cause of increased epithelial area and branching in these fetal glands ."
        }, 
        {
            "frame-id": "sent-PMC3660582-medscan-148", 
            "frame-type": "sentence", 
            "object-type": "frame", 
            "start-pos": {
                "object-type": "absolute-pos", 
                "offset": 148
            }, 
            "text": "This is consistent with the well known property of the preadipocytes to promote epithelial elongation and branching ."
        }, 
        {
            "frame-id": "sent-PMC3660582-medscan-149", 
            "frame-type": "sentence", 
            "object-type": "frame", 
            "start-pos": {
                "object-type": "absolute-pos", 
                "offset": 149
            }, 
            "text": "In the epithelium, the increased expression of anti-apoptotic genes in the bisphenol A-exposed mice was also consistent with our earlier observations showing inhibition of lumen formation ."
        }, 
        {
            "frame-id": "sent-PMC3660582-medscan-150", 
            "frame-type": "sentence", 
            "object-type": "frame", 
            "start-pos": {
                "object-type": "absolute-pos", 
                "offset": 150
            }, 
            "text": "Apoptosis in the ductal cords plays a critical role in lumen formation during mammary development ."
        }, 
        {
            "frame-id": "sent-PMC3660582-medscan-151", 
            "frame-type": "sentence", 
            "object-type": "frame", 
            "start-pos": {
                "object-type": "absolute-pos", 
                "offset": 151
            }, 
            "text": "These changes in gene expression patterns in the peri-ductal stroma and epithelium brought about by bisphenol A exposure correlate with the subtle morphological changes previously observed in our lab."
        }, 
        {
            "frame-id": "sent-PMC3660582-medscan-152", 
            "frame-type": "sentence", 
            "object-type": "frame", 
            "start-pos": {
                "object-type": "absolute-pos", 
                "offset": 152
            }, 
            "text": "More importantly, they suggest altered stromal-epithelial interactions in the fetal glands."
        }, 
        {
            "frame-id": "sent-PMC3660582-medscan-153", 
            "frame-type": "sentence", 
            "object-type": "frame", 
            "start-pos": {
                "object-type": "absolute-pos", 
                "offset": 153
            }, 
            "text": "These alterations during fetal development may contribute to the prominent changes in the morphology of the mammary glands observed during adulthood, including increased ductal density and branching , ."
        }, 
        {
            "frame-id": "sent-PMC3660582-medscan-154", 
            "frame-type": "sentence", 
            "object-type": "frame", 
            "start-pos": {
                "object-type": "absolute-pos", 
                "offset": 154
            }, 
            "text": "In addition, the altered expression of genes involved in the focal adhesion pathway indicates potential changes in biomechanical properties of the peri-ductal stroma."
        }, 
        {
            "frame-id": "sent-PMC3660582-medscan-155", 
            "frame-type": "sentence", 
            "object-type": "frame", 
            "start-pos": {
                "object-type": "absolute-pos", 
                "offset": 155
            }, 
            "text": "Whereas targeted deficiency of ER\u03b1 causes strong phenotypic changes in the mouse mammary gland during its peripubertal development , no significant global transcriptomal differences were observed between the ER\u03b1(+/+) and the ER\u03b1(-/-) animals treated with vehicle or either estrogen in either compartment of the mammary glands at E19."
        }, 
        {
            "frame-id": "sent-PMC3660582-medscan-156", 
            "frame-type": "sentence", 
            "object-type": "frame", 
            "start-pos": {
                "object-type": "absolute-pos", 
                "offset": 156
            }, 
            "text": "It may hence be likely that these hormone mediated changes may occur through ER\u03b2."
        }, 
        {
            "frame-id": "sent-PMC3660582-medscan-157", 
            "frame-type": "sentence", 
            "object-type": "frame", 
            "start-pos": {
                "object-type": "absolute-pos", 
                "offset": 157
            }, 
            "text": "However, by comparing the effect of the two estrogens in ER\u03b1(+/+) and the ER\u03b1(-/-) animals, we were able to identify putative ER\u03b1-dependent and estrogen responsive genes that are relevant to mammary gland development."
        }, 
        {
            "frame-id": "sent-PMC3660582-medscan-158", 
            "frame-type": "sentence", 
            "object-type": "frame", 
            "start-pos": {
                "object-type": "absolute-pos", 
                "offset": 158
            }, 
            "text": "These presumed ER\u03b1-dependent effects of bisphenol A on the expression of several genes involved in mouse mammary gland development also point to altered stromal-epithelial interactions."
        }, 
        {
            "frame-id": "sent-PMC3660582-medscan-159", 
            "frame-type": "sentence", 
            "object-type": "frame", 
            "start-pos": {
                "object-type": "absolute-pos", 
                "offset": 159
            }, 
            "text": "In our microarray data, the expression of Met was up-regulated in the epithelium of mice exposed to bisphenol A or EE2."
        }, 
        {
            "frame-id": "sent-PMC3660582-medscan-160", 
            "frame-type": "sentence", 
            "object-type": "frame", 
            "start-pos": {
                "object-type": "absolute-pos", 
                "offset": 160
            }, 
            "text": "Met encodes the membrane receptor of HGF, which is secreted in the stroma; ligand activation of the MET protein increases ductal branching ."
        }, 
        {
            "frame-id": "sent-PMC3660582-medscan-161", 
            "frame-type": "sentence", 
            "object-type": "frame", 
            "start-pos": {
                "object-type": "absolute-pos", 
                "offset": 161
            }, 
            "text": "This is consistent with our previous observation that ductal development and branching in the fetal mammary gland was enhanced in bisphenol A-exposed mice ."
        }, 
        {
            "frame-id": "sent-PMC3660582-medscan-162", 
            "frame-type": "sentence", 
            "object-type": "frame", 
            "start-pos": {
                "object-type": "absolute-pos", 
                "offset": 162
            }, 
            "text": "In addition, increased expression of Transglutaminase 2, known to catalyze cross-linking of collagen-I , is consistent with our previous observations of increased density of collagen fibers in the periductal stroma of bisphenol A-exposed fetal mouse mammary glands ."
        }, 
        {
            "frame-id": "sent-PMC3660582-medscan-163", 
            "frame-type": "sentence", 
            "object-type": "frame", 
            "start-pos": {
                "object-type": "absolute-pos", 
                "offset": 163
            }, 
            "text": "In turn, this may be responsible for an increased extracellular matrix rigidity, which has been shown to inhibit lumen formation in other models , ."
        }, 
        {
            "frame-id": "sent-PMC3660582-medscan-164", 
            "frame-type": "sentence", 
            "object-type": "frame", 
            "start-pos": {
                "object-type": "absolute-pos", 
                "offset": 164
            }, 
            "text": "Thus, it is likely that Transglutaminase 2 may indirectly mediate the inhibition of lumen formation which has been observed in the epithelium of bisphenol A-exposed fetal mice ."
        }, 
        {
            "frame-id": "sent-PMC3660582-medscan-165", 
            "frame-type": "sentence", 
            "object-type": "frame", 
            "start-pos": {
                "object-type": "absolute-pos", 
                "offset": 165
            }, 
            "text": "In summary, perinatal exposure to bisphenol A alters the stromal-epithelial interactions in the fetal mouse mammary gland."
        }, 
        {
            "frame-id": "sent-PMC3660582-medscan-166", 
            "frame-type": "sentence", 
            "object-type": "frame", 
            "start-pos": {
                "object-type": "absolute-pos", 
                "offset": 166
            }, 
            "text": "Stromal cells might respond to various estrogenic compounds with distinct transcriptomal changes and integrate such stimuli into a common (but yet to be identified) mediator(s) of mammary gland ductal morphogenesis."
        }, 
        {
            "frame-id": "sent-PMC3660582-medscan-167", 
            "frame-type": "sentence", 
            "object-type": "frame", 
            "start-pos": {
                "object-type": "absolute-pos", 
                "offset": 167
            }, 
            "text": "Possible involvement of estrogen receptors other than ER\u03b1 on these bisphenol A effects cannot be ruled out."
        }, 
        {
            "frame-id": "sent-PMC3660582-medscan-168", 
            "frame-type": "sentence", 
            "object-type": "frame", 
            "start-pos": {
                "object-type": "absolute-pos", 
                "offset": 168
            }, 
            "text": "However, the dependence of GPR30 on ER\u03b1 expression suggests that GPR30 may not mediate the global transcriptomal changes observed herein."
        }, 
        {
            "frame-id": "sent-PMC3660582-medscan-169", 
            "frame-type": "sentence", 
            "object-type": "frame", 
            "start-pos": {
                "object-type": "absolute-pos", 
                "offset": 169
            }, 
            "text": "On the other hand, ER\u03b1-mediated bisphenol A action may also alter the expression of a few key genes that regulate mammary gland development."
        }, 
        {
            "frame-id": "sent-PMC3660582-medscan-170", 
            "frame-type": "sentence", 
            "object-type": "frame", 
            "start-pos": {
                "object-type": "absolute-pos", 
                "offset": 170
            }, 
            "text": "Our results lend further support to the vulnerability of the fetus to xenoestrogen exposure that results in abnormalities that manifest during adult life , ."
        }, 
        {
            "frame-id": "sent-PMC3660582-medscan-171", 
            "frame-type": "sentence", 
            "object-type": "frame", 
            "start-pos": {
                "object-type": "absolute-pos", 
                "offset": 171
            }, 
            "text": "Ductal outgrowth in mammary glands of CD1 and C57BL/6 mice."
        }, 
        {
            "frame-id": "sent-PMC3660582-medscan-172", 
            "frame-type": "sentence", 
            "object-type": "frame", 
            "start-pos": {
                "object-type": "absolute-pos", 
                "offset": 172
            }, 
            "text": "A comparison of ductal growth in whole mounts of fetal mammary glands of CD1 and C57BL/6 mice at E16 through E19."
        }, 
        {
            "frame-id": "sent-PMC3660582-medscan-173", 
            "frame-type": "sentence", 
            "object-type": "frame", 
            "start-pos": {
                "object-type": "absolute-pos", 
                "offset": 173
            }, 
            "text": "Arrows indicate mammary buds on the skin. *Primary ductal outgrowth observed."
        }, 
        {
            "frame-id": "sent-PMC3660582-medscan-174", 
            "frame-type": "sentence", 
            "object-type": "frame", 
            "start-pos": {
                "object-type": "absolute-pos", 
                "offset": 174
            }, 
            "text": "Scale bar = 400 \u00b5m. (TIF) Click here for additional data file."
        }, 
        {
            "frame-id": "sent-PMC3660582-medscan-175", 
            "frame-type": "sentence", 
            "object-type": "frame", 
            "start-pos": {
                "object-type": "absolute-pos", 
                "offset": 175
            }, 
            "text": "Morphology of the fetal mammary gland at E19."
        }, 
        {
            "frame-id": "sent-PMC3660582-medscan-176", 
            "frame-type": "sentence", 
            "object-type": "frame", 
            "start-pos": {
                "object-type": "absolute-pos", 
                "offset": 176
            }, 
            "text": "Whole mount (A) and stained section (B) of the fourth inguinal mammary gland of a female C57Bl/6 mouse at E19."
        }, 
        {
            "frame-id": "sent-PMC3660582-medscan-177", 
            "frame-type": "sentence", 
            "object-type": "frame", 
            "start-pos": {
                "object-type": "absolute-pos", 
                "offset": 177
            }, 
            "text": "The epithelial ducts and the peri-ductal stroma within 100 \u00b5m of the epithelium, outlined in yellow, were collected separately by laser capture microdissection (LN: lymph node; FP: presumptive fat pad; E: epithelium; Scale bar: 500 \u00b5m). (JPG) Click here for additional data file."
        }, 
        {
            "frame-id": "sent-PMC3660582-medscan-178", 
            "frame-type": "sentence", 
            "object-type": "frame", 
            "start-pos": {
                "object-type": "absolute-pos", 
                "offset": 178
            }, 
            "text": "Expression of ER\u03b1 in the peri-ductal stroma."
        }, 
        {
            "frame-id": "sent-PMC3660582-medscan-179", 
            "frame-type": "sentence", 
            "object-type": "frame", 
            "start-pos": {
                "object-type": "absolute-pos", 
                "offset": 179
            }, 
            "text": "Graph showing the expression of ER\u03b1 (Esr1) in the peri-ductal stroma of ER\u03b1(+/+) and ER\u03b1(-/-) mice. (Arbitrary units: signal intensity observed in the microarray). (TIF) Click here for additional data file."
        }, 
        {
            "frame-id": "sent-PMC3660582-medscan-180", 
            "frame-type": "sentence", 
            "object-type": "frame", 
            "start-pos": {
                "object-type": "absolute-pos", 
                "offset": 180
            }, 
            "text": "Morphometric properties of CD1 and C57BL/6 fetal mammary glands. (DOC) Click here for additional data file."
        }, 
        {
            "frame-id": "sent-PMC3660582-medscan-181", 
            "frame-type": "sentence", 
            "object-type": "frame", 
            "start-pos": {
                "object-type": "absolute-pos", 
                "offset": 181
            }, 
            "text": "Differentially regulated transcripts: Hierarchical Clustering Analysis. (DOC) Click here for additional data file."
        }, 
        {
            "frame-id": "sent-PMC3660582-medscan-182", 
            "frame-type": "sentence", 
            "object-type": "frame", 
            "start-pos": {
                "object-type": "absolute-pos", 
                "offset": 182
            }, 
            "text": "Transcripts regulated by ER\u03b1. (DOC) Click here for additional data file."
        }
    ], 
    "object-meta": {
        "component": "MedScan", 
        "component-type": "machine", 
        "doc-id": "PMC3660582", 
        "object-type": "meta-info", 
        "organization": "CMU"
    }, 
    "object-type": "frame-collection"
}
