{
  "evidence": ["Src induces the formation of functional invadopodia in DLD1 cells by phosphorylating NoxA1 on Tyr110 and Tks4 on Tyr508","To further confirm that Src induces the formation of functional invadopodia in DLD1 cells by phosphorylating NoxA1 on Tyr110 and Tks4 on Tyr508 , we tested the effect of these Tks4 and NoxA1 unphosphorylable mutants on SrcYF induced ECM degradation in DLD1 cells ."],
  "extracted_information": {
    "interaction_type": "adds_modification",
    "negative_information": false,
    "modifications": [
      {
        "modification_type": "phosphorylation",
        "site": 110
      },
      {
        "modification_type": "phosphorylation",
        "site": 508
      }
    ],
    "participant_a": {
      "entity_text": "Src",
      "entity_type": "protein",
      "identifier": "Uniprot:P12931",
      "in_model": true
    },
    "participant_b": {
      "entity_text": "NoxA1",
      "entity_type": "protein",
      "identifier": "Uniprot:Q86UR1",
      "in_model": false
    }
  },
  "fries_provenance": [
    {
      "cmu-sentence-epistemic-status": "hypothesis",
      "cmu-sentence-epistemic-value": 0.3,
      "component": "REACH",
      "frame-file": "PMC2993755.uaz.events",
      "frame-id": "evem-PMC2993755-UAZ-r1-83-1-189",
      "passage-id": "pass-PMC2993755-UAZ-r1-83",
      "passage-number": 83,
      "passage-section-id": "N/A",
      "passage-section-name": "N/A",
      "sentence": "To further confirm that Src induces the formation of functional invadopodia in DLD1 cells by phosphorylating NoxA1 on Tyr110 and Tks4 on Tyr508 , we tested the effect of these Tks4 and NoxA1 unphosphorylable mutants on SrcYF induced ECM degradation in DLD1 cells .",
      "text": "Src induces the formation of functional invadopodia in DLD1 cells by phosphorylating NoxA1 on Tyr110 and Tks4 on Tyr508",
      "uaz-sentence": "To further confirm that Src induces the formation of functional invadopodia in DLD1 cells by phosphorylating NoxA1 on Tyr110 and Tks4 on Tyr508 , we tested the effect of these Tks4 and NoxA1 unphosphorylable mutants on SrcYF induced ECM degradation in DLD1 cells .",
      "uaz-sentence-start": 133
    }
  ],
  "model_relation": "extension",
  "pmc_id": "PMC2993755",
  "reader_type": "machine",
  "reading_complete": "2015-06-15T21:40:08Z",
  "reading_started": "2015-06-15T21:40:03Z",
  "submitter": "FRIES"
}
