{
  "evidence": ["In general , SREBP1c controls the expression of fatty acid biosynthesis genes in various tissues     , whereas the SREBP1a isoform is predominant in cell cultures , activating both cholesterol and fatty acid biosynthesis genes        .","SREBP1c controls the expression of fatty acid biosynthesis genes in various tissues     , whereas the SREBP1a isoform is predominant in cell cultures, activating both cholesterol"],
  "extracted_information": {
    "interaction_type": "increases_activity",
    "negative_information": false,
    "participant_a": {
      "entity_text": "SREBP1c",
      "entity_type": "protein",
      "identifier": "Uniprot:B5MD58",
      "in_model": true
    },
    "participant_b": {
      "entity_text": "cholesterol",
      "entity_type": "chemical",
      "identifier": "CHEBI:16113",
      "in_model": false
    }
  },
  "fries_provenance": [
    {
      "cmu-sentence-epistemic-status": "implication",
      "cmu-sentence-epistemic-value": 0.6,
      "component": "REACH",
      "frame-file": "PMC1635424.uaz.events",
      "frame-id": "evem-PMC1635424-UAZ-r1-17-4-1",
      "passage-id": "pass-PMC1635424-UAZ-r1-17",
      "passage-number": 17,
      "passage-section-id": "N/A",
      "passage-section-name": "N/A",
      "sentence": "In general , SREBP1c controls the expression of fatty acid biosynthesis genes in various tissues     , whereas the SREBP1a isoform is predominant in cell cultures , activating both cholesterol and fatty acid biosynthesis genes        .",
      "text": "SREBP1c controls the expression of fatty acid biosynthesis genes in various tissues     , whereas the SREBP1a isoform is predominant in cell cultures, activating both cholesterol",
      "uaz-sentence": "In general , SREBP1c controls the expression of fatty acid biosynthesis genes in various tissues     , whereas the SREBP1a isoform is predominant in cell cultures , activating both cholesterol and fatty acid biosynthesis genes        .",
      "uaz-sentence-start": 640
    }
  ],
  "model_relation": "extension",
  "pmc_id": "PMC1635424",
  "reader_type": "machine",
  "reading_complete": "2015-06-15T18:55:54Z",
  "reading_started": "2015-06-15T18:55:49Z",
  "submitter": "FRIES"
}
