{
  "evidence": ["Fyn induces Focal adhesion kinase activity by phosphorylating Y397 and Y576 residues in Focal adhesion kinase","Thus, we considered a model in which G\\u03b21 interacts with Fyn, inducing Fyn activation, which in turn up-regulates Focal adhesion kinase activity, subsequently restoring endothelial barrier function."],
  "extracted_information": {
    "interaction_type": "adds_modification",
    "negative_information": false,
    "modifications": [
      {
        "modification_type": "phosphorylation"
      }
    ],
    "participant_a": {
      "entity_text": "Fyn",
      "entity_type": "protein",
      "identifier": "Uniprot:P06241",
      "in_model": true
    },
    "participant_b": {
      "entity_text": "Focal adhesion kinase",
      "entity_type": "protein",
      "identifier": "Uniprot:Q8IYN9",
      "in_model": true
    }
  },
  "fries_provenance": [
    {
      "cmu-sentence-epistemic-status": "implication",
      "cmu-sentence-epistemic-value": 0.6,
      "component": "MedScan",
      "frame-file": "PMC2806626.cmu.medscan",
      "frame-id": "relm-PMC2806626-cmu-medscan-1078",
      "passage-id": "pass-PMC2806626-UAZ-r1-64",
      "passage-number": 64,
      "passage-section-id": "N/A",
      "passage-section-name": "discussion",
      "sentence": "Thus, we considered a model in which G\\u03b21 interacts with Fyn, inducing Fyn activation, which in turn up-regulates Focal adhesion kinase activity, subsequently restoring endothelial barrier function.",
      "text": "Fyn induces Focal adhesion kinase activity by phosphorylating Y397 and Y576 residues in Focal adhesion kinase",
      "uaz-sentence": "Thus , we considered a model in which Gbeta1 interacts with Fyn , inducing Fyn activation , which in turn up-regulates FAK activity , subsequently restoring endothelial barrier function .",
      "uaz-sentence-start": 491
    }
  ],
  "model_relation": "extension",
  "pmc_id": "PMC2806626",
  "reader_type": "machine",
  "reading_complete": "2015-06-15T21:03:56Z",
  "reading_started": "2015-06-15T21:03:51Z",
  "submitter": "FRIES"
}
