{
  "evidence": ["Because Fyn deletion prevented FAK phosphorylation at tyrosine residues 397 and 576           , we generated a phosphorylation mimicking mutant of FAK to test whether restoring FAK phosphorylation in the fyn-/- mouse lung could restore lung vascular permeability responses to PAR1 agonist to the level seen in WT mice .","Fyn deletion prevented FAK phosphorylation at tyrosine residues 397 and 576"],
  "extracted_information": {
    "interaction_type": "inhibits_modification",
    "negative_information": false,
    "modifications": [
      {
        "modification_type": "phosphorylation",
        "site": 397
      },
      {
        "modification_type": "phosphorylation",
        "site": 576
      }
    ],
    "participant_a": {
      "entity_text": "Fyn",
      "entity_type": "protein",
      "identifier": "Uniprot:P06241",
      "in_model": true
    },
    "participant_b": {
      "entity_text": "FAK",
      "entity_type": "protein",
      "identifier": "Uniprot:Q05397",
      "in_model": true
    }
  },
  "fries_provenance": [
    {
      "cmu-sentence-epistemic-status": "implication",
      "cmu-sentence-epistemic-value": 0.6,
      "component": "REACH",
      "frame-file": "PMC2806626.uaz.events",
      "frame-id": "evem-PMC2806626-UAZ-r1-56-0-160",
      "passage-id": "pass-PMC2806626-UAZ-r1-56",
      "passage-number": 56,
      "passage-section-id": "N/A",
      "passage-section-name": "N/A",
      "sentence": "Because Fyn deletion prevented FAK phosphorylation at tyrosine residues 397 and 576           , we generated a phosphorylation mimicking mutant of FAK to test whether restoring FAK phosphorylation in the fyn-/- mouse lung could restore lung vascular permeability responses to PAR1 agonist to the level seen in WT mice .",
      "text": "Fyn deletion prevented FAK phosphorylation at tyrosine residues 397 and 576",
      "uaz-sentence": "Because Fyn deletion prevented FAK phosphorylation at tyrosine residues 397 and 576           , we generated a phosphorylation mimicking mutant of FAK to test whether restoring FAK phosphorylation in the fyn-/- mouse lung could restore lung vascular permeability responses to PAR1 agonist to the level seen in WT mice .",
      "uaz-sentence-start": 0
    }
  ],
  "model_relation": "extension",
  "pmc_id": "PMC2806626",
  "reader_type": "machine",
  "reading_complete": "2015-06-15T21:03:56Z",
  "reading_started": "2015-06-15T21:03:51Z",
  "submitter": "FRIES"
}
