{
    "frames": [
        {
            "frame-id": "smap-PMC2992316-cmu-1", 
            "frame-type": "sentence-map", 
            "list1-meta": {
                "component": "nxml2fries", 
                "object-type": "meta-info", 
                "organization": "UAZ"
            }, 
            "list2-meta": {
                "component": "Nicolas-NXML-Parser", 
                "object-type": "meta-info", 
                "organization": "CMU"
            }, 
            "map": [], 
            "object-meta": {
                "component": "Pradeep-Matcher", 
                "object-type": "meta-info", 
                "organization": "CMU"
            }, 
            "object-type": "frame"
        }, 
        {
            "frame-id": "smap-PMC2992316-cmu-2", 
            "frame-type": "sentence-map", 
            "list1-meta": {
                "component": "MedScan", 
                "object-type": "meta-info", 
                "organization": "CMU"
            }, 
            "list2-meta": {
                "component": "Nicolas-NXML-Parser", 
                "object-type": "meta-info", 
                "organization": "CMU"
            }, 
            "map": [
                {
                    "from": "sent-PMC2992316-medscan-43", 
                    "object-type": "map-range", 
                    "to": "sent-PMC2992316-cmu-75"
                }, 
                {
                    "from": "sent-PMC2992316-medscan-6", 
                    "object-type": "map-range", 
                    "to": "sent-PMC2992316-cmu-13"
                }, 
                {
                    "from": "sent-PMC2992316-medscan-53", 
                    "object-type": "map-range", 
                    "to": "sent-PMC2992316-cmu-91"
                }, 
                {
                    "from": "sent-PMC2992316-medscan-9", 
                    "object-type": "map-range", 
                    "to": "sent-PMC2992316-cmu-19"
                }, 
                {
                    "from": "sent-PMC2992316-medscan-9", 
                    "object-type": "map-range", 
                    "to": "sent-PMC2992316-cmu-19"
                }, 
                {
                    "from": "sent-PMC2992316-medscan-8", 
                    "object-type": "map-range", 
                    "to": "sent-PMC2992316-cmu-18"
                }, 
                {
                    "from": "sent-PMC2992316-medscan-73", 
                    "object-type": "map-range", 
                    "to": "sent-PMC2992316-cmu-125"
                }, 
                {
                    "from": "sent-PMC2992316-medscan-23", 
                    "object-type": "map-range", 
                    "to": "sent-PMC2992316-cmu-42"
                }, 
                {
                    "from": "sent-PMC2992316-medscan-63", 
                    "object-type": "map-range", 
                    "to": "sent-PMC2992316-cmu-105"
                }, 
                {
                    "from": "sent-PMC2992316-medscan-92", 
                    "object-type": "map-range", 
                    "to": "sent-PMC2992316-cmu-171"
                }, 
                {
                    "from": "sent-PMC2992316-medscan-24", 
                    "object-type": "map-range", 
                    "to": "sent-PMC2992316-cmu-44"
                }, 
                {
                    "from": "sent-PMC2992316-medscan-10", 
                    "object-type": "map-range", 
                    "to": "sent-PMC2992316-cmu-21"
                }, 
                {
                    "from": "sent-PMC2992316-medscan-28", 
                    "object-type": "map-range", 
                    "to": "sent-PMC2992316-cmu-49"
                }, 
                {
                    "from": "sent-PMC2992316-medscan-54", 
                    "object-type": "map-range", 
                    "to": "sent-PMC2992316-cmu-92"
                }, 
                {
                    "from": "sent-PMC2992316-medscan-14", 
                    "object-type": "map-range", 
                    "to": "sent-PMC2992316-cmu-27"
                }, 
                {
                    "from": "sent-PMC2992316-medscan-56", 
                    "object-type": "map-range", 
                    "to": "sent-PMC2992316-cmu-94"
                }, 
                {
                    "from": "sent-PMC2992316-medscan-70", 
                    "object-type": "map-range", 
                    "to": "sent-PMC2992316-cmu-121"
                }, 
                {
                    "from": "sent-PMC2992316-medscan-37", 
                    "object-type": "map-range", 
                    "to": "sent-PMC2992316-cmu-66"
                }, 
                {
                    "from": "sent-PMC2992316-medscan-18", 
                    "object-type": "map-range", 
                    "to": "sent-PMC2992316-cmu-34"
                }, 
                {
                    "from": "sent-PMC2992316-medscan-50", 
                    "object-type": "map-range", 
                    "to": "sent-PMC2992316-cmu-86"
                }, 
                {
                    "from": "sent-PMC2992316-medscan-71", 
                    "object-type": "map-range", 
                    "to": "sent-PMC2992316-cmu-123"
                }, 
                {
                    "from": "sent-PMC2992316-medscan-0", 
                    "object-type": "map-range", 
                    "to": "sent-PMC2992316-cmu-1"
                }, 
                {
                    "from": "sent-PMC2992316-medscan-93", 
                    "object-type": "map-range", 
                    "to": "sent-PMC2992316-cmu-172"
                }, 
                {
                    "from": "sent-PMC2992316-medscan-52", 
                    "object-type": "map-range", 
                    "to": "sent-PMC2992316-cmu-90"
                }, 
                {
                    "from": "sent-PMC2992316-medscan-48", 
                    "object-type": "map-range", 
                    "to": "sent-PMC2992316-cmu-84"
                }, 
                {
                    "from": "sent-PMC2992316-medscan-30", 
                    "object-type": "map-range", 
                    "to": "sent-PMC2992316-cmu-52"
                }, 
                {
                    "from": "sent-PMC2992316-medscan-74", 
                    "object-type": "map-range", 
                    "to": "sent-PMC2992316-cmu-127"
                }, 
                {
                    "from": "sent-PMC2992316-medscan-21", 
                    "object-type": "map-range", 
                    "to": "sent-PMC2992316-cmu-37"
                }, 
                {
                    "from": "sent-PMC2992316-medscan-60", 
                    "object-type": "map-range", 
                    "to": "sent-PMC2992316-cmu-102"
                }, 
                {
                    "from": "sent-PMC2992316-medscan-47", 
                    "object-type": "map-range", 
                    "to": "sent-PMC2992316-cmu-81"
                }, 
                {
                    "from": "sent-PMC2992316-medscan-31", 
                    "object-type": "map-range", 
                    "to": "sent-PMC2992316-cmu-54"
                }, 
                {
                    "from": "sent-PMC2992316-medscan-22", 
                    "object-type": "map-range", 
                    "to": "sent-PMC2992316-cmu-39"
                }, 
                {
                    "from": "sent-PMC2992316-medscan-64", 
                    "object-type": "map-range", 
                    "to": "sent-PMC2992316-cmu-107"
                }, 
                {
                    "from": "sent-PMC2992316-medscan-83", 
                    "object-type": "map-range", 
                    "to": "sent-PMC2992316-cmu-149"
                }, 
                {
                    "from": "sent-PMC2992316-medscan-36", 
                    "object-type": "map-range", 
                    "to": "sent-PMC2992316-cmu-65"
                }, 
                {
                    "from": "sent-PMC2992316-medscan-51", 
                    "object-type": "map-range", 
                    "to": "sent-PMC2992316-cmu-88"
                }, 
                {
                    "from": "sent-PMC2992316-medscan-46", 
                    "object-type": "map-range", 
                    "to": "sent-PMC2992316-cmu-80"
                }, 
                {
                    "from": "sent-PMC2992316-medscan-84", 
                    "object-type": "map-range", 
                    "to": "sent-PMC2992316-cmu-150"
                }, 
                {
                    "from": "sent-PMC2992316-medscan-17", 
                    "object-type": "map-range", 
                    "to": "sent-PMC2992316-cmu-32"
                }, 
                {
                    "from": "sent-PMC2992316-medscan-11", 
                    "object-type": "map-range", 
                    "to": "sent-PMC2992316-cmu-23"
                }, 
                {
                    "from": "sent-PMC2992316-medscan-29", 
                    "object-type": "map-range", 
                    "to": "sent-PMC2992316-cmu-51"
                }, 
                {
                    "from": "sent-PMC2992316-medscan-82", 
                    "object-type": "map-range", 
                    "to": "sent-PMC2992316-cmu-148"
                }, 
                {
                    "from": "sent-PMC2992316-medscan-19", 
                    "object-type": "map-range", 
                    "to": "sent-PMC2992316-cmu-35"
                }, 
                {
                    "from": "sent-PMC2992316-medscan-79", 
                    "object-type": "map-range", 
                    "to": "sent-PMC2992316-cmu-141"
                }, 
                {
                    "from": "sent-PMC2992316-medscan-80", 
                    "object-type": "map-range", 
                    "to": "sent-PMC2992316-cmu-143"
                }, 
                {
                    "from": "sent-PMC2992316-medscan-76", 
                    "object-type": "map-range", 
                    "to": "sent-PMC2992316-cmu-132"
                }, 
                {
                    "from": "sent-PMC2992316-medscan-34", 
                    "object-type": "map-range", 
                    "to": "sent-PMC2992316-cmu-60"
                }, 
                {
                    "from": "sent-PMC2992316-medscan-90", 
                    "object-type": "map-range", 
                    "to": "sent-PMC2992316-cmu-166"
                }, 
                {
                    "from": "sent-PMC2992316-medscan-15", 
                    "object-type": "map-range", 
                    "to": "sent-PMC2992316-cmu-29"
                }, 
                {
                    "from": "sent-PMC2992316-medscan-39", 
                    "object-type": "map-range", 
                    "to": "sent-PMC2992316-cmu-69"
                }, 
                {
                    "from": "sent-PMC2992316-medscan-69", 
                    "object-type": "map-range", 
                    "to": "sent-PMC2992316-cmu-118"
                }, 
                {
                    "from": "sent-PMC2992316-medscan-66", 
                    "object-type": "map-range", 
                    "to": "sent-PMC2992316-cmu-112"
                }, 
                {
                    "from": "sent-PMC2992316-medscan-57", 
                    "object-type": "map-range", 
                    "to": "sent-PMC2992316-cmu-97"
                }, 
                {
                    "from": "sent-PMC2992316-medscan-89", 
                    "object-type": "map-range", 
                    "to": "sent-PMC2992316-cmu-164"
                }, 
                {
                    "from": "sent-PMC2992316-medscan-87", 
                    "object-type": "map-range", 
                    "to": "sent-PMC2992316-cmu-158"
                }, 
                {
                    "from": "sent-PMC2992316-medscan-2", 
                    "object-type": "map-range", 
                    "to": "sent-PMC2992316-cmu-5"
                }, 
                {
                    "from": "sent-PMC2992316-medscan-45", 
                    "object-type": "map-range", 
                    "to": "sent-PMC2992316-cmu-78"
                }, 
                {
                    "from": "sent-PMC2992316-medscan-25", 
                    "object-type": "map-range", 
                    "to": "sent-PMC2992316-cmu-45"
                }, 
                {
                    "from": "sent-PMC2992316-medscan-26", 
                    "object-type": "map-range", 
                    "to": "sent-PMC2992316-cmu-46"
                }, 
                {
                    "from": "sent-PMC2992316-medscan-68", 
                    "object-type": "map-range", 
                    "to": "sent-PMC2992316-cmu-116"
                }, 
                {
                    "from": "sent-PMC2992316-medscan-61", 
                    "object-type": "map-range", 
                    "to": "sent-PMC2992316-cmu-103"
                }, 
                {
                    "from": "sent-PMC2992316-medscan-12", 
                    "object-type": "map-range", 
                    "to": "sent-PMC2992316-cmu-24"
                }, 
                {
                    "from": "sent-PMC2992316-medscan-42", 
                    "object-type": "map-range", 
                    "to": "sent-PMC2992316-cmu-74"
                }, 
                {
                    "from": "sent-PMC2992316-medscan-35", 
                    "object-type": "map-range", 
                    "to": "sent-PMC2992316-cmu-61"
                }, 
                {
                    "from": "sent-PMC2992316-medscan-13", 
                    "object-type": "map-range", 
                    "to": "sent-PMC2992316-cmu-26"
                }, 
                {
                    "from": "sent-PMC2992316-medscan-86", 
                    "object-type": "map-range", 
                    "to": "sent-PMC2992316-cmu-153"
                }, 
                {
                    "from": "sent-PMC2992316-medscan-32", 
                    "object-type": "map-range", 
                    "to": "sent-PMC2992316-cmu-56"
                }, 
                {
                    "from": "sent-PMC2992316-medscan-5", 
                    "object-type": "map-range", 
                    "to": "sent-PMC2992316-cmu-12"
                }, 
                {
                    "from": "sent-PMC2992316-medscan-7", 
                    "object-type": "map-range", 
                    "to": "sent-PMC2992316-cmu-15"
                }, 
                {
                    "from": "sent-PMC2992316-medscan-72", 
                    "object-type": "map-range", 
                    "to": "sent-PMC2992316-cmu-124"
                }, 
                {
                    "from": "sent-PMC2992316-medscan-88", 
                    "object-type": "map-range", 
                    "to": "sent-PMC2992316-cmu-162"
                }, 
                {
                    "from": "sent-PMC2992316-medscan-9", 
                    "object-type": "map-range", 
                    "to": "sent-PMC2992316-cmu-145"
                }, 
                {
                    "from": "sent-PMC2992316-medscan-9", 
                    "object-type": "map-range", 
                    "to": "sent-PMC2992316-cmu-145"
                }, 
                {
                    "from": "sent-PMC2992316-medscan-67", 
                    "object-type": "map-range", 
                    "to": "sent-PMC2992316-cmu-115"
                }, 
                {
                    "from": "sent-PMC2992316-medscan-59", 
                    "object-type": "map-range", 
                    "to": "sent-PMC2992316-cmu-101"
                }, 
                {
                    "from": "sent-PMC2992316-medscan-78", 
                    "object-type": "map-range", 
                    "to": "sent-PMC2992316-cmu-139"
                }, 
                {
                    "from": "sent-PMC2992316-medscan-38", 
                    "object-type": "map-range", 
                    "to": "sent-PMC2992316-cmu-67"
                }, 
                {
                    "from": "sent-PMC2992316-medscan-27", 
                    "object-type": "map-range", 
                    "to": "sent-PMC2992316-cmu-47"
                }, 
                {
                    "from": "sent-PMC2992316-medscan-16", 
                    "object-type": "map-range", 
                    "to": "sent-PMC2992316-cmu-31"
                }, 
                {
                    "from": "sent-PMC2992316-medscan-77", 
                    "object-type": "map-range", 
                    "to": "sent-PMC2992316-cmu-134"
                }, 
                {
                    "from": "sent-PMC2992316-medscan-3", 
                    "object-type": "map-range", 
                    "to": "sent-PMC2992316-cmu-6"
                }, 
                {
                    "from": "sent-PMC2992316-medscan-91", 
                    "object-type": "map-range", 
                    "to": "sent-PMC2992316-cmu-169"
                }, 
                {
                    "from": "sent-PMC2992316-medscan-33", 
                    "object-type": "map-range", 
                    "to": "sent-PMC2992316-cmu-58"
                }, 
                {
                    "from": "sent-PMC2992316-medscan-40", 
                    "object-type": "map-range", 
                    "to": "sent-PMC2992316-cmu-70"
                }, 
                {
                    "from": "sent-PMC2992316-medscan-85", 
                    "object-type": "map-range", 
                    "to": "sent-PMC2992316-cmu-151"
                }, 
                {
                    "from": "sent-PMC2992316-medscan-41", 
                    "object-type": "map-range", 
                    "to": "sent-PMC2992316-cmu-72"
                }, 
                {
                    "from": "sent-PMC2992316-medscan-49", 
                    "object-type": "map-range", 
                    "to": "sent-PMC2992316-cmu-85"
                }, 
                {
                    "from": "sent-PMC2992316-medscan-4", 
                    "object-type": "map-range", 
                    "to": "sent-PMC2992316-cmu-10"
                }, 
                {
                    "from": "sent-PMC2992316-medscan-20", 
                    "object-type": "map-range", 
                    "to": "sent-PMC2992316-cmu-36"
                }
            ], 
            "object-meta": {
                "component": "Pradeep-Matcher", 
                "object-type": "meta-info", 
                "organization": "CMU"
            }, 
            "object-type": "frame"
        }
    ], 
    "object-meta": {
        "component": "Pradeep-Matcher", 
        "component-type": "machine", 
        "doc-id": "PMC2992316", 
        "object-type": "meta-info", 
        "organization": "CMU"
    }, 
    "object-type": "frame-collection"
}
