{
    "frames": [], 
    "object-meta": {
        "component": "MedScan", 
        "component-type": "machine", 
        "doc-id": "PMC2192711", 
        "object-type": "meta-info", 
        "organization": "CMU"
    }, 
    "object-type": "frame-collection"
}
