{
    "frames": [
        {
            "binds-constituent1": [
                "Ber"
            ], 
            "frame-id": "imp-PMC4002724-cmu-pradsys-457", 
            "frame-type": "implication", 
            "implication-type": "binds", 
            "object-meta": {
                "object-type": "meta-info", 
                "organization": "CMU"
            }, 
            "object-type": "frame", 
            "sentence": "sent-PMC4002724-cmu-98"
        }, 
        {
            "cell-type": [
                "inflammatory cells"
            ], 
            "frame-id": "imp-PMC4002724-cmu-pradsys-458", 
            "frame-type": "implication", 
            "implication-type": "binds", 
            "object-meta": {
                "object-type": "meta-info", 
                "organization": "CMU"
            }, 
            "object-type": "frame", 
            "sentence": "sent-PMC4002724-cmu-100"
        }, 
        {
            "binds-constituent1": [
                "Ber"
            ], 
            "binds-constituent2": [
                "Ber"
            ], 
            "frame-id": "imp-PMC4002724-cmu-pradsys-459", 
            "frame-type": "implication", 
            "implication-type": "binds", 
            "object-meta": {
                "object-type": "meta-info", 
                "organization": "CMU"
            }, 
            "object-type": "frame", 
            "sentence": "sent-PMC4002724-cmu-102"
        }, 
        {
            "assay-molecule": [
                "LPS"
            ], 
            "frame-id": "imp-PMC4002724-cmu-pradsys-460", 
            "frame-type": "implication", 
            "implication-type": "binds", 
            "object-meta": {
                "object-type": "meta-info", 
                "organization": "CMU"
            }, 
            "object-type": "frame", 
            "sentence": "sent-PMC4002724-cmu-103"
        }, 
        {
            "binds-constituent1": [
                "LPS"
            ], 
            "frame-id": "imp-PMC4002724-cmu-pradsys-461", 
            "frame-type": "implication", 
            "implication-type": "binds", 
            "object-meta": {
                "object-type": "meta-info", 
                "organization": "CMU"
            }, 
            "object-type": "frame", 
            "sentence": "sent-PMC4002724-cmu-104"
        }, 
        {
            "binds-constituent1": [
                "Ber"
            ], 
            "binds-constituent2": [
                "Ber"
            ], 
            "frame-id": "imp-PMC4002724-cmu-pradsys-462", 
            "frame-type": "implication", 
            "implication-type": "binds", 
            "object-meta": {
                "object-type": "meta-info", 
                "organization": "CMU"
            }, 
            "object-type": "frame", 
            "sentence": "sent-PMC4002724-cmu-106"
        }, 
        {
            "binds-constituent1": [
                "FITC-dextran"
            ], 
            "frame-id": "imp-PMC4002724-cmu-pradsys-463", 
            "frame-type": "implication", 
            "implication-type": "binds", 
            "object-meta": {
                "object-type": "meta-info", 
                "organization": "CMU"
            }, 
            "object-type": "frame", 
            "sentence": "sent-PMC4002724-cmu-108"
        }, 
        {
            "binds-catalysis": [
                "Pretreatment with Ber or Ber in combination with Y significantly inhibited the LPS-induced increase"
            ], 
            "frame-id": "imp-PMC4002724-cmu-pradsys-464", 
            "frame-type": "implication", 
            "implication-type": "binds", 
            "object-meta": {
                "object-type": "meta-info", 
                "organization": "CMU"
            }, 
            "object-type": "frame", 
            "sentence": "sent-PMC4002724-cmu-110"
        }, 
        {
            "frame-id": "imp-PMC4002724-cmu-pradsys-465", 
            "frame-type": "implication", 
            "implication-type": "binds", 
            "m-val": [
                "did not significantly decrease the ileal mucosal permeability"
            ], 
            "object-meta": {
                "object-type": "meta-info", 
                "organization": "CMU"
            }, 
            "object-type": "frame", 
            "sentence": "sent-PMC4002724-cmu-111"
        }, 
        {
            "binds-catalysis": [
                "no significant effect"
            ], 
            "binds-constituent1": [
                "Ber"
            ], 
            "frame-id": "imp-PMC4002724-cmu-pradsys-466", 
            "frame-type": "implication", 
            "implication-type": "binds", 
            "object-meta": {
                "object-type": "meta-info", 
                "organization": "CMU"
            }, 
            "object-type": "frame", 
            "sentence": "sent-PMC4002724-cmu-112"
        }, 
        {
            "binds-constituent1": [
                "Ber", 
                "Y"
            ], 
            "frame-id": "imp-PMC4002724-cmu-pradsys-467", 
            "frame-type": "implication", 
            "implication-type": "binds", 
            "object-meta": {
                "object-type": "meta-info", 
                "organization": "CMU"
            }, 
            "object-type": "frame", 
            "sentence": "sent-PMC4002724-cmu-113"
        }, 
        {
            "assay-molecule": [
                "LPS"
            ], 
            "frame-id": "imp-PMC4002724-cmu-pradsys-468", 
            "frame-type": "implication", 
            "implication-type": "binds", 
            "object-meta": {
                "object-type": "meta-info", 
                "organization": "CMU"
            }, 
            "object-type": "frame", 
            "sentence": "sent-PMC4002724-cmu-114"
        }, 
        {
            "binds-constituent1": [
                "Ber"
            ], 
            "frame-id": "imp-PMC4002724-cmu-pradsys-469", 
            "frame-type": "implication", 
            "implication-type": "binds", 
            "object-meta": {
                "object-type": "meta-info", 
                "organization": "CMU"
            }, 
            "object-type": "frame", 
            "sentence": "sent-PMC4002724-cmu-116"
        }, 
        {
            "binds-constituent1": [
                "Ber"
            ], 
            "frame-id": "imp-PMC4002724-cmu-pradsys-470", 
            "frame-type": "implication", 
            "implication-type": "binds", 
            "object-meta": {
                "object-type": "meta-info", 
                "organization": "CMU"
            }, 
            "object-type": "frame", 
            "sentence": "sent-PMC4002724-cmu-117"
        }, 
        {
            "frame-id": "imp-PMC4002724-cmu-pradsys-471", 
            "frame-type": "implication", 
            "implication-type": "binds", 
            "object-meta": {
                "object-type": "meta-info", 
                "organization": "CMU"
            }, 
            "object-type": "frame", 
            "process": [
                "Western blot analysis"
            ], 
            "sentence": "sent-PMC4002724-cmu-119"
        }, 
        {
            "binds-constituent1": [
                "Ber"
            ], 
            "binds-constituent2": [
                "Ber", 
                "Y"
            ], 
            "frame-id": "imp-PMC4002724-cmu-pradsys-472", 
            "frame-type": "implication", 
            "implication-type": "binds", 
            "object-meta": {
                "object-type": "meta-info", 
                "organization": "CMU"
            }, 
            "object-type": "frame", 
            "sentence": "sent-PMC4002724-cmu-120"
        }, 
        {
            "frame-id": "imp-PMC4002724-cmu-pradsys-473", 
            "frame-type": "implication", 
            "implication-type": "binds", 
            "m-val": [
                "did not inhibit the LPS-induced caspase-3 activation"
            ], 
            "object-meta": {
                "object-type": "meta-info", 
                "organization": "CMU"
            }, 
            "object-type": "frame", 
            "sentence": "sent-PMC4002724-cmu-121"
        }, 
        {
            "binds-constituent1": [
                "Y", 
                "Ber"
            ], 
            "binds-site": [
                "the inhibitory effect of"
            ], 
            "frame-id": "imp-PMC4002724-cmu-pradsys-474", 
            "frame-type": "implication", 
            "implication-type": "binds", 
            "object-meta": {
                "object-type": "meta-info", 
                "organization": "CMU"
            }, 
            "object-type": "frame", 
            "sentence": "sent-PMC4002724-cmu-122"
        }, 
        {
            "binds-constituent1": [
                "Ber"
            ], 
            "frame-id": "imp-PMC4002724-cmu-pradsys-475", 
            "frame-type": "implication", 
            "implication-type": "binds", 
            "object-meta": {
                "object-type": "meta-info", 
                "organization": "CMU"
            }, 
            "object-type": "frame", 
            "sentence": "sent-PMC4002724-cmu-123"
        }, 
        {
            "binds-constituent1": [
                "Ber"
            ], 
            "binds-constituent2": [
                "Ber"
            ], 
            "frame-id": "imp-PMC4002724-cmu-pradsys-476", 
            "frame-type": "implication", 
            "implication-type": "binds", 
            "object-meta": {
                "object-type": "meta-info", 
                "organization": "CMU"
            }, 
            "object-type": "frame", 
            "sentence": "sent-PMC4002724-cmu-125"
        }, 
        {
            "frame-id": "imp-PMC4002724-cmu-pradsys-477", 
            "frame-type": "implication", 
            "implication-type": "binds", 
            "object-meta": {
                "object-type": "meta-info", 
                "organization": "CMU"
            }, 
            "object-type": "frame", 
            "sentence": "sent-PMC4002724-cmu-126", 
            "transfection-molecule": [
                "Ber control group was lower than that in the normal control ( P"
            ]
        }, 
        {
            "binds-site": [
                "the Ber control group and the normal control group ("
            ], 
            "frame-id": "imp-PMC4002724-cmu-pradsys-478", 
            "frame-type": "implication", 
            "implication-type": "binds", 
            "object-meta": {
                "object-type": "meta-info", 
                "organization": "CMU"
            }, 
            "object-type": "frame", 
            "sentence": "sent-PMC4002724-cmu-128"
        }, 
        {
            "binds-constituent1": [
                "Ber"
            ], 
            "binds-constituent2": [
                "Ber"
            ], 
            "frame-id": "imp-PMC4002724-cmu-pradsys-479", 
            "frame-type": "implication", 
            "implication-type": "binds", 
            "object-meta": {
                "object-type": "meta-info", 
                "organization": "CMU"
            }, 
            "object-type": "frame", 
            "sentence": "sent-PMC4002724-cmu-130"
        }, 
        {
            "binds-constituent1": [
                "Ber"
            ], 
            "binds-constituent2": [
                "TLR4"
            ], 
            "frame-id": "imp-PMC4002724-cmu-pradsys-480", 
            "frame-type": "implication", 
            "implication-type": "binds", 
            "object-meta": {
                "object-type": "meta-info", 
                "organization": "CMU"
            }, 
            "object-type": "frame", 
            "sentence": "sent-PMC4002724-cmu-131"
        }, 
        {
            "binds-constituent1": [
                "Ber"
            ], 
            "binds-constituent2": [
                "Ber"
            ], 
            "frame-id": "imp-PMC4002724-cmu-pradsys-481", 
            "frame-type": "implication", 
            "implication-type": "binds", 
            "object-meta": {
                "object-type": "meta-info", 
                "organization": "CMU"
            }, 
            "object-type": "frame", 
            "sentence": "sent-PMC4002724-cmu-133"
        }, 
        {
            "frame-id": "imp-PMC4002724-cmu-pradsys-482", 
            "frame-type": "implication", 
            "implication-type": "binds", 
            "object-meta": {
                "object-type": "meta-info", 
                "organization": "CMU"
            }, 
            "object-type": "frame", 
            "sentence": "sent-PMC4002724-cmu-134", 
            "transfection-molecule": [
                "TLR-4 mRNA expression", 
                "Y control groups ( P"
            ]
        }
    ], 
    "object-meta": {
        "component": "Pradeep-System", 
        "component-type": "machine", 
        "doc-id": "PMC4002724", 
        "object-type": "meta-info", 
        "organization": "CMU"
    }, 
    "object-type": "frame-collection"
}
