{
  "evidence": ["Bioinformatic analysis and experiment assays indicate that peroxisome proliferator activated receptor alpha ( PPARA ) was the target of hsa-miR-141 during this process .","peroxisome proliferator-activated receptor alpha (PPARA) was the target of hsa-miR-141","PPARA is a target of miR-141","PPARA is a target of miR-141 in HBV replication repression","PPARA is the target of miR-141","PPARA is the target of miR-141 ."],
  "extracted_information": {
    "interaction_type": "binds",
    "negative_information": false,
    "participant_a": {
      "entity_text": "peroxisome proliferator-activated receptor alpha",
      "entity_type": "protein",
      "identifier": "Uniprot:Q07869",
      "in_model": true
    },
    "participant_b": {
      "entity_text": "hsa-miR-141",
      "entity_type": "protein",
      "identifier": "NCBI:406933",
      "in_model": false
    }
  },
  "fries_provenance": [
    {
      "component": "REACH",
      "frame-file": "PMC3316618.uaz.events",
      "frame-id": "evem-PMC3316618-UAZ-r1-2-2-2",
      "passage-id": "pass-PMC3316618-UAZ-r1-2",
      "passage-number": 2,
      "passage-section-id": "N/A",
      "passage-section-name": "abstract",
      "sentence": "Bioinformatic analysis and experiment assays indicate that peroxisome proliferator activated receptor alpha ( PPARA ) was the target of hsa-miR-141 during this process .",
      "text": "peroxisome proliferator-activated receptor alpha (PPARA) was the target of hsa-miR-141",
      "uaz-event-epistemic-status": "hypothesis",
      "uaz-sentence": "Bioinformatic analysis and experiment assays indicate that peroxisome proliferator activated receptor alpha ( PPARA ) was the target of hsa-miR-141 during this process .",
      "uaz-sentence-start": 422
    },
    {
      "cmu-sentence-epistemic-status": "implication",
      "cmu-sentence-epistemic-value": 0.6,
      "component": "REACH",
      "frame-file": "PMC3316618.uaz.events",
      "frame-id": "evem-PMC3316618-UAZ-r1-28-0-7",
      "passage-id": "pass-PMC3316618-UAZ-r1-28",
      "passage-number": 28,
      "passage-section-id": "s2c",
      "passage-section-name": "N/A",
      "sentence": "PPARA is a target of miR-141 in HBV replication repression",
      "text": "PPARA is a target of miR-141",
      "uaz-sentence": "PPARA is a target of miR-141 in HBV replication repression",
      "uaz-sentence-start": 0
    },
    {
      "component": "REACH",
      "frame-file": "PMC3316618.uaz.events",
      "frame-id": "evem-PMC3316618-UAZ-r1-31-0-8",
      "passage-id": "pass-PMC3316618-UAZ-r1-31",
      "passage-number": 31,
      "passage-section-id": "fig-4",
      "passage-section-name": "fig-4",
      "sentence": "PPARA is the target of miR-141 .",
      "text": "PPARA is the target of miR-141",
      "uaz-sentence": "PPARA is the target of miR-141 .",
      "uaz-sentence-start": 0
    }
  ],
  "model_relation": "extension",
  "pmc_id": "PMC3316618",
  "reader_type": "machine",
  "reading_complete": "2015-06-15T22:43:22Z",
  "reading_started": "2015-06-15T22:43:17Z",
  "submitter": "FRIES"
}
