{
  "evidence": ["insulin dose-related increases in the phosphorylation of PKB and p70S6k","Specifically , the insulin dose related increases in the phosphorylation of PKB and p70S6k and dose dependent decreases in the phosphorylation of eEF2 are not reflected in any way by dose related changes in MPS or leg turnover ."],
  "extracted_information": {
    "interaction_type": "adds_modification",
    "negative_information": false,
    "modifications": [
      {
        "modification_type": "phosphorylation"
      }
    ],
    "participant_a": {
      "entity_text": "insulin",
      "entity_type": "protein",
      "identifier": "Uniprot:P01308",
      "in_model": true
    },
    "participant_b": {
      "entity_text": "p70S6k",
      "entity_type": "protein",
      "identifier": "Uniprot:B4DLT4",
      "in_model": true
    }
  },
  "fries_provenance": [
    {
      "cmu-sentence-epistemic-status": "hypothesis",
      "cmu-sentence-epistemic-value": 0.3,
      "component": "REACH",
      "frame-file": "PMC2536736.uaz.events",
      "frame-id": "evem-PMC2536736-UAZ-r1-85-1-32",
      "passage-id": "pass-PMC2536736-UAZ-r1-85",
      "passage-number": 85,
      "passage-section-id": "N/A",
      "passage-section-name": "N/A",
      "sentence": "Specifically , the insulin dose related increases in the phosphorylation of PKB and p70S6k and dose dependent decreases in the phosphorylation of eEF2 are not reflected in any way by dose related changes in MPS or leg turnover .",
      "text": "insulin dose-related increases in the phosphorylation of PKB and p70S6k",
      "uaz-sentence": "Specifically , the insulin dose related increases in the phosphorylation of PKB and p70S6k and dose dependent decreases in the phosphorylation of eEF2 are not reflected in any way by dose related changes in MPS or leg turnover .",
      "uaz-sentence-start": 398
    }
  ],
  "model_relation": "extension",
  "pmc_id": "PMC2536736",
  "reader_type": "machine",
  "reading_complete": "2015-06-15T20:31:15Z",
  "reading_started": "2015-06-15T20:31:09Z",
  "submitter": "FRIES"
}
