{
    "frames": [
        {
            "binds-constituent1": [
                "Hsp27"
            ], 
            "frame-id": "imp-PMC3251601-cmu-pradsys-596", 
            "frame-type": "implication", 
            "implication-type": "binds", 
            "object-meta": {
                "object-type": "meta-info", 
                "organization": "CMU"
            }, 
            "object-type": "frame", 
            "sentence": "sent-PMC3251601-cmu-97"
        }, 
        {
            "assay-molecule": [
                "pSuper-ShRNA27"
            ], 
            "cell-type": [
                "HeLa cells"
            ], 
            "frame-id": "imp-PMC3251601-cmu-pradsys-597", 
            "frame-type": "implication", 
            "implication-type": "binds", 
            "object-meta": {
                "object-type": "meta-info", 
                "organization": "CMU"
            }, 
            "object-type": "frame", 
            "process": [
                "transfected"
            ], 
            "sentence": "sent-PMC3251601-cmu-98"
        }, 
        {
            "binds-constituent2": [
                "Hsp27"
            ], 
            "frame-id": "imp-PMC3251601-cmu-pradsys-598", 
            "frame-type": "implication", 
            "implication-type": "binds", 
            "object-meta": {
                "object-type": "meta-info", 
                "organization": "CMU"
            }, 
            "object-type": "frame", 
            "sentence": "sent-PMC3251601-cmu-99"
        }, 
        {
            "frame-id": "imp-PMC3251601-cmu-pradsys-599", 
            "frame-type": "implication", 
            "implication-type": "binds", 
            "object-meta": {
                "object-type": "meta-info", 
                "organization": "CMU"
            }, 
            "object-type": "frame", 
            "sentence": "sent-PMC3251601-cmu-100", 
            "transfection-molecule": [
                "Hsp27 expression whereas the control RNAs did not"
            ]
        }, 
        {
            "assay-molecule": [
                "Hsp27"
            ], 
            "frame-id": "imp-PMC3251601-cmu-pradsys-600", 
            "frame-type": "implication", 
            "implication-type": "binds", 
            "object-meta": {
                "object-type": "meta-info", 
                "organization": "CMU"
            }, 
            "object-type": "frame", 
            "sentence": "sent-PMC3251601-cmu-101"
        }, 
        {
            "cell-type": [
                "MCF-7 cells"
            ], 
            "frame-id": "imp-PMC3251601-cmu-pradsys-601", 
            "frame-type": "implication", 
            "implication-type": "binds", 
            "object-meta": {
                "object-type": "meta-info", 
                "organization": "CMU"
            }, 
            "object-type": "frame", 
            "sentence": "sent-PMC3251601-cmu-105"
        }, 
        {
            "cell-type": [
                "Sh27 cells", 
                "Ms27 cells"
            ], 
            "frame-id": "imp-PMC3251601-cmu-pradsys-602", 
            "frame-type": "implication", 
            "implication-type": "binds", 
            "object-meta": {
                "object-type": "meta-info", 
                "organization": "CMU"
            }, 
            "object-type": "frame", 
            "sentence": "sent-PMC3251601-cmu-108"
        }, 
        {
            "binds-constituent1": [
                "Hsp27"
            ], 
            "cell-type": [
                "HeLa cells"
            ], 
            "frame-id": "imp-PMC3251601-cmu-pradsys-603", 
            "frame-type": "implication", 
            "implication-type": "binds", 
            "object-meta": {
                "object-type": "meta-info", 
                "organization": "CMU"
            }, 
            "object-type": "frame", 
            "sentence": "sent-PMC3251601-cmu-109"
        }, 
        {
            "binds-constituent1": [
                "G2M"
            ], 
            "frame-id": "imp-PMC3251601-cmu-pradsys-604", 
            "frame-type": "implication", 
            "implication-type": "binds", 
            "object-meta": {
                "object-type": "meta-info", 
                "organization": "CMU"
            }, 
            "object-type": "frame", 
            "sentence": "sent-PMC3251601-cmu-110"
        }, 
        {
            "frame-id": "imp-PMC3251601-cmu-pradsys-605", 
            "frame-type": "implication", 
            "implication-type": "binds", 
            "object-meta": {
                "object-type": "meta-info", 
                "organization": "CMU"
            }, 
            "object-type": "frame", 
            "process": [
                "transfected"
            ], 
            "sentence": "sent-PMC3251601-cmu-111"
        }, 
        {
            "binds-constituent2": [
                "Hsp27"
            ], 
            "frame-id": "imp-PMC3251601-cmu-pradsys-606", 
            "frame-type": "implication", 
            "implication-type": "binds", 
            "object-meta": {
                "object-type": "meta-info", 
                "organization": "CMU"
            }, 
            "object-type": "frame", 
            "sentence": "sent-PMC3251601-cmu-112"
        }, 
        {
            "binds-constituent1": [
                "HeLa", 
                "HSh27-1.10", 
                "MSh27-1.3"
            ], 
            "frame-id": "imp-PMC3251601-cmu-pradsys-607", 
            "frame-type": "implication", 
            "implication-type": "binds", 
            "object-meta": {
                "object-type": "meta-info", 
                "organization": "CMU"
            }, 
            "object-type": "frame", 
            "sentence": "sent-PMC3251601-cmu-113"
        }, 
        {
            "binds-constituent2": [
                "Hsp27"
            ], 
            "binds-site": [
                "the ten fold higher level of"
            ], 
            "cell-type": [
                "HeLa cells"
            ], 
            "frame-id": "imp-PMC3251601-cmu-pradsys-608", 
            "frame-type": "implication", 
            "implication-type": "binds", 
            "object-meta": {
                "object-type": "meta-info", 
                "organization": "CMU"
            }, 
            "object-type": "frame", 
            "sentence": "sent-PMC3251601-cmu-114"
        }, 
        {
            "assay-molecule": [
                "HeLa"
            ], 
            "binds-constituent1": [
                "Hsp27"
            ], 
            "frame-id": "imp-PMC3251601-cmu-pradsys-609", 
            "frame-type": "implication", 
            "implication-type": "binds", 
            "object-meta": {
                "object-type": "meta-info", 
                "organization": "CMU"
            }, 
            "object-type": "frame", 
            "sentence": "sent-PMC3251601-cmu-118"
        }, 
        {
            "binds-controller": [
                "Hsp27"
            ], 
            "frame-id": "imp-PMC3251601-cmu-pradsys-610", 
            "frame-type": "implication", 
            "implication-type": "binds", 
            "object-meta": {
                "object-type": "meta-info", 
                "organization": "CMU"
            }, 
            "object-type": "frame", 
            "sentence": "sent-PMC3251601-cmu-119"
        }, 
        {
            "binds-controller": [
                "the depletion of Hsp27"
            ], 
            "frame-id": "imp-PMC3251601-cmu-pradsys-611", 
            "frame-type": "implication", 
            "implication-type": "binds", 
            "object-meta": {
                "object-type": "meta-info", 
                "organization": "CMU"
            }, 
            "object-type": "frame", 
            "sentence": "sent-PMC3251601-cmu-121"
        }, 
        {
            "binds-constituent1": [
                "Survivin , an anti-apoptotic BH3 mimetic protein"
            ], 
            "cell-type": [
                "Hsp27 depleted HeLa cells ; its increased level"
            ], 
            "frame-id": "imp-PMC3251601-cmu-pradsys-612", 
            "frame-type": "implication", 
            "implication-type": "binds", 
            "object-meta": {
                "object-type": "meta-info", 
                "organization": "CMU"
            }, 
            "object-type": "frame", 
            "sentence": "sent-PMC3251601-cmu-122"
        }, 
        {
            "binds-constituent2": [
                "Hsp27"
            ], 
            "cell-type": [
                "HeLa cells"
            ], 
            "frame-id": "imp-PMC3251601-cmu-pradsys-613", 
            "frame-type": "implication", 
            "implication-type": "binds", 
            "object-meta": {
                "object-type": "meta-info", 
                "organization": "CMU"
            }, 
            "object-type": "frame", 
            "sentence": "sent-PMC3251601-cmu-125"
        }, 
        {
            "binds-constituent2": [
                "BclXS/L"
            ], 
            "frame-id": "imp-PMC3251601-cmu-pradsys-614", 
            "frame-type": "implication", 
            "implication-type": "binds", 
            "object-meta": {
                "object-type": "meta-info", 
                "organization": "CMU"
            }, 
            "object-type": "frame", 
            "sentence": "sent-PMC3251601-cmu-126"
        }, 
        {
            "cell-type": [
                "MCF-7 cells lines under-expressing"
            ], 
            "frame-id": "imp-PMC3251601-cmu-pradsys-615", 
            "frame-type": "implication", 
            "implication-type": "binds", 
            "object-meta": {
                "object-type": "meta-info", 
                "organization": "CMU"
            }, 
            "object-type": "frame", 
            "sentence": "sent-PMC3251601-cmu-130"
        }, 
        {
            "frame-id": "imp-PMC3251601-cmu-pradsys-616", 
            "frame-type": "implication", 
            "implication-type": "binds", 
            "object-meta": {
                "object-type": "meta-info", 
                "organization": "CMU"
            }, 
            "object-type": "frame", 
            "process": [
                "% ( HSh27-2.2 ) decrease"
            ], 
            "sentence": "sent-PMC3251601-cmu-131", 
            "transfection-molecule": [
                "10 % ( HSh27-1.10 )"
            ]
        }, 
        {
            "cell-type": [
                "MCF-7 cells"
            ], 
            "frame-id": "imp-PMC3251601-cmu-pradsys-617", 
            "frame-type": "implication", 
            "implication-type": "binds", 
            "object-meta": {
                "object-type": "meta-info", 
                "organization": "CMU"
            }, 
            "object-type": "frame", 
            "sentence": "sent-PMC3251601-cmu-132"
        }, 
        {
            "cell-type": [
                "growing cells"
            ], 
            "frame-id": "imp-PMC3251601-cmu-pradsys-618", 
            "frame-type": "implication", 
            "implication-type": "binds", 
            "object-meta": {
                "object-type": "meta-info", 
                "organization": "CMU"
            }, 
            "object-type": "frame", 
            "sentence": "sent-PMC3251601-cmu-134"
        }, 
        {
            "binds-constituent2": [
                "G2/M"
            ], 
            "cell-type": [
                "HSh27-2.2 cells"
            ], 
            "frame-id": "imp-PMC3251601-cmu-pradsys-619", 
            "frame-type": "implication", 
            "implication-type": "binds", 
            "incubation-reagent": [
                "the control cell line"
            ], 
            "object-meta": {
                "object-type": "meta-info", 
                "organization": "CMU"
            }, 
            "object-type": "frame", 
            "sentence": "sent-PMC3251601-cmu-137"
        }, 
        {
            "binds-constituent1": [
                "MCF-7"
            ], 
            "frame-id": "imp-PMC3251601-cmu-pradsys-620", 
            "frame-type": "implication", 
            "implication-type": "binds", 
            "object-meta": {
                "object-type": "meta-info", 
                "organization": "CMU"
            }, 
            "object-type": "frame", 
            "sentence": "sent-PMC3251601-cmu-138"
        }, 
        {
            "cell-type": [
                "Hsp27 depleted cells"
            ], 
            "frame-id": "imp-PMC3251601-cmu-pradsys-621", 
            "frame-type": "implication", 
            "implication-type": "binds", 
            "object-meta": {
                "object-type": "meta-info", 
                "organization": "CMU"
            }, 
            "object-type": "frame", 
            "sentence": "sent-PMC3251601-cmu-139"
        }, 
        {
            "cell-type": [
                "7.4 %", 
                "Sh27 cells versus 1.9 % in control HeLa cells"
            ], 
            "frame-id": "imp-PMC3251601-cmu-pradsys-622", 
            "frame-type": "implication", 
            "implication-type": "binds", 
            "object-meta": {
                "object-type": "meta-info", 
                "organization": "CMU"
            }, 
            "object-type": "frame", 
            "sentence": "sent-PMC3251601-cmu-140"
        }, 
        {
            "cell-type": [
                "MCF-7 cells"
            ], 
            "frame-id": "imp-PMC3251601-cmu-pradsys-623", 
            "frame-type": "implication", 
            "implication-type": "binds", 
            "object-meta": {
                "object-type": "meta-info", 
                "organization": "CMU"
            }, 
            "object-type": "frame", 
            "sentence": "sent-PMC3251601-cmu-141"
        }, 
        {
            "cell-type": [
                "HeLa cells"
            ], 
            "frame-id": "imp-PMC3251601-cmu-pradsys-624", 
            "frame-type": "implication", 
            "implication-type": "binds", 
            "object-meta": {
                "object-type": "meta-info", 
                "organization": "CMU"
            }, 
            "object-type": "frame", 
            "process": [
                "stained"
            ], 
            "sentence": "sent-PMC3251601-cmu-145"
        }, 
        {
            "cell-type": [
                "HeLa cells"
            ], 
            "frame-id": "imp-PMC3251601-cmu-pradsys-625", 
            "frame-type": "implication", 
            "implication-type": "binds", 
            "object-meta": {
                "object-type": "meta-info", 
                "organization": "CMU"
            }, 
            "object-type": "frame", 
            "sentence": "sent-PMC3251601-cmu-147"
        }, 
        {
            "cell-type": [
                "giant cells"
            ], 
            "frame-id": "imp-PMC3251601-cmu-pradsys-626", 
            "frame-type": "implication", 
            "implication-type": "binds", 
            "object-meta": {
                "object-type": "meta-info", 
                "organization": "CMU"
            }, 
            "object-type": "frame", 
            "sentence": "sent-PMC3251601-cmu-149"
        }, 
        {
            "cell-type": [
                "G2 cells"
            ], 
            "frame-id": "imp-PMC3251601-cmu-pradsys-627", 
            "frame-type": "implication", 
            "implication-type": "binds", 
            "object-meta": {
                "object-type": "meta-info", 
                "organization": "CMU"
            }, 
            "object-type": "frame", 
            "sentence": "sent-PMC3251601-cmu-152"
        }, 
        {
            "binds-constituent1": [
                "Hsp27"
            ], 
            "cell-type": [
                "plurinucleated cells"
            ], 
            "frame-id": "imp-PMC3251601-cmu-pradsys-628", 
            "frame-type": "implication", 
            "implication-type": "binds", 
            "object-meta": {
                "object-type": "meta-info", 
                "organization": "CMU"
            }, 
            "object-type": "frame", 
            "process": [
                "detected by flow cytometry analysis"
            ], 
            "sentence": "sent-PMC3251601-cmu-153"
        }, 
        {
            "binds-constituent1": [
                "Hsp27"
            ], 
            "frame-id": "imp-PMC3251601-cmu-pradsys-629", 
            "frame-type": "implication", 
            "implication-type": "binds", 
            "object-meta": {
                "object-type": "meta-info", 
                "organization": "CMU"
            }, 
            "object-type": "frame", 
            "sentence": "sent-PMC3251601-cmu-154"
        }, 
        {
            "cell-type": [
                "Hsp27 depleted HeLa cells"
            ], 
            "frame-id": "imp-PMC3251601-cmu-pradsys-630", 
            "frame-type": "implication", 
            "implication-type": "binds", 
            "object-meta": {
                "object-type": "meta-info", 
                "organization": "CMU"
            }, 
            "object-type": "frame", 
            "sentence": "sent-PMC3251601-cmu-162"
        }, 
        {
            "cell-type": [
                "Hsp27 depleted HeLa cells"
            ], 
            "frame-id": "imp-PMC3251601-cmu-pradsys-631", 
            "frame-type": "implication", 
            "implication-type": "binds", 
            "object-meta": {
                "object-type": "meta-info", 
                "organization": "CMU"
            }, 
            "object-type": "frame", 
            "sentence": "sent-PMC3251601-cmu-166"
        }, 
        {
            "cell-type": [
                "MSh27-1.3 cells"
            ], 
            "frame-id": "imp-PMC3251601-cmu-pradsys-632", 
            "frame-type": "implication", 
            "implication-type": "binds", 
            "object-meta": {
                "object-type": "meta-info", 
                "organization": "CMU"
            }, 
            "object-type": "frame", 
            "sentence": "sent-PMC3251601-cmu-172"
        }, 
        {
            "frame-id": "imp-PMC3251601-cmu-pradsys-633", 
            "frame-type": "implication", 
            "implication-type": "binds", 
            "m-comp": [
                "the small decrease in Hsp27 level and to no significant increase"
            ], 
            "object-meta": {
                "object-type": "meta-info", 
                "organization": "CMU"
            }, 
            "object-type": "frame", 
            "sentence": "sent-PMC3251601-cmu-173"
        }, 
        {
            "assay-molecule": [
                "PCR"
            ], 
            "cell-type": [
                "HeLa cells , HDAC6 protein depletion"
            ], 
            "frame-id": "imp-PMC3251601-cmu-pradsys-634", 
            "frame-type": "implication", 
            "implication-type": "binds", 
            "object-meta": {
                "object-type": "meta-info", 
                "organization": "CMU"
            }, 
            "object-type": "frame", 
            "sentence": "sent-PMC3251601-cmu-174"
        }, 
        {
            "binds-constituent1": [
                "3.E"
            ], 
            "binds-constituent2": [
                "mRNA"
            ], 
            "binds-site": [
                ", the level of HDAC6"
            ], 
            "cell-type": [
                "HSh27-2.2 cells", 
                "HMs27 cells"
            ], 
            "frame-id": "imp-PMC3251601-cmu-pradsys-635", 
            "frame-type": "implication", 
            "implication-type": "binds", 
            "object-meta": {
                "object-type": "meta-info", 
                "organization": "CMU"
            }, 
            "object-type": "frame", 
            "sentence": "sent-PMC3251601-cmu-176"
        }, 
        {
            "binds-controller": [
                "the proteasome inhibitor MG132 or the calpain inhibitor ALLN"
            ], 
            "frame-id": "imp-PMC3251601-cmu-pradsys-636", 
            "frame-type": "implication", 
            "implication-type": "binds", 
            "object-meta": {
                "object-type": "meta-info", 
                "organization": "CMU"
            }, 
            "object-type": "frame", 
            "sentence": "sent-PMC3251601-cmu-177"
        }, 
        {
            "binds-constituent1": [
                "ALLN"
            ], 
            "frame-id": "imp-PMC3251601-cmu-pradsys-637", 
            "frame-type": "implication", 
            "implication-type": "binds", 
            "object-meta": {
                "object-type": "meta-info", 
                "organization": "CMU"
            }, 
            "object-type": "frame", 
            "sentence": "sent-PMC3251601-cmu-180"
        }, 
        {
            "cell-type": [
                "HeLa cells lines"
            ], 
            "frame-id": "imp-PMC3251601-cmu-pradsys-638", 
            "frame-type": "implication", 
            "implication-type": "binds", 
            "object-meta": {
                "object-type": "meta-info", 
                "organization": "CMU"
            }, 
            "object-type": "frame", 
            "sentence": "sent-PMC3251601-cmu-182"
        }, 
        {
            "binds-constituent1": [
                "HDAC6"
            ], 
            "binds-constituent2": [
                "Hsp27"
            ], 
            "binds-site": [
                "occurs in the absence of"
            ], 
            "frame-id": "imp-PMC3251601-cmu-pradsys-639", 
            "frame-type": "implication", 
            "implication-type": "binds", 
            "object-meta": {
                "object-type": "meta-info", 
                "organization": "CMU"
            }, 
            "object-type": "frame", 
            "sentence": "sent-PMC3251601-cmu-183"
        }, 
        {
            "cell-type": [
                "Hsp27"
            ], 
            "frame-id": "imp-PMC3251601-cmu-pradsys-640", 
            "frame-type": "implication", 
            "implication-type": "binds", 
            "object-meta": {
                "object-type": "meta-info", 
                "organization": "CMU"
            }, 
            "object-type": "frame", 
            "sentence": "sent-PMC3251601-cmu-185"
        }, 
        {
            "binds-constituent1": [
                "Hsp27"
            ], 
            "frame-id": "imp-PMC3251601-cmu-pradsys-641", 
            "frame-type": "implication", 
            "implication-type": "binds", 
            "object-meta": {
                "object-type": "meta-info", 
                "organization": "CMU"
            }, 
            "object-type": "frame", 
            "sentence": "sent-PMC3251601-cmu-186"
        }, 
        {
            "cell-type": [
                "Quantification analysis"
            ], 
            "frame-id": "imp-PMC3251601-cmu-pradsys-642", 
            "frame-type": "implication", 
            "implication-type": "binds", 
            "object-meta": {
                "object-type": "meta-info", 
                "organization": "CMU"
            }, 
            "object-type": "frame", 
            "sentence": "sent-PMC3251601-cmu-189"
        }, 
        {
            "binds-constituent2": [
                "all Hsp27 depleted HeLa clones"
            ], 
            "frame-id": "imp-PMC3251601-cmu-pradsys-643", 
            "frame-type": "implication", 
            "implication-type": "binds", 
            "object-meta": {
                "object-type": "meta-info", 
                "organization": "CMU"
            }, 
            "object-type": "frame", 
            "sentence": "sent-PMC3251601-cmu-190"
        }, 
        {
            "binds-controller": [
                "the absence of apoptotic stimulation"
            ], 
            "frame-id": "imp-PMC3251601-cmu-pradsys-644", 
            "frame-type": "implication", 
            "implication-type": "binds", 
            "object-meta": {
                "object-type": "meta-info", 
                "organization": "CMU"
            }, 
            "object-type": "frame", 
            "sentence": "sent-PMC3251601-cmu-191"
        }, 
        {
            "binds-controller": [
                "reduced level of procaspase-3 protein"
            ], 
            "frame-id": "imp-PMC3251601-cmu-pradsys-645", 
            "frame-type": "implication", 
            "implication-type": "binds", 
            "object-meta": {
                "object-type": "meta-info", 
                "organization": "CMU"
            }, 
            "object-type": "frame", 
            "sentence": "sent-PMC3251601-cmu-192"
        }, 
        {
            "frame-id": "imp-PMC3251601-cmu-pradsys-646", 
            "frame-type": "implication", 
            "implication-type": "binds", 
            "object-meta": {
                "object-type": "meta-info", 
                "organization": "CMU"
            }, 
            "object-type": "frame", 
            "process": [
                "Procaspase-3 mRNA"
            ], 
            "sentence": "sent-PMC3251601-cmu-194"
        }, 
        {
            "binds-constituent1": [
                "MG132"
            ], 
            "frame-id": "imp-PMC3251601-cmu-pradsys-647", 
            "frame-type": "implication", 
            "implication-type": "binds", 
            "object-meta": {
                "object-type": "meta-info", 
                "organization": "CMU"
            }, 
            "object-type": "frame", 
            "sentence": "sent-PMC3251601-cmu-196"
        }, 
        {
            "binds-constituent1": [
                "Bcl-XL"
            ], 
            "cell-type": [
                "cancerous cells"
            ], 
            "frame-id": "imp-PMC3251601-cmu-pradsys-648", 
            "frame-type": "implication", 
            "implication-type": "binds", 
            "object-meta": {
                "object-type": "meta-info", 
                "organization": "CMU"
            }, 
            "object-type": "frame", 
            "sentence": "sent-PMC3251601-cmu-201"
        }, 
        {
            "binds-constituent1": [
                "Hsp27 depleted HeLa clones"
            ], 
            "binds-constituent2": [
                "STAT2"
            ], 
            "frame-id": "imp-PMC3251601-cmu-pradsys-649", 
            "frame-type": "implication", 
            "implication-type": "binds", 
            "object-meta": {
                "object-type": "meta-info", 
                "organization": "CMU"
            }, 
            "object-type": "frame", 
            "sentence": "sent-PMC3251601-cmu-203"
        }, 
        {
            "entity": [
                "the STAT transcription factor family"
            ], 
            "frame-id": "imp-PMC3251601-cmu-pradsys-650", 
            "frame-type": "implication", 
            "implication-type": "binds", 
            "object-meta": {
                "object-type": "meta-info", 
                "organization": "CMU"
            }, 
            "object-type": "frame", 
            "sentence": "sent-PMC3251601-cmu-204"
        }, 
        {
            "binds-strength": [
                "not previously described to interact"
            ], 
            "frame-id": "imp-PMC3251601-cmu-pradsys-651", 
            "frame-type": "implication", 
            "implication-type": "binds", 
            "object-meta": {
                "object-type": "meta-info", 
                "organization": "CMU"
            }, 
            "object-type": "frame", 
            "sentence": "sent-PMC3251601-cmu-206"
        }, 
        {
            "cell-type": [
                "HeLa cells , since STAT2 endogenous level"
            ], 
            "frame-id": "imp-PMC3251601-cmu-pradsys-652", 
            "frame-type": "implication", 
            "implication-type": "binds", 
            "object-meta": {
                "object-type": "meta-info", 
                "organization": "CMU"
            }, 
            "object-type": "frame", 
            "sentence": "sent-PMC3251601-cmu-207"
        }, 
        {
            "cell-type": [
                "prostate cells when Hsp27"
            ], 
            "frame-id": "imp-PMC3251601-cmu-pradsys-653", 
            "frame-type": "implication", 
            "implication-type": "binds", 
            "object-meta": {
                "object-type": "meta-info", 
                "organization": "CMU"
            }, 
            "object-type": "frame", 
            "sentence": "sent-PMC3251601-cmu-208"
        }, 
        {
            "binds-constituent1": [
                "Hsp27", 
                "STAT3"
            ], 
            "binds-site": [
                ", endogenous level of"
            ], 
            "frame-id": "imp-PMC3251601-cmu-pradsys-654", 
            "frame-type": "implication", 
            "implication-type": "binds", 
            "object-meta": {
                "object-type": "meta-info", 
                "organization": "CMU"
            }, 
            "object-type": "frame", 
            "sentence": "sent-PMC3251601-cmu-209"
        }, 
        {
            "frame-id": "imp-PMC3251601-cmu-pradsys-655", 
            "frame-type": "implication", 
            "implication-type": "binds", 
            "object-meta": {
                "object-type": "meta-info", 
                "organization": "CMU"
            }, 
            "object-type": "frame", 
            "sentence": "sent-PMC3251601-cmu-210", 
            "transfection-molecule": [
                "Hsp27 depleted clones ( Data S1.A )"
            ]
        }, 
        {
            "frame-id": "imp-PMC3251601-cmu-pradsys-656", 
            "frame-type": "implication", 
            "implication-type": "binds", 
            "object-meta": {
                "object-type": "meta-info", 
                "organization": "CMU"
            }, 
            "object-type": "frame", 
            "sentence": "sent-PMC3251601-cmu-211", 
            "transfection-molecule": [
                "43\u00b0C"
            ]
        }, 
        {
            "frame-id": "imp-PMC3251601-cmu-pradsys-657", 
            "frame-type": "implication", 
            "implication-type": "binds", 
            "object-meta": {
                "object-type": "meta-info", 
                "organization": "CMU"
            }, 
            "object-type": "frame", 
            "sentence": "sent-PMC3251601-cmu-213", 
            "transfection-molecule": [
                "a possible adaptation mechanism to the lack of Hsp27 in our constitutive clones ( Data S1.B )"
            ]
        }, 
        {
            "binds-constituent2": [
                "STAT2", 
                "Hsp27"
            ], 
            "frame-id": "imp-PMC3251601-cmu-pradsys-658", 
            "frame-type": "implication", 
            "implication-type": "binds", 
            "object-meta": {
                "object-type": "meta-info", 
                "organization": "CMU"
            }, 
            "object-type": "frame", 
            "sentence": "sent-PMC3251601-cmu-216"
        }, 
        {
            "binds-constituent1": [
                "STAT2"
            ], 
            "frame-id": "imp-PMC3251601-cmu-pradsys-659", 
            "frame-type": "implication", 
            "implication-type": "binds", 
            "object-meta": {
                "object-type": "meta-info", 
                "organization": "CMU"
            }, 
            "object-type": "frame", 
            "sentence": "sent-PMC3251601-cmu-218"
        }, 
        {
            "binds-constituent1": [
                "a DNA vector containing an ISRE element fused"
            ], 
            "cell-type": [
                "Hsp27 depleted cells"
            ], 
            "frame-id": "imp-PMC3251601-cmu-pradsys-660", 
            "frame-type": "implication", 
            "implication-type": "binds", 
            "object-meta": {
                "object-type": "meta-info", 
                "organization": "CMU"
            }, 
            "object-type": "frame", 
            "sentence": "sent-PMC3251601-cmu-219"
        }, 
        {
            "cell-type": [
                "HSh2.2 cells"
            ], 
            "frame-id": "imp-PMC3251601-cmu-pradsys-661", 
            "frame-type": "implication", 
            "implication-type": "binds", 
            "object-meta": {
                "object-type": "meta-info", 
                "organization": "CMU"
            }, 
            "object-type": "frame", 
            "sentence": "sent-PMC3251601-cmu-222"
        }, 
        {
            "assay-molecule": [
                "SB202190"
            ], 
            "frame-id": "imp-PMC3251601-cmu-pradsys-662", 
            "frame-type": "implication", 
            "implication-type": "binds", 
            "object-meta": {
                "object-type": "meta-info", 
                "organization": "CMU"
            }, 
            "object-type": "frame", 
            "sentence": "sent-PMC3251601-cmu-223"
        }, 
        {
            "binds-constituent1": [
                "Hsp27"
            ], 
            "frame-id": "imp-PMC3251601-cmu-pradsys-663", 
            "frame-type": "implication", 
            "implication-type": "binds", 
            "object-meta": {
                "object-type": "meta-info", 
                "organization": "CMU"
            }, 
            "object-type": "frame", 
            "sentence": "sent-PMC3251601-cmu-225"
        }, 
        {
            "binds-constituent2": [
                "procaspase3"
            ], 
            "frame-id": "imp-PMC3251601-cmu-pradsys-664", 
            "frame-type": "implication", 
            "implication-type": "binds", 
            "object-meta": {
                "object-type": "meta-info", 
                "organization": "CMU"
            }, 
            "object-type": "frame", 
            "sentence": "sent-PMC3251601-cmu-226", 
            "transfection-molecule": [
                "HDAC6"
            ]
        }, 
        {
            "binds-constituent2": [
                "Hsp27"
            ], 
            "frame-id": "imp-PMC3251601-cmu-pradsys-665", 
            "frame-type": "implication", 
            "implication-type": "binds", 
            "object-meta": {
                "object-type": "meta-info", 
                "organization": "CMU"
            }, 
            "object-type": "frame", 
            "sentence": "sent-PMC3251601-cmu-228"
        }, 
        {
            "cell-type": [
                "non-stressed cells , Hsp27 protein"
            ], 
            "frame-id": "imp-PMC3251601-cmu-pradsys-666", 
            "frame-type": "implication", 
            "implication-type": "binds", 
            "object-meta": {
                "object-type": "meta-info", 
                "organization": "CMU"
            }, 
            "object-type": "frame", 
            "sentence": "sent-PMC3251601-cmu-232"
        }, 
        {
            "coreference-target": [
                "the different eluted fractions"
            ], 
            "frame-id": "imp-PMC3251601-cmu-pradsys-667", 
            "frame-type": "implication", 
            "implication-type": "binds", 
            "object-meta": {
                "object-type": "meta-info", 
                "organization": "CMU"
            }, 
            "object-type": "frame", 
            "sentence": "sent-PMC3251601-cmu-233"
        }, 
        {
            "binds-constituent1": [
                "Hsp27", 
                "HDAC6"
            ], 
            "frame-id": "imp-PMC3251601-cmu-pradsys-668", 
            "frame-type": "implication", 
            "implication-type": "binds", 
            "object-meta": {
                "object-type": "meta-info", 
                "organization": "CMU"
            }, 
            "object-type": "frame", 
            "sentence": "sent-PMC3251601-cmu-235", 
            "transfection-molecule": [
                "procaspase3"
            ]
        }, 
        {
            "binds-constituent1": [
                "STAT2"
            ], 
            "binds-constituent2": [
                "Hsp27"
            ], 
            "coreference-target": [
                "the targetted proteins"
            ], 
            "frame-id": "imp-PMC3251601-cmu-pradsys-669", 
            "frame-type": "implication", 
            "implication-type": "binds", 
            "object-meta": {
                "object-type": "meta-info", 
                "organization": "CMU"
            }, 
            "object-type": "frame", 
            "sentence": "sent-PMC3251601-cmu-236"
        }
    ], 
    "object-meta": {
        "component": "Pradeep-System", 
        "component-type": "machine", 
        "doc-id": "PMC3251601", 
        "object-type": "meta-info", 
        "organization": "CMU"
    }, 
    "object-type": "frame-collection"
}
