{
  "evidence": ["Consistent with that PTEN is one of the miR-21 targets , miR-21 induced tumor angiogenesis ( Ad-GFP+ negative control precursor miRNA group versus Ad-GFP+ pre-miR-21 group : 100 %+ / -9.24 % versus 176 %+ / -12.01 % , n = 6 ) ; overepression of PTEN by adenovirus decreased miR-21-induced angiogenesis ( Ad-GFP+ pre-miR-21 group versus Ad-PTEN+ pre-miR-21 group : 176 %+ / -12.01 % versus 103.71 %+ / -22.1 % , n = 6 ) .","PTEN by adenovirus decreased miR-21-induced angiogenesis (Ad-GFP+pre-miR-21 group"],
  "extracted_information": {
    "interaction_type": "increases_activity",
    "negative_information": false,
    "participant_a": {
      "entity_text": "PTEN",
      "entity_type": "protein",
      "identifier": "Uniprot:P60484",
      "in_model": true
    },
    "participant_b": {
      "entity_text": "Ad-GFP+pre-miR-21 group",
      "entity_type": "protein",
      "identifier": "ungrounded",
      "in_model": false
    }
  },
  "fries_provenance": [
    {
      "cmu-sentence-epistemic-status": "belief",
      "cmu-sentence-epistemic-value": 0.9,
      "component": "REACH",
      "frame-file": "PMC3081346.uaz.events",
      "frame-id": "evem-PMC3081346-UAZ-r1-58-5-44",
      "passage-id": "pass-PMC3081346-UAZ-r1-58",
      "passage-number": 58,
      "passage-section-id": "s3c",
      "passage-section-name": "N/A",
      "sentence": "Consistent with that PTEN is one of the miR-21 targets , miR-21 induced tumor angiogenesis ( Ad-GFP+ negative control precursor miRNA group versus Ad-GFP+ pre-miR-21 group : 100 %+ / -9.24 % versus 176 %+ / -12.01 % , n = 6 ) ; overepression of PTEN by adenovirus decreased miR-21-induced angiogenesis ( Ad-GFP+ pre-miR-21 group versus Ad-PTEN+ pre-miR-21 group : 176 %+ / -12.01 % versus 103.71 %+ / -22.1 % , n = 6 ) .",
      "text": "PTEN by adenovirus decreased miR-21-induced angiogenesis (Ad-GFP+pre-miR-21 group",
      "uaz-sentence": "Consistent with that PTEN is one of the miR-21 targets , miR-21 induced tumor angiogenesis ( Ad-GFP+ negative control precursor miRNA group versus Ad-GFP+ pre-miR-21 group : 100 %+ / -9.24 % versus 176 %+ / -12.01 % , n = 6 ) ; overepression of PTEN by adenovirus decreased miR-21-induced angiogenesis ( Ad-GFP+ pre-miR-21 group versus Ad-PTEN+ pre-miR-21 group : 176 %+ / -12.01 % versus 103.71 %+ / -22.1 % , n = 6 ) .",
      "uaz-sentence-start": 823
    }
  ],
  "model_relation": "extension",
  "pmc_id": "PMC3081346",
  "reader_type": "machine",
  "reading_complete": "2015-06-15T21:59:57Z",
  "reading_started": "2015-06-15T21:59:52Z",
  "submitter": "FRIES"
}
