{
  "evidence": ["miR-21 plays an important role in mediating angiogenesis through regulating AKT and extracellular signal regulated kinase","The relative angiogenesis was also inhibited 50% by the anti-miR-21, indicating that miR-21 plays an important role in mediating angiogenesis through regulating AKT and extracellular signal regulated kinase activation, and hypoxia inducible factor-1\\u03b1 and VEGF expression."],
  "extracted_information": {
    "interaction_type": "increases",
    "negative_information": false,
    "participant_a": {
      "entity_text": "miR-21",
      "entity_type": "protein",
      "identifier": "Uniprot:B4DGZ7",
      "in_model": false
    },
    "participant_b": {
      "entity_text": "AKT and extracellular signal regulated kinase",
      "entity_type": "protein",
      "identifier": "Uniprot:P28482",
      "in_model": true
    }
  },
  "fries_provenance": [
    {
      "cmu-sentence-epistemic-status": "belief",
      "cmu-sentence-epistemic-value": 0.9,
      "component": "MedScan",
      "frame-file": "PMC3081346.cmu.medscan",
      "frame-id": "relm-PMC3081346-cmu-medscan-666",
      "passage-id": "pass-PMC3081346-UAZ-r1-82",
      "passage-number": 82,
      "passage-section-id": "s4",
      "passage-section-name": "N/A",
      "sentence": "The relative angiogenesis was also inhibited 50% by the anti-miR-21, indicating that miR-21 plays an important role in mediating angiogenesis through regulating AKT and extracellular signal regulated kinase activation, and hypoxia inducible factor-1\\u03b1 and VEGF expression.",
      "text": "miR-21 plays an important role in mediating angiogenesis through regulating AKT and extracellular signal regulated kinase",
      "uaz-sentence": "The relative angiogenesis was also inhibited 50 % by the anti-miR-21 , indicating that miR-21 plays an important role in mediating angiogenesis through regulating AKT and ERK activation , and HIF-1alpha and VEGF expression .",
      "uaz-sentence-start": 525
    }
  ],
  "model_relation": "extension",
  "pmc_id": "PMC3081346",
  "reader_type": "machine",
  "reading_complete": "2015-06-15T21:59:57Z",
  "reading_started": "2015-06-15T21:59:52Z",
  "submitter": "FRIES"
}
