{
  "evidence": ["For analysis by immunoblotting cleaved PARP levels were detected by human or mouse specific antibodies (Cell Signaling). mammalian TOR complex 1 was inhibited by preincubation with 100 nM rapamycin for 1 h, and apoptosis was subsequently induced by TNF\\u03b1/cycloheximide for 1.5 h in the presence of rapamycin.","TOR complex 1 was inhibited by preincubation with 100 nM rapamycin"],
  "extracted_information": {
    "interaction_type": "decreases",
    "negative_information": false,
    "participant_a": {
      "entity_text": "rapamycin",
      "entity_type": "chemical",
      "identifier": "CHEBI:9168",
      "in_model": false
    },
    "participant_b": {
      "entity_text": "TOR complex 1",
      "entity_type": "complex",
      "identifier": "GO:0031931",
      "in_model": true
    }
  },
  "fries_provenance": [
    {
      "component": "MedScan",
      "frame-file": "PMC2075366.cmu.medscan",
      "frame-id": "relm-PMC2075366-cmu-medscan-864",
      "sentence": "For analysis by immunoblotting cleaved PARP levels were detected by human or mouse specific antibodies (Cell Signaling). mammalian TOR complex 1 was inhibited by preincubation with 100 nM rapamycin for 1 h, and apoptosis was subsequently induced by TNF\\u03b1/cycloheximide for 1.5 h in the presence of rapamycin.",
      "text": "TOR complex 1 was inhibited by preincubation with 100 nM rapamycin"
    }
  ],
  "model_relation": "extension",
  "pmc_id": "PMC2075366",
  "reader_type": "machine",
  "reading_complete": "2015-06-15T19:10:52Z",
  "reading_started": "2015-06-15T19:10:47Z",
  "submitter": "FRIES"
}
