{
    "frames": [
        {
            "frame-id": "smap-PMC3114812-cmu-1", 
            "frame-type": "sentence-map", 
            "list1-meta": {
                "component": "nxml2fries", 
                "object-type": "meta-info", 
                "organization": "UAZ"
            }, 
            "list2-meta": {
                "component": "Nicolas-NXML-Parser", 
                "object-type": "meta-info", 
                "organization": "CMU"
            }, 
            "map": [
                {
                    "from": "sent-PMC3114812-UAZ-r1-46-0", 
                    "object-type": "map-range", 
                    "to": "sent-PMC3114812-cmu-96"
                }, 
                {
                    "from": "sent-PMC3114812-UAZ-r1-84-2", 
                    "object-type": "map-range", 
                    "to": "sent-PMC3114812-cmu-214"
                }, 
                {
                    "from": "sent-PMC3114812-UAZ-r1-33-4", 
                    "object-type": "map-range", 
                    "to": "sent-PMC3114812-cmu-72"
                }, 
                {
                    "from": "sent-PMC3114812-UAZ-r1-22-1", 
                    "object-type": "map-range", 
                    "to": "sent-PMC3114812-cmu-37"
                }, 
                {
                    "from": "sent-PMC3114812-UAZ-r1-67-3", 
                    "object-type": "map-range", 
                    "to": "sent-PMC3114812-cmu-170"
                }, 
                {
                    "from": "sent-PMC3114812-UAZ-r1-66-2", 
                    "object-type": "map-range", 
                    "to": "sent-PMC3114812-cmu-164"
                }, 
                {
                    "from": "sent-PMC3114812-UAZ-r1-87-5", 
                    "object-type": "map-range", 
                    "to": "sent-PMC3114812-cmu-227"
                }, 
                {
                    "from": "sent-PMC3114812-UAZ-r1-17-1", 
                    "object-type": "map-range", 
                    "to": "sent-PMC3114812-cmu-22"
                }, 
                {
                    "from": "sent-PMC3114812-UAZ-r1-77-0", 
                    "object-type": "map-range", 
                    "to": "sent-PMC3114812-cmu-188"
                }, 
                {
                    "from": "sent-PMC3114812-UAZ-r1-38-0", 
                    "object-type": "map-range", 
                    "to": "sent-PMC3114812-cmu-84"
                }, 
                {
                    "from": "sent-PMC3114812-UAZ-r1-30-0", 
                    "object-type": "map-range", 
                    "to": "sent-PMC3114812-cmu-54"
                }, 
                {
                    "from": "sent-PMC3114812-UAZ-r1-82-0", 
                    "object-type": "map-range", 
                    "to": "sent-PMC3114812-cmu-204"
                }, 
                {
                    "from": "sent-PMC3114812-UAZ-r1-52-1", 
                    "object-type": "map-range", 
                    "to": "sent-PMC3114812-cmu-108"
                }, 
                {
                    "from": "sent-PMC3114812-UAZ-r1-85-0", 
                    "object-type": "map-range", 
                    "to": "sent-PMC3114812-cmu-215"
                }, 
                {
                    "from": "sent-PMC3114812-UAZ-r1-54-1", 
                    "object-type": "map-range", 
                    "to": "sent-PMC3114812-cmu-116"
                }, 
                {
                    "from": "sent-PMC3114812-UAZ-r1-28-2", 
                    "object-type": "map-range", 
                    "to": "sent-PMC3114812-cmu-49"
                }, 
                {
                    "from": "sent-PMC3114812-UAZ-r1-36-2", 
                    "object-type": "map-range", 
                    "to": "sent-PMC3114812-cmu-78"
                }, 
                {
                    "from": "sent-PMC3114812-UAZ-r1-25-0", 
                    "object-type": "map-range", 
                    "to": "sent-PMC3114812-cmu-42"
                }, 
                {
                    "from": "sent-PMC3114812-UAZ-r1-50-1", 
                    "object-type": "map-range", 
                    "to": "sent-PMC3114812-cmu-103"
                }, 
                {
                    "from": "sent-PMC3114812-UAZ-r1-27-0", 
                    "object-type": "map-range", 
                    "to": "sent-PMC3114812-cmu-45"
                }, 
                {
                    "from": "sent-PMC3114812-UAZ-r1-28-0", 
                    "object-type": "map-range", 
                    "to": "sent-PMC3114812-cmu-46"
                }, 
                {
                    "from": "sent-PMC3114812-UAZ-r1-16-4", 
                    "object-type": "map-range", 
                    "to": "sent-PMC3114812-cmu-9"
                }, 
                {
                    "from": "sent-PMC3114812-UAZ-r1-68-0", 
                    "object-type": "map-range", 
                    "to": "sent-PMC3114812-cmu-175"
                }, 
                {
                    "from": "sent-PMC3114812-UAZ-r1-29-1", 
                    "object-type": "map-range", 
                    "to": "sent-PMC3114812-cmu-53"
                }, 
                {
                    "from": "sent-PMC3114812-UAZ-r1-62-3", 
                    "object-type": "map-range", 
                    "to": "sent-PMC3114812-cmu-151"
                }, 
                {
                    "from": "sent-PMC3114812-UAZ-r1-17-4", 
                    "object-type": "map-range", 
                    "to": "sent-PMC3114812-cmu-29"
                }, 
                {
                    "from": "sent-PMC3114812-UAZ-r1-60-3", 
                    "object-type": "map-range", 
                    "to": "sent-PMC3114812-cmu-136"
                }, 
                {
                    "from": "sent-PMC3114812-UAZ-r1-59-1", 
                    "object-type": "map-range", 
                    "to": "sent-PMC3114812-cmu-130"
                }, 
                {
                    "from": "sent-PMC3114812-UAZ-r1-49-0", 
                    "object-type": "map-range", 
                    "to": "sent-PMC3114812-cmu-99"
                }, 
                {
                    "from": "sent-PMC3114812-UAZ-r1-33-0", 
                    "object-type": "map-range", 
                    "to": "sent-PMC3114812-cmu-68"
                }, 
                {
                    "from": "sent-PMC3114812-UAZ-r1-71-0", 
                    "object-type": "map-range", 
                    "to": "sent-PMC3114812-cmu-177"
                }, 
                {
                    "from": "sent-PMC3114812-UAZ-r1-70-0", 
                    "object-type": "map-range", 
                    "to": "sent-PMC3114812-cmu-176"
                }, 
                {
                    "from": "sent-PMC3114812-UAZ-r1-37-1", 
                    "object-type": "map-range", 
                    "to": "sent-PMC3114812-cmu-82"
                }, 
                {
                    "from": "sent-PMC3114812-UAZ-r1-83-0", 
                    "object-type": "map-range", 
                    "to": "sent-PMC3114812-cmu-209"
                }, 
                {
                    "from": "sent-PMC3114812-UAZ-r1-78-3", 
                    "object-type": "map-range", 
                    "to": "sent-PMC3114812-cmu-196"
                }, 
                {
                    "from": "sent-PMC3114812-UAZ-r1-65-2", 
                    "object-type": "map-range", 
                    "to": "sent-PMC3114812-cmu-159"
                }, 
                {
                    "from": "sent-PMC3114812-UAZ-r1-21-0", 
                    "object-type": "map-range", 
                    "to": "sent-PMC3114812-cmu-34"
                }, 
                {
                    "from": "sent-PMC3114812-UAZ-r1-57-1", 
                    "object-type": "map-range", 
                    "to": "sent-PMC3114812-cmu-119"
                }, 
                {
                    "from": "sent-PMC3114812-UAZ-r1-67-4", 
                    "object-type": "map-range", 
                    "to": "sent-PMC3114812-cmu-172"
                }, 
                {
                    "from": "sent-PMC3114812-UAZ-r1-81-2", 
                    "object-type": "map-range", 
                    "to": "sent-PMC3114812-cmu-201"
                }, 
                {
                    "from": "sent-PMC3114812-UAZ-r1-67-5", 
                    "object-type": "map-range", 
                    "to": "sent-PMC3114812-cmu-173"
                }, 
                {
                    "from": "sent-PMC3114812-UAZ-r1-87-4", 
                    "object-type": "map-range", 
                    "to": "sent-PMC3114812-cmu-226"
                }, 
                {
                    "from": "sent-PMC3114812-UAZ-r1-66-0", 
                    "object-type": "map-range", 
                    "to": "sent-PMC3114812-cmu-162"
                }, 
                {
                    "from": "sent-PMC3114812-UAZ-r1-17-0", 
                    "object-type": "map-range", 
                    "to": "sent-PMC3114812-cmu-21"
                }, 
                {
                    "from": "sent-PMC3114812-UAZ-r1-16-1", 
                    "object-type": "map-range", 
                    "to": "sent-PMC3114812-cmu-2"
                }, 
                {
                    "from": "sent-PMC3114812-UAZ-r1-52-2", 
                    "object-type": "map-range", 
                    "to": "sent-PMC3114812-cmu-109"
                }, 
                {
                    "from": "sent-PMC3114812-UAZ-r1-85-1", 
                    "object-type": "map-range", 
                    "to": "sent-PMC3114812-cmu-217"
                }, 
                {
                    "from": "sent-PMC3114812-UAZ-r1-29-0", 
                    "object-type": "map-range", 
                    "to": "sent-PMC3114812-cmu-51"
                }, 
                {
                    "from": "sent-PMC3114812-UAZ-r1-57-3", 
                    "object-type": "map-range", 
                    "to": "sent-PMC3114812-cmu-121"
                }, 
                {
                    "from": "sent-PMC3114812-UAZ-r1-86-0", 
                    "object-type": "map-range", 
                    "to": "sent-PMC3114812-cmu-219"
                }, 
                {
                    "from": "sent-PMC3114812-UAZ-r1-61-5", 
                    "object-type": "map-range", 
                    "to": "sent-PMC3114812-cmu-144"
                }, 
                {
                    "from": "sent-PMC3114812-UAZ-r1-77-2", 
                    "object-type": "map-range", 
                    "to": "sent-PMC3114812-cmu-192"
                }, 
                {
                    "from": "sent-PMC3114812-UAZ-r1-81-1", 
                    "object-type": "map-range", 
                    "to": "sent-PMC3114812-cmu-200"
                }, 
                {
                    "from": "sent-PMC3114812-UAZ-r1-84-0", 
                    "object-type": "map-range", 
                    "to": "sent-PMC3114812-cmu-212"
                }, 
                {
                    "from": "sent-PMC3114812-UAZ-r1-74-3", 
                    "object-type": "map-range", 
                    "to": "sent-PMC3114812-cmu-186"
                }, 
                {
                    "from": "sent-PMC3114812-UAZ-r1-78-4", 
                    "object-type": "map-range", 
                    "to": "sent-PMC3114812-cmu-197"
                }, 
                {
                    "from": "sent-PMC3114812-UAZ-r1-61-3", 
                    "object-type": "map-range", 
                    "to": "sent-PMC3114812-cmu-141"
                }, 
                {
                    "from": "sent-PMC3114812-UAZ-r1-65-4", 
                    "object-type": "map-range", 
                    "to": "sent-PMC3114812-cmu-161"
                }, 
                {
                    "from": "sent-PMC3114812-UAZ-r1-65-3", 
                    "object-type": "map-range", 
                    "to": "sent-PMC3114812-cmu-160"
                }, 
                {
                    "from": "sent-PMC3114812-UAZ-r1-87-2", 
                    "object-type": "map-range", 
                    "to": "sent-PMC3114812-cmu-224"
                }, 
                {
                    "from": "sent-PMC3114812-UAZ-r1-16-0", 
                    "object-type": "map-range", 
                    "to": "sent-PMC3114812-cmu-1"
                }, 
                {
                    "from": "sent-PMC3114812-UAZ-r1-39-0", 
                    "object-type": "map-range", 
                    "to": "sent-PMC3114812-cmu-86"
                }, 
                {
                    "from": "sent-PMC3114812-UAZ-r1-86-2", 
                    "object-type": "map-range", 
                    "to": "sent-PMC3114812-cmu-221"
                }, 
                {
                    "from": "sent-PMC3114812-UAZ-r1-65-1", 
                    "object-type": "map-range", 
                    "to": "sent-PMC3114812-cmu-157"
                }, 
                {
                    "from": "sent-PMC3114812-UAZ-r1-47-1", 
                    "object-type": "map-range", 
                    "to": "sent-PMC3114812-cmu-98"
                }, 
                {
                    "from": "sent-PMC3114812-UAZ-r1-30-2", 
                    "object-type": "map-range", 
                    "to": "sent-PMC3114812-cmu-57"
                }, 
                {
                    "from": "sent-PMC3114812-UAZ-r1-16-7", 
                    "object-type": "map-range", 
                    "to": "sent-PMC3114812-cmu-15"
                }, 
                {
                    "from": "sent-PMC3114812-UAZ-r1-17-5", 
                    "object-type": "map-range", 
                    "to": "sent-PMC3114812-cmu-30"
                }, 
                {
                    "from": "sent-PMC3114812-UAZ-r1-33-3", 
                    "object-type": "map-range", 
                    "to": "sent-PMC3114812-cmu-71"
                }, 
                {
                    "from": "sent-PMC3114812-UAZ-r1-71-1", 
                    "object-type": "map-range", 
                    "to": "sent-PMC3114812-cmu-179"
                }, 
                {
                    "from": "sent-PMC3114812-UAZ-r1-67-6", 
                    "object-type": "map-range", 
                    "to": "sent-PMC3114812-cmu-174"
                }, 
                {
                    "from": "sent-PMC3114812-UAZ-r1-37-0", 
                    "object-type": "map-range", 
                    "to": "sent-PMC3114812-cmu-80"
                }, 
                {
                    "from": "sent-PMC3114812-UAZ-r1-31-0", 
                    "object-type": "map-range", 
                    "to": "sent-PMC3114812-cmu-59"
                }, 
                {
                    "from": "sent-PMC3114812-UAZ-r1-16-9", 
                    "object-type": "map-range", 
                    "to": "sent-PMC3114812-cmu-19"
                }, 
                {
                    "from": "sent-PMC3114812-UAZ-r1-28-3", 
                    "object-type": "map-range", 
                    "to": "sent-PMC3114812-cmu-50"
                }, 
                {
                    "from": "sent-PMC3114812-UAZ-r1-58-1", 
                    "object-type": "map-range", 
                    "to": "sent-PMC3114812-cmu-125"
                }, 
                {
                    "from": "sent-PMC3114812-UAZ-r1-60-1", 
                    "object-type": "map-range", 
                    "to": "sent-PMC3114812-cmu-133"
                }, 
                {
                    "from": "sent-PMC3114812-UAZ-r1-82-3", 
                    "object-type": "map-range", 
                    "to": "sent-PMC3114812-cmu-207"
                }, 
                {
                    "from": "sent-PMC3114812-UAZ-r1-58-3", 
                    "object-type": "map-range", 
                    "to": "sent-PMC3114812-cmu-127"
                }, 
                {
                    "from": "sent-PMC3114812-UAZ-r1-62-1", 
                    "object-type": "map-range", 
                    "to": "sent-PMC3114812-cmu-149"
                }, 
                {
                    "from": "sent-PMC3114812-UAZ-r1-61-6", 
                    "object-type": "map-range", 
                    "to": "sent-PMC3114812-cmu-145"
                }, 
                {
                    "from": "sent-PMC3114812-UAZ-r1-85-2", 
                    "object-type": "map-range", 
                    "to": "sent-PMC3114812-cmu-218"
                }, 
                {
                    "from": "sent-PMC3114812-UAZ-r1-82-4", 
                    "object-type": "map-range", 
                    "to": "sent-PMC3114812-cmu-208"
                }, 
                {
                    "from": "sent-PMC3114812-UAZ-r1-39-2", 
                    "object-type": "map-range", 
                    "to": "sent-PMC3114812-cmu-88"
                }, 
                {
                    "from": "sent-PMC3114812-UAZ-r1-51-0", 
                    "object-type": "map-range", 
                    "to": "sent-PMC3114812-cmu-104"
                }, 
                {
                    "from": "sent-PMC3114812-UAZ-r1-30-3", 
                    "object-type": "map-range", 
                    "to": "sent-PMC3114812-cmu-58"
                }, 
                {
                    "from": "sent-PMC3114812-UAZ-r1-57-2", 
                    "object-type": "map-range", 
                    "to": "sent-PMC3114812-cmu-120"
                }, 
                {
                    "from": "sent-PMC3114812-UAZ-r1-51-1", 
                    "object-type": "map-range", 
                    "to": "sent-PMC3114812-cmu-105"
                }, 
                {
                    "from": "sent-PMC3114812-UAZ-r1-58-2", 
                    "object-type": "map-range", 
                    "to": "sent-PMC3114812-cmu-126"
                }, 
                {
                    "from": "sent-PMC3114812-UAZ-r1-67-1", 
                    "object-type": "map-range", 
                    "to": "sent-PMC3114812-cmu-168"
                }, 
                {
                    "from": "sent-PMC3114812-UAZ-r1-22-4", 
                    "object-type": "map-range", 
                    "to": "sent-PMC3114812-cmu-40"
                }, 
                {
                    "from": "sent-PMC3114812-UAZ-r1-16-8", 
                    "object-type": "map-range", 
                    "to": "sent-PMC3114812-cmu-17"
                }, 
                {
                    "from": "sent-PMC3114812-UAZ-r1-82-2", 
                    "object-type": "map-range", 
                    "to": "sent-PMC3114812-cmu-206"
                }, 
                {
                    "from": "sent-PMC3114812-UAZ-r1-31-1", 
                    "object-type": "map-range", 
                    "to": "sent-PMC3114812-cmu-60"
                }, 
                {
                    "from": "sent-PMC3114812-UAZ-r1-65-0", 
                    "object-type": "map-range", 
                    "to": "sent-PMC3114812-cmu-153"
                }, 
                {
                    "from": "sent-PMC3114812-UAZ-r1-30-1", 
                    "object-type": "map-range", 
                    "to": "sent-PMC3114812-cmu-56"
                }, 
                {
                    "from": "sent-PMC3114812-UAZ-r1-66-4", 
                    "object-type": "map-range", 
                    "to": "sent-PMC3114812-cmu-166"
                }, 
                {
                    "from": "sent-PMC3114812-UAZ-r1-22-2", 
                    "object-type": "map-range", 
                    "to": "sent-PMC3114812-cmu-38"
                }, 
                {
                    "from": "sent-PMC3114812-UAZ-r1-32-2", 
                    "object-type": "map-range", 
                    "to": "sent-PMC3114812-cmu-64"
                }, 
                {
                    "from": "sent-PMC3114812-UAZ-r1-87-1", 
                    "object-type": "map-range", 
                    "to": "sent-PMC3114812-cmu-223"
                }, 
                {
                    "from": "sent-PMC3114812-UAZ-r1-22-3", 
                    "object-type": "map-range", 
                    "to": "sent-PMC3114812-cmu-39"
                }, 
                {
                    "from": "sent-PMC3114812-UAZ-r1-67-2", 
                    "object-type": "map-range", 
                    "to": "sent-PMC3114812-cmu-169"
                }, 
                {
                    "from": "sent-PMC3114812-UAZ-r1-66-1", 
                    "object-type": "map-range", 
                    "to": "sent-PMC3114812-cmu-163"
                }, 
                {
                    "from": "sent-PMC3114812-UAZ-r1-57-5", 
                    "object-type": "map-range", 
                    "to": "sent-PMC3114812-cmu-123"
                }, 
                {
                    "from": "sent-PMC3114812-UAZ-r1-16-2", 
                    "object-type": "map-range", 
                    "to": "sent-PMC3114812-cmu-6"
                }, 
                {
                    "from": "sent-PMC3114812-UAZ-r1-22-0", 
                    "object-type": "map-range", 
                    "to": "sent-PMC3114812-cmu-35"
                }, 
                {
                    "from": "sent-PMC3114812-UAZ-r1-87-0", 
                    "object-type": "map-range", 
                    "to": "sent-PMC3114812-cmu-222"
                }, 
                {
                    "from": "sent-PMC3114812-UAZ-r1-33-5", 
                    "object-type": "map-range", 
                    "to": "sent-PMC3114812-cmu-73"
                }, 
                {
                    "from": "sent-PMC3114812-UAZ-r1-81-3", 
                    "object-type": "map-range", 
                    "to": "sent-PMC3114812-cmu-202"
                }, 
                {
                    "from": "sent-PMC3114812-UAZ-r1-78-1", 
                    "object-type": "map-range", 
                    "to": "sent-PMC3114812-cmu-194"
                }, 
                {
                    "from": "sent-PMC3114812-UAZ-r1-81-4", 
                    "object-type": "map-range", 
                    "to": "sent-PMC3114812-cmu-203"
                }, 
                {
                    "from": "sent-PMC3114812-UAZ-r1-47-0", 
                    "object-type": "map-range", 
                    "to": "sent-PMC3114812-cmu-97"
                }, 
                {
                    "from": "sent-PMC3114812-UAZ-r1-86-1", 
                    "object-type": "map-range", 
                    "to": "sent-PMC3114812-cmu-220"
                }, 
                {
                    "from": "sent-PMC3114812-UAZ-r1-60-2", 
                    "object-type": "map-range", 
                    "to": "sent-PMC3114812-cmu-134"
                }, 
                {
                    "from": "sent-PMC3114812-UAZ-r1-59-0", 
                    "object-type": "map-range", 
                    "to": "sent-PMC3114812-cmu-128"
                }, 
                {
                    "from": "sent-PMC3114812-UAZ-r1-87-3", 
                    "object-type": "map-range", 
                    "to": "sent-PMC3114812-cmu-225"
                }, 
                {
                    "from": "sent-PMC3114812-UAZ-r1-61-4", 
                    "object-type": "map-range", 
                    "to": "sent-PMC3114812-cmu-143"
                }, 
                {
                    "from": "sent-PMC3114812-UAZ-r1-16-10", 
                    "object-type": "map-range", 
                    "to": "sent-PMC3114812-cmu-20"
                }, 
                {
                    "from": "sent-PMC3114812-UAZ-r1-84-1", 
                    "object-type": "map-range", 
                    "to": "sent-PMC3114812-cmu-213"
                }, 
                {
                    "from": "sent-PMC3114812-UAZ-r1-57-0", 
                    "object-type": "map-range", 
                    "to": "sent-PMC3114812-cmu-118"
                }, 
                {
                    "from": "sent-PMC3114812-UAZ-r1-53-0", 
                    "object-type": "map-range", 
                    "to": "sent-PMC3114812-cmu-110"
                }, 
                {
                    "from": "sent-PMC3114812-UAZ-r1-78-2", 
                    "object-type": "map-range", 
                    "to": "sent-PMC3114812-cmu-195"
                }, 
                {
                    "from": "sent-PMC3114812-UAZ-r1-51-2", 
                    "object-type": "map-range", 
                    "to": "sent-PMC3114812-cmu-106"
                }, 
                {
                    "from": "sent-PMC3114812-UAZ-r1-83-2", 
                    "object-type": "map-range", 
                    "to": "sent-PMC3114812-cmu-211"
                }, 
                {
                    "from": "sent-PMC3114812-UAZ-r1-57-4", 
                    "object-type": "map-range", 
                    "to": "sent-PMC3114812-cmu-122"
                }, 
                {
                    "from": "sent-PMC3114812-UAZ-r1-54-0", 
                    "object-type": "map-range", 
                    "to": "sent-PMC3114812-cmu-114"
                }, 
                {
                    "from": "sent-PMC3114812-UAZ-r1-78-0", 
                    "object-type": "map-range", 
                    "to": "sent-PMC3114812-cmu-193"
                }, 
                {
                    "from": "sent-PMC3114812-UAZ-r1-83-1", 
                    "object-type": "map-range", 
                    "to": "sent-PMC3114812-cmu-210"
                }, 
                {
                    "from": "sent-PMC3114812-UAZ-r1-39-4", 
                    "object-type": "map-range", 
                    "to": "sent-PMC3114812-cmu-90"
                }, 
                {
                    "from": "sent-PMC3114812-UAZ-r1-58-0", 
                    "object-type": "map-range", 
                    "to": "sent-PMC3114812-cmu-124"
                }, 
                {
                    "from": "sent-PMC3114812-UAZ-r1-33-1", 
                    "object-type": "map-range", 
                    "to": "sent-PMC3114812-cmu-69"
                }, 
                {
                    "from": "sent-PMC3114812-UAZ-r1-82-1", 
                    "object-type": "map-range", 
                    "to": "sent-PMC3114812-cmu-205"
                }, 
                {
                    "from": "sent-PMC3114812-UAZ-r1-33-6", 
                    "object-type": "map-range", 
                    "to": "sent-PMC3114812-cmu-74"
                }, 
                {
                    "from": "sent-PMC3114812-UAZ-r1-16-5", 
                    "object-type": "map-range", 
                    "to": "sent-PMC3114812-cmu-10"
                }, 
                {
                    "from": "sent-PMC3114812-UAZ-r1-71-2", 
                    "object-type": "map-range", 
                    "to": "sent-PMC3114812-cmu-180"
                }, 
                {
                    "from": "sent-PMC3114812-UAZ-r1-17-6", 
                    "object-type": "map-range", 
                    "to": "sent-PMC3114812-cmu-31"
                }, 
                {
                    "from": "sent-PMC3114812-UAZ-r1-32-4", 
                    "object-type": "map-range", 
                    "to": "sent-PMC3114812-cmu-66"
                }, 
                {
                    "from": "sent-PMC3114812-UAZ-r1-53-2", 
                    "object-type": "map-range", 
                    "to": "sent-PMC3114812-cmu-113"
                }, 
                {
                    "from": "sent-PMC3114812-UAZ-r1-36-0", 
                    "object-type": "map-range", 
                    "to": "sent-PMC3114812-cmu-76"
                }, 
                {
                    "from": "sent-PMC3114812-UAZ-r1-38-1", 
                    "object-type": "map-range", 
                    "to": "sent-PMC3114812-cmu-85"
                }, 
                {
                    "from": "sent-PMC3114812-UAZ-r1-50-0", 
                    "object-type": "map-range", 
                    "to": "sent-PMC3114812-cmu-100"
                }, 
                {
                    "from": "sent-PMC3114812-UAZ-r1-52-0", 
                    "object-type": "map-range", 
                    "to": "sent-PMC3114812-cmu-107"
                }, 
                {
                    "from": "sent-PMC3114812-UAZ-r1-31-2", 
                    "object-type": "map-range", 
                    "to": "sent-PMC3114812-cmu-61"
                }, 
                {
                    "from": "sent-PMC3114812-UAZ-r1-62-2", 
                    "object-type": "map-range", 
                    "to": "sent-PMC3114812-cmu-150"
                }, 
                {
                    "from": "sent-PMC3114812-UAZ-r1-39-3", 
                    "object-type": "map-range", 
                    "to": "sent-PMC3114812-cmu-89"
                }, 
                {
                    "from": "sent-PMC3114812-UAZ-r1-37-2", 
                    "object-type": "map-range", 
                    "to": "sent-PMC3114812-cmu-83"
                }, 
                {
                    "from": "sent-PMC3114812-UAZ-r1-77-1", 
                    "object-type": "map-range", 
                    "to": "sent-PMC3114812-cmu-190"
                }, 
                {
                    "from": "sent-PMC3114812-UAZ-r1-28-1", 
                    "object-type": "map-range", 
                    "to": "sent-PMC3114812-cmu-48"
                }, 
                {
                    "from": "sent-PMC3114812-UAZ-r1-17-3", 
                    "object-type": "map-range", 
                    "to": "sent-PMC3114812-cmu-28"
                }, 
                {
                    "from": "sent-PMC3114812-UAZ-r1-74-0", 
                    "object-type": "map-range", 
                    "to": "sent-PMC3114812-cmu-183"
                }, 
                {
                    "from": "sent-PMC3114812-UAZ-r1-81-0", 
                    "object-type": "map-range", 
                    "to": "sent-PMC3114812-cmu-199"
                }, 
                {
                    "from": "sent-PMC3114812-UAZ-r1-16-6", 
                    "object-type": "map-range", 
                    "to": "sent-PMC3114812-cmu-13"
                }, 
                {
                    "from": "sent-PMC3114812-UAZ-r1-32-1", 
                    "object-type": "map-range", 
                    "to": "sent-PMC3114812-cmu-63"
                }, 
                {
                    "from": "sent-PMC3114812-UAZ-r1-36-3", 
                    "object-type": "map-range", 
                    "to": "sent-PMC3114812-cmu-79"
                }
            ], 
            "object-meta": {
                "component": "Pradeep-Matcher", 
                "object-type": "meta-info", 
                "organization": "CMU"
            }, 
            "object-type": "frame"
        }, 
        {
            "frame-id": "smap-PMC3114812-cmu-2", 
            "frame-type": "sentence-map", 
            "list1-meta": {
                "component": "MedScan", 
                "object-type": "meta-info", 
                "organization": "CMU"
            }, 
            "list2-meta": {
                "component": "Nicolas-NXML-Parser", 
                "object-type": "meta-info", 
                "organization": "CMU"
            }, 
            "map": [
                {
                    "from": "sent-PMC3114812-medscan-143", 
                    "object-type": "map-range", 
                    "to": "sent-PMC3114812-cmu-214"
                }, 
                {
                    "from": "sent-PMC3114812-medscan-20", 
                    "object-type": "map-range", 
                    "to": "sent-PMC3114812-cmu-37"
                }, 
                {
                    "from": "sent-PMC3114812-medscan-120", 
                    "object-type": "map-range", 
                    "to": "sent-PMC3114812-cmu-170"
                }, 
                {
                    "from": "sent-PMC3114812-medscan-114", 
                    "object-type": "map-range", 
                    "to": "sent-PMC3114812-cmu-164"
                }, 
                {
                    "from": "sent-PMC3114812-medscan-155", 
                    "object-type": "map-range", 
                    "to": "sent-PMC3114812-cmu-227"
                }, 
                {
                    "from": "sent-PMC3114812-medscan-12", 
                    "object-type": "map-range", 
                    "to": "sent-PMC3114812-cmu-22"
                }, 
                {
                    "from": "sent-PMC3114812-medscan-133", 
                    "object-type": "map-range", 
                    "to": "sent-PMC3114812-cmu-188"
                }, 
                {
                    "from": "sent-PMC3114812-medscan-55", 
                    "object-type": "map-range", 
                    "to": "sent-PMC3114812-cmu-84"
                }, 
                {
                    "from": "sent-PMC3114812-medscan-76", 
                    "object-type": "map-range", 
                    "to": "sent-PMC3114812-cmu-111"
                }, 
                {
                    "from": "sent-PMC3114812-medscan-73", 
                    "object-type": "map-range", 
                    "to": "sent-PMC3114812-cmu-108"
                }, 
                {
                    "from": "sent-PMC3114812-medscan-144", 
                    "object-type": "map-range", 
                    "to": "sent-PMC3114812-cmu-215"
                }, 
                {
                    "from": "sent-PMC3114812-medscan-79", 
                    "object-type": "map-range", 
                    "to": "sent-PMC3114812-cmu-116"
                }, 
                {
                    "from": "sent-PMC3114812-medscan-27", 
                    "object-type": "map-range", 
                    "to": "sent-PMC3114812-cmu-49"
                }, 
                {
                    "from": "sent-PMC3114812-medscan-50", 
                    "object-type": "map-range", 
                    "to": "sent-PMC3114812-cmu-78"
                }, 
                {
                    "from": "sent-PMC3114812-medscan-24", 
                    "object-type": "map-range", 
                    "to": "sent-PMC3114812-cmu-42"
                }, 
                {
                    "from": "sent-PMC3114812-medscan-68", 
                    "object-type": "map-range", 
                    "to": "sent-PMC3114812-cmu-103"
                }, 
                {
                    "from": "sent-PMC3114812-medscan-25", 
                    "object-type": "map-range", 
                    "to": "sent-PMC3114812-cmu-46"
                }, 
                {
                    "from": "sent-PMC3114812-medscan-4", 
                    "object-type": "map-range", 
                    "to": "sent-PMC3114812-cmu-9"
                }, 
                {
                    "from": "sent-PMC3114812-medscan-63", 
                    "object-type": "map-range", 
                    "to": "sent-PMC3114812-cmu-93"
                }, 
                {
                    "from": "sent-PMC3114812-medscan-124", 
                    "object-type": "map-range", 
                    "to": "sent-PMC3114812-cmu-175"
                }, 
                {
                    "from": "sent-PMC3114812-medscan-30", 
                    "object-type": "map-range", 
                    "to": "sent-PMC3114812-cmu-53"
                }, 
                {
                    "from": "sent-PMC3114812-medscan-106", 
                    "object-type": "map-range", 
                    "to": "sent-PMC3114812-cmu-151"
                }, 
                {
                    "from": "sent-PMC3114812-medscan-15", 
                    "object-type": "map-range", 
                    "to": "sent-PMC3114812-cmu-29"
                }, 
                {
                    "from": "sent-PMC3114812-medscan-95", 
                    "object-type": "map-range", 
                    "to": "sent-PMC3114812-cmu-136"
                }, 
                {
                    "from": "sent-PMC3114812-medscan-91", 
                    "object-type": "map-range", 
                    "to": "sent-PMC3114812-cmu-130"
                }, 
                {
                    "from": "sent-PMC3114812-medscan-42", 
                    "object-type": "map-range", 
                    "to": "sent-PMC3114812-cmu-68"
                }, 
                {
                    "from": "sent-PMC3114812-medscan-125", 
                    "object-type": "map-range", 
                    "to": "sent-PMC3114812-cmu-177"
                }, 
                {
                    "from": "sent-PMC3114812-medscan-115", 
                    "object-type": "map-range", 
                    "to": "sent-PMC3114812-cmu-165"
                }, 
                {
                    "from": "sent-PMC3114812-medscan-53", 
                    "object-type": "map-range", 
                    "to": "sent-PMC3114812-cmu-82"
                }, 
                {
                    "from": "sent-PMC3114812-medscan-109", 
                    "object-type": "map-range", 
                    "to": "sent-PMC3114812-cmu-159"
                }, 
                {
                    "from": "sent-PMC3114812-medscan-81", 
                    "object-type": "map-range", 
                    "to": "sent-PMC3114812-cmu-119"
                }, 
                {
                    "from": "sent-PMC3114812-medscan-58", 
                    "object-type": "map-range", 
                    "to": "sent-PMC3114812-cmu-87"
                }, 
                {
                    "from": "sent-PMC3114812-medscan-121", 
                    "object-type": "map-range", 
                    "to": "sent-PMC3114812-cmu-172"
                }, 
                {
                    "from": "sent-PMC3114812-medscan-122", 
                    "object-type": "map-range", 
                    "to": "sent-PMC3114812-cmu-173"
                }, 
                {
                    "from": "sent-PMC3114812-medscan-154", 
                    "object-type": "map-range", 
                    "to": "sent-PMC3114812-cmu-226"
                }, 
                {
                    "from": "sent-PMC3114812-medscan-112", 
                    "object-type": "map-range", 
                    "to": "sent-PMC3114812-cmu-162"
                }, 
                {
                    "from": "sent-PMC3114812-medscan-11", 
                    "object-type": "map-range", 
                    "to": "sent-PMC3114812-cmu-21"
                }, 
                {
                    "from": "sent-PMC3114812-medscan-1", 
                    "object-type": "map-range", 
                    "to": "sent-PMC3114812-cmu-2"
                }, 
                {
                    "from": "sent-PMC3114812-medscan-145", 
                    "object-type": "map-range", 
                    "to": "sent-PMC3114812-cmu-217"
                }, 
                {
                    "from": "sent-PMC3114812-medscan-29", 
                    "object-type": "map-range", 
                    "to": "sent-PMC3114812-cmu-51"
                }, 
                {
                    "from": "sent-PMC3114812-medscan-83", 
                    "object-type": "map-range", 
                    "to": "sent-PMC3114812-cmu-121"
                }, 
                {
                    "from": "sent-PMC3114812-medscan-147", 
                    "object-type": "map-range", 
                    "to": "sent-PMC3114812-cmu-219"
                }, 
                {
                    "from": "sent-PMC3114812-medscan-101", 
                    "object-type": "map-range", 
                    "to": "sent-PMC3114812-cmu-144"
                }, 
                {
                    "from": "sent-PMC3114812-medscan-135", 
                    "object-type": "map-range", 
                    "to": "sent-PMC3114812-cmu-192"
                }, 
                {
                    "from": "sent-PMC3114812-medscan-40", 
                    "object-type": "map-range", 
                    "to": "sent-PMC3114812-cmu-65"
                }, 
                {
                    "from": "sent-PMC3114812-medscan-141", 
                    "object-type": "map-range", 
                    "to": "sent-PMC3114812-cmu-212"
                }, 
                {
                    "from": "sent-PMC3114812-medscan-132", 
                    "object-type": "map-range", 
                    "to": "sent-PMC3114812-cmu-186"
                }, 
                {
                    "from": "sent-PMC3114812-medscan-99", 
                    "object-type": "map-range", 
                    "to": "sent-PMC3114812-cmu-141"
                }, 
                {
                    "from": "sent-PMC3114812-medscan-35", 
                    "object-type": "map-range", 
                    "to": "sent-PMC3114812-cmu-62"
                }, 
                {
                    "from": "sent-PMC3114812-medscan-111", 
                    "object-type": "map-range", 
                    "to": "sent-PMC3114812-cmu-161"
                }, 
                {
                    "from": "sent-PMC3114812-medscan-110", 
                    "object-type": "map-range", 
                    "to": "sent-PMC3114812-cmu-160"
                }, 
                {
                    "from": "sent-PMC3114812-medscan-152", 
                    "object-type": "map-range", 
                    "to": "sent-PMC3114812-cmu-224"
                }, 
                {
                    "from": "sent-PMC3114812-medscan-0", 
                    "object-type": "map-range", 
                    "to": "sent-PMC3114812-cmu-1"
                }, 
                {
                    "from": "sent-PMC3114812-medscan-57", 
                    "object-type": "map-range", 
                    "to": "sent-PMC3114812-cmu-86"
                }, 
                {
                    "from": "sent-PMC3114812-medscan-149", 
                    "object-type": "map-range", 
                    "to": "sent-PMC3114812-cmu-221"
                }, 
                {
                    "from": "sent-PMC3114812-medscan-108", 
                    "object-type": "map-range", 
                    "to": "sent-PMC3114812-cmu-157"
                }, 
                {
                    "from": "sent-PMC3114812-medscan-66", 
                    "object-type": "map-range", 
                    "to": "sent-PMC3114812-cmu-98"
                }, 
                {
                    "from": "sent-PMC3114812-medscan-31", 
                    "object-type": "map-range", 
                    "to": "sent-PMC3114812-cmu-57"
                }, 
                {
                    "from": "sent-PMC3114812-medscan-7", 
                    "object-type": "map-range", 
                    "to": "sent-PMC3114812-cmu-15"
                }, 
                {
                    "from": "sent-PMC3114812-medscan-44", 
                    "object-type": "map-range", 
                    "to": "sent-PMC3114812-cmu-71"
                }, 
                {
                    "from": "sent-PMC3114812-medscan-123", 
                    "object-type": "map-range", 
                    "to": "sent-PMC3114812-cmu-174"
                }, 
                {
                    "from": "sent-PMC3114812-medscan-62", 
                    "object-type": "map-range", 
                    "to": "sent-PMC3114812-cmu-92"
                }, 
                {
                    "from": "sent-PMC3114812-medscan-98", 
                    "object-type": "map-range", 
                    "to": "sent-PMC3114812-cmu-140"
                }, 
                {
                    "from": "sent-PMC3114812-medscan-32", 
                    "object-type": "map-range", 
                    "to": "sent-PMC3114812-cmu-59"
                }, 
                {
                    "from": "sent-PMC3114812-medscan-9", 
                    "object-type": "map-range", 
                    "to": "sent-PMC3114812-cmu-19"
                }, 
                {
                    "from": "sent-PMC3114812-medscan-28", 
                    "object-type": "map-range", 
                    "to": "sent-PMC3114812-cmu-50"
                }, 
                {
                    "from": "sent-PMC3114812-medscan-87", 
                    "object-type": "map-range", 
                    "to": "sent-PMC3114812-cmu-125"
                }, 
                {
                    "from": "sent-PMC3114812-medscan-93", 
                    "object-type": "map-range", 
                    "to": "sent-PMC3114812-cmu-133"
                }, 
                {
                    "from": "sent-PMC3114812-medscan-89", 
                    "object-type": "map-range", 
                    "to": "sent-PMC3114812-cmu-127"
                }, 
                {
                    "from": "sent-PMC3114812-medscan-104", 
                    "object-type": "map-range", 
                    "to": "sent-PMC3114812-cmu-149"
                }, 
                {
                    "from": "sent-PMC3114812-medscan-102", 
                    "object-type": "map-range", 
                    "to": "sent-PMC3114812-cmu-145"
                }, 
                {
                    "from": "sent-PMC3114812-medscan-146", 
                    "object-type": "map-range", 
                    "to": "sent-PMC3114812-cmu-218"
                }, 
                {
                    "from": "sent-PMC3114812-medscan-59", 
                    "object-type": "map-range", 
                    "to": "sent-PMC3114812-cmu-88"
                }, 
                {
                    "from": "sent-PMC3114812-medscan-82", 
                    "object-type": "map-range", 
                    "to": "sent-PMC3114812-cmu-120"
                }, 
                {
                    "from": "sent-PMC3114812-medscan-88", 
                    "object-type": "map-range", 
                    "to": "sent-PMC3114812-cmu-126"
                }, 
                {
                    "from": "sent-PMC3114812-medscan-118", 
                    "object-type": "map-range", 
                    "to": "sent-PMC3114812-cmu-168"
                }, 
                {
                    "from": "sent-PMC3114812-medscan-23", 
                    "object-type": "map-range", 
                    "to": "sent-PMC3114812-cmu-40"
                }, 
                {
                    "from": "sent-PMC3114812-medscan-8", 
                    "object-type": "map-range", 
                    "to": "sent-PMC3114812-cmu-17"
                }, 
                {
                    "from": "sent-PMC3114812-medscan-33", 
                    "object-type": "map-range", 
                    "to": "sent-PMC3114812-cmu-60"
                }, 
                {
                    "from": "sent-PMC3114812-medscan-107", 
                    "object-type": "map-range", 
                    "to": "sent-PMC3114812-cmu-153"
                }, 
                {
                    "from": "sent-PMC3114812-medscan-116", 
                    "object-type": "map-range", 
                    "to": "sent-PMC3114812-cmu-166"
                }, 
                {
                    "from": "sent-PMC3114812-medscan-151", 
                    "object-type": "map-range", 
                    "to": "sent-PMC3114812-cmu-223"
                }, 
                {
                    "from": "sent-PMC3114812-medscan-22", 
                    "object-type": "map-range", 
                    "to": "sent-PMC3114812-cmu-39"
                }, 
                {
                    "from": "sent-PMC3114812-medscan-119", 
                    "object-type": "map-range", 
                    "to": "sent-PMC3114812-cmu-169"
                }, 
                {
                    "from": "sent-PMC3114812-medscan-113", 
                    "object-type": "map-range", 
                    "to": "sent-PMC3114812-cmu-163"
                }, 
                {
                    "from": "sent-PMC3114812-medscan-85", 
                    "object-type": "map-range", 
                    "to": "sent-PMC3114812-cmu-123"
                }, 
                {
                    "from": "sent-PMC3114812-medscan-2", 
                    "object-type": "map-range", 
                    "to": "sent-PMC3114812-cmu-6"
                }, 
                {
                    "from": "sent-PMC3114812-medscan-18", 
                    "object-type": "map-range", 
                    "to": "sent-PMC3114812-cmu-35"
                }, 
                {
                    "from": "sent-PMC3114812-medscan-150", 
                    "object-type": "map-range", 
                    "to": "sent-PMC3114812-cmu-222"
                }, 
                {
                    "from": "sent-PMC3114812-medscan-96", 
                    "object-type": "map-range", 
                    "to": "sent-PMC3114812-cmu-137"
                }, 
                {
                    "from": "sent-PMC3114812-medscan-103", 
                    "object-type": "map-range", 
                    "to": "sent-PMC3114812-cmu-147"
                }, 
                {
                    "from": "sent-PMC3114812-medscan-46", 
                    "object-type": "map-range", 
                    "to": "sent-PMC3114812-cmu-73"
                }, 
                {
                    "from": "sent-PMC3114812-medscan-137", 
                    "object-type": "map-range", 
                    "to": "sent-PMC3114812-cmu-194"
                }, 
                {
                    "from": "sent-PMC3114812-medscan-65", 
                    "object-type": "map-range", 
                    "to": "sent-PMC3114812-cmu-97"
                }, 
                {
                    "from": "sent-PMC3114812-medscan-64", 
                    "object-type": "map-range", 
                    "to": "sent-PMC3114812-cmu-94"
                }, 
                {
                    "from": "sent-PMC3114812-medscan-148", 
                    "object-type": "map-range", 
                    "to": "sent-PMC3114812-cmu-220"
                }, 
                {
                    "from": "sent-PMC3114812-medscan-94", 
                    "object-type": "map-range", 
                    "to": "sent-PMC3114812-cmu-134"
                }, 
                {
                    "from": "sent-PMC3114812-medscan-90", 
                    "object-type": "map-range", 
                    "to": "sent-PMC3114812-cmu-128"
                }, 
                {
                    "from": "sent-PMC3114812-medscan-153", 
                    "object-type": "map-range", 
                    "to": "sent-PMC3114812-cmu-225"
                }, 
                {
                    "from": "sent-PMC3114812-medscan-100", 
                    "object-type": "map-range", 
                    "to": "sent-PMC3114812-cmu-143"
                }, 
                {
                    "from": "sent-PMC3114812-medscan-10", 
                    "object-type": "map-range", 
                    "to": "sent-PMC3114812-cmu-20"
                }, 
                {
                    "from": "sent-PMC3114812-medscan-142", 
                    "object-type": "map-range", 
                    "to": "sent-PMC3114812-cmu-213"
                }, 
                {
                    "from": "sent-PMC3114812-medscan-80", 
                    "object-type": "map-range", 
                    "to": "sent-PMC3114812-cmu-118"
                }, 
                {
                    "from": "sent-PMC3114812-medscan-75", 
                    "object-type": "map-range", 
                    "to": "sent-PMC3114812-cmu-110"
                }, 
                {
                    "from": "sent-PMC3114812-medscan-138", 
                    "object-type": "map-range", 
                    "to": "sent-PMC3114812-cmu-195"
                }, 
                {
                    "from": "sent-PMC3114812-medscan-71", 
                    "object-type": "map-range", 
                    "to": "sent-PMC3114812-cmu-106"
                }, 
                {
                    "from": "sent-PMC3114812-medscan-140", 
                    "object-type": "map-range", 
                    "to": "sent-PMC3114812-cmu-211"
                }, 
                {
                    "from": "sent-PMC3114812-medscan-84", 
                    "object-type": "map-range", 
                    "to": "sent-PMC3114812-cmu-122"
                }, 
                {
                    "from": "sent-PMC3114812-medscan-136", 
                    "object-type": "map-range", 
                    "to": "sent-PMC3114812-cmu-193"
                }, 
                {
                    "from": "sent-PMC3114812-medscan-117", 
                    "object-type": "map-range", 
                    "to": "sent-PMC3114812-cmu-167"
                }, 
                {
                    "from": "sent-PMC3114812-medscan-139", 
                    "object-type": "map-range", 
                    "to": "sent-PMC3114812-cmu-210"
                }, 
                {
                    "from": "sent-PMC3114812-medscan-61", 
                    "object-type": "map-range", 
                    "to": "sent-PMC3114812-cmu-90"
                }, 
                {
                    "from": "sent-PMC3114812-medscan-86", 
                    "object-type": "map-range", 
                    "to": "sent-PMC3114812-cmu-124"
                }, 
                {
                    "from": "sent-PMC3114812-medscan-43", 
                    "object-type": "map-range", 
                    "to": "sent-PMC3114812-cmu-69"
                }, 
                {
                    "from": "sent-PMC3114812-medscan-47", 
                    "object-type": "map-range", 
                    "to": "sent-PMC3114812-cmu-74"
                }, 
                {
                    "from": "sent-PMC3114812-medscan-5", 
                    "object-type": "map-range", 
                    "to": "sent-PMC3114812-cmu-10"
                }, 
                {
                    "from": "sent-PMC3114812-medscan-127", 
                    "object-type": "map-range", 
                    "to": "sent-PMC3114812-cmu-180"
                }, 
                {
                    "from": "sent-PMC3114812-medscan-17", 
                    "object-type": "map-range", 
                    "to": "sent-PMC3114812-cmu-31"
                }, 
                {
                    "from": "sent-PMC3114812-medscan-41", 
                    "object-type": "map-range", 
                    "to": "sent-PMC3114812-cmu-66"
                }, 
                {
                    "from": "sent-PMC3114812-medscan-77", 
                    "object-type": "map-range", 
                    "to": "sent-PMC3114812-cmu-113"
                }, 
                {
                    "from": "sent-PMC3114812-medscan-48", 
                    "object-type": "map-range", 
                    "to": "sent-PMC3114812-cmu-76"
                }, 
                {
                    "from": "sent-PMC3114812-medscan-56", 
                    "object-type": "map-range", 
                    "to": "sent-PMC3114812-cmu-85"
                }, 
                {
                    "from": "sent-PMC3114812-medscan-67", 
                    "object-type": "map-range", 
                    "to": "sent-PMC3114812-cmu-100"
                }, 
                {
                    "from": "sent-PMC3114812-medscan-34", 
                    "object-type": "map-range", 
                    "to": "sent-PMC3114812-cmu-61"
                }, 
                {
                    "from": "sent-PMC3114812-medscan-105", 
                    "object-type": "map-range", 
                    "to": "sent-PMC3114812-cmu-150"
                }, 
                {
                    "from": "sent-PMC3114812-medscan-92", 
                    "object-type": "map-range", 
                    "to": "sent-PMC3114812-cmu-131"
                }, 
                {
                    "from": "sent-PMC3114812-medscan-60", 
                    "object-type": "map-range", 
                    "to": "sent-PMC3114812-cmu-89"
                }, 
                {
                    "from": "sent-PMC3114812-medscan-54", 
                    "object-type": "map-range", 
                    "to": "sent-PMC3114812-cmu-83"
                }, 
                {
                    "from": "sent-PMC3114812-medscan-126", 
                    "object-type": "map-range", 
                    "to": "sent-PMC3114812-cmu-48"
                }, 
                {
                    "from": "sent-PMC3114812-medscan-126", 
                    "object-type": "map-range", 
                    "to": "sent-PMC3114812-cmu-48"
                }, 
                {
                    "from": "sent-PMC3114812-medscan-14", 
                    "object-type": "map-range", 
                    "to": "sent-PMC3114812-cmu-28"
                }, 
                {
                    "from": "sent-PMC3114812-medscan-129", 
                    "object-type": "map-range", 
                    "to": "sent-PMC3114812-cmu-183"
                }, 
                {
                    "from": "sent-PMC3114812-medscan-6", 
                    "object-type": "map-range", 
                    "to": "sent-PMC3114812-cmu-13"
                }, 
                {
                    "from": "sent-PMC3114812-medscan-38", 
                    "object-type": "map-range", 
                    "to": "sent-PMC3114812-cmu-63"
                }, 
                {
                    "from": "sent-PMC3114812-medscan-51", 
                    "object-type": "map-range", 
                    "to": "sent-PMC3114812-cmu-79"
                }
            ], 
            "object-meta": {
                "component": "Pradeep-Matcher", 
                "object-type": "meta-info", 
                "organization": "CMU"
            }, 
            "object-type": "frame"
        }
    ], 
    "object-meta": {
        "component": "Pradeep-Matcher", 
        "component-type": "machine", 
        "doc-id": "PMC3114812", 
        "object-type": "meta-info", 
        "organization": "CMU"
    }, 
    "object-type": "frame-collection"
}
