{
  "evidence": ["Finally , active Ras was able to induce IL-2 production when combined with ionomycin stimulation in a MEK-1-dependent fashion .","Ras could restore IL-2","Ras was able to induce IL-2","Ras-mediated IL-2","The mechanism of active Ras mediated IL-2 costimulation mimics the mechanism of CD28 mediated costimulation .","We have previously published that introduction of active Ras could restore IL-2 production in already anergized T cells     ."],
  "extracted_information": {
    "interaction_type": "increases_activity",
    "negative_information": false,
    "participant_a": {
      "entity_text": "Ras",
      "entity_type": "protein",
      "identifier": "Uniprot:A0PDV5",
      "in_model": false
    },
    "participant_b": {
      "entity_text": "IL-2",
      "entity_type": "protein",
      "identifier": "Uniprot:P60568",
      "in_model": true
    }
  },
  "fries_provenance": [
    {
      "component": "REACH",
      "frame-file": "PMC3176298.uaz.events",
      "frame-id": "evem-PMC3176298-UAZ-r1-2-9-5",
      "passage-id": "pass-PMC3176298-UAZ-r1-2",
      "passage-number": 2,
      "passage-section-id": "N/A",
      "passage-section-name": "abstract",
      "sentence": "Finally , active Ras was able to induce IL-2 production when combined with ionomycin stimulation in a MEK-1-dependent fashion .",
      "text": "Ras was able to induce IL-2",
      "uaz-sentence": "Finally , active Ras was able to induce IL-2 production when combined with ionomycin stimulation in a MEK-1-dependent fashion .",
      "uaz-sentence-start": 1620
    },
    {
      "component": "REACH",
      "frame-file": "PMC3176298.uaz.events",
      "frame-id": "evem-PMC3176298-UAZ-r1-27-2-41",
      "passage-id": "pass-PMC3176298-UAZ-r1-27",
      "passage-number": 27,
      "passage-section-id": "s2a",
      "passage-section-name": "N/A",
      "sentence": "We have previously published that introduction of active Ras could restore IL-2 production in already anergized T cells     .",
      "text": "Ras could restore IL-2",
      "uaz-event-epistemic-status": "hypothesis",
      "uaz-sentence": "We have previously published that introduction of active Ras could restore IL-2 production in already anergized T cells     .",
      "uaz-sentence-start": 303
    },
    {
      "component": "REACH",
      "frame-file": "PMC3176298.uaz.events",
      "frame-id": "evem-PMC3176298-UAZ-r1-40-0-53",
      "passage-id": "pass-PMC3176298-UAZ-r1-40",
      "passage-number": 40,
      "passage-section-id": "fig-5",
      "passage-section-name": "fig-5",
      "sentence": "The mechanism of active Ras mediated IL-2 costimulation mimics the mechanism of CD28 mediated costimulation .",
      "text": "Ras-mediated IL-2",
      "uaz-sentence": "The mechanism of active Ras mediated IL-2 costimulation mimics the mechanism of CD28 mediated costimulation .",
      "uaz-sentence-start": 0
    }
  ],
  "model_relation": "extension",
  "pmc_id": "PMC3176298",
  "reader_type": "machine",
  "reading_complete": "2015-07-02T21:30:59Z",
  "reading_started": "2015-07-02T21:30:54Z",
  "submitter": "FRIES"
}
