{
  "evidence": ["ERK MAP kinase signaling pathway using a pharmacologic inhibitor of MEK-1 caused a dose dependent inhibition in ERK phosphorylation and IL-2","We found that inhibition of the MEK and ERK MAP kinase signaling pathway using a pharmacologic inhibitor of MEK-1 caused a dose dependent inhibition in ERK phosphorylation and IL-2 production in Ras61L transduced cells stimulated with ionomycin , arguing that this pathway is critical to the ability of Ras61L to costimulate IL-2 production           ."],
  "extracted_information": {
    "interaction_type": "inhibits_modification",
    "negative_information": false,
    "modifications": [
      {
        "modification_type": "phosphorylation"
      }
    ],
    "participant_a": {
      "entity_text": "ERK MAP",
      "entity_type": "protein",
      "identifier": "ungrounded",
      "in_model": false
    },
    "participant_b": {
      "entity_text": "IL-2",
      "entity_type": "protein",
      "identifier": "Uniprot:P60568",
      "in_model": true
    }
  },
  "fries_provenance": [
    {
      "component": "REACH",
      "frame-file": "PMC3176298.uaz.events",
      "frame-id": "evem-PMC3176298-UAZ-r1-44-5-74",
      "passage-id": "pass-PMC3176298-UAZ-r1-44",
      "passage-number": 44,
      "passage-section-id": "s2d",
      "passage-section-name": "N/A",
      "sentence": "We found that inhibition of the MEK and ERK MAP kinase signaling pathway using a pharmacologic inhibitor of MEK-1 caused a dose dependent inhibition in ERK phosphorylation and IL-2 production in Ras61L transduced cells stimulated with ionomycin , arguing that this pathway is critical to the ability of Ras61L to costimulate IL-2 production           .",
      "text": "ERK MAP kinase signaling pathway using a pharmacologic inhibitor of MEK-1 caused a dose dependent inhibition in ERK phosphorylation and IL-2",
      "uaz-event-epistemic-status": "hypothesis",
      "uaz-sentence": "We found that inhibition of the MEK and ERK MAP kinase signaling pathway using a pharmacologic inhibitor of MEK-1 caused a dose dependent inhibition in ERK phosphorylation and IL-2 production in Ras61L transduced cells stimulated with ionomycin , arguing that this pathway is critical to the ability of Ras61L to costimulate IL-2 production           .",
      "uaz-sentence-start": 923
    }
  ],
  "model_relation": "extension",
  "pmc_id": "PMC3176298",
  "reader_type": "machine",
  "reading_complete": "2015-07-02T21:30:59Z",
  "reading_started": "2015-07-02T21:30:54Z",
  "submitter": "FRIES"
}
