{
  "evidence": ["The importance of integrin recycling was also recently highlighted in a prostate cancer cell model where Trop-2, a trans-membrane glycoprotein, promoted metastatic dissemination by inducing the recycling and re-localization of integrin \\u03b15\\u03b21 from focal adhesions to the leading edges [ ].","Trop-2, a trans-membrane glycoprotein, promoted metastatic dissemination by inducing the recycling and re-localization of integrin \\u03b15\\u03b21 from focal adhesions"],
  "extracted_information": {
    "interaction_type": "increases",
    "negative_information": false,
    "participant_a": {
      "entity_text": "Trop-2",
      "entity_type": "protein",
      "identifier": "Uniprot:P09758",
      "in_model": false
    },
    "participant_b": {
      "entity_text": "focal adhesions",
      "entity_type": "complex",
      "identifier": "GO:0005925",
      "in_model": true
    }
  },
  "fries_provenance": [
    {
      "component": "MedScan",
      "frame-file": "PMC3849283.cmu.medscan",
      "frame-id": "relm-PMC3849283-cmu-medscan-558",
      "sentence": "The importance of integrin recycling was also recently highlighted in a prostate cancer cell model where Trop-2, a trans-membrane glycoprotein, promoted metastatic dissemination by inducing the recycling and re-localization of integrin \\u03b15\\u03b21 from focal adhesions to the leading edges [ ].",
      "text": "Trop-2, a trans-membrane glycoprotein, promoted metastatic dissemination by inducing the recycling and re-localization of integrin \\u03b15\\u03b21 from focal adhesions"
    }
  ],
  "model_relation": "extension",
  "pmc_id": "PMC3849283",
  "reader_type": "machine",
  "reading_complete": "2015-07-02T21:31:33Z",
  "reading_started": "2015-07-02T21:31:28Z",
  "submitter": "FRIES"
}
