{
  "evidence": ["( C ) Surface representation of Vav1 DH-PH-C1 shows a pocket in the C1 domain in the same position in which phorbol acetate is bound to PKCdelta ( shown for comparison ) .","acetate is bound to PKCdelta"],
  "extracted_information": {
    "interaction_type": "binds",
    "negative_information": false,
    "participant_a": {
      "entity_text": "acetate",
      "entity_type": "chemical",
      "identifier": "CHEBI:47622",
      "in_model": true
    },
    "participant_b": {
      "entity_text": "PKCdelta",
      "entity_type": "protein",
      "identifier": "Uniprot:P10829",
      "in_model": true
    }
  },
  "fries_provenance": [
    {
      "component": "REACH",
      "frame-file": "PMC2427238.uaz.events",
      "frame-id": "evem-PMC2427238-UAZ-r1-114-4-7",
      "passage-id": "pass-PMC2427238-UAZ-r1-114",
      "passage-number": 114,
      "passage-section-id": "fig-4",
      "passage-section-name": "fig-4",
      "sentence": "( C ) Surface representation of Vav1 DH-PH-C1 shows a pocket in the C1 domain in the same position in which phorbol acetate is bound to PKCdelta ( shown for comparison ) .",
      "text": "acetate is bound to PKCdelta",
      "uaz-sentence": "( C ) Surface representation of Vav1 DH-PH-C1 shows a pocket in the C1 domain in the same position in which phorbol acetate is bound to PKCdelta ( shown for comparison ) .",
      "uaz-sentence-start": 365
    }
  ],
  "model_relation": "extension",
  "pmc_id": "PMC2427238",
  "reader_type": "machine",
  "reading_complete": "2015-06-15T20:25:29Z",
  "reading_started": "2015-06-15T20:25:24Z",
  "submitter": "FRIES"
}
