{
  "evidence": ["Myc represses the transcription of key growth control , differentiation and tumor suppressor genes including GAS1 , p15INK4 , p21CIP1 , p27KIP1 , p57KIP2 , growth arrest and DNA damage 34 ( GADD34 ) , GADD45 , C and EBPalpha and GADD153 ( C and EBPzeta )           .","Myc represses the transcription of key growth control, differentiation and tumor suppressor genes including GAS1, p15INK4, p21CIP1, p27KIP1, p57KIP2, growth arrest and DNA damage"],
  "extracted_information": {
    "interaction_type": "decreases_activity",
    "negative_information": false,
    "participant_a": {
      "entity_text": "Myc",
      "entity_type": "protein",
      "identifier": "Uniprot:P01106",
      "in_model": true
    },
    "participant_b": {
      "entity_text": "damage",
      "entity_type": "protein",
      "identifier": "Uniprot:Q9HCI5",
      "in_model": false
    }
  },
  "fries_provenance": [
    {
      "cmu-sentence-epistemic-status": "implication",
      "cmu-sentence-epistemic-value": 0.6,
      "component": "REACH",
      "frame-file": "PMC2879254.uaz.events",
      "frame-id": "evem-PMC2879254-UAZ-r1-17-4-32",
      "passage-id": "pass-PMC2879254-UAZ-r1-17",
      "passage-number": 17,
      "passage-section-id": "N/A",
      "passage-section-name": "N/A",
      "sentence": "Myc represses the transcription of key growth control , differentiation and tumor suppressor genes including GAS1 , p15INK4 , p21CIP1 , p27KIP1 , p57KIP2 , growth arrest and DNA damage 34 ( GADD34 ) , GADD45 , C and EBPalpha and GADD153 ( C and EBPzeta )           .",
      "text": "Myc represses the transcription of key growth control, differentiation and tumor suppressor genes including GAS1, p15INK4, p21CIP1, p27KIP1, p57KIP2, growth arrest and DNA damage",
      "uaz-sentence": "Myc represses the transcription of key growth control , differentiation and tumor suppressor genes including GAS1 , p15INK4 , p21CIP1 , p27KIP1 , p57KIP2 , growth arrest and DNA damage 34 ( GADD34 ) , GADD45 , C and EBPalpha and GADD153 ( C and EBPzeta )           .",
      "uaz-sentence-start": 718
    }
  ],
  "model_relation": "extension",
  "pmc_id": "PMC2879254",
  "reader_type": "machine",
  "reading_complete": "2015-06-15T21:18:54Z",
  "reading_started": "2015-06-15T21:18:49Z",
  "submitter": "FRIES"
}
