{
  "evidence": ["Max siRNA expression , or expression of a Myc construct lacking the HLH and LZ ( Max interacting ) region , also reduces Myc repression of C and EBPdelta promoter activity .","Max siRNA expression, or expression of a Myc construct lacking the HLH/LZ (Max interacting) region, also reduces Myc","Max siRNA treatment reduces Myc","Max siRNA treatments attenuate Myc","Miz1 and Max siRNA treatments attenuate Myc repression of endogenous C and EBPdelta expression .","The results indicated that Max siRNA treatment reduces Myc repression of C and EBPdelta promoter activity and this reduction in Myc repression is comparable to Miz1 siRNA treatment ( Figure    ."],
  "extracted_information": {
    "interaction_type": "increases_activity",
    "negative_information": false,
    "participant_a": {
      "entity_text": "Max",
      "entity_type": "protein",
      "identifier": "Uniprot:P61244",
      "in_model": true
    },
    "participant_b": {
      "entity_text": "Myc",
      "entity_type": "protein",
      "identifier": "Uniprot:P01106",
      "in_model": true
    }
  },
  "fries_provenance": [
    {
      "component": "REACH",
      "frame-file": "PMC2879254.uaz.events",
      "frame-id": "evem-PMC2879254-UAZ-r1-1-12-7",
      "passage-id": "pass-PMC2879254-UAZ-r1-1",
      "passage-number": 1,
      "passage-section-id": "N/A",
      "passage-section-name": "abstract",
      "sentence": "Max siRNA expression , or expression of a Myc construct lacking the HLH and LZ ( Max interacting ) region , also reduces Myc repression of C and EBPdelta promoter activity .",
      "text": "Max siRNA expression, or expression of a Myc construct lacking the HLH/LZ (Max interacting) region, also reduces Myc",
      "uaz-sentence": "Max siRNA expression , or expression of a Myc construct lacking the HLH and LZ ( Max interacting ) region , also reduces Myc repression of C and EBPdelta promoter activity .",
      "uaz-sentence-start": 1711
    },
    {
      "component": "REACH",
      "frame-file": "PMC2879254.uaz.events",
      "frame-id": "evem-PMC2879254-UAZ-r1-1-13-14",
      "passage-id": "pass-PMC2879254-UAZ-r1-1",
      "passage-number": 1,
      "passage-section-id": "N/A",
      "passage-section-name": "abstract",
      "sentence": "Miz1 and Max siRNA treatments attenuate Myc repression of endogenous C and EBPdelta expression .",
      "text": "Max siRNA treatments attenuate Myc",
      "uaz-sentence": "Miz1 and Max siRNA treatments attenuate Myc repression of endogenous C and EBPdelta expression .",
      "uaz-sentence-start": 1872
    },
    {
      "cmu-sentence-epistemic-status": "implication",
      "cmu-sentence-epistemic-value": 0.6,
      "component": "REACH",
      "frame-file": "PMC2879254.uaz.events",
      "frame-id": "evem-PMC2879254-UAZ-r1-48-4-54",
      "passage-id": "pass-PMC2879254-UAZ-r1-48",
      "passage-number": 48,
      "passage-section-id": "N/A",
      "passage-section-name": "N/A",
      "sentence": "The results indicated that Max siRNA treatment reduces Myc repression of C and EBPdelta promoter activity and this reduction in Myc repression is comparable to Miz1 siRNA treatment ( Figure    .",
      "text": "Max siRNA treatment reduces Myc",
      "uaz-event-epistemic-status": "hypothesis",
      "uaz-sentence": "The results indicated that Max siRNA treatment reduces Myc repression of C and EBPdelta promoter activity and this reduction in Myc repression is comparable to Miz1 siRNA treatment ( Figure    .",
      "uaz-sentence-start": 782
    },
    {
      "component": "REACH",
      "frame-file": "PMC2879254.uaz.events",
      "frame-id": "evem-PMC2879254-UAZ-r1-8-5-24",
      "passage-id": "pass-PMC2879254-UAZ-r1-8",
      "passage-number": 8,
      "passage-section-id": "N/A",
      "passage-section-name": "N/A",
      "sentence": "Max siRNA expression , or expression of a Myc construct lacking the HLH and LZ ( Max interacting ) region , also reduces Myc repression of C and EBPdelta promoter activity .",
      "text": "Max siRNA expression, or expression of a Myc construct lacking the HLH/LZ (Max interacting) region, also reduces Myc",
      "uaz-sentence": "Max siRNA expression , or expression of a Myc construct lacking the HLH and LZ ( Max interacting ) region , also reduces Myc repression of C and EBPdelta promoter activity .",
      "uaz-sentence-start": 738
    },
    {
      "component": "REACH",
      "frame-file": "PMC2879254.uaz.events",
      "frame-id": "evem-PMC2879254-UAZ-r1-8-6-23",
      "passage-id": "pass-PMC2879254-UAZ-r1-8",
      "passage-number": 8,
      "passage-section-id": "N/A",
      "passage-section-name": "N/A",
      "sentence": "Miz1 and Max siRNA treatments attenuate Myc repression of endogenous C and EBPdelta expression .",
      "text": "Max siRNA treatments attenuate Myc",
      "uaz-sentence": "Miz1 and Max siRNA treatments attenuate Myc repression of endogenous C and EBPdelta expression .",
      "uaz-sentence-start": 899
    }
  ],
  "model_relation": "extension",
  "pmc_id": "PMC2879254",
  "reader_type": "machine",
  "reading_complete": "2015-06-15T21:18:54Z",
  "reading_started": "2015-06-15T21:18:49Z",
  "submitter": "FRIES"
}
