{
  "evidence": ["As expected , FLAG tagged PTB-U-box and PTB-U-box ( HQ ) were co-immunoprecipitated with IGF-1R and IR as efficiently as PTB upon treatment with IGF-1 or insulin ( Fig .","Next , we examined whether PTB-U-box can interact with IGF-1R and IR and promote their ubiquitination .","PTB-U-box and PTB-U-box(HQ) were co-immunoprecipitated with IGF-1R and IR","PTB-U-box can interact with IGF-1R and IR","PTB-U-box(HQ) were co-immunoprecipitated with IGF-1R and IR"],
  "extracted_information": {
    "interaction_type": "binds",
    "negative_information": false,
    "participant_a": {
      "entity_text": "PTB-U-box",
      "entity_type": "protein",
      "identifier": "ungrounded",
      "in_model": false
    },
    "participant_b": {
      "entity_text": "IR",
      "entity_type": "protein",
      "identifier": "Uniprot:P06213",
      "in_model": true
    }
  },
  "fries_provenance": [
    {
      "component": "REACH",
      "frame-file": "PMC4148113.uaz.events",
      "frame-id": "evem-PMC4148113-UAZ-r1-20-0-21",
      "passage-id": "pass-PMC4148113-UAZ-r1-20",
      "passage-number": 20,
      "passage-section-id": "s2_2",
      "passage-section-name": "N/A",
      "sentence": "Next , we examined whether PTB-U-box can interact with IGF-1R and IR and promote their ubiquitination .",
      "text": "PTB-U-box can interact with IGF-1R and IR",
      "uaz-sentence": "Next , we examined whether PTB-U-box can interact with IGF-1R and IR and promote their ubiquitination .",
      "uaz-sentence-start": 0
    },
    {
      "component": "REACH",
      "frame-file": "PMC4148113.uaz.events",
      "frame-id": "evem-PMC4148113-UAZ-r1-20-0-25",
      "passage-id": "pass-PMC4148113-UAZ-r1-20",
      "passage-number": 20,
      "passage-section-id": "s2_2",
      "passage-section-name": "N/A",
      "sentence": "Next , we examined whether PTB-U-box can interact with IGF-1R and IR and promote their ubiquitination .",
      "text": "PTB-U-box can interact with IGF-1R and IR",
      "uaz-event-epistemic-status": "hypothesis",
      "uaz-sentence": "Next , we examined whether PTB-U-box can interact with IGF-1R and IR and promote their ubiquitination .",
      "uaz-sentence-start": 0
    },
    {
      "component": "REACH",
      "frame-file": "PMC4148113.uaz.events",
      "frame-id": "evem-PMC4148113-UAZ-r1-20-2-31",
      "passage-id": "pass-PMC4148113-UAZ-r1-20",
      "passage-number": 20,
      "passage-section-id": "s2_2",
      "passage-section-name": "N/A",
      "sentence": "As expected , FLAG tagged PTB-U-box and PTB-U-box ( HQ ) were co-immunoprecipitated with IGF-1R and IR as efficiently as PTB upon treatment with IGF-1 or insulin ( Fig .",
      "text": "PTB-U-box and PTB-U-box(HQ) were co-immunoprecipitated with IGF-1R and IR",
      "uaz-sentence": "As expected , FLAG tagged PTB-U-box and PTB-U-box ( HQ ) were co-immunoprecipitated with IGF-1R and IR as efficiently as PTB upon treatment with IGF-1 or insulin ( Fig .",
      "uaz-sentence-start": 270
    },
    {
      "component": "REACH",
      "frame-file": "PMC4148113.uaz.events",
      "frame-id": "evem-PMC4148113-UAZ-r1-20-2-36",
      "passage-id": "pass-PMC4148113-UAZ-r1-20",
      "passage-number": 20,
      "passage-section-id": "s2_2",
      "passage-section-name": "N/A",
      "sentence": "As expected , FLAG tagged PTB-U-box and PTB-U-box ( HQ ) were co-immunoprecipitated with IGF-1R and IR as efficiently as PTB upon treatment with IGF-1 or insulin ( Fig .",
      "text": "PTB-U-box(HQ) were co-immunoprecipitated with IGF-1R and IR",
      "uaz-sentence": "As expected , FLAG tagged PTB-U-box and PTB-U-box ( HQ ) were co-immunoprecipitated with IGF-1R and IR as efficiently as PTB upon treatment with IGF-1 or insulin ( Fig .",
      "uaz-sentence-start": 270
    }
  ],
  "model_relation": "extension",
  "pmc_id": "PMC4148113",
  "reader_type": "machine",
  "reading_complete": "2015-06-15T23:57:40Z",
  "reading_started": "2015-06-15T23:57:35Z",
  "submitter": "FRIES"
}
