{
  "evidence": ["TLK dependent phosphorylation of Rad9 at S328 and T355 may be a signal for re-setting Rad9 function and disengaging the 9-1-1 complex from DNA such that cells can terminate checkpoint signaling and resume cell cycle progression once DNA lesions have been repaired        .","TLK-dependent phosphorylation of Rad9 at S328"],
  "extracted_information": {
    "interaction_type": "adds_modification",
    "negative_information": false,
    "modifications": [
      {
        "modification_type": "phosphorylation",
        "site": 328
      },
      {
        "modification_type": "phosphorylation",
        "site": 355
      }
    ],
    "participant_a": {
      "entity_text": "TLK",
      "entity_type": "protein",
      "identifier": "Uniprot:Q03526",
      "in_model": false
    },
    "participant_b": {
      "entity_text": "Rad9",
      "entity_type": "protein",
      "identifier": "Uniprot:P26306",
      "in_model": true
    }
  },
  "fries_provenance": [
    {
      "component": "REACH",
      "frame-file": "PMC3869942.uaz.events",
      "frame-id": "evem-PMC3869942-UAZ-r1-81-3-86",
      "passage-id": "pass-PMC3869942-UAZ-r1-81",
      "passage-number": 81,
      "passage-section-id": "s4",
      "passage-section-name": "discussion",
      "sentence": "TLK dependent phosphorylation of Rad9 at S328 and T355 may be a signal for re-setting Rad9 function and disengaging the 9-1-1 complex from DNA such that cells can terminate checkpoint signaling and resume cell cycle progression once DNA lesions have been repaired        .",
      "text": "TLK-dependent phosphorylation of Rad9 at S328",
      "uaz-sentence": "TLK dependent phosphorylation of Rad9 at S328 and T355 may be a signal for re-setting Rad9 function and disengaging the 9-1-1 complex from DNA such that cells can terminate checkpoint signaling and resume cell cycle progression once DNA lesions have been repaired        .",
      "uaz-sentence-start": 642
    }
  ],
  "model_relation": "extension",
  "pmc_id": "PMC3869942",
  "reader_type": "machine",
  "reading_complete": "2015-06-15T23:38:20Z",
  "reading_started": "2015-06-15T23:38:15Z",
  "submitter": "FRIES"
}
