{
    "frames": [
        {
            "end-pos": {
                "context-end": "Stimulation/1", 
                "object-type": "relative-pos", 
                "offset": 11, 
                "reference": "sent-PMC2196252-medscan-0"
            }, 
            "frame-id": "ment-PMC2196252-cmu-junsys-0", 
            "frame-type": "entity-mention", 
            "object-meta": {
                "component": "Jun-System", 
                "object-type": "meta-info", 
                "organization": "CMU"
            }, 
            "object-type": "frame", 
            "sentence": "sent-PMC2196252-medscan-0", 
            "start-pos": {
                "context-start": "Stimulation/1", 
                "object-type": "relative-pos", 
                "offset": 0, 
                "reference": "sent-PMC2196252-medscan-0"
            }, 
            "text": "Stimulation", 
            "xrefs": []
        }, 
        {
            "end-pos": {
                "context-end": "events/1", 
                "object-type": "relative-pos", 
                "offset": 99, 
                "reference": "sent-PMC2196252-medscan-0"
            }, 
            "frame-id": "ment-PMC2196252-cmu-junsys-2", 
            "frame-type": "entity-mention", 
            "object-meta": {
                "component": "Jun-System", 
                "object-type": "meta-info", 
                "organization": "CMU"
            }, 
            "object-type": "frame", 
            "sentence": "sent-PMC2196252-medscan-0", 
            "start-pos": {
                "context-start": "events/1", 
                "object-type": "relative-pos", 
                "offset": 93, 
                "reference": "sent-PMC2196252-medscan-0"
            }, 
            "text": "events", 
            "xrefs": []
        }, 
        {
            "end-pos": {
                "context-end": "proteins/1", 
                "object-type": "relative-pos", 
                "offset": 164, 
                "reference": "sent-PMC2196252-medscan-0"
            }, 
            "frame-id": "ment-PMC2196252-cmu-junsys-4", 
            "frame-type": "entity-mention", 
            "object-meta": {
                "component": "Jun-System", 
                "object-type": "meta-info", 
                "organization": "CMU"
            }, 
            "object-type": "frame", 
            "sentence": "sent-PMC2196252-medscan-0", 
            "start-pos": {
                "context-start": "proteins/1", 
                "object-type": "relative-pos", 
                "offset": 156, 
                "reference": "sent-PMC2196252-medscan-0"
            }, 
            "text": "proteins", 
            "xrefs": []
        }, 
        {
            "end-pos": {
                "context-end": "proteins/1", 
                "object-type": "relative-pos", 
                "offset": 85, 
                "reference": "sent-PMC2196252-medscan-2"
            }, 
            "frame-id": "ment-PMC2196252-cmu-junsys-7", 
            "frame-type": "entity-mention", 
            "object-meta": {
                "component": "Jun-System", 
                "object-type": "meta-info", 
                "organization": "CMU"
            }, 
            "object-type": "frame", 
            "sentence": "sent-PMC2196252-medscan-2", 
            "start-pos": {
                "context-start": "proteins/1", 
                "object-type": "relative-pos", 
                "offset": 77, 
                "reference": "sent-PMC2196252-medscan-2"
            }, 
            "text": "proteins", 
            "xrefs": []
        }, 
        {
            "end-pos": {
                "context-end": "B/1", 
                "object-type": "relative-pos", 
                "offset": 77, 
                "reference": "sent-PMC2196252-medscan-3"
            }, 
            "frame-id": "ment-PMC2196252-cmu-junsys-11", 
            "frame-type": "entity-mention", 
            "object-meta": {
                "component": "Jun-System", 
                "object-type": "meta-info", 
                "organization": "CMU"
            }, 
            "object-type": "frame", 
            "sentence": "sent-PMC2196252-medscan-3", 
            "start-pos": {
                "context-start": "B/1", 
                "object-type": "relative-pos", 
                "offset": 76, 
                "reference": "sent-PMC2196252-medscan-3"
            }, 
            "text": "B", 
            "xrefs": []
        }, 
        {
            "end-pos": {
                "context-end": "HS1/1", 
                "object-type": "relative-pos", 
                "offset": 55, 
                "reference": "sent-PMC2196252-medscan-6"
            }, 
            "frame-id": "ment-PMC2196252-cmu-junsys-18", 
            "frame-type": "entity-mention", 
            "object-meta": {
                "component": "Jun-System", 
                "object-type": "meta-info", 
                "organization": "CMU"
            }, 
            "object-type": "frame", 
            "sentence": "sent-PMC2196252-medscan-6", 
            "start-pos": {
                "context-start": "HS1/1", 
                "object-type": "relative-pos", 
                "offset": 52, 
                "reference": "sent-PMC2196252-medscan-6"
            }, 
            "text": "HS1", 
            "xrefs": []
        }, 
        {
            "end-pos": {
                "context-end": "HS1/1", 
                "object-type": "relative-pos", 
                "offset": 55, 
                "reference": "sent-PMC2196252-medscan-6"
            }, 
            "frame-id": "ment-PMC2196252-cmu-junsys-19", 
            "frame-type": "entity-mention", 
            "object-meta": {
                "component": "Jun-System", 
                "object-type": "meta-info", 
                "organization": "CMU"
            }, 
            "object-type": "frame", 
            "sentence": "sent-PMC2196252-medscan-6", 
            "start-pos": {
                "context-start": "HS1/1", 
                "object-type": "relative-pos", 
                "offset": 52, 
                "reference": "sent-PMC2196252-medscan-6"
            }, 
            "text": "HS1", 
            "xrefs": []
        }, 
        {
            "end-pos": {
                "context-end": "HS1-FF/1", 
                "object-type": "relative-pos", 
                "offset": 73, 
                "reference": "sent-PMC2196252-medscan-15"
            }, 
            "frame-id": "ment-PMC2196252-cmu-junsys-29", 
            "frame-type": "entity-mention", 
            "object-meta": {
                "component": "Jun-System", 
                "object-type": "meta-info", 
                "organization": "CMU"
            }, 
            "object-type": "frame", 
            "sentence": "sent-PMC2196252-medscan-15", 
            "start-pos": {
                "context-start": "HS1-FF/1", 
                "object-type": "relative-pos", 
                "offset": 67, 
                "reference": "sent-PMC2196252-medscan-15"
            }, 
            "text": "HS1-FF", 
            "xrefs": []
        }, 
        {
            "end-pos": {
                "context-end": "which/1", 
                "object-type": "relative-pos", 
                "offset": 80, 
                "reference": "sent-PMC2196252-medscan-15"
            }, 
            "frame-id": "ment-PMC2196252-cmu-junsys-30", 
            "frame-type": "entity-mention", 
            "object-meta": {
                "component": "Jun-System", 
                "object-type": "meta-info", 
                "organization": "CMU"
            }, 
            "object-type": "frame", 
            "sentence": "sent-PMC2196252-medscan-15", 
            "start-pos": {
                "context-start": "which/1", 
                "object-type": "relative-pos", 
                "offset": 75, 
                "reference": "sent-PMC2196252-medscan-15"
            }, 
            "text": "which", 
            "xrefs": []
        }, 
        {
            "end-pos": {
                "context-end": "proteins/1", 
                "object-type": "relative-pos", 
                "offset": 61, 
                "reference": "sent-PMC2196252-medscan-34"
            }, 
            "frame-id": "ment-PMC2196252-cmu-junsys-54", 
            "frame-type": "entity-mention", 
            "object-meta": {
                "component": "Jun-System", 
                "object-type": "meta-info", 
                "organization": "CMU"
            }, 
            "object-type": "frame", 
            "sentence": "sent-PMC2196252-medscan-34", 
            "start-pos": {
                "context-start": "proteins/1", 
                "object-type": "relative-pos", 
                "offset": 53, 
                "reference": "sent-PMC2196252-medscan-34"
            }, 
            "text": "proteins", 
            "xrefs": []
        }, 
        {
            "end-pos": {
                "context-end": "cross-linking/1", 
                "object-type": "relative-pos", 
                "offset": 109, 
                "reference": "sent-PMC2196252-medscan-37"
            }, 
            "frame-id": "ment-PMC2196252-cmu-junsys-69", 
            "frame-type": "entity-mention", 
            "object-meta": {
                "component": "Jun-System", 
                "object-type": "meta-info", 
                "organization": "CMU"
            }, 
            "object-type": "frame", 
            "sentence": "sent-PMC2196252-medscan-37", 
            "start-pos": {
                "context-start": "cross-linking/1", 
                "object-type": "relative-pos", 
                "offset": 96, 
                "reference": "sent-PMC2196252-medscan-37"
            }, 
            "text": "cross-linking", 
            "xrefs": []
        }, 
        {
            "end-pos": {
                "context-end": "activation/1", 
                "object-type": "relative-pos", 
                "offset": 135, 
                "reference": "sent-PMC2196252-medscan-37"
            }, 
            "frame-id": "ment-PMC2196252-cmu-junsys-70", 
            "frame-type": "entity-mention", 
            "object-meta": {
                "component": "Jun-System", 
                "object-type": "meta-info", 
                "organization": "CMU"
            }, 
            "object-type": "frame", 
            "sentence": "sent-PMC2196252-medscan-37", 
            "start-pos": {
                "context-start": "activation/1", 
                "object-type": "relative-pos", 
                "offset": 125, 
                "reference": "sent-PMC2196252-medscan-37"
            }, 
            "text": "activation", 
            "xrefs": []
        }, 
        {
            "end-pos": {
                "context-end": "HS1/1", 
                "object-type": "relative-pos", 
                "offset": 40, 
                "reference": "sent-PMC2196252-medscan-41"
            }, 
            "frame-id": "ment-PMC2196252-cmu-junsys-76", 
            "frame-type": "entity-mention", 
            "object-meta": {
                "component": "Jun-System", 
                "object-type": "meta-info", 
                "organization": "CMU"
            }, 
            "object-type": "frame", 
            "sentence": "sent-PMC2196252-medscan-41", 
            "start-pos": {
                "context-start": "HS1/1", 
                "object-type": "relative-pos", 
                "offset": 37, 
                "reference": "sent-PMC2196252-medscan-41"
            }, 
            "text": "HS1", 
            "xrefs": []
        }, 
        {
            "end-pos": {
                "context-end": "HS1-FF/1", 
                "object-type": "relative-pos", 
                "offset": 138, 
                "reference": "sent-PMC2196252-medscan-48"
            }, 
            "frame-id": "ment-PMC2196252-cmu-junsys-87", 
            "frame-type": "entity-mention", 
            "object-meta": {
                "component": "Jun-System", 
                "object-type": "meta-info", 
                "organization": "CMU"
            }, 
            "object-type": "frame", 
            "sentence": "sent-PMC2196252-medscan-48", 
            "start-pos": {
                "context-start": "HS1-FF/1", 
                "object-type": "relative-pos", 
                "offset": 132, 
                "reference": "sent-PMC2196252-medscan-48"
            }, 
            "text": "HS1-FF", 
            "xrefs": []
        }, 
        {
            "end-pos": {
                "context-end": "which/1", 
                "object-type": "relative-pos", 
                "offset": 148, 
                "reference": "sent-PMC2196252-medscan-48"
            }, 
            "frame-id": "ment-PMC2196252-cmu-junsys-88", 
            "frame-type": "entity-mention", 
            "object-meta": {
                "component": "Jun-System", 
                "object-type": "meta-info", 
                "organization": "CMU"
            }, 
            "object-type": "frame", 
            "sentence": "sent-PMC2196252-medscan-48", 
            "start-pos": {
                "context-start": "which/1", 
                "object-type": "relative-pos", 
                "offset": 143, 
                "reference": "sent-PMC2196252-medscan-48"
            }, 
            "text": "which", 
            "xrefs": []
        }, 
        {
            "end-pos": {
                "context-end": "HS1/1", 
                "object-type": "relative-pos", 
                "offset": 102, 
                "reference": "sent-PMC2196252-medscan-55"
            }, 
            "frame-id": "ment-PMC2196252-cmu-junsys-94", 
            "frame-type": "entity-mention", 
            "object-meta": {
                "component": "Jun-System", 
                "object-type": "meta-info", 
                "organization": "CMU"
            }, 
            "object-type": "frame", 
            "sentence": "sent-PMC2196252-medscan-55", 
            "start-pos": {
                "context-start": "HS1/1", 
                "object-type": "relative-pos", 
                "offset": 99, 
                "reference": "sent-PMC2196252-medscan-55"
            }, 
            "text": "HS1", 
            "xrefs": []
        }, 
        {
            "end-pos": {
                "context-end": "HS1/1", 
                "object-type": "relative-pos", 
                "offset": 67, 
                "reference": "sent-PMC2196252-medscan-62"
            }, 
            "frame-id": "ment-PMC2196252-cmu-junsys-108", 
            "frame-type": "entity-mention", 
            "object-meta": {
                "component": "Jun-System", 
                "object-type": "meta-info", 
                "organization": "CMU"
            }, 
            "object-type": "frame", 
            "sentence": "sent-PMC2196252-medscan-62", 
            "start-pos": {
                "context-start": "HS1/1", 
                "object-type": "relative-pos", 
                "offset": 64, 
                "reference": "sent-PMC2196252-medscan-62"
            }, 
            "text": "HS1", 
            "xrefs": []
        }, 
        {
            "end-pos": {
                "context-end": "HS1/1", 
                "object-type": "relative-pos", 
                "offset": 37, 
                "reference": "sent-PMC2196252-medscan-66"
            }, 
            "frame-id": "ment-PMC2196252-cmu-junsys-114", 
            "frame-type": "entity-mention", 
            "object-meta": {
                "component": "Jun-System", 
                "object-type": "meta-info", 
                "organization": "CMU"
            }, 
            "object-type": "frame", 
            "sentence": "sent-PMC2196252-medscan-66", 
            "start-pos": {
                "context-start": "HS1/1", 
                "object-type": "relative-pos", 
                "offset": 34, 
                "reference": "sent-PMC2196252-medscan-66"
            }, 
            "text": "HS1", 
            "xrefs": []
        }, 
        {
            "end-pos": {
                "context-end": "gene/1", 
                "object-type": "relative-pos", 
                "offset": 31, 
                "reference": "sent-PMC2196252-medscan-73"
            }, 
            "frame-id": "ment-PMC2196252-cmu-junsys-120", 
            "frame-type": "entity-mention", 
            "object-meta": {
                "component": "Jun-System", 
                "object-type": "meta-info", 
                "organization": "CMU"
            }, 
            "object-type": "frame", 
            "sentence": "sent-PMC2196252-medscan-73", 
            "start-pos": {
                "context-start": "gene/1", 
                "object-type": "relative-pos", 
                "offset": 27, 
                "reference": "sent-PMC2196252-medscan-73"
            }, 
            "text": "gene", 
            "xrefs": []
        }, 
        {
            "end-pos": {
                "context-end": "it/1", 
                "object-type": "relative-pos", 
                "offset": 13, 
                "reference": "sent-PMC2196252-medscan-73"
            }, 
            "frame-id": "ment-PMC2196252-cmu-junsys-121", 
            "frame-type": "entity-mention", 
            "object-meta": {
                "component": "Jun-System", 
                "object-type": "meta-info", 
                "organization": "CMU"
            }, 
            "object-type": "frame", 
            "sentence": "sent-PMC2196252-medscan-73", 
            "start-pos": {
                "context-start": "it/1", 
                "object-type": "relative-pos", 
                "offset": 11, 
                "reference": "sent-PMC2196252-medscan-73"
            }, 
            "text": "it", 
            "xrefs": []
        }, 
        {
            "end-pos": {
                "context-end": "expression/1", 
                "object-type": "relative-pos", 
                "offset": 42, 
                "reference": "sent-PMC2196252-medscan-73"
            }, 
            "frame-id": "ment-PMC2196252-cmu-junsys-122", 
            "frame-type": "entity-mention", 
            "object-meta": {
                "component": "Jun-System", 
                "object-type": "meta-info", 
                "organization": "CMU"
            }, 
            "object-type": "frame", 
            "sentence": "sent-PMC2196252-medscan-73", 
            "start-pos": {
                "context-start": "expression/1", 
                "object-type": "relative-pos", 
                "offset": 32, 
                "reference": "sent-PMC2196252-medscan-73"
            }, 
            "text": "expression", 
            "xrefs": []
        }, 
        {
            "end-pos": {
                "context-end": "domain/1", 
                "object-type": "relative-pos", 
                "offset": 26, 
                "reference": "sent-PMC2196252-medscan-77"
            }, 
            "frame-id": "ment-PMC2196252-cmu-junsys-128", 
            "frame-type": "entity-mention", 
            "object-meta": {
                "component": "Jun-System", 
                "object-type": "meta-info", 
                "organization": "CMU"
            }, 
            "object-type": "frame", 
            "sentence": "sent-PMC2196252-medscan-77", 
            "start-pos": {
                "context-start": "domain/1", 
                "object-type": "relative-pos", 
                "offset": 20, 
                "reference": "sent-PMC2196252-medscan-77"
            }, 
            "text": "domain", 
            "xrefs": []
        }, 
        {
            "end-pos": {
                "context-end": "HS1/1", 
                "object-type": "relative-pos", 
                "offset": 58, 
                "reference": "sent-PMC2196252-medscan-78"
            }, 
            "frame-id": "ment-PMC2196252-cmu-junsys-130", 
            "frame-type": "entity-mention", 
            "object-meta": {
                "component": "Jun-System", 
                "object-type": "meta-info", 
                "organization": "CMU"
            }, 
            "object-type": "frame", 
            "sentence": "sent-PMC2196252-medscan-78", 
            "start-pos": {
                "context-start": "HS1/1", 
                "object-type": "relative-pos", 
                "offset": 55, 
                "reference": "sent-PMC2196252-medscan-78"
            }, 
            "text": "HS1", 
            "xrefs": []
        }, 
        {
            "end-pos": {
                "context-end": "model/1", 
                "object-type": "relative-pos", 
                "offset": 9, 
                "reference": "sent-PMC2196252-medscan-79"
            }, 
            "frame-id": "ment-PMC2196252-cmu-junsys-132", 
            "frame-type": "entity-mention", 
            "object-meta": {
                "component": "Jun-System", 
                "object-type": "meta-info", 
                "organization": "CMU"
            }, 
            "object-type": "frame", 
            "sentence": "sent-PMC2196252-medscan-79", 
            "start-pos": {
                "context-start": "model/1", 
                "object-type": "relative-pos", 
                "offset": 4, 
                "reference": "sent-PMC2196252-medscan-79"
            }, 
            "text": "model", 
            "xrefs": []
        }, 
        {
            "end-pos": {
                "context-end": "which/1", 
                "object-type": "relative-pos", 
                "offset": 74, 
                "reference": "sent-PMC2196252-medscan-79"
            }, 
            "frame-id": "ment-PMC2196252-cmu-junsys-133", 
            "frame-type": "entity-mention", 
            "object-meta": {
                "component": "Jun-System", 
                "object-type": "meta-info", 
                "organization": "CMU"
            }, 
            "object-type": "frame", 
            "sentence": "sent-PMC2196252-medscan-79", 
            "start-pos": {
                "context-start": "which/1", 
                "object-type": "relative-pos", 
                "offset": 69, 
                "reference": "sent-PMC2196252-medscan-79"
            }, 
            "text": "which", 
            "xrefs": []
        }, 
        {
            "end-pos": {
                "context-end": "stimulation/1", 
                "object-type": "relative-pos", 
                "offset": 92, 
                "reference": "sent-PMC2196252-medscan-86"
            }, 
            "frame-id": "ment-PMC2196252-cmu-junsys-145", 
            "frame-type": "entity-mention", 
            "object-meta": {
                "component": "Jun-System", 
                "object-type": "meta-info", 
                "organization": "CMU"
            }, 
            "object-type": "frame", 
            "sentence": "sent-PMC2196252-medscan-86", 
            "start-pos": {
                "context-start": "stimulation/1", 
                "object-type": "relative-pos", 
                "offset": 81, 
                "reference": "sent-PMC2196252-medscan-86"
            }, 
            "text": "stimulation", 
            "xrefs": []
        }, 
        {
            "end-pos": {
                "context-end": "which/1", 
                "object-type": "relative-pos", 
                "offset": 99, 
                "reference": "sent-PMC2196252-medscan-86"
            }, 
            "frame-id": "ment-PMC2196252-cmu-junsys-146", 
            "frame-type": "entity-mention", 
            "object-meta": {
                "component": "Jun-System", 
                "object-type": "meta-info", 
                "organization": "CMU"
            }, 
            "object-type": "frame", 
            "sentence": "sent-PMC2196252-medscan-86", 
            "start-pos": {
                "context-start": "which/1", 
                "object-type": "relative-pos", 
                "offset": 94, 
                "reference": "sent-PMC2196252-medscan-86"
            }, 
            "text": "which", 
            "xrefs": []
        }, 
        {
            "end-pos": {
                "context-end": "HS1/1", 
                "object-type": "relative-pos", 
                "offset": 89, 
                "reference": "sent-PMC2196252-medscan-87"
            }, 
            "frame-id": "ment-PMC2196252-cmu-junsys-148", 
            "frame-type": "entity-mention", 
            "object-meta": {
                "component": "Jun-System", 
                "object-type": "meta-info", 
                "organization": "CMU"
            }, 
            "object-type": "frame", 
            "sentence": "sent-PMC2196252-medscan-87", 
            "start-pos": {
                "context-start": "HS1/1", 
                "object-type": "relative-pos", 
                "offset": 86, 
                "reference": "sent-PMC2196252-medscan-87"
            }, 
            "text": "HS1", 
            "xrefs": []
        }, 
        {
            "end-pos": {
                "context-end": "that/1", 
                "object-type": "relative-pos", 
                "offset": 56, 
                "reference": "sent-PMC2196252-medscan-88"
            }, 
            "frame-id": "ment-PMC2196252-cmu-junsys-151", 
            "frame-type": "entity-mention", 
            "object-meta": {
                "component": "Jun-System", 
                "object-type": "meta-info", 
                "organization": "CMU"
            }, 
            "object-type": "frame", 
            "sentence": "sent-PMC2196252-medscan-88", 
            "start-pos": {
                "context-start": "that/1", 
                "object-type": "relative-pos", 
                "offset": 52, 
                "reference": "sent-PMC2196252-medscan-88"
            }, 
            "text": "that", 
            "xrefs": []
        }, 
        {
            "end-pos": {
                "object-type": "relative-pos", 
                "offset": -1, 
                "reference": "NOT LINKED"
            }, 
            "frame-id": "ment-PMC2196252-cmu-junsys-152", 
            "frame-type": "entity-mention", 
            "object-meta": {
                "component": "Jun-System", 
                "object-type": "meta-info", 
                "organization": "CMU"
            }, 
            "object-type": "frame", 
            "sentence": "NOT LINKED", 
            "start-pos": {
                "object-type": "relative-pos", 
                "offset": -1, 
                "reference": "NOT LINKED"
            }, 
            "text": "apoptosis", 
            "xrefs": []
        }, 
        {
            "arguments": [
                {
                    "arg": "ment-PMC2196252-cmu-junsys-0", 
                    "object-type": "argument", 
                    "type": "arg0"
                }, 
                {
                    "arg": "ment-PMC2196252-cmu-junsys-2", 
                    "object-type": "argument", 
                    "type": "arg1"
                }
            ], 
            "context": "Stimulation of the antigen receptor on B lymphocytes (BCR) induces intracellular biochemical events", 
            "end-pos": {
                "object-type": "relative-pos", 
                "offset": -1, 
                "reference": "sent-PMC2196252-medscan-0"
            }, 
            "frame-id": "eve-PMC2196252-cmu-junsys-153", 
            "frame-type": "event-mention", 
            "object-meta": {
                "component": "Jun-System", 
                "object-type": "meta-info", 
                "organization": "CMU"
            }, 
            "object-type": "frame", 
            "sentence": "sent-PMC2196252-medscan-0", 
            "start-pos": {
                "object-type": "relative-pos", 
                "offset": -1, 
                "reference": "sent-PMC2196252-medscan-0"
            }, 
            "text": "induces", 
            "type": "induce"
        }, 
        {
            "arguments": [
                {
                    "arg": "ment-PMC2196252-cmu-junsys-4", 
                    "object-type": "argument", 
                    "type": "arg1"
                }
            ], 
            "context": "phosphorylation of cellular proteins", 
            "end-pos": {
                "context-end": "phosphorylation/1", 
                "object-type": "relative-pos", 
                "offset": 143, 
                "reference": "sent-PMC2196252-medscan-0"
            }, 
            "frame-id": "eve-PMC2196252-cmu-junsys-154", 
            "frame-type": "event-mention", 
            "object-meta": {
                "component": "Jun-System", 
                "object-type": "meta-info", 
                "organization": "CMU"
            }, 
            "object-type": "frame", 
            "sentence": "sent-PMC2196252-medscan-0", 
            "start-pos": {
                "context-start": "phosphorylation/1", 
                "object-type": "relative-pos", 
                "offset": 128, 
                "reference": "sent-PMC2196252-medscan-0"
            }, 
            "text": "phosphorylation", 
            "type": "phosphorylation"
        }, 
        {
            "arguments": [
                {
                    "arg": "ment-PMC2196252-cmu-junsys-7", 
                    "object-type": "argument", 
                    "type": "arg1"
                }
            ], 
            "context": "phosphorylation of various cellular proteins", 
            "end-pos": {
                "context-end": "phosphorylation/1", 
                "object-type": "relative-pos", 
                "offset": 56, 
                "reference": "sent-PMC2196252-medscan-2"
            }, 
            "frame-id": "eve-PMC2196252-cmu-junsys-155", 
            "frame-type": "event-mention", 
            "object-meta": {
                "component": "Jun-System", 
                "object-type": "meta-info", 
                "organization": "CMU"
            }, 
            "object-type": "frame", 
            "sentence": "sent-PMC2196252-medscan-2", 
            "start-pos": {
                "context-start": "phosphorylation/1", 
                "object-type": "relative-pos", 
                "offset": 41, 
                "reference": "sent-PMC2196252-medscan-2"
            }, 
            "text": "phosphorylation", 
            "type": "phosphorylation"
        }, 
        {
            "arguments": [
                {
                    "arg": "ment-PMC2196252-cmu-junsys-11", 
                    "object-type": "argument", 
                    "type": "arg1"
                }
            ], 
            "context": "B cell activation", 
            "end-pos": {
                "object-type": "relative-pos", 
                "offset": -1, 
                "reference": "NOT LINKED"
            }, 
            "frame-id": "eve-PMC2196252-cmu-junsys-156", 
            "frame-type": "event-mention", 
            "object-meta": {
                "component": "Jun-System", 
                "object-type": "meta-info", 
                "organization": "CMU"
            }, 
            "object-type": "frame", 
            "sentence": "NOT LINKED", 
            "start-pos": {
                "object-type": "relative-pos", 
                "offset": -1, 
                "reference": "NOT LINKED"
            }, 
            "text": "activation", 
            "type": "activate"
        }, 
        {
            "arguments": [
                {
                    "arg": "ment-PMC2196252-cmu-junsys-18", 
                    "object-type": "argument", 
                    "type": "arg1"
                }
            ], 
            "context": "HS1 phosphorylation", 
            "end-pos": {
                "context-end": "phosphorylation/1", 
                "object-type": "relative-pos", 
                "offset": 71, 
                "reference": "sent-PMC2196252-medscan-6"
            }, 
            "frame-id": "eve-PMC2196252-cmu-junsys-157", 
            "frame-type": "event-mention", 
            "object-meta": {
                "component": "Jun-System", 
                "object-type": "meta-info", 
                "organization": "CMU"
            }, 
            "object-type": "frame", 
            "sentence": "sent-PMC2196252-medscan-6", 
            "start-pos": {
                "context-start": "phosphorylation/1", 
                "object-type": "relative-pos", 
                "offset": 56, 
                "reference": "sent-PMC2196252-medscan-6"
            }, 
            "text": "phosphorylation", 
            "type": "phosphorylation"
        }, 
        {
            "arguments": [
                {
                    "arg": "ment-PMC2196252-cmu-junsys-19", 
                    "object-type": "argument", 
                    "type": "arg1"
                }
            ], 
            "context": "HS1 phosphorylation", 
            "end-pos": {
                "context-end": "phosphorylation/1", 
                "object-type": "relative-pos", 
                "offset": 71, 
                "reference": "sent-PMC2196252-medscan-6"
            }, 
            "frame-id": "eve-PMC2196252-cmu-junsys-158", 
            "frame-type": "event-mention", 
            "object-meta": {
                "component": "Jun-System", 
                "object-type": "meta-info", 
                "organization": "CMU"
            }, 
            "object-type": "frame", 
            "sentence": "sent-PMC2196252-medscan-6", 
            "start-pos": {
                "context-start": "phosphorylation/1", 
                "object-type": "relative-pos", 
                "offset": 56, 
                "reference": "sent-PMC2196252-medscan-6"
            }, 
            "text": "phosphorylation", 
            "type": "phosphorylation"
        }, 
        {
            "arguments": [
                {
                    "arg": "ment-PMC2196252-cmu-junsys-54", 
                    "object-type": "argument", 
                    "type": "arg1"
                }
            ], 
            "context": "phosphorylation of various cellular proteins", 
            "end-pos": {
                "context-end": "phosphorylation/1", 
                "object-type": "relative-pos", 
                "offset": 32, 
                "reference": "sent-PMC2196252-medscan-34"
            }, 
            "frame-id": "eve-PMC2196252-cmu-junsys-159", 
            "frame-type": "event-mention", 
            "object-meta": {
                "component": "Jun-System", 
                "object-type": "meta-info", 
                "organization": "CMU"
            }, 
            "object-type": "frame", 
            "sentence": "sent-PMC2196252-medscan-34", 
            "start-pos": {
                "context-start": "phosphorylation/1", 
                "object-type": "relative-pos", 
                "offset": 17, 
                "reference": "sent-PMC2196252-medscan-34"
            }, 
            "text": "phosphorylation", 
            "type": "phosphorylation"
        }, 
        {
            "arguments": [
                {
                    "arg": "ment-PMC2196252-cmu-medscan-66", 
                    "object-type": "argument", 
                    "type": "arg0"
                }, 
                {
                    "arg": "ment-PMC2196252-cmu-medscan-67", 
                    "object-type": "argument", 
                    "type": "arg1"
                }
            ], 
            "context": "Lyn activates Syk", 
            "end-pos": {
                "context-end": "activates/1", 
                "object-type": "relative-pos", 
                "offset": 36, 
                "reference": "sent-PMC2196252-medscan-37"
            }, 
            "frame-id": "eve-PMC2196252-cmu-junsys-160", 
            "frame-type": "event-mention", 
            "object-meta": {
                "component": "Jun-System", 
                "object-type": "meta-info", 
                "organization": "CMU"
            }, 
            "object-type": "frame", 
            "sentence": "sent-PMC2196252-medscan-37", 
            "start-pos": {
                "context-start": "activates/1", 
                "object-type": "relative-pos", 
                "offset": 27, 
                "reference": "sent-PMC2196252-medscan-37"
            }, 
            "text": "activates", 
            "type": "activate"
        }, 
        {
            "arguments": [
                {
                    "arg": "ment-PMC2196252-cmu-junsys-69", 
                    "object-type": "argument", 
                    "type": "arg0"
                }, 
                {
                    "arg": "ment-PMC2196252-cmu-junsys-70", 
                    "object-type": "argument", 
                    "type": "arg1"
                }
            ], 
            "context": "cross-linking induces little activation", 
            "end-pos": {
                "context-end": "induces/1", 
                "object-type": "relative-pos", 
                "offset": 117, 
                "reference": "sent-PMC2196252-medscan-37"
            }, 
            "frame-id": "eve-PMC2196252-cmu-junsys-161", 
            "frame-type": "event-mention", 
            "object-meta": {
                "component": "Jun-System", 
                "object-type": "meta-info", 
                "organization": "CMU"
            }, 
            "object-type": "frame", 
            "sentence": "sent-PMC2196252-medscan-37", 
            "start-pos": {
                "context-start": "induces/1", 
                "object-type": "relative-pos", 
                "offset": 110, 
                "reference": "sent-PMC2196252-medscan-37"
            }, 
            "text": "induces", 
            "type": "induce"
        }, 
        {
            "arguments": [
                {
                    "arg": "ment-PMC2196252-cmu-junsys-76", 
                    "object-type": "argument", 
                    "type": "arg1"
                }
            ], 
            "context": "phosphorylation of HS1", 
            "end-pos": {
                "object-type": "relative-pos", 
                "offset": -1, 
                "reference": "NOT LINKED"
            }, 
            "frame-id": "eve-PMC2196252-cmu-junsys-162", 
            "frame-type": "event-mention", 
            "object-meta": {
                "component": "Jun-System", 
                "object-type": "meta-info", 
                "organization": "CMU"
            }, 
            "object-type": "frame", 
            "sentence": "NOT LINKED", 
            "start-pos": {
                "object-type": "relative-pos", 
                "offset": -1, 
                "reference": "NOT LINKED"
            }, 
            "text": "phosphorylation", 
            "type": "phosphorylation"
        }, 
        {
            "arguments": [
                {
                    "arg": "ment-PMC2196252-cmu-junsys-94", 
                    "object-type": "argument", 
                    "type": "arg1"
                }
            ], 
            "context": "phosphorylation of HS1", 
            "end-pos": {
                "context-end": "phosphorylation/1", 
                "object-type": "relative-pos", 
                "offset": 78, 
                "reference": "sent-PMC2196252-medscan-52"
            }, 
            "frame-id": "eve-PMC2196252-cmu-junsys-163", 
            "frame-type": "event-mention", 
            "object-meta": {
                "component": "Jun-System", 
                "object-type": "meta-info", 
                "organization": "CMU"
            }, 
            "object-type": "frame", 
            "sentence": "sent-PMC2196252-medscan-52", 
            "start-pos": {
                "context-start": "phosphorylation/1", 
                "object-type": "relative-pos", 
                "offset": 63, 
                "reference": "sent-PMC2196252-medscan-52"
            }, 
            "text": "phosphorylation", 
            "type": "phosphorylation"
        }, 
        {
            "arguments": [
                {
                    "arg": "ment-PMC2196252-cmu-junsys-108", 
                    "object-type": "argument", 
                    "type": "arg1"
                }
            ], 
            "context": "phosphorylation of HS1", 
            "end-pos": {
                "object-type": "relative-pos", 
                "offset": -1, 
                "reference": "NOT LINKED"
            }, 
            "frame-id": "eve-PMC2196252-cmu-junsys-164", 
            "frame-type": "event-mention", 
            "object-meta": {
                "component": "Jun-System", 
                "object-type": "meta-info", 
                "organization": "CMU"
            }, 
            "object-type": "frame", 
            "sentence": "NOT LINKED", 
            "start-pos": {
                "object-type": "relative-pos", 
                "offset": -1, 
                "reference": "NOT LINKED"
            }, 
            "text": "phosphorylation", 
            "type": "phosphorylation"
        }, 
        {
            "arguments": [
                {
                    "arg": "ment-PMC2196252-cmu-junsys-114", 
                    "object-type": "argument", 
                    "type": "arg1"
                }
            ], 
            "context": "phosphorylation of HS1", 
            "end-pos": {
                "context-end": "phosphorylation/1", 
                "object-type": "relative-pos", 
                "offset": 30, 
                "reference": "sent-PMC2196252-medscan-66"
            }, 
            "frame-id": "eve-PMC2196252-cmu-junsys-165", 
            "frame-type": "event-mention", 
            "object-meta": {
                "component": "Jun-System", 
                "object-type": "meta-info", 
                "organization": "CMU"
            }, 
            "object-type": "frame", 
            "sentence": "sent-PMC2196252-medscan-66", 
            "start-pos": {
                "context-start": "phosphorylation/1", 
                "object-type": "relative-pos", 
                "offset": 15, 
                "reference": "sent-PMC2196252-medscan-66"
            }, 
            "text": "phosphorylation", 
            "type": "phosphorylation"
        }, 
        {
            "arguments": [
                {
                    "arg": "ment-PMC2196252-cmu-medscan-117", 
                    "object-type": "argument", 
                    "type": "arg1"
                }
            ], 
            "context": "Tyrosine phosphorylation", 
            "end-pos": {
                "context-end": "phosphorylation/1", 
                "object-type": "relative-pos", 
                "offset": 24, 
                "reference": "sent-PMC2196252-medscan-70"
            }, 
            "frame-id": "eve-PMC2196252-cmu-junsys-166", 
            "frame-type": "event-mention", 
            "object-meta": {
                "component": "Jun-System", 
                "object-type": "meta-info", 
                "organization": "CMU"
            }, 
            "object-type": "frame", 
            "sentence": "sent-PMC2196252-medscan-70", 
            "start-pos": {
                "context-start": "phosphorylation/1", 
                "object-type": "relative-pos", 
                "offset": 9, 
                "reference": "sent-PMC2196252-medscan-70"
            }, 
            "text": "phosphorylation", 
            "type": "phosphorylation"
        }, 
        {
            "arguments": [
                {
                    "arg": "ment-PMC2196252-cmu-junsys-120", 
                    "object-type": "argument", 
                    "type": "arg1"
                }
            ], 
            "context": "regulation of an as yet unidentified gene", 
            "end-pos": {
                "object-type": "relative-pos", 
                "offset": -1, 
                "reference": "NOT LINKED"
            }, 
            "frame-id": "eve-PMC2196252-cmu-junsys-167", 
            "frame-type": "event-mention", 
            "object-meta": {
                "component": "Jun-System", 
                "object-type": "meta-info", 
                "organization": "CMU"
            }, 
            "object-type": "frame", 
            "sentence": "NOT LINKED", 
            "start-pos": {
                "object-type": "relative-pos", 
                "offset": -1, 
                "reference": "NOT LINKED"
            }, 
            "text": "regulation", 
            "type": "regulate"
        }, 
        {
            "arguments": [
                {
                    "arg": "ment-PMC2196252-cmu-junsys-121", 
                    "object-type": "argument", 
                    "type": "arg0"
                }, 
                {
                    "arg": "ment-PMC2196252-cmu-junsys-122", 
                    "object-type": "argument", 
                    "type": "arg1"
                }
            ], 
            "context": "it may regulate gene expression", 
            "end-pos": {
                "context-end": "regulate/1", 
                "object-type": "relative-pos", 
                "offset": 26, 
                "reference": "sent-PMC2196252-medscan-73"
            }, 
            "frame-id": "eve-PMC2196252-cmu-junsys-168", 
            "frame-type": "event-mention", 
            "object-meta": {
                "component": "Jun-System", 
                "object-type": "meta-info", 
                "organization": "CMU"
            }, 
            "object-type": "frame", 
            "sentence": "sent-PMC2196252-medscan-73", 
            "start-pos": {
                "context-start": "regulate/1", 
                "object-type": "relative-pos", 
                "offset": 18, 
                "reference": "sent-PMC2196252-medscan-73"
            }, 
            "text": "regulate", 
            "type": "regulate"
        }, 
        {
            "arguments": [
                {
                    "arg": "ment-PMC2196252-cmu-junsys-128", 
                    "object-type": "argument", 
                    "type": "arg0"
                }, 
                {
                    "arg": "ment-PMC2196252-cmu-junsys-130", 
                    "object-type": "argument", 
                    "type": "arg1"
                }
            ], 
            "context": "domain binds tyrosine-phosphorylated HS1", 
            "end-pos": {
                "context-end": "binds/1", 
                "object-type": "relative-pos", 
                "offset": 32, 
                "reference": "sent-PMC2196252-medscan-77"
            }, 
            "frame-id": "eve-PMC2196252-cmu-junsys-169", 
            "frame-type": "event-mention", 
            "object-meta": {
                "component": "Jun-System", 
                "object-type": "meta-info", 
                "organization": "CMU"
            }, 
            "object-type": "frame", 
            "sentence": "sent-PMC2196252-medscan-77", 
            "start-pos": {
                "context-start": "binds/1", 
                "object-type": "relative-pos", 
                "offset": 27, 
                "reference": "sent-PMC2196252-medscan-77"
            }, 
            "text": "binds", 
            "type": "bind"
        }, 
        {
            "arguments": [
                {
                    "arg": "ment-PMC2196252-cmu-medscan-136", 
                    "object-type": "argument", 
                    "type": "arg1"
                }
            ], 
            "context": "phosphorylation of p130CAS", 
            "end-pos": {
                "context-end": "phosphorylation/1", 
                "object-type": "relative-pos", 
                "offset": 60, 
                "reference": "sent-PMC2196252-medscan-81"
            }, 
            "frame-id": "eve-PMC2196252-cmu-junsys-170", 
            "frame-type": "event-mention", 
            "object-meta": {
                "component": "Jun-System", 
                "object-type": "meta-info", 
                "organization": "CMU"
            }, 
            "object-type": "frame", 
            "sentence": "sent-PMC2196252-medscan-81", 
            "start-pos": {
                "context-start": "phosphorylation/1", 
                "object-type": "relative-pos", 
                "offset": 45, 
                "reference": "sent-PMC2196252-medscan-81"
            }, 
            "text": "phosphorylation", 
            "type": "phosphorylation"
        }, 
        {
            "arguments": [
                {
                    "arg": "ment-PMC2196252-cmu-junsys-148", 
                    "object-type": "argument", 
                    "type": "arg1"
                }
            ], 
            "context": "phosphorylation of HS1", 
            "end-pos": {
                "context-end": "phosphorylation/1", 
                "object-type": "relative-pos", 
                "offset": 82, 
                "reference": "sent-PMC2196252-medscan-87"
            }, 
            "frame-id": "eve-PMC2196252-cmu-junsys-171", 
            "frame-type": "event-mention", 
            "object-meta": {
                "component": "Jun-System", 
                "object-type": "meta-info", 
                "organization": "CMU"
            }, 
            "object-type": "frame", 
            "sentence": "sent-PMC2196252-medscan-87", 
            "start-pos": {
                "context-start": "phosphorylation/1", 
                "object-type": "relative-pos", 
                "offset": 67, 
                "reference": "sent-PMC2196252-medscan-87"
            }, 
            "text": "phosphorylation", 
            "type": "phosphorylation"
        }, 
        {
            "arguments": [
                {
                    "arg": "ment-PMC2196252-cmu-junsys-151", 
                    "object-type": "argument", 
                    "type": "arg0"
                }, 
                {
                    "arg": "ment-PMC2196252-cmu-junsys-152", 
                    "object-type": "argument", 
                    "type": "arg1"
                }
            ], 
            "context": "that translocates to the nucleus and activates B cell apoptosis", 
            "end-pos": {
                "object-type": "relative-pos", 
                "offset": -1, 
                "reference": "NOT LINKED"
            }, 
            "frame-id": "eve-PMC2196252-cmu-junsys-172", 
            "frame-type": "event-mention", 
            "object-meta": {
                "component": "Jun-System", 
                "object-type": "meta-info", 
                "organization": "CMU"
            }, 
            "object-type": "frame", 
            "sentence": "NOT LINKED", 
            "start-pos": {
                "object-type": "relative-pos", 
                "offset": -1, 
                "reference": "NOT LINKED"
            }, 
            "text": "activates", 
            "type": "activate"
        }, 
        {
            "frame-id": "ent-PMC2196252-cmu-junsys-174", 
            "frame-type": "entity", 
            "members": [
                "ment-PMC2196252-cmu-junsys-29", 
                "ment-PMC2196252-cmu-junsys-30"
            ], 
            "object-meta": {
                "component": "Jun-System", 
                "object-type": "meta-info", 
                "organization": "CMU"
            }, 
            "object-type": "frame"
        }, 
        {
            "frame-id": "ent-PMC2196252-cmu-junsys-175", 
            "frame-type": "entity", 
            "members": [
                "ment-PMC2196252-cmu-junsys-87", 
                "ment-PMC2196252-cmu-junsys-88"
            ], 
            "object-meta": {
                "component": "Jun-System", 
                "object-type": "meta-info", 
                "organization": "CMU"
            }, 
            "object-type": "frame"
        }, 
        {
            "frame-id": "ent-PMC2196252-cmu-junsys-176", 
            "frame-type": "entity", 
            "members": [
                "ment-PMC2196252-cmu-junsys-132", 
                "ment-PMC2196252-cmu-junsys-133"
            ], 
            "object-meta": {
                "component": "Jun-System", 
                "object-type": "meta-info", 
                "organization": "CMU"
            }, 
            "object-type": "frame"
        }, 
        {
            "frame-id": "ent-PMC2196252-cmu-junsys-177", 
            "frame-type": "entity", 
            "members": [
                "ment-PMC2196252-cmu-junsys-145", 
                "ment-PMC2196252-cmu-junsys-146"
            ], 
            "object-meta": {
                "component": "Jun-System", 
                "object-type": "meta-info", 
                "organization": "CMU"
            }, 
            "object-type": "frame"
        }
    ], 
    "object-meta": {
        "component": "Jun-System", 
        "component-type": "machine", 
        "doc-id": "PMC2196252", 
        "object-type": "meta-info", 
        "organization": "CMU"
    }, 
    "object-type": "frame-collection"
}
