{
  "evidence": ["A, MUC1 is required for benzo(a)pyrene diol epoxide-induced EGFR, Akt and ERK activation.","Akt and ERK are activated by a variety of pathways other than EGFR","Akt and ERK are well known survival signals, we next investigated if benzo(a)pyrene diol epoxide-induced and EGFR","Akt and ERK is suppressed  and these pathways are required for cell survival during benzo(a)pyrene diol epoxide challenge and benzo(a)pyrene diol epoxide induced transformation , it is likely that MUC1 protects the cells from benzo(a)pyrene diol epoxide-induced cytotoxicity and promotes cell transformation through potentiating benzo(a)pyrene diol epoxide-induced activation of EGFR","Akt and ERK, the EGFR","As MUC1 potentiates benzo(a)pyrene diol epoxide-induced activation of EGFR, it is likely that MUC1 contributes to lung cancer development at least in part through EGFR-mediated cell survival pathways such as Akt and ERK.","Because Akt and ERK are activated by a variety of pathways other than EGFR, we examined if benzo(a)pyrene diol epoxide-induced Akt and ERK activation is mediated by EGFR by knocking down the expression of EGFR with EGFR small interfering RNA.","BEAS-2B cells with stable MUC1 knockdown were compared to the cells stably transfected with a negative shRNA vector with respect to benzo(a)pyrene diol epoxide-induced EGFR, Akt and ERK activation.","EGFR activation, effectively attenuated benzo(a)pyrene diol epoxide-induced Akt and ERK","EGFR, it is likely that MUC1 contributes to lung cancer development at least in part through EGFR-mediated cell survival pathways such as Akt and ERK","EGFR-mediated Akt and ERK","EGFR-mediated Akt and ERK activation that was associated with MUC1 overexpression  and MUC1 modulates EGFR activation in breast epithelial cells , , we examined if MUC1 is involved in benzo(a)pyrene diol epoxide-induced activation of EGFR-mediated Akt and ERK","EGFR-mediated ERK","Having established that MUC1 is required for benzo(a)pyrene diol epoxide-induced activation of EGFR-mediated Akt and ERK that protects bronchial epithelial cells against benzo(a)pyrene diol epoxide's cytotoxicity, we further investigated if MUC1 plays a survival role when cells are exposed to benzo(a)pyrene diol epoxide.","Neither EGFR small interfering RNA nor the EGFR inhibitor inhibited the expression of MUC1 , suggesting that it is unlikely that MUC1 functions downstream of EGFR for benzo(a)pyrene diol epoxide-induced Akt and ERK activation.","These results suggest that benzo(a)pyrene diol epoxide-induced transformation requires EGFR-mediated Akt and ERK activation, and that MUC1 plays a lung cancer-promoting role during lung cancer development, at least partly through mediating carcinogen-induced activation of the EGFR-mediated cell survival pathways that neutralize carcinogen's cytotoxicity to facilitate cell transformation .","This study provides strong evidence supporting a cancer-promoting role of MUC1 in cigarette smoke-induced lung carcinogenesis: MUC1 potentiated transformation of human bronchial cells induced by the tobacco carcinogen benzo(a)pyrene diol epoxide; benzo(a)pyrene diol epoxide markedly activated EGFR and its downstream pathways Akt and ERK, and blocking these pathways significantly increased benzo(a)pyrene diol epoxide-induced cytotoxicity and inhibited cell transformation; Suppression of MUC1 expression destabilized EGFR protein and inhibited benzo(a)pyrene diol epoxide-induced activation of EGFR, Akt and ERK, and subsequently increased benzo(a)pyrene diol epoxide-induced cell death.","While the EGFR inhibitor alone was slightly toxic, it dramatically increased cell death.","While the negative control small interfering RNA had a marginal effect on benzo(a)pyrene diol epoxide-induced activation of Akt and ERK, the EGFR small interfering RNA, which effectively eliminated EGFR expression, completely blocked benzo(a)pyrene diol epoxide-induced Akt and ERK activation ."],
  "extracted_information": {
    "interaction_type": "increases",
    "negative_information": false,
    "participant_a": {
      "entity_text": "EGFR",
      "entity_type": "protein",
      "identifier": "Uniprot:P00533",
      "in_model": true
    },
    "participant_b": {
      "entity_text": "Akt and ERK",
      "entity_type": "protein_family",
      "identifier": "ungrounded",
      "in_model": false
    }
  },
  "fries_provenance": [
    {
      "cmu-sentence-epistemic-status": "implication",
      "cmu-sentence-epistemic-value": 0.6,
      "component": "MedScan",
      "frame-file": "PMC3310874.cmu.medscan",
      "frame-id": "relm-PMC3310874-cmu-medscan-703",
      "passage-id": "pass-PMC3310874-UAZ-r1-43",
      "passage-number": 43,
      "passage-section-id": "s3b",
      "passage-section-name": "N/A",
      "sentence": "Because Akt and ERK are activated by a variety of pathways other than EGFR, we examined if benzo(a)pyrene diol epoxide-induced Akt and ERK activation is mediated by EGFR by knocking down the expression of EGFR with EGFR small interfering RNA.",
      "text": "Akt and ERK are activated by a variety of pathways other than EGFR",
      "uaz-sentence": "Because Akt and ERK are activated by a variety of pathways other than EGFR , we examined if BPDE induced Akt and ERK activation is mediated by EGFR by knocking down the expression of EGFR with EGFR siRNA .",
      "uaz-sentence-start": 847
    },
    {
      "cmu-sentence-epistemic-status": "implication",
      "cmu-sentence-epistemic-value": 0.6,
      "component": "MedScan",
      "frame-file": "PMC3310874.cmu.medscan",
      "frame-id": "relm-PMC3310874-cmu-medscan-707",
      "passage-id": "pass-PMC3310874-UAZ-r1-43",
      "passage-number": 43,
      "passage-section-id": "s3b",
      "passage-section-name": "N/A",
      "sentence": "While the negative control small interfering RNA had a marginal effect on benzo(a)pyrene diol epoxide-induced activation of Akt and ERK, the EGFR small interfering RNA, which effectively eliminated EGFR expression, completely blocked benzo(a)pyrene diol epoxide-induced Akt and ERK activation .",
      "text": "Akt and ERK, the EGFR",
      "uaz-sentence": "While the negative control siRNA had a marginal effect on BPDE induced activation of Akt and ERK , the EGFR siRNA , which effectively eliminated EGFR expression , completely blocked BPDE induced Akt and ERK activation          .",
      "uaz-sentence-start": 1051
    },
    {
      "component": "MedScan",
      "frame-file": "PMC3310874.cmu.medscan",
      "frame-id": "relm-PMC3310874-cmu-medscan-709",
      "sentence": "Neither EGFR small interfering RNA nor the EGFR inhibitor inhibited the expression of MUC1 , suggesting that it is unlikely that MUC1 functions downstream of EGFR for benzo(a)pyrene diol epoxide-induced Akt and ERK activation.",
      "text": "EGFR activation, effectively attenuated benzo(a)pyrene diol epoxide-induced Akt and ERK"
    },
    {
      "component": "MedScan",
      "frame-file": "PMC3310874.cmu.medscan",
      "frame-id": "relm-PMC3310874-cmu-medscan-710",
      "sentence": "Neither EGFR small interfering RNA nor the EGFR inhibitor inhibited the expression of MUC1 , suggesting that it is unlikely that MUC1 functions downstream of EGFR for benzo(a)pyrene diol epoxide-induced Akt and ERK activation.",
      "text": "EGFR activation, effectively attenuated benzo(a)pyrene diol epoxide-induced Akt and ERK"
    },
    {
      "cmu-sentence-epistemic-status": "implication",
      "cmu-sentence-epistemic-value": 0.6,
      "component": "MedScan",
      "frame-file": "PMC3310874.cmu.medscan",
      "frame-id": "relm-PMC3310874-cmu-medscan-722",
      "passage-id": "pass-PMC3310874-UAZ-r1-53",
      "passage-number": 53,
      "passage-section-id": "s3c",
      "passage-section-name": "N/A",
      "sentence": "While the EGFR inhibitor alone was slightly toxic, it dramatically increased cell death.",
      "text": "Akt and ERK are well known survival signals, we next investigated if benzo(a)pyrene diol epoxide-induced and EGFR",
      "uaz-sentence": "While the EGFR inhibitor alone was slightly toxic , it dramatically increased cell death .",
      "uaz-sentence-start": 509
    },
    {
      "cmu-sentence-epistemic-status": "implication",
      "cmu-sentence-epistemic-value": 0.6,
      "component": "MedScan",
      "frame-file": "PMC3310874.cmu.medscan",
      "frame-id": "relm-PMC3310874-cmu-medscan-730",
      "passage-id": "pass-PMC3310874-UAZ-r1-65",
      "passage-number": 72,
      "passage-section-id": "s3f",
      "passage-section-name": "N/A",
      "sentence": "BEAS-2B cells with stable MUC1 knockdown were compared to the cells stably transfected with a negative shRNA vector with respect to benzo(a)pyrene diol epoxide-induced EGFR, Akt and ERK activation.",
      "text": "EGFR-mediated Akt and ERK activation that was associated with MUC1 overexpression  and MUC1 modulates EGFR activation in breast epithelial cells , , we examined if MUC1 is involved in benzo(a)pyrene diol epoxide-induced activation of EGFR-mediated Akt and ERK",
      "uaz-sentence": "BEAS-2B cells with stable MUC1 knockdown were compared to the cells stably transfected with a negative shRNA vector with respect to BPDE induced EGFR , Akt and ERK activation .",
      "uaz-sentence-start": 293
    },
    {
      "component": "MedScan",
      "frame-file": "PMC3310874.cmu.medscan",
      "frame-id": "relm-PMC3310874-cmu-medscan-737",
      "sentence": "A, MUC1 is required for benzo(a)pyrene diol epoxide-induced EGFR, Akt and ERK activation.",
      "text": "EGFR-mediated ERK"
    },
    {
      "cmu-sentence-epistemic-status": "implication",
      "cmu-sentence-epistemic-value": 0.6,
      "component": "MedScan",
      "frame-file": "PMC3310874.cmu.medscan",
      "frame-id": "relm-PMC3310874-cmu-medscan-743",
      "passage-id": "pass-PMC3310874-UAZ-r1-72",
      "passage-number": 72,
      "passage-section-id": "s3f",
      "passage-section-name": "N/A",
      "sentence": "Having established that MUC1 is required for benzo(a)pyrene diol epoxide-induced activation of EGFR-mediated Akt and ERK that protects bronchial epithelial cells against benzo(a)pyrene diol epoxide's cytotoxicity, we further investigated if MUC1 plays a survival role when cells are exposed to benzo(a)pyrene diol epoxide.",
      "text": "EGFR-mediated Akt and ERK",
      "uaz-sentence": "Having established that MUC1 is required for BPDE induced activation of EGFR mediated Akt and ERK that protects bronchial epithelial cells against BPDE 's cytotoxicity , we further investigated if MUC1 plays a survival role when cells are exposed to BPDE .",
      "uaz-sentence-start": 0
    },
    {
      "cmu-sentence-epistemic-status": "implication",
      "cmu-sentence-epistemic-value": 0.6,
      "component": "MedScan",
      "frame-file": "PMC3310874.cmu.medscan",
      "frame-id": "relm-PMC3310874-cmu-medscan-749",
      "passage-id": "pass-PMC3310874-UAZ-r1-2",
      "passage-number": 2,
      "passage-section-id": "N/A",
      "passage-section-name": "abstract",
      "sentence": "This study provides strong evidence supporting a cancer-promoting role of MUC1 in cigarette smoke-induced lung carcinogenesis: MUC1 potentiated transformation of human bronchial cells induced by the tobacco carcinogen benzo(a)pyrene diol epoxide; benzo(a)pyrene diol epoxide markedly activated EGFR and its downstream pathways Akt and ERK, and blocking these pathways significantly increased benzo(a)pyrene diol epoxide-induced cytotoxicity and inhibited cell transformation; Suppression of MUC1 expression destabilized EGFR protein and inhibited benzo(a)pyrene diol epoxide-induced activation of EGFR, Akt and ERK, and subsequently increased benzo(a)pyrene diol epoxide-induced cell death.",
      "text": "Akt and ERK is suppressed  and these pathways are required for cell survival during benzo(a)pyrene diol epoxide challenge and benzo(a)pyrene diol epoxide induced transformation , it is likely that MUC1 protects the cells from benzo(a)pyrene diol epoxide-induced cytotoxicity and promotes cell transformation through potentiating benzo(a)pyrene diol epoxide-induced activation of EGFR",
      "uaz-sentence": "This study provides strong evidence demonstrating that EGFR and MUC1 are involved in bronchial epithelial cell transformation .",
      "uaz-sentence-start": 407
    },
    {
      "component": "MedScan",
      "frame-file": "PMC3310874.cmu.medscan",
      "frame-id": "relm-PMC3310874-cmu-medscan-757",
      "sentence": "These results suggest that benzo(a)pyrene diol epoxide-induced transformation requires EGFR-mediated Akt and ERK activation, and that MUC1 plays a lung cancer-promoting role during lung cancer development, at least partly through mediating carcinogen-induced activation of the EGFR-mediated cell survival pathways that neutralize carcinogen's cytotoxicity to facilitate cell transformation .",
      "text": "EGFR-mediated Akt and ERK"
    },
    {
      "component": "MedScan",
      "frame-file": "PMC3310874.cmu.medscan",
      "frame-id": "relm-PMC3310874-cmu-medscan-766",
      "sentence": "As MUC1 potentiates benzo(a)pyrene diol epoxide-induced activation of EGFR, it is likely that MUC1 contributes to lung cancer development at least in part through EGFR-mediated cell survival pathways such as Akt and ERK.",
      "text": "EGFR, it is likely that MUC1 contributes to lung cancer development at least in part through EGFR-mediated cell survival pathways such as Akt and ERK"
    }
  ],
  "model_relation": "extension",
  "pmc_id": "PMC3310874",
  "reader_type": "machine",
  "reading_complete": "2015-06-15T22:42:04Z",
  "reading_started": "2015-06-15T22:41:59Z",
  "submitter": "FRIES"
}
