{
  "evidence": ["B , Suppression of EGFR attenuates the activation of Akt and ERK in BEAS-2B cells .","Because BPDE stimulated EGFR mediated Akt and ERK activation that was associated with MUC1 overexpression                and MUC1 modulates EGFR activation in breast epithelial cells     ,     , we examined if MUC1 is involved in BPDE induced activation of EGFR mediated Akt and ERK pathways .","Because survival of cells with genetic mutations is essential for cancer initiation and Akt and ERK are well known survival signals , we next investigated if BPDE induced and EGFR mediated Akt and ERK activation protects cells from BPDE induced cytotoxicity .","Consistently , the EGFR inhibitor , which effectively suppressed BPDE induced EGFR activation , effectively attenuated BPDE induced Akt and ERK activation          .","EGFR attenuates the activation of Akt","EGFR for BPDE-induced Akt","EGFR inhibitor, which effectively suppressed BPDE-induced EGFR activation, effectively attenuated BPDE-induced Akt","EGFR mediated Akt and ERK activation protects cells against BPDE induced cytotoxicity","EGFR-mediated Akt","Having established that MUC1 is required for BPDE induced activation of EGFR mediated Akt and ERK that protects bronchial epithelial cells against BPDE 's cytotoxicity , we further investigated if MUC1 plays a survival role when cells are exposed to BPDE .","Neither EGFR siRNA nor the EGFR inhibitor inhibited the expression of MUC1               , suggesting that it is unlikely that MUC1 functions downstream of EGFR for BPDE induced Akt and ERK activation ."],
  "extracted_information": {
    "interaction_type": "increases_activity",
    "negative_information": false,
    "participant_a": {
      "entity_text": "EGFR",
      "entity_type": "protein",
      "identifier": "Uniprot:P00533",
      "in_model": true
    },
    "participant_b": {
      "entity_text": "Akt",
      "entity_type": "protein",
      "identifier": "Uniprot:P54644",
      "in_model": false
    }
  },
  "fries_provenance": [
    {
      "cmu-sentence-epistemic-status": "implication",
      "cmu-sentence-epistemic-value": 0.6,
      "component": "REACH",
      "frame-file": "PMC3310874.uaz.events",
      "frame-id": "evem-PMC3310874-UAZ-r1-43-7-20",
      "passage-id": "pass-PMC3310874-UAZ-r1-43",
      "passage-number": 43,
      "passage-section-id": "s3b",
      "passage-section-name": "N/A",
      "sentence": "Consistently , the EGFR inhibitor , which effectively suppressed BPDE induced EGFR activation , effectively attenuated BPDE induced Akt and ERK activation          .",
      "text": "EGFR inhibitor, which effectively suppressed BPDE-induced EGFR activation, effectively attenuated BPDE-induced Akt",
      "uaz-sentence": "Consistently , the EGFR inhibitor , which effectively suppressed BPDE induced EGFR activation , effectively attenuated BPDE induced Akt and ERK activation          .",
      "uaz-sentence-start": 1277
    },
    {
      "cmu-sentence-epistemic-status": "implication",
      "cmu-sentence-epistemic-value": 0.6,
      "component": "REACH",
      "frame-file": "PMC3310874.uaz.events",
      "frame-id": "evem-PMC3310874-UAZ-r1-43-8-17",
      "passage-id": "pass-PMC3310874-UAZ-r1-43",
      "passage-number": 43,
      "passage-section-id": "s3b",
      "passage-section-name": "N/A",
      "sentence": "Neither EGFR siRNA nor the EGFR inhibitor inhibited the expression of MUC1               , suggesting that it is unlikely that MUC1 functions downstream of EGFR for BPDE induced Akt and ERK activation .",
      "text": "EGFR for BPDE-induced Akt",
      "uaz-event-epistemic-status": "hypothesis",
      "uaz-sentence": "Neither EGFR siRNA nor the EGFR inhibitor inhibited the expression of MUC1               , suggesting that it is unlikely that MUC1 functions downstream of EGFR for BPDE induced Akt and ERK activation .",
      "uaz-sentence-start": 1440
    },
    {
      "component": "REACH",
      "frame-file": "PMC3310874.uaz.events",
      "frame-id": "evem-PMC3310874-UAZ-r1-46-4-24",
      "passage-id": "pass-PMC3310874-UAZ-r1-46",
      "passage-number": 46,
      "passage-section-id": "fig-2",
      "passage-section-name": "fig-2",
      "sentence": "B , Suppression of EGFR attenuates the activation of Akt and ERK in BEAS-2B cells .",
      "text": "EGFR attenuates the activation of Akt",
      "uaz-sentence": "B , Suppression of EGFR attenuates the activation of Akt and ERK in BEAS-2B cells .",
      "uaz-sentence-start": 363
    },
    {
      "component": "REACH",
      "frame-file": "PMC3310874.uaz.events",
      "frame-id": "evem-PMC3310874-UAZ-r1-52-0-26",
      "passage-id": "pass-PMC3310874-UAZ-r1-52",
      "passage-number": 52,
      "passage-section-id": "s3c",
      "passage-section-name": "N/A",
      "sentence": "EGFR mediated Akt and ERK activation protects cells against BPDE induced cytotoxicity",
      "text": "EGFR-mediated Akt",
      "uaz-sentence": "EGFR mediated Akt and ERK activation protects cells against BPDE induced cytotoxicity",
      "uaz-sentence-start": 0
    },
    {
      "cmu-sentence-epistemic-status": "implication",
      "cmu-sentence-epistemic-value": 0.6,
      "component": "REACH",
      "frame-file": "PMC3310874.uaz.events",
      "frame-id": "evem-PMC3310874-UAZ-r1-53-0-28",
      "passage-id": "pass-PMC3310874-UAZ-r1-53",
      "passage-number": 53,
      "passage-section-id": "s3c",
      "passage-section-name": "N/A",
      "sentence": "Because survival of cells with genetic mutations is essential for cancer initiation and Akt and ERK are well known survival signals , we next investigated if BPDE induced and EGFR mediated Akt and ERK activation protects cells from BPDE induced cytotoxicity .",
      "text": "EGFR-mediated Akt",
      "uaz-sentence": "Because survival of cells with genetic mutations is essential for cancer initiation and Akt and ERK are well known survival signals , we next investigated if BPDE induced and EGFR mediated Akt and ERK activation protects cells from BPDE induced cytotoxicity .",
      "uaz-sentence-start": 0
    },
    {
      "cmu-sentence-epistemic-status": "implication",
      "cmu-sentence-epistemic-value": 0.6,
      "component": "REACH",
      "frame-file": "PMC3310874.uaz.events",
      "frame-id": "evem-PMC3310874-UAZ-r1-65-0-38",
      "passage-id": "pass-PMC3310874-UAZ-r1-65",
      "passage-number": 65,
      "passage-section-id": "s3e",
      "passage-section-name": "N/A",
      "sentence": "Because BPDE stimulated EGFR mediated Akt and ERK activation that was associated with MUC1 overexpression                and MUC1 modulates EGFR activation in breast epithelial cells     ,     , we examined if MUC1 is involved in BPDE induced activation of EGFR mediated Akt and ERK pathways .",
      "text": "EGFR-mediated Akt",
      "uaz-sentence": "Because BPDE stimulated EGFR mediated Akt and ERK activation that was associated with MUC1 overexpression                and MUC1 modulates EGFR activation in breast epithelial cells     ,     , we examined if MUC1 is involved in BPDE induced activation of EGFR mediated Akt and ERK pathways .",
      "uaz-sentence-start": 0
    },
    {
      "cmu-sentence-epistemic-status": "implication",
      "cmu-sentence-epistemic-value": 0.6,
      "component": "REACH",
      "frame-file": "PMC3310874.uaz.events",
      "frame-id": "evem-PMC3310874-UAZ-r1-72-0-41",
      "passage-id": "pass-PMC3310874-UAZ-r1-72",
      "passage-number": 72,
      "passage-section-id": "s3f",
      "passage-section-name": "N/A",
      "sentence": "Having established that MUC1 is required for BPDE induced activation of EGFR mediated Akt and ERK that protects bronchial epithelial cells against BPDE 's cytotoxicity , we further investigated if MUC1 plays a survival role when cells are exposed to BPDE .",
      "text": "EGFR-mediated Akt",
      "uaz-sentence": "Having established that MUC1 is required for BPDE induced activation of EGFR mediated Akt and ERK that protects bronchial epithelial cells against BPDE 's cytotoxicity , we further investigated if MUC1 plays a survival role when cells are exposed to BPDE .",
      "uaz-sentence-start": 0
    }
  ],
  "model_relation": "extension",
  "pmc_id": "PMC3310874",
  "reader_type": "machine",
  "reading_complete": "2015-06-15T22:42:04Z",
  "reading_started": "2015-06-15T22:41:59Z",
  "submitter": "FRIES"
}
