{
  "evidence": ["B , Suppression of EGFR attenuates the activation of Akt and ERK in BEAS-2B cells .","Consistently , the EGFR inhibitor , which effectively suppressed BPDE induced EGFR activation , effectively attenuated BPDE induced Akt and ERK activation          .","EGFR attenuates the activation of Akt and ERK","EGFR for BPDE-induced Akt and ERK","EGFR inhibitor, which effectively suppressed BPDE-induced EGFR activation, effectively attenuated BPDE-induced Akt and ERK","Neither EGFR siRNA nor the EGFR inhibitor inhibited the expression of MUC1               , suggesting that it is unlikely that MUC1 functions downstream of EGFR for BPDE induced Akt and ERK activation ."],
  "extracted_information": {
    "interaction_type": "increases_activity",
    "negative_information": false,
    "participant_a": {
      "entity_text": "EGFR",
      "entity_type": "protein",
      "identifier": "Uniprot:P00533",
      "in_model": true
    },
    "participant_b": {
      "entity_text": "ERK",
      "entity_type": "protein",
      "identifier": "Uniprot:P29323",
      "in_model": true
    }
  },
  "fries_provenance": [
    {
      "cmu-sentence-epistemic-status": "implication",
      "cmu-sentence-epistemic-value": 0.6,
      "component": "REACH",
      "frame-file": "PMC3310874.uaz.events",
      "frame-id": "evem-PMC3310874-UAZ-r1-43-7-21",
      "passage-id": "pass-PMC3310874-UAZ-r1-43",
      "passage-number": 43,
      "passage-section-id": "s3b",
      "passage-section-name": "N/A",
      "sentence": "Consistently , the EGFR inhibitor , which effectively suppressed BPDE induced EGFR activation , effectively attenuated BPDE induced Akt and ERK activation          .",
      "text": "EGFR inhibitor, which effectively suppressed BPDE-induced EGFR activation, effectively attenuated BPDE-induced Akt and ERK",
      "uaz-sentence": "Consistently , the EGFR inhibitor , which effectively suppressed BPDE induced EGFR activation , effectively attenuated BPDE induced Akt and ERK activation          .",
      "uaz-sentence-start": 1277
    },
    {
      "cmu-sentence-epistemic-status": "implication",
      "cmu-sentence-epistemic-value": 0.6,
      "component": "REACH",
      "frame-file": "PMC3310874.uaz.events",
      "frame-id": "evem-PMC3310874-UAZ-r1-43-8-18",
      "passage-id": "pass-PMC3310874-UAZ-r1-43",
      "passage-number": 43,
      "passage-section-id": "s3b",
      "passage-section-name": "N/A",
      "sentence": "Neither EGFR siRNA nor the EGFR inhibitor inhibited the expression of MUC1               , suggesting that it is unlikely that MUC1 functions downstream of EGFR for BPDE induced Akt and ERK activation .",
      "text": "EGFR for BPDE-induced Akt and ERK",
      "uaz-event-epistemic-status": "hypothesis",
      "uaz-sentence": "Neither EGFR siRNA nor the EGFR inhibitor inhibited the expression of MUC1               , suggesting that it is unlikely that MUC1 functions downstream of EGFR for BPDE induced Akt and ERK activation .",
      "uaz-sentence-start": 1440
    },
    {
      "component": "REACH",
      "frame-file": "PMC3310874.uaz.events",
      "frame-id": "evem-PMC3310874-UAZ-r1-46-4-25",
      "passage-id": "pass-PMC3310874-UAZ-r1-46",
      "passage-number": 46,
      "passage-section-id": "fig-2",
      "passage-section-name": "fig-2",
      "sentence": "B , Suppression of EGFR attenuates the activation of Akt and ERK in BEAS-2B cells .",
      "text": "EGFR attenuates the activation of Akt and ERK",
      "uaz-sentence": "B , Suppression of EGFR attenuates the activation of Akt and ERK in BEAS-2B cells .",
      "uaz-sentence-start": 363
    }
  ],
  "model_relation": "extension",
  "pmc_id": "PMC3310874",
  "reader_type": "machine",
  "reading_complete": "2015-06-15T22:42:04Z",
  "reading_started": "2015-06-15T22:41:59Z",
  "submitter": "FRIES"
}
