{
  "evidence": ["caffeine as a weak ATR inhibitor over 10 years ago , until recently there were no novel small molecules reported to inhibit ATR","This partially stems from the difficulty in establishing an appropriate high throughput in vitro system, which would presumably also require ATRIP and other components ."],
  "extracted_information": {
    "interaction_type": "decreases",
    "negative_information": false,
    "participant_a": {
      "entity_text": "caffeine",
      "entity_type": "chemical",
      "identifier": "CHEBI:27732",
      "in_model": false
    },
    "participant_b": {
      "entity_text": "ATR",
      "entity_type": "protein",
      "identifier": "Uniprot:P20848",
      "in_model": true
    }
  },
  "fries_provenance": [
    {
      "cmu-sentence-epistemic-status": "implication",
      "cmu-sentence-epistemic-value": 0.6,
      "component": "MedScan",
      "frame-file": "PMC3172902.cmu.medscan",
      "frame-id": "relm-PMC3172902-cmu-medscan-484",
      "passage-id": "pass-PMC3172902-UAZ-r1-73",
      "passage-number": 73,
      "passage-section-id": "N/A",
      "passage-section-name": "N/A",
      "sentence": "This partially stems from the difficulty in establishing an appropriate high throughput in vitro system, which would presumably also require ATRIP and other components .",
      "text": "caffeine as a weak ATR inhibitor over 10 years ago , until recently there were no novel small molecules reported to inhibit ATR",
      "uaz-sentence": "This partially stems from the difficulty in establishing an appropriate high throughput in vitro system , which would presumably also require ATRIP and other components                            .",
      "uaz-sentence-start": 300
    }
  ],
  "model_relation": "extension",
  "pmc_id": "PMC3172902",
  "reader_type": "machine",
  "reading_complete": "2015-06-15T22:20:15Z",
  "reading_started": "2015-06-15T22:20:10Z",
  "submitter": "FRIES"
}
