{
  "evidence": ["It functions during the intra-S and G2 and M checkpoints , via phosphorylation of CHK1 , to elicit G2 and M arrest                                                                                and stabilises and re-starts stalled replication forks by signalling to the homologous recombination ( HR ) repair pathway                                                     .","phosphorylation of CHK1, to elicit G2"],
  "extracted_information": {
    "interaction_type": "adds_modification",
    "negative_information": false,
    "modifications": [
      {
        "modification_type": "phosphorylation",
        "site": 2
      }
    ],
    "participant_b": {
      "entity_text": "CHK1",
      "entity_type": "protein",
      "identifier": "Uniprot:O14757",
      "in_model": true
    }
  },
  "fries_provenance": [
    {
      "cmu-sentence-epistemic-status": "implication",
      "cmu-sentence-epistemic-value": 0.6,
      "component": "REACH",
      "frame-file": "PMC3172902.uaz.events",
      "frame-id": "evem-PMC3172902-UAZ-r1-16-2-19",
      "passage-id": "pass-PMC3172902-UAZ-r1-16",
      "passage-number": 16,
      "passage-section-id": "N/A",
      "passage-section-name": "N/A",
      "sentence": "It functions during the intra-S and G2 and M checkpoints , via phosphorylation of CHK1 , to elicit G2 and M arrest                                                                                and stabilises and re-starts stalled replication forks by signalling to the homologous recombination ( HR ) repair pathway                                                     .",
      "text": "phosphorylation of CHK1, to elicit G2",
      "uaz-sentence": "It functions during the intra-S and G2 and M checkpoints , via phosphorylation of CHK1 , to elicit G2 and M arrest                                                                                and stabilises and re-starts stalled replication forks by signalling to the homologous recombination ( HR ) repair pathway                                                     .",
      "uaz-sentence-start": 478
    }
  ],
  "model_relation": "extension",
  "pmc_id": "PMC3172902",
  "reader_type": "machine",
  "reading_complete": "2015-06-15T22:20:15Z",
  "reading_started": "2015-06-15T22:20:10Z",
  "submitter": "FRIES"
}
