{
  "evidence": ["Our data indicates that Ro52 ubiquitinates IRF7 , adding both monoubiquitin and polyubiquitin chains to the transcription factor .","Ro52 ubiquitinates IRF7"],
  "extracted_information": {
    "interaction_type": "adds_modification",
    "negative_information": false,
    "modifications": [
      {
        "modification_type": "ubiquitination"
      }
    ],
    "participant_a": {
      "entity_text": "Ro52",
      "entity_type": "protein",
      "identifier": "Uniprot:P19474",
      "in_model": false
    },
    "participant_b": {
      "entity_text": "IRF7",
      "entity_type": "protein",
      "identifier": "Uniprot:Q92985",
      "in_model": true
    }
  },
  "fries_provenance": [
    {
      "cmu-sentence-epistemic-status": "implication",
      "cmu-sentence-epistemic-value": 0.6,
      "component": "REACH",
      "frame-file": "PMC2909902.uaz.events",
      "frame-id": "evem-PMC2909902-UAZ-r1-42-4-61",
      "passage-id": "pass-PMC2909902-UAZ-r1-42",
      "passage-number": 42,
      "passage-section-id": "s3",
      "passage-section-name": "N/A",
      "sentence": "Our data indicates that Ro52 ubiquitinates IRF7 , adding both monoubiquitin and polyubiquitin chains to the transcription factor .",
      "text": "Ro52 ubiquitinates IRF7",
      "uaz-sentence": "Our data indicates that Ro52 ubiquitinates IRF7 , adding both monoubiquitin and polyubiquitin chains to the transcription factor .",
      "uaz-sentence-start": 824
    }
  ],
  "model_relation": "extension",
  "pmc_id": "PMC2909902",
  "reader_type": "machine",
  "reading_complete": "2015-06-15T21:23:33Z",
  "reading_started": "2015-06-15T21:23:28Z",
  "submitter": "FRIES"
}
