{
    "frames": [
        {
            "frame-id": "epi-PMC3615008-cmu-nicosys-297", 
            "frame-type": "epistemics", 
            "object-meta": {
                "object-type": "meta-info", 
                "organization": "CMU"
            }, 
            "object-type": "frame", 
            "sentence": "sent-PMC3615008-cmu-4", 
            "status": "implication", 
            "value": 0.6
        }, 
        {
            "frame-id": "epi-PMC3615008-cmu-nicosys-298", 
            "frame-type": "epistemics", 
            "object-meta": {
                "object-type": "meta-info", 
                "organization": "CMU"
            }, 
            "object-type": "frame", 
            "sentence": "sent-PMC3615008-cmu-7", 
            "status": "belief", 
            "value": 0.9
        }, 
        {
            "frame-id": "epi-PMC3615008-cmu-nicosys-299", 
            "frame-type": "epistemics", 
            "object-meta": {
                "object-type": "meta-info", 
                "organization": "CMU"
            }, 
            "object-type": "frame", 
            "sentence": "sent-PMC3615008-cmu-13", 
            "status": "belief", 
            "value": 0.9
        }, 
        {
            "frame-id": "epi-PMC3615008-cmu-nicosys-300", 
            "frame-type": "epistemics", 
            "object-meta": {
                "object-type": "meta-info", 
                "organization": "CMU"
            }, 
            "object-type": "frame", 
            "sentence": "sent-PMC3615008-cmu-103", 
            "status": "implication", 
            "value": 0.6
        }, 
        {
            "frame-id": "epi-PMC3615008-cmu-nicosys-301", 
            "frame-type": "epistemics", 
            "object-meta": {
                "object-type": "meta-info", 
                "organization": "CMU"
            }, 
            "object-type": "frame", 
            "sentence": "sent-PMC3615008-cmu-119", 
            "status": "belief", 
            "value": 0.9
        }, 
        {
            "frame-id": "epi-PMC3615008-cmu-nicosys-302", 
            "frame-type": "epistemics", 
            "object-meta": {
                "object-type": "meta-info", 
                "organization": "CMU"
            }, 
            "object-type": "frame", 
            "sentence": "sent-PMC3615008-cmu-121", 
            "status": "implication", 
            "value": 0.6
        }, 
        {
            "frame-id": "epi-PMC3615008-cmu-nicosys-303", 
            "frame-type": "epistemics", 
            "object-meta": {
                "object-type": "meta-info", 
                "organization": "CMU"
            }, 
            "object-type": "frame", 
            "sentence": "sent-PMC3615008-cmu-127", 
            "status": "implication", 
            "value": 0.6
        }, 
        {
            "frame-id": "epi-PMC3615008-cmu-nicosys-304", 
            "frame-type": "epistemics", 
            "object-meta": {
                "object-type": "meta-info", 
                "organization": "CMU"
            }, 
            "object-type": "frame", 
            "sentence": "sent-PMC3615008-cmu-130", 
            "status": "implication", 
            "value": 0.6
        }, 
        {
            "frame-id": "epi-PMC3615008-cmu-nicosys-305", 
            "frame-type": "epistemics", 
            "object-meta": {
                "object-type": "meta-info", 
                "organization": "CMU"
            }, 
            "object-type": "frame", 
            "sentence": "sent-PMC3615008-cmu-140", 
            "status": "implication", 
            "value": 0.6
        }, 
        {
            "frame-id": "epi-PMC3615008-cmu-nicosys-306", 
            "frame-type": "epistemics", 
            "object-meta": {
                "object-type": "meta-info", 
                "organization": "CMU"
            }, 
            "object-type": "frame", 
            "sentence": "sent-PMC3615008-cmu-144", 
            "status": "implication", 
            "value": 0.6
        }, 
        {
            "frame-id": "epi-PMC3615008-cmu-nicosys-307", 
            "frame-type": "epistemics", 
            "object-meta": {
                "object-type": "meta-info", 
                "organization": "CMU"
            }, 
            "object-type": "frame", 
            "sentence": "sent-PMC3615008-cmu-151", 
            "status": "implication", 
            "value": 0.6
        }, 
        {
            "frame-id": "epi-PMC3615008-cmu-nicosys-308", 
            "frame-type": "epistemics", 
            "object-meta": {
                "object-type": "meta-info", 
                "organization": "CMU"
            }, 
            "object-type": "frame", 
            "sentence": "sent-PMC3615008-cmu-155", 
            "status": "belief", 
            "value": 0.9
        }, 
        {
            "frame-id": "epi-PMC3615008-cmu-nicosys-309", 
            "frame-type": "epistemics", 
            "object-meta": {
                "object-type": "meta-info", 
                "organization": "CMU"
            }, 
            "object-type": "frame", 
            "sentence": "sent-PMC3615008-cmu-159", 
            "status": "implication", 
            "value": 0.6
        }, 
        {
            "frame-id": "epi-PMC3615008-cmu-nicosys-310", 
            "frame-type": "epistemics", 
            "object-meta": {
                "object-type": "meta-info", 
                "organization": "CMU"
            }, 
            "object-type": "frame", 
            "sentence": "sent-PMC3615008-cmu-160", 
            "status": "belief", 
            "value": 0.9
        }, 
        {
            "frame-id": "epi-PMC3615008-cmu-nicosys-311", 
            "frame-type": "epistemics", 
            "object-meta": {
                "object-type": "meta-info", 
                "organization": "CMU"
            }, 
            "object-type": "frame", 
            "sentence": "sent-PMC3615008-cmu-171", 
            "status": "belief", 
            "value": 0.9
        }, 
        {
            "frame-id": "epi-PMC3615008-cmu-nicosys-312", 
            "frame-type": "epistemics", 
            "object-meta": {
                "object-type": "meta-info", 
                "organization": "CMU"
            }, 
            "object-type": "frame", 
            "sentence": "sent-PMC3615008-cmu-172", 
            "status": "implication", 
            "value": 0.6
        }, 
        {
            "frame-id": "epi-PMC3615008-cmu-nicosys-313", 
            "frame-type": "epistemics", 
            "object-meta": {
                "object-type": "meta-info", 
                "organization": "CMU"
            }, 
            "object-type": "frame", 
            "sentence": "sent-PMC3615008-cmu-177", 
            "status": "belief", 
            "value": 0.9
        }, 
        {
            "frame-id": "epi-PMC3615008-cmu-nicosys-314", 
            "frame-type": "epistemics", 
            "object-meta": {
                "object-type": "meta-info", 
                "organization": "CMU"
            }, 
            "object-type": "frame", 
            "sentence": "sent-PMC3615008-cmu-178", 
            "status": "implication", 
            "value": 0.6
        }
    ], 
    "object-meta": {
        "component": "Nicolas-System", 
        "component-type": "machine", 
        "doc-id": "PMC3615008", 
        "object-type": "meta-info", 
        "organization": "CMU"
    }, 
    "object-type": "frame-collection"
}
