{
  "evidence": ["modulation of ICAM1                    , NQO1                      , IGFBP3                   , and THBS1                     by POPs","To validate this results , we assessed the modulation of ICAM1                    , NQO1                      , IGFBP3                   , and THBS1                     by POPs because , in addition to their role in cell adhesion , xenobiotic metabolism , angiogenesis , and cancer , these genes were reported to be related to adiposity , insulin resistance , and inflammation ."],
  "extracted_information": {
    "interaction_type": "increases_activity",
    "negative_information": false,
    "participant_a": {
      "entity_text": "POPs",
      "entity_type": "protein",
      "identifier": "CHEBI:77853",
      "in_model": true
    },
    "participant_b": {
      "entity_text": "THBS1",
      "entity_type": "protein",
      "identifier": "Uniprot:P07996",
      "in_model": false
    }
  },
  "fries_provenance": [
    {
      "cmu-sentence-epistemic-status": "belief",
      "cmu-sentence-epistemic-value": 0.9,
      "component": "REACH",
      "frame-file": "PMC3339464.uaz.events",
      "frame-id": "evem-PMC3339464-UAZ-r1-48-1-3",
      "passage-id": "pass-PMC3339464-UAZ-r1-48",
      "passage-number": 48,
      "passage-section-id": "N/A",
      "passage-section-name": "discussion",
      "sentence": "To validate this results , we assessed the modulation of ICAM1                    , NQO1                      , IGFBP3                   , and THBS1                     by POPs because , in addition to their role in cell adhesion , xenobiotic metabolism , angiogenesis , and cancer , these genes were reported to be related to adiposity , insulin resistance , and inflammation .",
      "text": "modulation of ICAM1                    , NQO1                      , IGFBP3                   , and THBS1                     by POPs",
      "uaz-sentence": "To validate this results , we assessed the modulation of ICAM1                    , NQO1                      , IGFBP3                   , and THBS1                     by POPs because , in addition to their role in cell adhesion , xenobiotic metabolism , angiogenesis , and cancer , these genes were reported to be related to adiposity , insulin resistance , and inflammation .",
      "uaz-sentence-start": 205
    }
  ],
  "model_relation": "extension",
  "pmc_id": "PMC3339464",
  "reader_type": "machine",
  "reading_complete": "2015-06-15T22:45:37Z",
  "reading_started": "2015-06-15T22:45:32Z",
  "submitter": "FRIES"
}
