{
  "evidence": ["signal transducer and activator of transcription 1, transforming growth factor, beta-induced, thrombospondin 1, TNFRSF11B, and WNT5A","Several mRNAs, such as those encoding CYP1B1, IL8, neuronal pentraxin 1 , plasminogen activator inhibitor 2, PTGS2, NQO1, signal transducer and activator of transcription 1, transforming growth factor, beta-induced, thrombospondin 1, TNFRSF11B, and WNT5A, were induced in both types of cells by the AhR ligands 2,3,7,8-tetrachlorodibenzo-p-dioxin and PCB-126, and the fold induction of expression was generally higher in precursors than in adipocytes [see Supplemental Material, and 2 (http://dx.doi.org/10.1289/ehp.1104282)]."],
  "extracted_information": {
    "interaction_type": "increases",
    "negative_information": false,
    "participant_a": {
      "entity_text": "signal transducer and activator of transcription 1",
      "entity_type": "protein",
      "identifier": "Uniprot:P42224",
      "in_model": true
    },
    "participant_b": {
      "entity_text": "thrombospondin 1, TNFRSF11B, and WNT5A",
      "entity_type": "protein",
      "identifier": "Uniprot:P41221",
      "in_model": true
    }
  },
  "fries_provenance": [
    {
      "cmu-sentence-epistemic-status": "belief",
      "cmu-sentence-epistemic-value": 0.9,
      "component": "MedScan",
      "frame-file": "PMC3339464.cmu.medscan",
      "frame-id": "relm-PMC3339464-cmu-medscan-363",
      "sentence": "Several mRNAs, such as those encoding CYP1B1, IL8, neuronal pentraxin 1 , plasminogen activator inhibitor 2, PTGS2, NQO1, signal transducer and activator of transcription 1, transforming growth factor, beta-induced, thrombospondin 1, TNFRSF11B, and WNT5A, were induced in both types of cells by the AhR ligands 2,3,7,8-tetrachlorodibenzo-p-dioxin and PCB-126, and the fold induction of expression was generally higher in precursors than in adipocytes [see Supplemental Material, and 2 (http://dx.doi.org/10.1289/ehp.1104282)].",
      "text": "signal transducer and activator of transcription 1, transforming growth factor, beta-induced, thrombospondin 1, TNFRSF11B, and WNT5A"
    }
  ],
  "model_relation": "extension",
  "pmc_id": "PMC3339464",
  "reader_type": "machine",
  "reading_complete": "2015-06-15T22:45:37Z",
  "reading_started": "2015-06-15T22:45:32Z",
  "submitter": "FRIES"
}
