{
    "frames": [
        {
            "binds-constituent1": [
                "NIR", 
                "NIR"
            ], 
            "frame-id": "imp-PMC3973334-cmu-pradsys-858", 
            "frame-type": "implication", 
            "implication-type": "binds", 
            "object-meta": {
                "object-type": "meta-info", 
                "organization": "CMU"
            }, 
            "object-type": "frame", 
            "sentence": "sent-PMC3973334-cmu-130"
        }, 
        {
            "binds-constituent1": [
                "ActD"
            ], 
            "frame-id": "imp-PMC3973334-cmu-pradsys-859", 
            "frame-type": "implication", 
            "implication-type": "binds", 
            "object-meta": {
                "object-type": "meta-info", 
                "organization": "CMU"
            }, 
            "object-type": "frame", 
            "sentence": "sent-PMC3973334-cmu-131"
        }, 
        {
            "binds-constituent1": [
                "several other nucleolar proteins including ribosomal protein L11"
            ], 
            "frame-id": "imp-PMC3973334-cmu-pradsys-860", 
            "frame-type": "implication", 
            "implication-type": "binds", 
            "object-meta": {
                "object-type": "meta-info", 
                "organization": "CMU"
            }, 
            "object-type": "frame", 
            "sentence": "sent-PMC3973334-cmu-134"
        }, 
        {
            "binds-constituent1": [
                "L11"
            ], 
            "frame-id": "imp-PMC3973334-cmu-pradsys-861", 
            "frame-type": "implication", 
            "implication-type": "binds", 
            "object-meta": {
                "object-type": "meta-info", 
                "organization": "CMU"
            }, 
            "object-type": "frame", 
            "sentence": "sent-PMC3973334-cmu-136"
        }, 
        {
            "cell-type": [
                "human H1299 lung adenocarcinoma cells"
            ], 
            "frame-id": "imp-PMC3973334-cmu-pradsys-862", 
            "frame-type": "implication", 
            "implication-type": "binds", 
            "object-meta": {
                "object-type": "meta-info", 
                "organization": "CMU"
            }, 
            "object-type": "frame", 
            "process": [
                "transfected"
            ], 
            "sentence": "sent-PMC3973334-cmu-137"
        }, 
        {
            "assay-molecule": [
                "ActD"
            ], 
            "frame-id": "imp-PMC3973334-cmu-pradsys-863", 
            "frame-type": "implication", 
            "implication-type": "binds", 
            "object-meta": {
                "object-type": "meta-info", 
                "organization": "CMU"
            }, 
            "object-type": "frame", 
            "sentence": "sent-PMC3973334-cmu-138", 
            "transfection-molecule": [
                "1"
            ]
        }, 
        {
            "assay-molecule": [
                "ActD"
            ], 
            "frame-id": "imp-PMC3973334-cmu-pradsys-864", 
            "frame-type": "implication", 
            "implication-type": "binds", 
            "object-meta": {
                "object-type": "meta-info", 
                "organization": "CMU"
            }, 
            "object-type": "frame", 
            "sentence": "sent-PMC3973334-cmu-139"
        }, 
        {
            "assay-molecule": [
                "ActD"
            ], 
            "frame-id": "imp-PMC3973334-cmu-pradsys-865", 
            "frame-type": "implication", 
            "implication-type": "binds", 
            "object-meta": {
                "object-type": "meta-info", 
                "organization": "CMU"
            }, 
            "object-type": "frame", 
            "sentence": "sent-PMC3973334-cmu-140"
        }, 
        {
            "cell-type": [
                "ActD-stressed cells"
            ], 
            "frame-id": "imp-PMC3973334-cmu-pradsys-866", 
            "frame-type": "implication", 
            "implication-type": "binds", 
            "object-meta": {
                "object-type": "meta-info", 
                "organization": "CMU"
            }, 
            "object-type": "frame", 
            "sentence": "sent-PMC3973334-cmu-141", 
            "transfection-molecule": [
                "different sublethal doses of ActD ( 24 )"
            ]
        }, 
        {
            "binds-constituent1": [
                "polyclonal anti-NIR antibodies 2910 or 2719"
            ], 
            "frame-id": "imp-PMC3973334-cmu-pradsys-867", 
            "frame-type": "implication", 
            "implication-type": "binds", 
            "object-meta": {
                "object-type": "meta-info", 
                "organization": "CMU"
            }, 
            "object-type": "frame", 
            "sentence": "sent-PMC3973334-cmu-142", 
            "transfection-molecule": [
                "293T"
            ]
        }, 
        {
            "binds-constituent2": [
                "endogenous NIR"
            ], 
            "cell-type": [
                "human U2OS osteosarcoma cells", 
                "H1299 cells"
            ], 
            "frame-id": "imp-PMC3973334-cmu-pradsys-868", 
            "frame-type": "implication", 
            "implication-type": "binds", 
            "object-meta": {
                "object-type": "meta-info", 
                "organization": "CMU"
            }, 
            "object-type": "frame", 
            "sentence": "sent-PMC3973334-cmu-143"
        }, 
        {
            "binds-complex": [
                "the"
            ], 
            "binds-constituent1": [
                "ectopic Flag-tagged NIR , endogenous NIR", 
                "MDM2"
            ], 
            "frame-id": "imp-PMC3973334-cmu-pradsys-869", 
            "frame-type": "implication", 
            "implication-type": "binds", 
            "object-meta": {
                "object-type": "meta-info", 
                "organization": "CMU"
            }, 
            "object-type": "frame", 
            "sentence": "sent-PMC3973334-cmu-144"
        }, 
        {
            "cell-type": [
                "H1299 cells"
            ], 
            "frame-id": "imp-PMC3973334-cmu-pradsys-870", 
            "frame-type": "implication", 
            "implication-type": "binds", 
            "object-meta": {
                "object-type": "meta-info", 
                "organization": "CMU"
            }, 
            "object-type": "frame", 
            "process": [
                "transfected"
            ], 
            "sentence": "sent-PMC3973334-cmu-146"
        }, 
        {
            "coreference-target": [
                "the indicated times"
            ], 
            "frame-id": "imp-PMC3973334-cmu-pradsys-871", 
            "frame-type": "implication", 
            "implication-type": "binds", 
            "ip-molecule": [
                "anti-Flag"
            ], 
            "object-meta": {
                "object-type": "meta-info", 
                "organization": "CMU"
            }, 
            "object-type": "frame", 
            "sentence": "sent-PMC3973334-cmu-147"
        }, 
        {
            "cell-type": [
                "H1299 cells"
            ], 
            "frame-id": "imp-PMC3973334-cmu-pradsys-872", 
            "frame-type": "implication", 
            "implication-type": "binds", 
            "object-meta": {
                "object-type": "meta-info", 
                "organization": "CMU"
            }, 
            "object-type": "frame", 
            "process": [
                "transfected"
            ], 
            "sentence": "sent-PMC3973334-cmu-151"
        }, 
        {
            "binds-constituent2": [
                "ActD"
            ], 
            "binds-site": [
                "a dose of \u2265100 nM"
            ], 
            "frame-id": "imp-PMC3973334-cmu-pradsys-873", 
            "frame-type": "implication", 
            "implication-type": "binds", 
            "object-meta": {
                "object-type": "meta-info", 
                "organization": "CMU"
            }, 
            "object-type": "frame", 
            "sentence": "sent-PMC3973334-cmu-152"
        }, 
        {
            "cell-type": [
                "U2OS cells"
            ], 
            "frame-id": "imp-PMC3973334-cmu-pradsys-874", 
            "frame-type": "implication", 
            "implication-type": "binds", 
            "object-meta": {
                "object-type": "meta-info", 
                "organization": "CMU"
            }, 
            "object-type": "frame", 
            "sentence": "sent-PMC3973334-cmu-154", 
            "transfection-molecule": [
                "polyclonal anti-NIR antibody 2910 ( 1"
            ]
        }, 
        {
            "binds-controller": [
                "secondary Alexa Fluor 488-conjugated anti-rabbit ( 1"
            ], 
            "entity": [
                "Bound antibodies"
            ], 
            "frame-id": "imp-PMC3973334-cmu-pradsys-875", 
            "frame-type": "implication", 
            "implication-type": "binds", 
            "object-meta": {
                "object-type": "meta-info", 
                "organization": "CMU"
            }, 
            "object-type": "frame", 
            "sentence": "sent-PMC3973334-cmu-155"
        }, 
        {
            "frame-id": "imp-PMC3973334-cmu-pradsys-876", 
            "frame-type": "implication", 
            "implication-type": "binds", 
            "object-meta": {
                "object-type": "meta-info", 
                "organization": "CMU"
            }, 
            "object-type": "frame", 
            "process": [
                "stained"
            ], 
            "sentence": "sent-PMC3973334-cmu-156"
        }, 
        {
            "binds-constituent1": [
                "NIR"
            ], 
            "frame-id": "imp-PMC3973334-cmu-pradsys-877", 
            "frame-type": "implication", 
            "implication-type": "binds", 
            "object-meta": {
                "object-type": "meta-info", 
                "organization": "CMU"
            }, 
            "object-type": "frame", 
            "sentence": "sent-PMC3973334-cmu-157"
        }, 
        {
            "binds-constituent2": [
                "NIR"
            ], 
            "cell-type": [
                "U2OS cells"
            ], 
            "frame-id": "imp-PMC3973334-cmu-pradsys-878", 
            "frame-type": "implication", 
            "implication-type": "binds", 
            "incubation-reagent": [
                "100 nM ActD"
            ], 
            "object-meta": {
                "object-type": "meta-info", 
                "organization": "CMU"
            }, 
            "object-type": "frame", 
            "process": [
                "immunoprecipitated"
            ], 
            "sentence": "sent-PMC3973334-cmu-158"
        }, 
        {
            "binds-constituent2": [
                "MDM2"
            ], 
            "frame-id": "imp-PMC3973334-cmu-pradsys-879", 
            "frame-type": "implication", 
            "implication-type": "binds", 
            "object-meta": {
                "object-type": "meta-info", 
                "organization": "CMU"
            }, 
            "object-type": "frame", 
            "sentence": "sent-PMC3973334-cmu-159"
        }, 
        {
            "cell-type": [
                "isolated H1299 cell nuclei"
            ], 
            "frame-id": "imp-PMC3973334-cmu-pradsys-880", 
            "frame-type": "implication", 
            "implication-type": "binds", 
            "object-meta": {
                "object-type": "meta-info", 
                "organization": "CMU"
            }, 
            "object-type": "frame", 
            "process": [
                "precipitated"
            ], 
            "sentence": "sent-PMC3973334-cmu-160"
        }, 
        {
            "cell-type": [
                "H1299 cells"
            ], 
            "frame-id": "imp-PMC3973334-cmu-pradsys-881", 
            "frame-type": "implication", 
            "implication-type": "binds", 
            "object-meta": {
                "object-type": "meta-info", 
                "organization": "CMU"
            }, 
            "object-type": "frame", 
            "process": [
                "transfected"
            ], 
            "sentence": "sent-PMC3973334-cmu-161"
        }, 
        {
            "binds-constituent1": [
                "NIR"
            ], 
            "cell-type": [
                "p53-negative cells"
            ], 
            "frame-id": "imp-PMC3973334-cmu-pradsys-882", 
            "frame-type": "implication", 
            "implication-type": "binds", 
            "object-meta": {
                "object-type": "meta-info", 
                "organization": "CMU"
            }, 
            "object-type": "frame", 
            "sentence": "sent-PMC3973334-cmu-162"
        }, 
        {
            "frame-id": "imp-PMC3973334-cmu-pradsys-883", 
            "frame-type": "implication", 
            "implication-type": "binds", 
            "ip-molecule": [
                "Flag-NIR coprecipitated MDM2"
            ], 
            "object-meta": {
                "object-type": "meta-info", 
                "organization": "CMU"
            }, 
            "object-type": "frame", 
            "sentence": "sent-PMC3973334-cmu-163", 
            "transfection-molecule": [
                "MDM2 coprecipitated Flag-NIR ( Figure 2D )"
            ]
        }, 
        {
            "frame-id": "imp-PMC3973334-cmu-pradsys-884", 
            "frame-type": "implication", 
            "implication-type": "binds", 
            "object-meta": {
                "object-type": "meta-info", 
                "organization": "CMU"
            }, 
            "object-type": "frame", 
            "process": [
                "GST pull-down assays"
            ], 
            "sentence": "sent-PMC3973334-cmu-164"
        }, 
        {
            "binds-constituent1": [
                "a GST pull-down with full-length human MDM2"
            ], 
            "frame-id": "imp-PMC3973334-cmu-pradsys-885", 
            "frame-type": "implication", 
            "implication-type": "binds", 
            "ip-molecule": [
                "vitro-translated 35S-labelled full-length NIR"
            ], 
            "object-meta": {
                "object-type": "meta-info", 
                "organization": "CMU"
            }, 
            "object-type": "frame", 
            "sentence": "sent-PMC3973334-cmu-165"
        }, 
        {
            "binds-constituent1": [
                "NIR"
            ], 
            "frame-id": "imp-PMC3973334-cmu-pradsys-886", 
            "frame-type": "implication", 
            "implication-type": "binds", 
            "object-meta": {
                "object-type": "meta-info", 
                "organization": "CMU"
            }, 
            "object-type": "frame", 
            "sentence": "sent-PMC3973334-cmu-166"
        }, 
        {
            "assay-molecule": [
                "GST-MDM2"
            ], 
            "binds-site": [
                "the central portion of NIR ( residues 147\u2013609 )"
            ], 
            "frame-id": "imp-PMC3973334-cmu-pradsys-887", 
            "frame-type": "implication", 
            "implication-type": "binds", 
            "object-meta": {
                "object-type": "meta-info", 
                "organization": "CMU"
            }, 
            "object-type": "frame", 
            "process": [
                "GST pull-down analyses"
            ], 
            "sentence": "sent-PMC3973334-cmu-167"
        }, 
        {
            "binds-constituent1": [
                "NIR", 
                "MDM2"
            ], 
            "binds-site": [
                "The two INHAT domains of", 
                "the C-terminal RING domain of"
            ], 
            "frame-id": "imp-PMC3973334-cmu-pradsys-888", 
            "frame-type": "implication", 
            "implication-type": "binds", 
            "object-meta": {
                "object-type": "meta-info", 
                "organization": "CMU"
            }, 
            "object-type": "frame", 
            "sentence": "sent-PMC3973334-cmu-168"
        }, 
        {
            "binds-constituent1": [
                "NIR"
            ], 
            "frame-id": "imp-PMC3973334-cmu-pradsys-889", 
            "frame-type": "implication", 
            "implication-type": "binds", 
            "object-meta": {
                "object-type": "meta-info", 
                "organization": "CMU"
            }, 
            "object-type": "frame", 
            "sentence": "sent-PMC3973334-cmu-169"
        }, 
        {
            "binds-constituent1": [
                "NIR", 
                "MDM2"
            ], 
            "frame-id": "imp-PMC3973334-cmu-pradsys-890", 
            "frame-type": "implication", 
            "implication-type": "binds", 
            "object-meta": {
                "object-type": "meta-info", 
                "organization": "CMU"
            }, 
            "object-type": "frame", 
            "sentence": "sent-PMC3973334-cmu-170"
        }, 
        {
            "cell-type": [
                "U2OS cells"
            ], 
            "frame-id": "imp-PMC3973334-cmu-pradsys-891", 
            "frame-type": "implication", 
            "implication-type": "binds", 
            "ip-molecule": [
                "monoclonal"
            ], 
            "object-meta": {
                "object-type": "meta-info", 
                "organization": "CMU"
            }, 
            "object-type": "frame", 
            "process": [
                "immunoprecipitated"
            ], 
            "sentence": "sent-PMC3973334-cmu-171"
        }, 
        {
            "binds-controller": [
                "polyclonal antibody 2910 ( 1"
            ], 
            "frame-id": "imp-PMC3973334-cmu-pradsys-892", 
            "frame-type": "implication", 
            "implication-type": "binds", 
            "ip-molecule": [
                "MDM2"
            ], 
            "object-meta": {
                "object-type": "meta-info", 
                "organization": "CMU"
            }, 
            "object-type": "frame", 
            "process": [
                "immunoblotting"
            ], 
            "sentence": "sent-PMC3973334-cmu-172"
        }, 
        {
            "binds-constituent1": [
                "NIR"
            ], 
            "frame-id": "imp-PMC3973334-cmu-pradsys-893", 
            "frame-type": "implication", 
            "implication-type": "binds", 
            "object-meta": {
                "object-type": "meta-info", 
                "organization": "CMU"
            }, 
            "object-type": "frame", 
            "sentence": "sent-PMC3973334-cmu-173"
        }, 
        {
            "cell-type": [
                "U2OS cells"
            ], 
            "frame-id": "imp-PMC3973334-cmu-pradsys-894", 
            "frame-type": "implication", 
            "implication-type": "binds", 
            "object-meta": {
                "object-type": "meta-info", 
                "organization": "CMU"
            }, 
            "object-type": "frame", 
            "process": [
                "immunoprecipitated"
            ], 
            "sentence": "sent-PMC3973334-cmu-174", 
            "transfection-molecule": [
                "irrelevant IgG"
            ]
        }, 
        {
            "frame-id": "imp-PMC3973334-cmu-pradsys-895", 
            "frame-type": "implication", 
            "implication-type": "binds", 
            "object-meta": {
                "object-type": "meta-info", 
                "organization": "CMU"
            }, 
            "object-type": "frame", 
            "process": [
                "detected"
            ], 
            "sentence": "sent-PMC3973334-cmu-175"
        }, 
        {
            "frame-id": "imp-PMC3973334-cmu-pradsys-896", 
            "frame-type": "implication", 
            "implication-type": "binds", 
            "object-meta": {
                "object-type": "meta-info", 
                "organization": "CMU"
            }, 
            "object-type": "frame", 
            "process": [
                "transfected"
            ], 
            "sentence": "sent-PMC3973334-cmu-179"
        }, 
        {
            "entity": [
                "cell extracts"
            ], 
            "frame-id": "imp-PMC3973334-cmu-pradsys-897", 
            "frame-type": "implication", 
            "implication-type": "binds", 
            "ip-molecule": [
                "anti-Flag"
            ], 
            "object-meta": {
                "object-type": "meta-info", 
                "organization": "CMU"
            }, 
            "object-type": "frame", 
            "sentence": "sent-PMC3973334-cmu-180"
        }, 
        {
            "entity": [
                "the total cell lysate ( TCL )"
            ], 
            "frame-id": "imp-PMC3973334-cmu-pradsys-898", 
            "frame-type": "implication", 
            "implication-type": "binds", 
            "object-meta": {
                "object-type": "meta-info", 
                "organization": "CMU"
            }, 
            "object-type": "frame", 
            "sentence": "sent-PMC3973334-cmu-181"
        }, 
        {
            "binds-constituent1": [
                "Flag-NIR"
            ], 
            "frame-id": "imp-PMC3973334-cmu-pradsys-899", 
            "frame-type": "implication", 
            "implication-type": "binds", 
            "object-meta": {
                "object-type": "meta-info", 
                "organization": "CMU"
            }, 
            "object-type": "frame", 
            "sentence": "sent-PMC3973334-cmu-182"
        }, 
        {
            "entity": [
                "cell extracts"
            ], 
            "frame-id": "imp-PMC3973334-cmu-pradsys-900", 
            "frame-type": "implication", 
            "implication-type": "binds", 
            "ip-molecule": [
                "anti-MDM2"
            ], 
            "object-meta": {
                "object-type": "meta-info", 
                "organization": "CMU"
            }, 
            "object-type": "frame", 
            "sentence": "sent-PMC3973334-cmu-184"
        }, 
        {
            "entity": [
                "the total cell lysate ( TCL )"
            ], 
            "frame-id": "imp-PMC3973334-cmu-pradsys-901", 
            "frame-type": "implication", 
            "implication-type": "binds", 
            "object-meta": {
                "object-type": "meta-info", 
                "organization": "CMU"
            }, 
            "object-type": "frame", 
            "sentence": "sent-PMC3973334-cmu-185"
        }, 
        {
            "binds-constituent1": [
                "NIR"
            ], 
            "frame-id": "imp-PMC3973334-cmu-pradsys-902", 
            "frame-type": "implication", 
            "implication-type": "binds", 
            "object-meta": {
                "object-type": "meta-info", 
                "organization": "CMU"
            }, 
            "object-type": "frame", 
            "process": [
                "GST pull-down assay"
            ], 
            "sentence": "sent-PMC3973334-cmu-186"
        }, 
        {
            "binds-constituent1": [
                "NIR"
            ], 
            "frame-id": "imp-PMC3973334-cmu-pradsys-903", 
            "frame-type": "implication", 
            "implication-type": "binds", 
            "object-meta": {
                "object-type": "meta-info", 
                "organization": "CMU"
            }, 
            "object-type": "frame", 
            "sentence": "sent-PMC3973334-cmu-187"
        }, 
        {
            "coreference-target": [
                "the labelled NIR"
            ], 
            "frame-id": "imp-PMC3973334-cmu-pradsys-904", 
            "frame-type": "implication", 
            "implication-type": "binds", 
            "object-meta": {
                "object-type": "meta-info", 
                "organization": "CMU"
            }, 
            "object-type": "frame", 
            "sentence": "sent-PMC3973334-cmu-189"
        }, 
        {
            "binds-constituent1": [
                "MDM2"
            ], 
            "frame-id": "imp-PMC3973334-cmu-pradsys-905", 
            "frame-type": "implication", 
            "implication-type": "binds", 
            "object-meta": {
                "object-type": "meta-info", 
                "organization": "CMU"
            }, 
            "object-type": "frame", 
            "sentence": "sent-PMC3973334-cmu-190"
        }, 
        {
            "binds-constituent1": [
                "GST-MDM2"
            ], 
            "binds-constituent2": [
                "NIR"
            ], 
            "binds-site": [
                "35S-labelled fragments of"
            ], 
            "frame-id": "imp-PMC3973334-cmu-pradsys-906", 
            "frame-type": "implication", 
            "implication-type": "binds", 
            "object-meta": {
                "object-type": "meta-info", 
                "organization": "CMU"
            }, 
            "object-type": "frame", 
            "sentence": "sent-PMC3973334-cmu-191", 
            "transfection-molecule": [
                "2"
            ]
        }, 
        {
            "assay-molecule": [
                "NIR"
            ], 
            "frame-id": "imp-PMC3973334-cmu-pradsys-907", 
            "frame-type": "implication", 
            "implication-type": "binds", 
            "object-meta": {
                "object-type": "meta-info", 
                "organization": "CMU"
            }, 
            "object-type": "frame", 
            "sentence": "sent-PMC3973334-cmu-192"
        }, 
        {
            "binds-constituent1": [
                "NIR"
            ], 
            "frame-id": "imp-PMC3973334-cmu-pradsys-908", 
            "frame-type": "implication", 
            "implication-type": "binds", 
            "object-meta": {
                "object-type": "meta-info", 
                "organization": "CMU"
            }, 
            "object-type": "frame", 
            "process": [
                "MDM2 ( asterisks ) in GST pull-down assays"
            ], 
            "sentence": "sent-PMC3973334-cmu-196"
        }, 
        {
            "coreference-target": [
                "the indicated GST-MDM2 fragments"
            ], 
            "frame-id": "imp-PMC3973334-cmu-pradsys-909", 
            "frame-type": "implication", 
            "implication-type": "binds", 
            "object-meta": {
                "object-type": "meta-info", 
                "organization": "CMU"
            }, 
            "object-type": "frame", 
            "sentence": "sent-PMC3973334-cmu-197", 
            "transfection-molecule": [
                "2", 
                "3", 
                "4"
            ]
        }, 
        {
            "assay-molecule": [
                "NIR"
            ], 
            "binds-constituent1": [
                "MDM2"
            ], 
            "cell-type": [
                "H1299 cells", 
                "transfected cells"
            ], 
            "frame-id": "imp-PMC3973334-cmu-pradsys-910", 
            "frame-type": "implication", 
            "implication-type": "binds", 
            "object-meta": {
                "object-type": "meta-info", 
                "organization": "CMU"
            }, 
            "object-type": "frame", 
            "process": [
                "western blotting"
            ], 
            "sentence": "sent-PMC3973334-cmu-201"
        }, 
        {
            "binds-controller": [
                "IF2"
            ], 
            "binds-strength": [
                "monoclonal MDM2 antibody IF2 failed to detect MDM2"
            ], 
            "cell-type": [
                "H1299 cells"
            ], 
            "frame-id": "imp-PMC3973334-cmu-pradsys-911", 
            "frame-type": "implication", 
            "implication-type": "binds", 
            "object-meta": {
                "object-type": "meta-info", 
                "organization": "CMU"
            }, 
            "object-type": "frame", 
            "sentence": "sent-PMC3973334-cmu-202", 
            "transfection-molecule": [
                "3G9"
            ]
        }, 
        {
            "binds-constituent1": [
                "MDM2"
            ], 
            "frame-id": "imp-PMC3973334-cmu-pradsys-912", 
            "frame-type": "implication", 
            "implication-type": "binds", 
            "object-meta": {
                "object-type": "meta-info", 
                "organization": "CMU"
            }, 
            "object-type": "frame", 
            "process": [
                "detected by IF2 when NIR"
            ], 
            "sentence": "sent-PMC3973334-cmu-203"
        }, 
        {
            "frame-id": "imp-PMC3973334-cmu-pradsys-913", 
            "frame-type": "implication", 
            "implication-type": "binds", 
            "object-meta": {
                "object-type": "meta-info", 
                "organization": "CMU"
            }, 
            "object-type": "frame", 
            "sentence": "sent-PMC3973334-cmu-205", 
            "transfection-molecule": [
                "MDM2.Figure 4.Ectopic NIR stabilizes MDM2"
            ]
        }, 
        {
            "binds-constituent1": [
                "NIR"
            ], 
            "frame-id": "imp-PMC3973334-cmu-pradsys-914", 
            "frame-type": "implication", 
            "implication-type": "binds", 
            "object-meta": {
                "object-type": "meta-info", 
                "organization": "CMU"
            }, 
            "object-type": "frame", 
            "sentence": "sent-PMC3973334-cmu-206"
        }, 
        {
            "cell-type": [
                "H1299 cells"
            ], 
            "frame-id": "imp-PMC3973334-cmu-pradsys-915", 
            "frame-type": "implication", 
            "implication-type": "binds", 
            "object-meta": {
                "object-type": "meta-info", 
                "organization": "CMU"
            }, 
            "object-type": "frame", 
            "process": [
                "transfected"
            ], 
            "sentence": "sent-PMC3973334-cmu-207"
        }, 
        {
            "assay-molecule": [
                "RT-PCR"
            ], 
            "frame-id": "imp-PMC3973334-cmu-pradsys-916", 
            "frame-type": "implication", 
            "implication-type": "binds", 
            "object-meta": {
                "object-type": "meta-info", 
                "organization": "CMU"
            }, 
            "object-type": "frame", 
            "sentence": "sent-PMC3973334-cmu-208"
        }, 
        {
            "frame-id": "imp-PMC3973334-cmu-pradsys-917", 
            "frame-type": "implication", 
            "implication-type": "binds", 
            "object-meta": {
                "object-type": "meta-info", 
                "organization": "CMU"
            }, 
            "object-type": "frame", 
            "process": [
                "detected by western blotting"
            ], 
            "sentence": "sent-PMC3973334-cmu-209"
        }, 
        {
            "binds-constituent1": [
                "Flag-NIR"
            ], 
            "frame-id": "imp-PMC3973334-cmu-pradsys-918", 
            "frame-type": "implication", 
            "implication-type": "binds", 
            "object-meta": {
                "object-type": "meta-info", 
                "organization": "CMU"
            }, 
            "object-type": "frame", 
            "sentence": "sent-PMC3973334-cmu-210"
        }, 
        {
            "frame-id": "imp-PMC3973334-cmu-pradsys-919", 
            "frame-type": "implication", 
            "implication-type": "binds", 
            "object-meta": {
                "object-type": "meta-info", 
                "organization": "CMU"
            }, 
            "object-type": "frame", 
            "process": [
                "transfected"
            ], 
            "sentence": "sent-PMC3973334-cmu-211", 
            "transfection-molecule": [
                "Flag-NIR ( 0.5 , 1.5"
            ]
        }, 
        {
            "frame-id": "imp-PMC3973334-cmu-pradsys-920", 
            "frame-type": "implication", 
            "implication-type": "binds", 
            "object-meta": {
                "object-type": "meta-info", 
                "organization": "CMU"
            }, 
            "object-type": "frame", 
            "process": [
                "prepared"
            ], 
            "sentence": "sent-PMC3973334-cmu-212"
        }, 
        {
            "entity": [
                "Proteins"
            ], 
            "frame-id": "imp-PMC3973334-cmu-pradsys-921", 
            "frame-type": "implication", 
            "implication-type": "binds", 
            "object-meta": {
                "object-type": "meta-info", 
                "organization": "CMU"
            }, 
            "object-type": "frame", 
            "sentence": "sent-PMC3973334-cmu-213"
        }, 
        {
            "cell-type": [
                "H1299 cells"
            ], 
            "frame-id": "imp-PMC3973334-cmu-pradsys-922", 
            "frame-type": "implication", 
            "implication-type": "binds", 
            "object-meta": {
                "object-type": "meta-info", 
                "organization": "CMU"
            }, 
            "object-type": "frame", 
            "process": [
                "transfected"
            ], 
            "sentence": "sent-PMC3973334-cmu-215"
        }, 
        {
            "binds-constituent1": [
                "MDM2"
            ], 
            "coreference-target": [
                "the indicated times"
            ], 
            "frame-id": "imp-PMC3973334-cmu-pradsys-923", 
            "frame-type": "implication", 
            "implication-type": "binds", 
            "object-meta": {
                "object-type": "meta-info", 
                "organization": "CMU"
            }, 
            "object-type": "frame", 
            "sentence": "sent-PMC3973334-cmu-216"
        }, 
        {
            "binds-constituent1": [
                "Flag-NIR"
            ], 
            "binds-constituent2": [
                "MDM2"
            ], 
            "frame-id": "imp-PMC3973334-cmu-pradsys-924", 
            "frame-type": "implication", 
            "implication-type": "binds", 
            "object-meta": {
                "object-type": "meta-info", 
                "organization": "CMU"
            }, 
            "object-type": "frame", 
            "sentence": "sent-PMC3973334-cmu-217"
        }, 
        {
            "assay-molecule": [
                "HA-ubiquitin"
            ], 
            "binds-controller": [
                "the proteasome inhibitor MG132"
            ], 
            "cell-type": [
                "H1299 cells"
            ], 
            "frame-id": "imp-PMC3973334-cmu-pradsys-925", 
            "frame-type": "implication", 
            "implication-type": "binds", 
            "object-meta": {
                "object-type": "meta-info", 
                "organization": "CMU"
            }, 
            "object-type": "frame", 
            "process": [
                "immunoprecipitated"
            ], 
            "sentence": "sent-PMC3973334-cmu-218", 
            "transfection-molecule": [
                "MDM2 ( 3 \u00b5g ) , Flag-NIR ( 0.5 , 1.5"
            ]
        }, 
        {
            "frame-id": "imp-PMC3973334-cmu-pradsys-926", 
            "frame-type": "implication", 
            "implication-type": "binds", 
            "ip-molecule": [
                "anti-HA"
            ], 
            "object-meta": {
                "object-type": "meta-info", 
                "organization": "CMU"
            }, 
            "object-type": "frame", 
            "process": [
                "detected by western blotting"
            ], 
            "sentence": "sent-PMC3973334-cmu-219"
        }, 
        {
            "binds-constituent2": [
                "endogenous NIR reduces MDM2 protein level"
            ], 
            "frame-id": "imp-PMC3973334-cmu-pradsys-927", 
            "frame-type": "implication", 
            "implication-type": "binds", 
            "object-meta": {
                "object-type": "meta-info", 
                "organization": "CMU"
            }, 
            "object-type": "frame", 
            "sentence": "sent-PMC3973334-cmu-221"
        }, 
        {
            "binds-controller": [
                "control siRNA ( c ) or a 1", 
                "anti-NIR antibody 2719 ( 1"
            ], 
            "cell-type": [
                "H1299 cells"
            ], 
            "entity": [
                "h. Total protein extracts"
            ], 
            "frame-id": "imp-PMC3973334-cmu-pradsys-928", 
            "frame-type": "implication", 
            "implication-type": "binds", 
            "object-meta": {
                "object-type": "meta-info", 
                "organization": "CMU"
            }, 
            "object-type": "frame", 
            "process": [
                "transfected"
            ], 
            "sentence": "sent-PMC3973334-cmu-222"
        }, 
        {
            "cell-type": [
                "H1299 cells"
            ], 
            "frame-id": "imp-PMC3973334-cmu-pradsys-929", 
            "frame-type": "implication", 
            "implication-type": "binds", 
            "object-meta": {
                "object-type": "meta-info", 
                "organization": "CMU"
            }, 
            "object-type": "frame", 
            "process": [
                "cycloheximide ( CHX ) chase experiments"
            ], 
            "sentence": "sent-PMC3973334-cmu-225"
        }, 
        {
            "binds-constituent1": [
                "NIR"
            ], 
            "frame-id": "imp-PMC3973334-cmu-pradsys-930", 
            "frame-type": "implication", 
            "implication-type": "binds", 
            "object-meta": {
                "object-type": "meta-info", 
                "organization": "CMU"
            }, 
            "object-type": "frame", 
            "sentence": "sent-PMC3973334-cmu-228"
        }, 
        {
            "binds-constituent1": [
                "NIR"
            ], 
            "binds-constituent2": [
                "MDM2"
            ], 
            "frame-id": "imp-PMC3973334-cmu-pradsys-931", 
            "frame-type": "implication", 
            "implication-type": "binds", 
            "object-meta": {
                "object-type": "meta-info", 
                "organization": "CMU"
            }, 
            "object-type": "frame", 
            "sentence": "sent-PMC3973334-cmu-232"
        }, 
        {
            "assay-molecule": [
                "Flag-NIR"
            ], 
            "entity": [
                "the denatured cell extracts"
            ], 
            "frame-id": "imp-PMC3973334-cmu-pradsys-932", 
            "frame-type": "implication", 
            "implication-type": "binds", 
            "ip-molecule": [
                "anti-HA", 
                "MDM2"
            ], 
            "object-meta": {
                "object-type": "meta-info", 
                "organization": "CMU"
            }, 
            "object-type": "frame", 
            "process": [
                "precipitated", 
                "analysed"
            ], 
            "sentence": "sent-PMC3973334-cmu-233"
        }, 
        {
            "binds-constituent2": [
                "endogenous NIR protein", 
                "endogenous MDM2 protein"
            ], 
            "cell-type": [
                "H1299 cells"
            ], 
            "frame-id": "imp-PMC3973334-cmu-pradsys-933", 
            "frame-type": "implication", 
            "implication-type": "binds", 
            "object-meta": {
                "object-type": "meta-info", 
                "organization": "CMU"
            }, 
            "object-type": "frame", 
            "sentence": "sent-PMC3973334-cmu-234"
        }, 
        {
            "binds-constituent1": [
                "NIR"
            ], 
            "binds-site": [
                "the NIR siRNAs versus control siRNA for 42 h , the level of"
            ], 
            "frame-id": "imp-PMC3973334-cmu-pradsys-934", 
            "frame-type": "implication", 
            "implication-type": "binds", 
            "object-meta": {
                "object-type": "meta-info", 
                "organization": "CMU"
            }, 
            "object-type": "frame", 
            "sentence": "sent-PMC3973334-cmu-236"
        }, 
        {
            "binds-constituent1": [
                "NIR"
            ], 
            "binds-site": [
                "did"
            ], 
            "cell-type": [
                "p53-deficient cells"
            ], 
            "frame-id": "imp-PMC3973334-cmu-pradsys-935", 
            "frame-type": "implication", 
            "implication-type": "binds", 
            "object-meta": {
                "object-type": "meta-info", 
                "organization": "CMU"
            }, 
            "object-type": "frame", 
            "sentence": "sent-PMC3973334-cmu-237"
        }, 
        {
            "frame-id": "imp-PMC3973334-cmu-pradsys-936", 
            "frame-type": "implication", 
            "implication-type": "binds", 
            "incubation-reagent": [
                "the MDM2 gene ( 13 )"
            ], 
            "object-meta": {
                "object-type": "meta-info", 
                "organization": "CMU"
            }, 
            "object-type": "frame", 
            "sentence": "sent-PMC3973334-cmu-238"
        }, 
        {
            "binds-constituent2": [
                "MDM2"
            ], 
            "frame-id": "imp-PMC3973334-cmu-pradsys-937", 
            "frame-type": "implication", 
            "implication-type": "binds", 
            "object-meta": {
                "object-type": "meta-info", 
                "organization": "CMU"
            }, 
            "object-type": "frame", 
            "sentence": "sent-PMC3973334-cmu-239"
        }, 
        {
            "binds-controller": [
                "MDM2"
            ], 
            "cell-type": [
                "most cells NIR"
            ], 
            "frame-id": "imp-PMC3973334-cmu-pradsys-938", 
            "frame-type": "implication", 
            "implication-type": "binds", 
            "object-meta": {
                "object-type": "meta-info", 
                "organization": "CMU"
            }, 
            "object-type": "frame", 
            "sentence": "sent-PMC3973334-cmu-240"
        }, 
        {
            "binds-constituent1": [
                "HA-MDM2"
            ], 
            "cell-type": [
                "HeLa cells"
            ], 
            "coreference-target": [
                "the endogenous proteins"
            ], 
            "frame-id": "imp-PMC3973334-cmu-pradsys-939", 
            "frame-type": "implication", 
            "implication-type": "binds", 
            "object-meta": {
                "object-type": "meta-info", 
                "organization": "CMU"
            }, 
            "object-type": "frame", 
            "sentence": "sent-PMC3973334-cmu-245", 
            "transfection-molecule": [
                "When H1299 , U2OS", 
                "HA-tagged MDM2"
            ]
        }, 
        {
            "binds-constituent2": [
                "Flag-NIR"
            ], 
            "frame-id": "imp-PMC3973334-cmu-pradsys-940", 
            "frame-type": "implication", 
            "implication-type": "binds", 
            "object-meta": {
                "object-type": "meta-info", 
                "organization": "CMU"
            }, 
            "object-type": "frame", 
            "sentence": "sent-PMC3973334-cmu-246"
        }, 
        {
            "binds-constituent2": [
                "ARF"
            ], 
            "frame-id": "imp-PMC3973334-cmu-pradsys-941", 
            "frame-type": "implication", 
            "implication-type": "binds", 
            "object-meta": {
                "object-type": "meta-info", 
                "organization": "CMU"
            }, 
            "object-type": "frame", 
            "sentence": "sent-PMC3973334-cmu-247"
        }, 
        {
            "binds-constituent1": [
                "MDM2"
            ], 
            "binds-constituent2": [
                "NIR"
            ], 
            "frame-id": "imp-PMC3973334-cmu-pradsys-942", 
            "frame-type": "implication", 
            "implication-type": "binds", 
            "object-meta": {
                "object-type": "meta-info", 
                "organization": "CMU"
            }, 
            "object-type": "frame", 
            "sentence": "sent-PMC3973334-cmu-250"
        }, 
        {
            "cell-type": [
                "H1299 cells"
            ], 
            "frame-id": "imp-PMC3973334-cmu-pradsys-943", 
            "frame-type": "implication", 
            "implication-type": "binds", 
            "object-meta": {
                "object-type": "meta-info", 
                "organization": "CMU"
            }, 
            "object-type": "frame", 
            "process": [
                "transfected"
            ], 
            "sentence": "sent-PMC3973334-cmu-251", 
            "transfection-molecule": [
                "wild-type MDM2"
            ]
        }, 
        {
            "binds-constituent1": [
                "Flag-NIR"
            ], 
            "entity": [
                "denatured cell extracts"
            ], 
            "frame-id": "imp-PMC3973334-cmu-pradsys-944", 
            "frame-type": "implication", 
            "implication-type": "binds", 
            "object-meta": {
                "object-type": "meta-info", 
                "organization": "CMU"
            }, 
            "object-type": "frame", 
            "sentence": "sent-PMC3973334-cmu-252"
        }, 
        {
            "frame-id": "imp-PMC3973334-cmu-pradsys-945", 
            "frame-type": "implication", 
            "implication-type": "binds", 
            "ip-molecule": [
                "anti-HA"
            ], 
            "object-meta": {
                "object-type": "meta-info", 
                "organization": "CMU"
            }, 
            "object-type": "frame", 
            "sentence": "sent-PMC3973334-cmu-253"
        }, 
        {
            "binds-constituent2": [
                "Flag-NIR"
            ], 
            "binds-controller": [
                "the absence of ectopic MDM2"
            ], 
            "frame-id": "imp-PMC3973334-cmu-pradsys-946", 
            "frame-type": "implication", 
            "implication-type": "binds", 
            "object-meta": {
                "object-type": "meta-info", 
                "organization": "CMU"
            }, 
            "object-type": "frame", 
            "sentence": "sent-PMC3973334-cmu-254"
        }, 
        {
            "assay-molecule": [
                "HA-ubiquitination"
            ], 
            "binds-constituent1": [
                "NIR"
            ], 
            "binds-constituent2": [
                "Flag-NIR", 
                "MDM2"
            ], 
            "binds-site": [
                "the presence of rising levels of ectopic"
            ], 
            "frame-id": "imp-PMC3973334-cmu-pradsys-947", 
            "frame-type": "implication", 
            "implication-type": "binds", 
            "m-val": [
                "the"
            ], 
            "object-meta": {
                "object-type": "meta-info", 
                "organization": "CMU"
            }, 
            "object-type": "frame", 
            "sentence": "sent-PMC3973334-cmu-255"
        }, 
        {
            "binds-constituent1": [
                "Flag-NIR", 
                "MDM2"
            ], 
            "frame-id": "imp-PMC3973334-cmu-pradsys-948", 
            "frame-type": "implication", 
            "implication-type": "binds", 
            "object-meta": {
                "object-type": "meta-info", 
                "organization": "CMU"
            }, 
            "object-type": "frame", 
            "sentence": "sent-PMC3973334-cmu-256"
        }, 
        {
            "binds-constituent1": [
                "NIR"
            ], 
            "binds-site": [
                "a portion of ectopic"
            ], 
            "frame-id": "imp-PMC3973334-cmu-pradsys-949", 
            "frame-type": "implication", 
            "implication-type": "binds", 
            "object-meta": {
                "object-type": "meta-info", 
                "organization": "CMU"
            }, 
            "object-type": "frame", 
            "sentence": "sent-PMC3973334-cmu-257"
        }, 
        {
            "binds-constituent1": [
                "NIR"
            ], 
            "binds-constituent2": [
                "endogenous NIR protein"
            ], 
            "frame-id": "imp-PMC3973334-cmu-pradsys-950", 
            "frame-type": "implication", 
            "implication-type": "binds", 
            "object-meta": {
                "object-type": "meta-info", 
                "organization": "CMU"
            }, 
            "object-type": "frame", 
            "sentence": "sent-PMC3973334-cmu-258"
        }, 
        {
            "assay-molecule": [
                "HA-ubiquitin", 
                "MG132"
            ], 
            "binds-constituent2": [
                "Flag-NIR", 
                "HA-ubiquitinated NIR"
            ], 
            "binds-site": [
                "( 2 \u00b5g ) , MDM2 ( 0.1 , 0.25 or 0.5 \u00b5g ) , MDM2 RING domain mutant G448S/C449A ("
            ], 
            "cell-type": [
                "H1299 cells"
            ], 
            "frame-id": "imp-PMC3973334-cmu-pradsys-951", 
            "frame-type": "implication", 
            "implication-type": "binds", 
            "ip-molecule": [
                "anti-Flag"
            ], 
            "object-meta": {
                "object-type": "meta-info", 
                "organization": "CMU"
            }, 
            "object-type": "frame", 
            "process": [
                "immunoprecipitated"
            ], 
            "sentence": "sent-PMC3973334-cmu-260", 
            "transfection-molecule": [
                "the precipitated Flag-NIR"
            ]
        }, 
        {
            "binds-controller": [
                "Anti-Flag monoclonal antibody ( 1"
            ], 
            "frame-id": "imp-PMC3973334-cmu-pradsys-952", 
            "frame-type": "implication", 
            "implication-type": "binds", 
            "object-meta": {
                "object-type": "meta-info", 
                "organization": "CMU"
            }, 
            "object-type": "frame", 
            "sentence": "sent-PMC3973334-cmu-261"
        }, 
        {
            "binds-constituent2": [
                "endogenous MDM2 increases the endogenous NIR level"
            ], 
            "frame-id": "imp-PMC3973334-cmu-pradsys-953", 
            "frame-type": "implication", 
            "implication-type": "binds", 
            "object-meta": {
                "object-type": "meta-info", 
                "organization": "CMU"
            }, 
            "object-type": "frame", 
            "sentence": "sent-PMC3973334-cmu-263"
        }, 
        {
            "binds-constituent1": [
                "polyclonal anti-NIR antibodies 2719 and 2910"
            ], 
            "binds-controller": [
                "control siRNA ( CON siRNA ) and MDM2 siRNA"
            ], 
            "cell-type": [
                "H1299 cells"
            ], 
            "entity": [
                "h. Total protein extracts"
            ], 
            "frame-id": "imp-PMC3973334-cmu-pradsys-954", 
            "frame-type": "implication", 
            "implication-type": "binds", 
            "object-meta": {
                "object-type": "meta-info", 
                "organization": "CMU"
            }, 
            "object-type": "frame", 
            "process": [
                "transfected", 
                "western blot analysis"
            ], 
            "sentence": "sent-PMC3973334-cmu-264", 
            "transfection-molecule": [
                "5", 
                "10"
            ]
        }, 
        {
            "assay-molecule": [
                "MG132", 
                "NIR"
            ], 
            "cell-type": [
                "H1299 cells"
            ], 
            "frame-id": "imp-PMC3973334-cmu-pradsys-955", 
            "frame-type": "implication", 
            "implication-type": "binds", 
            "object-meta": {
                "object-type": "meta-info", 
                "organization": "CMU"
            }, 
            "object-type": "frame", 
            "sentence": "sent-PMC3973334-cmu-266"
        }, 
        {
            "binds-constituent1": [
                "MDM2"
            ], 
            "frame-id": "imp-PMC3973334-cmu-pradsys-956", 
            "frame-type": "implication", 
            "implication-type": "binds", 
            "object-meta": {
                "object-type": "meta-info", 
                "organization": "CMU"
            }, 
            "object-type": "frame", 
            "sentence": "sent-PMC3973334-cmu-267"
        }, 
        {
            "binds-constituent2": [
                "MDM2 siRNA", 
                "endogenous NIR protein"
            ], 
            "binds-controller": [
                "gradual knockdown of endogenous MDM2"
            ], 
            "cell-type": [
                "H1299 cells"
            ], 
            "frame-id": "imp-PMC3973334-cmu-pradsys-957", 
            "frame-type": "implication", 
            "implication-type": "binds", 
            "object-meta": {
                "object-type": "meta-info", 
                "organization": "CMU"
            }, 
            "object-type": "frame", 
            "sentence": "sent-PMC3973334-cmu-268"
        }, 
        {
            "binds-constituent2": [
                "endogenous NIR"
            ], 
            "frame-id": "imp-PMC3973334-cmu-pradsys-958", 
            "frame-type": "implication", 
            "implication-type": "binds", 
            "ip-molecule": [
                "different polyclonal NIR antibodies"
            ], 
            "object-meta": {
                "object-type": "meta-info", 
                "organization": "CMU"
            }, 
            "object-type": "frame", 
            "process": [
                "detected"
            ], 
            "sentence": "sent-PMC3973334-cmu-270"
        }, 
        {
            "binds-controller": [
                "proteasome inhibitor MG132 for 4 h"
            ], 
            "frame-id": "imp-PMC3973334-cmu-pradsys-959", 
            "frame-type": "implication", 
            "implication-type": "binds", 
            "object-meta": {
                "object-type": "meta-info", 
                "organization": "CMU"
            }, 
            "object-type": "frame", 
            "sentence": "sent-PMC3973334-cmu-271"
        }, 
        {
            "binds-constituent1": [
                "NIR"
            ], 
            "frame-id": "imp-PMC3973334-cmu-pradsys-960", 
            "frame-type": "implication", 
            "implication-type": "binds", 
            "object-meta": {
                "object-type": "meta-info", 
                "organization": "CMU"
            }, 
            "object-type": "frame", 
            "sentence": "sent-PMC3973334-cmu-272"
        }, 
        {
            "binds-constituent1": [
                "NIR"
            ], 
            "binds-site": [
                "can"
            ], 
            "frame-id": "imp-PMC3973334-cmu-pradsys-961", 
            "frame-type": "implication", 
            "implication-type": "binds", 
            "object-meta": {
                "object-type": "meta-info", 
                "organization": "CMU"
            }, 
            "object-type": "frame", 
            "sentence": "sent-PMC3973334-cmu-273"
        }, 
        {
            "assay-molecule": [
                "MDM2"
            ], 
            "frame-id": "imp-PMC3973334-cmu-pradsys-962", 
            "frame-type": "implication", 
            "implication-type": "binds", 
            "object-meta": {
                "object-type": "meta-info", 
                "organization": "CMU"
            }, 
            "object-type": "frame", 
            "sentence": "sent-PMC3973334-cmu-277"
        }, 
        {
            "entity": [
                "Total cell extracts"
            ], 
            "frame-id": "imp-PMC3973334-cmu-pradsys-963", 
            "frame-type": "implication", 
            "implication-type": "binds", 
            "ip-molecule": [
                "monoclonal"
            ], 
            "object-meta": {
                "object-type": "meta-info", 
                "organization": "CMU"
            }, 
            "object-type": "frame", 
            "sentence": "sent-PMC3973334-cmu-281"
        }, 
        {
            "binds-constituent1": [
                "MDM2"
            ], 
            "frame-id": "imp-PMC3973334-cmu-pradsys-964", 
            "frame-type": "implication", 
            "implication-type": "binds", 
            "object-meta": {
                "object-type": "meta-info", 
                "organization": "CMU"
            }, 
            "object-type": "frame", 
            "sentence": "sent-PMC3973334-cmu-283"
        }, 
        {
            "binds-constituent1": [
                "NIR"
            ], 
            "frame-id": "imp-PMC3973334-cmu-pradsys-965", 
            "frame-type": "implication", 
            "implication-type": "binds", 
            "object-meta": {
                "object-type": "meta-info", 
                "organization": "CMU"
            }, 
            "object-type": "frame", 
            "sentence": "sent-PMC3973334-cmu-285"
        }, 
        {
            "assay-molecule": [
                "MG132"
            ], 
            "cell-type": [
                "H1299 cells"
            ], 
            "frame-id": "imp-PMC3973334-cmu-pradsys-966", 
            "frame-type": "implication", 
            "implication-type": "binds", 
            "object-meta": {
                "object-type": "meta-info", 
                "organization": "CMU"
            }, 
            "object-type": "frame", 
            "process": [
                "transfected"
            ], 
            "sentence": "sent-PMC3973334-cmu-286"
        }, 
        {
            "binds-constituent1": [
                "K382"
            ], 
            "frame-id": "imp-PMC3973334-cmu-pradsys-967", 
            "frame-type": "implication", 
            "implication-type": "binds", 
            "ip-molecule": [
                "anti-p53"
            ], 
            "object-meta": {
                "object-type": "meta-info", 
                "organization": "CMU"
            }, 
            "object-type": "frame", 
            "sentence": "sent-PMC3973334-cmu-287"
        }, 
        {
            "binds-constituent1": [
                "Myc-NIR"
            ], 
            "binds-controller": [
                "anti-Myc antibody 9E10 ( 1"
            ], 
            "frame-id": "imp-PMC3973334-cmu-pradsys-968", 
            "frame-type": "implication", 
            "implication-type": "binds", 
            "incubation-reagent": [
                "anti-p53 antibody DO-1 ( 1"
            ], 
            "object-meta": {
                "object-type": "meta-info", 
                "organization": "CMU"
            }, 
            "object-type": "frame", 
            "process": [
                "detected"
            ], 
            "sentence": "sent-PMC3973334-cmu-288"
        }, 
        {
            "binds-constituent1": [
                "NIR"
            ], 
            "frame-id": "imp-PMC3973334-cmu-pradsys-969", 
            "frame-type": "implication", 
            "implication-type": "binds", 
            "object-meta": {
                "object-type": "meta-info", 
                "organization": "CMU"
            }, 
            "object-type": "frame", 
            "sentence": "sent-PMC3973334-cmu-289"
        }, 
        {
            "assay-molecule": [
                "Flag-NIR"
            ], 
            "cell-type": [
                "HeLa cells", 
                "H1299 cells"
            ], 
            "frame-id": "imp-PMC3973334-cmu-pradsys-970", 
            "frame-type": "implication", 
            "implication-type": "binds", 
            "object-meta": {
                "object-type": "meta-info", 
                "organization": "CMU"
            }, 
            "object-type": "frame", 
            "sentence": "sent-PMC3973334-cmu-290"
        }, 
        {
            "binds-controller": [
                "NIR"
            ], 
            "frame-id": "imp-PMC3973334-cmu-pradsys-971", 
            "frame-type": "implication", 
            "implication-type": "binds", 
            "object-meta": {
                "object-type": "meta-info", 
                "organization": "CMU"
            }, 
            "object-type": "frame", 
            "sentence": "sent-PMC3973334-cmu-291"
        }, 
        {
            "binds-controller": [
                "control siRNA or NIR siRNA ( 40 nM )"
            ], 
            "cell-type": [
                "U2OS cells"
            ], 
            "frame-id": "imp-PMC3973334-cmu-pradsys-972", 
            "frame-type": "implication", 
            "implication-type": "binds", 
            "object-meta": {
                "object-type": "meta-info", 
                "organization": "CMU"
            }, 
            "object-type": "frame", 
            "process": [
                "transfected"
            ], 
            "sentence": "sent-PMC3973334-cmu-292"
        }, 
        {
            "assay-molecule": [
                "ActD"
            ], 
            "frame-id": "imp-PMC3973334-cmu-pradsys-973", 
            "frame-type": "implication", 
            "implication-type": "binds", 
            "object-meta": {
                "object-type": "meta-info", 
                "organization": "CMU"
            }, 
            "object-type": "frame", 
            "sentence": "sent-PMC3973334-cmu-293"
        }, 
        {
            "entity": [
                "Denatured cell extracts"
            ], 
            "frame-id": "imp-PMC3973334-cmu-pradsys-974", 
            "frame-type": "implication", 
            "implication-type": "binds", 
            "object-meta": {
                "object-type": "meta-info", 
                "organization": "CMU"
            }, 
            "object-type": "frame", 
            "process": [
                "prepared", 
                "precipitated", 
                "precipitated"
            ], 
            "sentence": "sent-PMC3973334-cmu-294"
        }, 
        {
            "frame-id": "imp-PMC3973334-cmu-pradsys-975", 
            "frame-type": "implication", 
            "implication-type": "binds", 
            "incubation-reagent": [
                "polyclonal pan-acetyllysine antibody ( 1"
            ], 
            "object-meta": {
                "object-type": "meta-info", 
                "organization": "CMU"
            }, 
            "object-type": "frame", 
            "sentence": "sent-PMC3973334-cmu-295"
        }, 
        {
            "entity": [
                "denatured cell extracts and"
            ], 
            "frame-id": "imp-PMC3973334-cmu-pradsys-976", 
            "frame-type": "implication", 
            "implication-type": "binds", 
            "ip-molecule": [
                "anti-acetyllysine"
            ], 
            "object-meta": {
                "object-type": "meta-info", 
                "organization": "CMU"
            }, 
            "object-type": "frame", 
            "process": [
                "transfected with control siRNA or NIR siRNA", 
                "immunoprecipitated", 
                "analysed"
            ], 
            "sentence": "sent-PMC3973334-cmu-297", 
            "transfection-molecule": [
                "MDM2"
            ]
        }, 
        {
            "binds-constituent2": [
                "MDM2"
            ], 
            "frame-id": "imp-PMC3973334-cmu-pradsys-977", 
            "frame-type": "implication", 
            "implication-type": "binds", 
            "object-meta": {
                "object-type": "meta-info", 
                "organization": "CMU"
            }, 
            "object-type": "frame", 
            "sentence": "sent-PMC3973334-cmu-302"
        }, 
        {
            "cell-type": [
                "H1299 cells"
            ], 
            "frame-id": "imp-PMC3973334-cmu-pradsys-978", 
            "frame-type": "implication", 
            "implication-type": "binds", 
            "object-meta": {
                "object-type": "meta-info", 
                "organization": "CMU"
            }, 
            "object-type": "frame", 
            "process": [
                "transfected"
            ], 
            "sentence": "sent-PMC3973334-cmu-303"
        }, 
        {
            "binds-constituent1": [
                "MDM2"
            ], 
            "frame-id": "imp-PMC3973334-cmu-pradsys-979", 
            "frame-type": "implication", 
            "implication-type": "binds", 
            "object-meta": {
                "object-type": "meta-info", 
                "organization": "CMU"
            }, 
            "object-type": "frame", 
            "sentence": "sent-PMC3973334-cmu-307"
        }, 
        {
            "binds-constituent1": [
                "MDM2"
            ], 
            "frame-id": "imp-PMC3973334-cmu-pradsys-980", 
            "frame-type": "implication", 
            "implication-type": "binds", 
            "object-meta": {
                "object-type": "meta-info", 
                "organization": "CMU"
            }, 
            "object-type": "frame", 
            "sentence": "sent-PMC3973334-cmu-308"
        }, 
        {
            "cell-type": [
                "U2OS cells"
            ], 
            "frame-id": "imp-PMC3973334-cmu-pradsys-981", 
            "frame-type": "implication", 
            "implication-type": "binds", 
            "object-meta": {
                "object-type": "meta-info", 
                "organization": "CMU"
            }, 
            "object-type": "frame", 
            "sentence": "sent-PMC3973334-cmu-309"
        }, 
        {
            "binds-constituent1": [
                "NIR"
            ], 
            "frame-id": "imp-PMC3973334-cmu-pradsys-982", 
            "frame-type": "implication", 
            "implication-type": "binds", 
            "object-meta": {
                "object-type": "meta-info", 
                "organization": "CMU"
            }, 
            "object-type": "frame", 
            "sentence": "sent-PMC3973334-cmu-311"
        }, 
        {
            "binds-controller": [
                "reporter plasmid PG13-luc"
            ], 
            "cell-type": [
                "Cultures"
            ], 
            "frame-id": "imp-PMC3973334-cmu-pradsys-983", 
            "frame-type": "implication", 
            "implication-type": "binds", 
            "object-meta": {
                "object-type": "meta-info", 
                "organization": "CMU"
            }, 
            "object-type": "frame", 
            "process": [
                "transfected"
            ], 
            "sentence": "sent-PMC3973334-cmu-312"
        }, 
        {
            "binds-constituent1": [
                "NIR"
            ], 
            "frame-id": "imp-PMC3973334-cmu-pradsys-984", 
            "frame-type": "implication", 
            "implication-type": "binds", 
            "object-meta": {
                "object-type": "meta-info", 
                "organization": "CMU"
            }, 
            "object-type": "frame", 
            "sentence": "sent-PMC3973334-cmu-316"
        }, 
        {
            "cell-type": [
                "Cultures"
            ], 
            "frame-id": "imp-PMC3973334-cmu-pradsys-985", 
            "frame-type": "implication", 
            "implication-type": "binds", 
            "object-meta": {
                "object-type": "meta-info", 
                "organization": "CMU"
            }, 
            "object-type": "frame", 
            "sentence": "sent-PMC3973334-cmu-317"
        }, 
        {
            "binds-constituent1": [
                "NIR"
            ], 
            "frame-id": "imp-PMC3973334-cmu-pradsys-986", 
            "frame-type": "implication", 
            "implication-type": "binds", 
            "object-meta": {
                "object-type": "meta-info", 
                "organization": "CMU"
            }, 
            "object-type": "frame", 
            "sentence": "sent-PMC3973334-cmu-323"
        }, 
        {
            "assay-molecule": [
                "M+N"
            ], 
            "entity": [
                "HCT116 cells"
            ], 
            "frame-id": "imp-PMC3973334-cmu-pradsys-987", 
            "frame-type": "implication", 
            "implication-type": "binds", 
            "object-meta": {
                "object-type": "meta-info", 
                "organization": "CMU"
            }, 
            "object-type": "frame", 
            "process": [
                "transfected"
            ], 
            "sentence": "sent-PMC3973334-cmu-324", 
            "transfection-molecule": [
                "MDM2 siRNA ( M ) , NIR siRNA ( N )"
            ]
        }, 
        {
            "assay-molecule": [
                "NIR"
            ], 
            "frame-id": "imp-PMC3973334-cmu-pradsys-988", 
            "frame-type": "implication", 
            "implication-type": "binds", 
            "object-meta": {
                "object-type": "meta-info", 
                "organization": "CMU"
            }, 
            "object-type": "frame", 
            "process": [
                "prepared"
            ], 
            "sentence": "sent-PMC3973334-cmu-325"
        }, 
        {
            "binds-constituent1": [
                "NIR"
            ], 
            "frame-id": "imp-PMC3973334-cmu-pradsys-989", 
            "frame-type": "implication", 
            "implication-type": "binds", 
            "object-meta": {
                "object-type": "meta-info", 
                "organization": "CMU"
            }, 
            "object-type": "frame", 
            "sentence": "sent-PMC3973334-cmu-329"
        }, 
        {
            "entity": [
                "Total protein extracts"
            ], 
            "frame-id": "imp-PMC3973334-cmu-pradsys-990", 
            "frame-type": "implication", 
            "implication-type": "binds", 
            "incubation-reagent": [
                "anti-p21 monoclonal antibody ( 1"
            ], 
            "object-meta": {
                "object-type": "meta-info", 
                "organization": "CMU"
            }, 
            "object-type": "frame", 
            "process": [
                "blotting"
            ], 
            "sentence": "sent-PMC3973334-cmu-331"
        }, 
        {
            "binds-constituent1": [
                "MDM2"
            ], 
            "coreference-target": [
                "the major endogenous \u2018default\u2019"
            ], 
            "frame-id": "imp-PMC3973334-cmu-pradsys-991", 
            "frame-type": "implication", 
            "implication-type": "binds", 
            "object-meta": {
                "object-type": "meta-info", 
                "organization": "CMU"
            }, 
            "object-type": "frame", 
            "sentence": "sent-PMC3973334-cmu-333"
        }, 
        {
            "binds-catalysis": [
                "any significant effect"
            ], 
            "binds-controller": [
                "the knockdown of MDM2"
            ], 
            "cell-type": [
                "HCT116 cells"
            ], 
            "frame-id": "imp-PMC3973334-cmu-pradsys-992", 
            "frame-type": "implication", 
            "implication-type": "binds", 
            "object-meta": {
                "object-type": "meta-info", 
                "organization": "CMU"
            }, 
            "object-type": "frame", 
            "process": [
                "transfected"
            ], 
            "sentence": "sent-PMC3973334-cmu-334"
        }, 
        {
            "binds-constituent1": [
                "MDM2"
            ], 
            "binds-constituent2": [
                "NIR"
            ], 
            "frame-id": "imp-PMC3973334-cmu-pradsys-993", 
            "frame-type": "implication", 
            "implication-type": "binds", 
            "object-meta": {
                "object-type": "meta-info", 
                "organization": "CMU"
            }, 
            "object-type": "frame", 
            "sentence": "sent-PMC3973334-cmu-335"
        }, 
        {
            "binds-constituent1": [
                "MDM2"
            ], 
            "frame-id": "imp-PMC3973334-cmu-pradsys-994", 
            "frame-type": "implication", 
            "implication-type": "binds", 
            "object-meta": {
                "object-type": "meta-info", 
                "organization": "CMU"
            }, 
            "object-type": "frame", 
            "sentence": "sent-PMC3973334-cmu-336"
        }, 
        {
            "binds-constituent1": [
                "MDM2"
            ], 
            "frame-id": "imp-PMC3973334-cmu-pradsys-995", 
            "frame-type": "implication", 
            "implication-type": "binds", 
            "object-meta": {
                "object-type": "meta-info", 
                "organization": "CMU"
            }, 
            "object-type": "frame", 
            "sentence": "sent-PMC3973334-cmu-337"
        }, 
        {
            "binds-constituent1": [
                "NIR"
            ], 
            "frame-id": "imp-PMC3973334-cmu-pradsys-996", 
            "frame-type": "implication", 
            "implication-type": "binds", 
            "object-meta": {
                "object-type": "meta-info", 
                "organization": "CMU"
            }, 
            "object-type": "frame", 
            "sentence": "sent-PMC3973334-cmu-338"
        }, 
        {
            "assay-molecule": [
                "GST-MDM2", 
                "NIR"
            ], 
            "binds-constituent1": [
                "NIR"
            ], 
            "frame-id": "imp-PMC3973334-cmu-pradsys-997", 
            "frame-type": "implication", 
            "implication-type": "binds", 
            "object-meta": {
                "object-type": "meta-info", 
                "organization": "CMU"
            }, 
            "object-type": "frame", 
            "process": [
                "incubated"
            ], 
            "sentence": "sent-PMC3973334-cmu-344", 
            "transfection-molecule": [
                "p53"
            ]
        }, 
        {
            "frame-id": "imp-PMC3973334-cmu-pradsys-998", 
            "frame-type": "implication", 
            "implication-type": "binds", 
            "m-val": [
                "did not associate"
            ], 
            "object-meta": {
                "object-type": "meta-info", 
                "organization": "CMU"
            }, 
            "object-type": "frame", 
            "sentence": "sent-PMC3973334-cmu-345"
        }, 
        {
            "cell-type": [
                "H1299 cells"
            ], 
            "frame-id": "imp-PMC3973334-cmu-pradsys-999", 
            "frame-type": "implication", 
            "implication-type": "binds", 
            "object-meta": {
                "object-type": "meta-info", 
                "organization": "CMU"
            }, 
            "object-type": "frame", 
            "sentence": "sent-PMC3973334-cmu-349"
        }, 
        {
            "binds-constituent1": [
                "Flag-NIR"
            ], 
            "frame-id": "imp-PMC3973334-cmu-pradsys-1000", 
            "frame-type": "implication", 
            "implication-type": "binds", 
            "ip-molecule": [
                "anti-Flag"
            ], 
            "object-meta": {
                "object-type": "meta-info", 
                "organization": "CMU"
            }, 
            "object-type": "frame", 
            "process": [
                "precipitated"
            ], 
            "sentence": "sent-PMC3973334-cmu-350"
        }, 
        {
            "frame-id": "imp-PMC3973334-cmu-pradsys-1001", 
            "frame-type": "implication", 
            "implication-type": "binds", 
            "object-meta": {
                "object-type": "meta-info", 
                "organization": "CMU"
            }, 
            "object-type": "frame", 
            "process": [
                "incubated"
            ], 
            "sentence": "sent-PMC3973334-cmu-351"
        }, 
        {
            "binds-constituent2": [
                "NIR"
            ], 
            "frame-id": "imp-PMC3973334-cmu-pradsys-1002", 
            "frame-type": "implication", 
            "implication-type": "binds", 
            "object-meta": {
                "object-type": "meta-info", 
                "organization": "CMU"
            }, 
            "object-type": "frame", 
            "sentence": "sent-PMC3973334-cmu-354"
        }, 
        {
            "binds-controller": [
                "produced GST , GST-MDM2 or GST-MDM2 222-366 ( = MDM2* )"
            ], 
            "frame-id": "imp-PMC3973334-cmu-pradsys-1003", 
            "frame-type": "implication", 
            "implication-type": "binds", 
            "object-meta": {
                "object-type": "meta-info", 
                "organization": "CMU"
            }, 
            "object-type": "frame", 
            "sentence": "sent-PMC3973334-cmu-355"
        }, 
        {
            "binds-constituent1": [
                "NIR"
            ], 
            "frame-id": "imp-PMC3973334-cmu-pradsys-1004", 
            "frame-type": "implication", 
            "implication-type": "binds", 
            "object-meta": {
                "object-type": "meta-info", 
                "organization": "CMU"
            }, 
            "object-type": "frame", 
            "sentence": "sent-PMC3973334-cmu-360"
        }, 
        {
            "binds-constituent2": [
                "GST-MDM2"
            ], 
            "frame-id": "imp-PMC3973334-cmu-pradsys-1005", 
            "frame-type": "implication", 
            "implication-type": "binds", 
            "object-meta": {
                "object-type": "meta-info", 
                "organization": "CMU"
            }, 
            "object-type": "frame", 
            "sentence": "sent-PMC3973334-cmu-358"
        }, 
        {
            "frame-id": "imp-PMC3973334-cmu-pradsys-1006", 
            "frame-type": "implication", 
            "implication-type": "binds", 
            "object-meta": {
                "object-type": "meta-info", 
                "organization": "CMU"
            }, 
            "object-type": "frame", 
            "process": [
                "loaded"
            ], 
            "sentence": "sent-PMC3973334-cmu-359"
        }, 
        {
            "binds-constituent1": [
                "NIR"
            ], 
            "frame-id": "imp-PMC3973334-cmu-pradsys-1007", 
            "frame-type": "implication", 
            "implication-type": "binds", 
            "object-meta": {
                "object-type": "meta-info", 
                "organization": "CMU"
            }, 
            "object-type": "frame", 
            "sentence": "sent-PMC3973334-cmu-360"
        }, 
        {
            "cell-type": [
                "transfected cells"
            ], 
            "frame-id": "imp-PMC3973334-cmu-pradsys-1008", 
            "frame-type": "implication", 
            "implication-type": "binds", 
            "object-meta": {
                "object-type": "meta-info", 
                "organization": "CMU"
            }, 
            "object-type": "frame", 
            "sentence": "sent-PMC3973334-cmu-362"
        }, 
        {
            "cell-type": [
                "H1299 cells"
            ], 
            "frame-id": "imp-PMC3973334-cmu-pradsys-1009", 
            "frame-type": "implication", 
            "implication-type": "binds", 
            "object-meta": {
                "object-type": "meta-info", 
                "organization": "CMU"
            }, 
            "object-type": "frame", 
            "sentence": "sent-PMC3973334-cmu-364"
        }, 
        {
            "binds-constituent1": [
                "Flag-NIR"
            ], 
            "frame-id": "imp-PMC3973334-cmu-pradsys-1010", 
            "frame-type": "implication", 
            "implication-type": "binds", 
            "ip-molecule": [
                "anti-Flag"
            ], 
            "object-meta": {
                "object-type": "meta-info", 
                "organization": "CMU"
            }, 
            "object-type": "frame", 
            "process": [
                "immunoprecipitation ( IP )"
            ], 
            "sentence": "sent-PMC3973334-cmu-365"
        }, 
        {
            "assay-molecule": [
                "H221"
            ], 
            "frame-id": "imp-PMC3973334-cmu-pradsys-1011", 
            "frame-type": "implication", 
            "implication-type": "binds", 
            "ip-molecule": [
                "a second IP", 
                "irrelevant"
            ], 
            "object-meta": {
                "object-type": "meta-info", 
                "organization": "CMU"
            }, 
            "object-type": "frame", 
            "process": [
                "precipitated"
            ], 
            "sentence": "sent-PMC3973334-cmu-367"
        }, 
        {
            "frame-id": "imp-PMC3973334-cmu-pradsys-1012", 
            "frame-type": "implication", 
            "implication-type": "binds", 
            "ip-molecule": [
                "peroxidase-conjugated anti-p53 antibody DO-1"
            ], 
            "object-meta": {
                "object-type": "meta-info", 
                "organization": "CMU"
            }, 
            "object-type": "frame", 
            "process": [
                "analysed by standard western immunoblotting"
            ], 
            "sentence": "sent-PMC3973334-cmu-368"
        }, 
        {
            "binds-controller": [
                "anti-MDM2 antibody H221 ( 1"
            ], 
            "frame-id": "imp-PMC3973334-cmu-pradsys-1013", 
            "frame-type": "implication", 
            "implication-type": "binds", 
            "object-meta": {
                "object-type": "meta-info", 
                "organization": "CMU"
            }, 
            "object-type": "frame", 
            "process": [
                "detected"
            ], 
            "sentence": "sent-PMC3973334-cmu-369"
        }
    ], 
    "object-meta": {
        "component": "Pradeep-System", 
        "component-type": "machine", 
        "doc-id": "PMC3973334", 
        "object-type": "meta-info", 
        "organization": "CMU"
    }, 
    "object-type": "frame-collection"
}
