{
    "frames": [
        {
            "frame-id": "epi-PMC2920443-cmu-nicosys-263", 
            "frame-type": "epistemics", 
            "object-meta": {
                "object-type": "meta-info", 
                "organization": "CMU"
            }, 
            "object-type": "frame", 
            "sentence": "sent-PMC2920443-cmu-6", 
            "status": "implication", 
            "value": 0.6
        }, 
        {
            "frame-id": "epi-PMC2920443-cmu-nicosys-264", 
            "frame-type": "epistemics", 
            "object-meta": {
                "object-type": "meta-info", 
                "organization": "CMU"
            }, 
            "object-type": "frame", 
            "sentence": "sent-PMC2920443-cmu-10", 
            "status": "belief", 
            "value": 0.9
        }, 
        {
            "frame-id": "epi-PMC2920443-cmu-nicosys-265", 
            "frame-type": "epistemics", 
            "object-meta": {
                "object-type": "meta-info", 
                "organization": "CMU"
            }, 
            "object-type": "frame", 
            "sentence": "sent-PMC2920443-cmu-11", 
            "status": "belief", 
            "value": 0.9
        }, 
        {
            "frame-id": "epi-PMC2920443-cmu-nicosys-266", 
            "frame-type": "epistemics", 
            "object-meta": {
                "object-type": "meta-info", 
                "organization": "CMU"
            }, 
            "object-type": "frame", 
            "sentence": "sent-PMC2920443-cmu-11", 
            "status": "belief", 
            "value": 0.9
        }, 
        {
            "frame-id": "epi-PMC2920443-cmu-nicosys-267", 
            "frame-type": "epistemics", 
            "object-meta": {
                "object-type": "meta-info", 
                "organization": "CMU"
            }, 
            "object-type": "frame", 
            "sentence": "sent-PMC2920443-cmu-19", 
            "status": "implication", 
            "value": 0.6
        }, 
        {
            "frame-id": "epi-PMC2920443-cmu-nicosys-268", 
            "frame-type": "epistemics", 
            "object-meta": {
                "object-type": "meta-info", 
                "organization": "CMU"
            }, 
            "object-type": "frame", 
            "sentence": "sent-PMC2920443-cmu-27", 
            "status": "implication", 
            "value": 0.6
        }, 
        {
            "frame-id": "epi-PMC2920443-cmu-nicosys-269", 
            "frame-type": "epistemics", 
            "object-meta": {
                "object-type": "meta-info", 
                "organization": "CMU"
            }, 
            "object-type": "frame", 
            "sentence": "sent-PMC2920443-cmu-40", 
            "status": "implication", 
            "value": 0.6
        }, 
        {
            "frame-id": "epi-PMC2920443-cmu-nicosys-270", 
            "frame-type": "epistemics", 
            "object-meta": {
                "object-type": "meta-info", 
                "organization": "CMU"
            }, 
            "object-type": "frame", 
            "sentence": "sent-PMC2920443-cmu-46", 
            "status": "hypothesis", 
            "value": 0.3
        }, 
        {
            "frame-id": "epi-PMC2920443-cmu-nicosys-271", 
            "frame-type": "epistemics", 
            "object-meta": {
                "object-type": "meta-info", 
                "organization": "CMU"
            }, 
            "object-type": "frame", 
            "sentence": "sent-PMC2920443-cmu-46", 
            "status": "hypothesis", 
            "value": 0.3
        }, 
        {
            "frame-id": "epi-PMC2920443-cmu-nicosys-272", 
            "frame-type": "epistemics", 
            "object-meta": {
                "object-type": "meta-info", 
                "organization": "CMU"
            }, 
            "object-type": "frame", 
            "sentence": "sent-PMC2920443-cmu-54", 
            "status": "belief", 
            "value": 0.9
        }, 
        {
            "frame-id": "epi-PMC2920443-cmu-nicosys-273", 
            "frame-type": "epistemics", 
            "object-meta": {
                "object-type": "meta-info", 
                "organization": "CMU"
            }, 
            "object-type": "frame", 
            "sentence": "sent-PMC2920443-cmu-54", 
            "status": "belief", 
            "value": 0.9
        }, 
        {
            "frame-id": "epi-PMC2920443-cmu-nicosys-274", 
            "frame-type": "epistemics", 
            "object-meta": {
                "object-type": "meta-info", 
                "organization": "CMU"
            }, 
            "object-type": "frame", 
            "sentence": "sent-PMC2920443-cmu-63", 
            "status": "belief", 
            "value": 0.9
        }, 
        {
            "frame-id": "epi-PMC2920443-cmu-nicosys-275", 
            "frame-type": "epistemics", 
            "object-meta": {
                "object-type": "meta-info", 
                "organization": "CMU"
            }, 
            "object-type": "frame", 
            "sentence": "sent-PMC2920443-cmu-69", 
            "status": "belief", 
            "value": 0.9
        }, 
        {
            "frame-id": "epi-PMC2920443-cmu-nicosys-276", 
            "frame-type": "epistemics", 
            "object-meta": {
                "object-type": "meta-info", 
                "organization": "CMU"
            }, 
            "object-type": "frame", 
            "sentence": "sent-PMC2920443-cmu-71", 
            "status": "belief", 
            "value": 0.9
        }, 
        {
            "frame-id": "epi-PMC2920443-cmu-nicosys-277", 
            "frame-type": "epistemics", 
            "object-meta": {
                "object-type": "meta-info", 
                "organization": "CMU"
            }, 
            "object-type": "frame", 
            "sentence": "sent-PMC2920443-cmu-74", 
            "status": "belief", 
            "value": 0.9
        }, 
        {
            "frame-id": "epi-PMC2920443-cmu-nicosys-278", 
            "frame-type": "epistemics", 
            "object-meta": {
                "object-type": "meta-info", 
                "organization": "CMU"
            }, 
            "object-type": "frame", 
            "sentence": "sent-PMC2920443-cmu-69", 
            "status": "belief", 
            "value": 0.9
        }, 
        {
            "frame-id": "epi-PMC2920443-cmu-nicosys-279", 
            "frame-type": "epistemics", 
            "object-meta": {
                "object-type": "meta-info", 
                "organization": "CMU"
            }, 
            "object-type": "frame", 
            "sentence": "sent-PMC2920443-cmu-78", 
            "status": "belief", 
            "value": 0.9
        }
    ], 
    "object-meta": {
        "component": "Nicolas-System", 
        "component-type": "machine", 
        "doc-id": "PMC2920443", 
        "object-type": "meta-info", 
        "organization": "CMU"
    }, 
    "object-type": "frame-collection"
}
