{
    "frames": [
        {
            "frame-id": "smap-PMC3406069-cmu-1", 
            "frame-type": "sentence-map", 
            "list1-meta": {
                "component": "nxml2fries", 
                "object-type": "meta-info", 
                "organization": "UAZ"
            }, 
            "list2-meta": {
                "component": "Nicolas-NXML-Parser", 
                "object-type": "meta-info", 
                "organization": "CMU"
            }, 
            "map": [
                {
                    "from": "sent-PMC3406069-UAZ-r1-65-4", 
                    "object-type": "map-range", 
                    "to": "sent-PMC3406069-cmu-165"
                }, 
                {
                    "from": "sent-PMC3406069-UAZ-r1-47-2", 
                    "object-type": "map-range", 
                    "to": "sent-PMC3406069-cmu-121"
                }, 
                {
                    "from": "sent-PMC3406069-UAZ-r1-11-8", 
                    "object-type": "map-range", 
                    "to": "sent-PMC3406069-cmu-33"
                }, 
                {
                    "from": "sent-PMC3406069-UAZ-r1-11-12", 
                    "object-type": "map-range", 
                    "to": "sent-PMC3406069-cmu-37"
                }, 
                {
                    "from": "sent-PMC3406069-UAZ-r1-68-3", 
                    "object-type": "map-range", 
                    "to": "sent-PMC3406069-cmu-171"
                }, 
                {
                    "from": "sent-PMC3406069-UAZ-r1-47-4", 
                    "object-type": "map-range", 
                    "to": "sent-PMC3406069-cmu-123"
                }, 
                {
                    "from": "sent-PMC3406069-UAZ-r1-8-2", 
                    "object-type": "map-range", 
                    "to": "sent-PMC3406069-cmu-20"
                }, 
                {
                    "from": "sent-PMC3406069-UAZ-r1-68-0", 
                    "object-type": "map-range", 
                    "to": "sent-PMC3406069-cmu-168"
                }, 
                {
                    "from": "sent-PMC3406069-UAZ-r1-65-0", 
                    "object-type": "map-range", 
                    "to": "sent-PMC3406069-cmu-161"
                }, 
                {
                    "from": "sent-PMC3406069-UAZ-r1-11-5", 
                    "object-type": "map-range", 
                    "to": "sent-PMC3406069-cmu-30"
                }, 
                {
                    "from": "sent-PMC3406069-UAZ-r1-11-6", 
                    "object-type": "map-range", 
                    "to": "sent-PMC3406069-cmu-31"
                }, 
                {
                    "from": "sent-PMC3406069-UAZ-r1-19-3", 
                    "object-type": "map-range", 
                    "to": "sent-PMC3406069-cmu-52"
                }, 
                {
                    "from": "sent-PMC3406069-UAZ-r1-19-2", 
                    "object-type": "map-range", 
                    "to": "sent-PMC3406069-cmu-51"
                }, 
                {
                    "from": "sent-PMC3406069-UAZ-r1-74-2", 
                    "object-type": "map-range", 
                    "to": "sent-PMC3406069-cmu-180"
                }, 
                {
                    "from": "sent-PMC3406069-UAZ-r1-59-4", 
                    "object-type": "map-range", 
                    "to": "sent-PMC3406069-cmu-154"
                }, 
                {
                    "from": "sent-PMC3406069-UAZ-r1-59-2", 
                    "object-type": "map-range", 
                    "to": "sent-PMC3406069-cmu-152"
                }, 
                {
                    "from": "sent-PMC3406069-UAZ-r1-7-3", 
                    "object-type": "map-range", 
                    "to": "sent-PMC3406069-cmu-9"
                }, 
                {
                    "from": "sent-PMC3406069-UAZ-r1-50-0", 
                    "object-type": "map-range", 
                    "to": "sent-PMC3406069-cmu-128"
                }, 
                {
                    "from": "sent-PMC3406069-UAZ-r1-19-1", 
                    "object-type": "map-range", 
                    "to": "sent-PMC3406069-cmu-50"
                }, 
                {
                    "from": "sent-PMC3406069-UAZ-r1-56-2", 
                    "object-type": "map-range", 
                    "to": "sent-PMC3406069-cmu-144"
                }, 
                {
                    "from": "sent-PMC3406069-UAZ-r1-64-0", 
                    "object-type": "map-range", 
                    "to": "sent-PMC3406069-cmu-160"
                }, 
                {
                    "from": "sent-PMC3406069-UAZ-r1-71-1", 
                    "object-type": "map-range", 
                    "to": "sent-PMC3406069-cmu-175"
                }, 
                {
                    "from": "sent-PMC3406069-UAZ-r1-65-5", 
                    "object-type": "map-range", 
                    "to": "sent-PMC3406069-cmu-166"
                }, 
                {
                    "from": "sent-PMC3406069-UAZ-r1-56-6", 
                    "object-type": "map-range", 
                    "to": "sent-PMC3406069-cmu-148"
                }, 
                {
                    "from": "sent-PMC3406069-UAZ-r1-59-5", 
                    "object-type": "map-range", 
                    "to": "sent-PMC3406069-cmu-155"
                }, 
                {
                    "from": "sent-PMC3406069-UAZ-r1-11-11", 
                    "object-type": "map-range", 
                    "to": "sent-PMC3406069-cmu-36"
                }, 
                {
                    "from": "sent-PMC3406069-UAZ-r1-56-1", 
                    "object-type": "map-range", 
                    "to": "sent-PMC3406069-cmu-143"
                }, 
                {
                    "from": "sent-PMC3406069-UAZ-r1-20-1", 
                    "object-type": "map-range", 
                    "to": "sent-PMC3406069-cmu-54"
                }, 
                {
                    "from": "sent-PMC3406069-UAZ-r1-7-5", 
                    "object-type": "map-range", 
                    "to": "sent-PMC3406069-cmu-11"
                }, 
                {
                    "from": "sent-PMC3406069-UAZ-r1-11-7", 
                    "object-type": "map-range", 
                    "to": "sent-PMC3406069-cmu-32"
                }, 
                {
                    "from": "sent-PMC3406069-UAZ-r1-47-6", 
                    "object-type": "map-range", 
                    "to": "sent-PMC3406069-cmu-125"
                }, 
                {
                    "from": "sent-PMC3406069-UAZ-r1-15-5", 
                    "object-type": "map-range", 
                    "to": "sent-PMC3406069-cmu-43"
                }, 
                {
                    "from": "sent-PMC3406069-UAZ-r1-71-2", 
                    "object-type": "map-range", 
                    "to": "sent-PMC3406069-cmu-176"
                }, 
                {
                    "from": "sent-PMC3406069-UAZ-r1-7-2", 
                    "object-type": "map-range", 
                    "to": "sent-PMC3406069-cmu-8"
                }, 
                {
                    "from": "sent-PMC3406069-UAZ-r1-47-7", 
                    "object-type": "map-range", 
                    "to": "sent-PMC3406069-cmu-126"
                }, 
                {
                    "from": "sent-PMC3406069-UAZ-r1-56-0", 
                    "object-type": "map-range", 
                    "to": "sent-PMC3406069-cmu-150"
                }, 
                {
                    "from": "sent-PMC3406069-UAZ-r1-2-7", 
                    "object-type": "map-range", 
                    "to": "sent-PMC3406069-cmu-21"
                }, 
                {
                    "from": "sent-PMC3406069-UAZ-r1-56-0", 
                    "object-type": "map-range", 
                    "to": "sent-PMC3406069-cmu-142"
                }, 
                {
                    "from": "sent-PMC3406069-UAZ-r1-15-0", 
                    "object-type": "map-range", 
                    "to": "sent-PMC3406069-cmu-38"
                }, 
                {
                    "from": "sent-PMC3406069-UAZ-r1-68-4", 
                    "object-type": "map-range", 
                    "to": "sent-PMC3406069-cmu-172"
                }, 
                {
                    "from": "sent-PMC3406069-UAZ-r1-7-0", 
                    "object-type": "map-range", 
                    "to": "sent-PMC3406069-cmu-6"
                }, 
                {
                    "from": "sent-PMC3406069-UAZ-r1-53-3", 
                    "object-type": "map-range", 
                    "to": "sent-PMC3406069-cmu-138"
                }, 
                {
                    "from": "sent-PMC3406069-UAZ-r1-71-0", 
                    "object-type": "map-range", 
                    "to": "sent-PMC3406069-cmu-174"
                }, 
                {
                    "from": "sent-PMC3406069-UAZ-r1-11-10", 
                    "object-type": "map-range", 
                    "to": "sent-PMC3406069-cmu-35"
                }, 
                {
                    "from": "sent-PMC3406069-UAZ-r1-50-5", 
                    "object-type": "map-range", 
                    "to": "sent-PMC3406069-cmu-133"
                }, 
                {
                    "from": "sent-PMC3406069-UAZ-r1-20-0", 
                    "object-type": "map-range", 
                    "to": "sent-PMC3406069-cmu-53"
                }, 
                {
                    "from": "sent-PMC3406069-UAZ-r1-49-0", 
                    "object-type": "map-range", 
                    "to": "sent-PMC3406069-cmu-127"
                }, 
                {
                    "from": "sent-PMC3406069-UAZ-r1-74-1", 
                    "object-type": "map-range", 
                    "to": "sent-PMC3406069-cmu-179"
                }, 
                {
                    "from": "sent-PMC3406069-UAZ-r1-68-2", 
                    "object-type": "map-range", 
                    "to": "sent-PMC3406069-cmu-170"
                }, 
                {
                    "from": "sent-PMC3406069-UAZ-r1-74-0", 
                    "object-type": "map-range", 
                    "to": "sent-PMC3406069-cmu-178"
                }, 
                {
                    "from": "sent-PMC3406069-UAZ-r1-47-0", 
                    "object-type": "map-range", 
                    "to": "sent-PMC3406069-cmu-119"
                }, 
                {
                    "from": "sent-PMC3406069-UAZ-r1-50-3", 
                    "object-type": "map-range", 
                    "to": "sent-PMC3406069-cmu-131"
                }, 
                {
                    "from": "sent-PMC3406069-UAZ-r1-11-3", 
                    "object-type": "map-range", 
                    "to": "sent-PMC3406069-cmu-28"
                }, 
                {
                    "from": "sent-PMC3406069-UAZ-r1-56-4", 
                    "object-type": "map-range", 
                    "to": "sent-PMC3406069-cmu-146"
                }, 
                {
                    "from": "sent-PMC3406069-UAZ-r1-7-7", 
                    "object-type": "map-range", 
                    "to": "sent-PMC3406069-cmu-13"
                }, 
                {
                    "from": "sent-PMC3406069-UAZ-r1-7-6", 
                    "object-type": "map-range", 
                    "to": "sent-PMC3406069-cmu-12"
                }, 
                {
                    "from": "sent-PMC3406069-UAZ-r1-65-1", 
                    "object-type": "map-range", 
                    "to": "sent-PMC3406069-cmu-162"
                }, 
                {
                    "from": "sent-PMC3406069-UAZ-r1-15-10", 
                    "object-type": "map-range", 
                    "to": "sent-PMC3406069-cmu-47"
                }, 
                {
                    "from": "sent-PMC3406069-UAZ-r1-11-0", 
                    "object-type": "map-range", 
                    "to": "sent-PMC3406069-cmu-25"
                }, 
                {
                    "from": "sent-PMC3406069-UAZ-r1-62-1", 
                    "object-type": "map-range", 
                    "to": "sent-PMC3406069-cmu-158"
                }, 
                {
                    "from": "sent-PMC3406069-UAZ-r1-70-0", 
                    "object-type": "map-range", 
                    "to": "sent-PMC3406069-cmu-173"
                }, 
                {
                    "from": "sent-PMC3406069-UAZ-r1-8-1", 
                    "object-type": "map-range", 
                    "to": "sent-PMC3406069-cmu-90"
                }, 
                {
                    "from": "sent-PMC3406069-UAZ-r1-62-2", 
                    "object-type": "map-range", 
                    "to": "sent-PMC3406069-cmu-159"
                }, 
                {
                    "from": "sent-PMC3406069-UAZ-r1-15-7", 
                    "object-type": "map-range", 
                    "to": "sent-PMC3406069-cmu-45"
                }, 
                {
                    "from": "sent-PMC3406069-UAZ-r1-15-9", 
                    "object-type": "map-range", 
                    "to": "sent-PMC3406069-cmu-46"
                }, 
                {
                    "from": "sent-PMC3406069-UAZ-r1-56-3", 
                    "object-type": "map-range", 
                    "to": "sent-PMC3406069-cmu-145"
                }, 
                {
                    "from": "sent-PMC3406069-UAZ-r1-62-0", 
                    "object-type": "map-range", 
                    "to": "sent-PMC3406069-cmu-157"
                }, 
                {
                    "from": "sent-PMC3406069-UAZ-r1-15-3", 
                    "object-type": "map-range", 
                    "to": "sent-PMC3406069-cmu-41"
                }, 
                {
                    "from": "sent-PMC3406069-UAZ-r1-8-5", 
                    "object-type": "map-range", 
                    "to": "sent-PMC3406069-cmu-23"
                }, 
                {
                    "from": "sent-PMC3406069-UAZ-r1-7-4", 
                    "object-type": "map-range", 
                    "to": "sent-PMC3406069-cmu-10"
                }, 
                {
                    "from": "sent-PMC3406069-UAZ-r1-11-2", 
                    "object-type": "map-range", 
                    "to": "sent-PMC3406069-cmu-27"
                }, 
                {
                    "from": "sent-PMC3406069-UAZ-r1-50-1", 
                    "object-type": "map-range", 
                    "to": "sent-PMC3406069-cmu-129"
                }, 
                {
                    "from": "sent-PMC3406069-UAZ-r1-15-4", 
                    "object-type": "map-range", 
                    "to": "sent-PMC3406069-cmu-42"
                }, 
                {
                    "from": "sent-PMC3406069-UAZ-r1-59-1", 
                    "object-type": "map-range", 
                    "to": "sent-PMC3406069-cmu-151"
                }, 
                {
                    "from": "sent-PMC3406069-UAZ-r1-52-0", 
                    "object-type": "map-range", 
                    "to": "sent-PMC3406069-cmu-134"
                }, 
                {
                    "from": "sent-PMC3406069-UAZ-r1-50-2", 
                    "object-type": "map-range", 
                    "to": "sent-PMC3406069-cmu-130"
                }, 
                {
                    "from": "sent-PMC3406069-UAZ-r1-7-9", 
                    "object-type": "map-range", 
                    "to": "sent-PMC3406069-cmu-16"
                }, 
                {
                    "from": "sent-PMC3406069-UAZ-r1-8-0", 
                    "object-type": "map-range", 
                    "to": "sent-PMC3406069-cmu-18"
                }, 
                {
                    "from": "sent-PMC3406069-UAZ-r1-2-9", 
                    "object-type": "map-range", 
                    "to": "sent-PMC3406069-cmu-22"
                }, 
                {
                    "from": "sent-PMC3406069-UAZ-r1-15-1", 
                    "object-type": "map-range", 
                    "to": "sent-PMC3406069-cmu-39"
                }, 
                {
                    "from": "sent-PMC3406069-UAZ-r1-53-5", 
                    "object-type": "map-range", 
                    "to": "sent-PMC3406069-cmu-140"
                }, 
                {
                    "from": "sent-PMC3406069-UAZ-r1-65-2", 
                    "object-type": "map-range", 
                    "to": "sent-PMC3406069-cmu-163"
                }, 
                {
                    "from": "sent-PMC3406069-UAZ-r1-15-11", 
                    "object-type": "map-range", 
                    "to": "sent-PMC3406069-cmu-48"
                }, 
                {
                    "from": "sent-PMC3406069-UAZ-r1-7-10", 
                    "object-type": "map-range", 
                    "to": "sent-PMC3406069-cmu-17"
                }, 
                {
                    "from": "sent-PMC3406069-UAZ-r1-61-0", 
                    "object-type": "map-range", 
                    "to": "sent-PMC3406069-cmu-156"
                }, 
                {
                    "from": "sent-PMC3406069-UAZ-r1-20-4", 
                    "object-type": "map-range", 
                    "to": "sent-PMC3406069-cmu-57"
                }, 
                {
                    "from": "sent-PMC3406069-UAZ-r1-53-1", 
                    "object-type": "map-range", 
                    "to": "sent-PMC3406069-cmu-136"
                }, 
                {
                    "from": "sent-PMC3406069-UAZ-r1-11-1", 
                    "object-type": "map-range", 
                    "to": "sent-PMC3406069-cmu-26"
                }, 
                {
                    "from": "sent-PMC3406069-UAZ-r1-47-1", 
                    "object-type": "map-range", 
                    "to": "sent-PMC3406069-cmu-120"
                }, 
                {
                    "from": "sent-PMC3406069-UAZ-r1-7-8", 
                    "object-type": "map-range", 
                    "to": "sent-PMC3406069-cmu-15"
                }, 
                {
                    "from": "sent-PMC3406069-UAZ-r1-15-6", 
                    "object-type": "map-range", 
                    "to": "sent-PMC3406069-cmu-44"
                }, 
                {
                    "from": "sent-PMC3406069-UAZ-r1-50-4", 
                    "object-type": "map-range", 
                    "to": "sent-PMC3406069-cmu-132"
                }, 
                {
                    "from": "sent-PMC3406069-UAZ-r1-68-1", 
                    "object-type": "map-range", 
                    "to": "sent-PMC3406069-cmu-169"
                }, 
                {
                    "from": "sent-PMC3406069-UAZ-r1-20-3", 
                    "object-type": "map-range", 
                    "to": "sent-PMC3406069-cmu-56"
                }, 
                {
                    "from": "sent-PMC3406069-UAZ-r1-8-1", 
                    "object-type": "map-range", 
                    "to": "sent-PMC3406069-cmu-19"
                }, 
                {
                    "from": "sent-PMC3406069-UAZ-r1-53-2", 
                    "object-type": "map-range", 
                    "to": "sent-PMC3406069-cmu-153"
                }, 
                {
                    "from": "sent-PMC3406069-UAZ-r1-53-2", 
                    "object-type": "map-range", 
                    "to": "sent-PMC3406069-cmu-137"
                }, 
                {
                    "from": "sent-PMC3406069-UAZ-r1-53-0", 
                    "object-type": "map-range", 
                    "to": "sent-PMC3406069-cmu-135"
                }, 
                {
                    "from": "sent-PMC3406069-UAZ-r1-56-5", 
                    "object-type": "map-range", 
                    "to": "sent-PMC3406069-cmu-147"
                }
            ], 
            "object-meta": {
                "component": "Pradeep-Matcher", 
                "object-type": "meta-info", 
                "organization": "CMU"
            }, 
            "object-type": "frame"
        }, 
        {
            "frame-id": "smap-PMC3406069-cmu-2", 
            "frame-type": "sentence-map", 
            "list1-meta": {
                "component": "MedScan", 
                "object-type": "meta-info", 
                "organization": "CMU"
            }, 
            "list2-meta": {
                "component": "Nicolas-NXML-Parser", 
                "object-type": "meta-info", 
                "organization": "CMU"
            }, 
            "map": [
                {
                    "from": "sent-PMC3406069-medscan-118", 
                    "object-type": "map-range", 
                    "to": "sent-PMC3406069-cmu-100"
                }, 
                {
                    "from": "sent-PMC3406069-medscan-80", 
                    "object-type": "map-range", 
                    "to": "sent-PMC3406069-cmu-75"
                }, 
                {
                    "from": "sent-PMC3406069-medscan-182", 
                    "object-type": "map-range", 
                    "to": "sent-PMC3406069-cmu-165"
                }, 
                {
                    "from": "sent-PMC3406069-medscan-143", 
                    "object-type": "map-range", 
                    "to": "sent-PMC3406069-cmu-121"
                }, 
                {
                    "from": "sent-PMC3406069-medscan-29", 
                    "object-type": "map-range", 
                    "to": "sent-PMC3406069-cmu-33"
                }, 
                {
                    "from": "sent-PMC3406069-medscan-60", 
                    "object-type": "map-range", 
                    "to": "sent-PMC3406069-cmu-61"
                }, 
                {
                    "from": "sent-PMC3406069-medscan-5", 
                    "object-type": "map-range", 
                    "to": "sent-PMC3406069-cmu-7"
                }, 
                {
                    "from": "sent-PMC3406069-medscan-73", 
                    "object-type": "map-range", 
                    "to": "sent-PMC3406069-cmu-68"
                }, 
                {
                    "from": "sent-PMC3406069-medscan-128", 
                    "object-type": "map-range", 
                    "to": "sent-PMC3406069-cmu-105"
                }, 
                {
                    "from": "sent-PMC3406069-medscan-48", 
                    "object-type": "map-range", 
                    "to": "sent-PMC3406069-cmu-49"
                }, 
                {
                    "from": "sent-PMC3406069-medscan-186", 
                    "object-type": "map-range", 
                    "to": "sent-PMC3406069-cmu-171"
                }, 
                {
                    "from": "sent-PMC3406069-medscan-130", 
                    "object-type": "map-range", 
                    "to": "sent-PMC3406069-cmu-107"
                }, 
                {
                    "from": "sent-PMC3406069-medscan-138", 
                    "object-type": "map-range", 
                    "to": "sent-PMC3406069-cmu-113"
                }, 
                {
                    "from": "sent-PMC3406069-medscan-89", 
                    "object-type": "map-range", 
                    "to": "sent-PMC3406069-cmu-78"
                }, 
                {
                    "from": "sent-PMC3406069-medscan-63", 
                    "object-type": "map-range", 
                    "to": "sent-PMC3406069-cmu-64"
                }, 
                {
                    "from": "sent-PMC3406069-medscan-145", 
                    "object-type": "map-range", 
                    "to": "sent-PMC3406069-cmu-123"
                }, 
                {
                    "from": "sent-PMC3406069-medscan-17", 
                    "object-type": "map-range", 
                    "to": "sent-PMC3406069-cmu-20"
                }, 
                {
                    "from": "sent-PMC3406069-medscan-178", 
                    "object-type": "map-range", 
                    "to": "sent-PMC3406069-cmu-161"
                }, 
                {
                    "from": "sent-PMC3406069-medscan-26", 
                    "object-type": "map-range", 
                    "to": "sent-PMC3406069-cmu-30"
                }, 
                {
                    "from": "sent-PMC3406069-medscan-77", 
                    "object-type": "map-range", 
                    "to": "sent-PMC3406069-cmu-72"
                }, 
                {
                    "from": "sent-PMC3406069-medscan-27", 
                    "object-type": "map-range", 
                    "to": "sent-PMC3406069-cmu-31"
                }, 
                {
                    "from": "sent-PMC3406069-medscan-51", 
                    "object-type": "map-range", 
                    "to": "sent-PMC3406069-cmu-52"
                }, 
                {
                    "from": "sent-PMC3406069-medscan-50", 
                    "object-type": "map-range", 
                    "to": "sent-PMC3406069-cmu-51"
                }, 
                {
                    "from": "sent-PMC3406069-medscan-127", 
                    "object-type": "map-range", 
                    "to": "sent-PMC3406069-cmu-104"
                }, 
                {
                    "from": "sent-PMC3406069-medscan-193", 
                    "object-type": "map-range", 
                    "to": "sent-PMC3406069-cmu-180"
                }, 
                {
                    "from": "sent-PMC3406069-medscan-173", 
                    "object-type": "map-range", 
                    "to": "sent-PMC3406069-cmu-154"
                }, 
                {
                    "from": "sent-PMC3406069-medscan-171", 
                    "object-type": "map-range", 
                    "to": "sent-PMC3406069-cmu-152"
                }, 
                {
                    "from": "sent-PMC3406069-medscan-7", 
                    "object-type": "map-range", 
                    "to": "sent-PMC3406069-cmu-9"
                }, 
                {
                    "from": "sent-PMC3406069-medscan-149", 
                    "object-type": "map-range", 
                    "to": "sent-PMC3406069-cmu-128"
                }, 
                {
                    "from": "sent-PMC3406069-medscan-160", 
                    "object-type": "map-range", 
                    "to": "sent-PMC3406069-cmu-139"
                }, 
                {
                    "from": "sent-PMC3406069-medscan-76", 
                    "object-type": "map-range", 
                    "to": "sent-PMC3406069-cmu-71"
                }, 
                {
                    "from": "sent-PMC3406069-medscan-49", 
                    "object-type": "map-range", 
                    "to": "sent-PMC3406069-cmu-50"
                }, 
                {
                    "from": "sent-PMC3406069-medscan-72", 
                    "object-type": "map-range", 
                    "to": "sent-PMC3406069-cmu-67"
                }, 
                {
                    "from": "sent-PMC3406069-medscan-164", 
                    "object-type": "map-range", 
                    "to": "sent-PMC3406069-cmu-144"
                }, 
                {
                    "from": "sent-PMC3406069-medscan-126", 
                    "object-type": "map-range", 
                    "to": "sent-PMC3406069-cmu-103"
                }, 
                {
                    "from": "sent-PMC3406069-medscan-189", 
                    "object-type": "map-range", 
                    "to": "sent-PMC3406069-cmu-175"
                }, 
                {
                    "from": "sent-PMC3406069-medscan-183", 
                    "object-type": "map-range", 
                    "to": "sent-PMC3406069-cmu-166"
                }, 
                {
                    "from": "sent-PMC3406069-medscan-30", 
                    "object-type": "map-range", 
                    "to": "sent-PMC3406069-cmu-34"
                }, 
                {
                    "from": "sent-PMC3406069-medscan-104", 
                    "object-type": "map-range", 
                    "to": "sent-PMC3406069-cmu-93"
                }, 
                {
                    "from": "sent-PMC3406069-medscan-168", 
                    "object-type": "map-range", 
                    "to": "sent-PMC3406069-cmu-148"
                }, 
                {
                    "from": "sent-PMC3406069-medscan-174", 
                    "object-type": "map-range", 
                    "to": "sent-PMC3406069-cmu-155"
                }, 
                {
                    "from": "sent-PMC3406069-medscan-32", 
                    "object-type": "map-range", 
                    "to": "sent-PMC3406069-cmu-36"
                }, 
                {
                    "from": "sent-PMC3406069-medscan-163", 
                    "object-type": "map-range", 
                    "to": "sent-PMC3406069-cmu-143"
                }, 
                {
                    "from": "sent-PMC3406069-medscan-75", 
                    "object-type": "map-range", 
                    "to": "sent-PMC3406069-cmu-70"
                }, 
                {
                    "from": "sent-PMC3406069-medscan-53", 
                    "object-type": "map-range", 
                    "to": "sent-PMC3406069-cmu-54"
                }, 
                {
                    "from": "sent-PMC3406069-medscan-9", 
                    "object-type": "map-range", 
                    "to": "sent-PMC3406069-cmu-11"
                }, 
                {
                    "from": "sent-PMC3406069-medscan-93", 
                    "object-type": "map-range", 
                    "to": "sent-PMC3406069-cmu-82"
                }, 
                {
                    "from": "sent-PMC3406069-medscan-28", 
                    "object-type": "map-range", 
                    "to": "sent-PMC3406069-cmu-32"
                }, 
                {
                    "from": "sent-PMC3406069-medscan-147", 
                    "object-type": "map-range", 
                    "to": "sent-PMC3406069-cmu-125"
                }, 
                {
                    "from": "sent-PMC3406069-medscan-2", 
                    "object-type": "map-range", 
                    "to": "sent-PMC3406069-cmu-4"
                }, 
                {
                    "from": "sent-PMC3406069-medscan-190", 
                    "object-type": "map-range", 
                    "to": "sent-PMC3406069-cmu-176"
                }, 
                {
                    "from": "sent-PMC3406069-medscan-6", 
                    "object-type": "map-range", 
                    "to": "sent-PMC3406069-cmu-8"
                }, 
                {
                    "from": "sent-PMC3406069-medscan-144", 
                    "object-type": "map-range", 
                    "to": "sent-PMC3406069-cmu-122"
                }, 
                {
                    "from": "sent-PMC3406069-medscan-148", 
                    "object-type": "map-range", 
                    "to": "sent-PMC3406069-cmu-126"
                }, 
                {
                    "from": "sent-PMC3406069-medscan-131", 
                    "object-type": "map-range", 
                    "to": "sent-PMC3406069-cmu-108"
                }, 
                {
                    "from": "sent-PMC3406069-medscan-112", 
                    "object-type": "map-range", 
                    "to": "sent-PMC3406069-cmu-94"
                }, 
                {
                    "from": "sent-PMC3406069-medscan-162", 
                    "object-type": "map-range", 
                    "to": "sent-PMC3406069-cmu-150"
                }, 
                {
                    "from": "sent-PMC3406069-medscan-162", 
                    "object-type": "map-range", 
                    "to": "sent-PMC3406069-cmu-150"
                }, 
                {
                    "from": "sent-PMC3406069-medscan-18", 
                    "object-type": "map-range", 
                    "to": "sent-PMC3406069-cmu-21"
                }, 
                {
                    "from": "sent-PMC3406069-medscan-162", 
                    "object-type": "map-range", 
                    "to": "sent-PMC3406069-cmu-142"
                }, 
                {
                    "from": "sent-PMC3406069-medscan-140", 
                    "object-type": "map-range", 
                    "to": "sent-PMC3406069-cmu-115"
                }, 
                {
                    "from": "sent-PMC3406069-medscan-134", 
                    "object-type": "map-range", 
                    "to": "sent-PMC3406069-cmu-111"
                }, 
                {
                    "from": "sent-PMC3406069-medscan-82", 
                    "object-type": "map-range", 
                    "to": "sent-PMC3406069-cmu-77"
                }, 
                {
                    "from": "sent-PMC3406069-medscan-187", 
                    "object-type": "map-range", 
                    "to": "sent-PMC3406069-cmu-172"
                }, 
                {
                    "from": "sent-PMC3406069-medscan-57", 
                    "object-type": "map-range", 
                    "to": "sent-PMC3406069-cmu-58"
                }, 
                {
                    "from": "sent-PMC3406069-medscan-113", 
                    "object-type": "map-range", 
                    "to": "sent-PMC3406069-cmu-95"
                }, 
                {
                    "from": "sent-PMC3406069-medscan-4", 
                    "object-type": "map-range", 
                    "to": "sent-PMC3406069-cmu-6"
                }, 
                {
                    "from": "sent-PMC3406069-medscan-125", 
                    "object-type": "map-range", 
                    "to": "sent-PMC3406069-cmu-102"
                }, 
                {
                    "from": "sent-PMC3406069-medscan-181", 
                    "object-type": "map-range", 
                    "to": "sent-PMC3406069-cmu-164"
                }, 
                {
                    "from": "sent-PMC3406069-medscan-64", 
                    "object-type": "map-range", 
                    "to": "sent-PMC3406069-cmu-65"
                }, 
                {
                    "from": "sent-PMC3406069-medscan-188", 
                    "object-type": "map-range", 
                    "to": "sent-PMC3406069-cmu-174"
                }, 
                {
                    "from": "sent-PMC3406069-medscan-31", 
                    "object-type": "map-range", 
                    "to": "sent-PMC3406069-cmu-35"
                }, 
                {
                    "from": "sent-PMC3406069-medscan-155", 
                    "object-type": "map-range", 
                    "to": "sent-PMC3406069-cmu-133"
                }, 
                {
                    "from": "sent-PMC3406069-medscan-52", 
                    "object-type": "map-range", 
                    "to": "sent-PMC3406069-cmu-53"
                }, 
                {
                    "from": "sent-PMC3406069-medscan-192", 
                    "object-type": "map-range", 
                    "to": "sent-PMC3406069-cmu-179"
                }, 
                {
                    "from": "sent-PMC3406069-medscan-137", 
                    "object-type": "map-range", 
                    "to": "sent-PMC3406069-cmu-112"
                }, 
                {
                    "from": "sent-PMC3406069-medscan-116", 
                    "object-type": "map-range", 
                    "to": "sent-PMC3406069-cmu-98"
                }, 
                {
                    "from": "sent-PMC3406069-medscan-185", 
                    "object-type": "map-range", 
                    "to": "sent-PMC3406069-cmu-170"
                }, 
                {
                    "from": "sent-PMC3406069-medscan-97", 
                    "object-type": "map-range", 
                    "to": "sent-PMC3406069-cmu-86"
                }, 
                {
                    "from": "sent-PMC3406069-medscan-191", 
                    "object-type": "map-range", 
                    "to": "sent-PMC3406069-cmu-178"
                }, 
                {
                    "from": "sent-PMC3406069-medscan-141", 
                    "object-type": "map-range", 
                    "to": "sent-PMC3406069-cmu-116"
                }, 
                {
                    "from": "sent-PMC3406069-medscan-142", 
                    "object-type": "map-range", 
                    "to": "sent-PMC3406069-cmu-119"
                }, 
                {
                    "from": "sent-PMC3406069-medscan-153", 
                    "object-type": "map-range", 
                    "to": "sent-PMC3406069-cmu-131"
                }, 
                {
                    "from": "sent-PMC3406069-medscan-133", 
                    "object-type": "map-range", 
                    "to": "sent-PMC3406069-cmu-110"
                }, 
                {
                    "from": "sent-PMC3406069-medscan-24", 
                    "object-type": "map-range", 
                    "to": "sent-PMC3406069-cmu-28"
                }, 
                {
                    "from": "sent-PMC3406069-medscan-61", 
                    "object-type": "map-range", 
                    "to": "sent-PMC3406069-cmu-89"
                }, 
                {
                    "from": "sent-PMC3406069-medscan-61", 
                    "object-type": "map-range", 
                    "to": "sent-PMC3406069-cmu-89"
                }, 
                {
                    "from": "sent-PMC3406069-medscan-166", 
                    "object-type": "map-range", 
                    "to": "sent-PMC3406069-cmu-146"
                }, 
                {
                    "from": "sent-PMC3406069-medscan-11", 
                    "object-type": "map-range", 
                    "to": "sent-PMC3406069-cmu-13"
                }, 
                {
                    "from": "sent-PMC3406069-medscan-62", 
                    "object-type": "map-range", 
                    "to": "sent-PMC3406069-cmu-63"
                }, 
                {
                    "from": "sent-PMC3406069-medscan-62", 
                    "object-type": "map-range", 
                    "to": "sent-PMC3406069-cmu-63"
                }, 
                {
                    "from": "sent-PMC3406069-medscan-179", 
                    "object-type": "map-range", 
                    "to": "sent-PMC3406069-cmu-162"
                }, 
                {
                    "from": "sent-PMC3406069-medscan-33", 
                    "object-type": "map-range", 
                    "to": "sent-PMC3406069-cmu-47"
                }, 
                {
                    "from": "sent-PMC3406069-medscan-94", 
                    "object-type": "map-range", 
                    "to": "sent-PMC3406069-cmu-83"
                }, 
                {
                    "from": "sent-PMC3406069-medscan-21", 
                    "object-type": "map-range", 
                    "to": "sent-PMC3406069-cmu-25"
                }, 
                {
                    "from": "sent-PMC3406069-medscan-176", 
                    "object-type": "map-range", 
                    "to": "sent-PMC3406069-cmu-158"
                }, 
                {
                    "from": "sent-PMC3406069-medscan-101", 
                    "object-type": "map-range", 
                    "to": "sent-PMC3406069-cmu-90"
                }, 
                {
                    "from": "sent-PMC3406069-medscan-101", 
                    "object-type": "map-range", 
                    "to": "sent-PMC3406069-cmu-90"
                }, 
                {
                    "from": "sent-PMC3406069-medscan-95", 
                    "object-type": "map-range", 
                    "to": "sent-PMC3406069-cmu-84"
                }, 
                {
                    "from": "sent-PMC3406069-medscan-177", 
                    "object-type": "map-range", 
                    "to": "sent-PMC3406069-cmu-159"
                }, 
                {
                    "from": "sent-PMC3406069-medscan-139", 
                    "object-type": "map-range", 
                    "to": "sent-PMC3406069-cmu-114"
                }, 
                {
                    "from": "sent-PMC3406069-medscan-65", 
                    "object-type": "map-range", 
                    "to": "sent-PMC3406069-cmu-66"
                }, 
                {
                    "from": "sent-PMC3406069-medscan-165", 
                    "object-type": "map-range", 
                    "to": "sent-PMC3406069-cmu-145"
                }, 
                {
                    "from": "sent-PMC3406069-medscan-175", 
                    "object-type": "map-range", 
                    "to": "sent-PMC3406069-cmu-157"
                }, 
                {
                    "from": "sent-PMC3406069-medscan-3", 
                    "object-type": "map-range", 
                    "to": "sent-PMC3406069-cmu-5"
                }, 
                {
                    "from": "sent-PMC3406069-medscan-114", 
                    "object-type": "map-range", 
                    "to": "sent-PMC3406069-cmu-96"
                }, 
                {
                    "from": "sent-PMC3406069-medscan-20", 
                    "object-type": "map-range", 
                    "to": "sent-PMC3406069-cmu-23"
                }, 
                {
                    "from": "sent-PMC3406069-medscan-8", 
                    "object-type": "map-range", 
                    "to": "sent-PMC3406069-cmu-10"
                }, 
                {
                    "from": "sent-PMC3406069-medscan-23", 
                    "object-type": "map-range", 
                    "to": "sent-PMC3406069-cmu-27"
                }, 
                {
                    "from": "sent-PMC3406069-medscan-151", 
                    "object-type": "map-range", 
                    "to": "sent-PMC3406069-cmu-129"
                }, 
                {
                    "from": "sent-PMC3406069-medscan-96", 
                    "object-type": "map-range", 
                    "to": "sent-PMC3406069-cmu-85"
                }, 
                {
                    "from": "sent-PMC3406069-medscan-115", 
                    "object-type": "map-range", 
                    "to": "sent-PMC3406069-cmu-97"
                }, 
                {
                    "from": "sent-PMC3406069-medscan-170", 
                    "object-type": "map-range", 
                    "to": "sent-PMC3406069-cmu-151"
                }, 
                {
                    "from": "sent-PMC3406069-medscan-79", 
                    "object-type": "map-range", 
                    "to": "sent-PMC3406069-cmu-74"
                }, 
                {
                    "from": "sent-PMC3406069-medscan-152", 
                    "object-type": "map-range", 
                    "to": "sent-PMC3406069-cmu-130"
                }, 
                {
                    "from": "sent-PMC3406069-medscan-132", 
                    "object-type": "map-range", 
                    "to": "sent-PMC3406069-cmu-109"
                }, 
                {
                    "from": "sent-PMC3406069-medscan-15", 
                    "object-type": "map-range", 
                    "to": "sent-PMC3406069-cmu-18"
                }, 
                {
                    "from": "sent-PMC3406069-medscan-19", 
                    "object-type": "map-range", 
                    "to": "sent-PMC3406069-cmu-22"
                }, 
                {
                    "from": "sent-PMC3406069-medscan-161", 
                    "object-type": "map-range", 
                    "to": "sent-PMC3406069-cmu-140"
                }, 
                {
                    "from": "sent-PMC3406069-medscan-180", 
                    "object-type": "map-range", 
                    "to": "sent-PMC3406069-cmu-163"
                }, 
                {
                    "from": "sent-PMC3406069-medscan-34", 
                    "object-type": "map-range", 
                    "to": "sent-PMC3406069-cmu-48"
                }, 
                {
                    "from": "sent-PMC3406069-medscan-78", 
                    "object-type": "map-range", 
                    "to": "sent-PMC3406069-cmu-73"
                }, 
                {
                    "from": "sent-PMC3406069-medscan-14", 
                    "object-type": "map-range", 
                    "to": "sent-PMC3406069-cmu-17"
                }, 
                {
                    "from": "sent-PMC3406069-medscan-56", 
                    "object-type": "map-range", 
                    "to": "sent-PMC3406069-cmu-57"
                }, 
                {
                    "from": "sent-PMC3406069-medscan-157", 
                    "object-type": "map-range", 
                    "to": "sent-PMC3406069-cmu-136"
                }, 
                {
                    "from": "sent-PMC3406069-medscan-98", 
                    "object-type": "map-range", 
                    "to": "sent-PMC3406069-cmu-87"
                }, 
                {
                    "from": "sent-PMC3406069-medscan-22", 
                    "object-type": "map-range", 
                    "to": "sent-PMC3406069-cmu-26"
                }, 
                {
                    "from": "sent-PMC3406069-medscan-12", 
                    "object-type": "map-range", 
                    "to": "sent-PMC3406069-cmu-15"
                }, 
                {
                    "from": "sent-PMC3406069-medscan-74", 
                    "object-type": "map-range", 
                    "to": "sent-PMC3406069-cmu-69"
                }, 
                {
                    "from": "sent-PMC3406069-medscan-61", 
                    "object-type": "map-range", 
                    "to": "sent-PMC3406069-cmu-62"
                }, 
                {
                    "from": "sent-PMC3406069-medscan-61", 
                    "object-type": "map-range", 
                    "to": "sent-PMC3406069-cmu-62"
                }, 
                {
                    "from": "sent-PMC3406069-medscan-146", 
                    "object-type": "map-range", 
                    "to": "sent-PMC3406069-cmu-124"
                }, 
                {
                    "from": "sent-PMC3406069-medscan-103", 
                    "object-type": "map-range", 
                    "to": "sent-PMC3406069-cmu-92"
                }, 
                {
                    "from": "sent-PMC3406069-medscan-90", 
                    "object-type": "map-range", 
                    "to": "sent-PMC3406069-cmu-79"
                }, 
                {
                    "from": "sent-PMC3406069-medscan-129", 
                    "object-type": "map-range", 
                    "to": "sent-PMC3406069-cmu-106"
                }, 
                {
                    "from": "sent-PMC3406069-medscan-101", 
                    "object-type": "map-range", 
                    "to": "sent-PMC3406069-cmu-19"
                }, 
                {
                    "from": "sent-PMC3406069-medscan-101", 
                    "object-type": "map-range", 
                    "to": "sent-PMC3406069-cmu-19"
                }, 
                {
                    "from": "sent-PMC3406069-medscan-99", 
                    "object-type": "map-range", 
                    "to": "sent-PMC3406069-cmu-88"
                }, 
                {
                    "from": "sent-PMC3406069-medscan-158", 
                    "object-type": "map-range", 
                    "to": "sent-PMC3406069-cmu-153"
                }, 
                {
                    "from": "sent-PMC3406069-medscan-158", 
                    "object-type": "map-range", 
                    "to": "sent-PMC3406069-cmu-153"
                }, 
                {
                    "from": "sent-PMC3406069-medscan-92", 
                    "object-type": "map-range", 
                    "to": "sent-PMC3406069-cmu-81"
                }, 
                {
                    "from": "sent-PMC3406069-medscan-158", 
                    "object-type": "map-range", 
                    "to": "sent-PMC3406069-cmu-137"
                }, 
                {
                    "from": "sent-PMC3406069-medscan-156", 
                    "object-type": "map-range", 
                    "to": "sent-PMC3406069-cmu-135"
                }, 
                {
                    "from": "sent-PMC3406069-medscan-0", 
                    "object-type": "map-range", 
                    "to": "sent-PMC3406069-cmu-2"
                }, 
                {
                    "from": "sent-PMC3406069-medscan-167", 
                    "object-type": "map-range", 
                    "to": "sent-PMC3406069-cmu-147"
                }
            ], 
            "object-meta": {
                "component": "Pradeep-Matcher", 
                "object-type": "meta-info", 
                "organization": "CMU"
            }, 
            "object-type": "frame"
        }
    ], 
    "object-meta": {
        "component": "Pradeep-Matcher", 
        "component-type": "machine", 
        "doc-id": "PMC3406069", 
        "object-type": "meta-info", 
        "organization": "CMU"
    }, 
    "object-type": "frame-collection"
}
