{
  "evidence": ["\\u03b15\\u03b21 integrin and \\u03b21 integrin decreased ADAM17 enzymatic activity dose dependently and that maximum inhibition was achieved by 1\\u223610 molar ratio of integrins to ADAM17","ADAM17 binding, and most importantly, we showed that both \\u03b15\\u03b21 integrin and \\u03b21 integrin","Purified \\u03b15\\u03b21 integrin and recombinant \\u03b21 integrin decrease ADAM17","Recombinant ADAM17 (10 ng/ml) was incubated alone or together with either purified \\u03b15\\u03b21 integrin (25 ng/ml or 250 ng/ml) or with \\u03b21 recombinant integrin (12 ng/ml or 120 ng/ml), in OG buffer in the presence of a quenched fluorogenic ADAM17 substrate.","We saw a more complete inhibition of ADAM17 activity when we increased the molar ratio of ADAM17/integrin to 1\\u223610, which may suggest that the conformation of the purified integrin and recombinant ADAM17 is slightly different from their conformation in the mammalian cellular context.","We showed previously that 5-HT stimulation induced ADAM17-dependent HB-EGF shedding in mesangial cells ."],
  "extracted_information": {
    "interaction_type": "decreases",
    "negative_information": false,
    "participant_a": {
      "entity_text": "Purified \\u03b15\\u03b21 integrin",
      "entity_type": "complex",
      "identifier": "GO:0034674",
      "in_model": false
    },
    "participant_b": {
      "entity_text": "ADAM17",
      "entity_type": "protein",
      "identifier": "Uniprot:P78536",
      "in_model": true
    }
  },
  "fries_provenance": [
    {
      "component": "MedScan",
      "frame-file": "PMC3297637.cmu.medscan",
      "frame-id": "relm-PMC3297637-cmu-medscan-683",
      "sentence": "Recombinant ADAM17 (10 ng/ml) was incubated alone or together with either purified \\u03b15\\u03b21 integrin (25 ng/ml or 250 ng/ml) or with \\u03b21 recombinant integrin (12 ng/ml or 120 ng/ml), in OG buffer in the presence of a quenched fluorogenic ADAM17 substrate.",
      "text": "Purified \\u03b15\\u03b21 integrin and recombinant \\u03b21 integrin decrease ADAM17"
    },
    {
      "cmu-sentence-epistemic-status": "implication",
      "cmu-sentence-epistemic-value": 0.6,
      "component": "MedScan",
      "frame-file": "PMC3297637.cmu.medscan",
      "frame-id": "relm-PMC3297637-cmu-medscan-687",
      "passage-id": "pass-PMC3297637-UAZ-r1-47",
      "passage-number": 47,
      "passage-section-id": "s2e",
      "passage-section-name": "N/A",
      "sentence": "We showed previously that 5-HT stimulation induced ADAM17-dependent HB-EGF shedding in mesangial cells .",
      "text": "\\u03b15\\u03b21 integrin and \\u03b21 integrin decreased ADAM17 enzymatic activity dose dependently and that maximum inhibition was achieved by 1\\u223610 molar ratio of integrins to ADAM17",
      "uaz-sentence": "We showed previously that 5-HT stimulation induced ADAM17 dependent HB-EGF shedding in mesangial cells     .",
      "uaz-sentence-start": 0
    },
    {
      "cmu-sentence-epistemic-status": "implication",
      "cmu-sentence-epistemic-value": 0.6,
      "component": "MedScan",
      "frame-file": "PMC3297637.cmu.medscan",
      "frame-id": "relm-PMC3297637-cmu-medscan-701",
      "passage-id": "pass-PMC3297637-UAZ-r1-64",
      "passage-number": 64,
      "passage-section-id": "s3",
      "passage-section-name": "N/A",
      "sentence": "We saw a more complete inhibition of ADAM17 activity when we increased the molar ratio of ADAM17/integrin to 1\\u223610, which may suggest that the conformation of the purified integrin and recombinant ADAM17 is slightly different from their conformation in the mammalian cellular context.",
      "text": "ADAM17 binding, and most importantly, we showed that both \\u03b15\\u03b21 integrin and \\u03b21 integrin",
      "uaz-sentence": "We saw a more complete inhibition of ADAM17 activity when we increased the molar ratio of ADAM17 and integrin to 1:10 , which may suggest that the conformation of the purified integrin and recombinant ADAM17 is slightly different from their conformation in the mammalian cellular context .",
      "uaz-sentence-start": 590
    }
  ],
  "model_relation": "extension",
  "pmc_id": "PMC3297637",
  "reader_type": "machine",
  "reading_complete": "2015-06-15T22:39:46Z",
  "reading_started": "2015-06-15T22:39:41Z",
  "submitter": "FRIES"
}
