{
    "frames": [
        {
            "frame-id": "smap-PMC3462778-cmu-1", 
            "frame-type": "sentence-map", 
            "list1-meta": {
                "component": "nxml2fries", 
                "object-type": "meta-info", 
                "organization": "UAZ"
            }, 
            "list2-meta": {
                "component": "Nicolas-NXML-Parser", 
                "object-type": "meta-info", 
                "organization": "CMU"
            }, 
            "map": [
                {
                    "from": "sent-PMC3462778-UAZ-r1-80-1", 
                    "object-type": "map-range", 
                    "to": "sent-PMC3462778-cmu-157"
                }, 
                {
                    "from": "sent-PMC3462778-UAZ-r1-97-4", 
                    "object-type": "map-range", 
                    "to": "sent-PMC3462778-cmu-195"
                }, 
                {
                    "from": "sent-PMC3462778-UAZ-r1-40-2", 
                    "object-type": "map-range", 
                    "to": "sent-PMC3462778-cmu-51"
                }, 
                {
                    "from": "sent-PMC3462778-UAZ-r1-93-0", 
                    "object-type": "map-range", 
                    "to": "sent-PMC3462778-cmu-182"
                }, 
                {
                    "from": "sent-PMC3462778-UAZ-r1-73-1", 
                    "object-type": "map-range", 
                    "to": "sent-PMC3462778-cmu-114"
                }, 
                {
                    "from": "sent-PMC3462778-UAZ-r1-72-0", 
                    "object-type": "map-range", 
                    "to": "sent-PMC3462778-cmu-109"
                }, 
                {
                    "from": "sent-PMC3462778-UAZ-r1-108-2", 
                    "object-type": "map-range", 
                    "to": "sent-PMC3462778-cmu-217"
                }, 
                {
                    "from": "sent-PMC3462778-UAZ-r1-74-0", 
                    "object-type": "map-range", 
                    "to": "sent-PMC3462778-cmu-117"
                }, 
                {
                    "from": "sent-PMC3462778-UAZ-r1-73-2", 
                    "object-type": "map-range", 
                    "to": "sent-PMC3462778-cmu-115"
                }, 
                {
                    "from": "sent-PMC3462778-UAZ-r1-100-6", 
                    "object-type": "map-range", 
                    "to": "sent-PMC3462778-cmu-205"
                }, 
                {
                    "from": "sent-PMC3462778-UAZ-r1-31-2", 
                    "object-type": "map-range", 
                    "to": "sent-PMC3462778-cmu-38"
                }, 
                {
                    "from": "sent-PMC3462778-UAZ-r1-44-2", 
                    "object-type": "map-range", 
                    "to": "sent-PMC3462778-cmu-57"
                }, 
                {
                    "from": "sent-PMC3462778-UAZ-r1-58-5", 
                    "object-type": "map-range", 
                    "to": "sent-PMC3462778-cmu-78"
                }, 
                {
                    "from": "sent-PMC3462778-UAZ-r1-100-5", 
                    "object-type": "map-range", 
                    "to": "sent-PMC3462778-cmu-204"
                }, 
                {
                    "from": "sent-PMC3462778-UAZ-r1-58-3", 
                    "object-type": "map-range", 
                    "to": "sent-PMC3462778-cmu-76"
                }, 
                {
                    "from": "sent-PMC3462778-UAZ-r1-77-7", 
                    "object-type": "map-range", 
                    "to": "sent-PMC3462778-cmu-142"
                }, 
                {
                    "from": "sent-PMC3462778-UAZ-r1-21-3", 
                    "object-type": "map-range", 
                    "to": "sent-PMC3462778-cmu-27"
                }, 
                {
                    "from": "sent-PMC3462778-UAZ-r1-81-1", 
                    "object-type": "map-range", 
                    "to": "sent-PMC3462778-cmu-164"
                }, 
                {
                    "from": "sent-PMC3462778-UAZ-r1-65-10", 
                    "object-type": "map-range", 
                    "to": "sent-PMC3462778-cmu-99"
                }, 
                {
                    "from": "sent-PMC3462778-UAZ-r1-77-1", 
                    "object-type": "map-range", 
                    "to": "sent-PMC3462778-cmu-136"
                }, 
                {
                    "from": "sent-PMC3462778-UAZ-r1-78-2", 
                    "object-type": "map-range", 
                    "to": "sent-PMC3462778-cmu-146"
                }, 
                {
                    "from": "sent-PMC3462778-UAZ-r1-86-1", 
                    "object-type": "map-range", 
                    "to": "sent-PMC3462778-cmu-173"
                }, 
                {
                    "from": "sent-PMC3462778-UAZ-r1-65-11", 
                    "object-type": "map-range", 
                    "to": "sent-PMC3462778-cmu-100"
                }, 
                {
                    "from": "sent-PMC3462778-UAZ-r1-69-2", 
                    "object-type": "map-range", 
                    "to": "sent-PMC3462778-cmu-105"
                }, 
                {
                    "from": "sent-PMC3462778-UAZ-r1-75-1", 
                    "object-type": "map-range", 
                    "to": "sent-PMC3462778-cmu-126"
                }, 
                {
                    "from": "sent-PMC3462778-UAZ-r1-77-6", 
                    "object-type": "map-range", 
                    "to": "sent-PMC3462778-cmu-141"
                }, 
                {
                    "from": "sent-PMC3462778-UAZ-r1-97-6", 
                    "object-type": "map-range", 
                    "to": "sent-PMC3462778-cmu-197"
                }, 
                {
                    "from": "sent-PMC3462778-UAZ-r1-16-1", 
                    "object-type": "map-range", 
                    "to": "sent-PMC3462778-cmu-6"
                }, 
                {
                    "from": "sent-PMC3462778-UAZ-r1-62-3", 
                    "object-type": "map-range", 
                    "to": "sent-PMC3462778-cmu-85"
                }, 
                {
                    "from": "sent-PMC3462778-UAZ-r1-115-0", 
                    "object-type": "map-range", 
                    "to": "sent-PMC3462778-cmu-235"
                }, 
                {
                    "from": "sent-PMC3462778-UAZ-r1-69-1", 
                    "object-type": "map-range", 
                    "to": "sent-PMC3462778-cmu-104"
                }, 
                {
                    "from": "sent-PMC3462778-UAZ-r1-76-0", 
                    "object-type": "map-range", 
                    "to": "sent-PMC3462778-cmu-132"
                }, 
                {
                    "from": "sent-PMC3462778-UAZ-r1-105-2", 
                    "object-type": "map-range", 
                    "to": "sent-PMC3462778-cmu-210"
                }, 
                {
                    "from": "sent-PMC3462778-UAZ-r1-67-0", 
                    "object-type": "map-range", 
                    "to": "sent-PMC3462778-cmu-88"
                }, 
                {
                    "from": "sent-PMC3462778-UAZ-r1-44-4", 
                    "object-type": "map-range", 
                    "to": "sent-PMC3462778-cmu-59"
                }, 
                {
                    "from": "sent-PMC3462778-UAZ-r1-62-5", 
                    "object-type": "map-range", 
                    "to": "sent-PMC3462778-cmu-87"
                }, 
                {
                    "from": "sent-PMC3462778-UAZ-r1-15-0", 
                    "object-type": "map-range", 
                    "to": "sent-PMC3462778-cmu-2"
                }, 
                {
                    "from": "sent-PMC3462778-UAZ-r1-75-5", 
                    "object-type": "map-range", 
                    "to": "sent-PMC3462778-cmu-130"
                }, 
                {
                    "from": "sent-PMC3462778-UAZ-r1-89-0", 
                    "object-type": "map-range", 
                    "to": "sent-PMC3462778-cmu-178"
                }, 
                {
                    "from": "sent-PMC3462778-UAZ-r1-19-2", 
                    "object-type": "map-range", 
                    "to": "sent-PMC3462778-cmu-20"
                }, 
                {
                    "from": "sent-PMC3462778-UAZ-r1-93-2", 
                    "object-type": "map-range", 
                    "to": "sent-PMC3462778-cmu-184"
                }, 
                {
                    "from": "sent-PMC3462778-UAZ-r1-27-3", 
                    "object-type": "map-range", 
                    "to": "sent-PMC3462778-cmu-35"
                }, 
                {
                    "from": "sent-PMC3462778-UAZ-r1-44-1", 
                    "object-type": "map-range", 
                    "to": "sent-PMC3462778-cmu-56"
                }, 
                {
                    "from": "sent-PMC3462778-UAZ-r1-65-5", 
                    "object-type": "map-range", 
                    "to": "sent-PMC3462778-cmu-94"
                }, 
                {
                    "from": "sent-PMC3462778-UAZ-r1-16-3", 
                    "object-type": "map-range", 
                    "to": "sent-PMC3462778-cmu-8"
                }, 
                {
                    "from": "sent-PMC3462778-UAZ-r1-58-8", 
                    "object-type": "map-range", 
                    "to": "sent-PMC3462778-cmu-80"
                }, 
                {
                    "from": "sent-PMC3462778-UAZ-r1-108-7", 
                    "object-type": "map-range", 
                    "to": "sent-PMC3462778-cmu-222"
                }, 
                {
                    "from": "sent-PMC3462778-UAZ-r1-75-2", 
                    "object-type": "map-range", 
                    "to": "sent-PMC3462778-cmu-127"
                }, 
                {
                    "from": "sent-PMC3462778-UAZ-r1-75-3", 
                    "object-type": "map-range", 
                    "to": "sent-PMC3462778-cmu-128"
                }, 
                {
                    "from": "sent-PMC3462778-UAZ-r1-74-2", 
                    "object-type": "map-range", 
                    "to": "sent-PMC3462778-cmu-119"
                }, 
                {
                    "from": "sent-PMC3462778-UAZ-r1-86-4", 
                    "object-type": "map-range", 
                    "to": "sent-PMC3462778-cmu-176"
                }, 
                {
                    "from": "sent-PMC3462778-UAZ-r1-65-8", 
                    "object-type": "map-range", 
                    "to": "sent-PMC3462778-cmu-97"
                }, 
                {
                    "from": "sent-PMC3462778-UAZ-r1-50-2", 
                    "object-type": "map-range", 
                    "to": "sent-PMC3462778-cmu-64"
                }, 
                {
                    "from": "sent-PMC3462778-UAZ-r1-94-0", 
                    "object-type": "map-range", 
                    "to": "sent-PMC3462778-cmu-188"
                }, 
                {
                    "from": "sent-PMC3462778-UAZ-r1-93-1", 
                    "object-type": "map-range", 
                    "to": "sent-PMC3462778-cmu-183"
                }, 
                {
                    "from": "sent-PMC3462778-UAZ-r1-78-3", 
                    "object-type": "map-range", 
                    "to": "sent-PMC3462778-cmu-147"
                }, 
                {
                    "from": "sent-PMC3462778-UAZ-r1-40-0", 
                    "object-type": "map-range", 
                    "to": "sent-PMC3462778-cmu-49"
                }, 
                {
                    "from": "sent-PMC3462778-UAZ-r1-42-0", 
                    "object-type": "map-range", 
                    "to": "sent-PMC3462778-cmu-53"
                }, 
                {
                    "from": "sent-PMC3462778-UAZ-r1-113-1", 
                    "object-type": "map-range", 
                    "to": "sent-PMC3462778-cmu-231"
                }, 
                {
                    "from": "sent-PMC3462778-UAZ-r1-54-2", 
                    "object-type": "map-range", 
                    "to": "sent-PMC3462778-cmu-67"
                }, 
                {
                    "from": "sent-PMC3462778-UAZ-r1-34-0", 
                    "object-type": "map-range", 
                    "to": "sent-PMC3462778-cmu-42"
                }, 
                {
                    "from": "sent-PMC3462778-UAZ-r1-77-8", 
                    "object-type": "map-range", 
                    "to": "sent-PMC3462778-cmu-143"
                }, 
                {
                    "from": "sent-PMC3462778-UAZ-r1-86-3", 
                    "object-type": "map-range", 
                    "to": "sent-PMC3462778-cmu-175"
                }, 
                {
                    "from": "sent-PMC3462778-UAZ-r1-75-4", 
                    "object-type": "map-range", 
                    "to": "sent-PMC3462778-cmu-129"
                }, 
                {
                    "from": "sent-PMC3462778-UAZ-r1-108-4", 
                    "object-type": "map-range", 
                    "to": "sent-PMC3462778-cmu-219"
                }, 
                {
                    "from": "sent-PMC3462778-UAZ-r1-54-4", 
                    "object-type": "map-range", 
                    "to": "sent-PMC3462778-cmu-69"
                }, 
                {
                    "from": "sent-PMC3462778-UAZ-r1-21-2", 
                    "object-type": "map-range", 
                    "to": "sent-PMC3462778-cmu-26"
                }, 
                {
                    "from": "sent-PMC3462778-UAZ-r1-26-0", 
                    "object-type": "map-range", 
                    "to": "sent-PMC3462778-cmu-30"
                }, 
                {
                    "from": "sent-PMC3462778-UAZ-r1-105-5", 
                    "object-type": "map-range", 
                    "to": "sent-PMC3462778-cmu-213"
                }, 
                {
                    "from": "sent-PMC3462778-UAZ-r1-54-6", 
                    "object-type": "map-range", 
                    "to": "sent-PMC3462778-cmu-71"
                }, 
                {
                    "from": "sent-PMC3462778-UAZ-r1-54-1", 
                    "object-type": "map-range", 
                    "to": "sent-PMC3462778-cmu-66"
                }, 
                {
                    "from": "sent-PMC3462778-UAZ-r1-97-5", 
                    "object-type": "map-range", 
                    "to": "sent-PMC3462778-cmu-196"
                }, 
                {
                    "from": "sent-PMC3462778-UAZ-r1-97-3", 
                    "object-type": "map-range", 
                    "to": "sent-PMC3462778-cmu-194"
                }, 
                {
                    "from": "sent-PMC3462778-UAZ-r1-18-0", 
                    "object-type": "map-range", 
                    "to": "sent-PMC3462778-cmu-13"
                }, 
                {
                    "from": "sent-PMC3462778-UAZ-r1-74-5", 
                    "object-type": "map-range", 
                    "to": "sent-PMC3462778-cmu-122"
                }, 
                {
                    "from": "sent-PMC3462778-UAZ-r1-40-3", 
                    "object-type": "map-range", 
                    "to": "sent-PMC3462778-cmu-52"
                }, 
                {
                    "from": "sent-PMC3462778-UAZ-r1-108-9", 
                    "object-type": "map-range", 
                    "to": "sent-PMC3462778-cmu-224"
                }, 
                {
                    "from": "sent-PMC3462778-UAZ-r1-65-2", 
                    "object-type": "map-range", 
                    "to": "sent-PMC3462778-cmu-91"
                }, 
                {
                    "from": "sent-PMC3462778-UAZ-r1-58-9", 
                    "object-type": "map-range", 
                    "to": "sent-PMC3462778-cmu-81"
                }, 
                {
                    "from": "sent-PMC3462778-UAZ-r1-90-1", 
                    "object-type": "map-range", 
                    "to": "sent-PMC3462778-cmu-180"
                }, 
                {
                    "from": "sent-PMC3462778-UAZ-r1-72-1", 
                    "object-type": "map-range", 
                    "to": "sent-PMC3462778-cmu-110"
                }, 
                {
                    "from": "sent-PMC3462778-UAZ-r1-80-0", 
                    "object-type": "map-range", 
                    "to": "sent-PMC3462778-cmu-15"
                }, 
                {
                    "from": "sent-PMC3462778-UAZ-r1-25-0", 
                    "object-type": "map-range", 
                    "to": "sent-PMC3462778-cmu-29"
                }, 
                {
                    "from": "sent-PMC3462778-UAZ-r1-36-3", 
                    "object-type": "map-range", 
                    "to": "sent-PMC3462778-cmu-47"
                }, 
                {
                    "from": "sent-PMC3462778-UAZ-r1-114-1", 
                    "object-type": "map-range", 
                    "to": "sent-PMC3462778-cmu-234"
                }, 
                {
                    "from": "sent-PMC3462778-UAZ-r1-81-3", 
                    "object-type": "map-range", 
                    "to": "sent-PMC3462778-cmu-166"
                }, 
                {
                    "from": "sent-PMC3462778-UAZ-r1-96-0", 
                    "object-type": "map-range", 
                    "to": "sent-PMC3462778-cmu-190"
                }, 
                {
                    "from": "sent-PMC3462778-UAZ-r1-108-5", 
                    "object-type": "map-range", 
                    "to": "sent-PMC3462778-cmu-220"
                }, 
                {
                    "from": "sent-PMC3462778-UAZ-r1-81-0", 
                    "object-type": "map-range", 
                    "to": "sent-PMC3462778-cmu-163"
                }, 
                {
                    "from": "sent-PMC3462778-UAZ-r1-32-1", 
                    "object-type": "map-range", 
                    "to": "sent-PMC3462778-cmu-40"
                }, 
                {
                    "from": "sent-PMC3462778-UAZ-r1-92-0", 
                    "object-type": "map-range", 
                    "to": "sent-PMC3462778-cmu-181"
                }, 
                {
                    "from": "sent-PMC3462778-UAZ-r1-44-0", 
                    "object-type": "map-range", 
                    "to": "sent-PMC3462778-cmu-55"
                }, 
                {
                    "from": "sent-PMC3462778-UAZ-r1-50-0", 
                    "object-type": "map-range", 
                    "to": "sent-PMC3462778-cmu-62"
                }, 
                {
                    "from": "sent-PMC3462778-UAZ-r1-58-0", 
                    "object-type": "map-range", 
                    "to": "sent-PMC3462778-cmu-73"
                }, 
                {
                    "from": "sent-PMC3462778-UAZ-r1-78-1", 
                    "object-type": "map-range", 
                    "to": "sent-PMC3462778-cmu-145"
                }, 
                {
                    "from": "sent-PMC3462778-UAZ-r1-74-1", 
                    "object-type": "map-range", 
                    "to": "sent-PMC3462778-cmu-118"
                }, 
                {
                    "from": "sent-PMC3462778-UAZ-r1-75-0", 
                    "object-type": "map-range", 
                    "to": "sent-PMC3462778-cmu-125"
                }, 
                {
                    "from": "sent-PMC3462778-UAZ-r1-74-7", 
                    "object-type": "map-range", 
                    "to": "sent-PMC3462778-cmu-124"
                }, 
                {
                    "from": "sent-PMC3462778-UAZ-r1-113-2", 
                    "object-type": "map-range", 
                    "to": "sent-PMC3462778-cmu-232"
                }, 
                {
                    "from": "sent-PMC3462778-UAZ-r1-77-0", 
                    "object-type": "map-range", 
                    "to": "sent-PMC3462778-cmu-135"
                }, 
                {
                    "from": "sent-PMC3462778-UAZ-r1-108-8", 
                    "object-type": "map-range", 
                    "to": "sent-PMC3462778-cmu-223"
                }, 
                {
                    "from": "sent-PMC3462778-UAZ-r1-74-4", 
                    "object-type": "map-range", 
                    "to": "sent-PMC3462778-cmu-121"
                }, 
                {
                    "from": "sent-PMC3462778-UAZ-r1-49-0", 
                    "object-type": "map-range", 
                    "to": "sent-PMC3462778-cmu-61"
                }, 
                {
                    "from": "sent-PMC3462778-UAZ-r1-17-0", 
                    "object-type": "map-range", 
                    "to": "sent-PMC3462778-cmu-10"
                }, 
                {
                    "from": "sent-PMC3462778-UAZ-r1-80-5", 
                    "object-type": "map-range", 
                    "to": "sent-PMC3462778-cmu-161"
                }, 
                {
                    "from": "sent-PMC3462778-UAZ-r1-81-5", 
                    "object-type": "map-range", 
                    "to": "sent-PMC3462778-cmu-168"
                }, 
                {
                    "from": "sent-PMC3462778-UAZ-r1-65-13", 
                    "object-type": "map-range", 
                    "to": "sent-PMC3462778-cmu-102"
                }, 
                {
                    "from": "sent-PMC3462778-UAZ-r1-44-5", 
                    "object-type": "map-range", 
                    "to": "sent-PMC3462778-cmu-60"
                }, 
                {
                    "from": "sent-PMC3462778-UAZ-r1-72-3", 
                    "object-type": "map-range", 
                    "to": "sent-PMC3462778-cmu-112"
                }, 
                {
                    "from": "sent-PMC3462778-UAZ-r1-86-2", 
                    "object-type": "map-range", 
                    "to": "sent-PMC3462778-cmu-174"
                }, 
                {
                    "from": "sent-PMC3462778-UAZ-r1-78-0", 
                    "object-type": "map-range", 
                    "to": "sent-PMC3462778-cmu-144"
                }, 
                {
                    "from": "sent-PMC3462778-UAZ-r1-108-1", 
                    "object-type": "map-range", 
                    "to": "sent-PMC3462778-cmu-216"
                }, 
                {
                    "from": "sent-PMC3462778-UAZ-r1-115-1", 
                    "object-type": "map-range", 
                    "to": "sent-PMC3462778-cmu-236"
                }, 
                {
                    "from": "sent-PMC3462778-UAZ-r1-108-3", 
                    "object-type": "map-range", 
                    "to": "sent-PMC3462778-cmu-218"
                }, 
                {
                    "from": "sent-PMC3462778-UAZ-r1-100-2", 
                    "object-type": "map-range", 
                    "to": "sent-PMC3462778-cmu-201"
                }, 
                {
                    "from": "sent-PMC3462778-UAZ-r1-44-3", 
                    "object-type": "map-range", 
                    "to": "sent-PMC3462778-cmu-58"
                }, 
                {
                    "from": "sent-PMC3462778-UAZ-r1-32-2", 
                    "object-type": "map-range", 
                    "to": "sent-PMC3462778-cmu-41"
                }, 
                {
                    "from": "sent-PMC3462778-UAZ-r1-31-1", 
                    "object-type": "map-range", 
                    "to": "sent-PMC3462778-cmu-37"
                }, 
                {
                    "from": "sent-PMC3462778-UAZ-r1-105-4", 
                    "object-type": "map-range", 
                    "to": "sent-PMC3462778-cmu-212"
                }, 
                {
                    "from": "sent-PMC3462778-UAZ-r1-54-7", 
                    "object-type": "map-range", 
                    "to": "sent-PMC3462778-cmu-72"
                }, 
                {
                    "from": "sent-PMC3462778-UAZ-r1-108-11", 
                    "object-type": "map-range", 
                    "to": "sent-PMC3462778-cmu-225"
                }, 
                {
                    "from": "sent-PMC3462778-UAZ-r1-21-1", 
                    "object-type": "map-range", 
                    "to": "sent-PMC3462778-cmu-25"
                }, 
                {
                    "from": "sent-PMC3462778-UAZ-r1-54-5", 
                    "object-type": "map-range", 
                    "to": "sent-PMC3462778-cmu-70"
                }, 
                {
                    "from": "sent-PMC3462778-UAZ-r1-76-2", 
                    "object-type": "map-range", 
                    "to": "sent-PMC3462778-cmu-134"
                }, 
                {
                    "from": "sent-PMC3462778-UAZ-r1-58-2", 
                    "object-type": "map-range", 
                    "to": "sent-PMC3462778-cmu-75"
                }, 
                {
                    "from": "sent-PMC3462778-UAZ-r1-74-3", 
                    "object-type": "map-range", 
                    "to": "sent-PMC3462778-cmu-120"
                }, 
                {
                    "from": "sent-PMC3462778-UAZ-r1-76-1", 
                    "object-type": "map-range", 
                    "to": "sent-PMC3462778-cmu-133"
                }, 
                {
                    "from": "sent-PMC3462778-UAZ-r1-80-3", 
                    "object-type": "map-range", 
                    "to": "sent-PMC3462778-cmu-159"
                }, 
                {
                    "from": "sent-PMC3462778-UAZ-r1-100-0", 
                    "object-type": "map-range", 
                    "to": "sent-PMC3462778-cmu-199"
                }, 
                {
                    "from": "sent-PMC3462778-UAZ-r1-65-1", 
                    "object-type": "map-range", 
                    "to": "sent-PMC3462778-cmu-90"
                }, 
                {
                    "from": "sent-PMC3462778-UAZ-r1-93-4", 
                    "object-type": "map-range", 
                    "to": "sent-PMC3462778-cmu-186"
                }, 
                {
                    "from": "sent-PMC3462778-UAZ-r1-65-3", 
                    "object-type": "map-range", 
                    "to": "sent-PMC3462778-cmu-92"
                }, 
                {
                    "from": "sent-PMC3462778-UAZ-r1-81-6", 
                    "object-type": "map-range", 
                    "to": "sent-PMC3462778-cmu-169"
                }, 
                {
                    "from": "sent-PMC3462778-UAZ-r1-20-1", 
                    "object-type": "map-range", 
                    "to": "sent-PMC3462778-cmu-22"
                }, 
                {
                    "from": "sent-PMC3462778-UAZ-r1-58-6", 
                    "object-type": "map-range", 
                    "to": "sent-PMC3462778-cmu-79"
                }, 
                {
                    "from": "sent-PMC3462778-UAZ-r1-93-5", 
                    "object-type": "map-range", 
                    "to": "sent-PMC3462778-cmu-187"
                }, 
                {
                    "from": "sent-PMC3462778-UAZ-r1-105-1", 
                    "object-type": "map-range", 
                    "to": "sent-PMC3462778-cmu-209"
                }, 
                {
                    "from": "sent-PMC3462778-UAZ-r1-81-4", 
                    "object-type": "map-range", 
                    "to": "sent-PMC3462778-cmu-167"
                }, 
                {
                    "from": "sent-PMC3462778-UAZ-r1-15-1", 
                    "object-type": "map-range", 
                    "to": "sent-PMC3462778-cmu-3"
                }, 
                {
                    "from": "sent-PMC3462778-UAZ-r1-108-0", 
                    "object-type": "map-range", 
                    "to": "sent-PMC3462778-cmu-215"
                }, 
                {
                    "from": "sent-PMC3462778-UAZ-r1-114-0", 
                    "object-type": "map-range", 
                    "to": "sent-PMC3462778-cmu-233"
                }, 
                {
                    "from": "sent-PMC3462778-UAZ-r1-80-0", 
                    "object-type": "map-range", 
                    "to": "sent-PMC3462778-cmu-156"
                }, 
                {
                    "from": "sent-PMC3462778-UAZ-r1-36-1", 
                    "object-type": "map-range", 
                    "to": "sent-PMC3462778-cmu-45"
                }, 
                {
                    "from": "sent-PMC3462778-UAZ-r1-17-1", 
                    "object-type": "map-range", 
                    "to": "sent-PMC3462778-cmu-11"
                }, 
                {
                    "from": "sent-PMC3462778-UAZ-r1-27-1", 
                    "object-type": "map-range", 
                    "to": "sent-PMC3462778-cmu-33"
                }, 
                {
                    "from": "sent-PMC3462778-UAZ-r1-26-1", 
                    "object-type": "map-range", 
                    "to": "sent-PMC3462778-cmu-31"
                }, 
                {
                    "from": "sent-PMC3462778-UAZ-r1-65-7", 
                    "object-type": "map-range", 
                    "to": "sent-PMC3462778-cmu-96"
                }, 
                {
                    "from": "sent-PMC3462778-UAZ-r1-21-0", 
                    "object-type": "map-range", 
                    "to": "sent-PMC3462778-cmu-24"
                }, 
                {
                    "from": "sent-PMC3462778-UAZ-r1-79-3", 
                    "object-type": "map-range", 
                    "to": "sent-PMC3462778-cmu-155"
                }, 
                {
                    "from": "sent-PMC3462778-UAZ-r1-17-2", 
                    "object-type": "map-range", 
                    "to": "sent-PMC3462778-cmu-12"
                }, 
                {
                    "from": "sent-PMC3462778-UAZ-r1-94-1", 
                    "object-type": "map-range", 
                    "to": "sent-PMC3462778-cmu-189"
                }, 
                {
                    "from": "sent-PMC3462778-UAZ-r1-78-4", 
                    "object-type": "map-range", 
                    "to": "sent-PMC3462778-cmu-148"
                }, 
                {
                    "from": "sent-PMC3462778-UAZ-r1-65-0", 
                    "object-type": "map-range", 
                    "to": "sent-PMC3462778-cmu-89"
                }, 
                {
                    "from": "sent-PMC3462778-UAZ-r1-105-3", 
                    "object-type": "map-range", 
                    "to": "sent-PMC3462778-cmu-211"
                }, 
                {
                    "from": "sent-PMC3462778-UAZ-r1-58-1", 
                    "object-type": "map-range", 
                    "to": "sent-PMC3462778-cmu-74"
                }, 
                {
                    "from": "sent-PMC3462778-UAZ-r1-78-5", 
                    "object-type": "map-range", 
                    "to": "sent-PMC3462778-cmu-149"
                }, 
                {
                    "from": "sent-PMC3462778-UAZ-r1-78-6", 
                    "object-type": "map-range", 
                    "to": "sent-PMC3462778-cmu-150"
                }, 
                {
                    "from": "sent-PMC3462778-UAZ-r1-62-2", 
                    "object-type": "map-range", 
                    "to": "sent-PMC3462778-cmu-84"
                }, 
                {
                    "from": "sent-PMC3462778-UAZ-r1-62-0", 
                    "object-type": "map-range", 
                    "to": "sent-PMC3462778-cmu-82"
                }, 
                {
                    "from": "sent-PMC3462778-UAZ-r1-20-0", 
                    "object-type": "map-range", 
                    "to": "sent-PMC3462778-cmu-21"
                }, 
                {
                    "from": "sent-PMC3462778-UAZ-r1-69-0", 
                    "object-type": "map-range", 
                    "to": "sent-PMC3462778-cmu-103"
                }, 
                {
                    "from": "sent-PMC3462778-UAZ-r1-69-4", 
                    "object-type": "map-range", 
                    "to": "sent-PMC3462778-cmu-107"
                }, 
                {
                    "from": "sent-PMC3462778-UAZ-r1-18-1", 
                    "object-type": "map-range", 
                    "to": "sent-PMC3462778-cmu-14"
                }, 
                {
                    "from": "sent-PMC3462778-UAZ-r1-54-3", 
                    "object-type": "map-range", 
                    "to": "sent-PMC3462778-cmu-68"
                }, 
                {
                    "from": "sent-PMC3462778-UAZ-r1-108-6", 
                    "object-type": "map-range", 
                    "to": "sent-PMC3462778-cmu-221"
                }, 
                {
                    "from": "sent-PMC3462778-UAZ-r1-113-0", 
                    "object-type": "map-range", 
                    "to": "sent-PMC3462778-cmu-230"
                }, 
                {
                    "from": "sent-PMC3462778-UAZ-r1-31-0", 
                    "object-type": "map-range", 
                    "to": "sent-PMC3462778-cmu-36"
                }, 
                {
                    "from": "sent-PMC3462778-UAZ-r1-20-2", 
                    "object-type": "map-range", 
                    "to": "sent-PMC3462778-cmu-23"
                }, 
                {
                    "from": "sent-PMC3462778-UAZ-r1-73-0", 
                    "object-type": "map-range", 
                    "to": "sent-PMC3462778-cmu-113"
                }, 
                {
                    "from": "sent-PMC3462778-UAZ-r1-77-4", 
                    "object-type": "map-range", 
                    "to": "sent-PMC3462778-cmu-139"
                }, 
                {
                    "from": "sent-PMC3462778-UAZ-r1-18-3", 
                    "object-type": "map-range", 
                    "to": "sent-PMC3462778-cmu-16"
                }, 
                {
                    "from": "sent-PMC3462778-UAZ-r1-80-4", 
                    "object-type": "map-range", 
                    "to": "sent-PMC3462778-cmu-160"
                }, 
                {
                    "from": "sent-PMC3462778-UAZ-r1-81-2", 
                    "object-type": "map-range", 
                    "to": "sent-PMC3462778-cmu-165"
                }, 
                {
                    "from": "sent-PMC3462778-UAZ-r1-65-9", 
                    "object-type": "map-range", 
                    "to": "sent-PMC3462778-cmu-98"
                }, 
                {
                    "from": "sent-PMC3462778-UAZ-r1-80-2", 
                    "object-type": "map-range", 
                    "to": "sent-PMC3462778-cmu-158"
                }, 
                {
                    "from": "sent-PMC3462778-UAZ-r1-97-2", 
                    "object-type": "map-range", 
                    "to": "sent-PMC3462778-cmu-193"
                }, 
                {
                    "from": "sent-PMC3462778-UAZ-r1-65-12", 
                    "object-type": "map-range", 
                    "to": "sent-PMC3462778-cmu-101"
                }, 
                {
                    "from": "sent-PMC3462778-UAZ-r1-100-1", 
                    "object-type": "map-range", 
                    "to": "sent-PMC3462778-cmu-200"
                }, 
                {
                    "from": "sent-PMC3462778-UAZ-r1-40-1", 
                    "object-type": "map-range", 
                    "to": "sent-PMC3462778-cmu-50"
                }, 
                {
                    "from": "sent-PMC3462778-UAZ-r1-97-1", 
                    "object-type": "map-range", 
                    "to": "sent-PMC3462778-cmu-192"
                }, 
                {
                    "from": "sent-PMC3462778-UAZ-r1-79-0", 
                    "object-type": "map-range", 
                    "to": "sent-PMC3462778-cmu-152"
                }, 
                {
                    "from": "sent-PMC3462778-UAZ-r1-36-2", 
                    "object-type": "map-range", 
                    "to": "sent-PMC3462778-cmu-46"
                }, 
                {
                    "from": "sent-PMC3462778-UAZ-r1-19-0", 
                    "object-type": "map-range", 
                    "to": "sent-PMC3462778-cmu-18"
                }, 
                {
                    "from": "sent-PMC3462778-UAZ-r1-97-0", 
                    "object-type": "map-range", 
                    "to": "sent-PMC3462778-cmu-191"
                }, 
                {
                    "from": "sent-PMC3462778-UAZ-r1-19-1", 
                    "object-type": "map-range", 
                    "to": "sent-PMC3462778-cmu-19"
                }, 
                {
                    "from": "sent-PMC3462778-UAZ-r1-105-0", 
                    "object-type": "map-range", 
                    "to": "sent-PMC3462778-cmu-208"
                }, 
                {
                    "from": "sent-PMC3462778-UAZ-r1-35-0", 
                    "object-type": "map-range", 
                    "to": "sent-PMC3462778-cmu-43"
                }, 
                {
                    "from": "sent-PMC3462778-UAZ-r1-72-2", 
                    "object-type": "map-range", 
                    "to": "sent-PMC3462778-cmu-111"
                }, 
                {
                    "from": "sent-PMC3462778-UAZ-r1-73-3", 
                    "object-type": "map-range", 
                    "to": "sent-PMC3462778-cmu-116"
                }, 
                {
                    "from": "sent-PMC3462778-UAZ-r1-62-4", 
                    "object-type": "map-range", 
                    "to": "sent-PMC3462778-cmu-86"
                }, 
                {
                    "from": "sent-PMC3462778-UAZ-r1-75-6", 
                    "object-type": "map-range", 
                    "to": "sent-PMC3462778-cmu-131"
                }, 
                {
                    "from": "sent-PMC3462778-UAZ-r1-77-3", 
                    "object-type": "map-range", 
                    "to": "sent-PMC3462778-cmu-138"
                }, 
                {
                    "from": "sent-PMC3462778-UAZ-r1-74-6", 
                    "object-type": "map-range", 
                    "to": "sent-PMC3462778-cmu-123"
                }, 
                {
                    "from": "sent-PMC3462778-UAZ-r1-43-0", 
                    "object-type": "map-range", 
                    "to": "sent-PMC3462778-cmu-54"
                }, 
                {
                    "from": "sent-PMC3462778-UAZ-r1-77-2", 
                    "object-type": "map-range", 
                    "to": "sent-PMC3462778-cmu-137"
                }, 
                {
                    "from": "sent-PMC3462778-UAZ-r1-69-3", 
                    "object-type": "map-range", 
                    "to": "sent-PMC3462778-cmu-106"
                }, 
                {
                    "from": "sent-PMC3462778-UAZ-r1-78-7", 
                    "object-type": "map-range", 
                    "to": "sent-PMC3462778-cmu-151"
                }, 
                {
                    "from": "sent-PMC3462778-UAZ-r1-62-1", 
                    "object-type": "map-range", 
                    "to": "sent-PMC3462778-cmu-83"
                }, 
                {
                    "from": "sent-PMC3462778-UAZ-r1-36-0", 
                    "object-type": "map-range", 
                    "to": "sent-PMC3462778-cmu-44"
                }, 
                {
                    "from": "sent-PMC3462778-UAZ-r1-80-6", 
                    "object-type": "map-range", 
                    "to": "sent-PMC3462778-cmu-162"
                }, 
                {
                    "from": "sent-PMC3462778-UAZ-r1-77-5", 
                    "object-type": "map-range", 
                    "to": "sent-PMC3462778-cmu-140"
                }, 
                {
                    "from": "sent-PMC3462778-UAZ-r1-16-0", 
                    "object-type": "map-range", 
                    "to": "sent-PMC3462778-cmu-5"
                }, 
                {
                    "from": "sent-PMC3462778-UAZ-r1-36-4", 
                    "object-type": "map-range", 
                    "to": "sent-PMC3462778-cmu-48"
                }, 
                {
                    "from": "sent-PMC3462778-UAZ-r1-27-2", 
                    "object-type": "map-range", 
                    "to": "sent-PMC3462778-cmu-34"
                }, 
                {
                    "from": "sent-PMC3462778-UAZ-r1-16-4", 
                    "object-type": "map-range", 
                    "to": "sent-PMC3462778-cmu-9"
                }, 
                {
                    "from": "sent-PMC3462778-UAZ-r1-79-1", 
                    "object-type": "map-range", 
                    "to": "sent-PMC3462778-cmu-153"
                }, 
                {
                    "from": "sent-PMC3462778-UAZ-r1-50-1", 
                    "object-type": "map-range", 
                    "to": "sent-PMC3462778-cmu-63"
                }
            ], 
            "object-meta": {
                "component": "Pradeep-Matcher", 
                "object-type": "meta-info", 
                "organization": "CMU"
            }, 
            "object-type": "frame"
        }, 
        {
            "frame-id": "smap-PMC3462778-cmu-2", 
            "frame-type": "sentence-map", 
            "list1-meta": {
                "component": "MedScan", 
                "object-type": "meta-info", 
                "organization": "CMU"
            }, 
            "list2-meta": {
                "component": "Nicolas-NXML-Parser", 
                "object-type": "meta-info", 
                "organization": "CMU"
            }, 
            "map": [
                {
                    "from": "sent-PMC3462778-medscan-186", 
                    "object-type": "map-range", 
                    "to": "sent-PMC3462778-cmu-157"
                }, 
                {
                    "from": "sent-PMC3462778-medscan-218", 
                    "object-type": "map-range", 
                    "to": "sent-PMC3462778-cmu-195"
                }, 
                {
                    "from": "sent-PMC3462778-medscan-61", 
                    "object-type": "map-range", 
                    "to": "sent-PMC3462778-cmu-51"
                }, 
                {
                    "from": "sent-PMC3462778-medscan-206", 
                    "object-type": "map-range", 
                    "to": "sent-PMC3462778-cmu-182"
                }, 
                {
                    "from": "sent-PMC3462778-medscan-144", 
                    "object-type": "map-range", 
                    "to": "sent-PMC3462778-cmu-114"
                }, 
                {
                    "from": "sent-PMC3462778-medscan-139", 
                    "object-type": "map-range", 
                    "to": "sent-PMC3462778-cmu-109"
                }, 
                {
                    "from": "sent-PMC3462778-medscan-236", 
                    "object-type": "map-range", 
                    "to": "sent-PMC3462778-cmu-217"
                }, 
                {
                    "from": "sent-PMC3462778-medscan-147", 
                    "object-type": "map-range", 
                    "to": "sent-PMC3462778-cmu-117"
                }, 
                {
                    "from": "sent-PMC3462778-medscan-145", 
                    "object-type": "map-range", 
                    "to": "sent-PMC3462778-cmu-115"
                }, 
                {
                    "from": "sent-PMC3462778-medscan-226", 
                    "object-type": "map-range", 
                    "to": "sent-PMC3462778-cmu-205"
                }, 
                {
                    "from": "sent-PMC3462778-medscan-42", 
                    "object-type": "map-range", 
                    "to": "sent-PMC3462778-cmu-38"
                }, 
                {
                    "from": "sent-PMC3462778-medscan-66", 
                    "object-type": "map-range", 
                    "to": "sent-PMC3462778-cmu-57"
                }, 
                {
                    "from": "sent-PMC3462778-medscan-94", 
                    "object-type": "map-range", 
                    "to": "sent-PMC3462778-cmu-78"
                }, 
                {
                    "from": "sent-PMC3462778-medscan-225", 
                    "object-type": "map-range", 
                    "to": "sent-PMC3462778-cmu-204"
                }, 
                {
                    "from": "sent-PMC3462778-medscan-92", 
                    "object-type": "map-range", 
                    "to": "sent-PMC3462778-cmu-76"
                }, 
                {
                    "from": "sent-PMC3462778-medscan-172", 
                    "object-type": "map-range", 
                    "to": "sent-PMC3462778-cmu-142"
                }, 
                {
                    "from": "sent-PMC3462778-medscan-25", 
                    "object-type": "map-range", 
                    "to": "sent-PMC3462778-cmu-27"
                }, 
                {
                    "from": "sent-PMC3462778-medscan-193", 
                    "object-type": "map-range", 
                    "to": "sent-PMC3462778-cmu-164"
                }, 
                {
                    "from": "sent-PMC3462778-medscan-166", 
                    "object-type": "map-range", 
                    "to": "sent-PMC3462778-cmu-136"
                }, 
                {
                    "from": "sent-PMC3462778-medscan-176", 
                    "object-type": "map-range", 
                    "to": "sent-PMC3462778-cmu-146"
                }, 
                {
                    "from": "sent-PMC3462778-medscan-199", 
                    "object-type": "map-range", 
                    "to": "sent-PMC3462778-cmu-173"
                }, 
                {
                    "from": "sent-PMC3462778-medscan-117", 
                    "object-type": "map-range", 
                    "to": "sent-PMC3462778-cmu-100"
                }, 
                {
                    "from": "sent-PMC3462778-medscan-136", 
                    "object-type": "map-range", 
                    "to": "sent-PMC3462778-cmu-105"
                }, 
                {
                    "from": "sent-PMC3462778-medscan-156", 
                    "object-type": "map-range", 
                    "to": "sent-PMC3462778-cmu-126"
                }, 
                {
                    "from": "sent-PMC3462778-medscan-171", 
                    "object-type": "map-range", 
                    "to": "sent-PMC3462778-cmu-141"
                }, 
                {
                    "from": "sent-PMC3462778-medscan-220", 
                    "object-type": "map-range", 
                    "to": "sent-PMC3462778-cmu-197"
                }, 
                {
                    "from": "sent-PMC3462778-medscan-104", 
                    "object-type": "map-range", 
                    "to": "sent-PMC3462778-cmu-85"
                }, 
                {
                    "from": "sent-PMC3462778-medscan-104", 
                    "object-type": "map-range", 
                    "to": "sent-PMC3462778-cmu-85"
                }, 
                {
                    "from": "sent-PMC3462778-medscan-254", 
                    "object-type": "map-range", 
                    "to": "sent-PMC3462778-cmu-235"
                }, 
                {
                    "from": "sent-PMC3462778-medscan-135", 
                    "object-type": "map-range", 
                    "to": "sent-PMC3462778-cmu-104"
                }, 
                {
                    "from": "sent-PMC3462778-medscan-162", 
                    "object-type": "map-range", 
                    "to": "sent-PMC3462778-cmu-132"
                }, 
                {
                    "from": "sent-PMC3462778-medscan-230", 
                    "object-type": "map-range", 
                    "to": "sent-PMC3462778-cmu-210"
                }, 
                {
                    "from": "sent-PMC3462778-medscan-68", 
                    "object-type": "map-range", 
                    "to": "sent-PMC3462778-cmu-59"
                }, 
                {
                    "from": "sent-PMC3462778-medscan-106", 
                    "object-type": "map-range", 
                    "to": "sent-PMC3462778-cmu-87"
                }, 
                {
                    "from": "sent-PMC3462778-medscan-0", 
                    "object-type": "map-range", 
                    "to": "sent-PMC3462778-cmu-2"
                }, 
                {
                    "from": "sent-PMC3462778-medscan-160", 
                    "object-type": "map-range", 
                    "to": "sent-PMC3462778-cmu-130"
                }, 
                {
                    "from": "sent-PMC3462778-medscan-18", 
                    "object-type": "map-range", 
                    "to": "sent-PMC3462778-cmu-20"
                }, 
                {
                    "from": "sent-PMC3462778-medscan-208", 
                    "object-type": "map-range", 
                    "to": "sent-PMC3462778-cmu-184"
                }, 
                {
                    "from": "sent-PMC3462778-medscan-31", 
                    "object-type": "map-range", 
                    "to": "sent-PMC3462778-cmu-35"
                }, 
                {
                    "from": "sent-PMC3462778-medscan-65", 
                    "object-type": "map-range", 
                    "to": "sent-PMC3462778-cmu-56"
                }, 
                {
                    "from": "sent-PMC3462778-medscan-111", 
                    "object-type": "map-range", 
                    "to": "sent-PMC3462778-cmu-94"
                }, 
                {
                    "from": "sent-PMC3462778-medscan-6", 
                    "object-type": "map-range", 
                    "to": "sent-PMC3462778-cmu-8"
                }, 
                {
                    "from": "sent-PMC3462778-medscan-96", 
                    "object-type": "map-range", 
                    "to": "sent-PMC3462778-cmu-80"
                }, 
                {
                    "from": "sent-PMC3462778-medscan-241", 
                    "object-type": "map-range", 
                    "to": "sent-PMC3462778-cmu-222"
                }, 
                {
                    "from": "sent-PMC3462778-medscan-157", 
                    "object-type": "map-range", 
                    "to": "sent-PMC3462778-cmu-127"
                }, 
                {
                    "from": "sent-PMC3462778-medscan-158", 
                    "object-type": "map-range", 
                    "to": "sent-PMC3462778-cmu-128"
                }, 
                {
                    "from": "sent-PMC3462778-medscan-149", 
                    "object-type": "map-range", 
                    "to": "sent-PMC3462778-cmu-119"
                }, 
                {
                    "from": "sent-PMC3462778-medscan-202", 
                    "object-type": "map-range", 
                    "to": "sent-PMC3462778-cmu-176"
                }, 
                {
                    "from": "sent-PMC3462778-medscan-114", 
                    "object-type": "map-range", 
                    "to": "sent-PMC3462778-cmu-97"
                }, 
                {
                    "from": "sent-PMC3462778-medscan-75", 
                    "object-type": "map-range", 
                    "to": "sent-PMC3462778-cmu-64"
                }, 
                {
                    "from": "sent-PMC3462778-medscan-212", 
                    "object-type": "map-range", 
                    "to": "sent-PMC3462778-cmu-188"
                }, 
                {
                    "from": "sent-PMC3462778-medscan-207", 
                    "object-type": "map-range", 
                    "to": "sent-PMC3462778-cmu-183"
                }, 
                {
                    "from": "sent-PMC3462778-medscan-177", 
                    "object-type": "map-range", 
                    "to": "sent-PMC3462778-cmu-147"
                }, 
                {
                    "from": "sent-PMC3462778-medscan-59", 
                    "object-type": "map-range", 
                    "to": "sent-PMC3462778-cmu-49"
                }, 
                {
                    "from": "sent-PMC3462778-medscan-250", 
                    "object-type": "map-range", 
                    "to": "sent-PMC3462778-cmu-231"
                }, 
                {
                    "from": "sent-PMC3462778-medscan-81", 
                    "object-type": "map-range", 
                    "to": "sent-PMC3462778-cmu-67"
                }, 
                {
                    "from": "sent-PMC3462778-medscan-173", 
                    "object-type": "map-range", 
                    "to": "sent-PMC3462778-cmu-143"
                }, 
                {
                    "from": "sent-PMC3462778-medscan-201", 
                    "object-type": "map-range", 
                    "to": "sent-PMC3462778-cmu-175"
                }, 
                {
                    "from": "sent-PMC3462778-medscan-159", 
                    "object-type": "map-range", 
                    "to": "sent-PMC3462778-cmu-129"
                }, 
                {
                    "from": "sent-PMC3462778-medscan-238", 
                    "object-type": "map-range", 
                    "to": "sent-PMC3462778-cmu-219"
                }, 
                {
                    "from": "sent-PMC3462778-medscan-83", 
                    "object-type": "map-range", 
                    "to": "sent-PMC3462778-cmu-69"
                }, 
                {
                    "from": "sent-PMC3462778-medscan-24", 
                    "object-type": "map-range", 
                    "to": "sent-PMC3462778-cmu-26"
                }, 
                {
                    "from": "sent-PMC3462778-medscan-233", 
                    "object-type": "map-range", 
                    "to": "sent-PMC3462778-cmu-213"
                }, 
                {
                    "from": "sent-PMC3462778-medscan-85", 
                    "object-type": "map-range", 
                    "to": "sent-PMC3462778-cmu-71"
                }, 
                {
                    "from": "sent-PMC3462778-medscan-80", 
                    "object-type": "map-range", 
                    "to": "sent-PMC3462778-cmu-66"
                }, 
                {
                    "from": "sent-PMC3462778-medscan-219", 
                    "object-type": "map-range", 
                    "to": "sent-PMC3462778-cmu-196"
                }, 
                {
                    "from": "sent-PMC3462778-medscan-217", 
                    "object-type": "map-range", 
                    "to": "sent-PMC3462778-cmu-194"
                }, 
                {
                    "from": "sent-PMC3462778-medscan-11", 
                    "object-type": "map-range", 
                    "to": "sent-PMC3462778-cmu-13"
                }, 
                {
                    "from": "sent-PMC3462778-medscan-152", 
                    "object-type": "map-range", 
                    "to": "sent-PMC3462778-cmu-122"
                }, 
                {
                    "from": "sent-PMC3462778-medscan-62", 
                    "object-type": "map-range", 
                    "to": "sent-PMC3462778-cmu-52"
                }, 
                {
                    "from": "sent-PMC3462778-medscan-243", 
                    "object-type": "map-range", 
                    "to": "sent-PMC3462778-cmu-224"
                }, 
                {
                    "from": "sent-PMC3462778-medscan-108", 
                    "object-type": "map-range", 
                    "to": "sent-PMC3462778-cmu-91"
                }, 
                {
                    "from": "sent-PMC3462778-medscan-97", 
                    "object-type": "map-range", 
                    "to": "sent-PMC3462778-cmu-81"
                }, 
                {
                    "from": "sent-PMC3462778-medscan-205", 
                    "object-type": "map-range", 
                    "to": "sent-PMC3462778-cmu-180"
                }, 
                {
                    "from": "sent-PMC3462778-medscan-185", 
                    "object-type": "map-range", 
                    "to": "sent-PMC3462778-cmu-15"
                }, 
                {
                    "from": "sent-PMC3462778-medscan-185", 
                    "object-type": "map-range", 
                    "to": "sent-PMC3462778-cmu-15"
                }, 
                {
                    "from": "sent-PMC3462778-medscan-203", 
                    "object-type": "map-range", 
                    "to": "sent-PMC3462778-cmu-177"
                }, 
                {
                    "from": "sent-PMC3462778-medscan-50", 
                    "object-type": "map-range", 
                    "to": "sent-PMC3462778-cmu-47"
                }, 
                {
                    "from": "sent-PMC3462778-medscan-253", 
                    "object-type": "map-range", 
                    "to": "sent-PMC3462778-cmu-234"
                }, 
                {
                    "from": "sent-PMC3462778-medscan-195", 
                    "object-type": "map-range", 
                    "to": "sent-PMC3462778-cmu-166"
                }, 
                {
                    "from": "sent-PMC3462778-medscan-239", 
                    "object-type": "map-range", 
                    "to": "sent-PMC3462778-cmu-220"
                }, 
                {
                    "from": "sent-PMC3462778-medscan-192", 
                    "object-type": "map-range", 
                    "to": "sent-PMC3462778-cmu-163"
                }, 
                {
                    "from": "sent-PMC3462778-medscan-44", 
                    "object-type": "map-range", 
                    "to": "sent-PMC3462778-cmu-40"
                }, 
                {
                    "from": "sent-PMC3462778-medscan-247", 
                    "object-type": "map-range", 
                    "to": "sent-PMC3462778-cmu-228"
                }, 
                {
                    "from": "sent-PMC3462778-medscan-64", 
                    "object-type": "map-range", 
                    "to": "sent-PMC3462778-cmu-55"
                }, 
                {
                    "from": "sent-PMC3462778-medscan-73", 
                    "object-type": "map-range", 
                    "to": "sent-PMC3462778-cmu-62"
                }, 
                {
                    "from": "sent-PMC3462778-medscan-89", 
                    "object-type": "map-range", 
                    "to": "sent-PMC3462778-cmu-73"
                }, 
                {
                    "from": "sent-PMC3462778-medscan-175", 
                    "object-type": "map-range", 
                    "to": "sent-PMC3462778-cmu-145"
                }, 
                {
                    "from": "sent-PMC3462778-medscan-148", 
                    "object-type": "map-range", 
                    "to": "sent-PMC3462778-cmu-118"
                }, 
                {
                    "from": "sent-PMC3462778-medscan-155", 
                    "object-type": "map-range", 
                    "to": "sent-PMC3462778-cmu-125"
                }, 
                {
                    "from": "sent-PMC3462778-medscan-154", 
                    "object-type": "map-range", 
                    "to": "sent-PMC3462778-cmu-124"
                }, 
                {
                    "from": "sent-PMC3462778-medscan-251", 
                    "object-type": "map-range", 
                    "to": "sent-PMC3462778-cmu-232"
                }, 
                {
                    "from": "sent-PMC3462778-medscan-165", 
                    "object-type": "map-range", 
                    "to": "sent-PMC3462778-cmu-135"
                }, 
                {
                    "from": "sent-PMC3462778-medscan-242", 
                    "object-type": "map-range", 
                    "to": "sent-PMC3462778-cmu-223"
                }, 
                {
                    "from": "sent-PMC3462778-medscan-151", 
                    "object-type": "map-range", 
                    "to": "sent-PMC3462778-cmu-121"
                }, 
                {
                    "from": "sent-PMC3462778-medscan-8", 
                    "object-type": "map-range", 
                    "to": "sent-PMC3462778-cmu-10"
                }, 
                {
                    "from": "sent-PMC3462778-medscan-190", 
                    "object-type": "map-range", 
                    "to": "sent-PMC3462778-cmu-161"
                }, 
                {
                    "from": "sent-PMC3462778-medscan-197", 
                    "object-type": "map-range", 
                    "to": "sent-PMC3462778-cmu-168"
                }, 
                {
                    "from": "sent-PMC3462778-medscan-119", 
                    "object-type": "map-range", 
                    "to": "sent-PMC3462778-cmu-102"
                }, 
                {
                    "from": "sent-PMC3462778-medscan-69", 
                    "object-type": "map-range", 
                    "to": "sent-PMC3462778-cmu-60"
                }, 
                {
                    "from": "sent-PMC3462778-medscan-142", 
                    "object-type": "map-range", 
                    "to": "sent-PMC3462778-cmu-112"
                }, 
                {
                    "from": "sent-PMC3462778-medscan-200", 
                    "object-type": "map-range", 
                    "to": "sent-PMC3462778-cmu-174"
                }, 
                {
                    "from": "sent-PMC3462778-medscan-174", 
                    "object-type": "map-range", 
                    "to": "sent-PMC3462778-cmu-144"
                }, 
                {
                    "from": "sent-PMC3462778-medscan-235", 
                    "object-type": "map-range", 
                    "to": "sent-PMC3462778-cmu-216"
                }, 
                {
                    "from": "sent-PMC3462778-medscan-255", 
                    "object-type": "map-range", 
                    "to": "sent-PMC3462778-cmu-236"
                }, 
                {
                    "from": "sent-PMC3462778-medscan-237", 
                    "object-type": "map-range", 
                    "to": "sent-PMC3462778-cmu-218"
                }, 
                {
                    "from": "sent-PMC3462778-medscan-227", 
                    "object-type": "map-range", 
                    "to": "sent-PMC3462778-cmu-207"
                }, 
                {
                    "from": "sent-PMC3462778-medscan-223", 
                    "object-type": "map-range", 
                    "to": "sent-PMC3462778-cmu-201"
                }, 
                {
                    "from": "sent-PMC3462778-medscan-67", 
                    "object-type": "map-range", 
                    "to": "sent-PMC3462778-cmu-58"
                }, 
                {
                    "from": "sent-PMC3462778-medscan-45", 
                    "object-type": "map-range", 
                    "to": "sent-PMC3462778-cmu-41"
                }, 
                {
                    "from": "sent-PMC3462778-medscan-41", 
                    "object-type": "map-range", 
                    "to": "sent-PMC3462778-cmu-37"
                }, 
                {
                    "from": "sent-PMC3462778-medscan-232", 
                    "object-type": "map-range", 
                    "to": "sent-PMC3462778-cmu-212"
                }, 
                {
                    "from": "sent-PMC3462778-medscan-86", 
                    "object-type": "map-range", 
                    "to": "sent-PMC3462778-cmu-72"
                }, 
                {
                    "from": "sent-PMC3462778-medscan-245", 
                    "object-type": "map-range", 
                    "to": "sent-PMC3462778-cmu-225"
                }, 
                {
                    "from": "sent-PMC3462778-medscan-23", 
                    "object-type": "map-range", 
                    "to": "sent-PMC3462778-cmu-25"
                }, 
                {
                    "from": "sent-PMC3462778-medscan-84", 
                    "object-type": "map-range", 
                    "to": "sent-PMC3462778-cmu-70"
                }, 
                {
                    "from": "sent-PMC3462778-medscan-164", 
                    "object-type": "map-range", 
                    "to": "sent-PMC3462778-cmu-134"
                }, 
                {
                    "from": "sent-PMC3462778-medscan-91", 
                    "object-type": "map-range", 
                    "to": "sent-PMC3462778-cmu-75"
                }, 
                {
                    "from": "sent-PMC3462778-medscan-150", 
                    "object-type": "map-range", 
                    "to": "sent-PMC3462778-cmu-120"
                }, 
                {
                    "from": "sent-PMC3462778-medscan-163", 
                    "object-type": "map-range", 
                    "to": "sent-PMC3462778-cmu-133"
                }, 
                {
                    "from": "sent-PMC3462778-medscan-188", 
                    "object-type": "map-range", 
                    "to": "sent-PMC3462778-cmu-159"
                }, 
                {
                    "from": "sent-PMC3462778-medscan-221", 
                    "object-type": "map-range", 
                    "to": "sent-PMC3462778-cmu-199"
                }, 
                {
                    "from": "sent-PMC3462778-medscan-210", 
                    "object-type": "map-range", 
                    "to": "sent-PMC3462778-cmu-186"
                }, 
                {
                    "from": "sent-PMC3462778-medscan-109", 
                    "object-type": "map-range", 
                    "to": "sent-PMC3462778-cmu-92"
                }, 
                {
                    "from": "sent-PMC3462778-medscan-198", 
                    "object-type": "map-range", 
                    "to": "sent-PMC3462778-cmu-169"
                }, 
                {
                    "from": "sent-PMC3462778-medscan-20", 
                    "object-type": "map-range", 
                    "to": "sent-PMC3462778-cmu-22"
                }, 
                {
                    "from": "sent-PMC3462778-medscan-95", 
                    "object-type": "map-range", 
                    "to": "sent-PMC3462778-cmu-79"
                }, 
                {
                    "from": "sent-PMC3462778-medscan-211", 
                    "object-type": "map-range", 
                    "to": "sent-PMC3462778-cmu-187"
                }, 
                {
                    "from": "sent-PMC3462778-medscan-229", 
                    "object-type": "map-range", 
                    "to": "sent-PMC3462778-cmu-209"
                }, 
                {
                    "from": "sent-PMC3462778-medscan-196", 
                    "object-type": "map-range", 
                    "to": "sent-PMC3462778-cmu-167"
                }, 
                {
                    "from": "sent-PMC3462778-medscan-1", 
                    "object-type": "map-range", 
                    "to": "sent-PMC3462778-cmu-3"
                }, 
                {
                    "from": "sent-PMC3462778-medscan-234", 
                    "object-type": "map-range", 
                    "to": "sent-PMC3462778-cmu-215"
                }, 
                {
                    "from": "sent-PMC3462778-medscan-185", 
                    "object-type": "map-range", 
                    "to": "sent-PMC3462778-cmu-156"
                }, 
                {
                    "from": "sent-PMC3462778-medscan-185", 
                    "object-type": "map-range", 
                    "to": "sent-PMC3462778-cmu-156"
                }, 
                {
                    "from": "sent-PMC3462778-medscan-209", 
                    "object-type": "map-range", 
                    "to": "sent-PMC3462778-cmu-185"
                }, 
                {
                    "from": "sent-PMC3462778-medscan-48", 
                    "object-type": "map-range", 
                    "to": "sent-PMC3462778-cmu-45"
                }, 
                {
                    "from": "sent-PMC3462778-medscan-9", 
                    "object-type": "map-range", 
                    "to": "sent-PMC3462778-cmu-11"
                }, 
                {
                    "from": "sent-PMC3462778-medscan-29", 
                    "object-type": "map-range", 
                    "to": "sent-PMC3462778-cmu-33"
                }, 
                {
                    "from": "sent-PMC3462778-medscan-27", 
                    "object-type": "map-range", 
                    "to": "sent-PMC3462778-cmu-31"
                }, 
                {
                    "from": "sent-PMC3462778-medscan-113", 
                    "object-type": "map-range", 
                    "to": "sent-PMC3462778-cmu-96"
                }, 
                {
                    "from": "sent-PMC3462778-medscan-22", 
                    "object-type": "map-range", 
                    "to": "sent-PMC3462778-cmu-24"
                }, 
                {
                    "from": "sent-PMC3462778-medscan-184", 
                    "object-type": "map-range", 
                    "to": "sent-PMC3462778-cmu-155"
                }, 
                {
                    "from": "sent-PMC3462778-medscan-10", 
                    "object-type": "map-range", 
                    "to": "sent-PMC3462778-cmu-12"
                }, 
                {
                    "from": "sent-PMC3462778-medscan-213", 
                    "object-type": "map-range", 
                    "to": "sent-PMC3462778-cmu-189"
                }, 
                {
                    "from": "sent-PMC3462778-medscan-178", 
                    "object-type": "map-range", 
                    "to": "sent-PMC3462778-cmu-148"
                }, 
                {
                    "from": "sent-PMC3462778-medscan-107", 
                    "object-type": "map-range", 
                    "to": "sent-PMC3462778-cmu-89"
                }, 
                {
                    "from": "sent-PMC3462778-medscan-231", 
                    "object-type": "map-range", 
                    "to": "sent-PMC3462778-cmu-211"
                }, 
                {
                    "from": "sent-PMC3462778-medscan-90", 
                    "object-type": "map-range", 
                    "to": "sent-PMC3462778-cmu-74"
                }, 
                {
                    "from": "sent-PMC3462778-medscan-179", 
                    "object-type": "map-range", 
                    "to": "sent-PMC3462778-cmu-149"
                }, 
                {
                    "from": "sent-PMC3462778-medscan-180", 
                    "object-type": "map-range", 
                    "to": "sent-PMC3462778-cmu-150"
                }, 
                {
                    "from": "sent-PMC3462778-medscan-103", 
                    "object-type": "map-range", 
                    "to": "sent-PMC3462778-cmu-84"
                }, 
                {
                    "from": "sent-PMC3462778-medscan-19", 
                    "object-type": "map-range", 
                    "to": "sent-PMC3462778-cmu-21"
                }, 
                {
                    "from": "sent-PMC3462778-medscan-134", 
                    "object-type": "map-range", 
                    "to": "sent-PMC3462778-cmu-103"
                }, 
                {
                    "from": "sent-PMC3462778-medscan-138", 
                    "object-type": "map-range", 
                    "to": "sent-PMC3462778-cmu-107"
                }, 
                {
                    "from": "sent-PMC3462778-medscan-12", 
                    "object-type": "map-range", 
                    "to": "sent-PMC3462778-cmu-14"
                }, 
                {
                    "from": "sent-PMC3462778-medscan-204", 
                    "object-type": "map-range", 
                    "to": "sent-PMC3462778-cmu-179"
                }, 
                {
                    "from": "sent-PMC3462778-medscan-82", 
                    "object-type": "map-range", 
                    "to": "sent-PMC3462778-cmu-68"
                }, 
                {
                    "from": "sent-PMC3462778-medscan-248", 
                    "object-type": "map-range", 
                    "to": "sent-PMC3462778-cmu-229"
                }, 
                {
                    "from": "sent-PMC3462778-medscan-240", 
                    "object-type": "map-range", 
                    "to": "sent-PMC3462778-cmu-221"
                }, 
                {
                    "from": "sent-PMC3462778-medscan-249", 
                    "object-type": "map-range", 
                    "to": "sent-PMC3462778-cmu-230"
                }, 
                {
                    "from": "sent-PMC3462778-medscan-40", 
                    "object-type": "map-range", 
                    "to": "sent-PMC3462778-cmu-36"
                }, 
                {
                    "from": "sent-PMC3462778-medscan-21", 
                    "object-type": "map-range", 
                    "to": "sent-PMC3462778-cmu-23"
                }, 
                {
                    "from": "sent-PMC3462778-medscan-143", 
                    "object-type": "map-range", 
                    "to": "sent-PMC3462778-cmu-113"
                }, 
                {
                    "from": "sent-PMC3462778-medscan-169", 
                    "object-type": "map-range", 
                    "to": "sent-PMC3462778-cmu-139"
                }, 
                {
                    "from": "sent-PMC3462778-medscan-14", 
                    "object-type": "map-range", 
                    "to": "sent-PMC3462778-cmu-16"
                }, 
                {
                    "from": "sent-PMC3462778-medscan-189", 
                    "object-type": "map-range", 
                    "to": "sent-PMC3462778-cmu-160"
                }, 
                {
                    "from": "sent-PMC3462778-medscan-194", 
                    "object-type": "map-range", 
                    "to": "sent-PMC3462778-cmu-165"
                }, 
                {
                    "from": "sent-PMC3462778-medscan-115", 
                    "object-type": "map-range", 
                    "to": "sent-PMC3462778-cmu-98"
                }, 
                {
                    "from": "sent-PMC3462778-medscan-2", 
                    "object-type": "map-range", 
                    "to": "sent-PMC3462778-cmu-4"
                }, 
                {
                    "from": "sent-PMC3462778-medscan-187", 
                    "object-type": "map-range", 
                    "to": "sent-PMC3462778-cmu-158"
                }, 
                {
                    "from": "sent-PMC3462778-medscan-216", 
                    "object-type": "map-range", 
                    "to": "sent-PMC3462778-cmu-193"
                }, 
                {
                    "from": "sent-PMC3462778-medscan-118", 
                    "object-type": "map-range", 
                    "to": "sent-PMC3462778-cmu-101"
                }, 
                {
                    "from": "sent-PMC3462778-medscan-222", 
                    "object-type": "map-range", 
                    "to": "sent-PMC3462778-cmu-200"
                }, 
                {
                    "from": "sent-PMC3462778-medscan-60", 
                    "object-type": "map-range", 
                    "to": "sent-PMC3462778-cmu-50"
                }, 
                {
                    "from": "sent-PMC3462778-medscan-215", 
                    "object-type": "map-range", 
                    "to": "sent-PMC3462778-cmu-192"
                }, 
                {
                    "from": "sent-PMC3462778-medscan-182", 
                    "object-type": "map-range", 
                    "to": "sent-PMC3462778-cmu-152"
                }, 
                {
                    "from": "sent-PMC3462778-medscan-49", 
                    "object-type": "map-range", 
                    "to": "sent-PMC3462778-cmu-46"
                }, 
                {
                    "from": "sent-PMC3462778-medscan-16", 
                    "object-type": "map-range", 
                    "to": "sent-PMC3462778-cmu-18"
                }, 
                {
                    "from": "sent-PMC3462778-medscan-214", 
                    "object-type": "map-range", 
                    "to": "sent-PMC3462778-cmu-191"
                }, 
                {
                    "from": "sent-PMC3462778-medscan-17", 
                    "object-type": "map-range", 
                    "to": "sent-PMC3462778-cmu-19"
                }, 
                {
                    "from": "sent-PMC3462778-medscan-228", 
                    "object-type": "map-range", 
                    "to": "sent-PMC3462778-cmu-208"
                }, 
                {
                    "from": "sent-PMC3462778-medscan-46", 
                    "object-type": "map-range", 
                    "to": "sent-PMC3462778-cmu-43"
                }, 
                {
                    "from": "sent-PMC3462778-medscan-141", 
                    "object-type": "map-range", 
                    "to": "sent-PMC3462778-cmu-111"
                }, 
                {
                    "from": "sent-PMC3462778-medscan-146", 
                    "object-type": "map-range", 
                    "to": "sent-PMC3462778-cmu-116"
                }, 
                {
                    "from": "sent-PMC3462778-medscan-105", 
                    "object-type": "map-range", 
                    "to": "sent-PMC3462778-cmu-86"
                }, 
                {
                    "from": "sent-PMC3462778-medscan-161", 
                    "object-type": "map-range", 
                    "to": "sent-PMC3462778-cmu-131"
                }, 
                {
                    "from": "sent-PMC3462778-medscan-168", 
                    "object-type": "map-range", 
                    "to": "sent-PMC3462778-cmu-138"
                }, 
                {
                    "from": "sent-PMC3462778-medscan-246", 
                    "object-type": "map-range", 
                    "to": "sent-PMC3462778-cmu-226"
                }, 
                {
                    "from": "sent-PMC3462778-medscan-153", 
                    "object-type": "map-range", 
                    "to": "sent-PMC3462778-cmu-123"
                }, 
                {
                    "from": "sent-PMC3462778-medscan-63", 
                    "object-type": "map-range", 
                    "to": "sent-PMC3462778-cmu-54"
                }, 
                {
                    "from": "sent-PMC3462778-medscan-167", 
                    "object-type": "map-range", 
                    "to": "sent-PMC3462778-cmu-137"
                }, 
                {
                    "from": "sent-PMC3462778-medscan-137", 
                    "object-type": "map-range", 
                    "to": "sent-PMC3462778-cmu-106"
                }, 
                {
                    "from": "sent-PMC3462778-medscan-181", 
                    "object-type": "map-range", 
                    "to": "sent-PMC3462778-cmu-151"
                }, 
                {
                    "from": "sent-PMC3462778-medscan-102", 
                    "object-type": "map-range", 
                    "to": "sent-PMC3462778-cmu-83"
                }, 
                {
                    "from": "sent-PMC3462778-medscan-47", 
                    "object-type": "map-range", 
                    "to": "sent-PMC3462778-cmu-44"
                }, 
                {
                    "from": "sent-PMC3462778-medscan-191", 
                    "object-type": "map-range", 
                    "to": "sent-PMC3462778-cmu-162"
                }, 
                {
                    "from": "sent-PMC3462778-medscan-170", 
                    "object-type": "map-range", 
                    "to": "sent-PMC3462778-cmu-140"
                }, 
                {
                    "from": "sent-PMC3462778-medscan-3", 
                    "object-type": "map-range", 
                    "to": "sent-PMC3462778-cmu-5"
                }, 
                {
                    "from": "sent-PMC3462778-medscan-51", 
                    "object-type": "map-range", 
                    "to": "sent-PMC3462778-cmu-48"
                }, 
                {
                    "from": "sent-PMC3462778-medscan-30", 
                    "object-type": "map-range", 
                    "to": "sent-PMC3462778-cmu-34"
                }, 
                {
                    "from": "sent-PMC3462778-medscan-7", 
                    "object-type": "map-range", 
                    "to": "sent-PMC3462778-cmu-9"
                }, 
                {
                    "from": "sent-PMC3462778-medscan-183", 
                    "object-type": "map-range", 
                    "to": "sent-PMC3462778-cmu-153"
                }, 
                {
                    "from": "sent-PMC3462778-medscan-79", 
                    "object-type": "map-range", 
                    "to": "sent-PMC3462778-cmu-65"
                }, 
                {
                    "from": "sent-PMC3462778-medscan-74", 
                    "object-type": "map-range", 
                    "to": "sent-PMC3462778-cmu-63"
                }
            ], 
            "object-meta": {
                "component": "Pradeep-Matcher", 
                "object-type": "meta-info", 
                "organization": "CMU"
            }, 
            "object-type": "frame"
        }
    ], 
    "object-meta": {
        "component": "Pradeep-Matcher", 
        "component-type": "machine", 
        "doc-id": "PMC3462778", 
        "object-type": "meta-info", 
        "organization": "CMU"
    }, 
    "object-type": "frame-collection"
}
