{
    "frames": [
        {
            "frame-id": "smap-PMC2132754-cmu-1", 
            "frame-type": "sentence-map", 
            "list1-meta": {
                "component": "nxml2fries", 
                "object-type": "meta-info", 
                "organization": "UAZ"
            }, 
            "list2-meta": {
                "component": "Nicolas-NXML-Parser", 
                "object-type": "meta-info", 
                "organization": "CMU"
            }, 
            "map": [
                {
                    "from": "sent-PMC2132754-UAZ-r1-72-6", 
                    "object-type": "map-range", 
                    "to": "sent-PMC2132754-cmu-287"
                }, 
                {
                    "from": "sent-PMC2132754-UAZ-r1-72-5", 
                    "object-type": "map-range", 
                    "to": "sent-PMC2132754-cmu-286"
                }, 
                {
                    "from": "sent-PMC2132754-UAZ-r1-69-0", 
                    "object-type": "map-range", 
                    "to": "sent-PMC2132754-cmu-265"
                }, 
                {
                    "from": "sent-PMC2132754-UAZ-r1-48-9", 
                    "object-type": "map-range", 
                    "to": "sent-PMC2132754-cmu-151"
                }, 
                {
                    "from": "sent-PMC2132754-UAZ-r1-13-1", 
                    "object-type": "map-range", 
                    "to": "sent-PMC2132754-cmu-30"
                }, 
                {
                    "from": "sent-PMC2132754-UAZ-r1-19-1", 
                    "object-type": "map-range", 
                    "to": "sent-PMC2132754-cmu-45"
                }, 
                {
                    "from": "sent-PMC2132754-UAZ-r1-29-6", 
                    "object-type": "map-range", 
                    "to": "sent-PMC2132754-cmu-75"
                }, 
                {
                    "from": "sent-PMC2132754-UAZ-r1-12-2", 
                    "object-type": "map-range", 
                    "to": "sent-PMC2132754-cmu-28"
                }, 
                {
                    "from": "sent-PMC2132754-UAZ-r1-68-10", 
                    "object-type": "map-range", 
                    "to": "sent-PMC2132754-cmu-264"
                }, 
                {
                    "from": "sent-PMC2132754-UAZ-r1-36-0", 
                    "object-type": "map-range", 
                    "to": "sent-PMC2132754-cmu-101"
                }, 
                {
                    "from": "sent-PMC2132754-UAZ-r1-16-1", 
                    "object-type": "map-range", 
                    "to": "sent-PMC2132754-cmu-37"
                }, 
                {
                    "from": "sent-PMC2132754-UAZ-r1-44-3", 
                    "object-type": "map-range", 
                    "to": "sent-PMC2132754-cmu-118"
                }, 
                {
                    "from": "sent-PMC2132754-UAZ-r1-68-5", 
                    "object-type": "map-range", 
                    "to": "sent-PMC2132754-cmu-259"
                }, 
                {
                    "from": "sent-PMC2132754-UAZ-r1-30-5", 
                    "object-type": "map-range", 
                    "to": "sent-PMC2132754-cmu-86"
                }, 
                {
                    "from": "sent-PMC2132754-UAZ-r1-34-9", 
                    "object-type": "map-range", 
                    "to": "sent-PMC2132754-cmu-99"
                }, 
                {
                    "from": "sent-PMC2132754-UAZ-r1-48-3", 
                    "object-type": "map-range", 
                    "to": "sent-PMC2132754-cmu-145"
                }, 
                {
                    "from": "sent-PMC2132754-UAZ-r1-39-5", 
                    "object-type": "map-range", 
                    "to": "sent-PMC2132754-cmu-111"
                }, 
                {
                    "from": "sent-PMC2132754-UAZ-r1-39-2", 
                    "object-type": "map-range", 
                    "to": "sent-PMC2132754-cmu-108"
                }, 
                {
                    "from": "sent-PMC2132754-UAZ-r1-48-0", 
                    "object-type": "map-range", 
                    "to": "sent-PMC2132754-cmu-140"
                }, 
                {
                    "from": "sent-PMC2132754-UAZ-r1-68-1", 
                    "object-type": "map-range", 
                    "to": "sent-PMC2132754-cmu-255"
                }, 
                {
                    "from": "sent-PMC2132754-UAZ-r1-60-0", 
                    "object-type": "map-range", 
                    "to": "sent-PMC2132754-cmu-207"
                }, 
                {
                    "from": "sent-PMC2132754-UAZ-r1-54-7", 
                    "object-type": "map-range", 
                    "to": "sent-PMC2132754-cmu-185"
                }, 
                {
                    "from": "sent-PMC2132754-UAZ-r1-44-2", 
                    "object-type": "map-range", 
                    "to": "sent-PMC2132754-cmu-117"
                }, 
                {
                    "from": "sent-PMC2132754-UAZ-r1-71-4", 
                    "object-type": "map-range", 
                    "to": "sent-PMC2132754-cmu-280"
                }, 
                {
                    "from": "sent-PMC2132754-UAZ-r1-16-2", 
                    "object-type": "map-range", 
                    "to": "sent-PMC2132754-cmu-39"
                }, 
                {
                    "from": "sent-PMC2132754-UAZ-r1-26-5", 
                    "object-type": "map-range", 
                    "to": "sent-PMC2132754-cmu-63"
                }, 
                {
                    "from": "sent-PMC2132754-UAZ-r1-67-3", 
                    "object-type": "map-range", 
                    "to": "sent-PMC2132754-cmu-240"
                }, 
                {
                    "from": "sent-PMC2132754-UAZ-r1-34-2", 
                    "object-type": "map-range", 
                    "to": "sent-PMC2132754-cmu-93"
                }, 
                {
                    "from": "sent-PMC2132754-UAZ-r1-54-0", 
                    "object-type": "map-range", 
                    "to": "sent-PMC2132754-cmu-176"
                }, 
                {
                    "from": "sent-PMC2132754-UAZ-r1-45-0", 
                    "object-type": "map-range", 
                    "to": "sent-PMC2132754-cmu-128"
                }, 
                {
                    "from": "sent-PMC2132754-UAZ-r1-15-0", 
                    "object-type": "map-range", 
                    "to": "sent-PMC2132754-cmu-35"
                }, 
                {
                    "from": "sent-PMC2132754-UAZ-r1-66-2", 
                    "object-type": "map-range", 
                    "to": "sent-PMC2132754-cmu-236"
                }, 
                {
                    "from": "sent-PMC2132754-UAZ-r1-34-4", 
                    "object-type": "map-range", 
                    "to": "sent-PMC2132754-cmu-95"
                }, 
                {
                    "from": "sent-PMC2132754-UAZ-r1-44-9", 
                    "object-type": "map-range", 
                    "to": "sent-PMC2132754-cmu-125"
                }, 
                {
                    "from": "sent-PMC2132754-UAZ-r1-70-4", 
                    "object-type": "map-range", 
                    "to": "sent-PMC2132754-cmu-273"
                }, 
                {
                    "from": "sent-PMC2132754-UAZ-r1-68-6", 
                    "object-type": "map-range", 
                    "to": "sent-PMC2132754-cmu-260"
                }, 
                {
                    "from": "sent-PMC2132754-UAZ-r1-29-2", 
                    "object-type": "map-range", 
                    "to": "sent-PMC2132754-cmu-71"
                }, 
                {
                    "from": "sent-PMC2132754-UAZ-r1-72-4", 
                    "object-type": "map-range", 
                    "to": "sent-PMC2132754-cmu-285"
                }, 
                {
                    "from": "sent-PMC2132754-UAZ-r1-31-1", 
                    "object-type": "map-range", 
                    "to": "sent-PMC2132754-cmu-88"
                }, 
                {
                    "from": "sent-PMC2132754-UAZ-r1-67-11", 
                    "object-type": "map-range", 
                    "to": "sent-PMC2132754-cmu-249"
                }, 
                {
                    "from": "sent-PMC2132754-UAZ-r1-72-3", 
                    "object-type": "map-range", 
                    "to": "sent-PMC2132754-cmu-284"
                }, 
                {
                    "from": "sent-PMC2132754-UAZ-r1-53-8", 
                    "object-type": "map-range", 
                    "to": "sent-PMC2132754-cmu-177"
                }, 
                {
                    "from": "sent-PMC2132754-UAZ-r1-52-0", 
                    "object-type": "map-range", 
                    "to": "sent-PMC2132754-cmu-155"
                }, 
                {
                    "from": "sent-PMC2132754-UAZ-r1-34-0", 
                    "object-type": "map-range", 
                    "to": "sent-PMC2132754-cmu-91"
                }, 
                {
                    "from": "sent-PMC2132754-UAZ-r1-29-0", 
                    "object-type": "map-range", 
                    "to": "sent-PMC2132754-cmu-87"
                }, 
                {
                    "from": "sent-PMC2132754-UAZ-r1-70-0", 
                    "object-type": "map-range", 
                    "to": "sent-PMC2132754-cmu-269"
                }, 
                {
                    "from": "sent-PMC2132754-UAZ-r1-54-3", 
                    "object-type": "map-range", 
                    "to": "sent-PMC2132754-cmu-180"
                }, 
                {
                    "from": "sent-PMC2132754-UAZ-r1-61-3", 
                    "object-type": "map-range", 
                    "to": "sent-PMC2132754-cmu-211"
                }, 
                {
                    "from": "sent-PMC2132754-UAZ-r1-54-5", 
                    "object-type": "map-range", 
                    "to": "sent-PMC2132754-cmu-183"
                }, 
                {
                    "from": "sent-PMC2132754-UAZ-r1-45-1", 
                    "object-type": "map-range", 
                    "to": "sent-PMC2132754-cmu-129"
                }, 
                {
                    "from": "sent-PMC2132754-UAZ-r1-61-4", 
                    "object-type": "map-range", 
                    "to": "sent-PMC2132754-cmu-214"
                }, 
                {
                    "from": "sent-PMC2132754-UAZ-r1-55-0", 
                    "object-type": "map-range", 
                    "to": "sent-PMC2132754-cmu-188"
                }, 
                {
                    "from": "sent-PMC2132754-UAZ-r1-16-4", 
                    "object-type": "map-range", 
                    "to": "sent-PMC2132754-cmu-41"
                }, 
                {
                    "from": "sent-PMC2132754-UAZ-r1-39-3", 
                    "object-type": "map-range", 
                    "to": "sent-PMC2132754-cmu-109"
                }, 
                {
                    "from": "sent-PMC2132754-UAZ-r1-53-1", 
                    "object-type": "map-range", 
                    "to": "sent-PMC2132754-cmu-162"
                }, 
                {
                    "from": "sent-PMC2132754-UAZ-r1-57-4", 
                    "object-type": "map-range", 
                    "to": "sent-PMC2132754-cmu-204"
                }, 
                {
                    "from": "sent-PMC2132754-UAZ-r1-34-1", 
                    "object-type": "map-range", 
                    "to": "sent-PMC2132754-cmu-92"
                }, 
                {
                    "from": "sent-PMC2132754-UAZ-r1-26-3", 
                    "object-type": "map-range", 
                    "to": "sent-PMC2132754-cmu-61"
                }, 
                {
                    "from": "sent-PMC2132754-UAZ-r1-68-0", 
                    "object-type": "map-range", 
                    "to": "sent-PMC2132754-cmu-254"
                }, 
                {
                    "from": "sent-PMC2132754-UAZ-r1-67-4", 
                    "object-type": "map-range", 
                    "to": "sent-PMC2132754-cmu-241"
                }, 
                {
                    "from": "sent-PMC2132754-UAZ-r1-29-0", 
                    "object-type": "map-range", 
                    "to": "sent-PMC2132754-cmu-69"
                }, 
                {
                    "from": "sent-PMC2132754-UAZ-r1-26-8", 
                    "object-type": "map-range", 
                    "to": "sent-PMC2132754-cmu-66"
                }, 
                {
                    "from": "sent-PMC2132754-UAZ-r1-52-2", 
                    "object-type": "map-range", 
                    "to": "sent-PMC2132754-cmu-159"
                }, 
                {
                    "from": "sent-PMC2132754-UAZ-r1-70-3", 
                    "object-type": "map-range", 
                    "to": "sent-PMC2132754-cmu-272"
                }, 
                {
                    "from": "sent-PMC2132754-UAZ-r1-44-7", 
                    "object-type": "map-range", 
                    "to": "sent-PMC2132754-cmu-122"
                }, 
                {
                    "from": "sent-PMC2132754-UAZ-r1-71-0", 
                    "object-type": "map-range", 
                    "to": "sent-PMC2132754-cmu-276"
                }, 
                {
                    "from": "sent-PMC2132754-UAZ-r1-23-2", 
                    "object-type": "map-range", 
                    "to": "sent-PMC2132754-cmu-52"
                }, 
                {
                    "from": "sent-PMC2132754-UAZ-r1-25-0", 
                    "object-type": "map-range", 
                    "to": "sent-PMC2132754-cmu-57"
                }, 
                {
                    "from": "sent-PMC2132754-UAZ-r1-23-6", 
                    "object-type": "map-range", 
                    "to": "sent-PMC2132754-cmu-56"
                }, 
                {
                    "from": "sent-PMC2132754-UAZ-r1-53-6", 
                    "object-type": "map-range", 
                    "to": "sent-PMC2132754-cmu-167"
                }, 
                {
                    "from": "sent-PMC2132754-UAZ-r1-45-2", 
                    "object-type": "map-range", 
                    "to": "sent-PMC2132754-cmu-130"
                }, 
                {
                    "from": "sent-PMC2132754-UAZ-r1-16-3", 
                    "object-type": "map-range", 
                    "to": "sent-PMC2132754-cmu-40"
                }, 
                {
                    "from": "sent-PMC2132754-UAZ-r1-13-3", 
                    "object-type": "map-range", 
                    "to": "sent-PMC2132754-cmu-32"
                }, 
                {
                    "from": "sent-PMC2132754-UAZ-r1-68-3", 
                    "object-type": "map-range", 
                    "to": "sent-PMC2132754-cmu-257"
                }, 
                {
                    "from": "sent-PMC2132754-UAZ-r1-30-4", 
                    "object-type": "map-range", 
                    "to": "sent-PMC2132754-cmu-85"
                }, 
                {
                    "from": "sent-PMC2132754-UAZ-r1-37-0", 
                    "object-type": "map-range", 
                    "to": "sent-PMC2132754-cmu-102"
                }, 
                {
                    "from": "sent-PMC2132754-UAZ-r1-53-10", 
                    "object-type": "map-range", 
                    "to": "sent-PMC2132754-cmu-171"
                }, 
                {
                    "from": "sent-PMC2132754-UAZ-r1-39-6", 
                    "object-type": "map-range", 
                    "to": "sent-PMC2132754-cmu-112"
                }, 
                {
                    "from": "sent-PMC2132754-UAZ-r1-26-6", 
                    "object-type": "map-range", 
                    "to": "sent-PMC2132754-cmu-64"
                }, 
                {
                    "from": "sent-PMC2132754-UAZ-r1-68-4", 
                    "object-type": "map-range", 
                    "to": "sent-PMC2132754-cmu-258"
                }, 
                {
                    "from": "sent-PMC2132754-UAZ-r1-67-9", 
                    "object-type": "map-range", 
                    "to": "sent-PMC2132754-cmu-247"
                }, 
                {
                    "from": "sent-PMC2132754-UAZ-r1-31-4", 
                    "object-type": "map-range", 
                    "to": "sent-PMC2132754-cmu-89"
                }, 
                {
                    "from": "sent-PMC2132754-UAZ-r1-57-0", 
                    "object-type": "map-range", 
                    "to": "sent-PMC2132754-cmu-200"
                }, 
                {
                    "from": "sent-PMC2132754-UAZ-r1-63-6", 
                    "object-type": "map-range", 
                    "to": "sent-PMC2132754-cmu-232"
                }, 
                {
                    "from": "sent-PMC2132754-UAZ-r1-57-3", 
                    "object-type": "map-range", 
                    "to": "sent-PMC2132754-cmu-203"
                }, 
                {
                    "from": "sent-PMC2132754-UAZ-r1-48-8", 
                    "object-type": "map-range", 
                    "to": "sent-PMC2132754-cmu-150"
                }, 
                {
                    "from": "sent-PMC2132754-UAZ-r1-61-5", 
                    "object-type": "map-range", 
                    "to": "sent-PMC2132754-cmu-217"
                }, 
                {
                    "from": "sent-PMC2132754-UAZ-r1-20-0", 
                    "object-type": "map-range", 
                    "to": "sent-PMC2132754-cmu-44"
                }, 
                {
                    "from": "sent-PMC2132754-UAZ-r1-53-5", 
                    "object-type": "map-range", 
                    "to": "sent-PMC2132754-cmu-166"
                }, 
                {
                    "from": "sent-PMC2132754-UAZ-r1-55-4", 
                    "object-type": "map-range", 
                    "to": "sent-PMC2132754-cmu-196"
                }, 
                {
                    "from": "sent-PMC2132754-UAZ-r1-70-6", 
                    "object-type": "map-range", 
                    "to": "sent-PMC2132754-cmu-275"
                }, 
                {
                    "from": "sent-PMC2132754-UAZ-r1-72-1", 
                    "object-type": "map-range", 
                    "to": "sent-PMC2132754-cmu-282"
                }, 
                {
                    "from": "sent-PMC2132754-UAZ-r1-39-1", 
                    "object-type": "map-range", 
                    "to": "sent-PMC2132754-cmu-107"
                }, 
                {
                    "from": "sent-PMC2132754-UAZ-r1-53-3", 
                    "object-type": "map-range", 
                    "to": "sent-PMC2132754-cmu-164"
                }, 
                {
                    "from": "sent-PMC2132754-UAZ-r1-71-1", 
                    "object-type": "map-range", 
                    "to": "sent-PMC2132754-cmu-277"
                }, 
                {
                    "from": "sent-PMC2132754-UAZ-r1-16-0", 
                    "object-type": "map-range", 
                    "to": "sent-PMC2132754-cmu-36"
                }, 
                {
                    "from": "sent-PMC2132754-UAZ-r1-54-4", 
                    "object-type": "map-range", 
                    "to": "sent-PMC2132754-cmu-181"
                }, 
                {
                    "from": "sent-PMC2132754-UAZ-r1-44-1", 
                    "object-type": "map-range", 
                    "to": "sent-PMC2132754-cmu-116"
                }, 
                {
                    "from": "sent-PMC2132754-UAZ-r1-67-12", 
                    "object-type": "map-range", 
                    "to": "sent-PMC2132754-cmu-250"
                }, 
                {
                    "from": "sent-PMC2132754-UAZ-r1-69-1", 
                    "object-type": "map-range", 
                    "to": "sent-PMC2132754-cmu-266"
                }, 
                {
                    "from": "sent-PMC2132754-UAZ-r1-67-15", 
                    "object-type": "map-range", 
                    "to": "sent-PMC2132754-cmu-253"
                }, 
                {
                    "from": "sent-PMC2132754-UAZ-r1-48-5", 
                    "object-type": "map-range", 
                    "to": "sent-PMC2132754-cmu-147"
                }, 
                {
                    "from": "sent-PMC2132754-UAZ-r1-56-0", 
                    "object-type": "map-range", 
                    "to": "sent-PMC2132754-cmu-199"
                }, 
                {
                    "from": "sent-PMC2132754-UAZ-r1-29-5", 
                    "object-type": "map-range", 
                    "to": "sent-PMC2132754-cmu-74"
                }, 
                {
                    "from": "sent-PMC2132754-UAZ-r1-57-5", 
                    "object-type": "map-range", 
                    "to": "sent-PMC2132754-cmu-205"
                }, 
                {
                    "from": "sent-PMC2132754-UAZ-r1-37-2", 
                    "object-type": "map-range", 
                    "to": "sent-PMC2132754-cmu-104"
                }, 
                {
                    "from": "sent-PMC2132754-UAZ-r1-23-1", 
                    "object-type": "map-range", 
                    "to": "sent-PMC2132754-cmu-51"
                }, 
                {
                    "from": "sent-PMC2132754-UAZ-r1-44-7", 
                    "object-type": "map-range", 
                    "to": "sent-PMC2132754-cmu-121"
                }, 
                {
                    "from": "sent-PMC2132754-UAZ-r1-13-5", 
                    "object-type": "map-range", 
                    "to": "sent-PMC2132754-cmu-34"
                }, 
                {
                    "from": "sent-PMC2132754-UAZ-r1-29-7", 
                    "object-type": "map-range", 
                    "to": "sent-PMC2132754-cmu-76"
                }, 
                {
                    "from": "sent-PMC2132754-UAZ-r1-67-0", 
                    "object-type": "map-range", 
                    "to": "sent-PMC2132754-cmu-237"
                }, 
                {
                    "from": "sent-PMC2132754-UAZ-r1-19-2", 
                    "object-type": "map-range", 
                    "to": "sent-PMC2132754-cmu-46"
                }, 
                {
                    "from": "sent-PMC2132754-UAZ-r1-34-6", 
                    "object-type": "map-range", 
                    "to": "sent-PMC2132754-cmu-97"
                }, 
                {
                    "from": "sent-PMC2132754-UAZ-r1-26-1", 
                    "object-type": "map-range", 
                    "to": "sent-PMC2132754-cmu-59"
                }, 
                {
                    "from": "sent-PMC2132754-UAZ-r1-68-7", 
                    "object-type": "map-range", 
                    "to": "sent-PMC2132754-cmu-261"
                }, 
                {
                    "from": "sent-PMC2132754-UAZ-r1-70-5", 
                    "object-type": "map-range", 
                    "to": "sent-PMC2132754-cmu-274"
                }, 
                {
                    "from": "sent-PMC2132754-UAZ-r1-23-0", 
                    "object-type": "map-range", 
                    "to": "sent-PMC2132754-cmu-49"
                }, 
                {
                    "from": "sent-PMC2132754-UAZ-r1-67-1", 
                    "object-type": "map-range", 
                    "to": "sent-PMC2132754-cmu-238"
                }, 
                {
                    "from": "sent-PMC2132754-UAZ-r1-34-8", 
                    "object-type": "map-range", 
                    "to": "sent-PMC2132754-cmu-98"
                }, 
                {
                    "from": "sent-PMC2132754-UAZ-r1-45-3", 
                    "object-type": "map-range", 
                    "to": "sent-PMC2132754-cmu-132"
                }, 
                {
                    "from": "sent-PMC2132754-UAZ-r1-67-5", 
                    "object-type": "map-range", 
                    "to": "sent-PMC2132754-cmu-242"
                }, 
                {
                    "from": "sent-PMC2132754-UAZ-r1-34-10", 
                    "object-type": "map-range", 
                    "to": "sent-PMC2132754-cmu-100"
                }, 
                {
                    "from": "sent-PMC2132754-UAZ-r1-53-7", 
                    "object-type": "map-range", 
                    "to": "sent-PMC2132754-cmu-168"
                }, 
                {
                    "from": "sent-PMC2132754-UAZ-r1-48-10", 
                    "object-type": "map-range", 
                    "to": "sent-PMC2132754-cmu-152"
                }, 
                {
                    "from": "sent-PMC2132754-UAZ-r1-66-1", 
                    "object-type": "map-range", 
                    "to": "sent-PMC2132754-cmu-235"
                }, 
                {
                    "from": "sent-PMC2132754-UAZ-r1-52-1", 
                    "object-type": "map-range", 
                    "to": "sent-PMC2132754-cmu-158"
                }, 
                {
                    "from": "sent-PMC2132754-UAZ-r1-29-3", 
                    "object-type": "map-range", 
                    "to": "sent-PMC2132754-cmu-72"
                }, 
                {
                    "from": "sent-PMC2132754-UAZ-r1-63-1", 
                    "object-type": "map-range", 
                    "to": "sent-PMC2132754-cmu-225"
                }, 
                {
                    "from": "sent-PMC2132754-UAZ-r1-13-0", 
                    "object-type": "map-range", 
                    "to": "sent-PMC2132754-cmu-29"
                }, 
                {
                    "from": "sent-PMC2132754-UAZ-r1-37-1", 
                    "object-type": "map-range", 
                    "to": "sent-PMC2132754-cmu-103"
                }, 
                {
                    "from": "sent-PMC2132754-UAZ-r1-29-8", 
                    "object-type": "map-range", 
                    "to": "sent-PMC2132754-cmu-77"
                }, 
                {
                    "from": "sent-PMC2132754-UAZ-r1-72-11", 
                    "object-type": "map-range", 
                    "to": "sent-PMC2132754-cmu-296"
                }, 
                {
                    "from": "sent-PMC2132754-UAZ-r1-26-9", 
                    "object-type": "map-range", 
                    "to": "sent-PMC2132754-cmu-67"
                }, 
                {
                    "from": "sent-PMC2132754-UAZ-r1-34-3", 
                    "object-type": "map-range", 
                    "to": "sent-PMC2132754-cmu-94"
                }, 
                {
                    "from": "sent-PMC2132754-UAZ-r1-29-9", 
                    "object-type": "map-range", 
                    "to": "sent-PMC2132754-cmu-78"
                }, 
                {
                    "from": "sent-PMC2132754-UAZ-r1-55-2", 
                    "object-type": "map-range", 
                    "to": "sent-PMC2132754-cmu-190"
                }, 
                {
                    "from": "sent-PMC2132754-UAZ-r1-26-0", 
                    "object-type": "map-range", 
                    "to": "sent-PMC2132754-cmu-58"
                }, 
                {
                    "from": "sent-PMC2132754-UAZ-r1-45-5", 
                    "object-type": "map-range", 
                    "to": "sent-PMC2132754-cmu-138"
                }, 
                {
                    "from": "sent-PMC2132754-UAZ-r1-26-7", 
                    "object-type": "map-range", 
                    "to": "sent-PMC2132754-cmu-83"
                }, 
                {
                    "from": "sent-PMC2132754-UAZ-r1-67-7", 
                    "object-type": "map-range", 
                    "to": "sent-PMC2132754-cmu-244"
                }, 
                {
                    "from": "sent-PMC2132754-UAZ-r1-67-6", 
                    "object-type": "map-range", 
                    "to": "sent-PMC2132754-cmu-243"
                }, 
                {
                    "from": "sent-PMC2132754-UAZ-r1-67-13", 
                    "object-type": "map-range", 
                    "to": "sent-PMC2132754-cmu-251"
                }, 
                {
                    "from": "sent-PMC2132754-UAZ-r1-44-11", 
                    "object-type": "map-range", 
                    "to": "sent-PMC2132754-cmu-127"
                }, 
                {
                    "from": "sent-PMC2132754-UAZ-r1-68-2", 
                    "object-type": "map-range", 
                    "to": "sent-PMC2132754-cmu-256"
                }, 
                {
                    "from": "sent-PMC2132754-UAZ-r1-30-1", 
                    "object-type": "map-range", 
                    "to": "sent-PMC2132754-cmu-82"
                }, 
                {
                    "from": "sent-PMC2132754-UAZ-r1-34-5", 
                    "object-type": "map-range", 
                    "to": "sent-PMC2132754-cmu-96"
                }, 
                {
                    "from": "sent-PMC2132754-UAZ-r1-43-0", 
                    "object-type": "map-range", 
                    "to": "sent-PMC2132754-cmu-114"
                }, 
                {
                    "from": "sent-PMC2132754-UAZ-r1-70-1", 
                    "object-type": "map-range", 
                    "to": "sent-PMC2132754-cmu-270"
                }, 
                {
                    "from": "sent-PMC2132754-UAZ-r1-54-9", 
                    "object-type": "map-range", 
                    "to": "sent-PMC2132754-cmu-187"
                }, 
                {
                    "from": "sent-PMC2132754-UAZ-r1-44-8", 
                    "object-type": "map-range", 
                    "to": "sent-PMC2132754-cmu-123"
                }, 
                {
                    "from": "sent-PMC2132754-UAZ-r1-16-5", 
                    "object-type": "map-range", 
                    "to": "sent-PMC2132754-cmu-42"
                }, 
                {
                    "from": "sent-PMC2132754-UAZ-r1-39-0", 
                    "object-type": "map-range", 
                    "to": "sent-PMC2132754-cmu-106"
                }, 
                {
                    "from": "sent-PMC2132754-UAZ-r1-61-0", 
                    "object-type": "map-range", 
                    "to": "sent-PMC2132754-cmu-208"
                }, 
                {
                    "from": "sent-PMC2132754-UAZ-r1-63-5", 
                    "object-type": "map-range", 
                    "to": "sent-PMC2132754-cmu-231"
                }, 
                {
                    "from": "sent-PMC2132754-UAZ-r1-20-0", 
                    "object-type": "map-range", 
                    "to": "sent-PMC2132754-cmu-47"
                }, 
                {
                    "from": "sent-PMC2132754-UAZ-r1-67-2", 
                    "object-type": "map-range", 
                    "to": "sent-PMC2132754-cmu-239"
                }, 
                {
                    "from": "sent-PMC2132754-UAZ-r1-48-2", 
                    "object-type": "map-range", 
                    "to": "sent-PMC2132754-cmu-144"
                }, 
                {
                    "from": "sent-PMC2132754-UAZ-r1-67-14", 
                    "object-type": "map-range", 
                    "to": "sent-PMC2132754-cmu-252"
                }, 
                {
                    "from": "sent-PMC2132754-UAZ-r1-68-9", 
                    "object-type": "map-range", 
                    "to": "sent-PMC2132754-cmu-263"
                }, 
                {
                    "from": "sent-PMC2132754-UAZ-r1-63-3", 
                    "object-type": "map-range", 
                    "to": "sent-PMC2132754-cmu-228"
                }, 
                {
                    "from": "sent-PMC2132754-UAZ-r1-71-2", 
                    "object-type": "map-range", 
                    "to": "sent-PMC2132754-cmu-278"
                }, 
                {
                    "from": "sent-PMC2132754-UAZ-r1-49-0", 
                    "object-type": "map-range", 
                    "to": "sent-PMC2132754-cmu-153"
                }, 
                {
                    "from": "sent-PMC2132754-UAZ-r1-30-3", 
                    "object-type": "map-range", 
                    "to": "sent-PMC2132754-cmu-84"
                }, 
                {
                    "from": "sent-PMC2132754-UAZ-r1-13-4", 
                    "object-type": "map-range", 
                    "to": "sent-PMC2132754-cmu-33"
                }, 
                {
                    "from": "sent-PMC2132754-UAZ-r1-28-0", 
                    "object-type": "map-range", 
                    "to": "sent-PMC2132754-cmu-68"
                }, 
                {
                    "from": "sent-PMC2132754-UAZ-r1-23-4", 
                    "object-type": "map-range", 
                    "to": "sent-PMC2132754-cmu-54"
                }, 
                {
                    "from": "sent-PMC2132754-UAZ-r1-67-10", 
                    "object-type": "map-range", 
                    "to": "sent-PMC2132754-cmu-248"
                }, 
                {
                    "from": "sent-PMC2132754-UAZ-r1-69-2", 
                    "object-type": "map-range", 
                    "to": "sent-PMC2132754-cmu-268"
                }, 
                {
                    "from": "sent-PMC2132754-UAZ-r1-54-6", 
                    "object-type": "map-range", 
                    "to": "sent-PMC2132754-cmu-184"
                }, 
                {
                    "from": "sent-PMC2132754-UAZ-r1-23-3", 
                    "object-type": "map-range", 
                    "to": "sent-PMC2132754-cmu-53"
                }, 
                {
                    "from": "sent-PMC2132754-UAZ-r1-44-4", 
                    "object-type": "map-range", 
                    "to": "sent-PMC2132754-cmu-119"
                }, 
                {
                    "from": "sent-PMC2132754-UAZ-r1-39-4", 
                    "object-type": "map-range", 
                    "to": "sent-PMC2132754-cmu-110"
                }, 
                {
                    "from": "sent-PMC2132754-UAZ-r1-23-5", 
                    "object-type": "map-range", 
                    "to": "sent-PMC2132754-cmu-55"
                }, 
                {
                    "from": "sent-PMC2132754-UAZ-r1-53-12", 
                    "object-type": "map-range", 
                    "to": "sent-PMC2132754-cmu-174"
                }, 
                {
                    "from": "sent-PMC2132754-UAZ-r1-67-8", 
                    "object-type": "map-range", 
                    "to": "sent-PMC2132754-cmu-246"
                }, 
                {
                    "from": "sent-PMC2132754-UAZ-r1-26-7", 
                    "object-type": "map-range", 
                    "to": "sent-PMC2132754-cmu-65"
                }, 
                {
                    "from": "sent-PMC2132754-UAZ-r1-71-3", 
                    "object-type": "map-range", 
                    "to": "sent-PMC2132754-cmu-279"
                }, 
                {
                    "from": "sent-PMC2132754-UAZ-r1-57-2", 
                    "object-type": "map-range", 
                    "to": "sent-PMC2132754-cmu-202"
                }, 
                {
                    "from": "sent-PMC2132754-UAZ-r1-55-6", 
                    "object-type": "map-range", 
                    "to": "sent-PMC2132754-cmu-198"
                }, 
                {
                    "from": "sent-PMC2132754-UAZ-r1-29-10", 
                    "object-type": "map-range", 
                    "to": "sent-PMC2132754-cmu-79"
                }, 
                {
                    "from": "sent-PMC2132754-UAZ-r1-55-3", 
                    "object-type": "map-range", 
                    "to": "sent-PMC2132754-cmu-195"
                }, 
                {
                    "from": "sent-PMC2132754-UAZ-r1-62-0", 
                    "object-type": "map-range", 
                    "to": "sent-PMC2132754-cmu-218"
                }, 
                {
                    "from": "sent-PMC2132754-UAZ-r1-44-0", 
                    "object-type": "map-range", 
                    "to": "sent-PMC2132754-cmu-115"
                }, 
                {
                    "from": "sent-PMC2132754-UAZ-r1-29-1", 
                    "object-type": "map-range", 
                    "to": "sent-PMC2132754-cmu-70"
                }, 
                {
                    "from": "sent-PMC2132754-UAZ-r1-66-0", 
                    "object-type": "map-range", 
                    "to": "sent-PMC2132754-cmu-234"
                }, 
                {
                    "from": "sent-PMC2132754-UAZ-r1-72-0", 
                    "object-type": "map-range", 
                    "to": "sent-PMC2132754-cmu-281"
                }, 
                {
                    "from": "sent-PMC2132754-UAZ-r1-57-1", 
                    "object-type": "map-range", 
                    "to": "sent-PMC2132754-cmu-201"
                }, 
                {
                    "from": "sent-PMC2132754-UAZ-r1-48-4", 
                    "object-type": "map-range", 
                    "to": "sent-PMC2132754-cmu-146"
                }, 
                {
                    "from": "sent-PMC2132754-UAZ-r1-44-5", 
                    "object-type": "map-range", 
                    "to": "sent-PMC2132754-cmu-120"
                }, 
                {
                    "from": "sent-PMC2132754-UAZ-r1-48-1", 
                    "object-type": "map-range", 
                    "to": "sent-PMC2132754-cmu-141"
                }, 
                {
                    "from": "sent-PMC2132754-UAZ-r1-72-9", 
                    "object-type": "map-range", 
                    "to": "sent-PMC2132754-cmu-293"
                }, 
                {
                    "from": "sent-PMC2132754-UAZ-r1-53-11", 
                    "object-type": "map-range", 
                    "to": "sent-PMC2132754-cmu-173"
                }, 
                {
                    "from": "sent-PMC2132754-UAZ-r1-63-0", 
                    "object-type": "map-range", 
                    "to": "sent-PMC2132754-cmu-223"
                }
            ], 
            "object-meta": {
                "component": "Pradeep-Matcher", 
                "object-type": "meta-info", 
                "organization": "CMU"
            }, 
            "object-type": "frame"
        }, 
        {
            "frame-id": "smap-PMC2132754-cmu-2", 
            "frame-type": "sentence-map", 
            "list1-meta": {
                "component": "MedScan", 
                "object-type": "meta-info", 
                "organization": "CMU"
            }, 
            "list2-meta": {
                "component": "Nicolas-NXML-Parser", 
                "object-type": "meta-info", 
                "organization": "CMU"
            }, 
            "map": [
                {
                    "from": "sent-PMC2132754-medscan-234", 
                    "object-type": "map-range", 
                    "to": "sent-PMC2132754-cmu-287"
                }, 
                {
                    "from": "sent-PMC2132754-medscan-233", 
                    "object-type": "map-range", 
                    "to": "sent-PMC2132754-cmu-286"
                }, 
                {
                    "from": "sent-PMC2132754-medscan-214", 
                    "object-type": "map-range", 
                    "to": "sent-PMC2132754-cmu-265"
                }, 
                {
                    "from": "sent-PMC2132754-medscan-126", 
                    "object-type": "map-range", 
                    "to": "sent-PMC2132754-cmu-151"
                }, 
                {
                    "from": "sent-PMC2132754-medscan-26", 
                    "object-type": "map-range", 
                    "to": "sent-PMC2132754-cmu-30"
                }, 
                {
                    "from": "sent-PMC2132754-medscan-12", 
                    "object-type": "map-range", 
                    "to": "sent-PMC2132754-cmu-15"
                }, 
                {
                    "from": "sent-PMC2132754-medscan-37", 
                    "object-type": "map-range", 
                    "to": "sent-PMC2132754-cmu-45"
                }, 
                {
                    "from": "sent-PMC2132754-medscan-63", 
                    "object-type": "map-range", 
                    "to": "sent-PMC2132754-cmu-75"
                }, 
                {
                    "from": "sent-PMC2132754-medscan-24", 
                    "object-type": "map-range", 
                    "to": "sent-PMC2132754-cmu-28"
                }, 
                {
                    "from": "sent-PMC2132754-medscan-213", 
                    "object-type": "map-range", 
                    "to": "sent-PMC2132754-cmu-264"
                }, 
                {
                    "from": "sent-PMC2132754-medscan-2", 
                    "object-type": "map-range", 
                    "to": "sent-PMC2132754-cmu-3"
                }, 
                {
                    "from": "sent-PMC2132754-medscan-31", 
                    "object-type": "map-range", 
                    "to": "sent-PMC2132754-cmu-37"
                }, 
                {
                    "from": "sent-PMC2132754-medscan-104", 
                    "object-type": "map-range", 
                    "to": "sent-PMC2132754-cmu-118"
                }, 
                {
                    "from": "sent-PMC2132754-medscan-208", 
                    "object-type": "map-range", 
                    "to": "sent-PMC2132754-cmu-259"
                }, 
                {
                    "from": "sent-PMC2132754-medscan-73", 
                    "object-type": "map-range", 
                    "to": "sent-PMC2132754-cmu-86"
                }, 
                {
                    "from": "sent-PMC2132754-medscan-90", 
                    "object-type": "map-range", 
                    "to": "sent-PMC2132754-cmu-99"
                }, 
                {
                    "from": "sent-PMC2132754-medscan-99", 
                    "object-type": "map-range", 
                    "to": "sent-PMC2132754-cmu-111"
                }, 
                {
                    "from": "sent-PMC2132754-medscan-61", 
                    "object-type": "map-range", 
                    "to": "sent-PMC2132754-cmu-73"
                }, 
                {
                    "from": "sent-PMC2132754-medscan-96", 
                    "object-type": "map-range", 
                    "to": "sent-PMC2132754-cmu-108"
                }, 
                {
                    "from": "sent-PMC2132754-medscan-118", 
                    "object-type": "map-range", 
                    "to": "sent-PMC2132754-cmu-140"
                }, 
                {
                    "from": "sent-PMC2132754-medscan-14", 
                    "object-type": "map-range", 
                    "to": "sent-PMC2132754-cmu-17"
                }, 
                {
                    "from": "sent-PMC2132754-medscan-6", 
                    "object-type": "map-range", 
                    "to": "sent-PMC2132754-cmu-7"
                }, 
                {
                    "from": "sent-PMC2132754-medscan-204", 
                    "object-type": "map-range", 
                    "to": "sent-PMC2132754-cmu-255"
                }, 
                {
                    "from": "sent-PMC2132754-medscan-171", 
                    "object-type": "map-range", 
                    "to": "sent-PMC2132754-cmu-207"
                }, 
                {
                    "from": "sent-PMC2132754-medscan-8", 
                    "object-type": "map-range", 
                    "to": "sent-PMC2132754-cmu-9"
                }, 
                {
                    "from": "sent-PMC2132754-medscan-153", 
                    "object-type": "map-range", 
                    "to": "sent-PMC2132754-cmu-185"
                }, 
                {
                    "from": "sent-PMC2132754-medscan-103", 
                    "object-type": "map-range", 
                    "to": "sent-PMC2132754-cmu-117"
                }, 
                {
                    "from": "sent-PMC2132754-medscan-228", 
                    "object-type": "map-range", 
                    "to": "sent-PMC2132754-cmu-280"
                }, 
                {
                    "from": "sent-PMC2132754-medscan-32", 
                    "object-type": "map-range", 
                    "to": "sent-PMC2132754-cmu-39"
                }, 
                {
                    "from": "sent-PMC2132754-medscan-173", 
                    "object-type": "map-range", 
                    "to": "sent-PMC2132754-cmu-210"
                }, 
                {
                    "from": "sent-PMC2132754-medscan-52", 
                    "object-type": "map-range", 
                    "to": "sent-PMC2132754-cmu-63"
                }, 
                {
                    "from": "sent-PMC2132754-medscan-190", 
                    "object-type": "map-range", 
                    "to": "sent-PMC2132754-cmu-240"
                }, 
                {
                    "from": "sent-PMC2132754-medscan-81", 
                    "object-type": "map-range", 
                    "to": "sent-PMC2132754-cmu-93"
                }, 
                {
                    "from": "sent-PMC2132754-medscan-146", 
                    "object-type": "map-range", 
                    "to": "sent-PMC2132754-cmu-176"
                }, 
                {
                    "from": "sent-PMC2132754-medscan-112", 
                    "object-type": "map-range", 
                    "to": "sent-PMC2132754-cmu-128"
                }, 
                {
                    "from": "sent-PMC2132754-medscan-186", 
                    "object-type": "map-range", 
                    "to": "sent-PMC2132754-cmu-236"
                }, 
                {
                    "from": "sent-PMC2132754-medscan-83", 
                    "object-type": "map-range", 
                    "to": "sent-PMC2132754-cmu-95"
                }, 
                {
                    "from": "sent-PMC2132754-medscan-110", 
                    "object-type": "map-range", 
                    "to": "sent-PMC2132754-cmu-125"
                }, 
                {
                    "from": "sent-PMC2132754-medscan-221", 
                    "object-type": "map-range", 
                    "to": "sent-PMC2132754-cmu-273"
                }, 
                {
                    "from": "sent-PMC2132754-medscan-209", 
                    "object-type": "map-range", 
                    "to": "sent-PMC2132754-cmu-260"
                }, 
                {
                    "from": "sent-PMC2132754-medscan-59", 
                    "object-type": "map-range", 
                    "to": "sent-PMC2132754-cmu-71"
                }, 
                {
                    "from": "sent-PMC2132754-medscan-232", 
                    "object-type": "map-range", 
                    "to": "sent-PMC2132754-cmu-285"
                }, 
                {
                    "from": "sent-PMC2132754-medscan-75", 
                    "object-type": "map-range", 
                    "to": "sent-PMC2132754-cmu-88"
                }, 
                {
                    "from": "sent-PMC2132754-medscan-198", 
                    "object-type": "map-range", 
                    "to": "sent-PMC2132754-cmu-249"
                }, 
                {
                    "from": "sent-PMC2132754-medscan-231", 
                    "object-type": "map-range", 
                    "to": "sent-PMC2132754-cmu-284"
                }, 
                {
                    "from": "sent-PMC2132754-medscan-147", 
                    "object-type": "map-range", 
                    "to": "sent-PMC2132754-cmu-177"
                }, 
                {
                    "from": "sent-PMC2132754-medscan-129", 
                    "object-type": "map-range", 
                    "to": "sent-PMC2132754-cmu-155"
                }, 
                {
                    "from": "sent-PMC2132754-medscan-74", 
                    "object-type": "map-range", 
                    "to": "sent-PMC2132754-cmu-87"
                }, 
                {
                    "from": "sent-PMC2132754-medscan-74", 
                    "object-type": "map-range", 
                    "to": "sent-PMC2132754-cmu-87"
                }, 
                {
                    "from": "sent-PMC2132754-medscan-217", 
                    "object-type": "map-range", 
                    "to": "sent-PMC2132754-cmu-269"
                }, 
                {
                    "from": "sent-PMC2132754-medscan-149", 
                    "object-type": "map-range", 
                    "to": "sent-PMC2132754-cmu-180"
                }, 
                {
                    "from": "sent-PMC2132754-medscan-174", 
                    "object-type": "map-range", 
                    "to": "sent-PMC2132754-cmu-211"
                }, 
                {
                    "from": "sent-PMC2132754-medscan-151", 
                    "object-type": "map-range", 
                    "to": "sent-PMC2132754-cmu-183"
                }, 
                {
                    "from": "sent-PMC2132754-medscan-113", 
                    "object-type": "map-range", 
                    "to": "sent-PMC2132754-cmu-129"
                }, 
                {
                    "from": "sent-PMC2132754-medscan-175", 
                    "object-type": "map-range", 
                    "to": "sent-PMC2132754-cmu-214"
                }, 
                {
                    "from": "sent-PMC2132754-medscan-156", 
                    "object-type": "map-range", 
                    "to": "sent-PMC2132754-cmu-188"
                }, 
                {
                    "from": "sent-PMC2132754-medscan-1", 
                    "object-type": "map-range", 
                    "to": "sent-PMC2132754-cmu-2"
                }, 
                {
                    "from": "sent-PMC2132754-medscan-34", 
                    "object-type": "map-range", 
                    "to": "sent-PMC2132754-cmu-41"
                }, 
                {
                    "from": "sent-PMC2132754-medscan-97", 
                    "object-type": "map-range", 
                    "to": "sent-PMC2132754-cmu-109"
                }, 
                {
                    "from": "sent-PMC2132754-medscan-0", 
                    "object-type": "map-range", 
                    "to": "sent-PMC2132754-cmu-1"
                }, 
                {
                    "from": "sent-PMC2132754-medscan-133", 
                    "object-type": "map-range", 
                    "to": "sent-PMC2132754-cmu-162"
                }, 
                {
                    "from": "sent-PMC2132754-medscan-169", 
                    "object-type": "map-range", 
                    "to": "sent-PMC2132754-cmu-204"
                }, 
                {
                    "from": "sent-PMC2132754-medscan-80", 
                    "object-type": "map-range", 
                    "to": "sent-PMC2132754-cmu-92"
                }, 
                {
                    "from": "sent-PMC2132754-medscan-50", 
                    "object-type": "map-range", 
                    "to": "sent-PMC2132754-cmu-61"
                }, 
                {
                    "from": "sent-PMC2132754-medscan-7", 
                    "object-type": "map-range", 
                    "to": "sent-PMC2132754-cmu-8"
                }, 
                {
                    "from": "sent-PMC2132754-medscan-203", 
                    "object-type": "map-range", 
                    "to": "sent-PMC2132754-cmu-254"
                }, 
                {
                    "from": "sent-PMC2132754-medscan-191", 
                    "object-type": "map-range", 
                    "to": "sent-PMC2132754-cmu-241"
                }, 
                {
                    "from": "sent-PMC2132754-medscan-57", 
                    "object-type": "map-range", 
                    "to": "sent-PMC2132754-cmu-69"
                }, 
                {
                    "from": "sent-PMC2132754-medscan-55", 
                    "object-type": "map-range", 
                    "to": "sent-PMC2132754-cmu-66"
                }, 
                {
                    "from": "sent-PMC2132754-medscan-131", 
                    "object-type": "map-range", 
                    "to": "sent-PMC2132754-cmu-159"
                }, 
                {
                    "from": "sent-PMC2132754-medscan-220", 
                    "object-type": "map-range", 
                    "to": "sent-PMC2132754-cmu-272"
                }, 
                {
                    "from": "sent-PMC2132754-medscan-108", 
                    "object-type": "map-range", 
                    "to": "sent-PMC2132754-cmu-122"
                }, 
                {
                    "from": "sent-PMC2132754-medscan-224", 
                    "object-type": "map-range", 
                    "to": "sent-PMC2132754-cmu-276"
                }, 
                {
                    "from": "sent-PMC2132754-medscan-42", 
                    "object-type": "map-range", 
                    "to": "sent-PMC2132754-cmu-52"
                }, 
                {
                    "from": "sent-PMC2132754-medscan-46", 
                    "object-type": "map-range", 
                    "to": "sent-PMC2132754-cmu-56"
                }, 
                {
                    "from": "sent-PMC2132754-medscan-138", 
                    "object-type": "map-range", 
                    "to": "sent-PMC2132754-cmu-167"
                }, 
                {
                    "from": "sent-PMC2132754-medscan-114", 
                    "object-type": "map-range", 
                    "to": "sent-PMC2132754-cmu-130"
                }, 
                {
                    "from": "sent-PMC2132754-medscan-33", 
                    "object-type": "map-range", 
                    "to": "sent-PMC2132754-cmu-40"
                }, 
                {
                    "from": "sent-PMC2132754-medscan-27", 
                    "object-type": "map-range", 
                    "to": "sent-PMC2132754-cmu-32"
                }, 
                {
                    "from": "sent-PMC2132754-medscan-206", 
                    "object-type": "map-range", 
                    "to": "sent-PMC2132754-cmu-257"
                }, 
                {
                    "from": "sent-PMC2132754-medscan-72", 
                    "object-type": "map-range", 
                    "to": "sent-PMC2132754-cmu-85"
                }, 
                {
                    "from": "sent-PMC2132754-medscan-92", 
                    "object-type": "map-range", 
                    "to": "sent-PMC2132754-cmu-102"
                }, 
                {
                    "from": "sent-PMC2132754-medscan-142", 
                    "object-type": "map-range", 
                    "to": "sent-PMC2132754-cmu-171"
                }, 
                {
                    "from": "sent-PMC2132754-medscan-100", 
                    "object-type": "map-range", 
                    "to": "sent-PMC2132754-cmu-112"
                }, 
                {
                    "from": "sent-PMC2132754-medscan-53", 
                    "object-type": "map-range", 
                    "to": "sent-PMC2132754-cmu-64"
                }, 
                {
                    "from": "sent-PMC2132754-medscan-207", 
                    "object-type": "map-range", 
                    "to": "sent-PMC2132754-cmu-258"
                }, 
                {
                    "from": "sent-PMC2132754-medscan-196", 
                    "object-type": "map-range", 
                    "to": "sent-PMC2132754-cmu-247"
                }, 
                {
                    "from": "sent-PMC2132754-medscan-78", 
                    "object-type": "map-range", 
                    "to": "sent-PMC2132754-cmu-89"
                }, 
                {
                    "from": "sent-PMC2132754-medscan-165", 
                    "object-type": "map-range", 
                    "to": "sent-PMC2132754-cmu-200"
                }, 
                {
                    "from": "sent-PMC2132754-medscan-219", 
                    "object-type": "map-range", 
                    "to": "sent-PMC2132754-cmu-271"
                }, 
                {
                    "from": "sent-PMC2132754-medscan-15", 
                    "object-type": "map-range", 
                    "to": "sent-PMC2132754-cmu-18"
                }, 
                {
                    "from": "sent-PMC2132754-medscan-183", 
                    "object-type": "map-range", 
                    "to": "sent-PMC2132754-cmu-232"
                }, 
                {
                    "from": "sent-PMC2132754-medscan-168", 
                    "object-type": "map-range", 
                    "to": "sent-PMC2132754-cmu-203"
                }, 
                {
                    "from": "sent-PMC2132754-medscan-125", 
                    "object-type": "map-range", 
                    "to": "sent-PMC2132754-cmu-150"
                }, 
                {
                    "from": "sent-PMC2132754-medscan-36", 
                    "object-type": "map-range", 
                    "to": "sent-PMC2132754-cmu-44"
                }, 
                {
                    "from": "sent-PMC2132754-medscan-36", 
                    "object-type": "map-range", 
                    "to": "sent-PMC2132754-cmu-44"
                }, 
                {
                    "from": "sent-PMC2132754-medscan-137", 
                    "object-type": "map-range", 
                    "to": "sent-PMC2132754-cmu-166"
                }, 
                {
                    "from": "sent-PMC2132754-medscan-3", 
                    "object-type": "map-range", 
                    "to": "sent-PMC2132754-cmu-4"
                }, 
                {
                    "from": "sent-PMC2132754-medscan-161", 
                    "object-type": "map-range", 
                    "to": "sent-PMC2132754-cmu-196"
                }, 
                {
                    "from": "sent-PMC2132754-medscan-223", 
                    "object-type": "map-range", 
                    "to": "sent-PMC2132754-cmu-275"
                }, 
                {
                    "from": "sent-PMC2132754-medscan-230", 
                    "object-type": "map-range", 
                    "to": "sent-PMC2132754-cmu-282"
                }, 
                {
                    "from": "sent-PMC2132754-medscan-95", 
                    "object-type": "map-range", 
                    "to": "sent-PMC2132754-cmu-107"
                }, 
                {
                    "from": "sent-PMC2132754-medscan-135", 
                    "object-type": "map-range", 
                    "to": "sent-PMC2132754-cmu-164"
                }, 
                {
                    "from": "sent-PMC2132754-medscan-158", 
                    "object-type": "map-range", 
                    "to": "sent-PMC2132754-cmu-192"
                }, 
                {
                    "from": "sent-PMC2132754-medscan-9", 
                    "object-type": "map-range", 
                    "to": "sent-PMC2132754-cmu-10"
                }, 
                {
                    "from": "sent-PMC2132754-medscan-225", 
                    "object-type": "map-range", 
                    "to": "sent-PMC2132754-cmu-277"
                }, 
                {
                    "from": "sent-PMC2132754-medscan-30", 
                    "object-type": "map-range", 
                    "to": "sent-PMC2132754-cmu-36"
                }, 
                {
                    "from": "sent-PMC2132754-medscan-150", 
                    "object-type": "map-range", 
                    "to": "sent-PMC2132754-cmu-181"
                }, 
                {
                    "from": "sent-PMC2132754-medscan-102", 
                    "object-type": "map-range", 
                    "to": "sent-PMC2132754-cmu-116"
                }, 
                {
                    "from": "sent-PMC2132754-medscan-21", 
                    "object-type": "map-range", 
                    "to": "sent-PMC2132754-cmu-26"
                }, 
                {
                    "from": "sent-PMC2132754-medscan-199", 
                    "object-type": "map-range", 
                    "to": "sent-PMC2132754-cmu-250"
                }, 
                {
                    "from": "sent-PMC2132754-medscan-215", 
                    "object-type": "map-range", 
                    "to": "sent-PMC2132754-cmu-266"
                }, 
                {
                    "from": "sent-PMC2132754-medscan-202", 
                    "object-type": "map-range", 
                    "to": "sent-PMC2132754-cmu-253"
                }, 
                {
                    "from": "sent-PMC2132754-medscan-123", 
                    "object-type": "map-range", 
                    "to": "sent-PMC2132754-cmu-147"
                }, 
                {
                    "from": "sent-PMC2132754-medscan-164", 
                    "object-type": "map-range", 
                    "to": "sent-PMC2132754-cmu-199"
                }, 
                {
                    "from": "sent-PMC2132754-medscan-62", 
                    "object-type": "map-range", 
                    "to": "sent-PMC2132754-cmu-74"
                }, 
                {
                    "from": "sent-PMC2132754-medscan-170", 
                    "object-type": "map-range", 
                    "to": "sent-PMC2132754-cmu-205"
                }, 
                {
                    "from": "sent-PMC2132754-medscan-108", 
                    "object-type": "map-range", 
                    "to": "sent-PMC2132754-cmu-121"
                }, 
                {
                    "from": "sent-PMC2132754-medscan-108", 
                    "object-type": "map-range", 
                    "to": "sent-PMC2132754-cmu-121"
                }, 
                {
                    "from": "sent-PMC2132754-medscan-49", 
                    "object-type": "map-range", 
                    "to": "sent-PMC2132754-cmu-60"
                }, 
                {
                    "from": "sent-PMC2132754-medscan-29", 
                    "object-type": "map-range", 
                    "to": "sent-PMC2132754-cmu-34"
                }, 
                {
                    "from": "sent-PMC2132754-medscan-64", 
                    "object-type": "map-range", 
                    "to": "sent-PMC2132754-cmu-76"
                }, 
                {
                    "from": "sent-PMC2132754-medscan-187", 
                    "object-type": "map-range", 
                    "to": "sent-PMC2132754-cmu-237"
                }, 
                {
                    "from": "sent-PMC2132754-medscan-38", 
                    "object-type": "map-range", 
                    "to": "sent-PMC2132754-cmu-46"
                }, 
                {
                    "from": "sent-PMC2132754-medscan-85", 
                    "object-type": "map-range", 
                    "to": "sent-PMC2132754-cmu-97"
                }, 
                {
                    "from": "sent-PMC2132754-medscan-48", 
                    "object-type": "map-range", 
                    "to": "sent-PMC2132754-cmu-59"
                }, 
                {
                    "from": "sent-PMC2132754-medscan-210", 
                    "object-type": "map-range", 
                    "to": "sent-PMC2132754-cmu-261"
                }, 
                {
                    "from": "sent-PMC2132754-medscan-222", 
                    "object-type": "map-range", 
                    "to": "sent-PMC2132754-cmu-274"
                }, 
                {
                    "from": "sent-PMC2132754-medscan-40", 
                    "object-type": "map-range", 
                    "to": "sent-PMC2132754-cmu-49"
                }, 
                {
                    "from": "sent-PMC2132754-medscan-188", 
                    "object-type": "map-range", 
                    "to": "sent-PMC2132754-cmu-238"
                }, 
                {
                    "from": "sent-PMC2132754-medscan-89", 
                    "object-type": "map-range", 
                    "to": "sent-PMC2132754-cmu-98"
                }, 
                {
                    "from": "sent-PMC2132754-medscan-115", 
                    "object-type": "map-range", 
                    "to": "sent-PMC2132754-cmu-132"
                }, 
                {
                    "from": "sent-PMC2132754-medscan-192", 
                    "object-type": "map-range", 
                    "to": "sent-PMC2132754-cmu-242"
                }, 
                {
                    "from": "sent-PMC2132754-medscan-91", 
                    "object-type": "map-range", 
                    "to": "sent-PMC2132754-cmu-100"
                }, 
                {
                    "from": "sent-PMC2132754-medscan-139", 
                    "object-type": "map-range", 
                    "to": "sent-PMC2132754-cmu-168"
                }, 
                {
                    "from": "sent-PMC2132754-medscan-18", 
                    "object-type": "map-range", 
                    "to": "sent-PMC2132754-cmu-21"
                }, 
                {
                    "from": "sent-PMC2132754-medscan-127", 
                    "object-type": "map-range", 
                    "to": "sent-PMC2132754-cmu-152"
                }, 
                {
                    "from": "sent-PMC2132754-medscan-185", 
                    "object-type": "map-range", 
                    "to": "sent-PMC2132754-cmu-235"
                }, 
                {
                    "from": "sent-PMC2132754-medscan-130", 
                    "object-type": "map-range", 
                    "to": "sent-PMC2132754-cmu-158"
                }, 
                {
                    "from": "sent-PMC2132754-medscan-60", 
                    "object-type": "map-range", 
                    "to": "sent-PMC2132754-cmu-72"
                }, 
                {
                    "from": "sent-PMC2132754-medscan-179", 
                    "object-type": "map-range", 
                    "to": "sent-PMC2132754-cmu-225"
                }, 
                {
                    "from": "sent-PMC2132754-medscan-124", 
                    "object-type": "map-range", 
                    "to": "sent-PMC2132754-cmu-149"
                }, 
                {
                    "from": "sent-PMC2132754-medscan-25", 
                    "object-type": "map-range", 
                    "to": "sent-PMC2132754-cmu-29"
                }, 
                {
                    "from": "sent-PMC2132754-medscan-65", 
                    "object-type": "map-range", 
                    "to": "sent-PMC2132754-cmu-77"
                }, 
                {
                    "from": "sent-PMC2132754-medscan-238", 
                    "object-type": "map-range", 
                    "to": "sent-PMC2132754-cmu-296"
                }, 
                {
                    "from": "sent-PMC2132754-medscan-51", 
                    "object-type": "map-range", 
                    "to": "sent-PMC2132754-cmu-62"
                }, 
                {
                    "from": "sent-PMC2132754-medscan-56", 
                    "object-type": "map-range", 
                    "to": "sent-PMC2132754-cmu-67"
                }, 
                {
                    "from": "sent-PMC2132754-medscan-82", 
                    "object-type": "map-range", 
                    "to": "sent-PMC2132754-cmu-94"
                }, 
                {
                    "from": "sent-PMC2132754-medscan-66", 
                    "object-type": "map-range", 
                    "to": "sent-PMC2132754-cmu-78"
                }, 
                {
                    "from": "sent-PMC2132754-medscan-157", 
                    "object-type": "map-range", 
                    "to": "sent-PMC2132754-cmu-190"
                }, 
                {
                    "from": "sent-PMC2132754-medscan-47", 
                    "object-type": "map-range", 
                    "to": "sent-PMC2132754-cmu-58"
                }, 
                {
                    "from": "sent-PMC2132754-medscan-117", 
                    "object-type": "map-range", 
                    "to": "sent-PMC2132754-cmu-138"
                }, 
                {
                    "from": "sent-PMC2132754-medscan-70", 
                    "object-type": "map-range", 
                    "to": "sent-PMC2132754-cmu-83"
                }, 
                {
                    "from": "sent-PMC2132754-medscan-194", 
                    "object-type": "map-range", 
                    "to": "sent-PMC2132754-cmu-244"
                }, 
                {
                    "from": "sent-PMC2132754-medscan-193", 
                    "object-type": "map-range", 
                    "to": "sent-PMC2132754-cmu-243"
                }, 
                {
                    "from": "sent-PMC2132754-medscan-200", 
                    "object-type": "map-range", 
                    "to": "sent-PMC2132754-cmu-251"
                }, 
                {
                    "from": "sent-PMC2132754-medscan-111", 
                    "object-type": "map-range", 
                    "to": "sent-PMC2132754-cmu-127"
                }, 
                {
                    "from": "sent-PMC2132754-medscan-205", 
                    "object-type": "map-range", 
                    "to": "sent-PMC2132754-cmu-256"
                }, 
                {
                    "from": "sent-PMC2132754-medscan-69", 
                    "object-type": "map-range", 
                    "to": "sent-PMC2132754-cmu-82"
                }, 
                {
                    "from": "sent-PMC2132754-medscan-181", 
                    "object-type": "map-range", 
                    "to": "sent-PMC2132754-cmu-229"
                }, 
                {
                    "from": "sent-PMC2132754-medscan-84", 
                    "object-type": "map-range", 
                    "to": "sent-PMC2132754-cmu-96"
                }, 
                {
                    "from": "sent-PMC2132754-medscan-11", 
                    "object-type": "map-range", 
                    "to": "sent-PMC2132754-cmu-13"
                }, 
                {
                    "from": "sent-PMC2132754-medscan-218", 
                    "object-type": "map-range", 
                    "to": "sent-PMC2132754-cmu-270"
                }, 
                {
                    "from": "sent-PMC2132754-medscan-155", 
                    "object-type": "map-range", 
                    "to": "sent-PMC2132754-cmu-187"
                }, 
                {
                    "from": "sent-PMC2132754-medscan-109", 
                    "object-type": "map-range", 
                    "to": "sent-PMC2132754-cmu-123"
                }, 
                {
                    "from": "sent-PMC2132754-medscan-35", 
                    "object-type": "map-range", 
                    "to": "sent-PMC2132754-cmu-42"
                }, 
                {
                    "from": "sent-PMC2132754-medscan-94", 
                    "object-type": "map-range", 
                    "to": "sent-PMC2132754-cmu-106"
                }, 
                {
                    "from": "sent-PMC2132754-medscan-134", 
                    "object-type": "map-range", 
                    "to": "sent-PMC2132754-cmu-163"
                }, 
                {
                    "from": "sent-PMC2132754-medscan-172", 
                    "object-type": "map-range", 
                    "to": "sent-PMC2132754-cmu-208"
                }, 
                {
                    "from": "sent-PMC2132754-medscan-36", 
                    "object-type": "map-range", 
                    "to": "sent-PMC2132754-cmu-47"
                }, 
                {
                    "from": "sent-PMC2132754-medscan-36", 
                    "object-type": "map-range", 
                    "to": "sent-PMC2132754-cmu-47"
                }, 
                {
                    "from": "sent-PMC2132754-medscan-189", 
                    "object-type": "map-range", 
                    "to": "sent-PMC2132754-cmu-239"
                }, 
                {
                    "from": "sent-PMC2132754-medscan-120", 
                    "object-type": "map-range", 
                    "to": "sent-PMC2132754-cmu-144"
                }, 
                {
                    "from": "sent-PMC2132754-medscan-201", 
                    "object-type": "map-range", 
                    "to": "sent-PMC2132754-cmu-252"
                }, 
                {
                    "from": "sent-PMC2132754-medscan-4", 
                    "object-type": "map-range", 
                    "to": "sent-PMC2132754-cmu-5"
                }, 
                {
                    "from": "sent-PMC2132754-medscan-212", 
                    "object-type": "map-range", 
                    "to": "sent-PMC2132754-cmu-263"
                }, 
                {
                    "from": "sent-PMC2132754-medscan-159", 
                    "object-type": "map-range", 
                    "to": "sent-PMC2132754-cmu-193"
                }, 
                {
                    "from": "sent-PMC2132754-medscan-180", 
                    "object-type": "map-range", 
                    "to": "sent-PMC2132754-cmu-228"
                }, 
                {
                    "from": "sent-PMC2132754-medscan-226", 
                    "object-type": "map-range", 
                    "to": "sent-PMC2132754-cmu-278"
                }, 
                {
                    "from": "sent-PMC2132754-medscan-128", 
                    "object-type": "map-range", 
                    "to": "sent-PMC2132754-cmu-153"
                }, 
                {
                    "from": "sent-PMC2132754-medscan-71", 
                    "object-type": "map-range", 
                    "to": "sent-PMC2132754-cmu-84"
                }, 
                {
                    "from": "sent-PMC2132754-medscan-116", 
                    "object-type": "map-range", 
                    "to": "sent-PMC2132754-cmu-135"
                }, 
                {
                    "from": "sent-PMC2132754-medscan-28", 
                    "object-type": "map-range", 
                    "to": "sent-PMC2132754-cmu-33"
                }, 
                {
                    "from": "sent-PMC2132754-medscan-44", 
                    "object-type": "map-range", 
                    "to": "sent-PMC2132754-cmu-54"
                }, 
                {
                    "from": "sent-PMC2132754-medscan-197", 
                    "object-type": "map-range", 
                    "to": "sent-PMC2132754-cmu-248"
                }, 
                {
                    "from": "sent-PMC2132754-medscan-216", 
                    "object-type": "map-range", 
                    "to": "sent-PMC2132754-cmu-268"
                }, 
                {
                    "from": "sent-PMC2132754-medscan-20", 
                    "object-type": "map-range", 
                    "to": "sent-PMC2132754-cmu-23"
                }, 
                {
                    "from": "sent-PMC2132754-medscan-152", 
                    "object-type": "map-range", 
                    "to": "sent-PMC2132754-cmu-184"
                }, 
                {
                    "from": "sent-PMC2132754-medscan-43", 
                    "object-type": "map-range", 
                    "to": "sent-PMC2132754-cmu-53"
                }, 
                {
                    "from": "sent-PMC2132754-medscan-105", 
                    "object-type": "map-range", 
                    "to": "sent-PMC2132754-cmu-119"
                }, 
                {
                    "from": "sent-PMC2132754-medscan-17", 
                    "object-type": "map-range", 
                    "to": "sent-PMC2132754-cmu-20"
                }, 
                {
                    "from": "sent-PMC2132754-medscan-98", 
                    "object-type": "map-range", 
                    "to": "sent-PMC2132754-cmu-110"
                }, 
                {
                    "from": "sent-PMC2132754-medscan-19", 
                    "object-type": "map-range", 
                    "to": "sent-PMC2132754-cmu-22"
                }, 
                {
                    "from": "sent-PMC2132754-medscan-45", 
                    "object-type": "map-range", 
                    "to": "sent-PMC2132754-cmu-55"
                }, 
                {
                    "from": "sent-PMC2132754-medscan-144", 
                    "object-type": "map-range", 
                    "to": "sent-PMC2132754-cmu-174"
                }, 
                {
                    "from": "sent-PMC2132754-medscan-132", 
                    "object-type": "map-range", 
                    "to": "sent-PMC2132754-cmu-161"
                }, 
                {
                    "from": "sent-PMC2132754-medscan-54", 
                    "object-type": "map-range", 
                    "to": "sent-PMC2132754-cmu-65"
                }, 
                {
                    "from": "sent-PMC2132754-medscan-54", 
                    "object-type": "map-range", 
                    "to": "sent-PMC2132754-cmu-65"
                }, 
                {
                    "from": "sent-PMC2132754-medscan-227", 
                    "object-type": "map-range", 
                    "to": "sent-PMC2132754-cmu-279"
                }, 
                {
                    "from": "sent-PMC2132754-medscan-10", 
                    "object-type": "map-range", 
                    "to": "sent-PMC2132754-cmu-12"
                }, 
                {
                    "from": "sent-PMC2132754-medscan-167", 
                    "object-type": "map-range", 
                    "to": "sent-PMC2132754-cmu-202"
                }, 
                {
                    "from": "sent-PMC2132754-medscan-163", 
                    "object-type": "map-range", 
                    "to": "sent-PMC2132754-cmu-198"
                }, 
                {
                    "from": "sent-PMC2132754-medscan-67", 
                    "object-type": "map-range", 
                    "to": "sent-PMC2132754-cmu-79"
                }, 
                {
                    "from": "sent-PMC2132754-medscan-160", 
                    "object-type": "map-range", 
                    "to": "sent-PMC2132754-cmu-195"
                }, 
                {
                    "from": "sent-PMC2132754-medscan-177", 
                    "object-type": "map-range", 
                    "to": "sent-PMC2132754-cmu-218"
                }, 
                {
                    "from": "sent-PMC2132754-medscan-101", 
                    "object-type": "map-range", 
                    "to": "sent-PMC2132754-cmu-115"
                }, 
                {
                    "from": "sent-PMC2132754-medscan-58", 
                    "object-type": "map-range", 
                    "to": "sent-PMC2132754-cmu-70"
                }, 
                {
                    "from": "sent-PMC2132754-medscan-184", 
                    "object-type": "map-range", 
                    "to": "sent-PMC2132754-cmu-234"
                }, 
                {
                    "from": "sent-PMC2132754-medscan-229", 
                    "object-type": "map-range", 
                    "to": "sent-PMC2132754-cmu-281"
                }, 
                {
                    "from": "sent-PMC2132754-medscan-166", 
                    "object-type": "map-range", 
                    "to": "sent-PMC2132754-cmu-201"
                }, 
                {
                    "from": "sent-PMC2132754-medscan-122", 
                    "object-type": "map-range", 
                    "to": "sent-PMC2132754-cmu-146"
                }, 
                {
                    "from": "sent-PMC2132754-medscan-106", 
                    "object-type": "map-range", 
                    "to": "sent-PMC2132754-cmu-120"
                }, 
                {
                    "from": "sent-PMC2132754-medscan-16", 
                    "object-type": "map-range", 
                    "to": "sent-PMC2132754-cmu-19"
                }, 
                {
                    "from": "sent-PMC2132754-medscan-119", 
                    "object-type": "map-range", 
                    "to": "sent-PMC2132754-cmu-141"
                }, 
                {
                    "from": "sent-PMC2132754-medscan-145", 
                    "object-type": "map-range", 
                    "to": "sent-PMC2132754-cmu-175"
                }, 
                {
                    "from": "sent-PMC2132754-medscan-236", 
                    "object-type": "map-range", 
                    "to": "sent-PMC2132754-cmu-293"
                }, 
                {
                    "from": "sent-PMC2132754-medscan-23", 
                    "object-type": "map-range", 
                    "to": "sent-PMC2132754-cmu-27"
                }, 
                {
                    "from": "sent-PMC2132754-medscan-143", 
                    "object-type": "map-range", 
                    "to": "sent-PMC2132754-cmu-173"
                }, 
                {
                    "from": "sent-PMC2132754-medscan-68", 
                    "object-type": "map-range", 
                    "to": "sent-PMC2132754-cmu-80"
                }, 
                {
                    "from": "sent-PMC2132754-medscan-178", 
                    "object-type": "map-range", 
                    "to": "sent-PMC2132754-cmu-223"
                }
            ], 
            "object-meta": {
                "component": "Pradeep-Matcher", 
                "object-type": "meta-info", 
                "organization": "CMU"
            }, 
            "object-type": "frame"
        }
    ], 
    "object-meta": {
        "component": "Pradeep-Matcher", 
        "component-type": "machine", 
        "doc-id": "PMC2132754", 
        "object-type": "meta-info", 
        "organization": "CMU"
    }, 
    "object-type": "frame-collection"
}
