{
    "frames": [
        {
            "frame-id": "epi-PMC3085367-cmu-nicosys-284", 
            "frame-type": "epistemics", 
            "object-meta": {
                "object-type": "meta-info", 
                "organization": "CMU"
            }, 
            "object-type": "frame", 
            "sentence": "sent-PMC3085367-cmu-4", 
            "status": "hypothesis", 
            "value": 0.3
        }, 
        {
            "frame-id": "epi-PMC3085367-cmu-nicosys-285", 
            "frame-type": "epistemics", 
            "object-meta": {
                "object-type": "meta-info", 
                "organization": "CMU"
            }, 
            "object-type": "frame", 
            "sentence": "sent-PMC3085367-cmu-9", 
            "status": "belief", 
            "value": 0.9
        }, 
        {
            "frame-id": "epi-PMC3085367-cmu-nicosys-286", 
            "frame-type": "epistemics", 
            "object-meta": {
                "object-type": "meta-info", 
                "organization": "CMU"
            }, 
            "object-type": "frame", 
            "sentence": "sent-PMC3085367-cmu-15", 
            "status": "belief", 
            "value": 0.9
        }, 
        {
            "frame-id": "epi-PMC3085367-cmu-nicosys-287", 
            "frame-type": "epistemics", 
            "object-meta": {
                "object-type": "meta-info", 
                "organization": "CMU"
            }, 
            "object-type": "frame", 
            "sentence": "sent-PMC3085367-cmu-18", 
            "status": "belief", 
            "value": 0.9
        }, 
        {
            "frame-id": "epi-PMC3085367-cmu-nicosys-288", 
            "frame-type": "epistemics", 
            "object-meta": {
                "object-type": "meta-info", 
                "organization": "CMU"
            }, 
            "object-type": "frame", 
            "sentence": "sent-PMC3085367-cmu-18", 
            "status": "belief", 
            "value": 0.9
        }, 
        {
            "frame-id": "epi-PMC3085367-cmu-nicosys-289", 
            "frame-type": "epistemics", 
            "object-meta": {
                "object-type": "meta-info", 
                "organization": "CMU"
            }, 
            "object-type": "frame", 
            "sentence": "sent-PMC3085367-cmu-19", 
            "status": "belief", 
            "value": 0.9
        }, 
        {
            "frame-id": "epi-PMC3085367-cmu-nicosys-290", 
            "frame-type": "epistemics", 
            "object-meta": {
                "object-type": "meta-info", 
                "organization": "CMU"
            }, 
            "object-type": "frame", 
            "sentence": "sent-PMC3085367-cmu-84", 
            "status": "implication", 
            "value": 0.6
        }, 
        {
            "frame-id": "epi-PMC3085367-cmu-nicosys-291", 
            "frame-type": "epistemics", 
            "object-meta": {
                "object-type": "meta-info", 
                "organization": "CMU"
            }, 
            "object-type": "frame", 
            "sentence": "sent-PMC3085367-cmu-2", 
            "status": "belief", 
            "value": 0.9
        }, 
        {
            "frame-id": "epi-PMC3085367-cmu-nicosys-292", 
            "frame-type": "epistemics", 
            "object-meta": {
                "object-type": "meta-info", 
                "organization": "CMU"
            }, 
            "object-type": "frame", 
            "sentence": "sent-PMC3085367-cmu-3", 
            "status": "belief", 
            "value": 0.9
        }, 
        {
            "frame-id": "epi-PMC3085367-cmu-nicosys-293", 
            "frame-type": "epistemics", 
            "object-meta": {
                "object-type": "meta-info", 
                "organization": "CMU"
            }, 
            "object-type": "frame", 
            "sentence": "sent-PMC3085367-cmu-4", 
            "status": "belief", 
            "value": 0.9
        }, 
        {
            "frame-id": "epi-PMC3085367-cmu-nicosys-294", 
            "frame-type": "epistemics", 
            "object-meta": {
                "object-type": "meta-info", 
                "organization": "CMU"
            }, 
            "object-type": "frame", 
            "sentence": "sent-PMC3085367-cmu-5", 
            "status": "belief", 
            "value": 0.9
        }, 
        {
            "frame-id": "epi-PMC3085367-cmu-nicosys-295", 
            "frame-type": "epistemics", 
            "object-meta": {
                "object-type": "meta-info", 
                "organization": "CMU"
            }, 
            "object-type": "frame", 
            "sentence": "sent-PMC3085367-cmu-6", 
            "status": "belief", 
            "value": 0.9
        }, 
        {
            "frame-id": "epi-PMC3085367-cmu-nicosys-296", 
            "frame-type": "epistemics", 
            "object-meta": {
                "object-type": "meta-info", 
                "organization": "CMU"
            }, 
            "object-type": "frame", 
            "sentence": "sent-PMC3085367-cmu-7", 
            "status": "belief", 
            "value": 0.9
        }, 
        {
            "frame-id": "epi-PMC3085367-cmu-nicosys-297", 
            "frame-type": "epistemics", 
            "object-meta": {
                "object-type": "meta-info", 
                "organization": "CMU"
            }, 
            "object-type": "frame", 
            "sentence": "sent-PMC3085367-cmu-8", 
            "status": "belief", 
            "value": 0.9
        }, 
        {
            "frame-id": "epi-PMC3085367-cmu-nicosys-298", 
            "frame-type": "epistemics", 
            "object-meta": {
                "object-type": "meta-info", 
                "organization": "CMU"
            }, 
            "object-type": "frame", 
            "sentence": "sent-PMC3085367-cmu-9", 
            "status": "belief", 
            "value": 0.9
        }, 
        {
            "frame-id": "epi-PMC3085367-cmu-nicosys-299", 
            "frame-type": "epistemics", 
            "object-meta": {
                "object-type": "meta-info", 
                "organization": "CMU"
            }, 
            "object-type": "frame", 
            "sentence": "sent-PMC3085367-cmu-10", 
            "status": "belief", 
            "value": 0.9
        }, 
        {
            "frame-id": "epi-PMC3085367-cmu-nicosys-300", 
            "frame-type": "epistemics", 
            "object-meta": {
                "object-type": "meta-info", 
                "organization": "CMU"
            }, 
            "object-type": "frame", 
            "sentence": "sent-PMC3085367-cmu-11", 
            "status": "belief", 
            "value": 0.9
        }, 
        {
            "frame-id": "epi-PMC3085367-cmu-nicosys-301", 
            "frame-type": "epistemics", 
            "object-meta": {
                "object-type": "meta-info", 
                "organization": "CMU"
            }, 
            "object-type": "frame", 
            "sentence": "sent-PMC3085367-cmu-12", 
            "status": "belief", 
            "value": 0.9
        }, 
        {
            "frame-id": "epi-PMC3085367-cmu-nicosys-302", 
            "frame-type": "epistemics", 
            "object-meta": {
                "object-type": "meta-info", 
                "organization": "CMU"
            }, 
            "object-type": "frame", 
            "sentence": "sent-PMC3085367-cmu-13", 
            "status": "belief", 
            "value": 0.9
        }, 
        {
            "frame-id": "epi-PMC3085367-cmu-nicosys-303", 
            "frame-type": "epistemics", 
            "object-meta": {
                "object-type": "meta-info", 
                "organization": "CMU"
            }, 
            "object-type": "frame", 
            "sentence": "sent-PMC3085367-cmu-14", 
            "status": "belief", 
            "value": 0.9
        }, 
        {
            "frame-id": "epi-PMC3085367-cmu-nicosys-304", 
            "frame-type": "epistemics", 
            "object-meta": {
                "object-type": "meta-info", 
                "organization": "CMU"
            }, 
            "object-type": "frame", 
            "sentence": "sent-PMC3085367-cmu-15", 
            "status": "belief", 
            "value": 0.9
        }, 
        {
            "frame-id": "epi-PMC3085367-cmu-nicosys-305", 
            "frame-type": "epistemics", 
            "object-meta": {
                "object-type": "meta-info", 
                "organization": "CMU"
            }, 
            "object-type": "frame", 
            "sentence": "sent-PMC3085367-cmu-16", 
            "status": "belief", 
            "value": 0.9
        }, 
        {
            "frame-id": "epi-PMC3085367-cmu-nicosys-306", 
            "frame-type": "epistemics", 
            "object-meta": {
                "object-type": "meta-info", 
                "organization": "CMU"
            }, 
            "object-type": "frame", 
            "sentence": "sent-PMC3085367-cmu-17", 
            "status": "belief", 
            "value": 0.9
        }, 
        {
            "frame-id": "epi-PMC3085367-cmu-nicosys-307", 
            "frame-type": "epistemics", 
            "object-meta": {
                "object-type": "meta-info", 
                "organization": "CMU"
            }, 
            "object-type": "frame", 
            "sentence": "sent-PMC3085367-cmu-18", 
            "status": "belief", 
            "value": 0.9
        }, 
        {
            "frame-id": "epi-PMC3085367-cmu-nicosys-308", 
            "frame-type": "epistemics", 
            "object-meta": {
                "object-type": "meta-info", 
                "organization": "CMU"
            }, 
            "object-type": "frame", 
            "sentence": "sent-PMC3085367-cmu-19", 
            "status": "belief", 
            "value": 0.9
        }, 
        {
            "frame-id": "epi-PMC3085367-cmu-nicosys-309", 
            "frame-type": "epistemics", 
            "object-meta": {
                "object-type": "meta-info", 
                "organization": "CMU"
            }, 
            "object-type": "frame", 
            "sentence": "sent-PMC3085367-cmu-20", 
            "status": "belief", 
            "value": 0.9
        }, 
        {
            "frame-id": "epi-PMC3085367-cmu-nicosys-310", 
            "frame-type": "epistemics", 
            "object-meta": {
                "object-type": "meta-info", 
                "organization": "CMU"
            }, 
            "object-type": "frame", 
            "sentence": "sent-PMC3085367-cmu-23", 
            "status": "belief", 
            "value": 0.9
        }, 
        {
            "frame-id": "epi-PMC3085367-cmu-nicosys-311", 
            "frame-type": "epistemics", 
            "object-meta": {
                "object-type": "meta-info", 
                "organization": "CMU"
            }, 
            "object-type": "frame", 
            "sentence": "sent-PMC3085367-cmu-24", 
            "status": "belief", 
            "value": 0.9
        }, 
        {
            "frame-id": "epi-PMC3085367-cmu-nicosys-312", 
            "frame-type": "epistemics", 
            "object-meta": {
                "object-type": "meta-info", 
                "organization": "CMU"
            }, 
            "object-type": "frame", 
            "sentence": "sent-PMC3085367-cmu-25", 
            "status": "belief", 
            "value": 0.9
        }, 
        {
            "frame-id": "epi-PMC3085367-cmu-nicosys-313", 
            "frame-type": "epistemics", 
            "object-meta": {
                "object-type": "meta-info", 
                "organization": "CMU"
            }, 
            "object-type": "frame", 
            "sentence": "sent-PMC3085367-cmu-26", 
            "status": "belief", 
            "value": 0.9
        }, 
        {
            "frame-id": "epi-PMC3085367-cmu-nicosys-314", 
            "frame-type": "epistemics", 
            "object-meta": {
                "object-type": "meta-info", 
                "organization": "CMU"
            }, 
            "object-type": "frame", 
            "sentence": "sent-PMC3085367-cmu-27", 
            "status": "belief", 
            "value": 0.9
        }, 
        {
            "frame-id": "epi-PMC3085367-cmu-nicosys-315", 
            "frame-type": "epistemics", 
            "object-meta": {
                "object-type": "meta-info", 
                "organization": "CMU"
            }, 
            "object-type": "frame", 
            "sentence": "sent-PMC3085367-cmu-28", 
            "status": "belief", 
            "value": 0.9
        }, 
        {
            "frame-id": "epi-PMC3085367-cmu-nicosys-316", 
            "frame-type": "epistemics", 
            "object-meta": {
                "object-type": "meta-info", 
                "organization": "CMU"
            }, 
            "object-type": "frame", 
            "sentence": "sent-PMC3085367-cmu-29", 
            "status": "belief", 
            "value": 0.9
        }, 
        {
            "frame-id": "epi-PMC3085367-cmu-nicosys-317", 
            "frame-type": "epistemics", 
            "object-meta": {
                "object-type": "meta-info", 
                "organization": "CMU"
            }, 
            "object-type": "frame", 
            "sentence": "sent-PMC3085367-cmu-30", 
            "status": "belief", 
            "value": 0.9
        }, 
        {
            "frame-id": "epi-PMC3085367-cmu-nicosys-318", 
            "frame-type": "epistemics", 
            "object-meta": {
                "object-type": "meta-info", 
                "organization": "CMU"
            }, 
            "object-type": "frame", 
            "sentence": "sent-PMC3085367-cmu-32", 
            "status": "belief", 
            "value": 0.9
        }, 
        {
            "frame-id": "epi-PMC3085367-cmu-nicosys-319", 
            "frame-type": "epistemics", 
            "object-meta": {
                "object-type": "meta-info", 
                "organization": "CMU"
            }, 
            "object-type": "frame", 
            "sentence": "sent-PMC3085367-cmu-33", 
            "status": "belief", 
            "value": 0.9
        }, 
        {
            "frame-id": "epi-PMC3085367-cmu-nicosys-320", 
            "frame-type": "epistemics", 
            "object-meta": {
                "object-type": "meta-info", 
                "organization": "CMU"
            }, 
            "object-type": "frame", 
            "sentence": "sent-PMC3085367-cmu-34", 
            "status": "belief", 
            "value": 0.9
        }, 
        {
            "frame-id": "epi-PMC3085367-cmu-nicosys-321", 
            "frame-type": "epistemics", 
            "object-meta": {
                "object-type": "meta-info", 
                "organization": "CMU"
            }, 
            "object-type": "frame", 
            "sentence": "sent-PMC3085367-cmu-35", 
            "status": "belief", 
            "value": 0.9
        }, 
        {
            "frame-id": "epi-PMC3085367-cmu-nicosys-322", 
            "frame-type": "epistemics", 
            "object-meta": {
                "object-type": "meta-info", 
                "organization": "CMU"
            }, 
            "object-type": "frame", 
            "sentence": "sent-PMC3085367-cmu-36", 
            "status": "belief", 
            "value": 0.9
        }, 
        {
            "frame-id": "epi-PMC3085367-cmu-nicosys-323", 
            "frame-type": "epistemics", 
            "object-meta": {
                "object-type": "meta-info", 
                "organization": "CMU"
            }, 
            "object-type": "frame", 
            "sentence": "sent-PMC3085367-cmu-37", 
            "status": "belief", 
            "value": 0.9
        }, 
        {
            "frame-id": "epi-PMC3085367-cmu-nicosys-324", 
            "frame-type": "epistemics", 
            "object-meta": {
                "object-type": "meta-info", 
                "organization": "CMU"
            }, 
            "object-type": "frame", 
            "sentence": "sent-PMC3085367-cmu-38", 
            "status": "belief", 
            "value": 0.9
        }, 
        {
            "frame-id": "epi-PMC3085367-cmu-nicosys-325", 
            "frame-type": "epistemics", 
            "object-meta": {
                "object-type": "meta-info", 
                "organization": "CMU"
            }, 
            "object-type": "frame", 
            "sentence": "sent-PMC3085367-cmu-39", 
            "status": "belief", 
            "value": 0.9
        }, 
        {
            "frame-id": "epi-PMC3085367-cmu-nicosys-326", 
            "frame-type": "epistemics", 
            "object-meta": {
                "object-type": "meta-info", 
                "organization": "CMU"
            }, 
            "object-type": "frame", 
            "sentence": "sent-PMC3085367-cmu-41", 
            "status": "belief", 
            "value": 0.9
        }, 
        {
            "frame-id": "epi-PMC3085367-cmu-nicosys-327", 
            "frame-type": "epistemics", 
            "object-meta": {
                "object-type": "meta-info", 
                "organization": "CMU"
            }, 
            "object-type": "frame", 
            "sentence": "sent-PMC3085367-cmu-42", 
            "status": "belief", 
            "value": 0.9
        }, 
        {
            "frame-id": "epi-PMC3085367-cmu-nicosys-328", 
            "frame-type": "epistemics", 
            "object-meta": {
                "object-type": "meta-info", 
                "organization": "CMU"
            }, 
            "object-type": "frame", 
            "sentence": "sent-PMC3085367-cmu-43", 
            "status": "belief", 
            "value": 0.9
        }, 
        {
            "frame-id": "epi-PMC3085367-cmu-nicosys-329", 
            "frame-type": "epistemics", 
            "object-meta": {
                "object-type": "meta-info", 
                "organization": "CMU"
            }, 
            "object-type": "frame", 
            "sentence": "sent-PMC3085367-cmu-44", 
            "status": "belief", 
            "value": 0.9
        }, 
        {
            "frame-id": "epi-PMC3085367-cmu-nicosys-330", 
            "frame-type": "epistemics", 
            "object-meta": {
                "object-type": "meta-info", 
                "organization": "CMU"
            }, 
            "object-type": "frame", 
            "sentence": "sent-PMC3085367-cmu-46", 
            "status": "belief", 
            "value": 0.9
        }, 
        {
            "frame-id": "epi-PMC3085367-cmu-nicosys-331", 
            "frame-type": "epistemics", 
            "object-meta": {
                "object-type": "meta-info", 
                "organization": "CMU"
            }, 
            "object-type": "frame", 
            "sentence": "sent-PMC3085367-cmu-47", 
            "status": "belief", 
            "value": 0.9
        }, 
        {
            "frame-id": "epi-PMC3085367-cmu-nicosys-332", 
            "frame-type": "epistemics", 
            "object-meta": {
                "object-type": "meta-info", 
                "organization": "CMU"
            }, 
            "object-type": "frame", 
            "sentence": "sent-PMC3085367-cmu-48", 
            "status": "belief", 
            "value": 0.9
        }, 
        {
            "frame-id": "epi-PMC3085367-cmu-nicosys-333", 
            "frame-type": "epistemics", 
            "object-meta": {
                "object-type": "meta-info", 
                "organization": "CMU"
            }, 
            "object-type": "frame", 
            "sentence": "sent-PMC3085367-cmu-49", 
            "status": "belief", 
            "value": 0.9
        }, 
        {
            "frame-id": "epi-PMC3085367-cmu-nicosys-334", 
            "frame-type": "epistemics", 
            "object-meta": {
                "object-type": "meta-info", 
                "organization": "CMU"
            }, 
            "object-type": "frame", 
            "sentence": "sent-PMC3085367-cmu-51", 
            "status": "belief", 
            "value": 0.9
        }, 
        {
            "frame-id": "epi-PMC3085367-cmu-nicosys-335", 
            "frame-type": "epistemics", 
            "object-meta": {
                "object-type": "meta-info", 
                "organization": "CMU"
            }, 
            "object-type": "frame", 
            "sentence": "sent-PMC3085367-cmu-52", 
            "status": "belief", 
            "value": 0.9
        }, 
        {
            "frame-id": "epi-PMC3085367-cmu-nicosys-336", 
            "frame-type": "epistemics", 
            "object-meta": {
                "object-type": "meta-info", 
                "organization": "CMU"
            }, 
            "object-type": "frame", 
            "sentence": "sent-PMC3085367-cmu-53", 
            "status": "belief", 
            "value": 0.9
        }, 
        {
            "frame-id": "epi-PMC3085367-cmu-nicosys-337", 
            "frame-type": "epistemics", 
            "object-meta": {
                "object-type": "meta-info", 
                "organization": "CMU"
            }, 
            "object-type": "frame", 
            "sentence": "sent-PMC3085367-cmu-54", 
            "status": "belief", 
            "value": 0.9
        }, 
        {
            "frame-id": "epi-PMC3085367-cmu-nicosys-338", 
            "frame-type": "epistemics", 
            "object-meta": {
                "object-type": "meta-info", 
                "organization": "CMU"
            }, 
            "object-type": "frame", 
            "sentence": "sent-PMC3085367-cmu-55", 
            "status": "belief", 
            "value": 0.9
        }, 
        {
            "frame-id": "epi-PMC3085367-cmu-nicosys-339", 
            "frame-type": "epistemics", 
            "object-meta": {
                "object-type": "meta-info", 
                "organization": "CMU"
            }, 
            "object-type": "frame", 
            "sentence": "sent-PMC3085367-cmu-56", 
            "status": "belief", 
            "value": 0.9
        }, 
        {
            "frame-id": "epi-PMC3085367-cmu-nicosys-340", 
            "frame-type": "epistemics", 
            "object-meta": {
                "object-type": "meta-info", 
                "organization": "CMU"
            }, 
            "object-type": "frame", 
            "sentence": "sent-PMC3085367-cmu-57", 
            "status": "belief", 
            "value": 0.9
        }, 
        {
            "frame-id": "epi-PMC3085367-cmu-nicosys-341", 
            "frame-type": "epistemics", 
            "object-meta": {
                "object-type": "meta-info", 
                "organization": "CMU"
            }, 
            "object-type": "frame", 
            "sentence": "sent-PMC3085367-cmu-58", 
            "status": "belief", 
            "value": 0.9
        }, 
        {
            "frame-id": "epi-PMC3085367-cmu-nicosys-342", 
            "frame-type": "epistemics", 
            "object-meta": {
                "object-type": "meta-info", 
                "organization": "CMU"
            }, 
            "object-type": "frame", 
            "sentence": "sent-PMC3085367-cmu-60", 
            "status": "belief", 
            "value": 0.9
        }, 
        {
            "frame-id": "epi-PMC3085367-cmu-nicosys-343", 
            "frame-type": "epistemics", 
            "object-meta": {
                "object-type": "meta-info", 
                "organization": "CMU"
            }, 
            "object-type": "frame", 
            "sentence": "sent-PMC3085367-cmu-61", 
            "status": "belief", 
            "value": 0.9
        }, 
        {
            "frame-id": "epi-PMC3085367-cmu-nicosys-344", 
            "frame-type": "epistemics", 
            "object-meta": {
                "object-type": "meta-info", 
                "organization": "CMU"
            }, 
            "object-type": "frame", 
            "sentence": "sent-PMC3085367-cmu-62", 
            "status": "belief", 
            "value": 0.9
        }, 
        {
            "frame-id": "epi-PMC3085367-cmu-nicosys-345", 
            "frame-type": "epistemics", 
            "object-meta": {
                "object-type": "meta-info", 
                "organization": "CMU"
            }, 
            "object-type": "frame", 
            "sentence": "sent-PMC3085367-cmu-63", 
            "status": "belief", 
            "value": 0.9
        }, 
        {
            "frame-id": "epi-PMC3085367-cmu-nicosys-346", 
            "frame-type": "epistemics", 
            "object-meta": {
                "object-type": "meta-info", 
                "organization": "CMU"
            }, 
            "object-type": "frame", 
            "sentence": "sent-PMC3085367-cmu-64", 
            "status": "belief", 
            "value": 0.9
        }, 
        {
            "frame-id": "epi-PMC3085367-cmu-nicosys-347", 
            "frame-type": "epistemics", 
            "object-meta": {
                "object-type": "meta-info", 
                "organization": "CMU"
            }, 
            "object-type": "frame", 
            "sentence": "sent-PMC3085367-cmu-65", 
            "status": "belief", 
            "value": 0.9
        }, 
        {
            "frame-id": "epi-PMC3085367-cmu-nicosys-348", 
            "frame-type": "epistemics", 
            "object-meta": {
                "object-type": "meta-info", 
                "organization": "CMU"
            }, 
            "object-type": "frame", 
            "sentence": "sent-PMC3085367-cmu-67", 
            "status": "belief", 
            "value": 0.9
        }, 
        {
            "frame-id": "epi-PMC3085367-cmu-nicosys-349", 
            "frame-type": "epistemics", 
            "object-meta": {
                "object-type": "meta-info", 
                "organization": "CMU"
            }, 
            "object-type": "frame", 
            "sentence": "sent-PMC3085367-cmu-68", 
            "status": "belief", 
            "value": 0.9
        }, 
        {
            "frame-id": "epi-PMC3085367-cmu-nicosys-350", 
            "frame-type": "epistemics", 
            "object-meta": {
                "object-type": "meta-info", 
                "organization": "CMU"
            }, 
            "object-type": "frame", 
            "sentence": "sent-PMC3085367-cmu-69", 
            "status": "belief", 
            "value": 0.9
        }, 
        {
            "frame-id": "epi-PMC3085367-cmu-nicosys-351", 
            "frame-type": "epistemics", 
            "object-meta": {
                "object-type": "meta-info", 
                "organization": "CMU"
            }, 
            "object-type": "frame", 
            "sentence": "sent-PMC3085367-cmu-70", 
            "status": "belief", 
            "value": 0.9
        }, 
        {
            "frame-id": "epi-PMC3085367-cmu-nicosys-352", 
            "frame-type": "epistemics", 
            "object-meta": {
                "object-type": "meta-info", 
                "organization": "CMU"
            }, 
            "object-type": "frame", 
            "sentence": "sent-PMC3085367-cmu-71", 
            "status": "belief", 
            "value": 0.9
        }, 
        {
            "frame-id": "epi-PMC3085367-cmu-nicosys-353", 
            "frame-type": "epistemics", 
            "object-meta": {
                "object-type": "meta-info", 
                "organization": "CMU"
            }, 
            "object-type": "frame", 
            "sentence": "sent-PMC3085367-cmu-72", 
            "status": "belief", 
            "value": 0.9
        }, 
        {
            "frame-id": "epi-PMC3085367-cmu-nicosys-354", 
            "frame-type": "epistemics", 
            "object-meta": {
                "object-type": "meta-info", 
                "organization": "CMU"
            }, 
            "object-type": "frame", 
            "sentence": "sent-PMC3085367-cmu-75", 
            "status": "belief", 
            "value": 0.9
        }, 
        {
            "frame-id": "epi-PMC3085367-cmu-nicosys-355", 
            "frame-type": "epistemics", 
            "object-meta": {
                "object-type": "meta-info", 
                "organization": "CMU"
            }, 
            "object-type": "frame", 
            "sentence": "sent-PMC3085367-cmu-76", 
            "status": "belief", 
            "value": 0.9
        }, 
        {
            "frame-id": "epi-PMC3085367-cmu-nicosys-356", 
            "frame-type": "epistemics", 
            "object-meta": {
                "object-type": "meta-info", 
                "organization": "CMU"
            }, 
            "object-type": "frame", 
            "sentence": "sent-PMC3085367-cmu-77", 
            "status": "belief", 
            "value": 0.9
        }, 
        {
            "frame-id": "epi-PMC3085367-cmu-nicosys-357", 
            "frame-type": "epistemics", 
            "object-meta": {
                "object-type": "meta-info", 
                "organization": "CMU"
            }, 
            "object-type": "frame", 
            "sentence": "sent-PMC3085367-cmu-78", 
            "status": "belief", 
            "value": 0.9
        }, 
        {
            "frame-id": "epi-PMC3085367-cmu-nicosys-358", 
            "frame-type": "epistemics", 
            "object-meta": {
                "object-type": "meta-info", 
                "organization": "CMU"
            }, 
            "object-type": "frame", 
            "sentence": "sent-PMC3085367-cmu-79", 
            "status": "belief", 
            "value": 0.9
        }, 
        {
            "frame-id": "epi-PMC3085367-cmu-nicosys-359", 
            "frame-type": "epistemics", 
            "object-meta": {
                "object-type": "meta-info", 
                "organization": "CMU"
            }, 
            "object-type": "frame", 
            "sentence": "sent-PMC3085367-cmu-81", 
            "status": "belief", 
            "value": 0.9
        }, 
        {
            "frame-id": "epi-PMC3085367-cmu-nicosys-360", 
            "frame-type": "epistemics", 
            "object-meta": {
                "object-type": "meta-info", 
                "organization": "CMU"
            }, 
            "object-type": "frame", 
            "sentence": "sent-PMC3085367-cmu-82", 
            "status": "belief", 
            "value": 0.9
        }, 
        {
            "frame-id": "epi-PMC3085367-cmu-nicosys-361", 
            "frame-type": "epistemics", 
            "object-meta": {
                "object-type": "meta-info", 
                "organization": "CMU"
            }, 
            "object-type": "frame", 
            "sentence": "sent-PMC3085367-cmu-83", 
            "status": "belief", 
            "value": 0.9
        }, 
        {
            "frame-id": "epi-PMC3085367-cmu-nicosys-362", 
            "frame-type": "epistemics", 
            "object-meta": {
                "object-type": "meta-info", 
                "organization": "CMU"
            }, 
            "object-type": "frame", 
            "sentence": "sent-PMC3085367-cmu-84", 
            "status": "belief", 
            "value": 0.9
        }, 
        {
            "frame-id": "epi-PMC3085367-cmu-nicosys-363", 
            "frame-type": "epistemics", 
            "object-meta": {
                "object-type": "meta-info", 
                "organization": "CMU"
            }, 
            "object-type": "frame", 
            "sentence": "sent-PMC3085367-cmu-85", 
            "status": "belief", 
            "value": 0.9
        }, 
        {
            "frame-id": "epi-PMC3085367-cmu-nicosys-364", 
            "frame-type": "epistemics", 
            "object-meta": {
                "object-type": "meta-info", 
                "organization": "CMU"
            }, 
            "object-type": "frame", 
            "sentence": "sent-PMC3085367-cmu-86", 
            "status": "belief", 
            "value": 0.9
        }, 
        {
            "frame-id": "epi-PMC3085367-cmu-nicosys-365", 
            "frame-type": "epistemics", 
            "object-meta": {
                "object-type": "meta-info", 
                "organization": "CMU"
            }, 
            "object-type": "frame", 
            "sentence": "sent-PMC3085367-cmu-87", 
            "status": "belief", 
            "value": 0.9
        }, 
        {
            "frame-id": "epi-PMC3085367-cmu-nicosys-366", 
            "frame-type": "epistemics", 
            "object-meta": {
                "object-type": "meta-info", 
                "organization": "CMU"
            }, 
            "object-type": "frame", 
            "sentence": "sent-PMC3085367-cmu-88", 
            "status": "belief", 
            "value": 0.9
        }, 
        {
            "frame-id": "epi-PMC3085367-cmu-nicosys-367", 
            "frame-type": "epistemics", 
            "object-meta": {
                "object-type": "meta-info", 
                "organization": "CMU"
            }, 
            "object-type": "frame", 
            "sentence": "sent-PMC3085367-cmu-89", 
            "status": "belief", 
            "value": 0.9
        }, 
        {
            "frame-id": "epi-PMC3085367-cmu-nicosys-368", 
            "frame-type": "epistemics", 
            "object-meta": {
                "object-type": "meta-info", 
                "organization": "CMU"
            }, 
            "object-type": "frame", 
            "sentence": "sent-PMC3085367-cmu-91", 
            "status": "belief", 
            "value": 0.9
        }, 
        {
            "frame-id": "epi-PMC3085367-cmu-nicosys-369", 
            "frame-type": "epistemics", 
            "object-meta": {
                "object-type": "meta-info", 
                "organization": "CMU"
            }, 
            "object-type": "frame", 
            "sentence": "sent-PMC3085367-cmu-118", 
            "status": "belief", 
            "value": 0.9
        }, 
        {
            "frame-id": "epi-PMC3085367-cmu-nicosys-370", 
            "frame-type": "epistemics", 
            "object-meta": {
                "object-type": "meta-info", 
                "organization": "CMU"
            }, 
            "object-type": "frame", 
            "sentence": "sent-PMC3085367-cmu-93", 
            "status": "belief", 
            "value": 0.9
        }, 
        {
            "frame-id": "epi-PMC3085367-cmu-nicosys-371", 
            "frame-type": "epistemics", 
            "object-meta": {
                "object-type": "meta-info", 
                "organization": "CMU"
            }, 
            "object-type": "frame", 
            "sentence": "sent-PMC3085367-cmu-94", 
            "status": "belief", 
            "value": 0.9
        }, 
        {
            "frame-id": "epi-PMC3085367-cmu-nicosys-372", 
            "frame-type": "epistemics", 
            "object-meta": {
                "object-type": "meta-info", 
                "organization": "CMU"
            }, 
            "object-type": "frame", 
            "sentence": "sent-PMC3085367-cmu-96", 
            "status": "belief", 
            "value": 0.9
        }, 
        {
            "frame-id": "epi-PMC3085367-cmu-nicosys-373", 
            "frame-type": "epistemics", 
            "object-meta": {
                "object-type": "meta-info", 
                "organization": "CMU"
            }, 
            "object-type": "frame", 
            "sentence": "sent-PMC3085367-cmu-97", 
            "status": "belief", 
            "value": 0.9
        }, 
        {
            "frame-id": "epi-PMC3085367-cmu-nicosys-374", 
            "frame-type": "epistemics", 
            "object-meta": {
                "object-type": "meta-info", 
                "organization": "CMU"
            }, 
            "object-type": "frame", 
            "sentence": "sent-PMC3085367-cmu-98", 
            "status": "belief", 
            "value": 0.9
        }, 
        {
            "frame-id": "epi-PMC3085367-cmu-nicosys-375", 
            "frame-type": "epistemics", 
            "object-meta": {
                "object-type": "meta-info", 
                "organization": "CMU"
            }, 
            "object-type": "frame", 
            "sentence": "sent-PMC3085367-cmu-99", 
            "status": "belief", 
            "value": 0.9
        }, 
        {
            "frame-id": "epi-PMC3085367-cmu-nicosys-376", 
            "frame-type": "epistemics", 
            "object-meta": {
                "object-type": "meta-info", 
                "organization": "CMU"
            }, 
            "object-type": "frame", 
            "sentence": "sent-PMC3085367-cmu-100", 
            "status": "belief", 
            "value": 0.9
        }, 
        {
            "frame-id": "epi-PMC3085367-cmu-nicosys-377", 
            "frame-type": "epistemics", 
            "object-meta": {
                "object-type": "meta-info", 
                "organization": "CMU"
            }, 
            "object-type": "frame", 
            "sentence": "sent-PMC3085367-cmu-101", 
            "status": "belief", 
            "value": 0.9
        }, 
        {
            "frame-id": "epi-PMC3085367-cmu-nicosys-378", 
            "frame-type": "epistemics", 
            "object-meta": {
                "object-type": "meta-info", 
                "organization": "CMU"
            }, 
            "object-type": "frame", 
            "sentence": "sent-PMC3085367-cmu-102", 
            "status": "belief", 
            "value": 0.9
        }, 
        {
            "frame-id": "epi-PMC3085367-cmu-nicosys-379", 
            "frame-type": "epistemics", 
            "object-meta": {
                "object-type": "meta-info", 
                "organization": "CMU"
            }, 
            "object-type": "frame", 
            "sentence": "sent-PMC3085367-cmu-103", 
            "status": "belief", 
            "value": 0.9
        }, 
        {
            "frame-id": "epi-PMC3085367-cmu-nicosys-380", 
            "frame-type": "epistemics", 
            "object-meta": {
                "object-type": "meta-info", 
                "organization": "CMU"
            }, 
            "object-type": "frame", 
            "sentence": "sent-PMC3085367-cmu-104", 
            "status": "belief", 
            "value": 0.9
        }, 
        {
            "frame-id": "epi-PMC3085367-cmu-nicosys-381", 
            "frame-type": "epistemics", 
            "object-meta": {
                "object-type": "meta-info", 
                "organization": "CMU"
            }, 
            "object-type": "frame", 
            "sentence": "sent-PMC3085367-cmu-105", 
            "status": "belief", 
            "value": 0.9
        }, 
        {
            "frame-id": "epi-PMC3085367-cmu-nicosys-382", 
            "frame-type": "epistemics", 
            "object-meta": {
                "object-type": "meta-info", 
                "organization": "CMU"
            }, 
            "object-type": "frame", 
            "sentence": "sent-PMC3085367-cmu-106", 
            "status": "belief", 
            "value": 0.9
        }, 
        {
            "frame-id": "epi-PMC3085367-cmu-nicosys-383", 
            "frame-type": "epistemics", 
            "object-meta": {
                "object-type": "meta-info", 
                "organization": "CMU"
            }, 
            "object-type": "frame", 
            "sentence": "sent-PMC3085367-cmu-107", 
            "status": "belief", 
            "value": 0.9
        }, 
        {
            "frame-id": "epi-PMC3085367-cmu-nicosys-384", 
            "frame-type": "epistemics", 
            "object-meta": {
                "object-type": "meta-info", 
                "organization": "CMU"
            }, 
            "object-type": "frame", 
            "sentence": "sent-PMC3085367-cmu-108", 
            "status": "belief", 
            "value": 0.9
        }, 
        {
            "frame-id": "epi-PMC3085367-cmu-nicosys-385", 
            "frame-type": "epistemics", 
            "object-meta": {
                "object-type": "meta-info", 
                "organization": "CMU"
            }, 
            "object-type": "frame", 
            "sentence": "sent-PMC3085367-cmu-109", 
            "status": "belief", 
            "value": 0.9
        }, 
        {
            "frame-id": "epi-PMC3085367-cmu-nicosys-386", 
            "frame-type": "epistemics", 
            "object-meta": {
                "object-type": "meta-info", 
                "organization": "CMU"
            }, 
            "object-type": "frame", 
            "sentence": "sent-PMC3085367-cmu-110", 
            "status": "belief", 
            "value": 0.9
        }, 
        {
            "frame-id": "epi-PMC3085367-cmu-nicosys-387", 
            "frame-type": "epistemics", 
            "object-meta": {
                "object-type": "meta-info", 
                "organization": "CMU"
            }, 
            "object-type": "frame", 
            "sentence": "sent-PMC3085367-cmu-111", 
            "status": "belief", 
            "value": 0.9
        }, 
        {
            "frame-id": "epi-PMC3085367-cmu-nicosys-388", 
            "frame-type": "epistemics", 
            "object-meta": {
                "object-type": "meta-info", 
                "organization": "CMU"
            }, 
            "object-type": "frame", 
            "sentence": "sent-PMC3085367-cmu-112", 
            "status": "belief", 
            "value": 0.9
        }, 
        {
            "frame-id": "epi-PMC3085367-cmu-nicosys-389", 
            "frame-type": "epistemics", 
            "object-meta": {
                "object-type": "meta-info", 
                "organization": "CMU"
            }, 
            "object-type": "frame", 
            "sentence": "sent-PMC3085367-cmu-113", 
            "status": "belief", 
            "value": 0.9
        }, 
        {
            "frame-id": "epi-PMC3085367-cmu-nicosys-390", 
            "frame-type": "epistemics", 
            "object-meta": {
                "object-type": "meta-info", 
                "organization": "CMU"
            }, 
            "object-type": "frame", 
            "sentence": "sent-PMC3085367-cmu-114", 
            "status": "belief", 
            "value": 0.9
        }, 
        {
            "frame-id": "epi-PMC3085367-cmu-nicosys-391", 
            "frame-type": "epistemics", 
            "object-meta": {
                "object-type": "meta-info", 
                "organization": "CMU"
            }, 
            "object-type": "frame", 
            "sentence": "sent-PMC3085367-cmu-115", 
            "status": "belief", 
            "value": 0.9
        }, 
        {
            "frame-id": "epi-PMC3085367-cmu-nicosys-392", 
            "frame-type": "epistemics", 
            "object-meta": {
                "object-type": "meta-info", 
                "organization": "CMU"
            }, 
            "object-type": "frame", 
            "sentence": "sent-PMC3085367-cmu-116", 
            "status": "belief", 
            "value": 0.9
        }, 
        {
            "frame-id": "epi-PMC3085367-cmu-nicosys-393", 
            "frame-type": "epistemics", 
            "object-meta": {
                "object-type": "meta-info", 
                "organization": "CMU"
            }, 
            "object-type": "frame", 
            "sentence": "sent-PMC3085367-cmu-117", 
            "status": "belief", 
            "value": 0.9
        }, 
        {
            "frame-id": "epi-PMC3085367-cmu-nicosys-394", 
            "frame-type": "epistemics", 
            "object-meta": {
                "object-type": "meta-info", 
                "organization": "CMU"
            }, 
            "object-type": "frame", 
            "sentence": "sent-PMC3085367-cmu-118", 
            "status": "belief", 
            "value": 0.9
        }, 
        {
            "frame-id": "epi-PMC3085367-cmu-nicosys-395", 
            "frame-type": "epistemics", 
            "object-meta": {
                "object-type": "meta-info", 
                "organization": "CMU"
            }, 
            "object-type": "frame", 
            "sentence": "sent-PMC3085367-cmu-119", 
            "status": "belief", 
            "value": 0.9
        }, 
        {
            "frame-id": "epi-PMC3085367-cmu-nicosys-396", 
            "frame-type": "epistemics", 
            "object-meta": {
                "object-type": "meta-info", 
                "organization": "CMU"
            }, 
            "object-type": "frame", 
            "sentence": "sent-PMC3085367-cmu-120", 
            "status": "belief", 
            "value": 0.9
        }, 
        {
            "frame-id": "epi-PMC3085367-cmu-nicosys-397", 
            "frame-type": "epistemics", 
            "object-meta": {
                "object-type": "meta-info", 
                "organization": "CMU"
            }, 
            "object-type": "frame", 
            "sentence": "sent-PMC3085367-cmu-121", 
            "status": "belief", 
            "value": 0.9
        }, 
        {
            "frame-id": "epi-PMC3085367-cmu-nicosys-398", 
            "frame-type": "epistemics", 
            "object-meta": {
                "object-type": "meta-info", 
                "organization": "CMU"
            }, 
            "object-type": "frame", 
            "sentence": "sent-PMC3085367-cmu-122", 
            "status": "belief", 
            "value": 0.9
        }, 
        {
            "frame-id": "epi-PMC3085367-cmu-nicosys-399", 
            "frame-type": "epistemics", 
            "object-meta": {
                "object-type": "meta-info", 
                "organization": "CMU"
            }, 
            "object-type": "frame", 
            "sentence": "sent-PMC3085367-cmu-123", 
            "status": "belief", 
            "value": 0.9
        }, 
        {
            "frame-id": "epi-PMC3085367-cmu-nicosys-400", 
            "frame-type": "epistemics", 
            "object-meta": {
                "object-type": "meta-info", 
                "organization": "CMU"
            }, 
            "object-type": "frame", 
            "sentence": "sent-PMC3085367-cmu-124", 
            "status": "belief", 
            "value": 0.9
        }, 
        {
            "frame-id": "epi-PMC3085367-cmu-nicosys-401", 
            "frame-type": "epistemics", 
            "object-meta": {
                "object-type": "meta-info", 
                "organization": "CMU"
            }, 
            "object-type": "frame", 
            "sentence": "sent-PMC3085367-cmu-125", 
            "status": "belief", 
            "value": 0.9
        }, 
        {
            "frame-id": "epi-PMC3085367-cmu-nicosys-402", 
            "frame-type": "epistemics", 
            "object-meta": {
                "object-type": "meta-info", 
                "organization": "CMU"
            }, 
            "object-type": "frame", 
            "sentence": "sent-PMC3085367-cmu-126", 
            "status": "belief", 
            "value": 0.9
        }, 
        {
            "frame-id": "epi-PMC3085367-cmu-nicosys-403", 
            "frame-type": "epistemics", 
            "object-meta": {
                "object-type": "meta-info", 
                "organization": "CMU"
            }, 
            "object-type": "frame", 
            "sentence": "sent-PMC3085367-cmu-127", 
            "status": "belief", 
            "value": 0.9
        }, 
        {
            "frame-id": "epi-PMC3085367-cmu-nicosys-404", 
            "frame-type": "epistemics", 
            "object-meta": {
                "object-type": "meta-info", 
                "organization": "CMU"
            }, 
            "object-type": "frame", 
            "sentence": "sent-PMC3085367-cmu-128", 
            "status": "belief", 
            "value": 0.9
        }, 
        {
            "frame-id": "epi-PMC3085367-cmu-nicosys-405", 
            "frame-type": "epistemics", 
            "object-meta": {
                "object-type": "meta-info", 
                "organization": "CMU"
            }, 
            "object-type": "frame", 
            "sentence": "sent-PMC3085367-cmu-129", 
            "status": "belief", 
            "value": 0.9
        }, 
        {
            "frame-id": "epi-PMC3085367-cmu-nicosys-406", 
            "frame-type": "epistemics", 
            "object-meta": {
                "object-type": "meta-info", 
                "organization": "CMU"
            }, 
            "object-type": "frame", 
            "sentence": "sent-PMC3085367-cmu-86", 
            "status": "belief", 
            "value": 0.9
        }, 
        {
            "frame-id": "epi-PMC3085367-cmu-nicosys-407", 
            "frame-type": "epistemics", 
            "object-meta": {
                "object-type": "meta-info", 
                "organization": "CMU"
            }, 
            "object-type": "frame", 
            "sentence": "sent-PMC3085367-cmu-98", 
            "status": "belief", 
            "value": 0.9
        }, 
        {
            "frame-id": "epi-PMC3085367-cmu-nicosys-408", 
            "frame-type": "epistemics", 
            "object-meta": {
                "object-type": "meta-info", 
                "organization": "CMU"
            }, 
            "object-type": "frame", 
            "sentence": "sent-PMC3085367-cmu-101", 
            "status": "implication", 
            "value": 0.6
        }, 
        {
            "frame-id": "epi-PMC3085367-cmu-nicosys-409", 
            "frame-type": "epistemics", 
            "object-meta": {
                "object-type": "meta-info", 
                "organization": "CMU"
            }, 
            "object-type": "frame", 
            "sentence": "sent-PMC3085367-cmu-110", 
            "status": "belief", 
            "value": 0.9
        }, 
        {
            "frame-id": "epi-PMC3085367-cmu-nicosys-410", 
            "frame-type": "epistemics", 
            "object-meta": {
                "object-type": "meta-info", 
                "organization": "CMU"
            }, 
            "object-type": "frame", 
            "sentence": "sent-PMC3085367-cmu-113", 
            "status": "implication", 
            "value": 0.6
        }, 
        {
            "frame-id": "epi-PMC3085367-cmu-nicosys-411", 
            "frame-type": "epistemics", 
            "object-meta": {
                "object-type": "meta-info", 
                "organization": "CMU"
            }, 
            "object-type": "frame", 
            "sentence": "sent-PMC3085367-cmu-121", 
            "status": "belief", 
            "value": 0.9
        }, 
        {
            "frame-id": "epi-PMC3085367-cmu-nicosys-412", 
            "frame-type": "epistemics", 
            "object-meta": {
                "object-type": "meta-info", 
                "organization": "CMU"
            }, 
            "object-type": "frame", 
            "sentence": "sent-PMC3085367-cmu-2", 
            "status": "implication", 
            "value": 0.6
        }, 
        {
            "frame-id": "epi-PMC3085367-cmu-nicosys-413", 
            "frame-type": "epistemics", 
            "object-meta": {
                "object-type": "meta-info", 
                "organization": "CMU"
            }, 
            "object-type": "frame", 
            "sentence": "sent-PMC3085367-cmu-3", 
            "status": "implication", 
            "value": 0.6
        }, 
        {
            "frame-id": "epi-PMC3085367-cmu-nicosys-414", 
            "frame-type": "epistemics", 
            "object-meta": {
                "object-type": "meta-info", 
                "organization": "CMU"
            }, 
            "object-type": "frame", 
            "sentence": "sent-PMC3085367-cmu-4", 
            "status": "implication", 
            "value": 0.6
        }, 
        {
            "frame-id": "epi-PMC3085367-cmu-nicosys-415", 
            "frame-type": "epistemics", 
            "object-meta": {
                "object-type": "meta-info", 
                "organization": "CMU"
            }, 
            "object-type": "frame", 
            "sentence": "sent-PMC3085367-cmu-5", 
            "status": "implication", 
            "value": 0.6
        }, 
        {
            "frame-id": "epi-PMC3085367-cmu-nicosys-416", 
            "frame-type": "epistemics", 
            "object-meta": {
                "object-type": "meta-info", 
                "organization": "CMU"
            }, 
            "object-type": "frame", 
            "sentence": "sent-PMC3085367-cmu-6", 
            "status": "implication", 
            "value": 0.6
        }, 
        {
            "frame-id": "epi-PMC3085367-cmu-nicosys-417", 
            "frame-type": "epistemics", 
            "object-meta": {
                "object-type": "meta-info", 
                "organization": "CMU"
            }, 
            "object-type": "frame", 
            "sentence": "sent-PMC3085367-cmu-7", 
            "status": "implication", 
            "value": 0.6
        }, 
        {
            "frame-id": "epi-PMC3085367-cmu-nicosys-418", 
            "frame-type": "epistemics", 
            "object-meta": {
                "object-type": "meta-info", 
                "organization": "CMU"
            }, 
            "object-type": "frame", 
            "sentence": "sent-PMC3085367-cmu-8", 
            "status": "implication", 
            "value": 0.6
        }, 
        {
            "frame-id": "epi-PMC3085367-cmu-nicosys-419", 
            "frame-type": "epistemics", 
            "object-meta": {
                "object-type": "meta-info", 
                "organization": "CMU"
            }, 
            "object-type": "frame", 
            "sentence": "sent-PMC3085367-cmu-9", 
            "status": "implication", 
            "value": 0.6
        }, 
        {
            "frame-id": "epi-PMC3085367-cmu-nicosys-420", 
            "frame-type": "epistemics", 
            "object-meta": {
                "object-type": "meta-info", 
                "organization": "CMU"
            }, 
            "object-type": "frame", 
            "sentence": "sent-PMC3085367-cmu-10", 
            "status": "implication", 
            "value": 0.6
        }, 
        {
            "frame-id": "epi-PMC3085367-cmu-nicosys-421", 
            "frame-type": "epistemics", 
            "object-meta": {
                "object-type": "meta-info", 
                "organization": "CMU"
            }, 
            "object-type": "frame", 
            "sentence": "sent-PMC3085367-cmu-11", 
            "status": "implication", 
            "value": 0.6
        }, 
        {
            "frame-id": "epi-PMC3085367-cmu-nicosys-422", 
            "frame-type": "epistemics", 
            "object-meta": {
                "object-type": "meta-info", 
                "organization": "CMU"
            }, 
            "object-type": "frame", 
            "sentence": "sent-PMC3085367-cmu-12", 
            "status": "implication", 
            "value": 0.6
        }, 
        {
            "frame-id": "epi-PMC3085367-cmu-nicosys-423", 
            "frame-type": "epistemics", 
            "object-meta": {
                "object-type": "meta-info", 
                "organization": "CMU"
            }, 
            "object-type": "frame", 
            "sentence": "sent-PMC3085367-cmu-13", 
            "status": "implication", 
            "value": 0.6
        }, 
        {
            "frame-id": "epi-PMC3085367-cmu-nicosys-424", 
            "frame-type": "epistemics", 
            "object-meta": {
                "object-type": "meta-info", 
                "organization": "CMU"
            }, 
            "object-type": "frame", 
            "sentence": "sent-PMC3085367-cmu-14", 
            "status": "implication", 
            "value": 0.6
        }, 
        {
            "frame-id": "epi-PMC3085367-cmu-nicosys-425", 
            "frame-type": "epistemics", 
            "object-meta": {
                "object-type": "meta-info", 
                "organization": "CMU"
            }, 
            "object-type": "frame", 
            "sentence": "sent-PMC3085367-cmu-15", 
            "status": "implication", 
            "value": 0.6
        }, 
        {
            "frame-id": "epi-PMC3085367-cmu-nicosys-426", 
            "frame-type": "epistemics", 
            "object-meta": {
                "object-type": "meta-info", 
                "organization": "CMU"
            }, 
            "object-type": "frame", 
            "sentence": "sent-PMC3085367-cmu-16", 
            "status": "implication", 
            "value": 0.6
        }, 
        {
            "frame-id": "epi-PMC3085367-cmu-nicosys-427", 
            "frame-type": "epistemics", 
            "object-meta": {
                "object-type": "meta-info", 
                "organization": "CMU"
            }, 
            "object-type": "frame", 
            "sentence": "sent-PMC3085367-cmu-17", 
            "status": "implication", 
            "value": 0.6
        }, 
        {
            "frame-id": "epi-PMC3085367-cmu-nicosys-428", 
            "frame-type": "epistemics", 
            "object-meta": {
                "object-type": "meta-info", 
                "organization": "CMU"
            }, 
            "object-type": "frame", 
            "sentence": "sent-PMC3085367-cmu-18", 
            "status": "implication", 
            "value": 0.6
        }, 
        {
            "frame-id": "epi-PMC3085367-cmu-nicosys-429", 
            "frame-type": "epistemics", 
            "object-meta": {
                "object-type": "meta-info", 
                "organization": "CMU"
            }, 
            "object-type": "frame", 
            "sentence": "sent-PMC3085367-cmu-19", 
            "status": "implication", 
            "value": 0.6
        }, 
        {
            "frame-id": "epi-PMC3085367-cmu-nicosys-430", 
            "frame-type": "epistemics", 
            "object-meta": {
                "object-type": "meta-info", 
                "organization": "CMU"
            }, 
            "object-type": "frame", 
            "sentence": "sent-PMC3085367-cmu-20", 
            "status": "implication", 
            "value": 0.6
        }, 
        {
            "frame-id": "epi-PMC3085367-cmu-nicosys-431", 
            "frame-type": "epistemics", 
            "object-meta": {
                "object-type": "meta-info", 
                "organization": "CMU"
            }, 
            "object-type": "frame", 
            "sentence": "sent-PMC3085367-cmu-23", 
            "status": "implication", 
            "value": 0.6
        }, 
        {
            "frame-id": "epi-PMC3085367-cmu-nicosys-432", 
            "frame-type": "epistemics", 
            "object-meta": {
                "object-type": "meta-info", 
                "organization": "CMU"
            }, 
            "object-type": "frame", 
            "sentence": "sent-PMC3085367-cmu-24", 
            "status": "implication", 
            "value": 0.6
        }, 
        {
            "frame-id": "epi-PMC3085367-cmu-nicosys-433", 
            "frame-type": "epistemics", 
            "object-meta": {
                "object-type": "meta-info", 
                "organization": "CMU"
            }, 
            "object-type": "frame", 
            "sentence": "sent-PMC3085367-cmu-25", 
            "status": "implication", 
            "value": 0.6
        }, 
        {
            "frame-id": "epi-PMC3085367-cmu-nicosys-434", 
            "frame-type": "epistemics", 
            "object-meta": {
                "object-type": "meta-info", 
                "organization": "CMU"
            }, 
            "object-type": "frame", 
            "sentence": "sent-PMC3085367-cmu-26", 
            "status": "implication", 
            "value": 0.6
        }, 
        {
            "frame-id": "epi-PMC3085367-cmu-nicosys-435", 
            "frame-type": "epistemics", 
            "object-meta": {
                "object-type": "meta-info", 
                "organization": "CMU"
            }, 
            "object-type": "frame", 
            "sentence": "sent-PMC3085367-cmu-27", 
            "status": "implication", 
            "value": 0.6
        }, 
        {
            "frame-id": "epi-PMC3085367-cmu-nicosys-436", 
            "frame-type": "epistemics", 
            "object-meta": {
                "object-type": "meta-info", 
                "organization": "CMU"
            }, 
            "object-type": "frame", 
            "sentence": "sent-PMC3085367-cmu-28", 
            "status": "implication", 
            "value": 0.6
        }, 
        {
            "frame-id": "epi-PMC3085367-cmu-nicosys-437", 
            "frame-type": "epistemics", 
            "object-meta": {
                "object-type": "meta-info", 
                "organization": "CMU"
            }, 
            "object-type": "frame", 
            "sentence": "sent-PMC3085367-cmu-29", 
            "status": "implication", 
            "value": 0.6
        }, 
        {
            "frame-id": "epi-PMC3085367-cmu-nicosys-438", 
            "frame-type": "epistemics", 
            "object-meta": {
                "object-type": "meta-info", 
                "organization": "CMU"
            }, 
            "object-type": "frame", 
            "sentence": "sent-PMC3085367-cmu-30", 
            "status": "implication", 
            "value": 0.6
        }, 
        {
            "frame-id": "epi-PMC3085367-cmu-nicosys-439", 
            "frame-type": "epistemics", 
            "object-meta": {
                "object-type": "meta-info", 
                "organization": "CMU"
            }, 
            "object-type": "frame", 
            "sentence": "sent-PMC3085367-cmu-32", 
            "status": "implication", 
            "value": 0.6
        }, 
        {
            "frame-id": "epi-PMC3085367-cmu-nicosys-440", 
            "frame-type": "epistemics", 
            "object-meta": {
                "object-type": "meta-info", 
                "organization": "CMU"
            }, 
            "object-type": "frame", 
            "sentence": "sent-PMC3085367-cmu-33", 
            "status": "implication", 
            "value": 0.6
        }, 
        {
            "frame-id": "epi-PMC3085367-cmu-nicosys-441", 
            "frame-type": "epistemics", 
            "object-meta": {
                "object-type": "meta-info", 
                "organization": "CMU"
            }, 
            "object-type": "frame", 
            "sentence": "sent-PMC3085367-cmu-34", 
            "status": "implication", 
            "value": 0.6
        }, 
        {
            "frame-id": "epi-PMC3085367-cmu-nicosys-442", 
            "frame-type": "epistemics", 
            "object-meta": {
                "object-type": "meta-info", 
                "organization": "CMU"
            }, 
            "object-type": "frame", 
            "sentence": "sent-PMC3085367-cmu-35", 
            "status": "implication", 
            "value": 0.6
        }, 
        {
            "frame-id": "epi-PMC3085367-cmu-nicosys-443", 
            "frame-type": "epistemics", 
            "object-meta": {
                "object-type": "meta-info", 
                "organization": "CMU"
            }, 
            "object-type": "frame", 
            "sentence": "sent-PMC3085367-cmu-36", 
            "status": "implication", 
            "value": 0.6
        }, 
        {
            "frame-id": "epi-PMC3085367-cmu-nicosys-444", 
            "frame-type": "epistemics", 
            "object-meta": {
                "object-type": "meta-info", 
                "organization": "CMU"
            }, 
            "object-type": "frame", 
            "sentence": "sent-PMC3085367-cmu-37", 
            "status": "implication", 
            "value": 0.6
        }, 
        {
            "frame-id": "epi-PMC3085367-cmu-nicosys-445", 
            "frame-type": "epistemics", 
            "object-meta": {
                "object-type": "meta-info", 
                "organization": "CMU"
            }, 
            "object-type": "frame", 
            "sentence": "sent-PMC3085367-cmu-38", 
            "status": "implication", 
            "value": 0.6
        }, 
        {
            "frame-id": "epi-PMC3085367-cmu-nicosys-446", 
            "frame-type": "epistemics", 
            "object-meta": {
                "object-type": "meta-info", 
                "organization": "CMU"
            }, 
            "object-type": "frame", 
            "sentence": "sent-PMC3085367-cmu-39", 
            "status": "implication", 
            "value": 0.6
        }, 
        {
            "frame-id": "epi-PMC3085367-cmu-nicosys-447", 
            "frame-type": "epistemics", 
            "object-meta": {
                "object-type": "meta-info", 
                "organization": "CMU"
            }, 
            "object-type": "frame", 
            "sentence": "sent-PMC3085367-cmu-41", 
            "status": "implication", 
            "value": 0.6
        }, 
        {
            "frame-id": "epi-PMC3085367-cmu-nicosys-448", 
            "frame-type": "epistemics", 
            "object-meta": {
                "object-type": "meta-info", 
                "organization": "CMU"
            }, 
            "object-type": "frame", 
            "sentence": "sent-PMC3085367-cmu-42", 
            "status": "implication", 
            "value": 0.6
        }, 
        {
            "frame-id": "epi-PMC3085367-cmu-nicosys-449", 
            "frame-type": "epistemics", 
            "object-meta": {
                "object-type": "meta-info", 
                "organization": "CMU"
            }, 
            "object-type": "frame", 
            "sentence": "sent-PMC3085367-cmu-43", 
            "status": "implication", 
            "value": 0.6
        }, 
        {
            "frame-id": "epi-PMC3085367-cmu-nicosys-450", 
            "frame-type": "epistemics", 
            "object-meta": {
                "object-type": "meta-info", 
                "organization": "CMU"
            }, 
            "object-type": "frame", 
            "sentence": "sent-PMC3085367-cmu-44", 
            "status": "implication", 
            "value": 0.6
        }, 
        {
            "frame-id": "epi-PMC3085367-cmu-nicosys-451", 
            "frame-type": "epistemics", 
            "object-meta": {
                "object-type": "meta-info", 
                "organization": "CMU"
            }, 
            "object-type": "frame", 
            "sentence": "sent-PMC3085367-cmu-46", 
            "status": "implication", 
            "value": 0.6
        }, 
        {
            "frame-id": "epi-PMC3085367-cmu-nicosys-452", 
            "frame-type": "epistemics", 
            "object-meta": {
                "object-type": "meta-info", 
                "organization": "CMU"
            }, 
            "object-type": "frame", 
            "sentence": "sent-PMC3085367-cmu-47", 
            "status": "implication", 
            "value": 0.6
        }, 
        {
            "frame-id": "epi-PMC3085367-cmu-nicosys-453", 
            "frame-type": "epistemics", 
            "object-meta": {
                "object-type": "meta-info", 
                "organization": "CMU"
            }, 
            "object-type": "frame", 
            "sentence": "sent-PMC3085367-cmu-48", 
            "status": "implication", 
            "value": 0.6
        }, 
        {
            "frame-id": "epi-PMC3085367-cmu-nicosys-454", 
            "frame-type": "epistemics", 
            "object-meta": {
                "object-type": "meta-info", 
                "organization": "CMU"
            }, 
            "object-type": "frame", 
            "sentence": "sent-PMC3085367-cmu-49", 
            "status": "implication", 
            "value": 0.6
        }, 
        {
            "frame-id": "epi-PMC3085367-cmu-nicosys-455", 
            "frame-type": "epistemics", 
            "object-meta": {
                "object-type": "meta-info", 
                "organization": "CMU"
            }, 
            "object-type": "frame", 
            "sentence": "sent-PMC3085367-cmu-51", 
            "status": "implication", 
            "value": 0.6
        }, 
        {
            "frame-id": "epi-PMC3085367-cmu-nicosys-456", 
            "frame-type": "epistemics", 
            "object-meta": {
                "object-type": "meta-info", 
                "organization": "CMU"
            }, 
            "object-type": "frame", 
            "sentence": "sent-PMC3085367-cmu-52", 
            "status": "implication", 
            "value": 0.6
        }, 
        {
            "frame-id": "epi-PMC3085367-cmu-nicosys-457", 
            "frame-type": "epistemics", 
            "object-meta": {
                "object-type": "meta-info", 
                "organization": "CMU"
            }, 
            "object-type": "frame", 
            "sentence": "sent-PMC3085367-cmu-53", 
            "status": "implication", 
            "value": 0.6
        }, 
        {
            "frame-id": "epi-PMC3085367-cmu-nicosys-458", 
            "frame-type": "epistemics", 
            "object-meta": {
                "object-type": "meta-info", 
                "organization": "CMU"
            }, 
            "object-type": "frame", 
            "sentence": "sent-PMC3085367-cmu-54", 
            "status": "implication", 
            "value": 0.6
        }, 
        {
            "frame-id": "epi-PMC3085367-cmu-nicosys-459", 
            "frame-type": "epistemics", 
            "object-meta": {
                "object-type": "meta-info", 
                "organization": "CMU"
            }, 
            "object-type": "frame", 
            "sentence": "sent-PMC3085367-cmu-55", 
            "status": "implication", 
            "value": 0.6
        }, 
        {
            "frame-id": "epi-PMC3085367-cmu-nicosys-460", 
            "frame-type": "epistemics", 
            "object-meta": {
                "object-type": "meta-info", 
                "organization": "CMU"
            }, 
            "object-type": "frame", 
            "sentence": "sent-PMC3085367-cmu-56", 
            "status": "implication", 
            "value": 0.6
        }, 
        {
            "frame-id": "epi-PMC3085367-cmu-nicosys-461", 
            "frame-type": "epistemics", 
            "object-meta": {
                "object-type": "meta-info", 
                "organization": "CMU"
            }, 
            "object-type": "frame", 
            "sentence": "sent-PMC3085367-cmu-57", 
            "status": "implication", 
            "value": 0.6
        }, 
        {
            "frame-id": "epi-PMC3085367-cmu-nicosys-462", 
            "frame-type": "epistemics", 
            "object-meta": {
                "object-type": "meta-info", 
                "organization": "CMU"
            }, 
            "object-type": "frame", 
            "sentence": "sent-PMC3085367-cmu-58", 
            "status": "implication", 
            "value": 0.6
        }, 
        {
            "frame-id": "epi-PMC3085367-cmu-nicosys-463", 
            "frame-type": "epistemics", 
            "object-meta": {
                "object-type": "meta-info", 
                "organization": "CMU"
            }, 
            "object-type": "frame", 
            "sentence": "sent-PMC3085367-cmu-60", 
            "status": "implication", 
            "value": 0.6
        }, 
        {
            "frame-id": "epi-PMC3085367-cmu-nicosys-464", 
            "frame-type": "epistemics", 
            "object-meta": {
                "object-type": "meta-info", 
                "organization": "CMU"
            }, 
            "object-type": "frame", 
            "sentence": "sent-PMC3085367-cmu-61", 
            "status": "implication", 
            "value": 0.6
        }, 
        {
            "frame-id": "epi-PMC3085367-cmu-nicosys-465", 
            "frame-type": "epistemics", 
            "object-meta": {
                "object-type": "meta-info", 
                "organization": "CMU"
            }, 
            "object-type": "frame", 
            "sentence": "sent-PMC3085367-cmu-62", 
            "status": "implication", 
            "value": 0.6
        }, 
        {
            "frame-id": "epi-PMC3085367-cmu-nicosys-466", 
            "frame-type": "epistemics", 
            "object-meta": {
                "object-type": "meta-info", 
                "organization": "CMU"
            }, 
            "object-type": "frame", 
            "sentence": "sent-PMC3085367-cmu-63", 
            "status": "implication", 
            "value": 0.6
        }, 
        {
            "frame-id": "epi-PMC3085367-cmu-nicosys-467", 
            "frame-type": "epistemics", 
            "object-meta": {
                "object-type": "meta-info", 
                "organization": "CMU"
            }, 
            "object-type": "frame", 
            "sentence": "sent-PMC3085367-cmu-64", 
            "status": "implication", 
            "value": 0.6
        }, 
        {
            "frame-id": "epi-PMC3085367-cmu-nicosys-468", 
            "frame-type": "epistemics", 
            "object-meta": {
                "object-type": "meta-info", 
                "organization": "CMU"
            }, 
            "object-type": "frame", 
            "sentence": "sent-PMC3085367-cmu-65", 
            "status": "implication", 
            "value": 0.6
        }, 
        {
            "frame-id": "epi-PMC3085367-cmu-nicosys-469", 
            "frame-type": "epistemics", 
            "object-meta": {
                "object-type": "meta-info", 
                "organization": "CMU"
            }, 
            "object-type": "frame", 
            "sentence": "sent-PMC3085367-cmu-67", 
            "status": "implication", 
            "value": 0.6
        }, 
        {
            "frame-id": "epi-PMC3085367-cmu-nicosys-470", 
            "frame-type": "epistemics", 
            "object-meta": {
                "object-type": "meta-info", 
                "organization": "CMU"
            }, 
            "object-type": "frame", 
            "sentence": "sent-PMC3085367-cmu-68", 
            "status": "implication", 
            "value": 0.6
        }, 
        {
            "frame-id": "epi-PMC3085367-cmu-nicosys-471", 
            "frame-type": "epistemics", 
            "object-meta": {
                "object-type": "meta-info", 
                "organization": "CMU"
            }, 
            "object-type": "frame", 
            "sentence": "sent-PMC3085367-cmu-69", 
            "status": "implication", 
            "value": 0.6
        }, 
        {
            "frame-id": "epi-PMC3085367-cmu-nicosys-472", 
            "frame-type": "epistemics", 
            "object-meta": {
                "object-type": "meta-info", 
                "organization": "CMU"
            }, 
            "object-type": "frame", 
            "sentence": "sent-PMC3085367-cmu-70", 
            "status": "implication", 
            "value": 0.6
        }, 
        {
            "frame-id": "epi-PMC3085367-cmu-nicosys-473", 
            "frame-type": "epistemics", 
            "object-meta": {
                "object-type": "meta-info", 
                "organization": "CMU"
            }, 
            "object-type": "frame", 
            "sentence": "sent-PMC3085367-cmu-71", 
            "status": "implication", 
            "value": 0.6
        }, 
        {
            "frame-id": "epi-PMC3085367-cmu-nicosys-474", 
            "frame-type": "epistemics", 
            "object-meta": {
                "object-type": "meta-info", 
                "organization": "CMU"
            }, 
            "object-type": "frame", 
            "sentence": "sent-PMC3085367-cmu-72", 
            "status": "implication", 
            "value": 0.6
        }, 
        {
            "frame-id": "epi-PMC3085367-cmu-nicosys-475", 
            "frame-type": "epistemics", 
            "object-meta": {
                "object-type": "meta-info", 
                "organization": "CMU"
            }, 
            "object-type": "frame", 
            "sentence": "sent-PMC3085367-cmu-75", 
            "status": "implication", 
            "value": 0.6
        }, 
        {
            "frame-id": "epi-PMC3085367-cmu-nicosys-476", 
            "frame-type": "epistemics", 
            "object-meta": {
                "object-type": "meta-info", 
                "organization": "CMU"
            }, 
            "object-type": "frame", 
            "sentence": "sent-PMC3085367-cmu-76", 
            "status": "implication", 
            "value": 0.6
        }, 
        {
            "frame-id": "epi-PMC3085367-cmu-nicosys-477", 
            "frame-type": "epistemics", 
            "object-meta": {
                "object-type": "meta-info", 
                "organization": "CMU"
            }, 
            "object-type": "frame", 
            "sentence": "sent-PMC3085367-cmu-77", 
            "status": "implication", 
            "value": 0.6
        }, 
        {
            "frame-id": "epi-PMC3085367-cmu-nicosys-478", 
            "frame-type": "epistemics", 
            "object-meta": {
                "object-type": "meta-info", 
                "organization": "CMU"
            }, 
            "object-type": "frame", 
            "sentence": "sent-PMC3085367-cmu-78", 
            "status": "implication", 
            "value": 0.6
        }, 
        {
            "frame-id": "epi-PMC3085367-cmu-nicosys-479", 
            "frame-type": "epistemics", 
            "object-meta": {
                "object-type": "meta-info", 
                "organization": "CMU"
            }, 
            "object-type": "frame", 
            "sentence": "sent-PMC3085367-cmu-79", 
            "status": "implication", 
            "value": 0.6
        }, 
        {
            "frame-id": "epi-PMC3085367-cmu-nicosys-480", 
            "frame-type": "epistemics", 
            "object-meta": {
                "object-type": "meta-info", 
                "organization": "CMU"
            }, 
            "object-type": "frame", 
            "sentence": "sent-PMC3085367-cmu-81", 
            "status": "implication", 
            "value": 0.6
        }, 
        {
            "frame-id": "epi-PMC3085367-cmu-nicosys-481", 
            "frame-type": "epistemics", 
            "object-meta": {
                "object-type": "meta-info", 
                "organization": "CMU"
            }, 
            "object-type": "frame", 
            "sentence": "sent-PMC3085367-cmu-82", 
            "status": "implication", 
            "value": 0.6
        }, 
        {
            "frame-id": "epi-PMC3085367-cmu-nicosys-482", 
            "frame-type": "epistemics", 
            "object-meta": {
                "object-type": "meta-info", 
                "organization": "CMU"
            }, 
            "object-type": "frame", 
            "sentence": "sent-PMC3085367-cmu-83", 
            "status": "implication", 
            "value": 0.6
        }, 
        {
            "frame-id": "epi-PMC3085367-cmu-nicosys-483", 
            "frame-type": "epistemics", 
            "object-meta": {
                "object-type": "meta-info", 
                "organization": "CMU"
            }, 
            "object-type": "frame", 
            "sentence": "sent-PMC3085367-cmu-84", 
            "status": "implication", 
            "value": 0.6
        }, 
        {
            "frame-id": "epi-PMC3085367-cmu-nicosys-484", 
            "frame-type": "epistemics", 
            "object-meta": {
                "object-type": "meta-info", 
                "organization": "CMU"
            }, 
            "object-type": "frame", 
            "sentence": "sent-PMC3085367-cmu-85", 
            "status": "implication", 
            "value": 0.6
        }, 
        {
            "frame-id": "epi-PMC3085367-cmu-nicosys-485", 
            "frame-type": "epistemics", 
            "object-meta": {
                "object-type": "meta-info", 
                "organization": "CMU"
            }, 
            "object-type": "frame", 
            "sentence": "sent-PMC3085367-cmu-86", 
            "status": "implication", 
            "value": 0.6
        }, 
        {
            "frame-id": "epi-PMC3085367-cmu-nicosys-486", 
            "frame-type": "epistemics", 
            "object-meta": {
                "object-type": "meta-info", 
                "organization": "CMU"
            }, 
            "object-type": "frame", 
            "sentence": "sent-PMC3085367-cmu-87", 
            "status": "implication", 
            "value": 0.6
        }, 
        {
            "frame-id": "epi-PMC3085367-cmu-nicosys-487", 
            "frame-type": "epistemics", 
            "object-meta": {
                "object-type": "meta-info", 
                "organization": "CMU"
            }, 
            "object-type": "frame", 
            "sentence": "sent-PMC3085367-cmu-88", 
            "status": "implication", 
            "value": 0.6
        }, 
        {
            "frame-id": "epi-PMC3085367-cmu-nicosys-488", 
            "frame-type": "epistemics", 
            "object-meta": {
                "object-type": "meta-info", 
                "organization": "CMU"
            }, 
            "object-type": "frame", 
            "sentence": "sent-PMC3085367-cmu-89", 
            "status": "implication", 
            "value": 0.6
        }, 
        {
            "frame-id": "epi-PMC3085367-cmu-nicosys-489", 
            "frame-type": "epistemics", 
            "object-meta": {
                "object-type": "meta-info", 
                "organization": "CMU"
            }, 
            "object-type": "frame", 
            "sentence": "sent-PMC3085367-cmu-91", 
            "status": "implication", 
            "value": 0.6
        }, 
        {
            "frame-id": "epi-PMC3085367-cmu-nicosys-490", 
            "frame-type": "epistemics", 
            "object-meta": {
                "object-type": "meta-info", 
                "organization": "CMU"
            }, 
            "object-type": "frame", 
            "sentence": "sent-PMC3085367-cmu-118", 
            "status": "implication", 
            "value": 0.6
        }, 
        {
            "frame-id": "epi-PMC3085367-cmu-nicosys-491", 
            "frame-type": "epistemics", 
            "object-meta": {
                "object-type": "meta-info", 
                "organization": "CMU"
            }, 
            "object-type": "frame", 
            "sentence": "sent-PMC3085367-cmu-93", 
            "status": "implication", 
            "value": 0.6
        }, 
        {
            "frame-id": "epi-PMC3085367-cmu-nicosys-492", 
            "frame-type": "epistemics", 
            "object-meta": {
                "object-type": "meta-info", 
                "organization": "CMU"
            }, 
            "object-type": "frame", 
            "sentence": "sent-PMC3085367-cmu-94", 
            "status": "implication", 
            "value": 0.6
        }, 
        {
            "frame-id": "epi-PMC3085367-cmu-nicosys-493", 
            "frame-type": "epistemics", 
            "object-meta": {
                "object-type": "meta-info", 
                "organization": "CMU"
            }, 
            "object-type": "frame", 
            "sentence": "sent-PMC3085367-cmu-96", 
            "status": "implication", 
            "value": 0.6
        }, 
        {
            "frame-id": "epi-PMC3085367-cmu-nicosys-494", 
            "frame-type": "epistemics", 
            "object-meta": {
                "object-type": "meta-info", 
                "organization": "CMU"
            }, 
            "object-type": "frame", 
            "sentence": "sent-PMC3085367-cmu-97", 
            "status": "implication", 
            "value": 0.6
        }, 
        {
            "frame-id": "epi-PMC3085367-cmu-nicosys-495", 
            "frame-type": "epistemics", 
            "object-meta": {
                "object-type": "meta-info", 
                "organization": "CMU"
            }, 
            "object-type": "frame", 
            "sentence": "sent-PMC3085367-cmu-98", 
            "status": "implication", 
            "value": 0.6
        }, 
        {
            "frame-id": "epi-PMC3085367-cmu-nicosys-496", 
            "frame-type": "epistemics", 
            "object-meta": {
                "object-type": "meta-info", 
                "organization": "CMU"
            }, 
            "object-type": "frame", 
            "sentence": "sent-PMC3085367-cmu-99", 
            "status": "implication", 
            "value": 0.6
        }, 
        {
            "frame-id": "epi-PMC3085367-cmu-nicosys-497", 
            "frame-type": "epistemics", 
            "object-meta": {
                "object-type": "meta-info", 
                "organization": "CMU"
            }, 
            "object-type": "frame", 
            "sentence": "sent-PMC3085367-cmu-100", 
            "status": "implication", 
            "value": 0.6
        }, 
        {
            "frame-id": "epi-PMC3085367-cmu-nicosys-498", 
            "frame-type": "epistemics", 
            "object-meta": {
                "object-type": "meta-info", 
                "organization": "CMU"
            }, 
            "object-type": "frame", 
            "sentence": "sent-PMC3085367-cmu-101", 
            "status": "implication", 
            "value": 0.6
        }, 
        {
            "frame-id": "epi-PMC3085367-cmu-nicosys-499", 
            "frame-type": "epistemics", 
            "object-meta": {
                "object-type": "meta-info", 
                "organization": "CMU"
            }, 
            "object-type": "frame", 
            "sentence": "sent-PMC3085367-cmu-102", 
            "status": "implication", 
            "value": 0.6
        }, 
        {
            "frame-id": "epi-PMC3085367-cmu-nicosys-500", 
            "frame-type": "epistemics", 
            "object-meta": {
                "object-type": "meta-info", 
                "organization": "CMU"
            }, 
            "object-type": "frame", 
            "sentence": "sent-PMC3085367-cmu-103", 
            "status": "implication", 
            "value": 0.6
        }, 
        {
            "frame-id": "epi-PMC3085367-cmu-nicosys-501", 
            "frame-type": "epistemics", 
            "object-meta": {
                "object-type": "meta-info", 
                "organization": "CMU"
            }, 
            "object-type": "frame", 
            "sentence": "sent-PMC3085367-cmu-104", 
            "status": "implication", 
            "value": 0.6
        }, 
        {
            "frame-id": "epi-PMC3085367-cmu-nicosys-502", 
            "frame-type": "epistemics", 
            "object-meta": {
                "object-type": "meta-info", 
                "organization": "CMU"
            }, 
            "object-type": "frame", 
            "sentence": "sent-PMC3085367-cmu-105", 
            "status": "implication", 
            "value": 0.6
        }, 
        {
            "frame-id": "epi-PMC3085367-cmu-nicosys-503", 
            "frame-type": "epistemics", 
            "object-meta": {
                "object-type": "meta-info", 
                "organization": "CMU"
            }, 
            "object-type": "frame", 
            "sentence": "sent-PMC3085367-cmu-106", 
            "status": "implication", 
            "value": 0.6
        }, 
        {
            "frame-id": "epi-PMC3085367-cmu-nicosys-504", 
            "frame-type": "epistemics", 
            "object-meta": {
                "object-type": "meta-info", 
                "organization": "CMU"
            }, 
            "object-type": "frame", 
            "sentence": "sent-PMC3085367-cmu-107", 
            "status": "implication", 
            "value": 0.6
        }, 
        {
            "frame-id": "epi-PMC3085367-cmu-nicosys-505", 
            "frame-type": "epistemics", 
            "object-meta": {
                "object-type": "meta-info", 
                "organization": "CMU"
            }, 
            "object-type": "frame", 
            "sentence": "sent-PMC3085367-cmu-108", 
            "status": "implication", 
            "value": 0.6
        }, 
        {
            "frame-id": "epi-PMC3085367-cmu-nicosys-506", 
            "frame-type": "epistemics", 
            "object-meta": {
                "object-type": "meta-info", 
                "organization": "CMU"
            }, 
            "object-type": "frame", 
            "sentence": "sent-PMC3085367-cmu-109", 
            "status": "implication", 
            "value": 0.6
        }, 
        {
            "frame-id": "epi-PMC3085367-cmu-nicosys-507", 
            "frame-type": "epistemics", 
            "object-meta": {
                "object-type": "meta-info", 
                "organization": "CMU"
            }, 
            "object-type": "frame", 
            "sentence": "sent-PMC3085367-cmu-110", 
            "status": "implication", 
            "value": 0.6
        }, 
        {
            "frame-id": "epi-PMC3085367-cmu-nicosys-508", 
            "frame-type": "epistemics", 
            "object-meta": {
                "object-type": "meta-info", 
                "organization": "CMU"
            }, 
            "object-type": "frame", 
            "sentence": "sent-PMC3085367-cmu-111", 
            "status": "implication", 
            "value": 0.6
        }, 
        {
            "frame-id": "epi-PMC3085367-cmu-nicosys-509", 
            "frame-type": "epistemics", 
            "object-meta": {
                "object-type": "meta-info", 
                "organization": "CMU"
            }, 
            "object-type": "frame", 
            "sentence": "sent-PMC3085367-cmu-112", 
            "status": "implication", 
            "value": 0.6
        }, 
        {
            "frame-id": "epi-PMC3085367-cmu-nicosys-510", 
            "frame-type": "epistemics", 
            "object-meta": {
                "object-type": "meta-info", 
                "organization": "CMU"
            }, 
            "object-type": "frame", 
            "sentence": "sent-PMC3085367-cmu-113", 
            "status": "implication", 
            "value": 0.6
        }, 
        {
            "frame-id": "epi-PMC3085367-cmu-nicosys-511", 
            "frame-type": "epistemics", 
            "object-meta": {
                "object-type": "meta-info", 
                "organization": "CMU"
            }, 
            "object-type": "frame", 
            "sentence": "sent-PMC3085367-cmu-114", 
            "status": "implication", 
            "value": 0.6
        }, 
        {
            "frame-id": "epi-PMC3085367-cmu-nicosys-512", 
            "frame-type": "epistemics", 
            "object-meta": {
                "object-type": "meta-info", 
                "organization": "CMU"
            }, 
            "object-type": "frame", 
            "sentence": "sent-PMC3085367-cmu-115", 
            "status": "implication", 
            "value": 0.6
        }, 
        {
            "frame-id": "epi-PMC3085367-cmu-nicosys-513", 
            "frame-type": "epistemics", 
            "object-meta": {
                "object-type": "meta-info", 
                "organization": "CMU"
            }, 
            "object-type": "frame", 
            "sentence": "sent-PMC3085367-cmu-116", 
            "status": "implication", 
            "value": 0.6
        }, 
        {
            "frame-id": "epi-PMC3085367-cmu-nicosys-514", 
            "frame-type": "epistemics", 
            "object-meta": {
                "object-type": "meta-info", 
                "organization": "CMU"
            }, 
            "object-type": "frame", 
            "sentence": "sent-PMC3085367-cmu-117", 
            "status": "implication", 
            "value": 0.6
        }, 
        {
            "frame-id": "epi-PMC3085367-cmu-nicosys-515", 
            "frame-type": "epistemics", 
            "object-meta": {
                "object-type": "meta-info", 
                "organization": "CMU"
            }, 
            "object-type": "frame", 
            "sentence": "sent-PMC3085367-cmu-118", 
            "status": "implication", 
            "value": 0.6
        }, 
        {
            "frame-id": "epi-PMC3085367-cmu-nicosys-516", 
            "frame-type": "epistemics", 
            "object-meta": {
                "object-type": "meta-info", 
                "organization": "CMU"
            }, 
            "object-type": "frame", 
            "sentence": "sent-PMC3085367-cmu-119", 
            "status": "implication", 
            "value": 0.6
        }, 
        {
            "frame-id": "epi-PMC3085367-cmu-nicosys-517", 
            "frame-type": "epistemics", 
            "object-meta": {
                "object-type": "meta-info", 
                "organization": "CMU"
            }, 
            "object-type": "frame", 
            "sentence": "sent-PMC3085367-cmu-120", 
            "status": "implication", 
            "value": 0.6
        }, 
        {
            "frame-id": "epi-PMC3085367-cmu-nicosys-518", 
            "frame-type": "epistemics", 
            "object-meta": {
                "object-type": "meta-info", 
                "organization": "CMU"
            }, 
            "object-type": "frame", 
            "sentence": "sent-PMC3085367-cmu-121", 
            "status": "implication", 
            "value": 0.6
        }, 
        {
            "frame-id": "epi-PMC3085367-cmu-nicosys-519", 
            "frame-type": "epistemics", 
            "object-meta": {
                "object-type": "meta-info", 
                "organization": "CMU"
            }, 
            "object-type": "frame", 
            "sentence": "sent-PMC3085367-cmu-122", 
            "status": "implication", 
            "value": 0.6
        }, 
        {
            "frame-id": "epi-PMC3085367-cmu-nicosys-520", 
            "frame-type": "epistemics", 
            "object-meta": {
                "object-type": "meta-info", 
                "organization": "CMU"
            }, 
            "object-type": "frame", 
            "sentence": "sent-PMC3085367-cmu-123", 
            "status": "implication", 
            "value": 0.6
        }, 
        {
            "frame-id": "epi-PMC3085367-cmu-nicosys-521", 
            "frame-type": "epistemics", 
            "object-meta": {
                "object-type": "meta-info", 
                "organization": "CMU"
            }, 
            "object-type": "frame", 
            "sentence": "sent-PMC3085367-cmu-124", 
            "status": "implication", 
            "value": 0.6
        }, 
        {
            "frame-id": "epi-PMC3085367-cmu-nicosys-522", 
            "frame-type": "epistemics", 
            "object-meta": {
                "object-type": "meta-info", 
                "organization": "CMU"
            }, 
            "object-type": "frame", 
            "sentence": "sent-PMC3085367-cmu-125", 
            "status": "implication", 
            "value": 0.6
        }, 
        {
            "frame-id": "epi-PMC3085367-cmu-nicosys-523", 
            "frame-type": "epistemics", 
            "object-meta": {
                "object-type": "meta-info", 
                "organization": "CMU"
            }, 
            "object-type": "frame", 
            "sentence": "sent-PMC3085367-cmu-126", 
            "status": "implication", 
            "value": 0.6
        }, 
        {
            "frame-id": "epi-PMC3085367-cmu-nicosys-524", 
            "frame-type": "epistemics", 
            "object-meta": {
                "object-type": "meta-info", 
                "organization": "CMU"
            }, 
            "object-type": "frame", 
            "sentence": "sent-PMC3085367-cmu-127", 
            "status": "implication", 
            "value": 0.6
        }, 
        {
            "frame-id": "epi-PMC3085367-cmu-nicosys-525", 
            "frame-type": "epistemics", 
            "object-meta": {
                "object-type": "meta-info", 
                "organization": "CMU"
            }, 
            "object-type": "frame", 
            "sentence": "sent-PMC3085367-cmu-128", 
            "status": "implication", 
            "value": 0.6
        }, 
        {
            "frame-id": "epi-PMC3085367-cmu-nicosys-526", 
            "frame-type": "epistemics", 
            "object-meta": {
                "object-type": "meta-info", 
                "organization": "CMU"
            }, 
            "object-type": "frame", 
            "sentence": "sent-PMC3085367-cmu-129", 
            "status": "implication", 
            "value": 0.6
        }, 
        {
            "frame-id": "epi-PMC3085367-cmu-nicosys-527", 
            "frame-type": "epistemics", 
            "object-meta": {
                "object-type": "meta-info", 
                "organization": "CMU"
            }, 
            "object-type": "frame", 
            "sentence": "sent-PMC3085367-cmu-125", 
            "status": "implication", 
            "value": 0.6
        }, 
        {
            "frame-id": "epi-PMC3085367-cmu-nicosys-528", 
            "frame-type": "epistemics", 
            "object-meta": {
                "object-type": "meta-info", 
                "organization": "CMU"
            }, 
            "object-type": "frame", 
            "sentence": "sent-PMC3085367-cmu-127", 
            "status": "implication", 
            "value": 0.6
        }
    ], 
    "object-meta": {
        "component": "Nicolas-System", 
        "component-type": "machine", 
        "doc-id": "PMC3085367", 
        "object-type": "meta-info", 
        "organization": "CMU"
    }, 
    "object-type": "frame-collection"
}
