{
  "evidence": ["desmosome, another type of cadherin-mediated junction , is located below the zonula adherens, and is associated with the intermediate filaments","The desmosome, another type of cadherin-mediated junction , is located below the zonula adherens, and is associated with the intermediate filaments."],
  "extracted_information": {
    "interaction_type": "binds",
    "negative_information": false,
    "participant_a": {
      "entity_text": "desmosome",
      "entity_type": "complex",
      "identifier": "GO:0030057",
      "in_model": true
    },
    "participant_b": {
      "entity_text": "intermediate filaments",
      "entity_type": "complex",
      "identifier": "GO:0005882",
      "in_model": true
    }
  },
  "fries_provenance": [
    {
      "component": "MedScan",
      "frame-file": "PMC2148175.cmu.medscan",
      "frame-id": "relm-PMC2148175-cmu-medscan-545",
      "sentence": "The desmosome, another type of cadherin-mediated junction , is located below the zonula adherens, and is associated with the intermediate filaments.",
      "text": "desmosome, another type of cadherin-mediated junction , is located below the zonula adherens, and is associated with the intermediate filaments"
    }
  ],
  "model_relation": "extension",
  "pmc_id": "PMC2148175",
  "reader_type": "machine",
  "reading_complete": "2015-06-15T19:26:42Z",
  "reading_started": "2015-06-15T19:26:37Z",
  "submitter": "FRIES"
}
