{
    "frames": [
        {
            "frame-id": "imp-PMC2193724-cmu-pradsys-961", 
            "frame-type": "implication", 
            "implication-type": "binds", 
            "object-meta": {
                "object-type": "meta-info", 
                "organization": "CMU"
            }, 
            "object-type": "frame", 
            "process": [
                "inoculated"
            ], 
            "sentence": "sent-PMC2193724-cmu-89"
        }, 
        {
            "binds-controller": [
                "the absence of JNK2"
            ], 
            "frame-id": "imp-PMC2193724-cmu-pradsys-962", 
            "frame-type": "implication", 
            "implication-type": "binds", 
            "object-meta": {
                "object-type": "meta-info", 
                "organization": "CMU"
            }, 
            "object-type": "frame", 
            "sentence": "sent-PMC2193724-cmu-97"
        }, 
        {
            "binds-constituent2": [
                "CD4+ T"
            ], 
            "frame-id": "imp-PMC2193724-cmu-pradsys-963", 
            "frame-type": "implication", 
            "implication-type": "binds", 
            "object-meta": {
                "object-type": "meta-info", 
                "organization": "CMU"
            }, 
            "object-type": "frame", 
            "sentence": "sent-PMC2193724-cmu-99"
        }, 
        {
            "cell-type": [
                "T cells", 
                "T cells in the Jnk2\u2212/\u2212 mice"
            ], 
            "frame-id": "imp-PMC2193724-cmu-pradsys-964", 
            "frame-type": "implication", 
            "implication-type": "binds", 
            "object-meta": {
                "object-type": "meta-info", 
                "organization": "CMU"
            }, 
            "object-type": "frame", 
            "sentence": "sent-PMC2193724-cmu-101"
        }, 
        {
            "cell-type": [
                "T cells", 
                "T cells"
            ], 
            "frame-id": "imp-PMC2193724-cmu-pradsys-965", 
            "frame-type": "implication", 
            "implication-type": "binds", 
            "object-meta": {
                "object-type": "meta-info", 
                "organization": "CMU"
            }, 
            "object-type": "frame", 
            "process": [
                "stimulation"
            ], 
            "sentence": "sent-PMC2193724-cmu-102"
        }, 
        {
            "cell-type": [
                "T cells", 
                "T cells"
            ], 
            "frame-id": "imp-PMC2193724-cmu-pradsys-966", 
            "frame-type": "implication", 
            "implication-type": "binds", 
            "object-meta": {
                "object-type": "meta-info", 
                "organization": "CMU"
            }, 
            "object-type": "frame", 
            "sentence": "sent-PMC2193724-cmu-103"
        }, 
        {
            "binds-constituent1": [
                "Jnk1"
            ], 
            "binds-controller": [
                "Jnk2 gene expression after stimulation"
            ], 
            "cell-type": [
                "T cells"
            ], 
            "frame-id": "imp-PMC2193724-cmu-pradsys-967", 
            "frame-type": "implication", 
            "implication-type": "binds", 
            "object-meta": {
                "object-type": "meta-info", 
                "organization": "CMU"
            }, 
            "object-type": "frame", 
            "sentence": "sent-PMC2193724-cmu-105"
        }, 
        {
            "cell-type": [
                "T cells"
            ], 
            "frame-id": "imp-PMC2193724-cmu-pradsys-968", 
            "frame-type": "implication", 
            "implication-type": "binds", 
            "object-meta": {
                "object-type": "meta-info", 
                "organization": "CMU"
            }, 
            "object-type": "frame", 
            "process": [
                "stimulation"
            ], 
            "sentence": "sent-PMC2193724-cmu-106", 
            "transfection-molecule": [
                "Jnk2 mRNA levels in CD8+ T cells"
            ]
        }, 
        {
            "binds-constituent1": [
                "Jnk1"
            ], 
            "cell-type": [
                "T cells while high levels of Jnk1 and Jnk2 mRNA", 
                "T cells"
            ], 
            "frame-id": "imp-PMC2193724-cmu-pradsys-969", 
            "frame-type": "implication", 
            "implication-type": "binds", 
            "object-meta": {
                "object-type": "meta-info", 
                "organization": "CMU"
            }, 
            "object-type": "frame", 
            "sentence": "sent-PMC2193724-cmu-107", 
            "transfection-molecule": [
                "Jnk2 mRNA"
            ]
        }, 
        {
            "cell-type": [
                "T cells"
            ], 
            "frame-id": "imp-PMC2193724-cmu-pradsys-970", 
            "frame-type": "implication", 
            "implication-type": "binds", 
            "object-meta": {
                "object-type": "meta-info", 
                "organization": "CMU"
            }, 
            "object-type": "frame", 
            "sentence": "sent-PMC2193724-cmu-109"
        }, 
        {
            "binds-constituent1": [
                "JNK2"
            ], 
            "cell-type": [
                "T cells", 
                "T cells"
            ], 
            "frame-id": "imp-PMC2193724-cmu-pradsys-971", 
            "frame-type": "implication", 
            "implication-type": "binds", 
            "object-meta": {
                "object-type": "meta-info", 
                "organization": "CMU"
            }, 
            "object-type": "frame", 
            "sentence": "sent-PMC2193724-cmu-111"
        }, 
        {
            "binds-controller": [
                "activated CD8+ T cells"
            ], 
            "cell-type": [
                "activated wild-type CD8+ T cells"
            ], 
            "frame-id": "imp-PMC2193724-cmu-pradsys-972", 
            "frame-type": "implication", 
            "implication-type": "binds", 
            "object-meta": {
                "object-type": "meta-info", 
                "organization": "CMU"
            }, 
            "object-type": "frame", 
            "sentence": "sent-PMC2193724-cmu-112"
        }, 
        {
            "binds-constituent1": [
                "JNK2"
            ], 
            "binds-constituent2": [
                "JNK1"
            ], 
            "cell-type": [
                "T cells"
            ], 
            "frame-id": "imp-PMC2193724-cmu-pradsys-973", 
            "frame-type": "implication", 
            "implication-type": "binds", 
            "object-meta": {
                "object-type": "meta-info", 
                "organization": "CMU"
            }, 
            "object-type": "frame", 
            "sentence": "sent-PMC2193724-cmu-114"
        }, 
        {
            "binds-constituent1": [
                "JNK2"
            ], 
            "frame-id": "imp-PMC2193724-cmu-pradsys-974", 
            "frame-type": "implication", 
            "implication-type": "binds", 
            "object-meta": {
                "object-type": "meta-info", 
                "organization": "CMU"
            }, 
            "object-type": "frame", 
            "sentence": "sent-PMC2193724-cmu-115", 
            "transfection-molecule": [
                "a Negative Regulator of CD8+ T Cell Activation"
            ]
        }, 
        {
            "assay-molecule": [
                "JNK2"
            ], 
            "frame-id": "imp-PMC2193724-cmu-pradsys-975", 
            "frame-type": "implication", 
            "implication-type": "binds", 
            "object-meta": {
                "object-type": "meta-info", 
                "organization": "CMU"
            }, 
            "object-type": "frame", 
            "sentence": "sent-PMC2193724-cmu-116", 
            "transfection-molecule": [
                "Jnk2\u2212/\u2212 CD8+ T cells"
            ]
        }, 
        {
            "cell-type": [
                "T cells"
            ], 
            "frame-id": "imp-PMC2193724-cmu-pradsys-976", 
            "frame-type": "implication", 
            "implication-type": "binds", 
            "object-meta": {
                "object-type": "meta-info", 
                "organization": "CMU"
            }, 
            "object-type": "frame", 
            "sentence": "sent-PMC2193724-cmu-117"
        }, 
        {
            "binds-controller": [
                "the surface expression of activation markers ( CD25 [ IL-2R\u03b1 ]"
            ], 
            "cell-type": [
                "wild-type and Jnk2\u2212/\u2212 CD8+ T cells"
            ], 
            "frame-id": "imp-PMC2193724-cmu-pradsys-977", 
            "frame-type": "implication", 
            "implication-type": "binds", 
            "object-meta": {
                "object-type": "meta-info", 
                "organization": "CMU"
            }, 
            "object-type": "frame", 
            "sentence": "sent-PMC2193724-cmu-119"
        }, 
        {
            "cell-type": [
                "T cells", 
                "antigen-presenting cells"
            ], 
            "frame-id": "imp-PMC2193724-cmu-pradsys-978", 
            "frame-type": "implication", 
            "implication-type": "binds", 
            "object-meta": {
                "object-type": "meta-info", 
                "organization": "CMU"
            }, 
            "object-type": "frame", 
            "process": [
                "activated"
            ], 
            "sentence": "sent-PMC2193724-cmu-120"
        }, 
        {
            "binds-controller": [
                "lymphocytic choriomeningitis virus ( LCMV ) infection in vivo"
            ], 
            "cell-type": [
                "T cells in Jnk2\u2212/\u2212 mice"
            ], 
            "frame-id": "imp-PMC2193724-cmu-pradsys-979", 
            "frame-type": "implication", 
            "implication-type": "binds", 
            "object-meta": {
                "object-type": "meta-info", 
                "organization": "CMU"
            }, 
            "object-type": "frame", 
            "sentence": "sent-PMC2193724-cmu-121"
        }, 
        {
            "binds-constituent1": [
                "JNK"
            ], 
            "frame-id": "imp-PMC2193724-cmu-pradsys-980", 
            "frame-type": "implication", 
            "implication-type": "binds", 
            "object-meta": {
                "object-type": "meta-info", 
                "organization": "CMU"
            }, 
            "object-type": "frame", 
            "sentence": "sent-PMC2193724-cmu-123"
        }, 
        {
            "cell-type": [
                "T cells from Jnk2\u2212/\u2212 mice"
            ], 
            "frame-id": "imp-PMC2193724-cmu-pradsys-981", 
            "frame-type": "implication", 
            "implication-type": "binds", 
            "object-meta": {
                "object-type": "meta-info", 
                "organization": "CMU"
            }, 
            "object-type": "frame", 
            "sentence": "sent-PMC2193724-cmu-124"
        }, 
        {
            "cell-type": [
                "T cells from wild-type and Jnk2\u2212/\u2212 mice"
            ], 
            "frame-id": "imp-PMC2193724-cmu-pradsys-982", 
            "frame-type": "implication", 
            "implication-type": "binds", 
            "object-meta": {
                "object-type": "meta-info", 
                "organization": "CMU"
            }, 
            "object-type": "frame", 
            "sentence": "sent-PMC2193724-cmu-125"
        }, 
        {
            "cell-type": [
                "apoptotic cells", 
                "wild-type and Jnk2\u2212/\u2212 CD8+ T cell populations"
            ], 
            "frame-id": "imp-PMC2193724-cmu-pradsys-983", 
            "frame-type": "implication", 
            "implication-type": "binds", 
            "object-meta": {
                "object-type": "meta-info", 
                "organization": "CMU"
            }, 
            "object-type": "frame", 
            "sentence": "sent-PMC2193724-cmu-126"
        }, 
        {
            "binds-controller": [
                "the absence of JNK2"
            ], 
            "frame-id": "imp-PMC2193724-cmu-pradsys-984", 
            "frame-type": "implication", 
            "implication-type": "binds", 
            "object-meta": {
                "object-type": "meta-info", 
                "organization": "CMU"
            }, 
            "object-type": "frame", 
            "sentence": "sent-PMC2193724-cmu-128"
        }, 
        {
            "binds-constituent1": [
                "IL-2"
            ], 
            "cell-type": [
                "T cells"
            ], 
            "frame-id": "imp-PMC2193724-cmu-pradsys-985", 
            "frame-type": "implication", 
            "implication-type": "binds", 
            "object-meta": {
                "object-type": "meta-info", 
                "organization": "CMU"
            }, 
            "object-type": "frame", 
            "sentence": "sent-PMC2193724-cmu-129"
        }, 
        {
            "binds-constituent1": [
                "IL-2"
            ], 
            "cell-type": [
                "T cells but to a much lesser extent than CD4+ T cells"
            ], 
            "frame-id": "imp-PMC2193724-cmu-pradsys-986", 
            "frame-type": "implication", 
            "implication-type": "binds", 
            "object-meta": {
                "object-type": "meta-info", 
                "organization": "CMU"
            }, 
            "object-type": "frame", 
            "sentence": "sent-PMC2193724-cmu-130"
        }, 
        {
            "cell-type": [
                "T cells"
            ], 
            "frame-id": "imp-PMC2193724-cmu-pradsys-987", 
            "frame-type": "implication", 
            "implication-type": "binds", 
            "object-meta": {
                "object-type": "meta-info", 
                "organization": "CMU"
            }, 
            "object-type": "frame", 
            "sentence": "sent-PMC2193724-cmu-131"
        }, 
        {
            "cell-type": [
                "T cells"
            ], 
            "frame-id": "imp-PMC2193724-cmu-pradsys-988", 
            "frame-type": "implication", 
            "implication-type": "binds", 
            "object-meta": {
                "object-type": "meta-info", 
                "organization": "CMU"
            }, 
            "object-type": "frame", 
            "sentence": "sent-PMC2193724-cmu-132"
        }, 
        {
            "cell-type": [
                "T cells from Jnk2\u2212/\u2212 mice", 
                "T cells from wild-type mice"
            ], 
            "frame-id": "imp-PMC2193724-cmu-pradsys-989", 
            "frame-type": "implication", 
            "implication-type": "binds", 
            "object-meta": {
                "object-type": "meta-info", 
                "organization": "CMU"
            }, 
            "object-type": "frame", 
            "sentence": "sent-PMC2193724-cmu-133"
        }, 
        {
            "binds-constituent2": [
                "IL-2"
            ], 
            "binds-site": [
                "the increased amount of"
            ], 
            "frame-id": "imp-PMC2193724-cmu-pradsys-990", 
            "frame-type": "implication", 
            "implication-type": "binds", 
            "object-meta": {
                "object-type": "meta-info", 
                "organization": "CMU"
            }, 
            "object-type": "frame", 
            "sentence": "sent-PMC2193724-cmu-135"
        }, 
        {
            "binds-constituent1": [
                "IL-2"
            ], 
            "frame-id": "imp-PMC2193724-cmu-pradsys-991", 
            "frame-type": "implication", 
            "implication-type": "binds", 
            "m-val": [
                "was not detected"
            ], 
            "object-meta": {
                "object-type": "meta-info", 
                "organization": "CMU"
            }, 
            "object-type": "frame", 
            "sentence": "sent-PMC2193724-cmu-136", 
            "transfection-molecule": [
                "L32 and GAPDH ( Fig"
            ]
        }, 
        {
            "binds-controller": [
                "activated CD8+ T cells"
            ], 
            "cell-type": [
                "activated wild-type CD8+ T cells"
            ], 
            "frame-id": "imp-PMC2193724-cmu-pradsys-992", 
            "frame-type": "implication", 
            "implication-type": "binds", 
            "m-val": [
                "increased levels of IL-2 mRNA were detected"
            ], 
            "object-meta": {
                "object-type": "meta-info", 
                "organization": "CMU"
            }, 
            "object-type": "frame", 
            "sentence": "sent-PMC2193724-cmu-138"
        }, 
        {
            "binds-constituent1": [
                "L32"
            ], 
            "frame-id": "imp-PMC2193724-cmu-pradsys-993", 
            "frame-type": "implication", 
            "implication-type": "binds", 
            "object-meta": {
                "object-type": "meta-info", 
                "organization": "CMU"
            }, 
            "object-type": "frame", 
            "sentence": "sent-PMC2193724-cmu-139", 
            "transfection-molecule": [
                "GAPDH mRNA"
            ]
        }, 
        {
            "binds-constituent2": [
                "mRNA"
            ], 
            "binds-site": [
                "the expression of IFN-\u03b3"
            ], 
            "cell-type": [
                "activated wild-type CD8+ T cells"
            ], 
            "frame-id": "imp-PMC2193724-cmu-pradsys-994", 
            "frame-type": "implication", 
            "implication-type": "binds", 
            "object-meta": {
                "object-type": "meta-info", 
                "organization": "CMU"
            }, 
            "object-type": "frame", 
            "sentence": "sent-PMC2193724-cmu-141"
        }, 
        {
            "cell-type": [
                "T cells"
            ], 
            "frame-id": "imp-PMC2193724-cmu-pradsys-995", 
            "frame-type": "implication", 
            "implication-type": "binds", 
            "object-meta": {
                "object-type": "meta-info", 
                "organization": "CMU"
            }, 
            "object-type": "frame", 
            "sentence": "sent-PMC2193724-cmu-143"
        }, 
        {
            "cell-type": [
                "T cells", 
                "T cells", 
                "T cells"
            ], 
            "frame-id": "imp-PMC2193724-cmu-pradsys-996", 
            "frame-type": "implication", 
            "implication-type": "binds", 
            "object-meta": {
                "object-type": "meta-info", 
                "organization": "CMU"
            }, 
            "object-type": "frame", 
            "process": [
                "compared"
            ], 
            "sentence": "sent-PMC2193724-cmu-145"
        }, 
        {
            "cell-type": [
                "T cells"
            ], 
            "frame-id": "imp-PMC2193724-cmu-pradsys-997", 
            "frame-type": "implication", 
            "implication-type": "binds", 
            "object-meta": {
                "object-type": "meta-info", 
                "organization": "CMU"
            }, 
            "object-type": "frame", 
            "sentence": "sent-PMC2193724-cmu-146"
        }, 
        {
            "cell-type": [
                "T cells"
            ], 
            "frame-id": "imp-PMC2193724-cmu-pradsys-998", 
            "frame-type": "implication", 
            "implication-type": "binds", 
            "object-meta": {
                "object-type": "meta-info", 
                "organization": "CMU"
            }, 
            "object-type": "frame", 
            "sentence": "sent-PMC2193724-cmu-148"
        }, 
        {
            "binds-constituent1": [
                "IL-2"
            ], 
            "binds-controller": [
                "JNK2 deficiency"
            ], 
            "frame-id": "imp-PMC2193724-cmu-pradsys-999", 
            "frame-type": "implication", 
            "implication-type": "binds", 
            "object-meta": {
                "object-type": "meta-info", 
                "organization": "CMU"
            }, 
            "object-type": "frame", 
            "sentence": "sent-PMC2193724-cmu-150"
        }, 
        {
            "cell-type": [
                "Impaired Proliferation of Jnk1\u2212/\u2212CD8+ T Cells"
            ], 
            "frame-id": "imp-PMC2193724-cmu-pradsys-1000", 
            "frame-type": "implication", 
            "implication-type": "binds", 
            "object-meta": {
                "object-type": "meta-info", 
                "organization": "CMU"
            }, 
            "object-type": "frame", 
            "sentence": "sent-PMC2193724-cmu-151"
        }, 
        {
            "binds-constituent1": [
                "JNK1"
            ], 
            "binds-constituent2": [
                "JNK2"
            ], 
            "binds-controller": [
                "activated CD4+"
            ], 
            "frame-id": "imp-PMC2193724-cmu-pradsys-1001", 
            "frame-type": "implication", 
            "implication-type": "binds", 
            "object-meta": {
                "object-type": "meta-info", 
                "organization": "CMU"
            }, 
            "object-type": "frame", 
            "sentence": "sent-PMC2193724-cmu-152"
        }, 
        {
            "binds-constituent1": [
                "JNK2"
            ], 
            "cell-type": [
                "T cells", 
                "T cells"
            ], 
            "frame-id": "imp-PMC2193724-cmu-pradsys-1002", 
            "frame-type": "implication", 
            "implication-type": "binds", 
            "object-meta": {
                "object-type": "meta-info", 
                "organization": "CMU"
            }, 
            "object-type": "frame", 
            "sentence": "sent-PMC2193724-cmu-153"
        }, 
        {
            "cell-type": [
                "T cells , we examined JNK1-deficient CD8+ T cells"
            ], 
            "frame-id": "imp-PMC2193724-cmu-pradsys-1003", 
            "frame-type": "implication", 
            "implication-type": "binds", 
            "object-meta": {
                "object-type": "meta-info", 
                "organization": "CMU"
            }, 
            "object-type": "frame", 
            "sentence": "sent-PMC2193724-cmu-155"
        }, 
        {
            "binds-controller": [
                "activated CD8+ T cells"
            ], 
            "entity": [
                "mice"
            ], 
            "frame-id": "imp-PMC2193724-cmu-pradsys-1004", 
            "frame-type": "implication", 
            "implication-type": "binds", 
            "ip-molecule": [
                "Jnk1\u2212/\u2212"
            ], 
            "object-meta": {
                "object-type": "meta-info", 
                "organization": "CMU"
            }, 
            "object-type": "frame", 
            "sentence": "sent-PMC2193724-cmu-156"
        }, 
        {
            "cell-type": [
                "T cells", 
                "T cells"
            ], 
            "frame-id": "imp-PMC2193724-cmu-pradsys-1005", 
            "frame-type": "implication", 
            "implication-type": "binds", 
            "object-meta": {
                "object-type": "meta-info", 
                "organization": "CMU"
            }, 
            "object-type": "frame", 
            "sentence": "sent-PMC2193724-cmu-157"
        }, 
        {
            "cell-type": [
                "T cells compared with wild-type CD8+ T cells"
            ], 
            "frame-id": "imp-PMC2193724-cmu-pradsys-1006", 
            "frame-type": "implication", 
            "implication-type": "binds", 
            "object-meta": {
                "object-type": "meta-info", 
                "organization": "CMU"
            }, 
            "object-type": "frame", 
            "sentence": "sent-PMC2193724-cmu-159"
        }, 
        {
            "binds-controller": [
                "activated Jnk2\u2212/\u2212CD8+ T cells ( Fig"
            ], 
            "frame-id": "imp-PMC2193724-cmu-pradsys-1007", 
            "frame-type": "implication", 
            "implication-type": "binds", 
            "object-meta": {
                "object-type": "meta-info", 
                "organization": "CMU"
            }, 
            "object-type": "frame", 
            "sentence": "sent-PMC2193724-cmu-160"
        }, 
        {
            "binds-constituent1": [
                "JNK1"
            ], 
            "cell-type": [
                "T cells"
            ], 
            "frame-id": "imp-PMC2193724-cmu-pradsys-1008", 
            "frame-type": "implication", 
            "implication-type": "binds", 
            "object-meta": {
                "object-type": "meta-info", 
                "organization": "CMU"
            }, 
            "object-type": "frame", 
            "sentence": "sent-PMC2193724-cmu-162"
        }, 
        {
            "entity": [
                "CD8+ T cell proliferation"
            ], 
            "frame-id": "imp-PMC2193724-cmu-pradsys-1009", 
            "frame-type": "implication", 
            "implication-type": "binds", 
            "object-meta": {
                "object-type": "meta-info", 
                "organization": "CMU"
            }, 
            "object-type": "frame", 
            "sentence": "sent-PMC2193724-cmu-163"
        }, 
        {
            "cell-type": [
                "T cells", 
                "T cells"
            ], 
            "frame-id": "imp-PMC2193724-cmu-pradsys-1010", 
            "frame-type": "implication", 
            "implication-type": "binds", 
            "object-meta": {
                "object-type": "meta-info", 
                "organization": "CMU"
            }, 
            "object-type": "frame", 
            "sentence": "sent-PMC2193724-cmu-164"
        }, 
        {
            "cell-type": [
                "T cells", 
                "T cells"
            ], 
            "frame-id": "imp-PMC2193724-cmu-pradsys-1011", 
            "frame-type": "implication", 
            "implication-type": "binds", 
            "object-meta": {
                "object-type": "meta-info", 
                "organization": "CMU"
            }, 
            "object-type": "frame", 
            "sentence": "sent-PMC2193724-cmu-166"
        }
    ], 
    "object-meta": {
        "component": "Pradeep-System", 
        "component-type": "machine", 
        "doc-id": "PMC2193724", 
        "object-type": "meta-info", 
        "organization": "CMU"
    }, 
    "object-type": "frame-collection"
}
