{
  "evidence": ["BPA dose significantly increased the phosphorylation of erbB2 and erbB3","However , the low BPA dose significantly increased the phosphorylation of erbB2 and erbB3 , the expression and phosphorylation of the IGF-1R , and the local expression of IGF-1 ."],
  "extracted_information": {
    "interaction_type": "adds_modification",
    "negative_information": false,
    "modifications": [
      {
        "modification_type": "phosphorylation"
      },
      {
        "modification_type": "phosphorylation"
      }
    ],
    "participant_a": {
      "entity_text": "BPA",
      "entity_type": "protein",
      "identifier": "Uniprot:Q03001",
      "in_model": false
    },
    "participant_b": {
      "entity_text": "erbB3",
      "entity_type": "protein",
      "identifier": "Uniprot:P21860",
      "in_model": true
    }
  },
  "fries_provenance": [
    {
      "component": "REACH",
      "frame-file": "PMC3226508.uaz.events",
      "frame-id": "evem-PMC3226508-UAZ-r1-48-1-30",
      "passage-id": "pass-PMC3226508-UAZ-r1-48",
      "passage-number": 48,
      "passage-section-id": "N/A",
      "passage-section-name": "N/A",
      "sentence": "However , the low BPA dose significantly increased the phosphorylation of erbB2 and erbB3 , the expression and phosphorylation of the IGF-1R , and the local expression of IGF-1 .",
      "text": "BPA dose significantly increased the phosphorylation of erbB2 and erbB3",
      "uaz-sentence": "However , the low BPA dose significantly increased the phosphorylation of erbB2 and erbB3 , the expression and phosphorylation of the IGF-1R , and the local expression of IGF-1 .",
      "uaz-sentence-start": 92
    }
  ],
  "model_relation": "extension",
  "pmc_id": "PMC3226508",
  "reader_type": "machine",
  "reading_complete": "2015-06-15T22:26:37Z",
  "reading_started": "2015-06-15T22:26:32Z",
  "submitter": "FRIES"
}
