{
    "frames": [
        {
            "frame-id": "smap-PMC2912359-cmu-1", 
            "frame-type": "sentence-map", 
            "list1-meta": {
                "component": "nxml2fries", 
                "object-type": "meta-info", 
                "organization": "UAZ"
            }, 
            "list2-meta": {
                "component": "Nicolas-NXML-Parser", 
                "object-type": "meta-info", 
                "organization": "CMU"
            }, 
            "map": [
                {
                    "from": "sent-PMC2912359-UAZ-r1-86-0", 
                    "object-type": "map-range", 
                    "to": "sent-PMC2912359-cmu-172"
                }, 
                {
                    "from": "sent-PMC2912359-UAZ-r1-63-4", 
                    "object-type": "map-range", 
                    "to": "sent-PMC2912359-cmu-137"
                }, 
                {
                    "from": "sent-PMC2912359-UAZ-r1-24-0", 
                    "object-type": "map-range", 
                    "to": "sent-PMC2912359-cmu-49"
                }, 
                {
                    "from": "sent-PMC2912359-UAZ-r1-44-1", 
                    "object-type": "map-range", 
                    "to": "sent-PMC2912359-cmu-99"
                }, 
                {
                    "from": "sent-PMC2912359-UAZ-r1-88-4", 
                    "object-type": "map-range", 
                    "to": "sent-PMC2912359-cmu-187"
                }, 
                {
                    "from": "sent-PMC2912359-UAZ-r1-32-2", 
                    "object-type": "map-range", 
                    "to": "sent-PMC2912359-cmu-76"
                }, 
                {
                    "from": "sent-PMC2912359-UAZ-r1-7-0", 
                    "object-type": "map-range", 
                    "to": "sent-PMC2912359-cmu-2"
                }, 
                {
                    "from": "sent-PMC2912359-UAZ-r1-86-5", 
                    "object-type": "map-range", 
                    "to": "sent-PMC2912359-cmu-177"
                }, 
                {
                    "from": "sent-PMC2912359-UAZ-r1-84-0", 
                    "object-type": "map-range", 
                    "to": "sent-PMC2912359-cmu-162"
                }, 
                {
                    "from": "sent-PMC2912359-UAZ-r1-55-0", 
                    "object-type": "map-range", 
                    "to": "sent-PMC2912359-cmu-119"
                }, 
                {
                    "from": "sent-PMC2912359-UAZ-r1-89-0", 
                    "object-type": "map-range", 
                    "to": "sent-PMC2912359-cmu-188"
                }, 
                {
                    "from": "sent-PMC2912359-UAZ-r1-65-0", 
                    "object-type": "map-range", 
                    "to": "sent-PMC2912359-cmu-134"
                }, 
                {
                    "from": "sent-PMC2912359-UAZ-r1-78-10", 
                    "object-type": "map-range", 
                    "to": "sent-PMC2912359-cmu-157"
                }, 
                {
                    "from": "sent-PMC2912359-UAZ-r1-83-0", 
                    "object-type": "map-range", 
                    "to": "sent-PMC2912359-cmu-161"
                }, 
                {
                    "from": "sent-PMC2912359-UAZ-r1-89-1", 
                    "object-type": "map-range", 
                    "to": "sent-PMC2912359-cmu-189"
                }, 
                {
                    "from": "sent-PMC2912359-UAZ-r1-16-1", 
                    "object-type": "map-range", 
                    "to": "sent-PMC2912359-cmu-23"
                }, 
                {
                    "from": "sent-PMC2912359-UAZ-r1-88-1", 
                    "object-type": "map-range", 
                    "to": "sent-PMC2912359-cmu-184"
                }, 
                {
                    "from": "sent-PMC2912359-UAZ-r1-25-0", 
                    "object-type": "map-range", 
                    "to": "sent-PMC2912359-cmu-50"
                }, 
                {
                    "from": "sent-PMC2912359-UAZ-r1-29-2", 
                    "object-type": "map-range", 
                    "to": "sent-PMC2912359-cmu-74"
                }, 
                {
                    "from": "sent-PMC2912359-UAZ-r1-56-1", 
                    "object-type": "map-range", 
                    "to": "sent-PMC2912359-cmu-121"
                }, 
                {
                    "from": "sent-PMC2912359-UAZ-r1-3-1", 
                    "object-type": "map-range", 
                    "to": "sent-PMC2912359-cmu-18"
                }, 
                {
                    "from": "sent-PMC2912359-UAZ-r1-37-0", 
                    "object-type": "map-range", 
                    "to": "sent-PMC2912359-cmu-15"
                }, 
                {
                    "from": "sent-PMC2912359-UAZ-r1-22-1", 
                    "object-type": "map-range", 
                    "to": "sent-PMC2912359-cmu-44"
                }, 
                {
                    "from": "sent-PMC2912359-UAZ-r1-8-0", 
                    "object-type": "map-range", 
                    "to": "sent-PMC2912359-cmu-6"
                }, 
                {
                    "from": "sent-PMC2912359-UAZ-r1-16-3", 
                    "object-type": "map-range", 
                    "to": "sent-PMC2912359-cmu-25"
                }, 
                {
                    "from": "sent-PMC2912359-UAZ-r1-38-0", 
                    "object-type": "map-range", 
                    "to": "sent-PMC2912359-cmu-91"
                }, 
                {
                    "from": "sent-PMC2912359-UAZ-r1-53-5", 
                    "object-type": "map-range", 
                    "to": "sent-PMC2912359-cmu-118"
                }, 
                {
                    "from": "sent-PMC2912359-UAZ-r1-62-0", 
                    "object-type": "map-range", 
                    "to": "sent-PMC2912359-cmu-132"
                }, 
                {
                    "from": "sent-PMC2912359-UAZ-r1-25-8", 
                    "object-type": "map-range", 
                    "to": "sent-PMC2912359-cmu-57"
                }, 
                {
                    "from": "sent-PMC2912359-UAZ-r1-47-3", 
                    "object-type": "map-range", 
                    "to": "sent-PMC2912359-cmu-108"
                }, 
                {
                    "from": "sent-PMC2912359-UAZ-r1-85-2", 
                    "object-type": "map-range", 
                    "to": "sent-PMC2912359-cmu-171"
                }, 
                {
                    "from": "sent-PMC2912359-UAZ-r1-44-3", 
                    "object-type": "map-range", 
                    "to": "sent-PMC2912359-cmu-101"
                }, 
                {
                    "from": "sent-PMC2912359-UAZ-r1-29-5", 
                    "object-type": "map-range", 
                    "to": "sent-PMC2912359-cmu-77"
                }, 
                {
                    "from": "sent-PMC2912359-UAZ-r1-78-2", 
                    "object-type": "map-range", 
                    "to": "sent-PMC2912359-cmu-149"
                }, 
                {
                    "from": "sent-PMC2912359-UAZ-r1-25-9", 
                    "object-type": "map-range", 
                    "to": "sent-PMC2912359-cmu-58"
                }, 
                {
                    "from": "sent-PMC2912359-UAZ-r1-88-2", 
                    "object-type": "map-range", 
                    "to": "sent-PMC2912359-cmu-185"
                }, 
                {
                    "from": "sent-PMC2912359-UAZ-r1-59-1", 
                    "object-type": "map-range", 
                    "to": "sent-PMC2912359-cmu-126"
                }, 
                {
                    "from": "sent-PMC2912359-UAZ-r1-50-2", 
                    "object-type": "map-range", 
                    "to": "sent-PMC2912359-cmu-112"
                }, 
                {
                    "from": "sent-PMC2912359-UAZ-r1-37-0", 
                    "object-type": "map-range", 
                    "to": "sent-PMC2912359-cmu-88"
                }, 
                {
                    "from": "sent-PMC2912359-UAZ-r1-68-1", 
                    "object-type": "map-range", 
                    "to": "sent-PMC2912359-cmu-139"
                }, 
                {
                    "from": "sent-PMC2912359-UAZ-r1-86-3", 
                    "object-type": "map-range", 
                    "to": "sent-PMC2912359-cmu-175"
                }, 
                {
                    "from": "sent-PMC2912359-UAZ-r1-78-12", 
                    "object-type": "map-range", 
                    "to": "sent-PMC2912359-cmu-159"
                }, 
                {
                    "from": "sent-PMC2912359-UAZ-r1-73-0", 
                    "object-type": "map-range", 
                    "to": "sent-PMC2912359-cmu-142"
                }, 
                {
                    "from": "sent-PMC2912359-UAZ-r1-77-0", 
                    "object-type": "map-range", 
                    "to": "sent-PMC2912359-cmu-146"
                }, 
                {
                    "from": "sent-PMC2912359-UAZ-r1-46-0", 
                    "object-type": "map-range", 
                    "to": "sent-PMC2912359-cmu-104"
                }, 
                {
                    "from": "sent-PMC2912359-UAZ-r1-56-0", 
                    "object-type": "map-range", 
                    "to": "sent-PMC2912359-cmu-120"
                }, 
                {
                    "from": "sent-PMC2912359-UAZ-r1-47-0", 
                    "object-type": "map-range", 
                    "to": "sent-PMC2912359-cmu-105"
                }, 
                {
                    "from": "sent-PMC2912359-UAZ-r1-25-1", 
                    "object-type": "map-range", 
                    "to": "sent-PMC2912359-cmu-51"
                }, 
                {
                    "from": "sent-PMC2912359-UAZ-r1-26-5", 
                    "object-type": "map-range", 
                    "to": "sent-PMC2912359-cmu-66"
                }, 
                {
                    "from": "sent-PMC2912359-UAZ-r1-44-4", 
                    "object-type": "map-range", 
                    "to": "sent-PMC2912359-cmu-102"
                }, 
                {
                    "from": "sent-PMC2912359-UAZ-r1-53-4", 
                    "object-type": "map-range", 
                    "to": "sent-PMC2912359-cmu-117"
                }, 
                {
                    "from": "sent-PMC2912359-UAZ-r1-37-1", 
                    "object-type": "map-range", 
                    "to": "sent-PMC2912359-cmu-89"
                }, 
                {
                    "from": "sent-PMC2912359-UAZ-r1-56-2", 
                    "object-type": "map-range", 
                    "to": "sent-PMC2912359-cmu-122"
                }, 
                {
                    "from": "sent-PMC2912359-UAZ-r1-9-1", 
                    "object-type": "map-range", 
                    "to": "sent-PMC2912359-cmu-10"
                }, 
                {
                    "from": "sent-PMC2912359-UAZ-r1-37-2", 
                    "object-type": "map-range", 
                    "to": "sent-PMC2912359-cmu-90"
                }, 
                {
                    "from": "sent-PMC2912359-UAZ-r1-50-0", 
                    "object-type": "map-range", 
                    "to": "sent-PMC2912359-cmu-110"
                }, 
                {
                    "from": "sent-PMC2912359-UAZ-r1-78-8", 
                    "object-type": "map-range", 
                    "to": "sent-PMC2912359-cmu-155"
                }, 
                {
                    "from": "sent-PMC2912359-UAZ-r1-78-2", 
                    "object-type": "map-range", 
                    "to": "sent-PMC2912359-cmu-152"
                }, 
                {
                    "from": "sent-PMC2912359-UAZ-r1-47-1", 
                    "object-type": "map-range", 
                    "to": "sent-PMC2912359-cmu-106"
                }, 
                {
                    "from": "sent-PMC2912359-UAZ-r1-84-1", 
                    "object-type": "map-range", 
                    "to": "sent-PMC2912359-cmu-163"
                }, 
                {
                    "from": "sent-PMC2912359-UAZ-r1-29-6", 
                    "object-type": "map-range", 
                    "to": "sent-PMC2912359-cmu-78"
                }, 
                {
                    "from": "sent-PMC2912359-UAZ-r1-87-2", 
                    "object-type": "map-range", 
                    "to": "sent-PMC2912359-cmu-181"
                }, 
                {
                    "from": "sent-PMC2912359-UAZ-r1-86-4", 
                    "object-type": "map-range", 
                    "to": "sent-PMC2912359-cmu-176"
                }, 
                {
                    "from": "sent-PMC2912359-UAZ-r1-16-7", 
                    "object-type": "map-range", 
                    "to": "sent-PMC2912359-cmu-29"
                }, 
                {
                    "from": "sent-PMC2912359-UAZ-r1-56-3", 
                    "object-type": "map-range", 
                    "to": "sent-PMC2912359-cmu-123"
                }, 
                {
                    "from": "sent-PMC2912359-UAZ-r1-16-11", 
                    "object-type": "map-range", 
                    "to": "sent-PMC2912359-cmu-33"
                }, 
                {
                    "from": "sent-PMC2912359-UAZ-r1-7-2", 
                    "object-type": "map-range", 
                    "to": "sent-PMC2912359-cmu-4"
                }, 
                {
                    "from": "sent-PMC2912359-UAZ-r1-7-1", 
                    "object-type": "map-range", 
                    "to": "sent-PMC2912359-cmu-3"
                }, 
                {
                    "from": "sent-PMC2912359-UAZ-r1-26-9", 
                    "object-type": "map-range", 
                    "to": "sent-PMC2912359-cmu-70"
                }, 
                {
                    "from": "sent-PMC2912359-UAZ-r1-41-0", 
                    "object-type": "map-range", 
                    "to": "sent-PMC2912359-cmu-93"
                }, 
                {
                    "from": "sent-PMC2912359-UAZ-r1-84-5", 
                    "object-type": "map-range", 
                    "to": "sent-PMC2912359-cmu-167"
                }, 
                {
                    "from": "sent-PMC2912359-UAZ-r1-84-4", 
                    "object-type": "map-range", 
                    "to": "sent-PMC2912359-cmu-166"
                }, 
                {
                    "from": "sent-PMC2912359-UAZ-r1-63-0", 
                    "object-type": "map-range", 
                    "to": "sent-PMC2912359-cmu-133"
                }, 
                {
                    "from": "sent-PMC2912359-UAZ-r1-68-0", 
                    "object-type": "map-range", 
                    "to": "sent-PMC2912359-cmu-138"
                }, 
                {
                    "from": "sent-PMC2912359-UAZ-r1-88-0", 
                    "object-type": "map-range", 
                    "to": "sent-PMC2912359-cmu-183"
                }, 
                {
                    "from": "sent-PMC2912359-UAZ-r1-73-2", 
                    "object-type": "map-range", 
                    "to": "sent-PMC2912359-cmu-144"
                }, 
                {
                    "from": "sent-PMC2912359-UAZ-r1-29-1", 
                    "object-type": "map-range", 
                    "to": "sent-PMC2912359-cmu-73"
                }, 
                {
                    "from": "sent-PMC2912359-UAZ-r1-78-7", 
                    "object-type": "map-range", 
                    "to": "sent-PMC2912359-cmu-154"
                }, 
                {
                    "from": "sent-PMC2912359-UAZ-r1-16-2", 
                    "object-type": "map-range", 
                    "to": "sent-PMC2912359-cmu-24"
                }, 
                {
                    "from": "sent-PMC2912359-UAZ-r1-63-3", 
                    "object-type": "map-range", 
                    "to": "sent-PMC2912359-cmu-136"
                }, 
                {
                    "from": "sent-PMC2912359-UAZ-r1-16-8", 
                    "object-type": "map-range", 
                    "to": "sent-PMC2912359-cmu-30"
                }, 
                {
                    "from": "sent-PMC2912359-UAZ-r1-78-4", 
                    "object-type": "map-range", 
                    "to": "sent-PMC2912359-cmu-151"
                }, 
                {
                    "from": "sent-PMC2912359-UAZ-r1-16-9", 
                    "object-type": "map-range", 
                    "to": "sent-PMC2912359-cmu-31"
                }, 
                {
                    "from": "sent-PMC2912359-UAZ-r1-84-3", 
                    "object-type": "map-range", 
                    "to": "sent-PMC2912359-cmu-165"
                }, 
                {
                    "from": "sent-PMC2912359-UAZ-r1-59-2", 
                    "object-type": "map-range", 
                    "to": "sent-PMC2912359-cmu-127"
                }, 
                {
                    "from": "sent-PMC2912359-UAZ-r1-84-2", 
                    "object-type": "map-range", 
                    "to": "sent-PMC2912359-cmu-164"
                }, 
                {
                    "from": "sent-PMC2912359-UAZ-r1-8-2", 
                    "object-type": "map-range", 
                    "to": "sent-PMC2912359-cmu-8"
                }, 
                {
                    "from": "sent-PMC2912359-UAZ-r1-49-0", 
                    "object-type": "map-range", 
                    "to": "sent-PMC2912359-cmu-109"
                }, 
                {
                    "from": "sent-PMC2912359-UAZ-r1-73-1", 
                    "object-type": "map-range", 
                    "to": "sent-PMC2912359-cmu-143"
                }, 
                {
                    "from": "sent-PMC2912359-UAZ-r1-9-0", 
                    "object-type": "map-range", 
                    "to": "sent-PMC2912359-cmu-9"
                }, 
                {
                    "from": "sent-PMC2912359-UAZ-r1-87-0", 
                    "object-type": "map-range", 
                    "to": "sent-PMC2912359-cmu-179"
                }, 
                {
                    "from": "sent-PMC2912359-UAZ-r1-68-2", 
                    "object-type": "map-range", 
                    "to": "sent-PMC2912359-cmu-140"
                }, 
                {
                    "from": "sent-PMC2912359-UAZ-r1-88-3", 
                    "object-type": "map-range", 
                    "to": "sent-PMC2912359-cmu-186"
                }, 
                {
                    "from": "sent-PMC2912359-UAZ-r1-87-1", 
                    "object-type": "map-range", 
                    "to": "sent-PMC2912359-cmu-180"
                }, 
                {
                    "from": "sent-PMC2912359-UAZ-r1-8-1", 
                    "object-type": "map-range", 
                    "to": "sent-PMC2912359-cmu-7"
                }, 
                {
                    "from": "sent-PMC2912359-UAZ-r1-26-1", 
                    "object-type": "map-range", 
                    "to": "sent-PMC2912359-cmu-80"
                }, 
                {
                    "from": "sent-PMC2912359-UAZ-r1-26-0", 
                    "object-type": "map-range", 
                    "to": "sent-PMC2912359-cmu-60"
                }, 
                {
                    "from": "sent-PMC2912359-UAZ-r1-78-1", 
                    "object-type": "map-range", 
                    "to": "sent-PMC2912359-cmu-148"
                }, 
                {
                    "from": "sent-PMC2912359-UAZ-r1-19-5", 
                    "object-type": "map-range", 
                    "to": "sent-PMC2912359-cmu-40"
                }, 
                {
                    "from": "sent-PMC2912359-UAZ-r1-26-8", 
                    "object-type": "map-range", 
                    "to": "sent-PMC2912359-cmu-69"
                }, 
                {
                    "from": "sent-PMC2912359-UAZ-r1-84-6", 
                    "object-type": "map-range", 
                    "to": "sent-PMC2912359-cmu-168"
                }, 
                {
                    "from": "sent-PMC2912359-UAZ-r1-50-1", 
                    "object-type": "map-range", 
                    "to": "sent-PMC2912359-cmu-111"
                }, 
                {
                    "from": "sent-PMC2912359-UAZ-r1-44-5", 
                    "object-type": "map-range", 
                    "to": "sent-PMC2912359-cmu-103"
                }, 
                {
                    "from": "sent-PMC2912359-UAZ-r1-16-0", 
                    "object-type": "map-range", 
                    "to": "sent-PMC2912359-cmu-22"
                }, 
                {
                    "from": "sent-PMC2912359-UAZ-r1-59-4", 
                    "object-type": "map-range", 
                    "to": "sent-PMC2912359-cmu-129"
                }, 
                {
                    "from": "sent-PMC2912359-UAZ-r1-41-2", 
                    "object-type": "map-range", 
                    "to": "sent-PMC2912359-cmu-95"
                }, 
                {
                    "from": "sent-PMC2912359-UAZ-r1-26-2", 
                    "object-type": "map-range", 
                    "to": "sent-PMC2912359-cmu-63"
                }, 
                {
                    "from": "sent-PMC2912359-UAZ-r1-9-2", 
                    "object-type": "map-range", 
                    "to": "sent-PMC2912359-cmu-11"
                }, 
                {
                    "from": "sent-PMC2912359-UAZ-r1-59-3", 
                    "object-type": "map-range", 
                    "to": "sent-PMC2912359-cmu-128"
                }, 
                {
                    "from": "sent-PMC2912359-UAZ-r1-19-3", 
                    "object-type": "map-range", 
                    "to": "sent-PMC2912359-cmu-38"
                }, 
                {
                    "from": "sent-PMC2912359-UAZ-r1-78-6", 
                    "object-type": "map-range", 
                    "to": "sent-PMC2912359-cmu-153"
                }, 
                {
                    "from": "sent-PMC2912359-UAZ-r1-78-3", 
                    "object-type": "map-range", 
                    "to": "sent-PMC2912359-cmu-150"
                }, 
                {
                    "from": "sent-PMC2912359-UAZ-r1-78-11", 
                    "object-type": "map-range", 
                    "to": "sent-PMC2912359-cmu-158"
                }, 
                {
                    "from": "sent-PMC2912359-UAZ-r1-78-9", 
                    "object-type": "map-range", 
                    "to": "sent-PMC2912359-cmu-115"
                }, 
                {
                    "from": "sent-PMC2912359-UAZ-r1-26-1", 
                    "object-type": "map-range", 
                    "to": "sent-PMC2912359-cmu-62"
                }, 
                {
                    "from": "sent-PMC2912359-UAZ-r1-25-7", 
                    "object-type": "map-range", 
                    "to": "sent-PMC2912359-cmu-56"
                }, 
                {
                    "from": "sent-PMC2912359-UAZ-r1-16-6", 
                    "object-type": "map-range", 
                    "to": "sent-PMC2912359-cmu-28"
                }, 
                {
                    "from": "sent-PMC2912359-UAZ-r1-9-4", 
                    "object-type": "map-range", 
                    "to": "sent-PMC2912359-cmu-13"
                }, 
                {
                    "from": "sent-PMC2912359-UAZ-r1-29-0", 
                    "object-type": "map-range", 
                    "to": "sent-PMC2912359-cmu-72"
                }, 
                {
                    "from": "sent-PMC2912359-UAZ-r1-19-0", 
                    "object-type": "map-range", 
                    "to": "sent-PMC2912359-cmu-35"
                }, 
                {
                    "from": "sent-PMC2912359-UAZ-r1-25-5", 
                    "object-type": "map-range", 
                    "to": "sent-PMC2912359-cmu-55"
                }, 
                {
                    "from": "sent-PMC2912359-UAZ-r1-44-0", 
                    "object-type": "map-range", 
                    "to": "sent-PMC2912359-cmu-98"
                }, 
                {
                    "from": "sent-PMC2912359-UAZ-r1-47-2", 
                    "object-type": "map-range", 
                    "to": "sent-PMC2912359-cmu-107"
                }, 
                {
                    "from": "sent-PMC2912359-UAZ-r1-32-5", 
                    "object-type": "map-range", 
                    "to": "sent-PMC2912359-cmu-85"
                }, 
                {
                    "from": "sent-PMC2912359-UAZ-r1-16-5", 
                    "object-type": "map-range", 
                    "to": "sent-PMC2912359-cmu-27"
                }, 
                {
                    "from": "sent-PMC2912359-UAZ-r1-19-4", 
                    "object-type": "map-range", 
                    "to": "sent-PMC2912359-cmu-39"
                }, 
                {
                    "from": "sent-PMC2912359-UAZ-r1-10-1", 
                    "object-type": "map-range", 
                    "to": "sent-PMC2912359-cmu-16"
                }, 
                {
                    "from": "sent-PMC2912359-UAZ-r1-19-2", 
                    "object-type": "map-range", 
                    "to": "sent-PMC2912359-cmu-37"
                }, 
                {
                    "from": "sent-PMC2912359-UAZ-r1-11-1", 
                    "object-type": "map-range", 
                    "to": "sent-PMC2912359-cmu-19"
                }, 
                {
                    "from": "sent-PMC2912359-UAZ-r1-63-2", 
                    "object-type": "map-range", 
                    "to": "sent-PMC2912359-cmu-135"
                }, 
                {
                    "from": "sent-PMC2912359-UAZ-r1-73-3", 
                    "object-type": "map-range", 
                    "to": "sent-PMC2912359-cmu-145"
                }, 
                {
                    "from": "sent-PMC2912359-UAZ-r1-22-5", 
                    "object-type": "map-range", 
                    "to": "sent-PMC2912359-cmu-48"
                }, 
                {
                    "from": "sent-PMC2912359-UAZ-r1-29-3", 
                    "object-type": "map-range", 
                    "to": "sent-PMC2912359-cmu-81"
                }, 
                {
                    "from": "sent-PMC2912359-UAZ-r1-16-10", 
                    "object-type": "map-range", 
                    "to": "sent-PMC2912359-cmu-32"
                }, 
                {
                    "from": "sent-PMC2912359-UAZ-r1-44-2", 
                    "object-type": "map-range", 
                    "to": "sent-PMC2912359-cmu-100"
                }, 
                {
                    "from": "sent-PMC2912359-UAZ-r1-7-3", 
                    "object-type": "map-range", 
                    "to": "sent-PMC2912359-cmu-5"
                }, 
                {
                    "from": "sent-PMC2912359-UAZ-r1-87-3", 
                    "object-type": "map-range", 
                    "to": "sent-PMC2912359-cmu-182"
                }, 
                {
                    "from": "sent-PMC2912359-UAZ-r1-26-6", 
                    "object-type": "map-range", 
                    "to": "sent-PMC2912359-cmu-67"
                }, 
                {
                    "from": "sent-PMC2912359-UAZ-r1-86-6", 
                    "object-type": "map-range", 
                    "to": "sent-PMC2912359-cmu-178"
                }, 
                {
                    "from": "sent-PMC2912359-UAZ-r1-32-2", 
                    "object-type": "map-range", 
                    "to": "sent-PMC2912359-cmu-82"
                }, 
                {
                    "from": "sent-PMC2912359-UAZ-r1-32-4", 
                    "object-type": "map-range", 
                    "to": "sent-PMC2912359-cmu-84"
                }, 
                {
                    "from": "sent-PMC2912359-UAZ-r1-78-9", 
                    "object-type": "map-range", 
                    "to": "sent-PMC2912359-cmu-156"
                }, 
                {
                    "from": "sent-PMC2912359-UAZ-r1-22-4", 
                    "object-type": "map-range", 
                    "to": "sent-PMC2912359-cmu-47"
                }, 
                {
                    "from": "sent-PMC2912359-UAZ-r1-56-4", 
                    "object-type": "map-range", 
                    "to": "sent-PMC2912359-cmu-124"
                }, 
                {
                    "from": "sent-PMC2912359-UAZ-r1-25-2", 
                    "object-type": "map-range", 
                    "to": "sent-PMC2912359-cmu-52"
                }, 
                {
                    "from": "sent-PMC2912359-UAZ-r1-22-0", 
                    "object-type": "map-range", 
                    "to": "sent-PMC2912359-cmu-43"
                }, 
                {
                    "from": "sent-PMC2912359-UAZ-r1-19-5", 
                    "object-type": "map-range", 
                    "to": "sent-PMC2912359-cmu-41"
                }, 
                {
                    "from": "sent-PMC2912359-UAZ-r1-25-3", 
                    "object-type": "map-range", 
                    "to": "sent-PMC2912359-cmu-53"
                }, 
                {
                    "from": "sent-PMC2912359-UAZ-r1-38-1", 
                    "object-type": "map-range", 
                    "to": "sent-PMC2912359-cmu-92"
                }, 
                {
                    "from": "sent-PMC2912359-UAZ-r1-22-3", 
                    "object-type": "map-range", 
                    "to": "sent-PMC2912359-cmu-46"
                }, 
                {
                    "from": "sent-PMC2912359-UAZ-r1-25-4", 
                    "object-type": "map-range", 
                    "to": "sent-PMC2912359-cmu-54"
                }, 
                {
                    "from": "sent-PMC2912359-UAZ-r1-86-1", 
                    "object-type": "map-range", 
                    "to": "sent-PMC2912359-cmu-173"
                }, 
                {
                    "from": "sent-PMC2912359-UAZ-r1-26-4", 
                    "object-type": "map-range", 
                    "to": "sent-PMC2912359-cmu-65"
                }, 
                {
                    "from": "sent-PMC2912359-UAZ-r1-9-5", 
                    "object-type": "map-range", 
                    "to": "sent-PMC2912359-cmu-14"
                }, 
                {
                    "from": "sent-PMC2912359-UAZ-r1-60-1", 
                    "object-type": "map-range", 
                    "to": "sent-PMC2912359-cmu-131"
                }, 
                {
                    "from": "sent-PMC2912359-UAZ-r1-29-3", 
                    "object-type": "map-range", 
                    "to": "sent-PMC2912359-cmu-75"
                }, 
                {
                    "from": "sent-PMC2912359-UAZ-r1-60-0", 
                    "object-type": "map-range", 
                    "to": "sent-PMC2912359-cmu-130"
                }, 
                {
                    "from": "sent-PMC2912359-UAZ-r1-32-3", 
                    "object-type": "map-range", 
                    "to": "sent-PMC2912359-cmu-83"
                }, 
                {
                    "from": "sent-PMC2912359-UAZ-r1-86-2", 
                    "object-type": "map-range", 
                    "to": "sent-PMC2912359-cmu-174"
                }, 
                {
                    "from": "sent-PMC2912359-UAZ-r1-43-0", 
                    "object-type": "map-range", 
                    "to": "sent-PMC2912359-cmu-97"
                }, 
                {
                    "from": "sent-PMC2912359-UAZ-r1-22-2", 
                    "object-type": "map-range", 
                    "to": "sent-PMC2912359-cmu-45"
                }, 
                {
                    "from": "sent-PMC2912359-UAZ-r1-26-7", 
                    "object-type": "map-range", 
                    "to": "sent-PMC2912359-cmu-68"
                }, 
                {
                    "from": "sent-PMC2912359-UAZ-r1-25-10", 
                    "object-type": "map-range", 
                    "to": "sent-PMC2912359-cmu-59"
                }, 
                {
                    "from": "sent-PMC2912359-UAZ-r1-53-0", 
                    "object-type": "map-range", 
                    "to": "sent-PMC2912359-cmu-113"
                }, 
                {
                    "from": "sent-PMC2912359-UAZ-r1-9-3", 
                    "object-type": "map-range", 
                    "to": "sent-PMC2912359-cmu-12"
                }, 
                {
                    "from": "sent-PMC2912359-UAZ-r1-26-3", 
                    "object-type": "map-range", 
                    "to": "sent-PMC2912359-cmu-64"
                }, 
                {
                    "from": "sent-PMC2912359-UAZ-r1-10-2", 
                    "object-type": "map-range", 
                    "to": "sent-PMC2912359-cmu-17"
                }, 
                {
                    "from": "sent-PMC2912359-UAZ-r1-78-0", 
                    "object-type": "map-range", 
                    "to": "sent-PMC2912359-cmu-147"
                }
            ], 
            "object-meta": {
                "component": "Pradeep-Matcher", 
                "object-type": "meta-info", 
                "organization": "CMU"
            }, 
            "object-type": "frame"
        }, 
        {
            "frame-id": "smap-PMC2912359-cmu-2", 
            "frame-type": "sentence-map", 
            "list1-meta": {
                "component": "MedScan", 
                "object-type": "meta-info", 
                "organization": "CMU"
            }, 
            "list2-meta": {
                "component": "Nicolas-NXML-Parser", 
                "object-type": "meta-info", 
                "organization": "CMU"
            }, 
            "map": [
                {
                    "from": "sent-PMC2912359-medscan-187", 
                    "object-type": "map-range", 
                    "to": "sent-PMC2912359-cmu-172"
                }, 
                {
                    "from": "sent-PMC2912359-medscan-139", 
                    "object-type": "map-range", 
                    "to": "sent-PMC2912359-cmu-137"
                }, 
                {
                    "from": "sent-PMC2912359-medscan-93", 
                    "object-type": "map-range", 
                    "to": "sent-PMC2912359-cmu-99"
                }, 
                {
                    "from": "sent-PMC2912359-medscan-72", 
                    "object-type": "map-range", 
                    "to": "sent-PMC2912359-cmu-76"
                }, 
                {
                    "from": "sent-PMC2912359-medscan-72", 
                    "object-type": "map-range", 
                    "to": "sent-PMC2912359-cmu-76"
                }, 
                {
                    "from": "sent-PMC2912359-medscan-0", 
                    "object-type": "map-range", 
                    "to": "sent-PMC2912359-cmu-2"
                }, 
                {
                    "from": "sent-PMC2912359-medscan-192", 
                    "object-type": "map-range", 
                    "to": "sent-PMC2912359-cmu-177"
                }, 
                {
                    "from": "sent-PMC2912359-medscan-177", 
                    "object-type": "map-range", 
                    "to": "sent-PMC2912359-cmu-162"
                }, 
                {
                    "from": "sent-PMC2912359-medscan-136", 
                    "object-type": "map-range", 
                    "to": "sent-PMC2912359-cmu-134"
                }, 
                {
                    "from": "sent-PMC2912359-medscan-136", 
                    "object-type": "map-range", 
                    "to": "sent-PMC2912359-cmu-134"
                }, 
                {
                    "from": "sent-PMC2912359-medscan-168", 
                    "object-type": "map-range", 
                    "to": "sent-PMC2912359-cmu-157"
                }, 
                {
                    "from": "sent-PMC2912359-medscan-31", 
                    "object-type": "map-range", 
                    "to": "sent-PMC2912359-cmu-36"
                }, 
                {
                    "from": "sent-PMC2912359-medscan-176", 
                    "object-type": "map-range", 
                    "to": "sent-PMC2912359-cmu-161"
                }, 
                {
                    "from": "sent-PMC2912359-medscan-204", 
                    "object-type": "map-range", 
                    "to": "sent-PMC2912359-cmu-189"
                }, 
                {
                    "from": "sent-PMC2912359-medscan-19", 
                    "object-type": "map-range", 
                    "to": "sent-PMC2912359-cmu-23"
                }, 
                {
                    "from": "sent-PMC2912359-medscan-199", 
                    "object-type": "map-range", 
                    "to": "sent-PMC2912359-cmu-184"
                }, 
                {
                    "from": "sent-PMC2912359-medscan-65", 
                    "object-type": "map-range", 
                    "to": "sent-PMC2912359-cmu-74"
                }, 
                {
                    "from": "sent-PMC2912359-medscan-65", 
                    "object-type": "map-range", 
                    "to": "sent-PMC2912359-cmu-74"
                }, 
                {
                    "from": "sent-PMC2912359-medscan-118", 
                    "object-type": "map-range", 
                    "to": "sent-PMC2912359-cmu-121"
                }, 
                {
                    "from": "sent-PMC2912359-medscan-13", 
                    "object-type": "map-range", 
                    "to": "sent-PMC2912359-cmu-15"
                }, 
                {
                    "from": "sent-PMC2912359-medscan-13", 
                    "object-type": "map-range", 
                    "to": "sent-PMC2912359-cmu-15"
                }, 
                {
                    "from": "sent-PMC2912359-medscan-38", 
                    "object-type": "map-range", 
                    "to": "sent-PMC2912359-cmu-44"
                }, 
                {
                    "from": "sent-PMC2912359-medscan-4", 
                    "object-type": "map-range", 
                    "to": "sent-PMC2912359-cmu-6"
                }, 
                {
                    "from": "sent-PMC2912359-medscan-21", 
                    "object-type": "map-range", 
                    "to": "sent-PMC2912359-cmu-25"
                }, 
                {
                    "from": "sent-PMC2912359-medscan-79", 
                    "object-type": "map-range", 
                    "to": "sent-PMC2912359-cmu-91"
                }, 
                {
                    "from": "sent-PMC2912359-medscan-114", 
                    "object-type": "map-range", 
                    "to": "sent-PMC2912359-cmu-116"
                }, 
                {
                    "from": "sent-PMC2912359-medscan-50", 
                    "object-type": "map-range", 
                    "to": "sent-PMC2912359-cmu-57"
                }, 
                {
                    "from": "sent-PMC2912359-medscan-50", 
                    "object-type": "map-range", 
                    "to": "sent-PMC2912359-cmu-57"
                }, 
                {
                    "from": "sent-PMC2912359-medscan-101", 
                    "object-type": "map-range", 
                    "to": "sent-PMC2912359-cmu-108"
                }, 
                {
                    "from": "sent-PMC2912359-medscan-186", 
                    "object-type": "map-range", 
                    "to": "sent-PMC2912359-cmu-171"
                }, 
                {
                    "from": "sent-PMC2912359-medscan-95", 
                    "object-type": "map-range", 
                    "to": "sent-PMC2912359-cmu-101"
                }, 
                {
                    "from": "sent-PMC2912359-medscan-163", 
                    "object-type": "map-range", 
                    "to": "sent-PMC2912359-cmu-149"
                }, 
                {
                    "from": "sent-PMC2912359-medscan-163", 
                    "object-type": "map-range", 
                    "to": "sent-PMC2912359-cmu-149"
                }, 
                {
                    "from": "sent-PMC2912359-medscan-51", 
                    "object-type": "map-range", 
                    "to": "sent-PMC2912359-cmu-58"
                }, 
                {
                    "from": "sent-PMC2912359-medscan-200", 
                    "object-type": "map-range", 
                    "to": "sent-PMC2912359-cmu-185"
                }, 
                {
                    "from": "sent-PMC2912359-medscan-129", 
                    "object-type": "map-range", 
                    "to": "sent-PMC2912359-cmu-126"
                }, 
                {
                    "from": "sent-PMC2912359-medscan-13", 
                    "object-type": "map-range", 
                    "to": "sent-PMC2912359-cmu-88"
                }, 
                {
                    "from": "sent-PMC2912359-medscan-13", 
                    "object-type": "map-range", 
                    "to": "sent-PMC2912359-cmu-88"
                }, 
                {
                    "from": "sent-PMC2912359-medscan-147", 
                    "object-type": "map-range", 
                    "to": "sent-PMC2912359-cmu-139"
                }, 
                {
                    "from": "sent-PMC2912359-medscan-190", 
                    "object-type": "map-range", 
                    "to": "sent-PMC2912359-cmu-175"
                }, 
                {
                    "from": "sent-PMC2912359-medscan-170", 
                    "object-type": "map-range", 
                    "to": "sent-PMC2912359-cmu-159"
                }, 
                {
                    "from": "sent-PMC2912359-medscan-117", 
                    "object-type": "map-range", 
                    "to": "sent-PMC2912359-cmu-120"
                }, 
                {
                    "from": "sent-PMC2912359-medscan-98", 
                    "object-type": "map-range", 
                    "to": "sent-PMC2912359-cmu-105"
                }, 
                {
                    "from": "sent-PMC2912359-medscan-44", 
                    "object-type": "map-range", 
                    "to": "sent-PMC2912359-cmu-51"
                }, 
                {
                    "from": "sent-PMC2912359-medscan-58", 
                    "object-type": "map-range", 
                    "to": "sent-PMC2912359-cmu-66"
                }, 
                {
                    "from": "sent-PMC2912359-medscan-96", 
                    "object-type": "map-range", 
                    "to": "sent-PMC2912359-cmu-102"
                }, 
                {
                    "from": "sent-PMC2912359-medscan-115", 
                    "object-type": "map-range", 
                    "to": "sent-PMC2912359-cmu-117"
                }, 
                {
                    "from": "sent-PMC2912359-medscan-77", 
                    "object-type": "map-range", 
                    "to": "sent-PMC2912359-cmu-89"
                }, 
                {
                    "from": "sent-PMC2912359-medscan-119", 
                    "object-type": "map-range", 
                    "to": "sent-PMC2912359-cmu-122"
                }, 
                {
                    "from": "sent-PMC2912359-medscan-8", 
                    "object-type": "map-range", 
                    "to": "sent-PMC2912359-cmu-10"
                }, 
                {
                    "from": "sent-PMC2912359-medscan-78", 
                    "object-type": "map-range", 
                    "to": "sent-PMC2912359-cmu-90"
                }, 
                {
                    "from": "sent-PMC2912359-medscan-102", 
                    "object-type": "map-range", 
                    "to": "sent-PMC2912359-cmu-110"
                }, 
                {
                    "from": "sent-PMC2912359-medscan-163", 
                    "object-type": "map-range", 
                    "to": "sent-PMC2912359-cmu-152"
                }, 
                {
                    "from": "sent-PMC2912359-medscan-163", 
                    "object-type": "map-range", 
                    "to": "sent-PMC2912359-cmu-152"
                }, 
                {
                    "from": "sent-PMC2912359-medscan-99", 
                    "object-type": "map-range", 
                    "to": "sent-PMC2912359-cmu-106"
                }, 
                {
                    "from": "sent-PMC2912359-medscan-178", 
                    "object-type": "map-range", 
                    "to": "sent-PMC2912359-cmu-163"
                }, 
                {
                    "from": "sent-PMC2912359-medscan-69", 
                    "object-type": "map-range", 
                    "to": "sent-PMC2912359-cmu-78"
                }, 
                {
                    "from": "sent-PMC2912359-medscan-196", 
                    "object-type": "map-range", 
                    "to": "sent-PMC2912359-cmu-181"
                }, 
                {
                    "from": "sent-PMC2912359-medscan-191", 
                    "object-type": "map-range", 
                    "to": "sent-PMC2912359-cmu-176"
                }, 
                {
                    "from": "sent-PMC2912359-medscan-25", 
                    "object-type": "map-range", 
                    "to": "sent-PMC2912359-cmu-29"
                }, 
                {
                    "from": "sent-PMC2912359-medscan-120", 
                    "object-type": "map-range", 
                    "to": "sent-PMC2912359-cmu-123"
                }, 
                {
                    "from": "sent-PMC2912359-medscan-29", 
                    "object-type": "map-range", 
                    "to": "sent-PMC2912359-cmu-33"
                }, 
                {
                    "from": "sent-PMC2912359-medscan-2", 
                    "object-type": "map-range", 
                    "to": "sent-PMC2912359-cmu-4"
                }, 
                {
                    "from": "sent-PMC2912359-medscan-112", 
                    "object-type": "map-range", 
                    "to": "sent-PMC2912359-cmu-114"
                }, 
                {
                    "from": "sent-PMC2912359-medscan-1", 
                    "object-type": "map-range", 
                    "to": "sent-PMC2912359-cmu-3"
                }, 
                {
                    "from": "sent-PMC2912359-medscan-62", 
                    "object-type": "map-range", 
                    "to": "sent-PMC2912359-cmu-70"
                }, 
                {
                    "from": "sent-PMC2912359-medscan-88", 
                    "object-type": "map-range", 
                    "to": "sent-PMC2912359-cmu-93"
                }, 
                {
                    "from": "sent-PMC2912359-medscan-182", 
                    "object-type": "map-range", 
                    "to": "sent-PMC2912359-cmu-167"
                }, 
                {
                    "from": "sent-PMC2912359-medscan-181", 
                    "object-type": "map-range", 
                    "to": "sent-PMC2912359-cmu-166"
                }, 
                {
                    "from": "sent-PMC2912359-medscan-135", 
                    "object-type": "map-range", 
                    "to": "sent-PMC2912359-cmu-133"
                }, 
                {
                    "from": "sent-PMC2912359-medscan-146", 
                    "object-type": "map-range", 
                    "to": "sent-PMC2912359-cmu-138"
                }, 
                {
                    "from": "sent-PMC2912359-medscan-198", 
                    "object-type": "map-range", 
                    "to": "sent-PMC2912359-cmu-183"
                }, 
                {
                    "from": "sent-PMC2912359-medscan-154", 
                    "object-type": "map-range", 
                    "to": "sent-PMC2912359-cmu-144"
                }, 
                {
                    "from": "sent-PMC2912359-medscan-64", 
                    "object-type": "map-range", 
                    "to": "sent-PMC2912359-cmu-73"
                }, 
                {
                    "from": "sent-PMC2912359-medscan-165", 
                    "object-type": "map-range", 
                    "to": "sent-PMC2912359-cmu-154"
                }, 
                {
                    "from": "sent-PMC2912359-medscan-20", 
                    "object-type": "map-range", 
                    "to": "sent-PMC2912359-cmu-24"
                }, 
                {
                    "from": "sent-PMC2912359-medscan-138", 
                    "object-type": "map-range", 
                    "to": "sent-PMC2912359-cmu-136"
                }, 
                {
                    "from": "sent-PMC2912359-medscan-26", 
                    "object-type": "map-range", 
                    "to": "sent-PMC2912359-cmu-30"
                }, 
                {
                    "from": "sent-PMC2912359-medscan-162", 
                    "object-type": "map-range", 
                    "to": "sent-PMC2912359-cmu-151"
                }, 
                {
                    "from": "sent-PMC2912359-medscan-27", 
                    "object-type": "map-range", 
                    "to": "sent-PMC2912359-cmu-31"
                }, 
                {
                    "from": "sent-PMC2912359-medscan-180", 
                    "object-type": "map-range", 
                    "to": "sent-PMC2912359-cmu-165"
                }, 
                {
                    "from": "sent-PMC2912359-medscan-130", 
                    "object-type": "map-range", 
                    "to": "sent-PMC2912359-cmu-127"
                }, 
                {
                    "from": "sent-PMC2912359-medscan-179", 
                    "object-type": "map-range", 
                    "to": "sent-PMC2912359-cmu-164"
                }, 
                {
                    "from": "sent-PMC2912359-medscan-184", 
                    "object-type": "map-range", 
                    "to": "sent-PMC2912359-cmu-169"
                }, 
                {
                    "from": "sent-PMC2912359-medscan-6", 
                    "object-type": "map-range", 
                    "to": "sent-PMC2912359-cmu-8"
                }, 
                {
                    "from": "sent-PMC2912359-medscan-153", 
                    "object-type": "map-range", 
                    "to": "sent-PMC2912359-cmu-143"
                }, 
                {
                    "from": "sent-PMC2912359-medscan-7", 
                    "object-type": "map-range", 
                    "to": "sent-PMC2912359-cmu-9"
                }, 
                {
                    "from": "sent-PMC2912359-medscan-194", 
                    "object-type": "map-range", 
                    "to": "sent-PMC2912359-cmu-179"
                }, 
                {
                    "from": "sent-PMC2912359-medscan-148", 
                    "object-type": "map-range", 
                    "to": "sent-PMC2912359-cmu-140"
                }, 
                {
                    "from": "sent-PMC2912359-medscan-201", 
                    "object-type": "map-range", 
                    "to": "sent-PMC2912359-cmu-186"
                }, 
                {
                    "from": "sent-PMC2912359-medscan-195", 
                    "object-type": "map-range", 
                    "to": "sent-PMC2912359-cmu-180"
                }, 
                {
                    "from": "sent-PMC2912359-medscan-65", 
                    "object-type": "map-range", 
                    "to": "sent-PMC2912359-cmu-80"
                }, 
                {
                    "from": "sent-PMC2912359-medscan-65", 
                    "object-type": "map-range", 
                    "to": "sent-PMC2912359-cmu-80"
                }, 
                {
                    "from": "sent-PMC2912359-medscan-53", 
                    "object-type": "map-range", 
                    "to": "sent-PMC2912359-cmu-60"
                }, 
                {
                    "from": "sent-PMC2912359-medscan-159", 
                    "object-type": "map-range", 
                    "to": "sent-PMC2912359-cmu-148"
                }, 
                {
                    "from": "sent-PMC2912359-medscan-35", 
                    "object-type": "map-range", 
                    "to": "sent-PMC2912359-cmu-40"
                }, 
                {
                    "from": "sent-PMC2912359-medscan-61", 
                    "object-type": "map-range", 
                    "to": "sent-PMC2912359-cmu-69"
                }, 
                {
                    "from": "sent-PMC2912359-medscan-183", 
                    "object-type": "map-range", 
                    "to": "sent-PMC2912359-cmu-168"
                }, 
                {
                    "from": "sent-PMC2912359-medscan-103", 
                    "object-type": "map-range", 
                    "to": "sent-PMC2912359-cmu-111"
                }, 
                {
                    "from": "sent-PMC2912359-medscan-97", 
                    "object-type": "map-range", 
                    "to": "sent-PMC2912359-cmu-103"
                }, 
                {
                    "from": "sent-PMC2912359-medscan-18", 
                    "object-type": "map-range", 
                    "to": "sent-PMC2912359-cmu-22"
                }, 
                {
                    "from": "sent-PMC2912359-medscan-132", 
                    "object-type": "map-range", 
                    "to": "sent-PMC2912359-cmu-129"
                }, 
                {
                    "from": "sent-PMC2912359-medscan-90", 
                    "object-type": "map-range", 
                    "to": "sent-PMC2912359-cmu-95"
                }, 
                {
                    "from": "sent-PMC2912359-medscan-55", 
                    "object-type": "map-range", 
                    "to": "sent-PMC2912359-cmu-63"
                }, 
                {
                    "from": "sent-PMC2912359-medscan-9", 
                    "object-type": "map-range", 
                    "to": "sent-PMC2912359-cmu-11"
                }, 
                {
                    "from": "sent-PMC2912359-medscan-131", 
                    "object-type": "map-range", 
                    "to": "sent-PMC2912359-cmu-128"
                }, 
                {
                    "from": "sent-PMC2912359-medscan-33", 
                    "object-type": "map-range", 
                    "to": "sent-PMC2912359-cmu-38"
                }, 
                {
                    "from": "sent-PMC2912359-medscan-164", 
                    "object-type": "map-range", 
                    "to": "sent-PMC2912359-cmu-153"
                }, 
                {
                    "from": "sent-PMC2912359-medscan-161", 
                    "object-type": "map-range", 
                    "to": "sent-PMC2912359-cmu-150"
                }, 
                {
                    "from": "sent-PMC2912359-medscan-169", 
                    "object-type": "map-range", 
                    "to": "sent-PMC2912359-cmu-158"
                }, 
                {
                    "from": "sent-PMC2912359-medscan-65", 
                    "object-type": "map-range", 
                    "to": "sent-PMC2912359-cmu-62"
                }, 
                {
                    "from": "sent-PMC2912359-medscan-65", 
                    "object-type": "map-range", 
                    "to": "sent-PMC2912359-cmu-62"
                }, 
                {
                    "from": "sent-PMC2912359-medscan-49", 
                    "object-type": "map-range", 
                    "to": "sent-PMC2912359-cmu-56"
                }, 
                {
                    "from": "sent-PMC2912359-medscan-24", 
                    "object-type": "map-range", 
                    "to": "sent-PMC2912359-cmu-28"
                }, 
                {
                    "from": "sent-PMC2912359-medscan-11", 
                    "object-type": "map-range", 
                    "to": "sent-PMC2912359-cmu-13"
                }, 
                {
                    "from": "sent-PMC2912359-medscan-63", 
                    "object-type": "map-range", 
                    "to": "sent-PMC2912359-cmu-72"
                }, 
                {
                    "from": "sent-PMC2912359-medscan-30", 
                    "object-type": "map-range", 
                    "to": "sent-PMC2912359-cmu-35"
                }, 
                {
                    "from": "sent-PMC2912359-medscan-47", 
                    "object-type": "map-range", 
                    "to": "sent-PMC2912359-cmu-55"
                }, 
                {
                    "from": "sent-PMC2912359-medscan-92", 
                    "object-type": "map-range", 
                    "to": "sent-PMC2912359-cmu-98"
                }, 
                {
                    "from": "sent-PMC2912359-medscan-69", 
                    "object-type": "map-range", 
                    "to": "sent-PMC2912359-cmu-85"
                }, 
                {
                    "from": "sent-PMC2912359-medscan-69", 
                    "object-type": "map-range", 
                    "to": "sent-PMC2912359-cmu-85"
                }, 
                {
                    "from": "sent-PMC2912359-medscan-23", 
                    "object-type": "map-range", 
                    "to": "sent-PMC2912359-cmu-27"
                }, 
                {
                    "from": "sent-PMC2912359-medscan-34", 
                    "object-type": "map-range", 
                    "to": "sent-PMC2912359-cmu-39"
                }, 
                {
                    "from": "sent-PMC2912359-medscan-14", 
                    "object-type": "map-range", 
                    "to": "sent-PMC2912359-cmu-16"
                }, 
                {
                    "from": "sent-PMC2912359-medscan-32", 
                    "object-type": "map-range", 
                    "to": "sent-PMC2912359-cmu-37"
                }, 
                {
                    "from": "sent-PMC2912359-medscan-17", 
                    "object-type": "map-range", 
                    "to": "sent-PMC2912359-cmu-19"
                }, 
                {
                    "from": "sent-PMC2912359-medscan-137", 
                    "object-type": "map-range", 
                    "to": "sent-PMC2912359-cmu-135"
                }, 
                {
                    "from": "sent-PMC2912359-medscan-155", 
                    "object-type": "map-range", 
                    "to": "sent-PMC2912359-cmu-145"
                }, 
                {
                    "from": "sent-PMC2912359-medscan-42", 
                    "object-type": "map-range", 
                    "to": "sent-PMC2912359-cmu-48"
                }, 
                {
                    "from": "sent-PMC2912359-medscan-71", 
                    "object-type": "map-range", 
                    "to": "sent-PMC2912359-cmu-81"
                }, 
                {
                    "from": "sent-PMC2912359-medscan-28", 
                    "object-type": "map-range", 
                    "to": "sent-PMC2912359-cmu-32"
                }, 
                {
                    "from": "sent-PMC2912359-medscan-94", 
                    "object-type": "map-range", 
                    "to": "sent-PMC2912359-cmu-100"
                }, 
                {
                    "from": "sent-PMC2912359-medscan-3", 
                    "object-type": "map-range", 
                    "to": "sent-PMC2912359-cmu-5"
                }, 
                {
                    "from": "sent-PMC2912359-medscan-197", 
                    "object-type": "map-range", 
                    "to": "sent-PMC2912359-cmu-182"
                }, 
                {
                    "from": "sent-PMC2912359-medscan-59", 
                    "object-type": "map-range", 
                    "to": "sent-PMC2912359-cmu-67"
                }, 
                {
                    "from": "sent-PMC2912359-medscan-72", 
                    "object-type": "map-range", 
                    "to": "sent-PMC2912359-cmu-82"
                }, 
                {
                    "from": "sent-PMC2912359-medscan-72", 
                    "object-type": "map-range", 
                    "to": "sent-PMC2912359-cmu-82"
                }, 
                {
                    "from": "sent-PMC2912359-medscan-167", 
                    "object-type": "map-range", 
                    "to": "sent-PMC2912359-cmu-156"
                }, 
                {
                    "from": "sent-PMC2912359-medscan-167", 
                    "object-type": "map-range", 
                    "to": "sent-PMC2912359-cmu-156"
                }, 
                {
                    "from": "sent-PMC2912359-medscan-41", 
                    "object-type": "map-range", 
                    "to": "sent-PMC2912359-cmu-47"
                }, 
                {
                    "from": "sent-PMC2912359-medscan-185", 
                    "object-type": "map-range", 
                    "to": "sent-PMC2912359-cmu-170"
                }, 
                {
                    "from": "sent-PMC2912359-medscan-121", 
                    "object-type": "map-range", 
                    "to": "sent-PMC2912359-cmu-124"
                }, 
                {
                    "from": "sent-PMC2912359-medscan-45", 
                    "object-type": "map-range", 
                    "to": "sent-PMC2912359-cmu-52"
                }, 
                {
                    "from": "sent-PMC2912359-medscan-37", 
                    "object-type": "map-range", 
                    "to": "sent-PMC2912359-cmu-43"
                }, 
                {
                    "from": "sent-PMC2912359-medscan-36", 
                    "object-type": "map-range", 
                    "to": "sent-PMC2912359-cmu-41"
                }, 
                {
                    "from": "sent-PMC2912359-medscan-80", 
                    "object-type": "map-range", 
                    "to": "sent-PMC2912359-cmu-92"
                }, 
                {
                    "from": "sent-PMC2912359-medscan-40", 
                    "object-type": "map-range", 
                    "to": "sent-PMC2912359-cmu-46"
                }, 
                {
                    "from": "sent-PMC2912359-medscan-188", 
                    "object-type": "map-range", 
                    "to": "sent-PMC2912359-cmu-173"
                }, 
                {
                    "from": "sent-PMC2912359-medscan-57", 
                    "object-type": "map-range", 
                    "to": "sent-PMC2912359-cmu-65"
                }, 
                {
                    "from": "sent-PMC2912359-medscan-12", 
                    "object-type": "map-range", 
                    "to": "sent-PMC2912359-cmu-14"
                }, 
                {
                    "from": "sent-PMC2912359-medscan-134", 
                    "object-type": "map-range", 
                    "to": "sent-PMC2912359-cmu-131"
                }, 
                {
                    "from": "sent-PMC2912359-medscan-66", 
                    "object-type": "map-range", 
                    "to": "sent-PMC2912359-cmu-75"
                }, 
                {
                    "from": "sent-PMC2912359-medscan-133", 
                    "object-type": "map-range", 
                    "to": "sent-PMC2912359-cmu-130"
                }, 
                {
                    "from": "sent-PMC2912359-medscan-73", 
                    "object-type": "map-range", 
                    "to": "sent-PMC2912359-cmu-83"
                }, 
                {
                    "from": "sent-PMC2912359-medscan-189", 
                    "object-type": "map-range", 
                    "to": "sent-PMC2912359-cmu-174"
                }, 
                {
                    "from": "sent-PMC2912359-medscan-39", 
                    "object-type": "map-range", 
                    "to": "sent-PMC2912359-cmu-45"
                }, 
                {
                    "from": "sent-PMC2912359-medscan-60", 
                    "object-type": "map-range", 
                    "to": "sent-PMC2912359-cmu-68"
                }, 
                {
                    "from": "sent-PMC2912359-medscan-52", 
                    "object-type": "map-range", 
                    "to": "sent-PMC2912359-cmu-59"
                }, 
                {
                    "from": "sent-PMC2912359-medscan-111", 
                    "object-type": "map-range", 
                    "to": "sent-PMC2912359-cmu-113"
                }, 
                {
                    "from": "sent-PMC2912359-medscan-10", 
                    "object-type": "map-range", 
                    "to": "sent-PMC2912359-cmu-12"
                }, 
                {
                    "from": "sent-PMC2912359-medscan-56", 
                    "object-type": "map-range", 
                    "to": "sent-PMC2912359-cmu-64"
                }, 
                {
                    "from": "sent-PMC2912359-medscan-15", 
                    "object-type": "map-range", 
                    "to": "sent-PMC2912359-cmu-17"
                }, 
                {
                    "from": "sent-PMC2912359-medscan-158", 
                    "object-type": "map-range", 
                    "to": "sent-PMC2912359-cmu-147"
                }
            ], 
            "object-meta": {
                "component": "Pradeep-Matcher", 
                "object-type": "meta-info", 
                "organization": "CMU"
            }, 
            "object-type": "frame"
        }
    ], 
    "object-meta": {
        "component": "Pradeep-Matcher", 
        "component-type": "machine", 
        "doc-id": "PMC2912359", 
        "object-type": "meta-info", 
        "organization": "CMU"
    }, 
    "object-type": "frame-collection"
}
