{
  "evidence": ["Hsp27 has been reported to interact with STAT3, a crucial transcription factor implicated in the maintenance and anti-apoptotic status of cancerous cells by activating the expression of genes like Bcl-XL and survivin","Hsp27 has been reported to interact with STAT3, a crucial transcription factor implicated in the maintenance and anti-apoptotic status of cancerous cells by activating the expression of genes like Bcl-XL and survivin , ."],
  "extracted_information": {
    "interaction_type": "increases_activity",
    "negative_information": false,
    "participant_a": {
      "entity_text": "Hsp27",
      "entity_type": "protein",
      "identifier": "Uniprot:P04792",
      "in_model": false
    },
    "participant_b": {
      "entity_text": "Bcl-XL and survivin",
      "entity_type": "protein",
      "identifier": "Uniprot:Q5TE63",
      "in_model": true
    }
  },
  "fries_provenance": [
    {
      "component": "MedScan",
      "frame-file": "PMC3251601.cmu.medscan",
      "frame-id": "relm-PMC3251601-cmu-medscan-586",
      "sentence": "Hsp27 has been reported to interact with STAT3, a crucial transcription factor implicated in the maintenance and anti-apoptotic status of cancerous cells by activating the expression of genes like Bcl-XL and survivin , .",
      "text": "Hsp27 has been reported to interact with STAT3, a crucial transcription factor implicated in the maintenance and anti-apoptotic status of cancerous cells by activating the expression of genes like Bcl-XL and survivin"
    }
  ],
  "model_relation": "extension",
  "pmc_id": "PMC3251601",
  "reader_type": "machine",
  "reading_complete": "2015-06-15T22:32:26Z",
  "reading_started": "2015-06-15T22:32:20Z",
  "submitter": "FRIES"
}
