{
    "frames": [
        {
            "frame-id": "sent-PMC3078595-cmu-0", 
            "frame-type": "sentence", 
            "object-type": "frame", 
            "start-pos": {
                "object-type": "absolute-pos", 
                "offset": 0
            }, 
            "text": "XML Paper ( id '3078595 ' ) : 'Drug-induced caspase 8 upregulation sensitises cisplatin-resistant ovarian carcinoma cells to rhTRAIL-induced apoptosis '"
        }, 
        {
            "frame-id": "sent-PMC3078595-cmu-1", 
            "frame-type": "sentence", 
            "object-type": "frame", 
            "start-pos": {
                "object-type": "absolute-pos", 
                "offset": 1
            }, 
            "text": "In ovarian cancer , the majority of tumours acquire drug resistance ."
        }, 
        {
            "frame-id": "sent-PMC3078595-cmu-2", 
            "frame-type": "sentence", 
            "object-type": "frame", 
            "start-pos": {
                "object-type": "absolute-pos", 
                "offset": 2
            }, 
            "text": "Response rates to first-line platinum-based therapy are more than 80 % , but most patients with advanced disease will finally relapse and die because of acquired drug resistance ( Agarwal and Kaye , 2003 ) ."
        }, 
        {
            "frame-id": "sent-PMC3078595-cmu-3", 
            "frame-type": "sentence", 
            "object-type": "frame", 
            "start-pos": {
                "object-type": "absolute-pos", 
                "offset": 3
            }, 
            "text": "Chemoresistance is attributed to numerous mechanisms , which can be broadly divided into decreased DNA damage response via p53 and increased cell survival , mainly through defects in apoptosis ( Wernyj and Morin , 2004 ) ."
        }, 
        {
            "frame-id": "sent-PMC3078595-cmu-4", 
            "frame-type": "sentence", 
            "object-type": "frame", 
            "start-pos": {
                "object-type": "absolute-pos", 
                "offset": 4
            }, 
            "text": "A meta-analysis showed that aberrant p53 status results in a worse 5-year survival for ovarian cancer patients ( Crijns et al , 2003 ) ."
        }, 
        {
            "frame-id": "sent-PMC3078595-cmu-5", 
            "frame-type": "sentence", 
            "object-type": "frame", 
            "start-pos": {
                "object-type": "absolute-pos", 
                "offset": 5
            }, 
            "text": "Triggering apoptosis directly via the extrinsic apoptotic pathway might circumvent escape mechanisms developed by cancer cells ."
        }, 
        {
            "frame-id": "sent-PMC3078595-cmu-6", 
            "frame-type": "sentence", 
            "object-type": "frame", 
            "start-pos": {
                "object-type": "absolute-pos", 
                "offset": 6
            }, 
            "text": "Especially the recombinant human ( rh ) form of the death ligand tumour necrosis factor-related apoptosis inducing ligand ( TRAIL ) is considered to be interesting for clinical use because of its ability to induce apoptosis in several types of cancer cell lines and xenografts ( Wiley et al , 1995 ; Pitti et al , 1996 ; Ashkenazi et al , 2008 ) ."
        }, 
        {
            "frame-id": "sent-PMC3078595-cmu-7", 
            "frame-type": "sentence", 
            "object-type": "frame", 
            "start-pos": {
                "object-type": "absolute-pos", 
                "offset": 7
            }, 
            "text": "Preliminary data from a phase I trial with rhTRAIL showed no major toxicity ( Herbst et al , 2010 ) ."
        }, 
        {
            "frame-id": "sent-PMC3078595-cmu-8", 
            "frame-type": "sentence", 
            "object-type": "frame", 
            "start-pos": {
                "object-type": "absolute-pos", 
                "offset": 8
            }, 
            "text": "TRAIL induces apoptosis by binding to death receptor 4 ( DR4 ) and DR5 ( Ashkenazi et al , 2008 ) ."
        }, 
        {
            "frame-id": "sent-PMC3078595-cmu-9", 
            "frame-type": "sentence", 
            "object-type": "frame", 
            "start-pos": {
                "object-type": "absolute-pos", 
                "offset": 9
            }, 
            "text": "Binding to these DRs causes receptor trimerisation and recruitment of the adaptor protein Fas-associated death domain ( FADD ) ."
        }, 
        {
            "frame-id": "sent-PMC3078595-cmu-10", 
            "frame-type": "sentence", 
            "object-type": "frame", 
            "start-pos": {
                "object-type": "absolute-pos", 
                "offset": 10
            }, 
            "text": "This in turn recruits caspase 8 , resulting in the formation of the death-inducing signalling complex ( DISC ) ( Peter , 2000 ) ."
        }, 
        {
            "frame-id": "sent-PMC3078595-cmu-11", 
            "frame-type": "sentence", 
            "object-type": "frame", 
            "start-pos": {
                "object-type": "absolute-pos", 
                "offset": 11
            }, 
            "text": "Binding of caspase 8 to the DISC causes its activation ( Boatright et al , 2003 ) , with subsequent activation of effector caspases 3 , 6 and 7 , which will execute apoptosis ."
        }, 
        {
            "frame-id": "sent-PMC3078595-cmu-12", 
            "frame-type": "sentence", 
            "object-type": "frame", 
            "start-pos": {
                "object-type": "absolute-pos", 
                "offset": 12
            }, 
            "text": "The cellular FLICE-inhibitory protein ( c-FLIP ) , which is vastly homologous to caspase 8 but lacks enzymatic activity , can also associate with the DISC , blocking activation of caspase 8 through competition for binding sites ."
        }, 
        {
            "frame-id": "sent-PMC3078595-cmu-13", 
            "frame-type": "sentence", 
            "object-type": "frame", 
            "start-pos": {
                "object-type": "absolute-pos", 
                "offset": 13
            }, 
            "text": "It has also been stated that c-FLIP may function as an activator of caspase 8 under specific circumstances ( Micheau et al , 2002 ; Boatright et al , 2004 ) ."
        }, 
        {
            "frame-id": "sent-PMC3078595-cmu-14", 
            "frame-type": "sentence", 
            "object-type": "frame", 
            "start-pos": {
                "object-type": "absolute-pos", 
                "offset": 14
            }, 
            "text": "In addition , the intrinsic apoptotic pathway can be activated by caspase 8 through cleavage of the BH3-only protein Bid that triggers perturbation of the mitochondria by Bax and Bak and finally activation of caspase 9 and effector caspases ( Li et al , 1998 ) ."
        }, 
        {
            "frame-id": "sent-PMC3078595-cmu-15", 
            "frame-type": "sentence", 
            "object-type": "frame", 
            "start-pos": {
                "object-type": "absolute-pos", 
                "offset": 15
            }, 
            "text": "Numerous studies have demonstrated that drug resistance in cancer cells including ovarian cancer cells , could be prevented or overcome by combining rhTRAIL with chemotherapeutics ( Mahalingam et al , 2009 ) ."
        }, 
        {
            "frame-id": "sent-PMC3078595-cmu-16", 
            "frame-type": "sentence", 
            "object-type": "frame", 
            "start-pos": {
                "object-type": "absolute-pos", 
                "offset": 16
            }, 
            "text": "In a previous study , we showed that cisplatin can sensitise ovarian cancer cells to rhTRAIL-induced apoptosis in vitro as well as in a bioluminescent ovarian cancer xenograft model ( Duiker et al , 2009 ) ."
        }, 
        {
            "frame-id": "sent-PMC3078595-cmu-17", 
            "frame-type": "sentence", 
            "object-type": "frame", 
            "start-pos": {
                "object-type": "absolute-pos", 
                "offset": 17
            }, 
            "text": "The described mechanisms involved in modulation in ovarian cancer cells were established by comparison of cell lines with different background and sensitivity patterns , which impede establishment of causal relationships ."
        }, 
        {
            "frame-id": "sent-PMC3078595-cmu-18", 
            "frame-type": "sentence", 
            "object-type": "frame", 
            "start-pos": {
                "object-type": "absolute-pos", 
                "offset": 18
            }, 
            "text": "Therefore , we investigated in an isogenic model of cisplatin resistance the molecular determinants for rhTRAIL sensitivity , the mechanism of synergy between cisplatin and rhTRAIL and the role of functional p53 in this synergy ."
        }, 
        {
            "frame-id": "sent-PMC3078595-cmu-19", 
            "frame-type": "sentence", 
            "object-type": "frame", 
            "start-pos": {
                "object-type": "absolute-pos", 
                "offset": 19
            }, 
            "text": "Materials and Methods"
        }, 
        {
            "frame-id": "sent-PMC3078595-cmu-20", 
            "frame-type": "sentence", 
            "object-type": "frame", 
            "start-pos": {
                "object-type": "absolute-pos", 
                "offset": 20
            }, 
            "text": "Cell lines"
        }, 
        {
            "frame-id": "sent-PMC3078595-cmu-21", 
            "frame-type": "sentence", 
            "object-type": "frame", 
            "start-pos": {
                "object-type": "absolute-pos", 
                "offset": 21
            }, 
            "text": "The ovarian cancer cell lines A2780 and its five-fold cisplatin-resistant subline CP70 , which carry wild-type and functional p53 , were a kind gift from Dr Hamilton ( Fox Chase Cancer Center , Philadelphia , PA , USA ) ( Godwin et al , 1992 ) ."
        }, 
        {
            "frame-id": "sent-PMC3078595-cmu-22", 
            "frame-type": "sentence", 
            "object-type": "frame", 
            "start-pos": {
                "object-type": "absolute-pos", 
                "offset": 22
            }, 
            "text": "Cisplatin resistance in CP70 can partly be explained by an increased DNA repair mechanism and a higher intracellular glutathione content ( Johnson et al , 1994 ) ."
        }, 
        {
            "frame-id": "sent-PMC3078595-cmu-23", 
            "frame-type": "sentence", 
            "object-type": "frame", 
            "start-pos": {
                "object-type": "absolute-pos", 
                "offset": 23
            }, 
            "text": "Cells grew as monolayers in RPMI 1640 ( Life Technologies Breda , the Netherlands ) , supplemented with 10 % heat-inactivated fetal calf serum ( FCS ) ( Bodinco BV , Alkmaar , the Netherlands ) and 0.1 -glutamine ."
        }, 
        {
            "frame-id": "sent-PMC3078595-cmu-24", 
            "frame-type": "sentence", 
            "object-type": "frame", 
            "start-pos": {
                "object-type": "absolute-pos", 
                "offset": 24
            }, 
            "text": "Cell lines were cultured in a humidified atmosphere with 5 % CO2 ."
        }, 
        {
            "frame-id": "sent-PMC3078595-cmu-25", 
            "frame-type": "sentence", 
            "object-type": "frame", 
            "start-pos": {
                "object-type": "absolute-pos", 
                "offset": 25
            }, 
            "text": "Cytotoxicity assay"
        }, 
        {
            "frame-id": "sent-PMC3078595-cmu-26", 
            "frame-type": "sentence", 
            "object-type": "frame", 
            "start-pos": {
                "object-type": "absolute-pos", 
                "offset": 26
            }, 
            "text": "The microculture tetrazolium assay was used to measure cytotoxicity as described earlier ( Duiker et al , 2009 ) ."
        }, 
        {
            "frame-id": "sent-PMC3078595-cmu-27", 
            "frame-type": "sentence", 
            "object-type": "frame", 
            "start-pos": {
                "object-type": "absolute-pos", 
                "offset": 27
            }, 
            "text": "Treatment consisted of continuous incubation with cisplatin ( Pharmacochemie BV , Haarlem , the Netherlands ) or rhTRAIL ( produced as described earlier ( Ashkenazi et al , 1999 ) ) for 96 h. The mean IC50\u00b1s.d ."
        }, 
        {
            "frame-id": "sent-PMC3078595-cmu-28", 
            "frame-type": "sentence", 
            "object-type": "frame", 
            "start-pos": {
                "object-type": "absolute-pos", 
                "offset": 28
            }, 
            "text": "was determined in three experiments , each performed in quadruplicate ."
        }, 
        {
            "frame-id": "sent-PMC3078595-cmu-29", 
            "frame-type": "sentence", 
            "object-type": "frame", 
            "start-pos": {
                "object-type": "absolute-pos", 
                "offset": 29
            }, 
            "text": "Determination of apoptosis"
        }, 
        {
            "frame-id": "sent-PMC3078595-cmu-30", 
            "frame-type": "sentence", 
            "object-type": "frame", 
            "start-pos": {
                "object-type": "absolute-pos", 
                "offset": 30
            }, 
            "text": "In 96-well plates , cells were incubated with either rhTRAIL or cisplatin , or both ."
        }, 
        {
            "frame-id": "sent-PMC3078595-cmu-31", 
            "frame-type": "sentence", 
            "object-type": "frame", 
            "start-pos": {
                "object-type": "absolute-pos", 
                "offset": 31
            }, 
            "text": "The cells were exposed to cisplatin for 4 h , washed with phosphate-buffered saline ( PBS : 6.4 m Na2HPO4 ; 1.5 m KH2PO4 ; 0.14 m NaCl ; 2.7 m KCl ; pH=7.2 ) twice and incubated in regular culture medium ."
        }, 
        {
            "frame-id": "sent-PMC3078595-cmu-32", 
            "frame-type": "sentence", 
            "object-type": "frame", 
            "start-pos": {
                "object-type": "absolute-pos", 
                "offset": 32
            }, 
            "text": "At 20 h after administration of cisplatin , rhTRAIL was added for 4 h. Following rhTRAIL treatment , nuclear chromatin was stained with acridine orange to identify apoptosis by fluorescence microscopy ."
        }, 
        {
            "frame-id": "sent-PMC3078595-cmu-33", 
            "frame-type": "sentence", 
            "object-type": "frame", 
            "start-pos": {
                "object-type": "absolute-pos", 
                "offset": 33
            }, 
            "text": "SDS\u2013polyacrylamide gel electrophoresis and western blotting"
        }, 
        {
            "frame-id": "sent-PMC3078595-cmu-34", 
            "frame-type": "sentence", 
            "object-type": "frame", 
            "start-pos": {
                "object-type": "absolute-pos", 
                "offset": 34
            }, 
            "text": "Cells were treated with rhTRAIL and/or cisplatin as described above ."
        }, 
        {
            "frame-id": "sent-PMC3078595-cmu-35", 
            "frame-type": "sentence", 
            "object-type": "frame", 
            "start-pos": {
                "object-type": "absolute-pos", 
                "offset": 35
            }, 
            "text": "Treatment with the proteasome inhibitor MG132 ( Calbiochem , Breda , the Netherlands ) ( 0.5 \u03bc ) lasted for 24 h and rhTRAIL was added for the last 4 h. The caspase inhibitor I ( zVAD ) ( Calbiochem ) was added 2 h before MG132 ."
        }, 
        {
            "frame-id": "sent-PMC3078595-cmu-36", 
            "frame-type": "sentence", 
            "object-type": "frame", 
            "start-pos": {
                "object-type": "absolute-pos", 
                "offset": 36
            }, 
            "text": "Cycloheximide ( CHX ) ( Sigma-Aldrich , Zwijndrecht , the Netherlands ) exposure was performed as indicated ."
        }, 
        {
            "frame-id": "sent-PMC3078595-cmu-37", 
            "frame-type": "sentence", 
            "object-type": "frame", 
            "start-pos": {
                "object-type": "absolute-pos", 
                "offset": 37
            }, 
            "text": "After treatment , total cell lysates were generated and western blotting was performed as described previously ( Duiker et al , 2009 ) , using the following primary antibodies : Fas-associated death domain and XIAP ( Transduction Laboratories , Alphen a/d Rijn , the Netherlands ) , Bax , Bak , Bcl-2 , Bcl-XS/L and p53-DO-1 ( Santa Cruz , Heerhugowaard , the Netherlands ) , caspase 9 and Cip1/Waf1 ( p21 ) ( BD Biosciences , Alphen a/d Rijn , the Netherlands ) , caspase 8 and cleaved caspase 3 ( Cell Signaling , Leusden , the Netherlands ) ."
        }, 
        {
            "frame-id": "sent-PMC3078595-cmu-38", 
            "frame-type": "sentence", 
            "object-type": "frame", 
            "start-pos": {
                "object-type": "absolute-pos", 
                "offset": 38
            }, 
            "text": "The Bid- and FLIP NF6 antibodies were kindly provided by Dr J Borst ( The Netherlands Cancer Institute , Amsterdam , the Netherlands ) and Dr ME Peter ( The Ben May Institute for Cancer Research , Chicago , IL , USA ) , respectively ."
        }, 
        {
            "frame-id": "sent-PMC3078595-cmu-39", 
            "frame-type": "sentence", 
            "object-type": "frame", 
            "start-pos": {
                "object-type": "absolute-pos", 
                "offset": 39
            }, 
            "text": "Secondary antibodies conjugated with horseradish peroxidase were obtained from DAKO ( Glostrup , Denmark ) ."
        }, 
        {
            "frame-id": "sent-PMC3078595-cmu-40", 
            "frame-type": "sentence", 
            "object-type": "frame", 
            "start-pos": {
                "object-type": "absolute-pos", 
                "offset": 40
            }, 
            "text": "Equal protein loading was confirmed by \u03b2-actin ( ICN Pharmaceuticals , Zoetermeer , the Netherlands ) ."
        }, 
        {
            "frame-id": "sent-PMC3078595-cmu-41", 
            "frame-type": "sentence", 
            "object-type": "frame", 
            "start-pos": {
                "object-type": "absolute-pos", 
                "offset": 41
            }, 
            "text": "Visualisation was performed with BM Chemiluminescence Blotting Substrate ( POD ) or LumiLight Plus Western Blotting Substrate ( Roche Diagnostics , Almere , the Netherlands ) ."
        }, 
        {
            "frame-id": "sent-PMC3078595-cmu-42", 
            "frame-type": "sentence", 
            "object-type": "frame", 
            "start-pos": {
                "object-type": "absolute-pos", 
                "offset": 42
            }, 
            "text": "Flow cytometry"
        }, 
        {
            "frame-id": "sent-PMC3078595-cmu-43", 
            "frame-type": "sentence", 
            "object-type": "frame", 
            "start-pos": {
                "object-type": "absolute-pos", 
                "offset": 43
            }, 
            "text": "Cells were collected using trypsin and washed once with cold PBS ."
        }, 
        {
            "frame-id": "sent-PMC3078595-cmu-44", 
            "frame-type": "sentence", 
            "object-type": "frame", 
            "start-pos": {
                "object-type": "absolute-pos", 
                "offset": 44
            }, 
            "text": "Cells were subsequently washed twice with cold PBS containing 2 % FCS and 0.1 % sodium azide and incubated with phycoerythrin ( PE ) -conjugated mouse monoclonal antibodies against DR4 , DR5 , decoy receptor 1 ( DcR1 ) and decoy receptor 2 ( DcR2 ) ."
        }, 
        {
            "frame-id": "sent-PMC3078595-cmu-45", 
            "frame-type": "sentence", 
            "object-type": "frame", 
            "start-pos": {
                "object-type": "absolute-pos", 
                "offset": 45
            }, 
            "text": "Mouse PE-labelled IgG1 and IgG2B were used as isotype controls ."
        }, 
        {
            "frame-id": "sent-PMC3078595-cmu-46", 
            "frame-type": "sentence", 
            "object-type": "frame", 
            "start-pos": {
                "object-type": "absolute-pos", 
                "offset": 46
            }, 
            "text": "All PE-labeled antibodies were purchased from R & D Systems ( Oxon , UK ) ."
        }, 
        {
            "frame-id": "sent-PMC3078595-cmu-47", 
            "frame-type": "sentence", 
            "object-type": "frame", 
            "start-pos": {
                "object-type": "absolute-pos", 
                "offset": 47
            }, 
            "text": "Receptor membrane expression was analysed using a flow cytometer ( Epics Elite , Coulter Electronics , Hialeah , FL , USA ) and is shown as mean fluorescent intensity ( MFI ) of all analysed cells ."
        }, 
        {
            "frame-id": "sent-PMC3078595-cmu-48", 
            "frame-type": "sentence", 
            "object-type": "frame", 
            "start-pos": {
                "object-type": "absolute-pos", 
                "offset": 48
            }, 
            "text": "RNA interference and gene transfection"
        }, 
        {
            "frame-id": "sent-PMC3078595-cmu-49", 
            "frame-type": "sentence", 
            "object-type": "frame", 
            "start-pos": {
                "object-type": "absolute-pos", 
                "offset": 49
            }, 
            "text": "Small-interfering RNAs ( siRNAs ) were synthesised by Eurogentec ( Seraing , Belgium ) ."
        }, 
        {
            "frame-id": "sent-PMC3078595-cmu-50", 
            "frame-type": "sentence", 
            "object-type": "frame", 
            "start-pos": {
                "object-type": "absolute-pos", 
                "offset": 50
            }, 
            "text": "The double-stranded c-FLIP siRNA was 5\u2032-GAGGUAAGCUGUCUGUCGG-dTdT-3\u2032 ( sense ) and 5\u2032-CCGACAGACAGCUUACCUC-dTdT-3\u2032 ( antisense ) ."
        }, 
        {
            "frame-id": "sent-PMC3078595-cmu-51", 
            "frame-type": "sentence", 
            "object-type": "frame", 
            "start-pos": {
                "object-type": "absolute-pos", 
                "offset": 51
            }, 
            "text": "P53 siRNA 5\u2032-GCAUGAACCGGAGGCCCAU-dTdT-3\u2032 ( sense ) and 5\u2032-AUGGGCCUCCGGUUCAUGC-dTdT-3\u2032 ( anti-sense ) was designed according to Martinez et al ( 2002 ) ."
        }, 
        {
            "frame-id": "sent-PMC3078595-cmu-52", 
            "frame-type": "sentence", 
            "object-type": "frame", 
            "start-pos": {
                "object-type": "absolute-pos", 
                "offset": 52
            }, 
            "text": "Oligonucleotides specific for luciferase mRNA served as a negative control ( Elbashir et al , 2001 ) ."
        }, 
        {
            "frame-id": "sent-PMC3078595-cmu-53", 
            "frame-type": "sentence", 
            "object-type": "frame", 
            "start-pos": {
                "object-type": "absolute-pos", 
                "offset": 53
            }, 
            "text": "Caspase 8 siRNA 5\u2032-CUACCAGAAAGGUAUACCU-dTdT-3\u2032 ( sense ) and 5\u2032-AGGUAUACCUUUCUGGUAG-dTdT-3\u2032 ( anti-sense ) was designed according to Chun et al ( 2002 ) and negative control siRNA from Eurogentec was used ."
        }, 
        {
            "frame-id": "sent-PMC3078595-cmu-54", 
            "frame-type": "sentence", 
            "object-type": "frame", 
            "start-pos": {
                "object-type": "absolute-pos", 
                "offset": 54
            }, 
            "text": "Subconfluent cells were incubated in unsupplemented Optimem medium and transfected with siRNA ( up to 133 n ) using Oligofectamine reagent according to the manufacturer 's protocol ( Invitrogen , Breda , the Netherlands ) ."
        }, 
        {
            "frame-id": "sent-PMC3078595-cmu-55", 
            "frame-type": "sentence", 
            "object-type": "frame", 
            "start-pos": {
                "object-type": "absolute-pos", 
                "offset": 55
            }, 
            "text": "For the caspase 8 overexpression experiments , cells were transfected with pcDNA3-FLICE ( a gift from J Borst ) using Fugene ."
        }, 
        {
            "frame-id": "sent-PMC3078595-cmu-56", 
            "frame-type": "sentence", 
            "object-type": "frame", 
            "start-pos": {
                "object-type": "absolute-pos", 
                "offset": 56
            }, 
            "text": "The next day , cells were treated with cisplatin and/or rhTRAIL as described above , collected and used for protein isolation , cytospins , FACS experiments and/or an apoptosis assay ."
        }, 
        {
            "frame-id": "sent-PMC3078595-cmu-57", 
            "frame-type": "sentence", 
            "object-type": "frame", 
            "start-pos": {
                "object-type": "absolute-pos", 
                "offset": 57
            }, 
            "text": "Cytospins were immunohistochemically stained for caspase 8 as described earlier ( Duiker et al , 2010 ) ."
        }, 
        {
            "frame-id": "sent-PMC3078595-cmu-58", 
            "frame-type": "sentence", 
            "object-type": "frame", 
            "start-pos": {
                "object-type": "absolute-pos", 
                "offset": 58
            }, 
            "text": "Real-time RT\u2013PCR"
        }, 
        {
            "frame-id": "sent-PMC3078595-cmu-59", 
            "frame-type": "sentence", 
            "object-type": "frame", 
            "start-pos": {
                "object-type": "absolute-pos", 
                "offset": 59
            }, 
            "text": "Total RNA was isolated by guanidine isothiocyanate\u2013phenol\u2013chloroform extraction with TRIzol ( Invitrogen ) and purified using the RNeasy mini Kit and on-column DNase I digestion ( Qiagen , Leusden , the Netherlands ) according to the manufacturer 's instructions ."
        }, 
        {
            "frame-id": "sent-PMC3078595-cmu-60", 
            "frame-type": "sentence", 
            "object-type": "frame", 
            "start-pos": {
                "object-type": "absolute-pos", 
                "offset": 60
            }, 
            "text": "Complementary DNA was synthesised from 1600 ng purified RNA as described by the manufacturer 's protocol ( Life Technologies ) using oligo ( dT ) 11 primers and MMLV transcriptase ."
        }, 
        {
            "frame-id": "sent-PMC3078595-cmu-61", 
            "frame-type": "sentence", 
            "object-type": "frame", 
            "start-pos": {
                "object-type": "absolute-pos", 
                "offset": 61
            }, 
            "text": "Real-time RT\u2013PCR was performed in 96-wells plates on a MyiQ real-time detection system ( Bio-Rad , Veenendaal , the Netherlands ) with GAPDH as a housekeeping reference gene ."
        }, 
        {
            "frame-id": "sent-PMC3078595-cmu-62", 
            "frame-type": "sentence", 
            "object-type": "frame", 
            "start-pos": {
                "object-type": "absolute-pos", 
                "offset": 62
            }, 
            "text": "Primer sequences of caspase 8 were 5\u2032-GGAGCTGCTCTTCCGAATTA-3\u2032 ( forward ) and 5\u2032-GCAGGTTCATGTCATCATCC-3\u2032 ( reverse ) and those of GAPDH were 5\u2032-CACCACCATGGAGAAGGCTGG-3\u2032 ( forward ) and 5\u2032-CCAAAGTTGTCATGGATGACC-3\u2032 ( reverse ) ."
        }, 
        {
            "frame-id": "sent-PMC3078595-cmu-63", 
            "frame-type": "sentence", 
            "object-type": "frame", 
            "start-pos": {
                "object-type": "absolute-pos", 
                "offset": 63
            }, 
            "text": "Amplification of the samples in triplicate was carried out in a final reaction volume of 25 \u03bcl , containing 1 \u00d7 iQ SYBR Green Supermix ( Bio-Rad ) , 5 \u03bc of each primer and 5 \u03bcl cDNA ( 1 : 50 ) ."
        }, 
        {
            "frame-id": "sent-PMC3078595-cmu-64", 
            "frame-type": "sentence", 
            "object-type": "frame", 
            "start-pos": {
                "object-type": "absolute-pos", 
                "offset": 64
            }, 
            "text": "The thermocycling programme used for each real-time RT\u2013PCR consisted of an initial 3-min denaturation at 95 \u00b0C , followed by 40 cycles of 15-s denaturation at 95 \u00b0C , 20 s primer annealing at the primer specific Tann and 30-s fragment elongation at 72 \u00b0C ."
        }, 
        {
            "frame-id": "sent-PMC3078595-cmu-65", 
            "frame-type": "sentence", 
            "object-type": "frame", 
            "start-pos": {
                "object-type": "absolute-pos", 
                "offset": 65
            }, 
            "text": "A melting curve was obtained at the end of each 40 cycles of amplification to determine the presence of a unique reaction product ."
        }, 
        {
            "frame-id": "sent-PMC3078595-cmu-66", 
            "frame-type": "sentence", 
            "object-type": "frame", 
            "start-pos": {
                "object-type": "absolute-pos", 
                "offset": 66
            }, 
            "text": "To determine RT\u2013PCR efficiency and initial starting quantity of the samples , a standard curve was generated using samples from a 1 : 3 dilution series of total starting cDNA ."
        }, 
        {
            "frame-id": "sent-PMC3078595-cmu-67", 
            "frame-type": "sentence", 
            "object-type": "frame", 
            "start-pos": {
                "object-type": "absolute-pos", 
                "offset": 67
            }, 
            "text": "Statistical analysis"
        }, 
        {
            "frame-id": "sent-PMC3078595-cmu-68", 
            "frame-type": "sentence", 
            "object-type": "frame", 
            "start-pos": {
                "object-type": "absolute-pos", 
                "offset": 68
            }, 
            "text": "All experiments were performed at least three times on different occasions ."
        }, 
        {
            "frame-id": "sent-PMC3078595-cmu-69", 
            "frame-type": "sentence", 
            "object-type": "frame", 
            "start-pos": {
                "object-type": "absolute-pos", 
                "offset": 69
            }, 
            "text": "Analysis included double-sided non-paired Student 's t-test ."
        }, 
        {
            "frame-id": "sent-PMC3078595-cmu-70", 
            "frame-type": "sentence", 
            "object-type": "frame", 
            "start-pos": {
                "object-type": "absolute-pos", 
                "offset": 70
            }, 
            "text": "A P-value < 0.05 was considered significant ."
        }, 
        {
            "frame-id": "sent-PMC3078595-cmu-71", 
            "frame-type": "sentence", 
            "object-type": "frame", 
            "start-pos": {
                "object-type": "absolute-pos", 
                "offset": 71
            }, 
            "text": "Results"
        }, 
        {
            "frame-id": "sent-PMC3078595-cmu-72", 
            "frame-type": "sentence", 
            "object-type": "frame", 
            "start-pos": {
                "object-type": "absolute-pos", 
                "offset": 72
            }, 
            "text": "Combination of cisplatin and rhTRAIL causes enhanced induction of apoptosis"
        }, 
        {
            "frame-id": "sent-PMC3078595-cmu-73", 
            "frame-type": "sentence", 
            "object-type": "frame", 
            "start-pos": {
                "object-type": "absolute-pos", 
                "offset": 73
            }, 
            "text": "A2780 was moderately sensitive to cisplatin treatment for 96 h , with an IC50 of 2.6 \u03bc in a survival assay ."
        }, 
        {
            "frame-id": "sent-PMC3078595-cmu-74", 
            "frame-type": "sentence", 
            "object-type": "frame", 
            "start-pos": {
                "object-type": "absolute-pos", 
                "offset": 74
            }, 
            "text": "The subline CP70 was five-fold resistant to cisplatin , with an IC50 of 14.7 \u03bc ( Figure 1A ) ."
        }, 
        {
            "frame-id": "sent-PMC3078595-cmu-75", 
            "frame-type": "sentence", 
            "object-type": "frame", 
            "start-pos": {
                "object-type": "absolute-pos", 
                "offset": 75
            }, 
            "text": "The subline CP70 was rhTRAIL resistant , and A2780 was moderately sensitive , as IC50 was not reached using up to 0.25 \u03bcg ml\u22121 in a survival assay for 96 h ( Figure 1B ) ."
        }, 
        {
            "frame-id": "sent-PMC3078595-cmu-76", 
            "frame-type": "sentence", 
            "object-type": "frame", 
            "start-pos": {
                "object-type": "absolute-pos", 
                "offset": 76
            }, 
            "text": "On the basis of previous data , cells were treated for 4 h with cisplatin , recovered for 20 h and treated with rhTRAIL for 4 h for the apoptosis assay ( Duiker et al , 2009 ) ."
        }, 
        {
            "frame-id": "sent-PMC3078595-cmu-77", 
            "frame-type": "sentence", 
            "object-type": "frame", 
            "start-pos": {
                "object-type": "absolute-pos", 
                "offset": 77
            }, 
            "text": "Recombinant human TRAIL ( 0.25 \u03bcg ml\u22121 ) induced moderate levels of apoptosis in A2780 , \u223c20 % , whereas CP70 was not sensitive to rhTRAIL ."
        }, 
        {
            "frame-id": "sent-PMC3078595-cmu-78", 
            "frame-type": "sentence", 
            "object-type": "frame", 
            "start-pos": {
                "object-type": "absolute-pos", 
                "offset": 78
            }, 
            "text": "Combination of cisplatin with rhTRAIL enhanced apoptosis in both cell lines , with \u223c80 % apoptosis in A2780 and \u223c40 % apoptosis in CP70 ( Figure 1C ) ."
        }, 
        {
            "frame-id": "sent-PMC3078595-cmu-79", 
            "frame-type": "sentence", 
            "object-type": "frame", 
            "start-pos": {
                "object-type": "absolute-pos", 
                "offset": 79
            }, 
            "text": "The resistant cell line CP70 has reduced caspase 8 protein levels"
        }, 
        {
            "frame-id": "sent-PMC3078595-cmu-80", 
            "frame-type": "sentence", 
            "object-type": "frame", 
            "start-pos": {
                "object-type": "absolute-pos", 
                "offset": 80
            }, 
            "text": "To determine which cellular characteristics could account for the different sensitivity patterns to rhTRAIL , key components of the TRAIL signalling pathway were analysed ."
        }, 
        {
            "frame-id": "sent-PMC3078595-cmu-81", 
            "frame-type": "sentence", 
            "object-type": "frame", 
            "start-pos": {
                "object-type": "absolute-pos", 
                "offset": 81
            }, 
            "text": "Membrane expression of DR4 and DcR1 were almost undetectable in both cell lines ."
        }, 
        {
            "frame-id": "sent-PMC3078595-cmu-82", 
            "frame-type": "sentence", 
            "object-type": "frame", 
            "start-pos": {
                "object-type": "absolute-pos", 
                "offset": 82
            }, 
            "text": "Decoy receptor 2 expression was similar , whereas DR5 was increased in CP70 ( MFI=120\u00b131 ) vs A2780 ( MFI=53\u00b126 ) ( Figure 2A ) ."
        }, 
        {
            "frame-id": "sent-PMC3078595-cmu-83", 
            "frame-type": "sentence", 
            "object-type": "frame", 
            "start-pos": {
                "object-type": "absolute-pos", 
                "offset": 83
            }, 
            "text": "Western blot analysis showed similar expression of FADD , c-FLIPL , c-FLIPs , caspases 9 and 3 , Bid , Bax , Bak , Bcl-2 and Bcl-XL XIAP levels in A2780 and CP70 ."
        }, 
        {
            "frame-id": "sent-PMC3078595-cmu-84", 
            "frame-type": "sentence", 
            "object-type": "frame", 
            "start-pos": {
                "object-type": "absolute-pos", 
                "offset": 84
            }, 
            "text": "Remarkably , caspase 8 levels were lower in CP70 than in A2780 ( Figure 2B ) ."
        }, 
        {
            "frame-id": "sent-PMC3078595-cmu-85", 
            "frame-type": "sentence", 
            "object-type": "frame", 
            "start-pos": {
                "object-type": "absolute-pos", 
                "offset": 85
            }, 
            "text": "Cisplatin induces upregulation of caspase 8 protein"
        }, 
        {
            "frame-id": "sent-PMC3078595-cmu-86", 
            "frame-type": "sentence", 
            "object-type": "frame", 
            "start-pos": {
                "object-type": "absolute-pos", 
                "offset": 86
            }, 
            "text": "Next , we evaluated the effect of cisplatin on TRAIL-receptor expression and the effect of different regimens on cleavage of caspases 8 and 9 ."
        }, 
        {
            "frame-id": "sent-PMC3078595-cmu-87", 
            "frame-type": "sentence", 
            "object-type": "frame", 
            "start-pos": {
                "object-type": "absolute-pos", 
                "offset": 87
            }, 
            "text": "Cisplatin did not affect DR4 and DcR1 levels ."
        }, 
        {
            "frame-id": "sent-PMC3078595-cmu-88", 
            "frame-type": "sentence", 
            "object-type": "frame", 
            "start-pos": {
                "object-type": "absolute-pos", 
                "offset": 88
            }, 
            "text": "Decoy receptor 2 was moderately upregulated , but DR5 was strongly induced upon exposure to cisplatin in both cell lines ( Figure 2C ) ."
        }, 
        {
            "frame-id": "sent-PMC3078595-cmu-89", 
            "frame-type": "sentence", 
            "object-type": "frame", 
            "start-pos": {
                "object-type": "absolute-pos", 
                "offset": 89
            }, 
            "text": "In response to cisplatin , moderate activation of caspase 8 was induced in A2780 ."
        }, 
        {
            "frame-id": "sent-PMC3078595-cmu-90", 
            "frame-type": "sentence", 
            "object-type": "frame", 
            "start-pos": {
                "object-type": "absolute-pos", 
                "offset": 90
            }, 
            "text": "Recombinant human TRAIL alone induced mild activation of caspases 8 and 9 , whereas upon combination treatment , both caspases were strongly activated ."
        }, 
        {
            "frame-id": "sent-PMC3078595-cmu-91", 
            "frame-type": "sentence", 
            "object-type": "frame", 
            "start-pos": {
                "object-type": "absolute-pos", 
                "offset": 91
            }, 
            "text": "In CP70 , cisplatin induced upregulation of procaspase 8 levels ."
        }, 
        {
            "frame-id": "sent-PMC3078595-cmu-92", 
            "frame-type": "sentence", 
            "object-type": "frame", 
            "start-pos": {
                "object-type": "absolute-pos", 
                "offset": 92
            }, 
            "text": "Recombinant human TRAIL induced a slight activation of caspases 8 and 9 , whereas the combination of cisplatin and rhTRAIL resulted in strong activation of both caspases ( Figure 2D ) ."
        }, 
        {
            "frame-id": "sent-PMC3078595-cmu-93", 
            "frame-type": "sentence", 
            "object-type": "frame", 
            "start-pos": {
                "object-type": "absolute-pos", 
                "offset": 93
            }, 
            "text": "Caspase 8 protein levels affect rhTRAIL-induced apoptosis"
        }, 
        {
            "frame-id": "sent-PMC3078595-cmu-94", 
            "frame-type": "sentence", 
            "object-type": "frame", 
            "start-pos": {
                "object-type": "absolute-pos", 
                "offset": 94
            }, 
            "text": "As caspase 8 protein levels are reduced in CP70 compared with A2780 , we examined the importance of caspase 8 protein levels for rhTRAIL-sensitivity following cisplatin pre-treatment ."
        }, 
        {
            "frame-id": "sent-PMC3078595-cmu-95", 
            "frame-type": "sentence", 
            "object-type": "frame", 
            "start-pos": {
                "object-type": "absolute-pos", 
                "offset": 95
            }, 
            "text": "Efficient downregulation of caspase 8 with siRNA strongly reduced apoptosis induction following treatment of A2780 and CP70 with rhTRAIL alone and combined with cisplatin ( Figure 3A ) ."
        }, 
        {
            "frame-id": "sent-PMC3078595-cmu-96", 
            "frame-type": "sentence", 
            "object-type": "frame", 
            "start-pos": {
                "object-type": "absolute-pos", 
                "offset": 96
            }, 
            "text": "In caspase 8 siRNA-transfected cells , combined treatment with cisplatin and rhTRAIL minimally induced caspases 8 and 3 activation , whereas in negative control siRNA-transfected cells , strong activation of both caspase 8 and 3 was observed ( Figure 3B ) ."
        }, 
        {
            "frame-id": "sent-PMC3078595-cmu-97", 
            "frame-type": "sentence", 
            "object-type": "frame", 
            "start-pos": {
                "object-type": "absolute-pos", 
                "offset": 97
            }, 
            "text": "It can be noticed that caspase 3 levels are also slightly upregulated following cisplatin in both cell lines ( Figure 3B ) ."
        }, 
        {
            "frame-id": "sent-PMC3078595-cmu-98", 
            "frame-type": "sentence", 
            "object-type": "frame", 
            "start-pos": {
                "object-type": "absolute-pos", 
                "offset": 98
            }, 
            "text": "A role for caspase 3 in rhTRAIL sensitisation can therefore not be excluded ."
        }, 
        {
            "frame-id": "sent-PMC3078595-cmu-99", 
            "frame-type": "sentence", 
            "object-type": "frame", 
            "start-pos": {
                "object-type": "absolute-pos", 
                "offset": 99
            }, 
            "text": "However , the importance of caspase 8 levels was also demonstrated by transient upregulation of caspase 8 in CP70 that enhanced apoptosis induction by rhTRAIL alone and by the rhTRAIL\u2013cisplatin combination ( Figures 3C and D ) ."
        }, 
        {
            "frame-id": "sent-PMC3078595-cmu-100", 
            "frame-type": "sentence", 
            "object-type": "frame", 
            "start-pos": {
                "object-type": "absolute-pos", 
                "offset": 100
            }, 
            "text": "Cisplatin increases caspase 8 mRNA levels"
        }, 
        {
            "frame-id": "sent-PMC3078595-cmu-101", 
            "frame-type": "sentence", 
            "object-type": "frame", 
            "start-pos": {
                "object-type": "absolute-pos", 
                "offset": 101
            }, 
            "text": "We investigated the mechanism causing reduced basal caspase 8 protein levels and cisplatin-induced caspase 8 upregulation in CP70 ."
        }, 
        {
            "frame-id": "sent-PMC3078595-cmu-102", 
            "frame-type": "sentence", 
            "object-type": "frame", 
            "start-pos": {
                "object-type": "absolute-pos", 
                "offset": 102
            }, 
            "text": "Basal caspase 8 mRNA levels were slightly higher in CP70 than in A2780 ."
        }, 
        {
            "frame-id": "sent-PMC3078595-cmu-103", 
            "frame-type": "sentence", 
            "object-type": "frame", 
            "start-pos": {
                "object-type": "absolute-pos", 
                "offset": 103
            }, 
            "text": "Exposure to cisplatin resulted in 1.5-fold induction of caspase 8 mRNA in both the cell lines ( Figure 4A ) ."
        }, 
        {
            "frame-id": "sent-PMC3078595-cmu-104", 
            "frame-type": "sentence", 
            "object-type": "frame", 
            "start-pos": {
                "object-type": "absolute-pos", 
                "offset": 104
            }, 
            "text": "Possible differences in mRNA stability over time and in response to cisplatin were determined using actinomycin D. Caspase 8 mRNA degradation in the absence or presence of cisplatin was not different between A2780 and CP70 ( P=0.35 ) ( Figure 4B ) ."
        }, 
        {
            "frame-id": "sent-PMC3078595-cmu-105", 
            "frame-type": "sentence", 
            "object-type": "frame", 
            "start-pos": {
                "object-type": "absolute-pos", 
                "offset": 105
            }, 
            "text": "These results show that cisplatin does not influence caspase 8 mRNA degradation , indicating that the induction of mRNA is caused by increased transcription ."
        }, 
        {
            "frame-id": "sent-PMC3078595-cmu-106", 
            "frame-type": "sentence", 
            "object-type": "frame", 
            "start-pos": {
                "object-type": "absolute-pos", 
                "offset": 106
            }, 
            "text": "Caspase 8 protein translation is reduced in CP70"
        }, 
        {
            "frame-id": "sent-PMC3078595-cmu-107", 
            "frame-type": "sentence", 
            "object-type": "frame", 
            "start-pos": {
                "object-type": "absolute-pos", 
                "offset": 107
            }, 
            "text": "The similar caspase 8 mRNA expression , whereas different basal caspase 8 protein levels were observed , suggest possible changes in caspase 8 protein translation or degradation in CP70 ."
        }, 
        {
            "frame-id": "sent-PMC3078595-cmu-108", 
            "frame-type": "sentence", 
            "object-type": "frame", 
            "start-pos": {
                "object-type": "absolute-pos", 
                "offset": 108
            }, 
            "text": "Cells were exposed to the proteasome inhibitor MG132 to test whether increased proteasomal degradation causes the reduced caspase 8 protein levels in CP70 ."
        }, 
        {
            "frame-id": "sent-PMC3078595-cmu-109", 
            "frame-type": "sentence", 
            "object-type": "frame", 
            "start-pos": {
                "object-type": "absolute-pos", 
                "offset": 109
            }, 
            "text": "Treatment with MG312 induced upregulation of active caspase 8 , leading to concomitant synergy with rhTRAIL ( Figure 4C ) ."
        }, 
        {
            "frame-id": "sent-PMC3078595-cmu-110", 
            "frame-type": "sentence", 
            "object-type": "frame", 
            "start-pos": {
                "object-type": "absolute-pos", 
                "offset": 110
            }, 
            "text": "To prevent caspase 8 activation by MG132 treatment , cells were co-incubated with the caspase inhibitor zVAD for 24 h , which did not lead to a change in full-length caspase 8 levels ( Figure 4D ) ."
        }, 
        {
            "frame-id": "sent-PMC3078595-cmu-111", 
            "frame-type": "sentence", 
            "object-type": "frame", 
            "start-pos": {
                "object-type": "absolute-pos", 
                "offset": 111
            }, 
            "text": "Cycloheximide exposure for up to 24 h slightly affected caspase 8 levels in both cell lines , whereas caspase 8 degradation was not different between A2780 and CP70 ( Figure 4E ) ."
        }, 
        {
            "frame-id": "sent-PMC3078595-cmu-112", 
            "frame-type": "sentence", 
            "object-type": "frame", 
            "start-pos": {
                "object-type": "absolute-pos", 
                "offset": 112
            }, 
            "text": "These results show that not caspase 8 protein stability but rather a decreased translation of caspase 8 mRNA is causing the reduced caspase 8 expression in CP70 ."
        }, 
        {
            "frame-id": "sent-PMC3078595-cmu-113", 
            "frame-type": "sentence", 
            "object-type": "frame", 
            "start-pos": {
                "object-type": "absolute-pos", 
                "offset": 113
            }, 
            "text": "Increased caspase 8 but not the caspase 8/c-FLIP ratio is involved in the response to cisplatin and rhTRAIL in CP70"
        }, 
        {
            "frame-id": "sent-PMC3078595-cmu-114", 
            "frame-type": "sentence", 
            "object-type": "frame", 
            "start-pos": {
                "object-type": "absolute-pos", 
                "offset": 114
            }, 
            "text": "Difference in caspase 8/c-FLIP ratio between A2780 and CP70 might contribute to resistance in CP70 ."
        }, 
        {
            "frame-id": "sent-PMC3078595-cmu-115", 
            "frame-type": "sentence", 
            "object-type": "frame", 
            "start-pos": {
                "object-type": "absolute-pos", 
                "offset": 115
            }, 
            "text": "However , efficient downregulation of both c-FLIPL and c-FLIPs with siRNA did not lead to increased apoptosis after either treatment regimen , and did not affect caspase 8 cleavage ( Figure 5A ) ."
        }, 
        {
            "frame-id": "sent-PMC3078595-cmu-116", 
            "frame-type": "sentence", 
            "object-type": "frame", 
            "start-pos": {
                "object-type": "absolute-pos", 
                "offset": 116
            }, 
            "text": "Downregulation even led to a significant decrease in apoptosis in CP70 ( Figure 5B ) ."
        }, 
        {
            "frame-id": "sent-PMC3078595-cmu-117", 
            "frame-type": "sentence", 
            "object-type": "frame", 
            "start-pos": {
                "object-type": "absolute-pos", 
                "offset": 117
            }, 
            "text": "These results indicate that solely the elevated caspase 8 level is involved in the onset of apoptosis after combination treatment in CP70 ."
        }, 
        {
            "frame-id": "sent-PMC3078595-cmu-118", 
            "frame-type": "sentence", 
            "object-type": "frame", 
            "start-pos": {
                "object-type": "absolute-pos", 
                "offset": 118
            }, 
            "text": "Moreover , c-FLIP even promotes caspase 8 activation in these cells ."
        }, 
        {
            "frame-id": "sent-PMC3078595-cmu-119", 
            "frame-type": "sentence", 
            "object-type": "frame", 
            "start-pos": {
                "object-type": "absolute-pos", 
                "offset": 119
            }, 
            "text": "P53 causes cisplatin-induced DR5 expression , but is not involved in rhTRAIL sensitisation"
        }, 
        {
            "frame-id": "sent-PMC3078595-cmu-120", 
            "frame-type": "sentence", 
            "object-type": "frame", 
            "start-pos": {
                "object-type": "absolute-pos", 
                "offset": 120
            }, 
            "text": "As p53-induced upregulation of DR5 is frequently described to be instrumental in the synergistic effect between chemotherapeutics and rhTRAIL ( Wu et al , 2004 ) , we asked whether the synergistic effect of cisplatin and rhTRAIL was p53 dependent ."
        }, 
        {
            "frame-id": "sent-PMC3078595-cmu-121", 
            "frame-type": "sentence", 
            "object-type": "frame", 
            "start-pos": {
                "object-type": "absolute-pos", 
                "offset": 121
            }, 
            "text": "The tumor suppressor protein p53 was efficiently and functionally downregulated using siRNA in A2780 and CP70 as shown by the decreased expression of p21 ( Waf1/Cip1 ) , a transcriptional target of p53 ( Figure 6A ) ."
        }, 
        {
            "frame-id": "sent-PMC3078595-cmu-122", 
            "frame-type": "sentence", 
            "object-type": "frame", 
            "start-pos": {
                "object-type": "absolute-pos", 
                "offset": 122
            }, 
            "text": "In response to cisplatin , p53 levels rose slightly in p53-suppressed cells , but the levels remained far below those in the untreated luciferase siRNA-transfected cells ."
        }, 
        {
            "frame-id": "sent-PMC3078595-cmu-123", 
            "frame-type": "sentence", 
            "object-type": "frame", 
            "start-pos": {
                "object-type": "absolute-pos", 
                "offset": 123
            }, 
            "text": "Apoptosis induction ( Figure 6B ) and activation of caspases 8 , 9 and 3 ( Figure 6C ) were not affected by p53 siRNA ."
        }, 
        {
            "frame-id": "sent-PMC3078595-cmu-124", 
            "frame-type": "sentence", 
            "object-type": "frame", 
            "start-pos": {
                "object-type": "absolute-pos", 
                "offset": 124
            }, 
            "text": "Following p53 downregulation , basal DR5 membrane expression maintained unchanged , whereas cisplatin-induced DR5 membrane expression was effectively suppressed in A2780 and CP70 ( Figure 6D ) ."
        }, 
        {
            "frame-id": "sent-PMC3078595-cmu-125", 
            "frame-type": "sentence", 
            "object-type": "frame", 
            "start-pos": {
                "object-type": "absolute-pos", 
                "offset": 125
            }, 
            "text": "These results show that p53-dependent upregulation of DR5 is not involved in the synergy between cisplatin and rhTRAIL ."
        }, 
        {
            "frame-id": "sent-PMC3078595-cmu-126", 
            "frame-type": "sentence", 
            "object-type": "frame", 
            "start-pos": {
                "object-type": "absolute-pos", 
                "offset": 126
            }, 
            "text": "In addition , DISC-IP using a DR5 antibody following cisplatin treatment showed that DISC formation is not impeded in CP70 ( data not shown ) ."
        }, 
        {
            "frame-id": "sent-PMC3078595-cmu-127", 
            "frame-type": "sentence", 
            "object-type": "frame", 
            "start-pos": {
                "object-type": "absolute-pos", 
                "offset": 127
            }, 
            "text": "Discussion"
        }, 
        {
            "frame-id": "sent-PMC3078595-cmu-128", 
            "frame-type": "sentence", 
            "object-type": "frame", 
            "start-pos": {
                "object-type": "absolute-pos", 
                "offset": 128
            }, 
            "text": "In the present study , we show that the cellular caspase 8 protein level is an important determinant of sensitivity to rhTRAIL-induced apoptosis in an isogenic ovarian cancer cell line model of acquired cisplatin resistance ."
        }, 
        {
            "frame-id": "sent-PMC3078595-cmu-129", 
            "frame-type": "sentence", 
            "object-type": "frame", 
            "start-pos": {
                "object-type": "absolute-pos", 
                "offset": 129
            }, 
            "text": "Combination of cisplatin and rhTRAIL effectively induced apoptosis , with cisplatin-induced caspase 8 protein expression being the key factor of sensitisation to rhTRAIL in CP70 ."
        }, 
        {
            "frame-id": "sent-PMC3078595-cmu-130", 
            "frame-type": "sentence", 
            "object-type": "frame", 
            "start-pos": {
                "object-type": "absolute-pos", 
                "offset": 130
            }, 
            "text": "The central role of caspase 8 was further indicated by our observation that cisplatin-induced DR5 upregulation was not an important sensitising factor ."
        }, 
        {
            "frame-id": "sent-PMC3078595-cmu-131", 
            "frame-type": "sentence", 
            "object-type": "frame", 
            "start-pos": {
                "object-type": "absolute-pos", 
                "offset": 131
            }, 
            "text": "As caspase 8 mRNA levels do not differ significantly between A2780 and CP70 , the low caspase 8 protein levels in CP70 are likely to be caused by decreased translation of caspase 8 protein rather than decreased transcription through methylation or genetic alterations that occur in neuroblastoma ( Teitz et al , 2000 ; Takita et al , 2001 ) and in other solid tumours ( Kim et al , 2003 ; Soung et al , 2005 ) ."
        }, 
        {
            "frame-id": "sent-PMC3078595-cmu-132", 
            "frame-type": "sentence", 
            "object-type": "frame", 
            "start-pos": {
                "object-type": "absolute-pos", 
                "offset": 132
            }, 
            "text": "Increased caspase 8 protein degradation in CP70 was ruled out , as the effect of inhibition of protein synthesis and proteasomal degradation on caspase 8 levels was not different between A2780 and CP70 ."
        }, 
        {
            "frame-id": "sent-PMC3078595-cmu-133", 
            "frame-type": "sentence", 
            "object-type": "frame", 
            "start-pos": {
                "object-type": "absolute-pos", 
                "offset": 133
            }, 
            "text": "Translational and post-translational modifications are important factors of the expression levels and activity of key proteins in the regulation of cell survival and apoptosis such as p53 ( Xu , 2003 ) , p73 ( Ozaki et al , 2005 ) , XIAP and APAF-1 ( Holcik and Sonenberg , 2005 ) ."
        }, 
        {
            "frame-id": "sent-PMC3078595-cmu-134", 
            "frame-type": "sentence", 
            "object-type": "frame", 
            "start-pos": {
                "object-type": "absolute-pos", 
                "offset": 134
            }, 
            "text": "Recently , attention has been drawn to microRNAs ( miRNAs ) as important regulators of translation and mRNA stability ( Kent and Mendell , 2006 ) ."
        }, 
        {
            "frame-id": "sent-PMC3078595-cmu-135", 
            "frame-type": "sentence", 
            "object-type": "frame", 
            "start-pos": {
                "object-type": "absolute-pos", 
                "offset": 135
            }, 
            "text": "Deregulation of several miRNAs was described for ovarian cancer , and an important role for miRNAs in cisplatin and TRAIL resistance was shown in ovarian and lung cancer , respectively ( Garofalo et al , 2008 ; Yang et al , 2008 ) ."
        }, 
        {
            "frame-id": "sent-PMC3078595-cmu-136", 
            "frame-type": "sentence", 
            "object-type": "frame", 
            "start-pos": {
                "object-type": "absolute-pos", 
                "offset": 136
            }, 
            "text": "In melanoma cells , an inducible post-translational modification of mRNA contributed to TRAIL resistance , in which cytosolic proteins could suppress DR5 protein expression by binding to the 3\u2032-untranslated region of DR5-mRNA ( Zhang et al , 2004 ) ."
        }, 
        {
            "frame-id": "sent-PMC3078595-cmu-137", 
            "frame-type": "sentence", 
            "object-type": "frame", 
            "start-pos": {
                "object-type": "absolute-pos", 
                "offset": 137
            }, 
            "text": "These studies support our hypothesis that a post-transcriptional mechanism is involved in the low expression of caspase 8 in CP70 ."
        }, 
        {
            "frame-id": "sent-PMC3078595-cmu-138", 
            "frame-type": "sentence", 
            "object-type": "frame", 
            "start-pos": {
                "object-type": "absolute-pos", 
                "offset": 138
            }, 
            "text": "The fact that most prominently in CP70 , caspase 8 translation could be enhanced by cisplatin exposure argues in favour of a reversible block of translation ."
        }, 
        {
            "frame-id": "sent-PMC3078595-cmu-139", 
            "frame-type": "sentence", 
            "object-type": "frame", 
            "start-pos": {
                "object-type": "absolute-pos", 
                "offset": 139
            }, 
            "text": "Low caspase 8 levels were previously shown to contribute to rhTRAIL resistance in several cell line models and tumours ( Hopkins-Donaldson et al , 2000 ; Zhang et al , 2005 ) ."
        }, 
        {
            "frame-id": "sent-PMC3078595-cmu-140", 
            "frame-type": "sentence", 
            "object-type": "frame", 
            "start-pos": {
                "object-type": "absolute-pos", 
                "offset": 140
            }, 
            "text": "Regarding the role of caspase 8 and the extrinsic apoptotic pathway in chemotherapy-induced cell death , conflicting reports have been published ."
        }, 
        {
            "frame-id": "sent-PMC3078595-cmu-141", 
            "frame-type": "sentence", 
            "object-type": "frame", 
            "start-pos": {
                "object-type": "absolute-pos", 
                "offset": 141
            }, 
            "text": "Death receptor-dependent and -independent activation of caspase 8 was involved in the response to different chemotherapeutic drugs ( Fulda et al , 2001 ; Spierings et al , 2003 ; Longley et al , 2006 ) ."
        }, 
        {
            "frame-id": "sent-PMC3078595-cmu-142", 
            "frame-type": "sentence", 
            "object-type": "frame", 
            "start-pos": {
                "object-type": "absolute-pos", 
                "offset": 142
            }, 
            "text": "In addition , resistance to these drugs through defects in the extrinsic pathway further supported the involvement of this pathway in chemotherapy-induced cell death ( Abedini et al , 2004 ; Longley et al , 2006 ) ."
        }, 
        {
            "frame-id": "sent-PMC3078595-cmu-143", 
            "frame-type": "sentence", 
            "object-type": "frame", 
            "start-pos": {
                "object-type": "absolute-pos", 
                "offset": 143
            }, 
            "text": "Besides the differential expression of caspase 8 , we found no other proteins that could account for the difference in rhTRAIL sensitivity between A2780 and CP70 ."
        }, 
        {
            "frame-id": "sent-PMC3078595-cmu-144", 
            "frame-type": "sentence", 
            "object-type": "frame", 
            "start-pos": {
                "object-type": "absolute-pos", 
                "offset": 144
            }, 
            "text": "As caspase 3 was slightly upregulated in both cell lines following cisplatin , a role for caspase 3 and hence also for XIAP can not be completely ruled out ( Fraser et al , 2003 ) ."
        }, 
        {
            "frame-id": "sent-PMC3078595-cmu-145", 
            "frame-type": "sentence", 
            "object-type": "frame", 
            "start-pos": {
                "object-type": "absolute-pos", 
                "offset": 145
            }, 
            "text": "However , basal caspase 3 levels did not differ between the two cell lines , excluding caspase 3 as a determinant for the difference in rhTRAIL sensitivity ."
        }, 
        {
            "frame-id": "sent-PMC3078595-cmu-146", 
            "frame-type": "sentence", 
            "object-type": "frame", 
            "start-pos": {
                "object-type": "absolute-pos", 
                "offset": 146
            }, 
            "text": "A reduced caspase 8/c-FLIP ratio can result in resistance to DR signalling ( Mitsiades et al , 2002 ; Baumler et al , 2003 ) , whereas an increased caspase 8/c-FLIP ratio in the DISC can cause sensitisation to rhTRAIL by chemotherapeutics ( Lacour et al , 2003 ; Ganten et al , 2004 ) ."
        }, 
        {
            "frame-id": "sent-PMC3078595-cmu-147", 
            "frame-type": "sentence", 
            "object-type": "frame", 
            "start-pos": {
                "object-type": "absolute-pos", 
                "offset": 147
            }, 
            "text": "In our cell lines , downregulation of c-FLIP did not increase apoptosis induction ."
        }, 
        {
            "frame-id": "sent-PMC3078595-cmu-148", 
            "frame-type": "sentence", 
            "object-type": "frame", 
            "start-pos": {
                "object-type": "absolute-pos", 
                "offset": 148
            }, 
            "text": "In the resistant CP70 , downregulation of c-FLIP even resulted in a significant drop in apoptosis levels after exposure to cisplatin and rhTRAIL ."
        }, 
        {
            "frame-id": "sent-PMC3078595-cmu-149", 
            "frame-type": "sentence", 
            "object-type": "frame", 
            "start-pos": {
                "object-type": "absolute-pos", 
                "offset": 149
            }, 
            "text": "This suggests that c-FLIP functions as a pro-apoptotic protein in CP70 and that the caspase 8 level is the most important determinant for rhTRAIL sensitivity ."
        }, 
        {
            "frame-id": "sent-PMC3078595-cmu-150", 
            "frame-type": "sentence", 
            "object-type": "frame", 
            "start-pos": {
                "object-type": "absolute-pos", 
                "offset": 150
            }, 
            "text": "Although extensive literature exists on the anti-apoptotic function of c-FLIP , a role of c-FLIP in activation of caspase 8 was also reported ( Micheau et al , 2002 ; Boatright et al , 2004 ) ."
        }, 
        {
            "frame-id": "sent-PMC3078595-cmu-151", 
            "frame-type": "sentence", 
            "object-type": "frame", 
            "start-pos": {
                "object-type": "absolute-pos", 
                "offset": 151
            }, 
            "text": "It is postulated that the c-FLIPL concentration at the DISC determines whether caspase 8 activation or inhibition occurs ( Boatright et al , 2004 ; Peter , 2004 ) ."
        }, 
        {
            "frame-id": "sent-PMC3078595-cmu-152", 
            "frame-type": "sentence", 
            "object-type": "frame", 
            "start-pos": {
                "object-type": "absolute-pos", 
                "offset": 152
            }, 
            "text": "Thus , it can be reasoned that the caspase 8-activating function of FLIP applies to A2780 and CP70 , especially when low caspase 8 levels are present and heterodimerisation can occur more easily than homodimerisation ."
        }, 
        {
            "frame-id": "sent-PMC3078595-cmu-153", 
            "frame-type": "sentence", 
            "object-type": "frame", 
            "start-pos": {
                "object-type": "absolute-pos", 
                "offset": 153
            }, 
            "text": "Upregulation of DR4 or DR5 , which can occur in a p53-dependent or -independent manner in response to chemotherapeutics ( Wu et al , 1997 ; Sheikh et al , 1998 ) , is often described as a key event in the synergistic effect between chemotherapeutics and rhTRAIL ( Wu et al , 2004 ) ."
        }, 
        {
            "frame-id": "sent-PMC3078595-cmu-154", 
            "frame-type": "sentence", 
            "object-type": "frame", 
            "start-pos": {
                "object-type": "absolute-pos", 
                "offset": 154
            }, 
            "text": "In this study , we show that the increase of DRs after chemotherapy treatment might just be an epiphenomenon , instead of a key event in modulation of rhTRAIL-induced cell death by chemotherapeutics ."
        }, 
        {
            "frame-id": "sent-PMC3078595-cmu-155", 
            "frame-type": "sentence", 
            "object-type": "frame", 
            "start-pos": {
                "object-type": "absolute-pos", 
                "offset": 155
            }, 
            "text": "Downregulation of p53 did not affect apoptosis induction in both cell lines , whereas the substantial increase of DR5 after treatment with cisplatin was almost completely abrogated by p53 downregulation ."
        }, 
        {
            "frame-id": "sent-PMC3078595-cmu-156", 
            "frame-type": "sentence", 
            "object-type": "frame", 
            "start-pos": {
                "object-type": "absolute-pos", 
                "offset": 156
            }, 
            "text": "It has been shown that p53 is required for cisplatin-induced apoptosis either via p53-dependent ubiquitination of FLIP or through p53-induced XIAP and Akt downregulation when used as a single agent ( Fraser et al , 2003 ; Abedini et al , 2008 ) ."
        }, 
        {
            "frame-id": "sent-PMC3078595-cmu-157", 
            "frame-type": "sentence", 
            "object-type": "frame", 
            "start-pos": {
                "object-type": "absolute-pos", 
                "offset": 157
            }, 
            "text": "These results may explain why CP70 has reduced caspase 8 levels compared with A2780 ."
        }, 
        {
            "frame-id": "sent-PMC3078595-cmu-158", 
            "frame-type": "sentence", 
            "object-type": "frame", 
            "start-pos": {
                "object-type": "absolute-pos", 
                "offset": 158
            }, 
            "text": "However , in our experiments we have chosen to use cisplatin in a short-treatment setting ."
        }, 
        {
            "frame-id": "sent-PMC3078595-cmu-159", 
            "frame-type": "sentence", 
            "object-type": "frame", 
            "start-pos": {
                "object-type": "absolute-pos", 
                "offset": 159
            }, 
            "text": "This was followed by a short treatment with rhTRAIL , and we have demonstrated that upon combination of cisplatin and rhTRAIL , p53 is no longer required for apoptosis induction ."
        }, 
        {
            "frame-id": "sent-PMC3078595-cmu-160", 
            "frame-type": "sentence", 
            "object-type": "frame", 
            "start-pos": {
                "object-type": "absolute-pos", 
                "offset": 160
            }, 
            "text": "Conclusively , these results show that cisplatin enhances rhTRAIL sensitivity in both cisplatin-sensitive and -resistant cells ."
        }, 
        {
            "frame-id": "sent-PMC3078595-cmu-161", 
            "frame-type": "sentence", 
            "object-type": "frame", 
            "start-pos": {
                "object-type": "absolute-pos", 
                "offset": 161
            }, 
            "text": "Induction of caspase 8 protein expression is the key factor of rhTRAIL sensitisation ."
        }
    ], 
    "object-meta": {
        "component": "Nicolas-NXML-Parser", 
        "component-type": "machine", 
        "doc-id": "PMC3078595", 
        "object-type": "meta-info", 
        "organization": "CMU"
    }, 
    "object-type": "frame-collection"
}
