{
  "evidence": ["The vascular phenotype of tsad-/- mice demonstrates, in an in vivo setting, the essential role of TSAd-regulated c-sarcoma signal transduction in dynamic regulation of Vascular endothelial-cadherin-positive adherens junction, which is required for VEGF-induced vascular permeability.","TSAd regulates adherens junctions","TSAd regulates adherens junctions in vivo. (A) Cremaster muscles superfused for 30 min with vehicle (top) or with 100 ng/ml VEGF (middle), followed by whole-mount immunostaining with anti-VE-cadherin.","TSAd-regulated c-sarcoma signal transduction in dynamic regulation of Vascular endothelial-cadherin-positive adherens junction"],
  "extracted_information": {
    "interaction_type": "increases",
    "negative_information": false,
    "participant_a": {
      "entity_text": "TSAd",
      "entity_type": "protein",
      "identifier": "Uniprot:Q9NP31",
      "in_model": false
    },
    "participant_b": {
      "entity_text": "adherens junction",
      "entity_type": "complex",
      "identifier": "GO:0005912",
      "in_model": true
    }
  },
  "fries_provenance": [
    {
      "cmu-sentence-epistemic-status": "implication",
      "cmu-sentence-epistemic-value": 0.6,
      "component": "MedScan",
      "frame-file": "PMC3405501.cmu.medscan",
      "frame-id": "relm-PMC3405501-cmu-medscan-735",
      "sentence": "The vascular phenotype of tsad-/- mice demonstrates, in an in vivo setting, the essential role of TSAd-regulated c-sarcoma signal transduction in dynamic regulation of Vascular endothelial-cadherin-positive adherens junction, which is required for VEGF-induced vascular permeability.",
      "text": "TSAd-regulated c-sarcoma signal transduction in dynamic regulation of Vascular endothelial-cadherin-positive adherens junction"
    },
    {
      "component": "MedScan",
      "frame-file": "PMC3405501.cmu.medscan",
      "frame-id": "relm-PMC3405501-cmu-medscan-753",
      "sentence": "TSAd regulates adherens junctions in vivo. (A) Cremaster muscles superfused for 30 min with vehicle (top) or with 100 ng/ml VEGF (middle), followed by whole-mount immunostaining with anti-VE-cadherin.",
      "text": "TSAd regulates adherens junctions"
    }
  ],
  "model_relation": "extension",
  "pmc_id": "PMC3405501",
  "reader_type": "machine",
  "reading_complete": "2015-06-15T22:52:37Z",
  "reading_started": "2015-06-15T22:52:32Z",
  "submitter": "FRIES"
}
