{
  "evidence": ["MET in AML because ALK","To assess the potential of HGF/MET signaling as a therapeutic target, we investigated the sensitivity of HGF/MET-dependent AML cell lines to chemical inhibition of the MET kinase using the specific MET/ALK inhibitor crizotinib , which permits targeting of MET in AML because ALK is not expressed by hematopoietic cells or any of the AML cell lines studied to date ."],
  "extracted_information": {
    "interaction_type": "increases",
    "negative_information": false,
    "participant_a": {
      "entity_text": "ALK",
      "entity_type": "protein",
      "identifier": "Uniprot:Q580I3",
      "in_model": false
    },
    "participant_b": {
      "entity_text": "MET",
      "entity_type": "protein",
      "identifier": "Uniprot:P08581",
      "in_model": true
    }
  },
  "fries_provenance": [
    {
      "cmu-sentence-epistemic-status": "implication",
      "cmu-sentence-epistemic-value": 0.6,
      "component": "MedScan",
      "frame-file": "PMC3438345.cmu.medscan",
      "frame-id": "relm-PMC3438345-cmu-medscan-291",
      "sentence": "To assess the potential of HGF/MET signaling as a therapeutic target, we investigated the sensitivity of HGF/MET-dependent AML cell lines to chemical inhibition of the MET kinase using the specific MET/ALK inhibitor crizotinib , which permits targeting of MET in AML because ALK is not expressed by hematopoietic cells or any of the AML cell lines studied to date .",
      "text": "MET in AML because ALK"
    }
  ],
  "model_relation": "extension",
  "pmc_id": "PMC3438345",
  "reader_type": "machine",
  "reading_complete": "2015-06-15T22:55:13Z",
  "reading_started": "2015-06-15T22:55:08Z",
  "submitter": "FRIES"
}
