{
  "evidence": ["Cdc25 and histone H1 phosphorylation by Cdk2-Speedy/Ringo A2 and [pT160]Cdk2-cyclin A","For the comparative analysis of Cdc25 and histone H1 phosphorylation by Cdk2-Speedy and Ringo A2 and [ pT160 ] Cdk2-cyclin A                                                                                was mixed with 5 mul of enzyme mix containing the indicated amounts of coexpressed Cdk2-Speedy and Ringo A2 or of [ pT160 ] Cdk2-cyclin A in the presence of 0.25 muCi and mul [ gamma-32P ] - ATP , 0.4 mM ATP in 1 x EB ."],
  "extracted_information": {
    "interaction_type": "adds_modification",
    "negative_information": false,
    "modifications": [
      {
        "modification_type": "phosphorylation",
        "site": 1
      },
      {
        "modification_type": "phosphorylation",
        "site": 2
      }
    ],
    "participant_a": {
      "entity_text": "[pT160]Cdk2-cyclin A",
      "entity_type": "protein",
      "identifier": "ungrounded",
      "in_model": false
    },
    "participant_b": {
      "entity_text": "Cdc25",
      "entity_type": "protein",
      "identifier": "Uniprot:P30307",
      "in_model": true
    }
  },
  "fries_provenance": [
    {
      "cmu-sentence-epistemic-status": "implication",
      "cmu-sentence-epistemic-value": 0.6,
      "component": "REACH",
      "frame-file": "PMC1262692.uaz.events",
      "frame-id": "evem-PMC1262692-UAZ-r1-89-0-127",
      "passage-id": "pass-PMC1262692-UAZ-r1-89",
      "passage-number": 89,
      "passage-section-id": "N/A",
      "passage-section-name": "N/A",
      "sentence": "For the comparative analysis of Cdc25 and histone H1 phosphorylation by Cdk2-Speedy and Ringo A2 and [ pT160 ] Cdk2-cyclin A                                                                                was mixed with 5 mul of enzyme mix containing the indicated amounts of coexpressed Cdk2-Speedy and Ringo A2 or of [ pT160 ] Cdk2-cyclin A in the presence of 0.25 muCi and mul [ gamma-32P ] - ATP , 0.4 mM ATP in 1 x EB .",
      "text": "Cdc25 and histone H1 phosphorylation by Cdk2-Speedy/Ringo A2 and [pT160]Cdk2-cyclin A",
      "uaz-sentence": "For the comparative analysis of Cdc25 and histone H1 phosphorylation by Cdk2-Speedy and Ringo A2 and [ pT160 ] Cdk2-cyclin A                                                                                was mixed with 5 mul of enzyme mix containing the indicated amounts of coexpressed Cdk2-Speedy and Ringo A2 or of [ pT160 ] Cdk2-cyclin A in the presence of 0.25 muCi and mul [ gamma-32P ] - ATP , 0.4 mM ATP in 1 x EB .",
      "uaz-sentence-start": 0
    }
  ],
  "model_relation": "extension",
  "pmc_id": "PMC1262692",
  "reader_type": "machine",
  "reading_complete": "2015-06-15T18:44:55Z",
  "reading_started": "2015-06-15T18:44:50Z",
  "submitter": "FRIES"
}
