{
  "evidence": ["( a ) CK2-I increases p21 expression in a p53 dependent manner .","CK2-I increases p21"],
  "extracted_information": {
    "interaction_type": "increases_activity",
    "negative_information": false,
    "participant_a": {
      "entity_text": "CK2-I",
      "entity_type": "protein",
      "identifier": "ungrounded",
      "in_model": false
    },
    "participant_b": {
      "entity_text": "p21",
      "entity_type": "protein",
      "identifier": "Uniprot:P38936",
      "in_model": true
    }
  },
  "fries_provenance": [
    {
      "component": "REACH",
      "frame-file": "PMC3288342.uaz.events",
      "frame-id": "evem-PMC3288342-UAZ-r1-223-1-63",
      "passage-id": "pass-PMC3288342-UAZ-r1-223",
      "passage-number": 223,
      "passage-section-id": "fig-4",
      "passage-section-name": "fig-4",
      "sentence": "( a ) CK2-I increases p21 expression in a p53 dependent manner .",
      "text": "CK2-I increases p21",
      "uaz-sentence": "( a ) CK2-I increases p21 expression in a p53 dependent manner .",
      "uaz-sentence-start": 92
    }
  ],
  "model_relation": "extension",
  "pmc_id": "PMC3288342",
  "reader_type": "machine",
  "reading_complete": "2015-06-15T22:38:41Z",
  "reading_started": "2015-06-15T22:38:36Z",
  "submitter": "FRIES"
}
