{
    "frames": [
        {
            "frame-id": "smap-PMC3275091-cmu-1", 
            "frame-type": "sentence-map", 
            "list1-meta": {
                "component": "nxml2fries", 
                "object-type": "meta-info", 
                "organization": "UAZ"
            }, 
            "list2-meta": {
                "component": "Nicolas-NXML-Parser", 
                "object-type": "meta-info", 
                "organization": "CMU"
            }, 
            "map": [
                {
                    "from": "sent-PMC3275091-UAZ-r1-24-11", 
                    "object-type": "map-range", 
                    "to": "sent-PMC3275091-cmu-13"
                }, 
                {
                    "from": "sent-PMC3275091-UAZ-r1-32-3", 
                    "object-type": "map-range", 
                    "to": "sent-PMC3275091-cmu-24"
                }, 
                {
                    "from": "sent-PMC3275091-UAZ-r1-70-6", 
                    "object-type": "map-range", 
                    "to": "sent-PMC3275091-cmu-126"
                }, 
                {
                    "from": "sent-PMC3275091-UAZ-r1-58-0", 
                    "object-type": "map-range", 
                    "to": "sent-PMC3275091-cmu-75"
                }, 
                {
                    "from": "sent-PMC3275091-UAZ-r1-69-1", 
                    "object-type": "map-range", 
                    "to": "sent-PMC3275091-cmu-117"
                }, 
                {
                    "from": "sent-PMC3275091-UAZ-r1-57-2", 
                    "object-type": "map-range", 
                    "to": "sent-PMC3275091-cmu-73"
                }, 
                {
                    "from": "sent-PMC3275091-UAZ-r1-39-0", 
                    "object-type": "map-range", 
                    "to": "sent-PMC3275091-cmu-37"
                }, 
                {
                    "from": "sent-PMC3275091-UAZ-r1-45-1", 
                    "object-type": "map-range", 
                    "to": "sent-PMC3275091-cmu-50"
                }, 
                {
                    "from": "sent-PMC3275091-UAZ-r1-65-2", 
                    "object-type": "map-range", 
                    "to": "sent-PMC3275091-cmu-95"
                }, 
                {
                    "from": "sent-PMC3275091-UAZ-r1-66-2", 
                    "object-type": "map-range", 
                    "to": "sent-PMC3275091-cmu-99"
                }, 
                {
                    "from": "sent-PMC3275091-UAZ-r1-66-5", 
                    "object-type": "map-range", 
                    "to": "sent-PMC3275091-cmu-102"
                }, 
                {
                    "from": "sent-PMC3275091-UAZ-r1-21-2", 
                    "object-type": "map-range", 
                    "to": "sent-PMC3275091-cmu-14"
                }, 
                {
                    "from": "sent-PMC3275091-UAZ-r1-35-0", 
                    "object-type": "map-range", 
                    "to": "sent-PMC3275091-cmu-31"
                }, 
                {
                    "from": "sent-PMC3275091-UAZ-r1-46-1", 
                    "object-type": "map-range", 
                    "to": "sent-PMC3275091-cmu-54"
                }, 
                {
                    "from": "sent-PMC3275091-UAZ-r1-70-2", 
                    "object-type": "map-range", 
                    "to": "sent-PMC3275091-cmu-122"
                }, 
                {
                    "from": "sent-PMC3275091-UAZ-r1-70-4", 
                    "object-type": "map-range", 
                    "to": "sent-PMC3275091-cmu-124"
                }, 
                {
                    "from": "sent-PMC3275091-UAZ-r1-67-3", 
                    "object-type": "map-range", 
                    "to": "sent-PMC3275091-cmu-106"
                }, 
                {
                    "from": "sent-PMC3275091-UAZ-r1-54-2", 
                    "object-type": "map-range", 
                    "to": "sent-PMC3275091-cmu-65"
                }, 
                {
                    "from": "sent-PMC3275091-UAZ-r1-62-4", 
                    "object-type": "map-range", 
                    "to": "sent-PMC3275091-cmu-91"
                }, 
                {
                    "from": "sent-PMC3275091-UAZ-r1-44-0", 
                    "object-type": "map-range", 
                    "to": "sent-PMC3275091-cmu-48"
                }, 
                {
                    "from": "sent-PMC3275091-UAZ-r1-61-0", 
                    "object-type": "map-range", 
                    "to": "sent-PMC3275091-cmu-80"
                }, 
                {
                    "from": "sent-PMC3275091-UAZ-r1-24-2", 
                    "object-type": "map-range", 
                    "to": "sent-PMC3275091-cmu-4"
                }, 
                {
                    "from": "sent-PMC3275091-UAZ-r1-54-6", 
                    "object-type": "map-range", 
                    "to": "sent-PMC3275091-cmu-69"
                }, 
                {
                    "from": "sent-PMC3275091-UAZ-r1-67-6", 
                    "object-type": "map-range", 
                    "to": "sent-PMC3275091-cmu-109"
                }, 
                {
                    "from": "sent-PMC3275091-UAZ-r1-68-2", 
                    "object-type": "map-range", 
                    "to": "sent-PMC3275091-cmu-112"
                }, 
                {
                    "from": "sent-PMC3275091-UAZ-r1-69-2", 
                    "object-type": "map-range", 
                    "to": "sent-PMC3275091-cmu-118"
                }, 
                {
                    "from": "sent-PMC3275091-UAZ-r1-45-2", 
                    "object-type": "map-range", 
                    "to": "sent-PMC3275091-cmu-51"
                }, 
                {
                    "from": "sent-PMC3275091-UAZ-r1-39-4", 
                    "object-type": "map-range", 
                    "to": "sent-PMC3275091-cmu-41"
                }, 
                {
                    "from": "sent-PMC3275091-UAZ-r1-32-1", 
                    "object-type": "map-range", 
                    "to": "sent-PMC3275091-cmu-22"
                }, 
                {
                    "from": "sent-PMC3275091-UAZ-r1-66-1", 
                    "object-type": "map-range", 
                    "to": "sent-PMC3275091-cmu-98"
                }, 
                {
                    "from": "sent-PMC3275091-UAZ-r1-58-3", 
                    "object-type": "map-range", 
                    "to": "sent-PMC3275091-cmu-78"
                }, 
                {
                    "from": "sent-PMC3275091-UAZ-r1-70-1", 
                    "object-type": "map-range", 
                    "to": "sent-PMC3275091-cmu-121"
                }, 
                {
                    "from": "sent-PMC3275091-UAZ-r1-67-5", 
                    "object-type": "map-range", 
                    "to": "sent-PMC3275091-cmu-108"
                }, 
                {
                    "from": "sent-PMC3275091-UAZ-r1-61-6", 
                    "object-type": "map-range", 
                    "to": "sent-PMC3275091-cmu-86"
                }, 
                {
                    "from": "sent-PMC3275091-UAZ-r1-67-2", 
                    "object-type": "map-range", 
                    "to": "sent-PMC3275091-cmu-105"
                }, 
                {
                    "from": "sent-PMC3275091-UAZ-r1-70-10", 
                    "object-type": "map-range", 
                    "to": "sent-PMC3275091-cmu-130"
                }, 
                {
                    "from": "sent-PMC3275091-UAZ-r1-42-2", 
                    "object-type": "map-range", 
                    "to": "sent-PMC3275091-cmu-45"
                }, 
                {
                    "from": "sent-PMC3275091-UAZ-r1-54-0", 
                    "object-type": "map-range", 
                    "to": "sent-PMC3275091-cmu-63"
                }, 
                {
                    "from": "sent-PMC3275091-UAZ-r1-54-5", 
                    "object-type": "map-range", 
                    "to": "sent-PMC3275091-cmu-68"
                }, 
                {
                    "from": "sent-PMC3275091-UAZ-r1-36-3", 
                    "object-type": "map-range", 
                    "to": "sent-PMC3275091-cmu-35"
                }, 
                {
                    "from": "sent-PMC3275091-UAZ-r1-33-0", 
                    "object-type": "map-range", 
                    "to": "sent-PMC3275091-cmu-25"
                }, 
                {
                    "from": "sent-PMC3275091-UAZ-r1-46-2", 
                    "object-type": "map-range", 
                    "to": "sent-PMC3275091-cmu-55"
                }, 
                {
                    "from": "sent-PMC3275091-UAZ-r1-46-0", 
                    "object-type": "map-range", 
                    "to": "sent-PMC3275091-cmu-53"
                }, 
                {
                    "from": "sent-PMC3275091-UAZ-r1-24-7", 
                    "object-type": "map-range", 
                    "to": "sent-PMC3275091-cmu-9"
                }, 
                {
                    "from": "sent-PMC3275091-UAZ-r1-65-3", 
                    "object-type": "map-range", 
                    "to": "sent-PMC3275091-cmu-96"
                }, 
                {
                    "from": "sent-PMC3275091-UAZ-r1-58-2", 
                    "object-type": "map-range", 
                    "to": "sent-PMC3275091-cmu-77"
                }, 
                {
                    "from": "sent-PMC3275091-UAZ-r1-65-1", 
                    "object-type": "map-range", 
                    "to": "sent-PMC3275091-cmu-94"
                }, 
                {
                    "from": "sent-PMC3275091-UAZ-r1-39-2", 
                    "object-type": "map-range", 
                    "to": "sent-PMC3275091-cmu-39"
                }, 
                {
                    "from": "sent-PMC3275091-UAZ-r1-57-0", 
                    "object-type": "map-range", 
                    "to": "sent-PMC3275091-cmu-71"
                }, 
                {
                    "from": "sent-PMC3275091-UAZ-r1-70-3", 
                    "object-type": "map-range", 
                    "to": "sent-PMC3275091-cmu-123"
                }, 
                {
                    "from": "sent-PMC3275091-UAZ-r1-62-1", 
                    "object-type": "map-range", 
                    "to": "sent-PMC3275091-cmu-88"
                }, 
                {
                    "from": "sent-PMC3275091-UAZ-r1-32-2", 
                    "object-type": "map-range", 
                    "to": "sent-PMC3275091-cmu-23"
                }, 
                {
                    "from": "sent-PMC3275091-UAZ-r1-24-1", 
                    "object-type": "map-range", 
                    "to": "sent-PMC3275091-cmu-3"
                }, 
                {
                    "from": "sent-PMC3275091-UAZ-r1-62-2", 
                    "object-type": "map-range", 
                    "to": "sent-PMC3275091-cmu-89"
                }, 
                {
                    "from": "sent-PMC3275091-UAZ-r1-68-5", 
                    "object-type": "map-range", 
                    "to": "sent-PMC3275091-cmu-115"
                }, 
                {
                    "from": "sent-PMC3275091-UAZ-r1-29-1", 
                    "object-type": "map-range", 
                    "to": "sent-PMC3275091-cmu-18"
                }, 
                {
                    "from": "sent-PMC3275091-UAZ-r1-70-9", 
                    "object-type": "map-range", 
                    "to": "sent-PMC3275091-cmu-129"
                }, 
                {
                    "from": "sent-PMC3275091-UAZ-r1-61-1", 
                    "object-type": "map-range", 
                    "to": "sent-PMC3275091-cmu-81"
                }, 
                {
                    "from": "sent-PMC3275091-UAZ-r1-61-2", 
                    "object-type": "map-range", 
                    "to": "sent-PMC3275091-cmu-82"
                }, 
                {
                    "from": "sent-PMC3275091-UAZ-r1-67-4", 
                    "object-type": "map-range", 
                    "to": "sent-PMC3275091-cmu-107"
                }, 
                {
                    "from": "sent-PMC3275091-UAZ-r1-36-2", 
                    "object-type": "map-range", 
                    "to": "sent-PMC3275091-cmu-34"
                }, 
                {
                    "from": "sent-PMC3275091-UAZ-r1-24-0", 
                    "object-type": "map-range", 
                    "to": "sent-PMC3275091-cmu-2"
                }, 
                {
                    "from": "sent-PMC3275091-UAZ-r1-62-0", 
                    "object-type": "map-range", 
                    "to": "sent-PMC3275091-cmu-87"
                }, 
                {
                    "from": "sent-PMC3275091-UAZ-r1-36-0", 
                    "object-type": "map-range", 
                    "to": "sent-PMC3275091-cmu-32"
                }, 
                {
                    "from": "sent-PMC3275091-UAZ-r1-73-3", 
                    "object-type": "map-range", 
                    "to": "sent-PMC3275091-cmu-135"
                }, 
                {
                    "from": "sent-PMC3275091-UAZ-r1-42-4", 
                    "object-type": "map-range", 
                    "to": "sent-PMC3275091-cmu-47"
                }, 
                {
                    "from": "sent-PMC3275091-UAZ-r1-66-0", 
                    "object-type": "map-range", 
                    "to": "sent-PMC3275091-cmu-97"
                }, 
                {
                    "from": "sent-PMC3275091-UAZ-r1-66-2", 
                    "object-type": "map-range", 
                    "to": "sent-PMC3275091-cmu-7"
                }, 
                {
                    "from": "sent-PMC3275091-UAZ-r1-42-0", 
                    "object-type": "map-range", 
                    "to": "sent-PMC3275091-cmu-43"
                }, 
                {
                    "from": "sent-PMC3275091-UAZ-r1-42-1", 
                    "object-type": "map-range", 
                    "to": "sent-PMC3275091-cmu-44"
                }, 
                {
                    "from": "sent-PMC3275091-UAZ-r1-41-0", 
                    "object-type": "map-range", 
                    "to": "sent-PMC3275091-cmu-42"
                }, 
                {
                    "from": "sent-PMC3275091-UAZ-r1-39-1", 
                    "object-type": "map-range", 
                    "to": "sent-PMC3275091-cmu-38"
                }, 
                {
                    "from": "sent-PMC3275091-UAZ-r1-42-0", 
                    "object-type": "map-range", 
                    "to": "sent-PMC3275091-cmu-64"
                }, 
                {
                    "from": "sent-PMC3275091-UAZ-r1-33-4", 
                    "object-type": "map-range", 
                    "to": "sent-PMC3275091-cmu-29"
                }, 
                {
                    "from": "sent-PMC3275091-UAZ-r1-69-3", 
                    "object-type": "map-range", 
                    "to": "sent-PMC3275091-cmu-119"
                }, 
                {
                    "from": "sent-PMC3275091-UAZ-r1-66-3", 
                    "object-type": "map-range", 
                    "to": "sent-PMC3275091-cmu-100"
                }, 
                {
                    "from": "sent-PMC3275091-UAZ-r1-69-0", 
                    "object-type": "map-range", 
                    "to": "sent-PMC3275091-cmu-116"
                }, 
                {
                    "from": "sent-PMC3275091-UAZ-r1-57-1", 
                    "object-type": "map-range", 
                    "to": "sent-PMC3275091-cmu-72"
                }, 
                {
                    "from": "sent-PMC3275091-UAZ-r1-32-0", 
                    "object-type": "map-range", 
                    "to": "sent-PMC3275091-cmu-21"
                }, 
                {
                    "from": "sent-PMC3275091-UAZ-r1-73-2", 
                    "object-type": "map-range", 
                    "to": "sent-PMC3275091-cmu-134"
                }, 
                {
                    "from": "sent-PMC3275091-UAZ-r1-39-3", 
                    "object-type": "map-range", 
                    "to": "sent-PMC3275091-cmu-40"
                }, 
                {
                    "from": "sent-PMC3275091-UAZ-r1-67-1", 
                    "object-type": "map-range", 
                    "to": "sent-PMC3275091-cmu-104"
                }, 
                {
                    "from": "sent-PMC3275091-UAZ-r1-33-2", 
                    "object-type": "map-range", 
                    "to": "sent-PMC3275091-cmu-27"
                }, 
                {
                    "from": "sent-PMC3275091-UAZ-r1-68-3", 
                    "object-type": "map-range", 
                    "to": "sent-PMC3275091-cmu-113"
                }, 
                {
                    "from": "sent-PMC3275091-UAZ-r1-61-3", 
                    "object-type": "map-range", 
                    "to": "sent-PMC3275091-cmu-83"
                }, 
                {
                    "from": "sent-PMC3275091-UAZ-r1-70-8", 
                    "object-type": "map-range", 
                    "to": "sent-PMC3275091-cmu-128"
                }, 
                {
                    "from": "sent-PMC3275091-UAZ-r1-29-0", 
                    "object-type": "map-range", 
                    "to": "sent-PMC3275091-cmu-17"
                }, 
                {
                    "from": "sent-PMC3275091-UAZ-r1-54-3", 
                    "object-type": "map-range", 
                    "to": "sent-PMC3275091-cmu-66"
                }, 
                {
                    "from": "sent-PMC3275091-UAZ-r1-33-3", 
                    "object-type": "map-range", 
                    "to": "sent-PMC3275091-cmu-28"
                }, 
                {
                    "from": "sent-PMC3275091-UAZ-r1-33-1", 
                    "object-type": "map-range", 
                    "to": "sent-PMC3275091-cmu-26"
                }, 
                {
                    "from": "sent-PMC3275091-UAZ-r1-73-1", 
                    "object-type": "map-range", 
                    "to": "sent-PMC3275091-cmu-133"
                }, 
                {
                    "from": "sent-PMC3275091-UAZ-r1-57-3", 
                    "object-type": "map-range", 
                    "to": "sent-PMC3275091-cmu-74"
                }, 
                {
                    "from": "sent-PMC3275091-UAZ-r1-24-9", 
                    "object-type": "map-range", 
                    "to": "sent-PMC3275091-cmu-11"
                }, 
                {
                    "from": "sent-PMC3275091-UAZ-r1-68-4", 
                    "object-type": "map-range", 
                    "to": "sent-PMC3275091-cmu-114"
                }, 
                {
                    "from": "sent-PMC3275091-UAZ-r1-67-0", 
                    "object-type": "map-range", 
                    "to": "sent-PMC3275091-cmu-103"
                }, 
                {
                    "from": "sent-PMC3275091-UAZ-r1-36-1", 
                    "object-type": "map-range", 
                    "to": "sent-PMC3275091-cmu-33"
                }, 
                {
                    "from": "sent-PMC3275091-UAZ-r1-70-5", 
                    "object-type": "map-range", 
                    "to": "sent-PMC3275091-cmu-125"
                }, 
                {
                    "from": "sent-PMC3275091-UAZ-r1-24-8", 
                    "object-type": "map-range", 
                    "to": "sent-PMC3275091-cmu-10"
                }, 
                {
                    "from": "sent-PMC3275091-UAZ-r1-24-6", 
                    "object-type": "map-range", 
                    "to": "sent-PMC3275091-cmu-8"
                }, 
                {
                    "from": "sent-PMC3275091-UAZ-r1-24-3", 
                    "object-type": "map-range", 
                    "to": "sent-PMC3275091-cmu-5"
                }, 
                {
                    "from": "sent-PMC3275091-UAZ-r1-70-0", 
                    "object-type": "map-range", 
                    "to": "sent-PMC3275091-cmu-120"
                }, 
                {
                    "from": "sent-PMC3275091-UAZ-r1-24-4", 
                    "object-type": "map-range", 
                    "to": "sent-PMC3275091-cmu-6"
                }, 
                {
                    "from": "sent-PMC3275091-UAZ-r1-68-0", 
                    "object-type": "map-range", 
                    "to": "sent-PMC3275091-cmu-110"
                }, 
                {
                    "from": "sent-PMC3275091-UAZ-r1-61-5", 
                    "object-type": "map-range", 
                    "to": "sent-PMC3275091-cmu-85"
                }, 
                {
                    "from": "sent-PMC3275091-UAZ-r1-73-0", 
                    "object-type": "map-range", 
                    "to": "sent-PMC3275091-cmu-132"
                }, 
                {
                    "from": "sent-PMC3275091-UAZ-r1-42-0", 
                    "object-type": "map-range", 
                    "to": "sent-PMC3275091-cmu-12"
                }, 
                {
                    "from": "sent-PMC3275091-UAZ-r1-68-1", 
                    "object-type": "map-range", 
                    "to": "sent-PMC3275091-cmu-111"
                }, 
                {
                    "from": "sent-PMC3275091-UAZ-r1-42-3", 
                    "object-type": "map-range", 
                    "to": "sent-PMC3275091-cmu-46"
                }, 
                {
                    "from": "sent-PMC3275091-UAZ-r1-65-0", 
                    "object-type": "map-range", 
                    "to": "sent-PMC3275091-cmu-93"
                }, 
                {
                    "from": "sent-PMC3275091-UAZ-r1-45-3", 
                    "object-type": "map-range", 
                    "to": "sent-PMC3275091-cmu-52"
                }, 
                {
                    "from": "sent-PMC3275091-UAZ-r1-66-4", 
                    "object-type": "map-range", 
                    "to": "sent-PMC3275091-cmu-101"
                }, 
                {
                    "from": "sent-PMC3275091-medscan-28", 
                    "object-type": "map-range", 
                    "to": "sent-PMC3275091-cmu-13"
                }
            ], 
            "object-meta": {
                "component": "Pradeep-Matcher", 
                "object-type": "meta-info", 
                "organization": "CMU"
            }, 
            "object-type": "frame"
        }, 
        {
            "frame-id": "smap-PMC3275091-cmu-2", 
            "frame-type": "sentence-map", 
            "list1-meta": {
                "component": "MedScan", 
                "object-type": "meta-info", 
                "organization": "CMU"
            }, 
            "list2-meta": {
                "component": "Nicolas-NXML-Parser", 
                "object-type": "meta-info", 
                "organization": "CMU"
            }, 
            "map": [
                {
                    "from": "sent-PMC3275091-medscan-28", 
                    "object-type": "map-range", 
                    "to": "sent-PMC3275091-cmu-13"
                }, 
                {
                    "from": "sent-PMC3275091-medscan-112", 
                    "object-type": "map-range", 
                    "to": "sent-PMC3275091-cmu-126"
                }, 
                {
                    "from": "sent-PMC3275091-medscan-103", 
                    "object-type": "map-range", 
                    "to": "sent-PMC3275091-cmu-117"
                }, 
                {
                    "from": "sent-PMC3275091-medscan-62", 
                    "object-type": "map-range", 
                    "to": "sent-PMC3275091-cmu-73"
                }, 
                {
                    "from": "sent-PMC3275091-medscan-32", 
                    "object-type": "map-range", 
                    "to": "sent-PMC3275091-cmu-37"
                }, 
                {
                    "from": "sent-PMC3275091-medscan-85", 
                    "object-type": "map-range", 
                    "to": "sent-PMC3275091-cmu-99"
                }, 
                {
                    "from": "sent-PMC3275091-medscan-85", 
                    "object-type": "map-range", 
                    "to": "sent-PMC3275091-cmu-99"
                }, 
                {
                    "from": "sent-PMC3275091-medscan-88", 
                    "object-type": "map-range", 
                    "to": "sent-PMC3275091-cmu-102"
                }, 
                {
                    "from": "sent-PMC3275091-medscan-12", 
                    "object-type": "map-range", 
                    "to": "sent-PMC3275091-cmu-14"
                }, 
                {
                    "from": "sent-PMC3275091-medscan-108", 
                    "object-type": "map-range", 
                    "to": "sent-PMC3275091-cmu-122"
                }, 
                {
                    "from": "sent-PMC3275091-medscan-110", 
                    "object-type": "map-range", 
                    "to": "sent-PMC3275091-cmu-124"
                }, 
                {
                    "from": "sent-PMC3275091-medscan-92", 
                    "object-type": "map-range", 
                    "to": "sent-PMC3275091-cmu-106"
                }, 
                {
                    "from": "sent-PMC3275091-medscan-55", 
                    "object-type": "map-range", 
                    "to": "sent-PMC3275091-cmu-65"
                }, 
                {
                    "from": "sent-PMC3275091-medscan-67", 
                    "object-type": "map-range", 
                    "to": "sent-PMC3275091-cmu-80"
                }, 
                {
                    "from": "sent-PMC3275091-medscan-2", 
                    "object-type": "map-range", 
                    "to": "sent-PMC3275091-cmu-4"
                }, 
                {
                    "from": "sent-PMC3275091-medscan-59", 
                    "object-type": "map-range", 
                    "to": "sent-PMC3275091-cmu-69"
                }, 
                {
                    "from": "sent-PMC3275091-medscan-95", 
                    "object-type": "map-range", 
                    "to": "sent-PMC3275091-cmu-109"
                }, 
                {
                    "from": "sent-PMC3275091-medscan-98", 
                    "object-type": "map-range", 
                    "to": "sent-PMC3275091-cmu-112"
                }, 
                {
                    "from": "sent-PMC3275091-medscan-44", 
                    "object-type": "map-range", 
                    "to": "sent-PMC3275091-cmu-51"
                }, 
                {
                    "from": "sent-PMC3275091-medscan-36", 
                    "object-type": "map-range", 
                    "to": "sent-PMC3275091-cmu-41"
                }, 
                {
                    "from": "sent-PMC3275091-medscan-19", 
                    "object-type": "map-range", 
                    "to": "sent-PMC3275091-cmu-22"
                }, 
                {
                    "from": "sent-PMC3275091-medscan-84", 
                    "object-type": "map-range", 
                    "to": "sent-PMC3275091-cmu-98"
                }, 
                {
                    "from": "sent-PMC3275091-medscan-107", 
                    "object-type": "map-range", 
                    "to": "sent-PMC3275091-cmu-121"
                }, 
                {
                    "from": "sent-PMC3275091-medscan-94", 
                    "object-type": "map-range", 
                    "to": "sent-PMC3275091-cmu-108"
                }, 
                {
                    "from": "sent-PMC3275091-medscan-91", 
                    "object-type": "map-range", 
                    "to": "sent-PMC3275091-cmu-105"
                }, 
                {
                    "from": "sent-PMC3275091-medscan-116", 
                    "object-type": "map-range", 
                    "to": "sent-PMC3275091-cmu-130"
                }, 
                {
                    "from": "sent-PMC3275091-medscan-39", 
                    "object-type": "map-range", 
                    "to": "sent-PMC3275091-cmu-45"
                }, 
                {
                    "from": "sent-PMC3275091-medscan-31", 
                    "object-type": "map-range", 
                    "to": "sent-PMC3275091-cmu-35"
                }, 
                {
                    "from": "sent-PMC3275091-medscan-22", 
                    "object-type": "map-range", 
                    "to": "sent-PMC3275091-cmu-25"
                }, 
                {
                    "from": "sent-PMC3275091-medscan-48", 
                    "object-type": "map-range", 
                    "to": "sent-PMC3275091-cmu-55"
                }, 
                {
                    "from": "sent-PMC3275091-medscan-104", 
                    "object-type": "map-range", 
                    "to": "sent-PMC3275091-cmu-9"
                }, 
                {
                    "from": "sent-PMC3275091-medscan-104", 
                    "object-type": "map-range", 
                    "to": "sent-PMC3275091-cmu-9"
                }, 
                {
                    "from": "sent-PMC3275091-medscan-82", 
                    "object-type": "map-range", 
                    "to": "sent-PMC3275091-cmu-96"
                }, 
                {
                    "from": "sent-PMC3275091-medscan-80", 
                    "object-type": "map-range", 
                    "to": "sent-PMC3275091-cmu-94"
                }, 
                {
                    "from": "sent-PMC3275091-medscan-34", 
                    "object-type": "map-range", 
                    "to": "sent-PMC3275091-cmu-39"
                }, 
                {
                    "from": "sent-PMC3275091-medscan-52", 
                    "object-type": "map-range", 
                    "to": "sent-PMC3275091-cmu-60"
                }, 
                {
                    "from": "sent-PMC3275091-medscan-60", 
                    "object-type": "map-range", 
                    "to": "sent-PMC3275091-cmu-71"
                }, 
                {
                    "from": "sent-PMC3275091-medscan-109", 
                    "object-type": "map-range", 
                    "to": "sent-PMC3275091-cmu-123"
                }, 
                {
                    "from": "sent-PMC3275091-medscan-75", 
                    "object-type": "map-range", 
                    "to": "sent-PMC3275091-cmu-88"
                }, 
                {
                    "from": "sent-PMC3275091-medscan-20", 
                    "object-type": "map-range", 
                    "to": "sent-PMC3275091-cmu-23"
                }, 
                {
                    "from": "sent-PMC3275091-medscan-1", 
                    "object-type": "map-range", 
                    "to": "sent-PMC3275091-cmu-3"
                }, 
                {
                    "from": "sent-PMC3275091-medscan-49", 
                    "object-type": "map-range", 
                    "to": "sent-PMC3275091-cmu-57"
                }, 
                {
                    "from": "sent-PMC3275091-medscan-14", 
                    "object-type": "map-range", 
                    "to": "sent-PMC3275091-cmu-18"
                }, 
                {
                    "from": "sent-PMC3275091-medscan-115", 
                    "object-type": "map-range", 
                    "to": "sent-PMC3275091-cmu-129"
                }, 
                {
                    "from": "sent-PMC3275091-medscan-68", 
                    "object-type": "map-range", 
                    "to": "sent-PMC3275091-cmu-81"
                }, 
                {
                    "from": "sent-PMC3275091-medscan-69", 
                    "object-type": "map-range", 
                    "to": "sent-PMC3275091-cmu-82"
                }, 
                {
                    "from": "sent-PMC3275091-medscan-93", 
                    "object-type": "map-range", 
                    "to": "sent-PMC3275091-cmu-107"
                }, 
                {
                    "from": "sent-PMC3275091-medscan-30", 
                    "object-type": "map-range", 
                    "to": "sent-PMC3275091-cmu-34"
                }, 
                {
                    "from": "sent-PMC3275091-medscan-0", 
                    "object-type": "map-range", 
                    "to": "sent-PMC3275091-cmu-2"
                }, 
                {
                    "from": "sent-PMC3275091-medscan-57", 
                    "object-type": "map-range", 
                    "to": "sent-PMC3275091-cmu-67"
                }, 
                {
                    "from": "sent-PMC3275091-medscan-74", 
                    "object-type": "map-range", 
                    "to": "sent-PMC3275091-cmu-87"
                }, 
                {
                    "from": "sent-PMC3275091-medscan-120", 
                    "object-type": "map-range", 
                    "to": "sent-PMC3275091-cmu-135"
                }, 
                {
                    "from": "sent-PMC3275091-medscan-41", 
                    "object-type": "map-range", 
                    "to": "sent-PMC3275091-cmu-47"
                }, 
                {
                    "from": "sent-PMC3275091-medscan-37", 
                    "object-type": "map-range", 
                    "to": "sent-PMC3275091-cmu-43"
                }, 
                {
                    "from": "sent-PMC3275091-medscan-37", 
                    "object-type": "map-range", 
                    "to": "sent-PMC3275091-cmu-43"
                }, 
                {
                    "from": "sent-PMC3275091-medscan-37", 
                    "object-type": "map-range", 
                    "to": "sent-PMC3275091-cmu-43"
                }, 
                {
                    "from": "sent-PMC3275091-medscan-37", 
                    "object-type": "map-range", 
                    "to": "sent-PMC3275091-cmu-64"
                }, 
                {
                    "from": "sent-PMC3275091-medscan-37", 
                    "object-type": "map-range", 
                    "to": "sent-PMC3275091-cmu-64"
                }, 
                {
                    "from": "sent-PMC3275091-medscan-26", 
                    "object-type": "map-range", 
                    "to": "sent-PMC3275091-cmu-29"
                }, 
                {
                    "from": "sent-PMC3275091-medscan-105", 
                    "object-type": "map-range", 
                    "to": "sent-PMC3275091-cmu-119"
                }, 
                {
                    "from": "sent-PMC3275091-medscan-86", 
                    "object-type": "map-range", 
                    "to": "sent-PMC3275091-cmu-100"
                }, 
                {
                    "from": "sent-PMC3275091-medscan-102", 
                    "object-type": "map-range", 
                    "to": "sent-PMC3275091-cmu-116"
                }, 
                {
                    "from": "sent-PMC3275091-medscan-61", 
                    "object-type": "map-range", 
                    "to": "sent-PMC3275091-cmu-72"
                }, 
                {
                    "from": "sent-PMC3275091-medscan-18", 
                    "object-type": "map-range", 
                    "to": "sent-PMC3275091-cmu-21"
                }, 
                {
                    "from": "sent-PMC3275091-medscan-35", 
                    "object-type": "map-range", 
                    "to": "sent-PMC3275091-cmu-40"
                }, 
                {
                    "from": "sent-PMC3275091-medscan-90", 
                    "object-type": "map-range", 
                    "to": "sent-PMC3275091-cmu-104"
                }, 
                {
                    "from": "sent-PMC3275091-medscan-24", 
                    "object-type": "map-range", 
                    "to": "sent-PMC3275091-cmu-27"
                }, 
                {
                    "from": "sent-PMC3275091-medscan-99", 
                    "object-type": "map-range", 
                    "to": "sent-PMC3275091-cmu-113"
                }, 
                {
                    "from": "sent-PMC3275091-medscan-70", 
                    "object-type": "map-range", 
                    "to": "sent-PMC3275091-cmu-83"
                }, 
                {
                    "from": "sent-PMC3275091-medscan-114", 
                    "object-type": "map-range", 
                    "to": "sent-PMC3275091-cmu-128"
                }, 
                {
                    "from": "sent-PMC3275091-medscan-25", 
                    "object-type": "map-range", 
                    "to": "sent-PMC3275091-cmu-28"
                }, 
                {
                    "from": "sent-PMC3275091-medscan-23", 
                    "object-type": "map-range", 
                    "to": "sent-PMC3275091-cmu-26"
                }, 
                {
                    "from": "sent-PMC3275091-medscan-63", 
                    "object-type": "map-range", 
                    "to": "sent-PMC3275091-cmu-74"
                }, 
                {
                    "from": "sent-PMC3275091-medscan-9", 
                    "object-type": "map-range", 
                    "to": "sent-PMC3275091-cmu-11"
                }, 
                {
                    "from": "sent-PMC3275091-medscan-100", 
                    "object-type": "map-range", 
                    "to": "sent-PMC3275091-cmu-114"
                }, 
                {
                    "from": "sent-PMC3275091-medscan-89", 
                    "object-type": "map-range", 
                    "to": "sent-PMC3275091-cmu-103"
                }, 
                {
                    "from": "sent-PMC3275091-medscan-29", 
                    "object-type": "map-range", 
                    "to": "sent-PMC3275091-cmu-33"
                }, 
                {
                    "from": "sent-PMC3275091-medscan-111", 
                    "object-type": "map-range", 
                    "to": "sent-PMC3275091-cmu-125"
                }, 
                {
                    "from": "sent-PMC3275091-medscan-8", 
                    "object-type": "map-range", 
                    "to": "sent-PMC3275091-cmu-10"
                }, 
                {
                    "from": "sent-PMC3275091-medscan-6", 
                    "object-type": "map-range", 
                    "to": "sent-PMC3275091-cmu-8"
                }, 
                {
                    "from": "sent-PMC3275091-medscan-106", 
                    "object-type": "map-range", 
                    "to": "sent-PMC3275091-cmu-120"
                }, 
                {
                    "from": "sent-PMC3275091-medscan-4", 
                    "object-type": "map-range", 
                    "to": "sent-PMC3275091-cmu-6"
                }, 
                {
                    "from": "sent-PMC3275091-medscan-72", 
                    "object-type": "map-range", 
                    "to": "sent-PMC3275091-cmu-85"
                }, 
                {
                    "from": "sent-PMC3275091-medscan-37", 
                    "object-type": "map-range", 
                    "to": "sent-PMC3275091-cmu-12"
                }, 
                {
                    "from": "sent-PMC3275091-medscan-37", 
                    "object-type": "map-range", 
                    "to": "sent-PMC3275091-cmu-12"
                }, 
                {
                    "from": "sent-PMC3275091-medscan-40", 
                    "object-type": "map-range", 
                    "to": "sent-PMC3275091-cmu-46"
                }, 
                {
                    "from": "sent-PMC3275091-medscan-79", 
                    "object-type": "map-range", 
                    "to": "sent-PMC3275091-cmu-93"
                }, 
                {
                    "from": "sent-PMC3275091-medscan-45", 
                    "object-type": "map-range", 
                    "to": "sent-PMC3275091-cmu-52"
                }, 
                {
                    "from": "sent-PMC3275091-medscan-50", 
                    "object-type": "map-range", 
                    "to": "sent-PMC3275091-cmu-58"
                }, 
                {
                    "from": "sent-PMC3275091-medscan-87", 
                    "object-type": "map-range", 
                    "to": "sent-PMC3275091-cmu-101"
                }, 
                {
                    "from": "sent-PMC3275091-medscan-64", 
                    "object-type": "map-range", 
                    "to": "sent-PMC3275091-cmu-76"
                }
            ], 
            "object-meta": {
                "component": "Pradeep-Matcher", 
                "object-type": "meta-info", 
                "organization": "CMU"
            }, 
            "object-type": "frame"
        }
    ], 
    "object-meta": {
        "component": "Pradeep-Matcher", 
        "component-type": "machine", 
        "doc-id": "PMC3275091", 
        "object-type": "meta-info", 
        "organization": "CMU"
    }, 
    "object-type": "frame-collection"
}
