{
    "frames": [
        {
            "frame-id": "epi-PMC2171987-cmu-nicosys-420", 
            "frame-type": "epistemics", 
            "object-meta": {
                "object-type": "meta-info", 
                "organization": "CMU"
            }, 
            "object-type": "frame", 
            "sentence": "sent-PMC2171987-cmu-10", 
            "status": "implication", 
            "value": 0.6
        }, 
        {
            "frame-id": "epi-PMC2171987-cmu-nicosys-421", 
            "frame-type": "epistemics", 
            "object-meta": {
                "object-type": "meta-info", 
                "organization": "CMU"
            }, 
            "object-type": "frame", 
            "sentence": "sent-PMC2171987-cmu-14", 
            "status": "implication", 
            "value": 0.6
        }, 
        {
            "frame-id": "epi-PMC2171987-cmu-nicosys-422", 
            "frame-type": "epistemics", 
            "object-meta": {
                "object-type": "meta-info", 
                "organization": "CMU"
            }, 
            "object-type": "frame", 
            "sentence": "sent-PMC2171987-cmu-22", 
            "status": "implication", 
            "value": 0.6
        }, 
        {
            "frame-id": "epi-PMC2171987-cmu-nicosys-423", 
            "frame-type": "epistemics", 
            "object-meta": {
                "object-type": "meta-info", 
                "organization": "CMU"
            }, 
            "object-type": "frame", 
            "sentence": "sent-PMC2171987-cmu-23", 
            "status": "implication", 
            "value": 0.6
        }, 
        {
            "frame-id": "epi-PMC2171987-cmu-nicosys-424", 
            "frame-type": "epistemics", 
            "object-meta": {
                "object-type": "meta-info", 
                "organization": "CMU"
            }, 
            "object-type": "frame", 
            "sentence": "sent-PMC2171987-cmu-24", 
            "status": "belief", 
            "value": 0.9
        }, 
        {
            "frame-id": "epi-PMC2171987-cmu-nicosys-425", 
            "frame-type": "epistemics", 
            "object-meta": {
                "object-type": "meta-info", 
                "organization": "CMU"
            }, 
            "object-type": "frame", 
            "sentence": "sent-PMC2171987-cmu-32", 
            "status": "belief", 
            "value": 0.9
        }, 
        {
            "frame-id": "epi-PMC2171987-cmu-nicosys-426", 
            "frame-type": "epistemics", 
            "object-meta": {
                "object-type": "meta-info", 
                "organization": "CMU"
            }, 
            "object-type": "frame", 
            "sentence": "sent-PMC2171987-cmu-44", 
            "status": "belief", 
            "value": 0.9
        }, 
        {
            "frame-id": "epi-PMC2171987-cmu-nicosys-427", 
            "frame-type": "epistemics", 
            "object-meta": {
                "object-type": "meta-info", 
                "organization": "CMU"
            }, 
            "object-type": "frame", 
            "sentence": "sent-PMC2171987-cmu-136", 
            "status": "belief", 
            "value": 0.9
        }, 
        {
            "frame-id": "epi-PMC2171987-cmu-nicosys-428", 
            "frame-type": "epistemics", 
            "object-meta": {
                "object-type": "meta-info", 
                "organization": "CMU"
            }, 
            "object-type": "frame", 
            "sentence": "sent-PMC2171987-cmu-136", 
            "status": "belief", 
            "value": 0.9
        }, 
        {
            "frame-id": "epi-PMC2171987-cmu-nicosys-429", 
            "frame-type": "epistemics", 
            "object-meta": {
                "object-type": "meta-info", 
                "organization": "CMU"
            }, 
            "object-type": "frame", 
            "sentence": "sent-PMC2171987-cmu-303", 
            "status": "belief", 
            "value": 0.9
        }, 
        {
            "frame-id": "epi-PMC2171987-cmu-nicosys-430", 
            "frame-type": "epistemics", 
            "object-meta": {
                "object-type": "meta-info", 
                "organization": "CMU"
            }, 
            "object-type": "frame", 
            "sentence": "sent-PMC2171987-cmu-305", 
            "status": "belief", 
            "value": 0.9
        }, 
        {
            "frame-id": "epi-PMC2171987-cmu-nicosys-431", 
            "frame-type": "epistemics", 
            "object-meta": {
                "object-type": "meta-info", 
                "organization": "CMU"
            }, 
            "object-type": "frame", 
            "sentence": "sent-PMC2171987-cmu-94", 
            "status": "implication", 
            "value": 0.6
        }, 
        {
            "frame-id": "epi-PMC2171987-cmu-nicosys-432", 
            "frame-type": "epistemics", 
            "object-meta": {
                "object-type": "meta-info", 
                "organization": "CMU"
            }, 
            "object-type": "frame", 
            "sentence": "sent-PMC2171987-cmu-102", 
            "status": "implication", 
            "value": 0.6
        }, 
        {
            "frame-id": "epi-PMC2171987-cmu-nicosys-433", 
            "frame-type": "epistemics", 
            "object-meta": {
                "object-type": "meta-info", 
                "organization": "CMU"
            }, 
            "object-type": "frame", 
            "sentence": "sent-PMC2171987-cmu-239", 
            "status": "implication", 
            "value": 0.6
        }, 
        {
            "frame-id": "epi-PMC2171987-cmu-nicosys-434", 
            "frame-type": "epistemics", 
            "object-meta": {
                "object-type": "meta-info", 
                "organization": "CMU"
            }, 
            "object-type": "frame", 
            "sentence": "sent-PMC2171987-cmu-132", 
            "status": "implication", 
            "value": 0.6
        }, 
        {
            "frame-id": "epi-PMC2171987-cmu-nicosys-435", 
            "frame-type": "epistemics", 
            "object-meta": {
                "object-type": "meta-info", 
                "organization": "CMU"
            }, 
            "object-type": "frame", 
            "sentence": "sent-PMC2171987-cmu-239", 
            "status": "implication", 
            "value": 0.6
        }, 
        {
            "frame-id": "epi-PMC2171987-cmu-nicosys-436", 
            "frame-type": "epistemics", 
            "object-meta": {
                "object-type": "meta-info", 
                "organization": "CMU"
            }, 
            "object-type": "frame", 
            "sentence": "sent-PMC2171987-cmu-135", 
            "status": "implication", 
            "value": 0.6
        }, 
        {
            "frame-id": "epi-PMC2171987-cmu-nicosys-437", 
            "frame-type": "epistemics", 
            "object-meta": {
                "object-type": "meta-info", 
                "organization": "CMU"
            }, 
            "object-type": "frame", 
            "sentence": "sent-PMC2171987-cmu-136", 
            "status": "belief", 
            "value": 0.9
        }, 
        {
            "frame-id": "epi-PMC2171987-cmu-nicosys-438", 
            "frame-type": "epistemics", 
            "object-meta": {
                "object-type": "meta-info", 
                "organization": "CMU"
            }, 
            "object-type": "frame", 
            "sentence": "sent-PMC2171987-cmu-136", 
            "status": "belief", 
            "value": 0.9
        }, 
        {
            "frame-id": "epi-PMC2171987-cmu-nicosys-439", 
            "frame-type": "epistemics", 
            "object-meta": {
                "object-type": "meta-info", 
                "organization": "CMU"
            }, 
            "object-type": "frame", 
            "sentence": "sent-PMC2171987-cmu-303", 
            "status": "belief", 
            "value": 0.9
        }, 
        {
            "frame-id": "epi-PMC2171987-cmu-nicosys-440", 
            "frame-type": "epistemics", 
            "object-meta": {
                "object-type": "meta-info", 
                "organization": "CMU"
            }, 
            "object-type": "frame", 
            "sentence": "sent-PMC2171987-cmu-305", 
            "status": "belief", 
            "value": 0.9
        }, 
        {
            "frame-id": "epi-PMC2171987-cmu-nicosys-441", 
            "frame-type": "epistemics", 
            "object-meta": {
                "object-type": "meta-info", 
                "organization": "CMU"
            }, 
            "object-type": "frame", 
            "sentence": "sent-PMC2171987-cmu-146", 
            "status": "implication", 
            "value": 0.6
        }, 
        {
            "frame-id": "epi-PMC2171987-cmu-nicosys-442", 
            "frame-type": "epistemics", 
            "object-meta": {
                "object-type": "meta-info", 
                "organization": "CMU"
            }, 
            "object-type": "frame", 
            "sentence": "sent-PMC2171987-cmu-98", 
            "status": "implication", 
            "value": 0.6
        }, 
        {
            "frame-id": "epi-PMC2171987-cmu-nicosys-443", 
            "frame-type": "epistemics", 
            "object-meta": {
                "object-type": "meta-info", 
                "organization": "CMU"
            }, 
            "object-type": "frame", 
            "sentence": "sent-PMC2171987-cmu-146", 
            "status": "implication", 
            "value": 0.6
        }, 
        {
            "frame-id": "epi-PMC2171987-cmu-nicosys-444", 
            "frame-type": "epistemics", 
            "object-meta": {
                "object-type": "meta-info", 
                "organization": "CMU"
            }, 
            "object-type": "frame", 
            "sentence": "sent-PMC2171987-cmu-167", 
            "status": "belief", 
            "value": 0.9
        }, 
        {
            "frame-id": "epi-PMC2171987-cmu-nicosys-445", 
            "frame-type": "epistemics", 
            "object-meta": {
                "object-type": "meta-info", 
                "organization": "CMU"
            }, 
            "object-type": "frame", 
            "sentence": "sent-PMC2171987-cmu-167", 
            "status": "belief", 
            "value": 0.9
        }, 
        {
            "frame-id": "epi-PMC2171987-cmu-nicosys-446", 
            "frame-type": "epistemics", 
            "object-meta": {
                "object-type": "meta-info", 
                "organization": "CMU"
            }, 
            "object-type": "frame", 
            "sentence": "sent-PMC2171987-cmu-172", 
            "status": "implication", 
            "value": 0.6
        }, 
        {
            "frame-id": "epi-PMC2171987-cmu-nicosys-447", 
            "frame-type": "epistemics", 
            "object-meta": {
                "object-type": "meta-info", 
                "organization": "CMU"
            }, 
            "object-type": "frame", 
            "sentence": "sent-PMC2171987-cmu-179", 
            "status": "implication", 
            "value": 0.6
        }, 
        {
            "frame-id": "epi-PMC2171987-cmu-nicosys-448", 
            "frame-type": "epistemics", 
            "object-meta": {
                "object-type": "meta-info", 
                "organization": "CMU"
            }, 
            "object-type": "frame", 
            "sentence": "sent-PMC2171987-cmu-182", 
            "status": "implication", 
            "value": 0.6
        }, 
        {
            "frame-id": "epi-PMC2171987-cmu-nicosys-449", 
            "frame-type": "epistemics", 
            "object-meta": {
                "object-type": "meta-info", 
                "organization": "CMU"
            }, 
            "object-type": "frame", 
            "sentence": "sent-PMC2171987-cmu-192", 
            "status": "implication", 
            "value": 0.6
        }, 
        {
            "frame-id": "epi-PMC2171987-cmu-nicosys-450", 
            "frame-type": "epistemics", 
            "object-meta": {
                "object-type": "meta-info", 
                "organization": "CMU"
            }, 
            "object-type": "frame", 
            "sentence": "sent-PMC2171987-cmu-196", 
            "status": "implication", 
            "value": 0.6
        }, 
        {
            "frame-id": "epi-PMC2171987-cmu-nicosys-451", 
            "frame-type": "epistemics", 
            "object-meta": {
                "object-type": "meta-info", 
                "organization": "CMU"
            }, 
            "object-type": "frame", 
            "sentence": "sent-PMC2171987-cmu-202", 
            "status": "implication", 
            "value": 0.6
        }, 
        {
            "frame-id": "epi-PMC2171987-cmu-nicosys-452", 
            "frame-type": "epistemics", 
            "object-meta": {
                "object-type": "meta-info", 
                "organization": "CMU"
            }, 
            "object-type": "frame", 
            "sentence": "sent-PMC2171987-cmu-204", 
            "status": "implication", 
            "value": 0.6
        }, 
        {
            "frame-id": "epi-PMC2171987-cmu-nicosys-453", 
            "frame-type": "epistemics", 
            "object-meta": {
                "object-type": "meta-info", 
                "organization": "CMU"
            }, 
            "object-type": "frame", 
            "sentence": "sent-PMC2171987-cmu-209", 
            "status": "implication", 
            "value": 0.6
        }, 
        {
            "frame-id": "epi-PMC2171987-cmu-nicosys-454", 
            "frame-type": "epistemics", 
            "object-meta": {
                "object-type": "meta-info", 
                "organization": "CMU"
            }, 
            "object-type": "frame", 
            "sentence": "sent-PMC2171987-cmu-213", 
            "status": "implication", 
            "value": 0.6
        }, 
        {
            "frame-id": "epi-PMC2171987-cmu-nicosys-455", 
            "frame-type": "epistemics", 
            "object-meta": {
                "object-type": "meta-info", 
                "organization": "CMU"
            }, 
            "object-type": "frame", 
            "sentence": "sent-PMC2171987-cmu-217", 
            "status": "implication", 
            "value": 0.6
        }, 
        {
            "frame-id": "epi-PMC2171987-cmu-nicosys-456", 
            "frame-type": "epistemics", 
            "object-meta": {
                "object-type": "meta-info", 
                "organization": "CMU"
            }, 
            "object-type": "frame", 
            "sentence": "sent-PMC2171987-cmu-300", 
            "status": "belief", 
            "value": 0.9
        }, 
        {
            "frame-id": "epi-PMC2171987-cmu-nicosys-457", 
            "frame-type": "epistemics", 
            "object-meta": {
                "object-type": "meta-info", 
                "organization": "CMU"
            }, 
            "object-type": "frame", 
            "sentence": "sent-PMC2171987-cmu-300", 
            "status": "belief", 
            "value": 0.9
        }, 
        {
            "frame-id": "epi-PMC2171987-cmu-nicosys-458", 
            "frame-type": "epistemics", 
            "object-meta": {
                "object-type": "meta-info", 
                "organization": "CMU"
            }, 
            "object-type": "frame", 
            "sentence": "sent-PMC2171987-cmu-302", 
            "status": "belief", 
            "value": 0.9
        }, 
        {
            "frame-id": "epi-PMC2171987-cmu-nicosys-459", 
            "frame-type": "epistemics", 
            "object-meta": {
                "object-type": "meta-info", 
                "organization": "CMU"
            }, 
            "object-type": "frame", 
            "sentence": "sent-PMC2171987-cmu-305", 
            "status": "belief", 
            "value": 0.9
        }
    ], 
    "object-meta": {
        "component": "Nicolas-System", 
        "component-type": "machine", 
        "doc-id": "PMC2171987", 
        "object-type": "meta-info", 
        "organization": "CMU"
    }, 
    "object-type": "frame-collection"
}
