{
  "evidence": ["FLAG-NRF2 activity correlating with the ability of the WTX mutants to bind KEAP1","In support of our findings, expression of the NRF2 target genes NQO1 and HMOX1 was significantly enhanced in HEK293T cells overexpressing a fragment of WTX containing the KEAP1 interaction domain .","KEAP1 that directly interact with NRF2","NRF2 can still interact with a KEAP1","Taken together, our data suggest that WTX regulates NRF2 steady-state levels and NRF2-dependent transcription by competing for binding to KEAP1.","We observed a strong interaction between GST-NRF2 and HIS6-hKELCH ( KELCH repeats of KEAP1 that directly interact with NRF2 ) as indicated by a robust AlphaScreen signal ."],
  "extracted_information": {
    "interaction_type": "binds",
    "negative_information": false,
    "participant_a": {
      "entity_text": "KEAP1",
      "entity_type": "protein",
      "identifier": "Uniprot:Q14145",
      "in_model": true
    },
    "participant_b": {
      "entity_text": "NRF2",
      "entity_type": "protein",
      "identifier": "Uniprot:Q16236",
      "in_model": true
    }
  },
  "fries_provenance": [
    {
      "cmu-sentence-epistemic-status": "implication",
      "cmu-sentence-epistemic-value": 0.6,
      "component": "REACH",
      "frame-file": "PMC3307315.uaz.events",
      "frame-id": "evem-PMC3307315-UAZ-r1-109-2-65",
      "passage-id": "pass-PMC3307315-UAZ-r1-109",
      "passage-number": 109,
      "passage-section-id": "N/A",
      "passage-section-name": "N/A",
      "sentence": "We observed a strong interaction between GST-NRF2 and HIS6-hKELCH ( KELCH repeats of KEAP1 that directly interact with NRF2 ) as indicated by a robust AlphaScreen signal .",
      "text": "KEAP1 that directly interact with NRF2",
      "uaz-sentence": "We observed a strong interaction between GST-NRF2 and HIS6-hKELCH ( KELCH repeats of KEAP1 that directly interact with NRF2 ) as indicated by a robust AlphaScreen signal .",
      "uaz-sentence-start": 331
    },
    {
      "cmu-sentence-epistemic-status": "implication",
      "cmu-sentence-epistemic-value": 0.6,
      "component": "MedScan",
      "frame-file": "PMC3307315.cmu.medscan",
      "frame-id": "relm-PMC3307315-cmu-medscan-823",
      "passage-id": "pass-PMC3307315-UAZ-r1-77",
      "passage-number": 77,
      "passage-section-id": "N/A",
      "passage-section-name": "N/A",
      "sentence": "Taken together, our data suggest that WTX regulates NRF2 steady-state levels and NRF2-dependent transcription by competing for binding to KEAP1.",
      "text": "FLAG-NRF2 activity correlating with the ability of the WTX mutants to bind KEAP1",
      "uaz-sentence": "Taken together , our data suggest that WTX directly associates with the KELCH repeats of KEAP1 .",
      "uaz-sentence-start": 523
    },
    {
      "cmu-sentence-epistemic-status": "implication",
      "cmu-sentence-epistemic-value": 0.6,
      "component": "MedScan",
      "frame-file": "PMC3307315.cmu.medscan",
      "frame-id": "relm-PMC3307315-cmu-medscan-824",
      "passage-id": "pass-PMC3307315-UAZ-r1-116",
      "passage-number": 116,
      "passage-section-id": "N/A",
      "passage-section-name": "N/A",
      "sentence": "In support of our findings, expression of the NRF2 target genes NQO1 and HMOX1 was significantly enhanced in HEK293T cells overexpressing a fragment of WTX containing the KEAP1 interaction domain .",
      "text": "NRF2 can still interact with a KEAP1",
      "uaz-sentence": "In support of our findings , expression of the NRF2 target genes NQO1 and HMOX1 was significantly enhanced in HEK293T cells overexpressing a fragment of WTX containing the KEAP1 interaction domain     .",
      "uaz-sentence-start": 1166
    }
  ],
  "model_relation": "extension",
  "pmc_id": "PMC3307315",
  "reader_type": "machine",
  "reading_complete": "2015-06-15T22:41:14Z",
  "reading_started": "2015-06-15T22:41:09Z",
  "submitter": "FRIES"
}
