{
  "evidence": ["association between Lyn and EGFR, PKCalpha,beta, Cbp/PAG","association between Lyn, RACK1, and Cbp/PAG","A physical association between Lyn , RACK1 , and Cbp and PAG in Calu3 cells was demonstrated in Western blotting of immunoprecipitates                                                                                                                                                                                  .","A physical association between Lyn and EGFR , PKCalpha , beta , Cbp and PAG , and RACK1 was demonstrated in pull down experiments indicating that multiple signaling molecules form complexes or signalosomes with EGFR .","Lyn also associates with RACK1 and Cbp \\ PAG                                                                                                         .","Lyn also associates with RACK1 and Cbp\\PAG"],
  "extracted_information": {
    "interaction_type": "binds",
    "negative_information": false,
    "participant_a": {
      "entity_text": "Lyn",
      "entity_type": "protein",
      "identifier": "Uniprot:P07948",
      "in_model": true
    },
    "participant_b": {
      "entity_text": "PAG",
      "entity_type": "protein",
      "identifier": "Uniprot:Q06830",
      "in_model": false
    }
  },
  "fries_provenance": [
    {
      "cmu-sentence-epistemic-status": "belief",
      "cmu-sentence-epistemic-value": 0.9,
      "component": "REACH",
      "frame-file": "PMC3725175.uaz.events",
      "frame-id": "evem-PMC3725175-UAZ-r1-81-2-87",
      "passage-id": "pass-PMC3725175-UAZ-r1-81",
      "passage-number": 81,
      "passage-section-id": "N/A",
      "passage-section-name": "N/A",
      "sentence": "A physical association between Lyn , RACK1 , and Cbp and PAG in Calu3 cells was demonstrated in Western blotting of immunoprecipitates                                                                                                                                                                                  .",
      "text": "association between Lyn, RACK1, and Cbp/PAG",
      "uaz-sentence": "A physical association between Lyn , RACK1 , and Cbp and PAG in Calu3 cells was demonstrated in Western blotting of immunoprecipitates                                                                                                                                                                                  .",
      "uaz-sentence-start": 403
    },
    {
      "cmu-sentence-epistemic-status": "implication",
      "cmu-sentence-epistemic-value": 0.6,
      "component": "REACH",
      "frame-file": "PMC3725175.uaz.events",
      "frame-id": "evem-PMC3725175-UAZ-r1-84-1-94",
      "passage-id": "pass-PMC3725175-UAZ-r1-84",
      "passage-number": 84,
      "passage-section-id": "N/A",
      "passage-section-name": "N/A",
      "sentence": "Lyn also associates with RACK1 and Cbp \\ PAG                                                                                                         .",
      "text": "Lyn also associates with RACK1 and Cbp\\PAG",
      "uaz-sentence": "Lyn also associates with RACK1 and Cbp \\ PAG                                                                                                         .",
      "uaz-sentence-start": 96
    },
    {
      "component": "REACH",
      "frame-file": "PMC3725175.uaz.events",
      "frame-id": "evem-PMC3725175-UAZ-r1-90-3-117",
      "passage-id": "pass-PMC3725175-UAZ-r1-90",
      "passage-number": 90,
      "passage-section-id": "N/A",
      "passage-section-name": "discussion",
      "sentence": "A physical association between Lyn and EGFR , PKCalpha , beta , Cbp and PAG , and RACK1 was demonstrated in pull down experiments indicating that multiple signaling molecules form complexes or signalosomes with EGFR .",
      "text": "association between Lyn and EGFR, PKCalpha,beta, Cbp/PAG",
      "uaz-sentence": "A physical association between Lyn and EGFR , PKCalpha , beta , Cbp and PAG , and RACK1 was demonstrated in pull down experiments indicating that multiple signaling molecules form complexes or signalosomes with EGFR .",
      "uaz-sentence-start": 970
    }
  ],
  "model_relation": "extension",
  "pmc_id": "PMC3725175",
  "reader_type": "machine",
  "reading_complete": "2015-06-15T23:23:39Z",
  "reading_started": "2015-06-15T23:23:34Z",
  "submitter": "FRIES"
}
