{
  "evidence": ["In the current study , the observation that PDTC inhibited hypoxia induced TLR4 expression and increase of bacterial translocation further supports viewpoint expressed above .","PDTC could significantly reduce TLR4","PDTC inhibited hypoxia-induced TLR4","The current study also found that PDTC could significantly reduce TLR4 mRNA levels , possibly via positive feedback after blockage of NF-kappaB or via some direct inhibitory effect of PDTC on TLR4 expression ."],
  "extracted_information": {
    "interaction_type": "decreases_activity",
    "negative_information": false,
    "participant_a": {
      "entity_text": "PDTC",
      "entity_type": "protein",
      "identifier": "PubChem:73343",
      "in_model": false
    },
    "participant_b": {
      "entity_text": "TLR4",
      "entity_type": "protein",
      "identifier": "Uniprot:O00206",
      "in_model": true
    }
  },
  "fries_provenance": [
    {
      "cmu-sentence-epistemic-status": "implication",
      "cmu-sentence-epistemic-value": 0.6,
      "component": "REACH",
      "frame-file": "PMC3474812.uaz.events",
      "frame-id": "evem-PMC3474812-UAZ-r1-93-2-7",
      "passage-id": "pass-PMC3474812-UAZ-r1-93",
      "passage-number": 93,
      "passage-section-id": "s4",
      "passage-section-name": "N/A",
      "sentence": "The current study also found that PDTC could significantly reduce TLR4 mRNA levels , possibly via positive feedback after blockage of NF-kappaB or via some direct inhibitory effect of PDTC on TLR4 expression .",
      "text": "PDTC could significantly reduce TLR4",
      "uaz-sentence": "The current study also found that PDTC could significantly reduce TLR4 mRNA levels , possibly via positive feedback after blockage of NF-kappaB or via some direct inhibitory effect of PDTC on TLR4 expression .",
      "uaz-sentence-start": 201
    },
    {
      "cmu-sentence-epistemic-status": "implication",
      "cmu-sentence-epistemic-value": 0.6,
      "component": "REACH",
      "frame-file": "PMC3474812.uaz.events",
      "frame-id": "evem-PMC3474812-UAZ-r1-96-6-25",
      "passage-id": "pass-PMC3474812-UAZ-r1-96",
      "passage-number": 96,
      "passage-section-id": "s4",
      "passage-section-name": "N/A",
      "sentence": "In the current study , the observation that PDTC inhibited hypoxia induced TLR4 expression and increase of bacterial translocation further supports viewpoint expressed above .",
      "text": "PDTC inhibited hypoxia-induced TLR4",
      "uaz-sentence": "In the current study , the observation that PDTC inhibited hypoxia induced TLR4 expression and increase of bacterial translocation further supports viewpoint expressed above .",
      "uaz-sentence-start": 1047
    }
  ],
  "model_relation": "extension",
  "pmc_id": "PMC3474812",
  "reader_type": "machine",
  "reading_complete": "2015-06-15T22:59:51Z",
  "reading_started": "2015-06-15T22:59:46Z",
  "submitter": "FRIES"
}
