{
  "evidence": ["Because PC-3 and DU145 cells , both of which lack functional p53 , behave similarly with regards to PEITC mediated activation of Notch1 and Notch2 , possibility that differential response between LNCaP and castration resistant cells ( PC-3 and DU145 ) is manifested , partially if not completely , by the p53 ca n't be discarded at present .","Next , we used a normal human prostate epithelial cell line ( PrEC ) to determine if PEITC mediated activation of Notch1 and Notch2 was unique to cancerous prostate cells .","Notch1 and Notch2 activation by PEITC","PEITC activates Notch1","PEITC-mediated activation of Notch1","The present study reveals that PEITC activates Notch1 and Notch2 in cancerous and normal prostate cells .","These results indicated that Notch1 and Notch2 activation by PEITC negatively impacts its ability to inhibit prostate cancer cell migration ."],
  "extracted_information": {
    "interaction_type": "increases_activity",
    "negative_information": false,
    "participant_a": {
      "entity_text": "PEITC",
      "entity_type": "protein",
      "identifier": "CHEBI:351346",
      "in_model": false
    },
    "participant_b": {
      "entity_text": "Notch1",
      "entity_type": "protein",
      "identifier": "Uniprot:P46531",
      "in_model": true
    }
  },
  "fries_provenance": [
    {
      "component": "REACH",
      "frame-file": "PMC3200337.uaz.events",
      "frame-id": "evem-PMC3200337-UAZ-r1-24-0-8",
      "passage-id": "pass-PMC3200337-UAZ-r1-24",
      "passage-number": 24,
      "passage-section-id": "s2b",
      "passage-section-name": "N/A",
      "sentence": "Next , we used a normal human prostate epithelial cell line ( PrEC ) to determine if PEITC mediated activation of Notch1 and Notch2 was unique to cancerous prostate cells .",
      "text": "PEITC-mediated activation of Notch1",
      "uaz-sentence": "Next , we used a normal human prostate epithelial cell line ( PrEC ) to determine if PEITC mediated activation of Notch1 and Notch2 was unique to cancerous prostate cells .",
      "uaz-sentence-start": 0
    },
    {
      "cmu-sentence-epistemic-status": "implication",
      "cmu-sentence-epistemic-value": 0.6,
      "component": "REACH",
      "frame-file": "PMC3200337.uaz.events",
      "frame-id": "evem-PMC3200337-UAZ-r1-49-2-15",
      "passage-id": "pass-PMC3200337-UAZ-r1-49",
      "passage-number": 49,
      "passage-section-id": "s2g",
      "passage-section-name": "N/A",
      "sentence": "These results indicated that Notch1 and Notch2 activation by PEITC negatively impacts its ability to inhibit prostate cancer cell migration .",
      "text": "Notch1 and Notch2 activation by PEITC",
      "uaz-event-epistemic-status": "hypothesis",
      "uaz-sentence": "These results indicated that Notch1 and Notch2 activation by PEITC negatively impacts its ability to inhibit prostate cancer cell migration .",
      "uaz-sentence-start": 285
    },
    {
      "cmu-sentence-epistemic-status": "implication",
      "cmu-sentence-epistemic-value": 0.6,
      "component": "REACH",
      "frame-file": "PMC3200337.uaz.events",
      "frame-id": "evem-PMC3200337-UAZ-r1-61-6-17",
      "passage-id": "pass-PMC3200337-UAZ-r1-61",
      "passage-number": 61,
      "passage-section-id": "s3",
      "passage-section-name": "N/A",
      "sentence": "The present study reveals that PEITC activates Notch1 and Notch2 in cancerous and normal prostate cells .",
      "text": "PEITC activates Notch1",
      "uaz-sentence": "The present study reveals that PEITC activates Notch1 and Notch2 in cancerous and normal prostate cells .",
      "uaz-sentence-start": 1111
    },
    {
      "component": "REACH",
      "frame-file": "PMC3200337.uaz.events",
      "frame-id": "evem-PMC3200337-UAZ-r1-62-4-19",
      "passage-id": "pass-PMC3200337-UAZ-r1-62",
      "passage-number": 62,
      "passage-section-id": "s3",
      "passage-section-name": "N/A",
      "sentence": "Because PC-3 and DU145 cells , both of which lack functional p53 , behave similarly with regards to PEITC mediated activation of Notch1 and Notch2 , possibility that differential response between LNCaP and castration resistant cells ( PC-3 and DU145 ) is manifested , partially if not completely , by the p53 ca n't be discarded at present .",
      "text": "PEITC-mediated activation of Notch1",
      "uaz-sentence": "Because PC-3 and DU145 cells , both of which lack functional p53 , behave similarly with regards to PEITC mediated activation of Notch1 and Notch2 , possibility that differential response between LNCaP and castration resistant cells ( PC-3 and DU145 ) is manifested , partially if not completely , by the p53 ca n't be discarded at present .",
      "uaz-sentence-start": 648
    }
  ],
  "model_relation": "extension",
  "pmc_id": "PMC3200337",
  "reader_type": "machine",
  "reading_complete": "2015-06-15T22:23:31Z",
  "reading_started": "2015-06-15T22:23:26Z",
  "submitter": "FRIES"
}
