{
  "evidence": ["di(2-ethylhexyl) phthalate induces hepatotoxicity in rodents, most likely as a result of mono(2-ethylhexyl) phthalate-induced activation of peroxisome proliferator activated receptor \\u03b1 (PPAR\\u03b1) .","mono(2-ethylhexyl) phthalate-induced activation of peroxisome proliferator activated receptor \\u03b1 (PPAR\\u03b1)"],
  "extracted_information": {
    "interaction_type": "increases",
    "negative_information": false,
    "participant_a": {
      "entity_text": "mono(2-ethylhexyl) phthalate",
      "entity_type": "chemical",
      "identifier": "PubChem:20393",
      "in_model": false
    },
    "participant_b": {
      "entity_text": "peroxisome proliferator activated receptor \\u03b1 (PPAR\\u03b1)",
      "entity_type": "protein",
      "identifier": "Uniprot:F1D8S4",
      "in_model": true
    }
  },
  "fries_provenance": [
    {
      "component": "MedScan",
      "frame-file": "PMC3548273.cmu.medscan",
      "frame-id": "relm-PMC3548273-cmu-medscan-454",
      "sentence": "di(2-ethylhexyl) phthalate induces hepatotoxicity in rodents, most likely as a result of mono(2-ethylhexyl) phthalate-induced activation of peroxisome proliferator activated receptor \\u03b1 (PPAR\\u03b1) .",
      "text": "mono(2-ethylhexyl) phthalate-induced activation of peroxisome proliferator activated receptor \\u03b1 (PPAR\\u03b1)"
    }
  ],
  "model_relation": "extension",
  "pmc_id": "PMC3548273",
  "reader_type": "machine",
  "reading_complete": "2015-06-15T23:09:08Z",
  "reading_started": "2015-06-15T23:09:03Z",
  "submitter": "FRIES"
}
