{
  "frames":[
    {
      "frame-id":"evem-PMC3573765-UAZ-r1-1-9-1",
      "text":"resveratrol treatment significantly attenuated the TLR4",
      "arguments":[
        {
          "text":"TLR4",
          "argument-type":"entity",
          "object-type":"argument",
          "index":0,
          "argument-label":"controlled",
          "arg":"ment-PMC3573765-UAZ-r1-1-9-28"
        },
        {
          "text":"resveratrol",
          "argument-type":"entity",
          "object-type":"argument",
          "index":0,
          "argument-label":"controller",
          "arg":"ment-PMC3573765-UAZ-r1-1-9-27"
        }
      ],
      "type":"activation",
      "frame-type":"event-mention",
      "subtype":"negative-activation",
      "end-pos":{
        "reference":"pass-PMC3573765-UAZ-r1-1",
        "offset":1645,
        "object-type":"relative-pos"
      },
      "object-type":"frame",
      "start-pos":{
        "reference":"pass-PMC3573765-UAZ-r1-1",
        "offset":1590,
        "object-type":"relative-pos"
      },
      "sentence":"sent-PMC3573765-UAZ-r1-1-9",
      "found-by":"Negative_activation_syntax_1_verb",
      "object-meta":{
        "component":"REACH",
        "object-type":"meta-info"
      },
      "verbose-text":"Furthermore , resveratrol treatment significantly attenuated the TLR4 expression , inhibited NF-kappaB activation and reduced the levels of tumor necrosis factor ( TNF ) - alpha and interleukin ( IL ) -1 beta caused by A and R injury in the culture medium ."
    },
    {
      "frame-id":"evem-PMC3573765-UAZ-r1-1-9-2",
      "text":"resveratrol treatment significantly attenuated the TLR4 expression, inhibited NF-kappaB activation and reduced the levels of tumor necrosis factor",
      "arguments":[
        {
          "text":"tumor necrosis factor",
          "argument-type":"entity",
          "object-type":"argument",
          "index":0,
          "argument-label":"controlled",
          "arg":"ment-PMC3573765-UAZ-r1-1-9-30"
        },
        {
          "text":"resveratrol",
          "argument-type":"entity",
          "object-type":"argument",
          "index":0,
          "argument-label":"controller",
          "arg":"ment-PMC3573765-UAZ-r1-1-9-27"
        }
      ],
      "type":"activation",
      "frame-type":"event-mention",
      "subtype":"negative-activation",
      "end-pos":{
        "reference":"pass-PMC3573765-UAZ-r1-1",
        "offset":1736,
        "object-type":"relative-pos"
      },
      "object-type":"frame",
      "start-pos":{
        "reference":"pass-PMC3573765-UAZ-r1-1",
        "offset":1590,
        "object-type":"relative-pos"
      },
      "sentence":"sent-PMC3573765-UAZ-r1-1-9",
      "found-by":"Negative_activation_syntax_1_verb",
      "object-meta":{
        "component":"REACH",
        "object-type":"meta-info"
      },
      "verbose-text":"Furthermore , resveratrol treatment significantly attenuated the TLR4 expression , inhibited NF-kappaB activation and reduced the levels of tumor necrosis factor ( TNF ) - alpha and interleukin ( IL ) -1 beta caused by A and R injury in the culture medium ."
    },
    {
      "frame-id":"evem-PMC3573765-UAZ-r1-1-9-3",
      "text":"resveratrol treatment significantly attenuated the TLR4 expression, inhibited NF-kappaB",
      "arguments":[
        {
          "text":"NF-kappaB",
          "argument-type":"entity",
          "object-type":"argument",
          "index":0,
          "argument-label":"controlled",
          "arg":"ment-PMC3573765-UAZ-r1-1-9-29"
        },
        {
          "text":"resveratrol",
          "argument-type":"entity",
          "object-type":"argument",
          "index":0,
          "argument-label":"controller",
          "arg":"ment-PMC3573765-UAZ-r1-1-9-27"
        }
      ],
      "type":"activation",
      "frame-type":"event-mention",
      "subtype":"negative-activation",
      "end-pos":{
        "reference":"pass-PMC3573765-UAZ-r1-1",
        "offset":1677,
        "object-type":"relative-pos"
      },
      "object-type":"frame",
      "start-pos":{
        "reference":"pass-PMC3573765-UAZ-r1-1",
        "offset":1590,
        "object-type":"relative-pos"
      },
      "sentence":"sent-PMC3573765-UAZ-r1-1-9",
      "found-by":"Negative_activation_syntax_1_verb",
      "object-meta":{
        "component":"REACH",
        "object-type":"meta-info"
      },
      "verbose-text":"Furthermore , resveratrol treatment significantly attenuated the TLR4 expression , inhibited NF-kappaB activation and reduced the levels of tumor necrosis factor ( TNF ) - alpha and interleukin ( IL ) -1 beta caused by A and R injury in the culture medium ."
    },
    {
      "frame-id":"evem-PMC3573765-UAZ-r1-1-8-4",
      "text":"resveratrol prevented a reduction in cell viability, decreased the amount of LDH",
      "arguments":[
        {
          "text":"LDH",
          "argument-type":"entity",
          "object-type":"argument",
          "index":0,
          "argument-label":"controlled",
          "arg":"ment-PMC3573765-UAZ-r1-1-8-25"
        },
        {
          "text":"resveratrol",
          "argument-type":"entity",
          "object-type":"argument",
          "index":0,
          "argument-label":"controller",
          "arg":"ment-PMC3573765-UAZ-r1-1-8-23"
        }
      ],
      "type":"activation",
      "frame-type":"event-mention",
      "subtype":"negative-activation",
      "end-pos":{
        "reference":"pass-PMC3573765-UAZ-r1-1",
        "offset":1473,
        "object-type":"relative-pos"
      },
      "object-type":"frame",
      "start-pos":{
        "reference":"pass-PMC3573765-UAZ-r1-1",
        "offset":1393,
        "object-type":"relative-pos"
      },
      "sentence":"sent-PMC3573765-UAZ-r1-1-8",
      "found-by":"Negative_activation_syntax_1_verb",
      "object-meta":{
        "component":"REACH",
        "object-type":"meta-info"
      },
      "verbose-text":"We found that resveratrol prevented a reduction in cell viability , decreased the amount of LDH release , attenuated apoptotic cells and decreased caspase-3 activity induced by A and R in cardiomyocytes ."
    },
    {
      "frame-id":"evem-PMC3573765-UAZ-r1-1-8-5",
      "text":"resveratrol prevented a reduction in cell viability, decreased the amount of LDH release, attenuated apoptotic cells and decreased caspase-3",
      "arguments":[
        {
          "text":"caspase-3",
          "argument-type":"entity",
          "object-type":"argument",
          "index":0,
          "argument-label":"controlled",
          "arg":"ment-PMC3573765-UAZ-r1-1-8-26"
        },
        {
          "text":"resveratrol",
          "argument-type":"entity",
          "object-type":"argument",
          "index":0,
          "argument-label":"controller",
          "arg":"ment-PMC3573765-UAZ-r1-1-8-23"
        }
      ],
      "type":"activation",
      "frame-type":"event-mention",
      "subtype":"negative-activation",
      "end-pos":{
        "reference":"pass-PMC3573765-UAZ-r1-1",
        "offset":1533,
        "object-type":"relative-pos"
      },
      "object-type":"frame",
      "start-pos":{
        "reference":"pass-PMC3573765-UAZ-r1-1",
        "offset":1393,
        "object-type":"relative-pos"
      },
      "sentence":"sent-PMC3573765-UAZ-r1-1-8",
      "found-by":"Negative_activation_syntax_1_verb",
      "object-meta":{
        "component":"REACH",
        "object-type":"meta-info"
      },
      "verbose-text":"We found that resveratrol prevented a reduction in cell viability , decreased the amount of LDH release , attenuated apoptotic cells and decreased caspase-3 activity induced by A and R in cardiomyocytes ."
    },
    {
      "frame-id":"evem-PMC3573765-UAZ-r1-6-4-6",
      "text":"TLR4 induces the nuclear factor-kappaB",
      "arguments":[
        {
          "text":"nuclear factor-kappaB",
          "argument-type":"entity",
          "object-type":"argument",
          "index":0,
          "argument-label":"controlled",
          "arg":"ment-PMC3573765-UAZ-r1-6-4-47"
        },
        {
          "text":"TLR4",
          "argument-type":"entity",
          "object-type":"argument",
          "index":0,
          "argument-label":"controller",
          "arg":"ment-PMC3573765-UAZ-r1-6-4-46"
        }
      ],
      "type":"activation",
      "frame-type":"event-mention",
      "subtype":"positive-activation",
      "end-pos":{
        "reference":"pass-PMC3573765-UAZ-r1-6",
        "offset":576,
        "object-type":"relative-pos"
      },
      "object-type":"frame",
      "start-pos":{
        "reference":"pass-PMC3573765-UAZ-r1-6",
        "offset":538,
        "object-type":"relative-pos"
      },
      "sentence":"sent-PMC3573765-UAZ-r1-6-4",
      "found-by":"Positive_activation_syntax_1_verb",
      "object-meta":{
        "component":"REACH",
        "object-type":"meta-info"
      },
      "verbose-text":"Activation of TLR4 induces the nuclear factor-kappaB ( NF-kappaB ) - dependent apoptosis and expression of proinflammatory cytokines        ."
    },
    {
      "frame-id":"evem-PMC3573765-UAZ-r1-8-0-7",
      "text":"resveratrol could inhibit NF-kappaB",
      "arguments":[
        {
          "text":"NF-kappaB",
          "argument-type":"entity",
          "object-type":"argument",
          "index":0,
          "argument-label":"controlled",
          "arg":"ment-PMC3573765-UAZ-r1-8-0-59"
        },
        {
          "text":"resveratrol",
          "argument-type":"entity",
          "object-type":"argument",
          "index":0,
          "argument-label":"controller",
          "arg":"ment-PMC3573765-UAZ-r1-8-0-58"
        }
      ],
      "type":"activation",
      "frame-type":"event-mention",
      "subtype":"negative-activation",
      "end-pos":{
        "reference":"pass-PMC3573765-UAZ-r1-8",
        "offset":65,
        "object-type":"relative-pos"
      },
      "object-type":"frame",
      "start-pos":{
        "reference":"pass-PMC3573765-UAZ-r1-8",
        "offset":30,
        "object-type":"relative-pos"
      },
      "sentence":"sent-PMC3573765-UAZ-r1-8-0",
      "found-by":"Negative_activation_syntax_1_verb",
      "object-meta":{
        "component":"REACH",
        "object-type":"meta-info"
      },
      "verbose-text":"Youn et al      reported that resveratrol could inhibit NF-kappaB activation induced by TLR4 mediated signaling in RAW264 .7 cells ."
    },
    {
      "frame-id":"evem-PMC3573765-UAZ-r1-8-0-8",
      "text":"NF-kappaB activation induced by TLR4",
      "arguments":[
        {
          "text":"NF-kappaB",
          "argument-type":"entity",
          "object-type":"argument",
          "index":0,
          "argument-label":"controlled",
          "arg":"ment-PMC3573765-UAZ-r1-8-0-59"
        },
        {
          "text":"TLR4",
          "argument-type":"entity",
          "object-type":"argument",
          "index":0,
          "argument-label":"controller",
          "arg":"ment-PMC3573765-UAZ-r1-8-0-60"
        }
      ],
      "type":"activation",
      "frame-type":"event-mention",
      "subtype":"positive-activation",
      "end-pos":{
        "reference":"pass-PMC3573765-UAZ-r1-8",
        "offset":92,
        "object-type":"relative-pos"
      },
      "object-type":"frame",
      "start-pos":{
        "reference":"pass-PMC3573765-UAZ-r1-8",
        "offset":56,
        "object-type":"relative-pos"
      },
      "sentence":"sent-PMC3573765-UAZ-r1-8-0",
      "found-by":"Positive_activation_syntax_2_verb",
      "object-meta":{
        "component":"REACH",
        "object-type":"meta-info"
      },
      "verbose-text":"Youn et al      reported that resveratrol could inhibit NF-kappaB activation induced by TLR4 mediated signaling in RAW264 .7 cells ."
    },
    {
      "frame-id":"evem-PMC3573765-UAZ-r1-51-3-9",
      "text":"resveratrol (5, 10 or 20 muM) significantly suppressed the release of LDH",
      "arguments":[
        {
          "text":"LDH",
          "argument-type":"entity",
          "object-type":"argument",
          "index":0,
          "argument-label":"controlled",
          "arg":"ment-PMC3573765-UAZ-r1-51-3-121"
        },
        {
          "text":"resveratrol",
          "argument-type":"entity",
          "object-type":"argument",
          "index":0,
          "argument-label":"controller",
          "arg":"ment-PMC3573765-UAZ-r1-51-3-120"
        }
      ],
      "type":"activation",
      "frame-type":"event-mention",
      "subtype":"negative-activation",
      "end-pos":{
        "reference":"pass-PMC3573765-UAZ-r1-51",
        "offset":552,
        "object-type":"relative-pos"
      },
      "object-type":"frame",
      "start-pos":{
        "reference":"pass-PMC3573765-UAZ-r1-51",
        "offset":479,
        "object-type":"relative-pos"
      },
      "sentence":"sent-PMC3573765-UAZ-r1-51-3",
      "found-by":"Negative_activation_syntax_1_verb",
      "object-meta":{
        "component":"REACH",
        "object-type":"meta-info"
      },
      "verbose-text":"Furthermore , resveratrol ( 5 , 10 or 20 muM ) significantly suppressed the release of LDH in cardiomyocytes that had undergone A and R ( P < 0.05 )          ."
    },
    {
      "frame-id":"evem-PMC3573765-UAZ-r1-55-3-10",
      "text":"resveratrol significantly inhibited the activation of caspase-3",
      "arguments":[
        {
          "text":"caspase-3",
          "argument-type":"entity",
          "object-type":"argument",
          "index":0,
          "argument-label":"controlled",
          "arg":"ment-PMC3573765-UAZ-r1-55-3-132"
        },
        {
          "text":"resveratrol",
          "argument-type":"entity",
          "object-type":"argument",
          "index":0,
          "argument-label":"controller",
          "arg":"ment-PMC3573765-UAZ-r1-55-3-131"
        }
      ],
      "type":"activation",
      "frame-type":"event-mention",
      "subtype":"negative-activation",
      "end-pos":{
        "reference":"pass-PMC3573765-UAZ-r1-55",
        "offset":382,
        "object-type":"relative-pos"
      },
      "object-type":"frame",
      "start-pos":{
        "reference":"pass-PMC3573765-UAZ-r1-55",
        "offset":319,
        "object-type":"relative-pos"
      },
      "sentence":"sent-PMC3573765-UAZ-r1-55-3",
      "found-by":"Negative_activation_syntax_1_verb",
      "object-meta":{
        "component":"REACH",
        "object-type":"meta-info"
      },
      "verbose-text":"However , resveratrol significantly inhibited the activation of caspase-3 induced by A and R ( P < 0.05 )         ."
    },
    {
      "frame-id":"evem-PMC3573765-UAZ-r1-61-4-11",
      "text":"Resveratrol (5, 10 or 20 muM) treatment inhibited the degradation of I-kappaBalpha, and blocked the translocation of NF-kappaB",
      "arguments":[
        {
          "text":"NF-kappaB",
          "argument-type":"entity",
          "object-type":"argument",
          "index":0,
          "argument-label":"controlled",
          "arg":"ment-PMC3573765-UAZ-r1-61-4-155"
        },
        {
          "text":"Resveratrol",
          "argument-type":"entity",
          "object-type":"argument",
          "index":0,
          "argument-label":"controller",
          "arg":"ment-PMC3573765-UAZ-r1-61-4-153"
        }
      ],
      "type":"activation",
      "frame-type":"event-mention",
      "subtype":"negative-activation",
      "end-pos":{
        "reference":"pass-PMC3573765-UAZ-r1-61",
        "offset":639,
        "object-type":"relative-pos"
      },
      "object-type":"frame",
      "start-pos":{
        "reference":"pass-PMC3573765-UAZ-r1-61",
        "offset":513,
        "object-type":"relative-pos"
      },
      "sentence":"sent-PMC3573765-UAZ-r1-61-4",
      "found-by":"Negative_activation_syntax_1_verb",
      "object-meta":{
        "component":"REACH",
        "object-type":"meta-info"
      },
      "verbose-text":"Resveratrol ( 5 , 10 or 20 muM ) treatment inhibited the degradation of I-kappaBalpha , and blocked the translocation of NF-kappaB into the nucleus ."
    },
    {
      "frame-id":"evem-PMC3573765-UAZ-r1-61-4-12",
      "text":"Resveratrol (5, 10 or 20 muM) treatment inhibited the degradation of I-kappaBalpha",
      "arguments":[
        {
          "text":"I-kappaBalpha",
          "argument-type":"entity",
          "object-type":"argument",
          "index":0,
          "argument-label":"controlled",
          "arg":"ment-PMC3573765-UAZ-r1-61-4-154"
        },
        {
          "text":"Resveratrol",
          "argument-type":"entity",
          "object-type":"argument",
          "index":0,
          "argument-label":"controller",
          "arg":"ment-PMC3573765-UAZ-r1-61-4-153"
        }
      ],
      "type":"activation",
      "frame-type":"event-mention",
      "subtype":"positive-activation",
      "end-pos":{
        "reference":"pass-PMC3573765-UAZ-r1-61",
        "offset":595,
        "object-type":"relative-pos"
      },
      "object-type":"frame",
      "start-pos":{
        "reference":"pass-PMC3573765-UAZ-r1-61",
        "offset":513,
        "object-type":"relative-pos"
      },
      "sentence":"sent-PMC3573765-UAZ-r1-61-4",
      "found-by":"Negative_activation_syntax_1_verb",
      "object-meta":{
        "component":"REACH",
        "object-type":"meta-info"
      },
      "verbose-text":"Resveratrol ( 5 , 10 or 20 muM ) treatment inhibited the degradation of I-kappaBalpha , and blocked the translocation of NF-kappaB into the nucleus ."
    },
    {
      "frame-id":"evem-PMC3573765-UAZ-r1-63-0-13",
      "text":"Resveratrol inhibits the production of TNF-alpha",
      "arguments":[
        {
          "text":"TNF-alpha",
          "argument-type":"entity",
          "object-type":"argument",
          "index":0,
          "argument-label":"controlled",
          "arg":"ment-PMC3573765-UAZ-r1-63-0-158"
        },
        {
          "text":"Resveratrol",
          "argument-type":"entity",
          "object-type":"argument",
          "index":0,
          "argument-label":"controller",
          "arg":"ment-PMC3573765-UAZ-r1-63-0-157"
        }
      ],
      "type":"activation",
      "frame-type":"event-mention",
      "subtype":"negative-activation",
      "end-pos":{
        "reference":"pass-PMC3573765-UAZ-r1-63",
        "offset":48,
        "object-type":"relative-pos"
      },
      "object-type":"frame",
      "start-pos":{
        "reference":"pass-PMC3573765-UAZ-r1-63",
        "offset":0,
        "object-type":"relative-pos"
      },
      "sentence":"sent-PMC3573765-UAZ-r1-63-0",
      "found-by":"Negative_activation_syntax_1_verb",
      "object-meta":{
        "component":"REACH",
        "object-type":"meta-info"
      },
      "verbose-text":"Resveratrol inhibits the production of TNF-alpha and IL-1beta induced by A and R in cardiomyocytes"
    },
    {
      "frame-id":"evem-PMC3573765-UAZ-r1-63-0-14",
      "text":"Resveratrol inhibits the production of TNF-alpha and IL-1beta",
      "arguments":[
        {
          "text":"IL-1beta",
          "argument-type":"entity",
          "object-type":"argument",
          "index":0,
          "argument-label":"controlled",
          "arg":"ment-PMC3573765-UAZ-r1-63-0-159"
        },
        {
          "text":"Resveratrol",
          "argument-type":"entity",
          "object-type":"argument",
          "index":0,
          "argument-label":"controller",
          "arg":"ment-PMC3573765-UAZ-r1-63-0-157"
        }
      ],
      "type":"activation",
      "frame-type":"event-mention",
      "subtype":"negative-activation",
      "end-pos":{
        "reference":"pass-PMC3573765-UAZ-r1-63",
        "offset":61,
        "object-type":"relative-pos"
      },
      "object-type":"frame",
      "start-pos":{
        "reference":"pass-PMC3573765-UAZ-r1-63",
        "offset":0,
        "object-type":"relative-pos"
      },
      "sentence":"sent-PMC3573765-UAZ-r1-63-0",
      "found-by":"Negative_activation_syntax_1_verb",
      "object-meta":{
        "component":"REACH",
        "object-type":"meta-info"
      },
      "verbose-text":"Resveratrol inhibits the production of TNF-alpha and IL-1beta induced by A and R in cardiomyocytes"
    },
    {
      "is-hypothesis":true,
      "frame-id":"evem-PMC3573765-UAZ-r1-68-2-15",
      "text":"resveratrol (5, 10 or 20 muM) significantly prevented A/R-induced cell damage in cardiomyocytes confirmed by improved cell viability and reduced LDH",
      "arguments":[
        {
          "text":"LDH",
          "argument-type":"entity",
          "object-type":"argument",
          "index":0,
          "argument-label":"controlled",
          "arg":"ment-PMC3573765-UAZ-r1-68-2-196"
        },
        {
          "text":"resveratrol",
          "argument-type":"entity",
          "object-type":"argument",
          "index":0,
          "argument-label":"controller",
          "arg":"ment-PMC3573765-UAZ-r1-68-2-192"
        }
      ],
      "type":"activation",
      "frame-type":"event-mention",
      "subtype":"negative-activation",
      "end-pos":{
        "reference":"pass-PMC3573765-UAZ-r1-68",
        "offset":484,
        "object-type":"relative-pos"
      },
      "object-type":"frame",
      "start-pos":{
        "reference":"pass-PMC3573765-UAZ-r1-68",
        "offset":336,
        "object-type":"relative-pos"
      },
      "sentence":"sent-PMC3573765-UAZ-r1-68-2",
      "found-by":"Negative_activation_syntax_1_verb",
      "object-meta":{
        "component":"REACH",
        "object-type":"meta-info"
      },
      "verbose-text":"However , resveratrol ( 5 , 10 or 20 muM ) significantly prevented A and R-induced cell damage in cardiomyocytes confirmed by improved cell viability and reduced LDH activity , implying that resveratrol can protect cardiomyocytes ."
    },
    {
      "frame-id":"evem-PMC3573765-UAZ-r1-70-2-16",
      "text":"resveratrol applied shortly after the onset of reoxygenation markedly suppressed the levels of TNF-alpha",
      "arguments":[
        {
          "text":"TNF-alpha",
          "argument-type":"entity",
          "object-type":"argument",
          "index":0,
          "argument-label":"controlled",
          "arg":"ment-PMC3573765-UAZ-r1-70-2-209"
        },
        {
          "text":"resveratrol",
          "argument-type":"entity",
          "object-type":"argument",
          "index":0,
          "argument-label":"controller",
          "arg":"ment-PMC3573765-UAZ-r1-70-2-208"
        }
      ],
      "type":"activation",
      "frame-type":"event-mention",
      "subtype":"negative-activation",
      "end-pos":{
        "reference":"pass-PMC3573765-UAZ-r1-70",
        "offset":361,
        "object-type":"relative-pos"
      },
      "object-type":"frame",
      "start-pos":{
        "reference":"pass-PMC3573765-UAZ-r1-70",
        "offset":257,
        "object-type":"relative-pos"
      },
      "sentence":"sent-PMC3573765-UAZ-r1-70-2",
      "found-by":"Negative_activation_syntax_1_verb",
      "object-meta":{
        "component":"REACH",
        "object-type":"meta-info"
      },
      "verbose-text":"However , resveratrol applied shortly after the onset of reoxygenation markedly suppressed the levels of TNF-alpha and IL-1beta in the culture medium ."
    },
    {
      "frame-id":"evem-PMC3573765-UAZ-r1-70-2-17",
      "text":"resveratrol applied shortly after the onset of reoxygenation markedly suppressed the levels of TNF-alpha and IL-1beta",
      "arguments":[
        {
          "text":"IL-1beta",
          "argument-type":"entity",
          "object-type":"argument",
          "index":0,
          "argument-label":"controlled",
          "arg":"ment-PMC3573765-UAZ-r1-70-2-210"
        },
        {
          "text":"resveratrol",
          "argument-type":"entity",
          "object-type":"argument",
          "index":0,
          "argument-label":"controller",
          "arg":"ment-PMC3573765-UAZ-r1-70-2-208"
        }
      ],
      "type":"activation",
      "frame-type":"event-mention",
      "subtype":"negative-activation",
      "end-pos":{
        "reference":"pass-PMC3573765-UAZ-r1-70",
        "offset":374,
        "object-type":"relative-pos"
      },
      "object-type":"frame",
      "start-pos":{
        "reference":"pass-PMC3573765-UAZ-r1-70",
        "offset":257,
        "object-type":"relative-pos"
      },
      "sentence":"sent-PMC3573765-UAZ-r1-70-2",
      "found-by":"Negative_activation_syntax_1_verb",
      "object-meta":{
        "component":"REACH",
        "object-type":"meta-info"
      },
      "verbose-text":"However , resveratrol applied shortly after the onset of reoxygenation markedly suppressed the levels of TNF-alpha and IL-1beta in the culture medium ."
    },
    {
      "frame-id":"evem-PMC3573765-UAZ-r1-71-0-18",
      "text":"resveratrol applied shortly after the onset of reoxygenation decreased TLR4",
      "arguments":[
        {
          "text":"TLR4",
          "argument-type":"entity",
          "object-type":"argument",
          "index":0,
          "argument-label":"controlled",
          "arg":"ment-PMC3573765-UAZ-r1-71-0-214"
        },
        {
          "text":"resveratrol",
          "argument-type":"entity",
          "object-type":"argument",
          "index":0,
          "argument-label":"controller",
          "arg":"ment-PMC3573765-UAZ-r1-71-0-213"
        }
      ],
      "type":"activation",
      "frame-type":"event-mention",
      "subtype":"negative-activation",
      "end-pos":{
        "reference":"pass-PMC3573765-UAZ-r1-71",
        "offset":125,
        "object-type":"relative-pos"
      },
      "object-type":"frame",
      "start-pos":{
        "reference":"pass-PMC3573765-UAZ-r1-71",
        "offset":50,
        "object-type":"relative-pos"
      },
      "sentence":"sent-PMC3573765-UAZ-r1-71-0",
      "found-by":"Negative_activation_syntax_1_verb",
      "object-meta":{
        "component":"REACH",
        "object-type":"meta-info"
      },
      "verbose-text":"In this study , another important finding was that resveratrol applied shortly after the onset of reoxygenation decreased TLR4 mRNA and protein expression , which were upregulated in cardiomyocytes undergoing A and R ."
    },
    {
      "frame-id":"evem-PMC3573765-UAZ-r1-71-5-19",
      "text":"phosphorylates I-kappaBalpha",
      "arguments":[
        {
          "text":"I-kappaBalpha",
          "argument-type":"entity",
          "object-type":"argument",
          "index":0,
          "argument-label":"theme",
          "arg":"ment-PMC3573765-UAZ-r1-71-5-229"
        }
      ],
      "type":"protein-modification",
      "frame-type":"event-mention",
      "subtype":"phosphorylation",
      "end-pos":{
        "reference":"pass-PMC3573765-UAZ-r1-71",
        "offset":837,
        "object-type":"relative-pos"
      },
      "object-type":"frame",
      "start-pos":{
        "reference":"pass-PMC3573765-UAZ-r1-71",
        "offset":809,
        "object-type":"relative-pos"
      },
      "sentence":"sent-PMC3573765-UAZ-r1-71-5",
      "found-by":"Phosphorylation_syntax_1_verb",
      "object-meta":{
        "component":"REACH",
        "object-type":"meta-info"
      },
      "verbose-text":"IKKbeta ( a kinase ) phosphorylates I-kappaBalpha resulting in the subsequent degradation of I-kappaBalpha ."
    },
    {
      "is-hypothesis":true,
      "frame-id":"evem-PMC3573765-UAZ-r1-73-2-20",
      "text":"TLR4-mediated NF-kappaB",
      "arguments":[
        {
          "text":"TLR4",
          "argument-type":"entity",
          "object-type":"argument",
          "index":0,
          "argument-label":"controller",
          "arg":"ment-PMC3573765-UAZ-r1-73-2-263"
        },
        {
          "text":"NF-kappaB",
          "argument-type":"entity",
          "object-type":"argument",
          "index":0,
          "argument-label":"controlled",
          "arg":"ment-PMC3573765-UAZ-r1-73-2-264"
        }
      ],
      "type":"activation",
      "frame-type":"event-mention",
      "subtype":"positive-activation",
      "end-pos":{
        "reference":"pass-PMC3573765-UAZ-r1-73",
        "offset":664,
        "object-type":"relative-pos"
      },
      "object-type":"frame",
      "start-pos":{
        "reference":"pass-PMC3573765-UAZ-r1-73",
        "offset":641,
        "object-type":"relative-pos"
      },
      "sentence":"sent-PMC3573765-UAZ-r1-73-2",
      "found-by":"Positive_activation_token_1_verb",
      "object-meta":{
        "component":"REACH",
        "object-type":"meta-info"
      },
      "verbose-text":"Thus , our results suggest that as an adjuvant therapeutic approach , resveratrol applied at reperfusion may constitute a new strategy for myocardial I and R injury at least in part via the TLR4 mediated NF-kappaB signaling pathway ."
    },
    {
      "frame-id":"evem-PMC3573765-UAZ-r1-161-1-21",
      "text":"Resveratrol inhibited the expression of TLR4",
      "arguments":[
        {
          "text":"TLR4",
          "argument-type":"entity",
          "object-type":"argument",
          "index":0,
          "argument-label":"controlled",
          "arg":"ment-PMC3573765-UAZ-r1-161-1-285"
        },
        {
          "text":"Resveratrol",
          "argument-type":"entity",
          "object-type":"argument",
          "index":0,
          "argument-label":"controller",
          "arg":"ment-PMC3573765-UAZ-r1-161-1-284"
        }
      ],
      "type":"activation",
      "frame-type":"event-mention",
      "subtype":"negative-activation",
      "end-pos":{
        "reference":"pass-PMC3573765-UAZ-r1-161",
        "offset":98,
        "object-type":"relative-pos"
      },
      "object-type":"frame",
      "start-pos":{
        "reference":"pass-PMC3573765-UAZ-r1-161",
        "offset":54,
        "object-type":"relative-pos"
      },
      "sentence":"sent-PMC3573765-UAZ-r1-161-1",
      "found-by":"Negative_activation_syntax_1_verb",
      "object-meta":{
        "component":"REACH",
        "object-type":"meta-info"
      },
      "verbose-text":"Resveratrol inhibited the expression of TLR4 mRNA and protein in cardiomyocytes undergoing A and R ."
    },
    {
      "frame-id":"evem-PMC3573765-UAZ-r1-71-5-22",
      "text":"IKKbeta (a kinase) phosphorylates I-kappaBalpha",
      "arguments":[
        {
          "text":"phosphorylates I-kappaBalpha",
          "argument-type":"event",
          "object-type":"argument",
          "index":0,
          "argument-label":"controlled",
          "arg":"evem-PMC3573765-UAZ-r1-71-5-19"
        },
        {
          "text":"IKKbeta",
          "argument-type":"entity",
          "object-type":"argument",
          "index":0,
          "argument-label":"controller",
          "arg":"ment-PMC3573765-UAZ-r1-71-5-228"
        }
      ],
      "type":"regulation",
      "frame-type":"event-mention",
      "subtype":"positive-regulation",
      "end-pos":{
        "reference":"pass-PMC3573765-UAZ-r1-71",
        "offset":837,
        "object-type":"relative-pos"
      },
      "object-type":"frame",
      "start-pos":{
        "reference":"pass-PMC3573765-UAZ-r1-71",
        "offset":790,
        "object-type":"relative-pos"
      },
      "sentence":"sent-PMC3573765-UAZ-r1-71-5",
      "found-by":"Phosphorylation_syntax_1_verb",
      "object-meta":{
        "component":"REACH",
        "object-type":"meta-info"
      },
      "verbose-text":"IKKbeta ( a kinase ) phosphorylates I-kappaBalpha resulting in the subsequent degradation of I-kappaBalpha ."
    }
  ],
  "object-type":"frame-collection",
  "object-meta":{
    "processing-end":"2015-06-14T21:49:43Z",
    "doc-id":"PMC3573765",
    "component-type":"machine",
    "component":"REACH",
    "processing-start":"2015-06-14T21:48:31Z",
    "object-type":"meta-info",
    "organization":"UAZ"
  }
}
