{
  "evidence": ["Because it is possible that the differences in Pyk2 phosphorylation observed in lck-/- and fyn-/- thymocytes might reflect heterogeneity in the cellular subsets in these mice , the regulation of tyrosine phosphorylation of Pyk2 by Lck and Fyn was further studied in a heterologous cell system , COS-7 cells .","phosphorylation of Pyk2 by Lck"],
  "extracted_information": {
    "interaction_type": "adds_modification",
    "negative_information": false,
    "modifications": [
      {
        "modification_type": "phosphorylation"
      }
    ],
    "participant_a": {
      "entity_text": "Lck",
      "entity_type": "protein",
      "identifier": "Uniprot:P06239",
      "in_model": true
    },
    "participant_b": {
      "entity_text": "Pyk2",
      "entity_type": "protein",
      "identifier": "Uniprot:Q14289",
      "in_model": true
    }
  },
  "fries_provenance": [
    {
      "cmu-sentence-epistemic-status": "belief",
      "cmu-sentence-epistemic-value": 0.9,
      "component": "REACH",
      "frame-file": "PMC2196260.uaz.events",
      "frame-id": "evem-PMC2196260-UAZ-r1-42-0-67",
      "passage-id": "pass-PMC2196260-UAZ-r1-42",
      "passage-number": 42,
      "passage-section-id": "N/A",
      "passage-section-name": "N/A",
      "sentence": "Because it is possible that the differences in Pyk2 phosphorylation observed in lck-/- and fyn-/- thymocytes might reflect heterogeneity in the cellular subsets in these mice , the regulation of tyrosine phosphorylation of Pyk2 by Lck and Fyn was further studied in a heterologous cell system , COS-7 cells .",
      "text": "phosphorylation of Pyk2 by Lck",
      "uaz-sentence": "Because it is possible that the differences in Pyk2 phosphorylation observed in lck-/- and fyn-/- thymocytes might reflect heterogeneity in the cellular subsets in these mice , the regulation of tyrosine phosphorylation of Pyk2 by Lck and Fyn was further studied in a heterologous cell system , COS-7 cells .",
      "uaz-sentence-start": 0
    }
  ],
  "model_relation": "extension",
  "pmc_id": "PMC2196260",
  "reader_type": "machine",
  "reading_complete": "2015-06-15T20:07:52Z",
  "reading_started": "2015-06-15T20:07:47Z",
  "submitter": "FRIES"
}
