{
    "frames": [
        {
            "frame-id": "smap-PMC3522295-cmu-1", 
            "frame-type": "sentence-map", 
            "list1-meta": {
                "component": "nxml2fries", 
                "object-type": "meta-info", 
                "organization": "UAZ"
            }, 
            "list2-meta": {
                "component": "Nicolas-NXML-Parser", 
                "object-type": "meta-info", 
                "organization": "CMU"
            }, 
            "map": [
                {
                    "from": "sent-PMC3522295-UAZ-r1-15-1", 
                    "object-type": "map-range", 
                    "to": "sent-PMC3522295-cmu-14"
                }, 
                {
                    "from": "sent-PMC3522295-UAZ-r1-62-0", 
                    "object-type": "map-range", 
                    "to": "sent-PMC3522295-cmu-96"
                }, 
                {
                    "from": "sent-PMC3522295-UAZ-r1-105-3", 
                    "object-type": "map-range", 
                    "to": "sent-PMC3522295-cmu-212"
                }, 
                {
                    "from": "sent-PMC3522295-UAZ-r1-76-4", 
                    "object-type": "map-range", 
                    "to": "sent-PMC3522295-cmu-138"
                }, 
                {
                    "from": "sent-PMC3522295-UAZ-r1-105-2", 
                    "object-type": "map-range", 
                    "to": "sent-PMC3522295-cmu-211"
                }, 
                {
                    "from": "sent-PMC3522295-UAZ-r1-110-3", 
                    "object-type": "map-range", 
                    "to": "sent-PMC3522295-cmu-247"
                }, 
                {
                    "from": "sent-PMC3522295-UAZ-r1-57-0", 
                    "object-type": "map-range", 
                    "to": "sent-PMC3522295-cmu-86"
                }, 
                {
                    "from": "sent-PMC3522295-UAZ-r1-110-0", 
                    "object-type": "map-range", 
                    "to": "sent-PMC3522295-cmu-244"
                }, 
                {
                    "from": "sent-PMC3522295-UAZ-r1-109-7", 
                    "object-type": "map-range", 
                    "to": "sent-PMC3522295-cmu-243"
                }, 
                {
                    "from": "sent-PMC3522295-UAZ-r1-97-7", 
                    "object-type": "map-range", 
                    "to": "sent-PMC3522295-cmu-194"
                }, 
                {
                    "from": "sent-PMC3522295-UAZ-r1-33-6", 
                    "object-type": "map-range", 
                    "to": "sent-PMC3522295-cmu-51"
                }, 
                {
                    "from": "sent-PMC3522295-UAZ-r1-14-1", 
                    "object-type": "map-range", 
                    "to": "sent-PMC3522295-cmu-10"
                }, 
                {
                    "from": "sent-PMC3522295-UAZ-r1-105-0", 
                    "object-type": "map-range", 
                    "to": "sent-PMC3522295-cmu-209"
                }, 
                {
                    "from": "sent-PMC3522295-UAZ-r1-106-0", 
                    "object-type": "map-range", 
                    "to": "sent-PMC3522295-cmu-218"
                }, 
                {
                    "from": "sent-PMC3522295-UAZ-r1-39-1", 
                    "object-type": "map-range", 
                    "to": "sent-PMC3522295-cmu-60"
                }, 
                {
                    "from": "sent-PMC3522295-UAZ-r1-110-1", 
                    "object-type": "map-range", 
                    "to": "sent-PMC3522295-cmu-245"
                }, 
                {
                    "from": "sent-PMC3522295-UAZ-r1-14-0", 
                    "object-type": "map-range", 
                    "to": "sent-PMC3522295-cmu-9"
                }, 
                {
                    "from": "sent-PMC3522295-UAZ-r1-76-0", 
                    "object-type": "map-range", 
                    "to": "sent-PMC3522295-cmu-132"
                }, 
                {
                    "from": "sent-PMC3522295-UAZ-r1-83-2", 
                    "object-type": "map-range", 
                    "to": "sent-PMC3522295-cmu-161"
                }, 
                {
                    "from": "sent-PMC3522295-UAZ-r1-24-8", 
                    "object-type": "map-range", 
                    "to": "sent-PMC3522295-cmu-30"
                }, 
                {
                    "from": "sent-PMC3522295-UAZ-r1-27-0", 
                    "object-type": "map-range", 
                    "to": "sent-PMC3522295-cmu-33"
                }, 
                {
                    "from": "sent-PMC3522295-UAZ-r1-109-2", 
                    "object-type": "map-range", 
                    "to": "sent-PMC3522295-cmu-238"
                }, 
                {
                    "from": "sent-PMC3522295-UAZ-r1-107-5", 
                    "object-type": "map-range", 
                    "to": "sent-PMC3522295-cmu-231"
                }, 
                {
                    "from": "sent-PMC3522295-UAZ-r1-86-4", 
                    "object-type": "map-range", 
                    "to": "sent-PMC3522295-cmu-168"
                }, 
                {
                    "from": "sent-PMC3522295-UAZ-r1-73-2", 
                    "object-type": "map-range", 
                    "to": "sent-PMC3522295-cmu-127"
                }, 
                {
                    "from": "sent-PMC3522295-UAZ-r1-59-3", 
                    "object-type": "map-range", 
                    "to": "sent-PMC3522295-cmu-94"
                }, 
                {
                    "from": "sent-PMC3522295-UAZ-r1-89-1", 
                    "object-type": "map-range", 
                    "to": "sent-PMC3522295-cmu-172"
                }, 
                {
                    "from": "sent-PMC3522295-UAZ-r1-111-3", 
                    "object-type": "map-range", 
                    "to": "sent-PMC3522295-cmu-251"
                }, 
                {
                    "from": "sent-PMC3522295-UAZ-r1-24-6", 
                    "object-type": "map-range", 
                    "to": "sent-PMC3522295-cmu-28"
                }, 
                {
                    "from": "sent-PMC3522295-UAZ-r1-106-6", 
                    "object-type": "map-range", 
                    "to": "sent-PMC3522295-cmu-224"
                }, 
                {
                    "from": "sent-PMC3522295-UAZ-r1-46-3", 
                    "object-type": "map-range", 
                    "to": "sent-PMC3522295-cmu-75"
                }, 
                {
                    "from": "sent-PMC3522295-UAZ-r1-46-5", 
                    "object-type": "map-range", 
                    "to": "sent-PMC3522295-cmu-77"
                }, 
                {
                    "from": "sent-PMC3522295-UAZ-r1-24-4", 
                    "object-type": "map-range", 
                    "to": "sent-PMC3522295-cmu-26"
                }, 
                {
                    "from": "sent-PMC3522295-UAZ-r1-73-0", 
                    "object-type": "map-range", 
                    "to": "sent-PMC3522295-cmu-121"
                }, 
                {
                    "from": "sent-PMC3522295-UAZ-r1-15-0", 
                    "object-type": "map-range", 
                    "to": "sent-PMC3522295-cmu-13"
                }, 
                {
                    "from": "sent-PMC3522295-UAZ-r1-27-3", 
                    "object-type": "map-range", 
                    "to": "sent-PMC3522295-cmu-36"
                }, 
                {
                    "from": "sent-PMC3522295-UAZ-r1-86-5", 
                    "object-type": "map-range", 
                    "to": "sent-PMC3522295-cmu-170"
                }, 
                {
                    "from": "sent-PMC3522295-UAZ-r1-81-0", 
                    "object-type": "map-range", 
                    "to": "sent-PMC3522295-cmu-152"
                }, 
                {
                    "from": "sent-PMC3522295-UAZ-r1-39-2", 
                    "object-type": "map-range", 
                    "to": "sent-PMC3522295-cmu-61"
                }, 
                {
                    "from": "sent-PMC3522295-UAZ-r1-97-0", 
                    "object-type": "map-range", 
                    "to": "sent-PMC3522295-cmu-184"
                }, 
                {
                    "from": "sent-PMC3522295-UAZ-r1-109-0", 
                    "object-type": "map-range", 
                    "to": "sent-PMC3522295-cmu-236"
                }, 
                {
                    "from": "sent-PMC3522295-UAZ-r1-13-6", 
                    "object-type": "map-range", 
                    "to": "sent-PMC3522295-cmu-8"
                }, 
                {
                    "from": "sent-PMC3522295-UAZ-r1-33-3", 
                    "object-type": "map-range", 
                    "to": "sent-PMC3522295-cmu-48"
                }, 
                {
                    "from": "sent-PMC3522295-UAZ-r1-108-1", 
                    "object-type": "map-range", 
                    "to": "sent-PMC3522295-cmu-235"
                }, 
                {
                    "from": "sent-PMC3522295-UAZ-r1-82-3", 
                    "object-type": "map-range", 
                    "to": "sent-PMC3522295-cmu-156"
                }, 
                {
                    "from": "sent-PMC3522295-UAZ-r1-67-4", 
                    "object-type": "map-range", 
                    "to": "sent-PMC3522295-cmu-113"
                }, 
                {
                    "from": "sent-PMC3522295-UAZ-r1-13-0", 
                    "object-type": "map-range", 
                    "to": "sent-PMC3522295-cmu-2"
                }, 
                {
                    "from": "sent-PMC3522295-UAZ-r1-62-2", 
                    "object-type": "map-range", 
                    "to": "sent-PMC3522295-cmu-99"
                }, 
                {
                    "from": "sent-PMC3522295-UAZ-r1-94-1", 
                    "object-type": "map-range", 
                    "to": "sent-PMC3522295-cmu-177"
                }, 
                {
                    "from": "sent-PMC3522295-UAZ-r1-105-6", 
                    "object-type": "map-range", 
                    "to": "sent-PMC3522295-cmu-215"
                }, 
                {
                    "from": "sent-PMC3522295-UAZ-r1-106-5", 
                    "object-type": "map-range", 
                    "to": "sent-PMC3522295-cmu-223"
                }, 
                {
                    "from": "sent-PMC3522295-UAZ-r1-106-4", 
                    "object-type": "map-range", 
                    "to": "sent-PMC3522295-cmu-222"
                }, 
                {
                    "from": "sent-PMC3522295-UAZ-r1-76-5", 
                    "object-type": "map-range", 
                    "to": "sent-PMC3522295-cmu-141"
                }, 
                {
                    "from": "sent-PMC3522295-UAZ-r1-76-6", 
                    "object-type": "map-range", 
                    "to": "sent-PMC3522295-cmu-142"
                }, 
                {
                    "from": "sent-PMC3522295-UAZ-r1-82-1", 
                    "object-type": "map-range", 
                    "to": "sent-PMC3522295-cmu-154"
                }, 
                {
                    "from": "sent-PMC3522295-UAZ-r1-97-12", 
                    "object-type": "map-range", 
                    "to": "sent-PMC3522295-cmu-201"
                }, 
                {
                    "from": "sent-PMC3522295-UAZ-r1-106-2", 
                    "object-type": "map-range", 
                    "to": "sent-PMC3522295-cmu-220"
                }, 
                {
                    "from": "sent-PMC3522295-UAZ-r1-97-9", 
                    "object-type": "map-range", 
                    "to": "sent-PMC3522295-cmu-197"
                }, 
                {
                    "from": "sent-PMC3522295-UAZ-r1-39-0", 
                    "object-type": "map-range", 
                    "to": "sent-PMC3522295-cmu-59"
                }, 
                {
                    "from": "sent-PMC3522295-UAZ-r1-15-2", 
                    "object-type": "map-range", 
                    "to": "sent-PMC3522295-cmu-15"
                }, 
                {
                    "from": "sent-PMC3522295-UAZ-r1-62-5", 
                    "object-type": "map-range", 
                    "to": "sent-PMC3522295-cmu-102"
                }, 
                {
                    "from": "sent-PMC3522295-UAZ-r1-94-2", 
                    "object-type": "map-range", 
                    "to": "sent-PMC3522295-cmu-179"
                }, 
                {
                    "from": "sent-PMC3522295-UAZ-r1-105-1", 
                    "object-type": "map-range", 
                    "to": "sent-PMC3522295-cmu-210"
                }, 
                {
                    "from": "sent-PMC3522295-UAZ-r1-62-4", 
                    "object-type": "map-range", 
                    "to": "sent-PMC3522295-cmu-101"
                }, 
                {
                    "from": "sent-PMC3522295-UAZ-r1-111-2", 
                    "object-type": "map-range", 
                    "to": "sent-PMC3522295-cmu-250"
                }, 
                {
                    "from": "sent-PMC3522295-UAZ-r1-36-2", 
                    "object-type": "map-range", 
                    "to": "sent-PMC3522295-cmu-57"
                }, 
                {
                    "from": "sent-PMC3522295-UAZ-r1-67-3", 
                    "object-type": "map-range", 
                    "to": "sent-PMC3522295-cmu-109"
                }, 
                {
                    "from": "sent-PMC3522295-UAZ-r1-27-4", 
                    "object-type": "map-range", 
                    "to": "sent-PMC3522295-cmu-37"
                }, 
                {
                    "from": "sent-PMC3522295-UAZ-r1-33-1", 
                    "object-type": "map-range", 
                    "to": "sent-PMC3522295-cmu-46"
                }, 
                {
                    "from": "sent-PMC3522295-UAZ-r1-107-4", 
                    "object-type": "map-range", 
                    "to": "sent-PMC3522295-cmu-230"
                }, 
                {
                    "from": "sent-PMC3522295-UAZ-r1-75-0", 
                    "object-type": "map-range", 
                    "to": "sent-PMC3522295-cmu-131"
                }, 
                {
                    "from": "sent-PMC3522295-UAZ-r1-82-2", 
                    "object-type": "map-range", 
                    "to": "sent-PMC3522295-cmu-155"
                }, 
                {
                    "from": "sent-PMC3522295-UAZ-r1-106-1", 
                    "object-type": "map-range", 
                    "to": "sent-PMC3522295-cmu-219"
                }, 
                {
                    "from": "sent-PMC3522295-UAZ-r1-107-6", 
                    "object-type": "map-range", 
                    "to": "sent-PMC3522295-cmu-232"
                }, 
                {
                    "from": "sent-PMC3522295-UAZ-r1-97-4", 
                    "object-type": "map-range", 
                    "to": "sent-PMC3522295-cmu-190"
                }, 
                {
                    "from": "sent-PMC3522295-UAZ-r1-32-0", 
                    "object-type": "map-range", 
                    "to": "sent-PMC3522295-cmu-44"
                }, 
                {
                    "from": "sent-PMC3522295-UAZ-r1-100-3", 
                    "object-type": "map-range", 
                    "to": "sent-PMC3522295-cmu-206"
                }, 
                {
                    "from": "sent-PMC3522295-UAZ-r1-78-12", 
                    "object-type": "map-range", 
                    "to": "sent-PMC3522295-cmu-66"
                }, 
                {
                    "from": "sent-PMC3522295-UAZ-r1-58-0", 
                    "object-type": "map-range", 
                    "to": "sent-PMC3522295-cmu-87"
                }, 
                {
                    "from": "sent-PMC3522295-UAZ-r1-109-5", 
                    "object-type": "map-range", 
                    "to": "sent-PMC3522295-cmu-241"
                }, 
                {
                    "from": "sent-PMC3522295-UAZ-r1-33-2", 
                    "object-type": "map-range", 
                    "to": "sent-PMC3522295-cmu-47"
                }, 
                {
                    "from": "sent-PMC3522295-UAZ-r1-97-5", 
                    "object-type": "map-range", 
                    "to": "sent-PMC3522295-cmu-191"
                }, 
                {
                    "from": "sent-PMC3522295-UAZ-r1-49-0", 
                    "object-type": "map-range", 
                    "to": "sent-PMC3522295-cmu-80"
                }, 
                {
                    "from": "sent-PMC3522295-UAZ-r1-94-4", 
                    "object-type": "map-range", 
                    "to": "sent-PMC3522295-cmu-182"
                }, 
                {
                    "from": "sent-PMC3522295-UAZ-r1-76-8", 
                    "object-type": "map-range", 
                    "to": "sent-PMC3522295-cmu-146"
                }, 
                {
                    "from": "sent-PMC3522295-UAZ-r1-30-0", 
                    "object-type": "map-range", 
                    "to": "sent-PMC3522295-cmu-39"
                }, 
                {
                    "from": "sent-PMC3522295-UAZ-r1-106-3", 
                    "object-type": "map-range", 
                    "to": "sent-PMC3522295-cmu-221"
                }, 
                {
                    "from": "sent-PMC3522295-UAZ-r1-107-3", 
                    "object-type": "map-range", 
                    "to": "sent-PMC3522295-cmu-229"
                }, 
                {
                    "from": "sent-PMC3522295-UAZ-r1-94-0", 
                    "object-type": "map-range", 
                    "to": "sent-PMC3522295-cmu-176"
                }, 
                {
                    "from": "sent-PMC3522295-UAZ-r1-58-1", 
                    "object-type": "map-range", 
                    "to": "sent-PMC3522295-cmu-88"
                }, 
                {
                    "from": "sent-PMC3522295-UAZ-r1-76-3", 
                    "object-type": "map-range", 
                    "to": "sent-PMC3522295-cmu-136"
                }, 
                {
                    "from": "sent-PMC3522295-UAZ-r1-59-4", 
                    "object-type": "map-range", 
                    "to": "sent-PMC3522295-cmu-95"
                }, 
                {
                    "from": "sent-PMC3522295-UAZ-r1-83-0", 
                    "object-type": "map-range", 
                    "to": "sent-PMC3522295-cmu-157"
                }, 
                {
                    "from": "sent-PMC3522295-UAZ-r1-97-2", 
                    "object-type": "map-range", 
                    "to": "sent-PMC3522295-cmu-187"
                }, 
                {
                    "from": "sent-PMC3522295-UAZ-r1-40-1", 
                    "object-type": "map-range", 
                    "to": "sent-PMC3522295-cmu-63"
                }, 
                {
                    "from": "sent-PMC3522295-UAZ-r1-83-1", 
                    "object-type": "map-range", 
                    "to": "sent-PMC3522295-cmu-159"
                }, 
                {
                    "from": "sent-PMC3522295-UAZ-r1-76-9", 
                    "object-type": "map-range", 
                    "to": "sent-PMC3522295-cmu-147"
                }, 
                {
                    "from": "sent-PMC3522295-UAZ-r1-67-4", 
                    "object-type": "map-range", 
                    "to": "sent-PMC3522295-cmu-110"
                }, 
                {
                    "from": "sent-PMC3522295-UAZ-r1-108-0", 
                    "object-type": "map-range", 
                    "to": "sent-PMC3522295-cmu-234"
                }, 
                {
                    "from": "sent-PMC3522295-UAZ-r1-109-6", 
                    "object-type": "map-range", 
                    "to": "sent-PMC3522295-cmu-242"
                }, 
                {
                    "from": "sent-PMC3522295-UAZ-r1-24-0", 
                    "object-type": "map-range", 
                    "to": "sent-PMC3522295-cmu-22"
                }, 
                {
                    "from": "sent-PMC3522295-UAZ-r1-76-2", 
                    "object-type": "map-range", 
                    "to": "sent-PMC3522295-cmu-135"
                }, 
                {
                    "from": "sent-PMC3522295-UAZ-r1-107-0", 
                    "object-type": "map-range", 
                    "to": "sent-PMC3522295-cmu-226"
                }, 
                {
                    "from": "sent-PMC3522295-UAZ-r1-79-1", 
                    "object-type": "map-range", 
                    "to": "sent-PMC3522295-cmu-151"
                }, 
                {
                    "from": "sent-PMC3522295-UAZ-r1-33-4", 
                    "object-type": "map-range", 
                    "to": "sent-PMC3522295-cmu-49"
                }, 
                {
                    "from": "sent-PMC3522295-UAZ-r1-94-3", 
                    "object-type": "map-range", 
                    "to": "sent-PMC3522295-cmu-180"
                }, 
                {
                    "from": "sent-PMC3522295-UAZ-r1-70-2", 
                    "object-type": "map-range", 
                    "to": "sent-PMC3522295-cmu-117"
                }, 
                {
                    "from": "sent-PMC3522295-UAZ-r1-67-5", 
                    "object-type": "map-range", 
                    "to": "sent-PMC3522295-cmu-112"
                }, 
                {
                    "from": "sent-PMC3522295-UAZ-r1-24-9", 
                    "object-type": "map-range", 
                    "to": "sent-PMC3522295-cmu-31"
                }, 
                {
                    "from": "sent-PMC3522295-UAZ-r1-15-3", 
                    "object-type": "map-range", 
                    "to": "sent-PMC3522295-cmu-16"
                }, 
                {
                    "from": "sent-PMC3522295-UAZ-r1-100-1", 
                    "object-type": "map-range", 
                    "to": "sent-PMC3522295-cmu-203"
                }, 
                {
                    "from": "sent-PMC3522295-UAZ-r1-14-3", 
                    "object-type": "map-range", 
                    "to": "sent-PMC3522295-cmu-12"
                }, 
                {
                    "from": "sent-PMC3522295-UAZ-r1-66-0", 
                    "object-type": "map-range", 
                    "to": "sent-PMC3522295-cmu-104"
                }, 
                {
                    "from": "sent-PMC3522295-UAZ-r1-67-0", 
                    "object-type": "map-range", 
                    "to": "sent-PMC3522295-cmu-105"
                }, 
                {
                    "from": "sent-PMC3522295-UAZ-r1-48-0", 
                    "object-type": "map-range", 
                    "to": "sent-PMC3522295-cmu-79"
                }, 
                {
                    "from": "sent-PMC3522295-UAZ-r1-79-0", 
                    "object-type": "map-range", 
                    "to": "sent-PMC3522295-cmu-149"
                }, 
                {
                    "from": "sent-PMC3522295-UAZ-r1-86-0", 
                    "object-type": "map-range", 
                    "to": "sent-PMC3522295-cmu-163"
                }, 
                {
                    "from": "sent-PMC3522295-UAZ-r1-76-1", 
                    "object-type": "map-range", 
                    "to": "sent-PMC3522295-cmu-133"
                }, 
                {
                    "from": "sent-PMC3522295-UAZ-r1-40-0", 
                    "object-type": "map-range", 
                    "to": "sent-PMC3522295-cmu-62"
                }, 
                {
                    "from": "sent-PMC3522295-UAZ-r1-82-0", 
                    "object-type": "map-range", 
                    "to": "sent-PMC3522295-cmu-153"
                }, 
                {
                    "from": "sent-PMC3522295-UAZ-r1-109-3", 
                    "object-type": "map-range", 
                    "to": "sent-PMC3522295-cmu-239"
                }, 
                {
                    "from": "sent-PMC3522295-UAZ-r1-109-1", 
                    "object-type": "map-range", 
                    "to": "sent-PMC3522295-cmu-237"
                }, 
                {
                    "from": "sent-PMC3522295-UAZ-r1-111-0", 
                    "object-type": "map-range", 
                    "to": "sent-PMC3522295-cmu-248"
                }, 
                {
                    "from": "sent-PMC3522295-UAZ-r1-24-7", 
                    "object-type": "map-range", 
                    "to": "sent-PMC3522295-cmu-29"
                }, 
                {
                    "from": "sent-PMC3522295-UAZ-r1-107-2", 
                    "object-type": "map-range", 
                    "to": "sent-PMC3522295-cmu-228"
                }, 
                {
                    "from": "sent-PMC3522295-UAZ-r1-86-3", 
                    "object-type": "map-range", 
                    "to": "sent-PMC3522295-cmu-167"
                }, 
                {
                    "from": "sent-PMC3522295-UAZ-r1-33-5", 
                    "object-type": "map-range", 
                    "to": "sent-PMC3522295-cmu-50"
                }, 
                {
                    "from": "sent-PMC3522295-UAZ-r1-15-5", 
                    "object-type": "map-range", 
                    "to": "sent-PMC3522295-cmu-19"
                }, 
                {
                    "from": "sent-PMC3522295-UAZ-r1-73-3", 
                    "object-type": "map-range", 
                    "to": "sent-PMC3522295-cmu-129"
                }, 
                {
                    "from": "sent-PMC3522295-UAZ-r1-14-2", 
                    "object-type": "map-range", 
                    "to": "sent-PMC3522295-cmu-11"
                }, 
                {
                    "from": "sent-PMC3522295-UAZ-r1-97-10", 
                    "object-type": "map-range", 
                    "to": "sent-PMC3522295-cmu-198"
                }, 
                {
                    "from": "sent-PMC3522295-UAZ-r1-30-1", 
                    "object-type": "map-range", 
                    "to": "sent-PMC3522295-cmu-41"
                }, 
                {
                    "from": "sent-PMC3522295-UAZ-r1-27-1", 
                    "object-type": "map-range", 
                    "to": "sent-PMC3522295-cmu-34"
                }, 
                {
                    "from": "sent-PMC3522295-UAZ-r1-24-1", 
                    "object-type": "map-range", 
                    "to": "sent-PMC3522295-cmu-23"
                }, 
                {
                    "from": "sent-PMC3522295-UAZ-r1-40-2", 
                    "object-type": "map-range", 
                    "to": "sent-PMC3522295-cmu-64"
                }, 
                {
                    "from": "sent-PMC3522295-UAZ-r1-49-2", 
                    "object-type": "map-range", 
                    "to": "sent-PMC3522295-cmu-83"
                }, 
                {
                    "from": "sent-PMC3522295-UAZ-r1-97-1", 
                    "object-type": "map-range", 
                    "to": "sent-PMC3522295-cmu-171"
                }, 
                {
                    "from": "sent-PMC3522295-UAZ-r1-73-4", 
                    "object-type": "map-range", 
                    "to": "sent-PMC3522295-cmu-130"
                }, 
                {
                    "from": "sent-PMC3522295-UAZ-r1-42-0", 
                    "object-type": "map-range", 
                    "to": "sent-PMC3522295-cmu-65"
                }, 
                {
                    "from": "sent-PMC3522295-UAZ-r1-49-3", 
                    "object-type": "map-range", 
                    "to": "sent-PMC3522295-cmu-84"
                }, 
                {
                    "from": "sent-PMC3522295-UAZ-r1-105-7", 
                    "object-type": "map-range", 
                    "to": "sent-PMC3522295-cmu-216"
                }, 
                {
                    "from": "sent-PMC3522295-UAZ-r1-33-0", 
                    "object-type": "map-range", 
                    "to": "sent-PMC3522295-cmu-45"
                }, 
                {
                    "from": "sent-PMC3522295-UAZ-r1-93-0", 
                    "object-type": "map-range", 
                    "to": "sent-PMC3522295-cmu-175"
                }, 
                {
                    "from": "sent-PMC3522295-UAZ-r1-97-8", 
                    "object-type": "map-range", 
                    "to": "sent-PMC3522295-cmu-195"
                }, 
                {
                    "from": "sent-PMC3522295-UAZ-r1-15-4", 
                    "object-type": "map-range", 
                    "to": "sent-PMC3522295-cmu-18"
                }, 
                {
                    "from": "sent-PMC3522295-UAZ-r1-109-4", 
                    "object-type": "map-range", 
                    "to": "sent-PMC3522295-cmu-240"
                }, 
                {
                    "from": "sent-PMC3522295-UAZ-r1-30-2", 
                    "object-type": "map-range", 
                    "to": "sent-PMC3522295-cmu-42"
                }, 
                {
                    "from": "sent-PMC3522295-UAZ-r1-33-7", 
                    "object-type": "map-range", 
                    "to": "sent-PMC3522295-cmu-52"
                }, 
                {
                    "from": "sent-PMC3522295-UAZ-r1-70-1", 
                    "object-type": "map-range", 
                    "to": "sent-PMC3522295-cmu-116"
                }, 
                {
                    "from": "sent-PMC3522295-UAZ-r1-62-3", 
                    "object-type": "map-range", 
                    "to": "sent-PMC3522295-cmu-100"
                }, 
                {
                    "from": "sent-PMC3522295-UAZ-r1-59-2", 
                    "object-type": "map-range", 
                    "to": "sent-PMC3522295-cmu-93"
                }, 
                {
                    "from": "sent-PMC3522295-UAZ-r1-70-3", 
                    "object-type": "map-range", 
                    "to": "sent-PMC3522295-cmu-119"
                }, 
                {
                    "from": "sent-PMC3522295-UAZ-r1-76-7", 
                    "object-type": "map-range", 
                    "to": "sent-PMC3522295-cmu-143"
                }, 
                {
                    "from": "sent-PMC3522295-UAZ-r1-59-1", 
                    "object-type": "map-range", 
                    "to": "sent-PMC3522295-cmu-91"
                }, 
                {
                    "from": "sent-PMC3522295-UAZ-r1-43-1", 
                    "object-type": "map-range", 
                    "to": "sent-PMC3522295-cmu-67"
                }, 
                {
                    "from": "sent-PMC3522295-UAZ-r1-59-0", 
                    "object-type": "map-range", 
                    "to": "sent-PMC3522295-cmu-90"
                }, 
                {
                    "from": "sent-PMC3522295-UAZ-r1-43-2", 
                    "object-type": "map-range", 
                    "to": "sent-PMC3522295-cmu-68"
                }, 
                {
                    "from": "sent-PMC3522295-UAZ-r1-13-5", 
                    "object-type": "map-range", 
                    "to": "sent-PMC3522295-cmu-7"
                }, 
                {
                    "from": "sent-PMC3522295-UAZ-r1-46-2", 
                    "object-type": "map-range", 
                    "to": "sent-PMC3522295-cmu-74"
                }, 
                {
                    "from": "sent-PMC3522295-UAZ-r1-107-7", 
                    "object-type": "map-range", 
                    "to": "sent-PMC3522295-cmu-233"
                }, 
                {
                    "from": "sent-PMC3522295-UAZ-r1-24-5", 
                    "object-type": "map-range", 
                    "to": "sent-PMC3522295-cmu-27"
                }, 
                {
                    "from": "sent-PMC3522295-UAZ-r1-58-2", 
                    "object-type": "map-range", 
                    "to": "sent-PMC3522295-cmu-89"
                }, 
                {
                    "from": "sent-PMC3522295-UAZ-r1-106-7", 
                    "object-type": "map-range", 
                    "to": "sent-PMC3522295-cmu-225"
                }, 
                {
                    "from": "sent-PMC3522295-UAZ-r1-30-3", 
                    "object-type": "map-range", 
                    "to": "sent-PMC3522295-cmu-43"
                }, 
                {
                    "from": "sent-PMC3522295-UAZ-r1-105-8", 
                    "object-type": "map-range", 
                    "to": "sent-PMC3522295-cmu-217"
                }, 
                {
                    "from": "sent-PMC3522295-UAZ-r1-70-0", 
                    "object-type": "map-range", 
                    "to": "sent-PMC3522295-cmu-115"
                }, 
                {
                    "from": "sent-PMC3522295-UAZ-r1-100-2", 
                    "object-type": "map-range", 
                    "to": "sent-PMC3522295-cmu-205"
                }, 
                {
                    "from": "sent-PMC3522295-UAZ-r1-86-1", 
                    "object-type": "map-range", 
                    "to": "sent-PMC3522295-cmu-164"
                }, 
                {
                    "from": "sent-PMC3522295-UAZ-r1-46-0", 
                    "object-type": "map-range", 
                    "to": "sent-PMC3522295-cmu-70"
                }, 
                {
                    "from": "sent-PMC3522295-UAZ-r1-24-3", 
                    "object-type": "map-range", 
                    "to": "sent-PMC3522295-cmu-25"
                }, 
                {
                    "from": "sent-PMC3522295-UAZ-r1-105-4", 
                    "object-type": "map-range", 
                    "to": "sent-PMC3522295-cmu-213"
                }, 
                {
                    "from": "sent-PMC3522295-UAZ-r1-107-1", 
                    "object-type": "map-range", 
                    "to": "sent-PMC3522295-cmu-227"
                }, 
                {
                    "from": "sent-PMC3522295-UAZ-r1-100-0", 
                    "object-type": "map-range", 
                    "to": "sent-PMC3522295-cmu-202"
                }, 
                {
                    "from": "sent-PMC3522295-UAZ-r1-97-1", 
                    "object-type": "map-range", 
                    "to": "sent-PMC3522295-cmu-186"
                }, 
                {
                    "from": "sent-PMC3522295-UAZ-r1-13-4", 
                    "object-type": "map-range", 
                    "to": "sent-PMC3522295-cmu-6"
                }, 
                {
                    "from": "sent-PMC3522295-UAZ-r1-105-5", 
                    "object-type": "map-range", 
                    "to": "sent-PMC3522295-cmu-214"
                }, 
                {
                    "from": "sent-PMC3522295-UAZ-r1-13-2", 
                    "object-type": "map-range", 
                    "to": "sent-PMC3522295-cmu-4"
                }, 
                {
                    "from": "sent-PMC3522295-UAZ-r1-67-2", 
                    "object-type": "map-range", 
                    "to": "sent-PMC3522295-cmu-107"
                }, 
                {
                    "from": "sent-PMC3522295-UAZ-r1-97-6", 
                    "object-type": "map-range", 
                    "to": "sent-PMC3522295-cmu-192"
                }, 
                {
                    "from": "sent-PMC3522295-UAZ-r1-27-2", 
                    "object-type": "map-range", 
                    "to": "sent-PMC3522295-cmu-35"
                }, 
                {
                    "from": "sent-PMC3522295-UAZ-r1-97-3", 
                    "object-type": "map-range", 
                    "to": "sent-PMC3522295-cmu-188"
                }, 
                {
                    "from": "sent-PMC3522295-UAZ-r1-13-3", 
                    "object-type": "map-range", 
                    "to": "sent-PMC3522295-cmu-5"
                }, 
                {
                    "from": "sent-PMC3522295-UAZ-r1-46-4", 
                    "object-type": "map-range", 
                    "to": "sent-PMC3522295-cmu-76"
                }, 
                {
                    "from": "sent-PMC3522295-UAZ-r1-111-4", 
                    "object-type": "map-range", 
                    "to": "sent-PMC3522295-cmu-252"
                }, 
                {
                    "from": "sent-PMC3522295-UAZ-r1-86-2", 
                    "object-type": "map-range", 
                    "to": "sent-PMC3522295-cmu-166"
                }, 
                {
                    "from": "sent-PMC3522295-UAZ-r1-46-6", 
                    "object-type": "map-range", 
                    "to": "sent-PMC3522295-cmu-78"
                }, 
                {
                    "from": "sent-PMC3522295-UAZ-r1-73-1", 
                    "object-type": "map-range", 
                    "to": "sent-PMC3522295-cmu-125"
                }, 
                {
                    "from": "sent-PMC3522295-UAZ-r1-89-2", 
                    "object-type": "map-range", 
                    "to": "sent-PMC3522295-cmu-173"
                }, 
                {
                    "from": "sent-PMC3522295-UAZ-r1-24-2", 
                    "object-type": "map-range", 
                    "to": "sent-PMC3522295-cmu-24"
                }, 
                {
                    "from": "sent-PMC3522295-UAZ-r1-62-1", 
                    "object-type": "map-range", 
                    "to": "sent-PMC3522295-cmu-97"
                }
            ], 
            "object-meta": {
                "component": "Pradeep-Matcher", 
                "object-type": "meta-info", 
                "organization": "CMU"
            }, 
            "object-type": "frame"
        }, 
        {
            "frame-id": "smap-PMC3522295-cmu-2", 
            "frame-type": "sentence-map", 
            "list1-meta": {
                "component": "MedScan", 
                "object-type": "meta-info", 
                "organization": "CMU"
            }, 
            "list2-meta": {
                "component": "Nicolas-NXML-Parser", 
                "object-type": "meta-info", 
                "organization": "CMU"
            }, 
            "map": [
                {
                    "from": "sent-PMC3522295-medscan-12", 
                    "object-type": "map-range", 
                    "to": "sent-PMC3522295-cmu-14"
                }, 
                {
                    "from": "sent-PMC3522295-medscan-82", 
                    "object-type": "map-range", 
                    "to": "sent-PMC3522295-cmu-96"
                }, 
                {
                    "from": "sent-PMC3522295-medscan-243", 
                    "object-type": "map-range", 
                    "to": "sent-PMC3522295-cmu-212"
                }, 
                {
                    "from": "sent-PMC3522295-medscan-126", 
                    "object-type": "map-range", 
                    "to": "sent-PMC3522295-cmu-138"
                }, 
                {
                    "from": "sent-PMC3522295-medscan-242", 
                    "object-type": "map-range", 
                    "to": "sent-PMC3522295-cmu-211"
                }, 
                {
                    "from": "sent-PMC3522295-medscan-278", 
                    "object-type": "map-range", 
                    "to": "sent-PMC3522295-cmu-247"
                }, 
                {
                    "from": "sent-PMC3522295-medscan-275", 
                    "object-type": "map-range", 
                    "to": "sent-PMC3522295-cmu-244"
                }, 
                {
                    "from": "sent-PMC3522295-medscan-274", 
                    "object-type": "map-range", 
                    "to": "sent-PMC3522295-cmu-243"
                }, 
                {
                    "from": "sent-PMC3522295-medscan-205", 
                    "object-type": "map-range", 
                    "to": "sent-PMC3522295-cmu-194"
                }, 
                {
                    "from": "sent-PMC3522295-medscan-41", 
                    "object-type": "map-range", 
                    "to": "sent-PMC3522295-cmu-51"
                }, 
                {
                    "from": "sent-PMC3522295-medscan-240", 
                    "object-type": "map-range", 
                    "to": "sent-PMC3522295-cmu-209"
                }, 
                {
                    "from": "sent-PMC3522295-medscan-249", 
                    "object-type": "map-range", 
                    "to": "sent-PMC3522295-cmu-218"
                }, 
                {
                    "from": "sent-PMC3522295-medscan-47", 
                    "object-type": "map-range", 
                    "to": "sent-PMC3522295-cmu-60"
                }, 
                {
                    "from": "sent-PMC3522295-medscan-276", 
                    "object-type": "map-range", 
                    "to": "sent-PMC3522295-cmu-245"
                }, 
                {
                    "from": "sent-PMC3522295-medscan-7", 
                    "object-type": "map-range", 
                    "to": "sent-PMC3522295-cmu-9"
                }, 
                {
                    "from": "sent-PMC3522295-medscan-122", 
                    "object-type": "map-range", 
                    "to": "sent-PMC3522295-cmu-132"
                }, 
                {
                    "from": "sent-PMC3522295-medscan-155", 
                    "object-type": "map-range", 
                    "to": "sent-PMC3522295-cmu-161"
                }, 
                {
                    "from": "sent-PMC3522295-medscan-24", 
                    "object-type": "map-range", 
                    "to": "sent-PMC3522295-cmu-30"
                }, 
                {
                    "from": "sent-PMC3522295-medscan-26", 
                    "object-type": "map-range", 
                    "to": "sent-PMC3522295-cmu-33"
                }, 
                {
                    "from": "sent-PMC3522295-medscan-269", 
                    "object-type": "map-range", 
                    "to": "sent-PMC3522295-cmu-238"
                }, 
                {
                    "from": "sent-PMC3522295-medscan-262", 
                    "object-type": "map-range", 
                    "to": "sent-PMC3522295-cmu-231"
                }, 
                {
                    "from": "sent-PMC3522295-medscan-168", 
                    "object-type": "map-range", 
                    "to": "sent-PMC3522295-cmu-168"
                }, 
                {
                    "from": "sent-PMC3522295-medscan-119", 
                    "object-type": "map-range", 
                    "to": "sent-PMC3522295-cmu-127"
                }, 
                {
                    "from": "sent-PMC3522295-medscan-72", 
                    "object-type": "map-range", 
                    "to": "sent-PMC3522295-cmu-94"
                }, 
                {
                    "from": "sent-PMC3522295-medscan-175", 
                    "object-type": "map-range", 
                    "to": "sent-PMC3522295-cmu-172"
                }, 
                {
                    "from": "sent-PMC3522295-medscan-282", 
                    "object-type": "map-range", 
                    "to": "sent-PMC3522295-cmu-251"
                }, 
                {
                    "from": "sent-PMC3522295-medscan-22", 
                    "object-type": "map-range", 
                    "to": "sent-PMC3522295-cmu-28"
                }, 
                {
                    "from": "sent-PMC3522295-medscan-255", 
                    "object-type": "map-range", 
                    "to": "sent-PMC3522295-cmu-224"
                }, 
                {
                    "from": "sent-PMC3522295-medscan-58", 
                    "object-type": "map-range", 
                    "to": "sent-PMC3522295-cmu-75"
                }, 
                {
                    "from": "sent-PMC3522295-medscan-60", 
                    "object-type": "map-range", 
                    "to": "sent-PMC3522295-cmu-77"
                }, 
                {
                    "from": "sent-PMC3522295-medscan-20", 
                    "object-type": "map-range", 
                    "to": "sent-PMC3522295-cmu-26"
                }, 
                {
                    "from": "sent-PMC3522295-medscan-117", 
                    "object-type": "map-range", 
                    "to": "sent-PMC3522295-cmu-121"
                }, 
                {
                    "from": "sent-PMC3522295-medscan-11", 
                    "object-type": "map-range", 
                    "to": "sent-PMC3522295-cmu-13"
                }, 
                {
                    "from": "sent-PMC3522295-medscan-29", 
                    "object-type": "map-range", 
                    "to": "sent-PMC3522295-cmu-36"
                }, 
                {
                    "from": "sent-PMC3522295-medscan-169", 
                    "object-type": "map-range", 
                    "to": "sent-PMC3522295-cmu-170"
                }, 
                {
                    "from": "sent-PMC3522295-medscan-48", 
                    "object-type": "map-range", 
                    "to": "sent-PMC3522295-cmu-61"
                }, 
                {
                    "from": "sent-PMC3522295-medscan-198", 
                    "object-type": "map-range", 
                    "to": "sent-PMC3522295-cmu-184"
                }, 
                {
                    "from": "sent-PMC3522295-medscan-267", 
                    "object-type": "map-range", 
                    "to": "sent-PMC3522295-cmu-236"
                }, 
                {
                    "from": "sent-PMC3522295-medscan-6", 
                    "object-type": "map-range", 
                    "to": "sent-PMC3522295-cmu-8"
                }, 
                {
                    "from": "sent-PMC3522295-medscan-38", 
                    "object-type": "map-range", 
                    "to": "sent-PMC3522295-cmu-48"
                }, 
                {
                    "from": "sent-PMC3522295-medscan-266", 
                    "object-type": "map-range", 
                    "to": "sent-PMC3522295-cmu-235"
                }, 
                {
                    "from": "sent-PMC3522295-medscan-152", 
                    "object-type": "map-range", 
                    "to": "sent-PMC3522295-cmu-156"
                }, 
                {
                    "from": "sent-PMC3522295-medscan-95", 
                    "object-type": "map-range", 
                    "to": "sent-PMC3522295-cmu-113"
                }, 
                {
                    "from": "sent-PMC3522295-medscan-95", 
                    "object-type": "map-range", 
                    "to": "sent-PMC3522295-cmu-113"
                }, 
                {
                    "from": "sent-PMC3522295-medscan-0", 
                    "object-type": "map-range", 
                    "to": "sent-PMC3522295-cmu-2"
                }, 
                {
                    "from": "sent-PMC3522295-medscan-84", 
                    "object-type": "map-range", 
                    "to": "sent-PMC3522295-cmu-99"
                }, 
                {
                    "from": "sent-PMC3522295-medscan-183", 
                    "object-type": "map-range", 
                    "to": "sent-PMC3522295-cmu-177"
                }, 
                {
                    "from": "sent-PMC3522295-medscan-246", 
                    "object-type": "map-range", 
                    "to": "sent-PMC3522295-cmu-215"
                }, 
                {
                    "from": "sent-PMC3522295-medscan-254", 
                    "object-type": "map-range", 
                    "to": "sent-PMC3522295-cmu-223"
                }, 
                {
                    "from": "sent-PMC3522295-medscan-253", 
                    "object-type": "map-range", 
                    "to": "sent-PMC3522295-cmu-222"
                }, 
                {
                    "from": "sent-PMC3522295-medscan-127", 
                    "object-type": "map-range", 
                    "to": "sent-PMC3522295-cmu-141"
                }, 
                {
                    "from": "sent-PMC3522295-medscan-128", 
                    "object-type": "map-range", 
                    "to": "sent-PMC3522295-cmu-142"
                }, 
                {
                    "from": "sent-PMC3522295-medscan-92", 
                    "object-type": "map-range", 
                    "to": "sent-PMC3522295-cmu-106"
                }, 
                {
                    "from": "sent-PMC3522295-medscan-150", 
                    "object-type": "map-range", 
                    "to": "sent-PMC3522295-cmu-154"
                }, 
                {
                    "from": "sent-PMC3522295-medscan-210", 
                    "object-type": "map-range", 
                    "to": "sent-PMC3522295-cmu-201"
                }, 
                {
                    "from": "sent-PMC3522295-medscan-251", 
                    "object-type": "map-range", 
                    "to": "sent-PMC3522295-cmu-220"
                }, 
                {
                    "from": "sent-PMC3522295-medscan-207", 
                    "object-type": "map-range", 
                    "to": "sent-PMC3522295-cmu-197"
                }, 
                {
                    "from": "sent-PMC3522295-medscan-46", 
                    "object-type": "map-range", 
                    "to": "sent-PMC3522295-cmu-59"
                }, 
                {
                    "from": "sent-PMC3522295-medscan-87", 
                    "object-type": "map-range", 
                    "to": "sent-PMC3522295-cmu-102"
                }, 
                {
                    "from": "sent-PMC3522295-medscan-184", 
                    "object-type": "map-range", 
                    "to": "sent-PMC3522295-cmu-179"
                }, 
                {
                    "from": "sent-PMC3522295-medscan-241", 
                    "object-type": "map-range", 
                    "to": "sent-PMC3522295-cmu-210"
                }, 
                {
                    "from": "sent-PMC3522295-medscan-86", 
                    "object-type": "map-range", 
                    "to": "sent-PMC3522295-cmu-101"
                }, 
                {
                    "from": "sent-PMC3522295-medscan-281", 
                    "object-type": "map-range", 
                    "to": "sent-PMC3522295-cmu-250"
                }, 
                {
                    "from": "sent-PMC3522295-medscan-45", 
                    "object-type": "map-range", 
                    "to": "sent-PMC3522295-cmu-57"
                }, 
                {
                    "from": "sent-PMC3522295-medscan-94", 
                    "object-type": "map-range", 
                    "to": "sent-PMC3522295-cmu-109"
                }, 
                {
                    "from": "sent-PMC3522295-medscan-30", 
                    "object-type": "map-range", 
                    "to": "sent-PMC3522295-cmu-37"
                }, 
                {
                    "from": "sent-PMC3522295-medscan-36", 
                    "object-type": "map-range", 
                    "to": "sent-PMC3522295-cmu-46"
                }, 
                {
                    "from": "sent-PMC3522295-medscan-261", 
                    "object-type": "map-range", 
                    "to": "sent-PMC3522295-cmu-230"
                }, 
                {
                    "from": "sent-PMC3522295-medscan-151", 
                    "object-type": "map-range", 
                    "to": "sent-PMC3522295-cmu-155"
                }, 
                {
                    "from": "sent-PMC3522295-medscan-250", 
                    "object-type": "map-range", 
                    "to": "sent-PMC3522295-cmu-219"
                }, 
                {
                    "from": "sent-PMC3522295-medscan-263", 
                    "object-type": "map-range", 
                    "to": "sent-PMC3522295-cmu-232"
                }, 
                {
                    "from": "sent-PMC3522295-medscan-202", 
                    "object-type": "map-range", 
                    "to": "sent-PMC3522295-cmu-190"
                }, 
                {
                    "from": "sent-PMC3522295-medscan-141", 
                    "object-type": "map-range", 
                    "to": "sent-PMC3522295-cmu-66"
                }, 
                {
                    "from": "sent-PMC3522295-medscan-141", 
                    "object-type": "map-range", 
                    "to": "sent-PMC3522295-cmu-66"
                }, 
                {
                    "from": "sent-PMC3522295-medscan-66", 
                    "object-type": "map-range", 
                    "to": "sent-PMC3522295-cmu-87"
                }, 
                {
                    "from": "sent-PMC3522295-medscan-272", 
                    "object-type": "map-range", 
                    "to": "sent-PMC3522295-cmu-241"
                }, 
                {
                    "from": "sent-PMC3522295-medscan-37", 
                    "object-type": "map-range", 
                    "to": "sent-PMC3522295-cmu-47"
                }, 
                {
                    "from": "sent-PMC3522295-medscan-280", 
                    "object-type": "map-range", 
                    "to": "sent-PMC3522295-cmu-249"
                }, 
                {
                    "from": "sent-PMC3522295-medscan-203", 
                    "object-type": "map-range", 
                    "to": "sent-PMC3522295-cmu-191"
                }, 
                {
                    "from": "sent-PMC3522295-medscan-62", 
                    "object-type": "map-range", 
                    "to": "sent-PMC3522295-cmu-80"
                }, 
                {
                    "from": "sent-PMC3522295-medscan-186", 
                    "object-type": "map-range", 
                    "to": "sent-PMC3522295-cmu-182"
                }, 
                {
                    "from": "sent-PMC3522295-medscan-130", 
                    "object-type": "map-range", 
                    "to": "sent-PMC3522295-cmu-146"
                }, 
                {
                    "from": "sent-PMC3522295-medscan-31", 
                    "object-type": "map-range", 
                    "to": "sent-PMC3522295-cmu-39"
                }, 
                {
                    "from": "sent-PMC3522295-medscan-252", 
                    "object-type": "map-range", 
                    "to": "sent-PMC3522295-cmu-221"
                }, 
                {
                    "from": "sent-PMC3522295-medscan-179", 
                    "object-type": "map-range", 
                    "to": "sent-PMC3522295-cmu-54"
                }, 
                {
                    "from": "sent-PMC3522295-medscan-179", 
                    "object-type": "map-range", 
                    "to": "sent-PMC3522295-cmu-54"
                }, 
                {
                    "from": "sent-PMC3522295-medscan-182", 
                    "object-type": "map-range", 
                    "to": "sent-PMC3522295-cmu-176"
                }, 
                {
                    "from": "sent-PMC3522295-medscan-67", 
                    "object-type": "map-range", 
                    "to": "sent-PMC3522295-cmu-88"
                }, 
                {
                    "from": "sent-PMC3522295-medscan-125", 
                    "object-type": "map-range", 
                    "to": "sent-PMC3522295-cmu-136"
                }, 
                {
                    "from": "sent-PMC3522295-medscan-73", 
                    "object-type": "map-range", 
                    "to": "sent-PMC3522295-cmu-95"
                }, 
                {
                    "from": "sent-PMC3522295-medscan-153", 
                    "object-type": "map-range", 
                    "to": "sent-PMC3522295-cmu-157"
                }, 
                {
                    "from": "sent-PMC3522295-medscan-1", 
                    "object-type": "map-range", 
                    "to": "sent-PMC3522295-cmu-3"
                }, 
                {
                    "from": "sent-PMC3522295-medscan-200", 
                    "object-type": "map-range", 
                    "to": "sent-PMC3522295-cmu-187"
                }, 
                {
                    "from": "sent-PMC3522295-medscan-50", 
                    "object-type": "map-range", 
                    "to": "sent-PMC3522295-cmu-63"
                }, 
                {
                    "from": "sent-PMC3522295-medscan-95", 
                    "object-type": "map-range", 
                    "to": "sent-PMC3522295-cmu-110"
                }, 
                {
                    "from": "sent-PMC3522295-medscan-95", 
                    "object-type": "map-range", 
                    "to": "sent-PMC3522295-cmu-110"
                }, 
                {
                    "from": "sent-PMC3522295-medscan-265", 
                    "object-type": "map-range", 
                    "to": "sent-PMC3522295-cmu-234"
                }, 
                {
                    "from": "sent-PMC3522295-medscan-273", 
                    "object-type": "map-range", 
                    "to": "sent-PMC3522295-cmu-242"
                }, 
                {
                    "from": "sent-PMC3522295-medscan-17", 
                    "object-type": "map-range", 
                    "to": "sent-PMC3522295-cmu-22"
                }, 
                {
                    "from": "sent-PMC3522295-medscan-124", 
                    "object-type": "map-range", 
                    "to": "sent-PMC3522295-cmu-135"
                }, 
                {
                    "from": "sent-PMC3522295-medscan-257", 
                    "object-type": "map-range", 
                    "to": "sent-PMC3522295-cmu-226"
                }, 
                {
                    "from": "sent-PMC3522295-medscan-148", 
                    "object-type": "map-range", 
                    "to": "sent-PMC3522295-cmu-151"
                }, 
                {
                    "from": "sent-PMC3522295-medscan-39", 
                    "object-type": "map-range", 
                    "to": "sent-PMC3522295-cmu-49"
                }, 
                {
                    "from": "sent-PMC3522295-medscan-185", 
                    "object-type": "map-range", 
                    "to": "sent-PMC3522295-cmu-180"
                }, 
                {
                    "from": "sent-PMC3522295-medscan-107", 
                    "object-type": "map-range", 
                    "to": "sent-PMC3522295-cmu-117"
                }, 
                {
                    "from": "sent-PMC3522295-medscan-96", 
                    "object-type": "map-range", 
                    "to": "sent-PMC3522295-cmu-112"
                }, 
                {
                    "from": "sent-PMC3522295-medscan-25", 
                    "object-type": "map-range", 
                    "to": "sent-PMC3522295-cmu-31"
                }, 
                {
                    "from": "sent-PMC3522295-medscan-14", 
                    "object-type": "map-range", 
                    "to": "sent-PMC3522295-cmu-16"
                }, 
                {
                    "from": "sent-PMC3522295-medscan-229", 
                    "object-type": "map-range", 
                    "to": "sent-PMC3522295-cmu-203"
                }, 
                {
                    "from": "sent-PMC3522295-medscan-10", 
                    "object-type": "map-range", 
                    "to": "sent-PMC3522295-cmu-12"
                }, 
                {
                    "from": "sent-PMC3522295-medscan-91", 
                    "object-type": "map-range", 
                    "to": "sent-PMC3522295-cmu-105"
                }, 
                {
                    "from": "sent-PMC3522295-medscan-147", 
                    "object-type": "map-range", 
                    "to": "sent-PMC3522295-cmu-149"
                }, 
                {
                    "from": "sent-PMC3522295-medscan-164", 
                    "object-type": "map-range", 
                    "to": "sent-PMC3522295-cmu-163"
                }, 
                {
                    "from": "sent-PMC3522295-medscan-123", 
                    "object-type": "map-range", 
                    "to": "sent-PMC3522295-cmu-133"
                }, 
                {
                    "from": "sent-PMC3522295-medscan-49", 
                    "object-type": "map-range", 
                    "to": "sent-PMC3522295-cmu-62"
                }, 
                {
                    "from": "sent-PMC3522295-medscan-149", 
                    "object-type": "map-range", 
                    "to": "sent-PMC3522295-cmu-153"
                }, 
                {
                    "from": "sent-PMC3522295-medscan-270", 
                    "object-type": "map-range", 
                    "to": "sent-PMC3522295-cmu-239"
                }, 
                {
                    "from": "sent-PMC3522295-medscan-268", 
                    "object-type": "map-range", 
                    "to": "sent-PMC3522295-cmu-237"
                }, 
                {
                    "from": "sent-PMC3522295-medscan-279", 
                    "object-type": "map-range", 
                    "to": "sent-PMC3522295-cmu-248"
                }, 
                {
                    "from": "sent-PMC3522295-medscan-23", 
                    "object-type": "map-range", 
                    "to": "sent-PMC3522295-cmu-29"
                }, 
                {
                    "from": "sent-PMC3522295-medscan-259", 
                    "object-type": "map-range", 
                    "to": "sent-PMC3522295-cmu-228"
                }, 
                {
                    "from": "sent-PMC3522295-medscan-167", 
                    "object-type": "map-range", 
                    "to": "sent-PMC3522295-cmu-167"
                }, 
                {
                    "from": "sent-PMC3522295-medscan-40", 
                    "object-type": "map-range", 
                    "to": "sent-PMC3522295-cmu-50"
                }, 
                {
                    "from": "sent-PMC3522295-medscan-16", 
                    "object-type": "map-range", 
                    "to": "sent-PMC3522295-cmu-19"
                }, 
                {
                    "from": "sent-PMC3522295-medscan-120", 
                    "object-type": "map-range", 
                    "to": "sent-PMC3522295-cmu-129"
                }, 
                {
                    "from": "sent-PMC3522295-medscan-9", 
                    "object-type": "map-range", 
                    "to": "sent-PMC3522295-cmu-11"
                }, 
                {
                    "from": "sent-PMC3522295-medscan-208", 
                    "object-type": "map-range", 
                    "to": "sent-PMC3522295-cmu-198"
                }, 
                {
                    "from": "sent-PMC3522295-medscan-32", 
                    "object-type": "map-range", 
                    "to": "sent-PMC3522295-cmu-41"
                }, 
                {
                    "from": "sent-PMC3522295-medscan-27", 
                    "object-type": "map-range", 
                    "to": "sent-PMC3522295-cmu-34"
                }, 
                {
                    "from": "sent-PMC3522295-medscan-51", 
                    "object-type": "map-range", 
                    "to": "sent-PMC3522295-cmu-64"
                }, 
                {
                    "from": "sent-PMC3522295-medscan-64", 
                    "object-type": "map-range", 
                    "to": "sent-PMC3522295-cmu-83"
                }, 
                {
                    "from": "sent-PMC3522295-medscan-174", 
                    "object-type": "map-range", 
                    "to": "sent-PMC3522295-cmu-171"
                }, 
                {
                    "from": "sent-PMC3522295-medscan-121", 
                    "object-type": "map-range", 
                    "to": "sent-PMC3522295-cmu-130"
                }, 
                {
                    "from": "sent-PMC3522295-medscan-65", 
                    "object-type": "map-range", 
                    "to": "sent-PMC3522295-cmu-84"
                }, 
                {
                    "from": "sent-PMC3522295-medscan-247", 
                    "object-type": "map-range", 
                    "to": "sent-PMC3522295-cmu-216"
                }, 
                {
                    "from": "sent-PMC3522295-medscan-35", 
                    "object-type": "map-range", 
                    "to": "sent-PMC3522295-cmu-45"
                }, 
                {
                    "from": "sent-PMC3522295-medscan-206", 
                    "object-type": "map-range", 
                    "to": "sent-PMC3522295-cmu-195"
                }, 
                {
                    "from": "sent-PMC3522295-medscan-15", 
                    "object-type": "map-range", 
                    "to": "sent-PMC3522295-cmu-18"
                }, 
                {
                    "from": "sent-PMC3522295-medscan-271", 
                    "object-type": "map-range", 
                    "to": "sent-PMC3522295-cmu-240"
                }, 
                {
                    "from": "sent-PMC3522295-medscan-33", 
                    "object-type": "map-range", 
                    "to": "sent-PMC3522295-cmu-42"
                }, 
                {
                    "from": "sent-PMC3522295-medscan-42", 
                    "object-type": "map-range", 
                    "to": "sent-PMC3522295-cmu-52"
                }, 
                {
                    "from": "sent-PMC3522295-medscan-106", 
                    "object-type": "map-range", 
                    "to": "sent-PMC3522295-cmu-116"
                }, 
                {
                    "from": "sent-PMC3522295-medscan-85", 
                    "object-type": "map-range", 
                    "to": "sent-PMC3522295-cmu-100"
                }, 
                {
                    "from": "sent-PMC3522295-medscan-71", 
                    "object-type": "map-range", 
                    "to": "sent-PMC3522295-cmu-93"
                }, 
                {
                    "from": "sent-PMC3522295-medscan-108", 
                    "object-type": "map-range", 
                    "to": "sent-PMC3522295-cmu-119"
                }, 
                {
                    "from": "sent-PMC3522295-medscan-129", 
                    "object-type": "map-range", 
                    "to": "sent-PMC3522295-cmu-143"
                }, 
                {
                    "from": "sent-PMC3522295-medscan-70", 
                    "object-type": "map-range", 
                    "to": "sent-PMC3522295-cmu-91"
                }, 
                {
                    "from": "sent-PMC3522295-medscan-53", 
                    "object-type": "map-range", 
                    "to": "sent-PMC3522295-cmu-67"
                }, 
                {
                    "from": "sent-PMC3522295-medscan-69", 
                    "object-type": "map-range", 
                    "to": "sent-PMC3522295-cmu-90"
                }, 
                {
                    "from": "sent-PMC3522295-medscan-54", 
                    "object-type": "map-range", 
                    "to": "sent-PMC3522295-cmu-68"
                }, 
                {
                    "from": "sent-PMC3522295-medscan-5", 
                    "object-type": "map-range", 
                    "to": "sent-PMC3522295-cmu-7"
                }, 
                {
                    "from": "sent-PMC3522295-medscan-57", 
                    "object-type": "map-range", 
                    "to": "sent-PMC3522295-cmu-74"
                }, 
                {
                    "from": "sent-PMC3522295-medscan-264", 
                    "object-type": "map-range", 
                    "to": "sent-PMC3522295-cmu-233"
                }, 
                {
                    "from": "sent-PMC3522295-medscan-21", 
                    "object-type": "map-range", 
                    "to": "sent-PMC3522295-cmu-27"
                }, 
                {
                    "from": "sent-PMC3522295-medscan-68", 
                    "object-type": "map-range", 
                    "to": "sent-PMC3522295-cmu-89"
                }, 
                {
                    "from": "sent-PMC3522295-medscan-256", 
                    "object-type": "map-range", 
                    "to": "sent-PMC3522295-cmu-225"
                }, 
                {
                    "from": "sent-PMC3522295-medscan-34", 
                    "object-type": "map-range", 
                    "to": "sent-PMC3522295-cmu-43"
                }, 
                {
                    "from": "sent-PMC3522295-medscan-248", 
                    "object-type": "map-range", 
                    "to": "sent-PMC3522295-cmu-217"
                }, 
                {
                    "from": "sent-PMC3522295-medscan-105", 
                    "object-type": "map-range", 
                    "to": "sent-PMC3522295-cmu-115"
                }, 
                {
                    "from": "sent-PMC3522295-medscan-230", 
                    "object-type": "map-range", 
                    "to": "sent-PMC3522295-cmu-205"
                }, 
                {
                    "from": "sent-PMC3522295-medscan-165", 
                    "object-type": "map-range", 
                    "to": "sent-PMC3522295-cmu-164"
                }, 
                {
                    "from": "sent-PMC3522295-medscan-55", 
                    "object-type": "map-range", 
                    "to": "sent-PMC3522295-cmu-70"
                }, 
                {
                    "from": "sent-PMC3522295-medscan-19", 
                    "object-type": "map-range", 
                    "to": "sent-PMC3522295-cmu-25"
                }, 
                {
                    "from": "sent-PMC3522295-medscan-244", 
                    "object-type": "map-range", 
                    "to": "sent-PMC3522295-cmu-213"
                }, 
                {
                    "from": "sent-PMC3522295-medscan-258", 
                    "object-type": "map-range", 
                    "to": "sent-PMC3522295-cmu-227"
                }, 
                {
                    "from": "sent-PMC3522295-medscan-228", 
                    "object-type": "map-range", 
                    "to": "sent-PMC3522295-cmu-202"
                }, 
                {
                    "from": "sent-PMC3522295-medscan-199", 
                    "object-type": "map-range", 
                    "to": "sent-PMC3522295-cmu-186"
                }, 
                {
                    "from": "sent-PMC3522295-medscan-4", 
                    "object-type": "map-range", 
                    "to": "sent-PMC3522295-cmu-6"
                }, 
                {
                    "from": "sent-PMC3522295-medscan-245", 
                    "object-type": "map-range", 
                    "to": "sent-PMC3522295-cmu-214"
                }, 
                {
                    "from": "sent-PMC3522295-medscan-2", 
                    "object-type": "map-range", 
                    "to": "sent-PMC3522295-cmu-4"
                }, 
                {
                    "from": "sent-PMC3522295-medscan-93", 
                    "object-type": "map-range", 
                    "to": "sent-PMC3522295-cmu-107"
                }, 
                {
                    "from": "sent-PMC3522295-medscan-204", 
                    "object-type": "map-range", 
                    "to": "sent-PMC3522295-cmu-192"
                }, 
                {
                    "from": "sent-PMC3522295-medscan-28", 
                    "object-type": "map-range", 
                    "to": "sent-PMC3522295-cmu-35"
                }, 
                {
                    "from": "sent-PMC3522295-medscan-201", 
                    "object-type": "map-range", 
                    "to": "sent-PMC3522295-cmu-188"
                }, 
                {
                    "from": "sent-PMC3522295-medscan-3", 
                    "object-type": "map-range", 
                    "to": "sent-PMC3522295-cmu-5"
                }, 
                {
                    "from": "sent-PMC3522295-medscan-59", 
                    "object-type": "map-range", 
                    "to": "sent-PMC3522295-cmu-76"
                }, 
                {
                    "from": "sent-PMC3522295-medscan-283", 
                    "object-type": "map-range", 
                    "to": "sent-PMC3522295-cmu-252"
                }, 
                {
                    "from": "sent-PMC3522295-medscan-166", 
                    "object-type": "map-range", 
                    "to": "sent-PMC3522295-cmu-166"
                }, 
                {
                    "from": "sent-PMC3522295-medscan-61", 
                    "object-type": "map-range", 
                    "to": "sent-PMC3522295-cmu-78"
                }, 
                {
                    "from": "sent-PMC3522295-medscan-118", 
                    "object-type": "map-range", 
                    "to": "sent-PMC3522295-cmu-125"
                }, 
                {
                    "from": "sent-PMC3522295-medscan-176", 
                    "object-type": "map-range", 
                    "to": "sent-PMC3522295-cmu-173"
                }, 
                {
                    "from": "sent-PMC3522295-medscan-18", 
                    "object-type": "map-range", 
                    "to": "sent-PMC3522295-cmu-24"
                }, 
                {
                    "from": "sent-PMC3522295-medscan-83", 
                    "object-type": "map-range", 
                    "to": "sent-PMC3522295-cmu-97"
                }
            ], 
            "object-meta": {
                "component": "Pradeep-Matcher", 
                "object-type": "meta-info", 
                "organization": "CMU"
            }, 
            "object-type": "frame"
        }
    ], 
    "object-meta": {
        "component": "Pradeep-Matcher", 
        "component-type": "machine", 
        "doc-id": "PMC3522295", 
        "object-type": "meta-info", 
        "organization": "CMU"
    }, 
    "object-type": "frame-collection"
}
