{
    "frames": [
        {
            "end-pos": {
                "context-end": "tumors/1", 
                "object-type": "relative-pos", 
                "offset": 53, 
                "reference": "sent-PMC1804119-medscan-3"
            }, 
            "frame-id": "ment-PMC1804119-cmu-junsys-0", 
            "frame-type": "entity-mention", 
            "object-meta": {
                "component": "Jun-System", 
                "object-type": "meta-info", 
                "organization": "CMU"
            }, 
            "object-type": "frame", 
            "sentence": "sent-PMC1804119-medscan-3", 
            "start-pos": {
                "context-start": "tumors/1", 
                "object-type": "relative-pos", 
                "offset": 47, 
                "reference": "sent-PMC1804119-medscan-3"
            }, 
            "text": "tumors", 
            "xrefs": []
        }, 
        {
            "end-pos": {
                "context-end": "which/1", 
                "object-type": "relative-pos", 
                "offset": 138, 
                "reference": "sent-PMC1804119-medscan-3"
            }, 
            "frame-id": "ment-PMC1804119-cmu-junsys-1", 
            "frame-type": "entity-mention", 
            "object-meta": {
                "component": "Jun-System", 
                "object-type": "meta-info", 
                "organization": "CMU"
            }, 
            "object-type": "frame", 
            "sentence": "sent-PMC1804119-medscan-3", 
            "start-pos": {
                "context-start": "which/1", 
                "object-type": "relative-pos", 
                "offset": 133, 
                "reference": "sent-PMC1804119-medscan-3"
            }, 
            "text": "which", 
            "xrefs": []
        }, 
        {
            "end-pos": {
                "context-end": "rest/1", 
                "object-type": "relative-pos", 
                "offset": 155, 
                "reference": "sent-PMC1804119-medscan-14"
            }, 
            "frame-id": "ment-PMC1804119-cmu-junsys-17", 
            "frame-type": "entity-mention", 
            "object-meta": {
                "component": "Jun-System", 
                "object-type": "meta-info", 
                "organization": "CMU"
            }, 
            "object-type": "frame", 
            "sentence": "sent-PMC1804119-medscan-14", 
            "start-pos": {
                "context-start": "rest/1", 
                "object-type": "relative-pos", 
                "offset": 151, 
                "reference": "sent-PMC1804119-medscan-14"
            }, 
            "text": "rest", 
            "xrefs": []
        }, 
        {
            "end-pos": {
                "context-end": "day/1", 
                "object-type": "relative-pos", 
                "offset": 95, 
                "reference": "sent-PMC1804119-medscan-61"
            }, 
            "frame-id": "ment-PMC1804119-cmu-junsys-84", 
            "frame-type": "entity-mention", 
            "object-meta": {
                "component": "Jun-System", 
                "object-type": "meta-info", 
                "organization": "CMU"
            }, 
            "object-type": "frame", 
            "sentence": "sent-PMC1804119-medscan-61", 
            "start-pos": {
                "context-start": "day/1", 
                "object-type": "relative-pos", 
                "offset": 92, 
                "reference": "sent-PMC1804119-medscan-61"
            }, 
            "text": "day", 
            "xrefs": []
        }, 
        {
            "end-pos": {
                "context-end": "which/1", 
                "object-type": "relative-pos", 
                "offset": 104, 
                "reference": "sent-PMC1804119-medscan-61"
            }, 
            "frame-id": "ment-PMC1804119-cmu-junsys-85", 
            "frame-type": "entity-mention", 
            "object-meta": {
                "component": "Jun-System", 
                "object-type": "meta-info", 
                "organization": "CMU"
            }, 
            "object-type": "frame", 
            "sentence": "sent-PMC1804119-medscan-61", 
            "start-pos": {
                "context-start": "which/1", 
                "object-type": "relative-pos", 
                "offset": 99, 
                "reference": "sent-PMC1804119-medscan-61"
            }, 
            "text": "which", 
            "xrefs": []
        }, 
        {
            "end-pos": {
                "context-end": "sequence/1", 
                "object-type": "relative-pos", 
                "offset": 122, 
                "reference": "sent-PMC1804119-medscan-66"
            }, 
            "frame-id": "ment-PMC1804119-cmu-junsys-91", 
            "frame-type": "entity-mention", 
            "object-meta": {
                "component": "Jun-System", 
                "object-type": "meta-info", 
                "organization": "CMU"
            }, 
            "object-type": "frame", 
            "sentence": "sent-PMC1804119-medscan-66", 
            "start-pos": {
                "context-start": "sequence/1", 
                "object-type": "relative-pos", 
                "offset": 114, 
                "reference": "sent-PMC1804119-medscan-66"
            }, 
            "text": "sequence", 
            "xrefs": []
        }, 
        {
            "end-pos": {
                "context-end": "which/1", 
                "object-type": "relative-pos", 
                "offset": 131, 
                "reference": "sent-PMC1804119-medscan-66"
            }, 
            "frame-id": "ment-PMC1804119-cmu-junsys-92", 
            "frame-type": "entity-mention", 
            "object-meta": {
                "component": "Jun-System", 
                "object-type": "meta-info", 
                "organization": "CMU"
            }, 
            "object-type": "frame", 
            "sentence": "sent-PMC1804119-medscan-66", 
            "start-pos": {
                "context-start": "which/1", 
                "object-type": "relative-pos", 
                "offset": 126, 
                "reference": "sent-PMC1804119-medscan-66"
            }, 
            "text": "which", 
            "xrefs": []
        }, 
        {
            "end-pos": {
                "context-end": "cytotoxicity/1", 
                "object-type": "relative-pos", 
                "offset": 91, 
                "reference": "sent-PMC1804119-medscan-80"
            }, 
            "frame-id": "ment-PMC1804119-cmu-junsys-112", 
            "frame-type": "entity-mention", 
            "object-meta": {
                "component": "Jun-System", 
                "object-type": "meta-info", 
                "organization": "CMU"
            }, 
            "object-type": "frame", 
            "sentence": "sent-PMC1804119-medscan-80", 
            "start-pos": {
                "context-start": "cytotoxicity/1", 
                "object-type": "relative-pos", 
                "offset": 79, 
                "reference": "sent-PMC1804119-medscan-80"
            }, 
            "text": "cytotoxicity", 
            "xrefs": []
        }, 
        {
            "end-pos": {
                "context-end": "proportion/1", 
                "object-type": "relative-pos", 
                "offset": 54, 
                "reference": "sent-PMC1804119-medscan-93"
            }, 
            "frame-id": "ment-PMC1804119-cmu-junsys-142", 
            "frame-type": "entity-mention", 
            "object-meta": {
                "component": "Jun-System", 
                "object-type": "meta-info", 
                "organization": "CMU"
            }, 
            "object-type": "frame", 
            "sentence": "sent-PMC1804119-medscan-93", 
            "start-pos": {
                "context-start": "proportion/1", 
                "object-type": "relative-pos", 
                "offset": 44, 
                "reference": "sent-PMC1804119-medscan-93"
            }, 
            "text": "proportion", 
            "xrefs": []
        }, 
        {
            "end-pos": {
                "context-end": "proteins/1", 
                "object-type": "relative-pos", 
                "offset": 116, 
                "reference": "sent-PMC1804119-medscan-96"
            }, 
            "frame-id": "ment-PMC1804119-cmu-junsys-151", 
            "frame-type": "entity-mention", 
            "object-meta": {
                "component": "Jun-System", 
                "object-type": "meta-info", 
                "organization": "CMU"
            }, 
            "object-type": "frame", 
            "sentence": "sent-PMC1804119-medscan-96", 
            "start-pos": {
                "context-start": "proteins/1", 
                "object-type": "relative-pos", 
                "offset": 108, 
                "reference": "sent-PMC1804119-medscan-96"
            }, 
            "text": "proteins", 
            "xrefs": []
        }, 
        {
            "end-pos": {
                "context-end": "expression/1", 
                "object-type": "relative-pos", 
                "offset": 78, 
                "reference": "sent-PMC1804119-medscan-111"
            }, 
            "frame-id": "ment-PMC1804119-cmu-junsys-185", 
            "frame-type": "entity-mention", 
            "object-meta": {
                "component": "Jun-System", 
                "object-type": "meta-info", 
                "organization": "CMU"
            }, 
            "object-type": "frame", 
            "sentence": "sent-PMC1804119-medscan-111", 
            "start-pos": {
                "context-start": "expression/1", 
                "object-type": "relative-pos", 
                "offset": 68, 
                "reference": "sent-PMC1804119-medscan-111"
            }, 
            "text": "expression", 
            "xrefs": []
        }, 
        {
            "end-pos": {
                "context-end": "protein/1", 
                "object-type": "relative-pos", 
                "offset": 85, 
                "reference": "sent-PMC1804119-medscan-112"
            }, 
            "frame-id": "ment-PMC1804119-cmu-junsys-191", 
            "frame-type": "entity-mention", 
            "object-meta": {
                "component": "Jun-System", 
                "object-type": "meta-info", 
                "organization": "CMU"
            }, 
            "object-type": "frame", 
            "sentence": "sent-PMC1804119-medscan-112", 
            "start-pos": {
                "context-start": "protein/1", 
                "object-type": "relative-pos", 
                "offset": 78, 
                "reference": "sent-PMC1804119-medscan-112"
            }, 
            "text": "protein", 
            "xrefs": []
        }, 
        {
            "end-pos": {
                "context-end": "pro-caspase/1", 
                "object-type": "relative-pos", 
                "offset": 34, 
                "reference": "sent-PMC1804119-medscan-114"
            }, 
            "frame-id": "ment-PMC1804119-cmu-junsys-196", 
            "frame-type": "entity-mention", 
            "object-meta": {
                "component": "Jun-System", 
                "object-type": "meta-info", 
                "organization": "CMU"
            }, 
            "object-type": "frame", 
            "sentence": "sent-PMC1804119-medscan-114", 
            "start-pos": {
                "context-start": "pro-caspase/1", 
                "object-type": "relative-pos", 
                "offset": 23, 
                "reference": "sent-PMC1804119-medscan-114"
            }, 
            "text": "pro-caspase", 
            "xrefs": []
        }, 
        {
            "end-pos": {
                "context-end": "study/1", 
                "object-type": "relative-pos", 
                "offset": 103, 
                "reference": "sent-PMC1804119-medscan-121"
            }, 
            "frame-id": "ment-PMC1804119-cmu-junsys-208", 
            "frame-type": "entity-mention", 
            "object-meta": {
                "component": "Jun-System", 
                "object-type": "meta-info", 
                "organization": "CMU"
            }, 
            "object-type": "frame", 
            "sentence": "sent-PMC1804119-medscan-121", 
            "start-pos": {
                "context-start": "study/1", 
                "object-type": "relative-pos", 
                "offset": 98, 
                "reference": "sent-PMC1804119-medscan-121"
            }, 
            "text": "study", 
            "xrefs": []
        }, 
        {
            "end-pos": {
                "context-end": "which/1", 
                "object-type": "relative-pos", 
                "offset": 110, 
                "reference": "sent-PMC1804119-medscan-121"
            }, 
            "frame-id": "ment-PMC1804119-cmu-junsys-209", 
            "frame-type": "entity-mention", 
            "object-meta": {
                "component": "Jun-System", 
                "object-type": "meta-info", 
                "organization": "CMU"
            }, 
            "object-type": "frame", 
            "sentence": "sent-PMC1804119-medscan-121", 
            "start-pos": {
                "context-start": "which/1", 
                "object-type": "relative-pos", 
                "offset": 105, 
                "reference": "sent-PMC1804119-medscan-121"
            }, 
            "text": "which", 
            "xrefs": []
        }, 
        {
            "end-pos": {
                "context-end": "treatment/1", 
                "object-type": "relative-pos", 
                "offset": 140, 
                "reference": "sent-PMC1804119-medscan-123"
            }, 
            "frame-id": "ment-PMC1804119-cmu-junsys-215", 
            "frame-type": "entity-mention", 
            "object-meta": {
                "component": "Jun-System", 
                "object-type": "meta-info", 
                "organization": "CMU"
            }, 
            "object-type": "frame", 
            "sentence": "sent-PMC1804119-medscan-123", 
            "start-pos": {
                "context-start": "treatment/1", 
                "object-type": "relative-pos", 
                "offset": 131, 
                "reference": "sent-PMC1804119-medscan-123"
            }, 
            "text": "treatment", 
            "xrefs": []
        }, 
        {
            "end-pos": {
                "context-end": "cleavage/1", 
                "object-type": "relative-pos", 
                "offset": 124, 
                "reference": "sent-PMC1804119-medscan-122"
            }, 
            "frame-id": "ment-PMC1804119-cmu-junsys-216", 
            "frame-type": "entity-mention", 
            "object-meta": {
                "component": "Jun-System", 
                "object-type": "meta-info", 
                "organization": "CMU"
            }, 
            "object-type": "frame", 
            "sentence": "sent-PMC1804119-medscan-122", 
            "start-pos": {
                "context-start": "cleavage/1", 
                "object-type": "relative-pos", 
                "offset": 116, 
                "reference": "sent-PMC1804119-medscan-122"
            }, 
            "text": "cleavage", 
            "xrefs": []
        }, 
        {
            "end-pos": {
                "object-type": "relative-pos", 
                "offset": -1, 
                "reference": "NOT LINKED"
            }, 
            "frame-id": "ment-PMC1804119-cmu-junsys-219", 
            "frame-type": "entity-mention", 
            "object-meta": {
                "component": "Jun-System", 
                "object-type": "meta-info", 
                "organization": "CMU"
            }, 
            "object-type": "frame", 
            "sentence": "NOT LINKED", 
            "start-pos": {
                "object-type": "relative-pos", 
                "offset": -1, 
                "reference": "NOT LINKED"
            }, 
            "text": "growth", 
            "xrefs": []
        }, 
        {
            "end-pos": {
                "context-end": "pathways/1", 
                "object-type": "relative-pos", 
                "offset": 91, 
                "reference": "sent-PMC1804119-medscan-123"
            }, 
            "frame-id": "ment-PMC1804119-cmu-junsys-221", 
            "frame-type": "entity-mention", 
            "object-meta": {
                "component": "Jun-System", 
                "object-type": "meta-info", 
                "organization": "CMU"
            }, 
            "object-type": "frame", 
            "sentence": "sent-PMC1804119-medscan-123", 
            "start-pos": {
                "context-start": "pathways/1", 
                "object-type": "relative-pos", 
                "offset": 83, 
                "reference": "sent-PMC1804119-medscan-123"
            }, 
            "text": "pathways", 
            "xrefs": []
        }, 
        {
            "end-pos": {
                "context-end": "growth/1", 
                "object-type": "relative-pos", 
                "offset": 48, 
                "reference": "sent-PMC1804119-medscan-125"
            }, 
            "frame-id": "ment-PMC1804119-cmu-junsys-226", 
            "frame-type": "entity-mention", 
            "object-meta": {
                "component": "Jun-System", 
                "object-type": "meta-info", 
                "organization": "CMU"
            }, 
            "object-type": "frame", 
            "sentence": "sent-PMC1804119-medscan-125", 
            "start-pos": {
                "context-start": "growth/1", 
                "object-type": "relative-pos", 
                "offset": 42, 
                "reference": "sent-PMC1804119-medscan-125"
            }, 
            "text": "growth", 
            "xrefs": []
        }, 
        {
            "end-pos": {
                "context-end": "growth/1", 
                "object-type": "relative-pos", 
                "offset": 70, 
                "reference": "sent-PMC1804119-medscan-166"
            }, 
            "frame-id": "ment-PMC1804119-cmu-junsys-291", 
            "frame-type": "entity-mention", 
            "object-meta": {
                "component": "Jun-System", 
                "object-type": "meta-info", 
                "organization": "CMU"
            }, 
            "object-type": "frame", 
            "sentence": "sent-PMC1804119-medscan-166", 
            "start-pos": {
                "context-start": "growth/1", 
                "object-type": "relative-pos", 
                "offset": 64, 
                "reference": "sent-PMC1804119-medscan-166"
            }, 
            "text": "growth", 
            "xrefs": []
        }, 
        {
            "end-pos": {
                "context-end": "apoptosis/1", 
                "object-type": "relative-pos", 
                "offset": 170, 
                "reference": "sent-PMC1804119-medscan-166"
            }, 
            "frame-id": "ment-PMC1804119-cmu-junsys-295", 
            "frame-type": "entity-mention", 
            "object-meta": {
                "component": "Jun-System", 
                "object-type": "meta-info", 
                "organization": "CMU"
            }, 
            "object-type": "frame", 
            "sentence": "sent-PMC1804119-medscan-166", 
            "start-pos": {
                "context-start": "apoptosis/1", 
                "object-type": "relative-pos", 
                "offset": 161, 
                "reference": "sent-PMC1804119-medscan-166"
            }, 
            "text": "apoptosis", 
            "xrefs": []
        }, 
        {
            "end-pos": {
                "context-end": "expression/1", 
                "object-type": "relative-pos", 
                "offset": 57, 
                "reference": "sent-PMC1804119-medscan-167"
            }, 
            "frame-id": "ment-PMC1804119-cmu-junsys-299", 
            "frame-type": "entity-mention", 
            "object-meta": {
                "component": "Jun-System", 
                "object-type": "meta-info", 
                "organization": "CMU"
            }, 
            "object-type": "frame", 
            "sentence": "sent-PMC1804119-medscan-167", 
            "start-pos": {
                "context-start": "expression/1", 
                "object-type": "relative-pos", 
                "offset": 47, 
                "reference": "sent-PMC1804119-medscan-167"
            }, 
            "text": "expression", 
            "xrefs": []
        }, 
        {
            "end-pos": {
                "context-end": "proteins/1", 
                "object-type": "relative-pos", 
                "offset": 24, 
                "reference": "sent-PMC1804119-medscan-170"
            }, 
            "frame-id": "ment-PMC1804119-cmu-junsys-305", 
            "frame-type": "entity-mention", 
            "object-meta": {
                "component": "Jun-System", 
                "object-type": "meta-info", 
                "organization": "CMU"
            }, 
            "object-type": "frame", 
            "sentence": "sent-PMC1804119-medscan-170", 
            "start-pos": {
                "context-start": "proteins/1", 
                "object-type": "relative-pos", 
                "offset": 16, 
                "reference": "sent-PMC1804119-medscan-170"
            }, 
            "text": "proteins", 
            "xrefs": []
        }, 
        {
            "end-pos": {
                "context-end": "that/1", 
                "object-type": "relative-pos", 
                "offset": 48, 
                "reference": "sent-PMC1804119-medscan-170"
            }, 
            "frame-id": "ment-PMC1804119-cmu-junsys-308", 
            "frame-type": "entity-mention", 
            "object-meta": {
                "component": "Jun-System", 
                "object-type": "meta-info", 
                "organization": "CMU"
            }, 
            "object-type": "frame", 
            "sentence": "sent-PMC1804119-medscan-170", 
            "start-pos": {
                "context-start": "that/1", 
                "object-type": "relative-pos", 
                "offset": 44, 
                "reference": "sent-PMC1804119-medscan-170"
            }, 
            "text": "that", 
            "xrefs": []
        }, 
        {
            "end-pos": {
                "context-end": "complexes/1", 
                "object-type": "relative-pos", 
                "offset": 96, 
                "reference": "sent-PMC1804119-medscan-170"
            }, 
            "frame-id": "ment-PMC1804119-cmu-junsys-310", 
            "frame-type": "entity-mention", 
            "object-meta": {
                "component": "Jun-System", 
                "object-type": "meta-info", 
                "organization": "CMU"
            }, 
            "object-type": "frame", 
            "sentence": "sent-PMC1804119-medscan-170", 
            "start-pos": {
                "context-start": "complexes/1", 
                "object-type": "relative-pos", 
                "offset": 87, 
                "reference": "sent-PMC1804119-medscan-170"
            }, 
            "text": "complexes", 
            "xrefs": []
        }, 
        {
            "end-pos": {
                "context-end": "protein/1", 
                "object-type": "relative-pos", 
                "offset": 15, 
                "reference": "sent-PMC1804119-medscan-172"
            }, 
            "frame-id": "ment-PMC1804119-cmu-junsys-311", 
            "frame-type": "entity-mention", 
            "object-meta": {
                "component": "Jun-System", 
                "object-type": "meta-info", 
                "organization": "CMU"
            }, 
            "object-type": "frame", 
            "sentence": "sent-PMC1804119-medscan-172", 
            "start-pos": {
                "context-start": "protein/1", 
                "object-type": "relative-pos", 
                "offset": 8, 
                "reference": "sent-PMC1804119-medscan-172"
            }, 
            "text": "protein", 
            "xrefs": []
        }, 
        {
            "end-pos": {
                "context-end": "protein/1", 
                "object-type": "relative-pos", 
                "offset": 15, 
                "reference": "sent-PMC1804119-medscan-172"
            }, 
            "frame-id": "ment-PMC1804119-cmu-junsys-315", 
            "frame-type": "entity-mention", 
            "object-meta": {
                "component": "Jun-System", 
                "object-type": "meta-info", 
                "organization": "CMU"
            }, 
            "object-type": "frame", 
            "sentence": "sent-PMC1804119-medscan-172", 
            "start-pos": {
                "context-start": "protein/1", 
                "object-type": "relative-pos", 
                "offset": 8, 
                "reference": "sent-PMC1804119-medscan-172"
            }, 
            "text": "protein", 
            "xrefs": []
        }, 
        {
            "end-pos": {
                "context-end": "G1/1", 
                "object-type": "relative-pos", 
                "offset": 167, 
                "reference": "sent-PMC1804119-medscan-174"
            }, 
            "frame-id": "ment-PMC1804119-cmu-junsys-317", 
            "frame-type": "entity-mention", 
            "object-meta": {
                "component": "Jun-System", 
                "object-type": "meta-info", 
                "organization": "CMU"
            }, 
            "object-type": "frame", 
            "sentence": "sent-PMC1804119-medscan-174", 
            "start-pos": {
                "context-start": "G1/1", 
                "object-type": "relative-pos", 
                "offset": 165, 
                "reference": "sent-PMC1804119-medscan-174"
            }, 
            "text": "G1", 
            "xrefs": []
        }, 
        {
            "end-pos": {
                "context-end": "Rb/1", 
                "object-type": "relative-pos", 
                "offset": 44, 
                "reference": "sent-PMC1804119-medscan-173"
            }, 
            "frame-id": "ment-PMC1804119-cmu-junsys-319", 
            "frame-type": "entity-mention", 
            "object-meta": {
                "component": "Jun-System", 
                "object-type": "meta-info", 
                "organization": "CMU"
            }, 
            "object-type": "frame", 
            "sentence": "sent-PMC1804119-medscan-173", 
            "start-pos": {
                "context-start": "Rb/1", 
                "object-type": "relative-pos", 
                "offset": 42, 
                "reference": "sent-PMC1804119-medscan-173"
            }, 
            "text": "Rb", 
            "xrefs": []
        }, 
        {
            "end-pos": {
                "context-end": "inhibitors/1", 
                "object-type": "relative-pos", 
                "offset": 128, 
                "reference": "sent-PMC1804119-medscan-173"
            }, 
            "frame-id": "ment-PMC1804119-cmu-junsys-321", 
            "frame-type": "entity-mention", 
            "object-meta": {
                "component": "Jun-System", 
                "object-type": "meta-info", 
                "organization": "CMU"
            }, 
            "object-type": "frame", 
            "sentence": "sent-PMC1804119-medscan-173", 
            "start-pos": {
                "context-start": "inhibitors/1", 
                "object-type": "relative-pos", 
                "offset": 118, 
                "reference": "sent-PMC1804119-medscan-173"
            }, 
            "text": "inhibitors", 
            "xrefs": []
        }, 
        {
            "end-pos": {
                "context-end": "which/1", 
                "object-type": "relative-pos", 
                "offset": 157, 
                "reference": "sent-PMC1804119-medscan-174"
            }, 
            "frame-id": "ment-PMC1804119-cmu-junsys-322", 
            "frame-type": "entity-mention", 
            "object-meta": {
                "component": "Jun-System", 
                "object-type": "meta-info", 
                "organization": "CMU"
            }, 
            "object-type": "frame", 
            "sentence": "sent-PMC1804119-medscan-174", 
            "start-pos": {
                "context-start": "which/1", 
                "object-type": "relative-pos", 
                "offset": 152, 
                "reference": "sent-PMC1804119-medscan-174"
            }, 
            "text": "which", 
            "xrefs": []
        }, 
        {
            "end-pos": {
                "context-end": "activities/1", 
                "object-type": "relative-pos", 
                "offset": 160, 
                "reference": "sent-PMC1804119-medscan-173"
            }, 
            "frame-id": "ment-PMC1804119-cmu-junsys-323", 
            "frame-type": "entity-mention", 
            "object-meta": {
                "component": "Jun-System", 
                "object-type": "meta-info", 
                "organization": "CMU"
            }, 
            "object-type": "frame", 
            "sentence": "sent-PMC1804119-medscan-173", 
            "start-pos": {
                "context-start": "activities/1", 
                "object-type": "relative-pos", 
                "offset": 150, 
                "reference": "sent-PMC1804119-medscan-173"
            }, 
            "text": "activities", 
            "xrefs": []
        }, 
        {
            "end-pos": {
                "context-end": "compound/1", 
                "object-type": "relative-pos", 
                "offset": 13, 
                "reference": "sent-PMC1804119-medscan-176"
            }, 
            "frame-id": "ment-PMC1804119-cmu-junsys-327", 
            "frame-type": "entity-mention", 
            "object-meta": {
                "component": "Jun-System", 
                "object-type": "meta-info", 
                "organization": "CMU"
            }, 
            "object-type": "frame", 
            "sentence": "sent-PMC1804119-medscan-176", 
            "start-pos": {
                "context-start": "compound/1", 
                "object-type": "relative-pos", 
                "offset": 5, 
                "reference": "sent-PMC1804119-medscan-176"
            }, 
            "text": "compound", 
            "xrefs": []
        }, 
        {
            "end-pos": {
                "context-end": "which/1", 
                "object-type": "relative-pos", 
                "offset": 196, 
                "reference": "sent-PMC1804119-medscan-178"
            }, 
            "frame-id": "ment-PMC1804119-cmu-junsys-328", 
            "frame-type": "entity-mention", 
            "object-meta": {
                "component": "Jun-System", 
                "object-type": "meta-info", 
                "organization": "CMU"
            }, 
            "object-type": "frame", 
            "sentence": "sent-PMC1804119-medscan-178", 
            "start-pos": {
                "context-start": "which/1", 
                "object-type": "relative-pos", 
                "offset": 191, 
                "reference": "sent-PMC1804119-medscan-178"
            }, 
            "text": "which", 
            "xrefs": []
        }, 
        {
            "end-pos": {
                "context-end": "Rb/1", 
                "object-type": "relative-pos", 
                "offset": 130, 
                "reference": "sent-PMC1804119-medscan-176"
            }, 
            "frame-id": "ment-PMC1804119-cmu-junsys-332", 
            "frame-type": "entity-mention", 
            "object-meta": {
                "component": "Jun-System", 
                "object-type": "meta-info", 
                "organization": "CMU"
            }, 
            "object-type": "frame", 
            "sentence": "sent-PMC1804119-medscan-176", 
            "start-pos": {
                "context-start": "Rb/1", 
                "object-type": "relative-pos", 
                "offset": 128, 
                "reference": "sent-PMC1804119-medscan-176"
            }, 
            "text": "Rb", 
            "xrefs": []
        }, 
        {
            "end-pos": {
                "context-end": "treatment/1", 
                "object-type": "relative-pos", 
                "offset": 95, 
                "reference": "sent-PMC1804119-medscan-178"
            }, 
            "frame-id": "ment-PMC1804119-cmu-junsys-338", 
            "frame-type": "entity-mention", 
            "object-meta": {
                "component": "Jun-System", 
                "object-type": "meta-info", 
                "organization": "CMU"
            }, 
            "object-type": "frame", 
            "sentence": "sent-PMC1804119-medscan-178", 
            "start-pos": {
                "context-start": "treatment/1", 
                "object-type": "relative-pos", 
                "offset": 86, 
                "reference": "sent-PMC1804119-medscan-178"
            }, 
            "text": "treatment", 
            "xrefs": []
        }, 
        {
            "end-pos": {
                "context-end": "expression/1", 
                "object-type": "relative-pos", 
                "offset": 189, 
                "reference": "sent-PMC1804119-medscan-178"
            }, 
            "frame-id": "ment-PMC1804119-cmu-junsys-341", 
            "frame-type": "entity-mention", 
            "object-meta": {
                "component": "Jun-System", 
                "object-type": "meta-info", 
                "organization": "CMU"
            }, 
            "object-type": "frame", 
            "sentence": "sent-PMC1804119-medscan-178", 
            "start-pos": {
                "context-start": "expression/1", 
                "object-type": "relative-pos", 
                "offset": 179, 
                "reference": "sent-PMC1804119-medscan-178"
            }, 
            "text": "expression", 
            "xrefs": []
        }, 
        {
            "end-pos": {
                "context-end": "which/1", 
                "object-type": "relative-pos", 
                "offset": 80, 
                "reference": "sent-PMC1804119-medscan-179"
            }, 
            "frame-id": "ment-PMC1804119-cmu-junsys-342", 
            "frame-type": "entity-mention", 
            "object-meta": {
                "component": "Jun-System", 
                "object-type": "meta-info", 
                "organization": "CMU"
            }, 
            "object-type": "frame", 
            "sentence": "sent-PMC1804119-medscan-179", 
            "start-pos": {
                "context-start": "which/1", 
                "object-type": "relative-pos", 
                "offset": 75, 
                "reference": "sent-PMC1804119-medscan-179"
            }, 
            "text": "which", 
            "xrefs": []
        }, 
        {
            "end-pos": {
                "context-end": "inhibition/1", 
                "object-type": "relative-pos", 
                "offset": 73, 
                "reference": "sent-PMC1804119-medscan-179"
            }, 
            "frame-id": "ment-PMC1804119-cmu-junsys-345", 
            "frame-type": "entity-mention", 
            "object-meta": {
                "component": "Jun-System", 
                "object-type": "meta-info", 
                "organization": "CMU"
            }, 
            "object-type": "frame", 
            "sentence": "sent-PMC1804119-medscan-179", 
            "start-pos": {
                "context-start": "inhibition/1", 
                "object-type": "relative-pos", 
                "offset": 63, 
                "reference": "sent-PMC1804119-medscan-179"
            }, 
            "text": "inhibition", 
            "xrefs": []
        }, 
        {
            "end-pos": {
                "context-end": "which/1", 
                "object-type": "relative-pos", 
                "offset": 80, 
                "reference": "sent-PMC1804119-medscan-179"
            }, 
            "frame-id": "ment-PMC1804119-cmu-junsys-346", 
            "frame-type": "entity-mention", 
            "object-meta": {
                "component": "Jun-System", 
                "object-type": "meta-info", 
                "organization": "CMU"
            }, 
            "object-type": "frame", 
            "sentence": "sent-PMC1804119-medscan-179", 
            "start-pos": {
                "context-start": "which/1", 
                "object-type": "relative-pos", 
                "offset": 75, 
                "reference": "sent-PMC1804119-medscan-179"
            }, 
            "text": "which", 
            "xrefs": []
        }, 
        {
            "end-pos": {
                "context-end": "transcription/1", 
                "object-type": "relative-pos", 
                "offset": 120, 
                "reference": "sent-PMC1804119-medscan-179"
            }, 
            "frame-id": "ment-PMC1804119-cmu-junsys-350", 
            "frame-type": "entity-mention", 
            "object-meta": {
                "component": "Jun-System", 
                "object-type": "meta-info", 
                "organization": "CMU"
            }, 
            "object-type": "frame", 
            "sentence": "sent-PMC1804119-medscan-179", 
            "start-pos": {
                "context-start": "transcription/1", 
                "object-type": "relative-pos", 
                "offset": 107, 
                "reference": "sent-PMC1804119-medscan-179"
            }, 
            "text": "transcription", 
            "xrefs": []
        }, 
        {
            "end-pos": {
                "context-end": "procaspase/1", 
                "object-type": "relative-pos", 
                "offset": 119, 
                "reference": "sent-PMC1804119-medscan-183"
            }, 
            "frame-id": "ment-PMC1804119-cmu-junsys-355", 
            "frame-type": "entity-mention", 
            "object-meta": {
                "component": "Jun-System", 
                "object-type": "meta-info", 
                "organization": "CMU"
            }, 
            "object-type": "frame", 
            "sentence": "sent-PMC1804119-medscan-183", 
            "start-pos": {
                "context-start": "procaspase/1", 
                "object-type": "relative-pos", 
                "offset": 109, 
                "reference": "sent-PMC1804119-medscan-183"
            }, 
            "text": "procaspase", 
            "xrefs": []
        }, 
        {
            "end-pos": {
                "context-end": "membrane/1", 
                "object-type": "relative-pos", 
                "offset": 74, 
                "reference": "sent-PMC1804119-medscan-183"
            }, 
            "frame-id": "ment-PMC1804119-cmu-junsys-365", 
            "frame-type": "entity-mention", 
            "object-meta": {
                "component": "Jun-System", 
                "object-type": "meta-info", 
                "organization": "CMU"
            }, 
            "object-type": "frame", 
            "sentence": "sent-PMC1804119-medscan-183", 
            "start-pos": {
                "context-start": "membrane/1", 
                "object-type": "relative-pos", 
                "offset": 66, 
                "reference": "sent-PMC1804119-medscan-183"
            }, 
            "text": "membrane", 
            "xrefs": []
        }, 
        {
            "end-pos": {
                "context-end": "which/1", 
                "object-type": "relative-pos", 
                "offset": 81, 
                "reference": "sent-PMC1804119-medscan-183"
            }, 
            "frame-id": "ment-PMC1804119-cmu-junsys-366", 
            "frame-type": "entity-mention", 
            "object-meta": {
                "component": "Jun-System", 
                "object-type": "meta-info", 
                "organization": "CMU"
            }, 
            "object-type": "frame", 
            "sentence": "sent-PMC1804119-medscan-183", 
            "start-pos": {
                "context-start": "which/1", 
                "object-type": "relative-pos", 
                "offset": 76, 
                "reference": "sent-PMC1804119-medscan-183"
            }, 
            "text": "which", 
            "xrefs": []
        }, 
        {
            "end-pos": {
                "context-end": "procaspase/1", 
                "object-type": "relative-pos", 
                "offset": 119, 
                "reference": "sent-PMC1804119-medscan-183"
            }, 
            "frame-id": "ment-PMC1804119-cmu-junsys-367", 
            "frame-type": "entity-mention", 
            "object-meta": {
                "component": "Jun-System", 
                "object-type": "meta-info", 
                "organization": "CMU"
            }, 
            "object-type": "frame", 
            "sentence": "sent-PMC1804119-medscan-183", 
            "start-pos": {
                "context-start": "procaspase/1", 
                "object-type": "relative-pos", 
                "offset": 109, 
                "reference": "sent-PMC1804119-medscan-183"
            }, 
            "text": "procaspase", 
            "xrefs": []
        }, 
        {
            "end-pos": {
                "context-end": "procaspase/1", 
                "object-type": "relative-pos", 
                "offset": 119, 
                "reference": "sent-PMC1804119-medscan-183"
            }, 
            "frame-id": "ment-PMC1804119-cmu-junsys-370", 
            "frame-type": "entity-mention", 
            "object-meta": {
                "component": "Jun-System", 
                "object-type": "meta-info", 
                "organization": "CMU"
            }, 
            "object-type": "frame", 
            "sentence": "sent-PMC1804119-medscan-183", 
            "start-pos": {
                "context-start": "procaspase/1", 
                "object-type": "relative-pos", 
                "offset": 109, 
                "reference": "sent-PMC1804119-medscan-183"
            }, 
            "text": "procaspase", 
            "xrefs": []
        }, 
        {
            "end-pos": {
                "object-type": "relative-pos", 
                "offset": -1, 
                "reference": "NOT LINKED"
            }, 
            "frame-id": "ment-PMC1804119-cmu-junsys-377", 
            "frame-type": "entity-mention", 
            "object-meta": {
                "component": "Jun-System", 
                "object-type": "meta-info", 
                "organization": "CMU"
            }, 
            "object-type": "frame", 
            "sentence": "NOT LINKED", 
            "start-pos": {
                "object-type": "relative-pos", 
                "offset": -1, 
                "reference": "NOT LINKED"
            }, 
            "text": "growth", 
            "xrefs": []
        }, 
        {
            "end-pos": {
                "context-end": "protein/1", 
                "object-type": "relative-pos", 
                "offset": 43, 
                "reference": "sent-PMC1804119-medscan-192"
            }, 
            "frame-id": "ment-PMC1804119-cmu-junsys-386", 
            "frame-type": "entity-mention", 
            "object-meta": {
                "component": "Jun-System", 
                "object-type": "meta-info", 
                "organization": "CMU"
            }, 
            "object-type": "frame", 
            "sentence": "sent-PMC1804119-medscan-192", 
            "start-pos": {
                "context-start": "protein/1", 
                "object-type": "relative-pos", 
                "offset": 36, 
                "reference": "sent-PMC1804119-medscan-192"
            }, 
            "text": "protein", 
            "xrefs": []
        }, 
        {
            "end-pos": {
                "context-end": "p27/1", 
                "object-type": "relative-pos", 
                "offset": 69, 
                "reference": "sent-PMC1804119-medscan-199"
            }, 
            "frame-id": "ment-PMC1804119-cmu-junsys-401", 
            "frame-type": "entity-mention", 
            "object-meta": {
                "component": "Jun-System", 
                "object-type": "meta-info", 
                "organization": "CMU"
            }, 
            "object-type": "frame", 
            "sentence": "sent-PMC1804119-medscan-199", 
            "start-pos": {
                "context-start": "p27/1", 
                "object-type": "relative-pos", 
                "offset": 66, 
                "reference": "sent-PMC1804119-medscan-199"
            }, 
            "text": "p27", 
            "xrefs": []
        }, 
        {
            "end-pos": {
                "context-end": "cell/1", 
                "object-type": "relative-pos", 
                "offset": 107, 
                "reference": "sent-PMC1804119-medscan-199"
            }, 
            "frame-id": "ment-PMC1804119-cmu-junsys-404", 
            "frame-type": "entity-mention", 
            "object-meta": {
                "component": "Jun-System", 
                "object-type": "meta-info", 
                "organization": "CMU"
            }, 
            "object-type": "frame", 
            "sentence": "sent-PMC1804119-medscan-199", 
            "start-pos": {
                "context-start": "cell/1", 
                "object-type": "relative-pos", 
                "offset": 103, 
                "reference": "sent-PMC1804119-medscan-199"
            }, 
            "text": "cell", 
            "xrefs": []
        }, 
        {
            "end-pos": {
                "context-end": "caspase-9/1", 
                "object-type": "relative-pos", 
                "offset": 61, 
                "reference": "sent-PMC1804119-medscan-199"
            }, 
            "frame-id": "ment-PMC1804119-cmu-junsys-407", 
            "frame-type": "entity-mention", 
            "object-meta": {
                "component": "Jun-System", 
                "object-type": "meta-info", 
                "organization": "CMU"
            }, 
            "object-type": "frame", 
            "sentence": "sent-PMC1804119-medscan-199", 
            "start-pos": {
                "context-start": "caspase-9/1", 
                "object-type": "relative-pos", 
                "offset": 52, 
                "reference": "sent-PMC1804119-medscan-199"
            }, 
            "text": "caspase-9", 
            "xrefs": []
        }, 
        {
            "end-pos": {
                "object-type": "relative-pos", 
                "offset": -1, 
                "reference": "NOT LINKED"
            }, 
            "frame-id": "ment-PMC1804119-cmu-junsys-416", 
            "frame-type": "entity-mention", 
            "object-meta": {
                "component": "Jun-System", 
                "object-type": "meta-info", 
                "organization": "CMU"
            }, 
            "object-type": "frame", 
            "sentence": "NOT LINKED", 
            "start-pos": {
                "object-type": "relative-pos", 
                "offset": -1, 
                "reference": "NOT LINKED"
            }, 
            "text": "tumor", 
            "xrefs": []
        }, 
        {
            "end-pos": {
                "object-type": "relative-pos", 
                "offset": -1, 
                "reference": "NOT LINKED"
            }, 
            "frame-id": "ment-PMC1804119-cmu-junsys-419", 
            "frame-type": "entity-mention", 
            "object-meta": {
                "component": "Jun-System", 
                "object-type": "meta-info", 
                "organization": "CMU"
            }, 
            "object-type": "frame", 
            "sentence": "NOT LINKED", 
            "start-pos": {
                "object-type": "relative-pos", 
                "offset": -1, 
                "reference": "NOT LINKED"
            }, 
            "text": "cells", 
            "xrefs": []
        }, 
        {
            "arguments": [
                {
                    "arg": "ment-PMC1804119-cmu-junsys-17", 
                    "object-type": "argument", 
                    "type": "arg1"
                }
            ], 
            "context": "induction of cell-cycle rest", 
            "end-pos": {
                "context-end": "induction/1", 
                "object-type": "relative-pos", 
                "offset": 136, 
                "reference": "sent-PMC1804119-medscan-14"
            }, 
            "frame-id": "eve-PMC1804119-cmu-junsys-420", 
            "frame-type": "event-mention", 
            "object-meta": {
                "component": "Jun-System", 
                "object-type": "meta-info", 
                "organization": "CMU"
            }, 
            "object-type": "frame", 
            "sentence": "sent-PMC1804119-medscan-14", 
            "start-pos": {
                "context-start": "induction/1", 
                "object-type": "relative-pos", 
                "offset": 127, 
                "reference": "sent-PMC1804119-medscan-14"
            }, 
            "text": "induction", 
            "type": "induce"
        }, 
        {
            "arguments": [
                {
                    "arg": "ment-PMC1804119-cmu-medscan-111", 
                    "object-type": "argument", 
                    "type": "arg0"
                }, 
                {
                    "arg": "ment-PMC1804119-cmu-junsys-112", 
                    "object-type": "argument", 
                    "type": "arg1"
                }
            ], 
            "context": "n-Butylidenephthalide could induce high cytotoxicity against brain and other tumor cells but only low, or no cytotoxicity", 
            "end-pos": {
                "object-type": "relative-pos", 
                "offset": -1, 
                "reference": "sent-PMC1804119-medscan-80"
            }, 
            "frame-id": "eve-PMC1804119-cmu-junsys-421", 
            "frame-type": "event-mention", 
            "object-meta": {
                "component": "Jun-System", 
                "object-type": "meta-info", 
                "organization": "CMU"
            }, 
            "object-type": "frame", 
            "sentence": "sent-PMC1804119-medscan-80", 
            "start-pos": {
                "object-type": "relative-pos", 
                "offset": -1, 
                "reference": "sent-PMC1804119-medscan-80"
            }, 
            "text": "induce", 
            "type": "induce"
        }, 
        {
            "arguments": [
                {
                    "arg": "ment-PMC1804119-cmu-medscan-141", 
                    "object-type": "argument", 
                    "type": "arg0"
                }, 
                {
                    "arg": "ment-PMC1804119-cmu-junsys-142", 
                    "object-type": "argument", 
                    "type": "arg1"
                }
            ], 
            "context": "n-Butylidenephthalide induced a significant proportion", 
            "end-pos": {
                "context-end": "induced/1", 
                "object-type": "relative-pos", 
                "offset": 29, 
                "reference": "sent-PMC1804119-medscan-93"
            }, 
            "frame-id": "eve-PMC1804119-cmu-junsys-422", 
            "frame-type": "event-mention", 
            "object-meta": {
                "component": "Jun-System", 
                "object-type": "meta-info", 
                "organization": "CMU"
            }, 
            "object-type": "frame", 
            "sentence": "sent-PMC1804119-medscan-93", 
            "start-pos": {
                "context-start": "induced/1", 
                "object-type": "relative-pos", 
                "offset": 22, 
                "reference": "sent-PMC1804119-medscan-93"
            }, 
            "text": "induced", 
            "type": "induce"
        }, 
        {
            "arguments": [
                {
                    "arg": "ment-PMC1804119-cmu-junsys-151", 
                    "object-type": "argument", 
                    "type": "arg1"
                }
            ], 
            "context": "phosphorylation of p53 and Rb proteins", 
            "end-pos": {
                "context-end": "phosphorylation/1", 
                "object-type": "relative-pos", 
                "offset": 93, 
                "reference": "sent-PMC1804119-medscan-96"
            }, 
            "frame-id": "eve-PMC1804119-cmu-junsys-423", 
            "frame-type": "event-mention", 
            "object-meta": {
                "component": "Jun-System", 
                "object-type": "meta-info", 
                "organization": "CMU"
            }, 
            "object-type": "frame", 
            "sentence": "sent-PMC1804119-medscan-96", 
            "start-pos": {
                "context-start": "phosphorylation/1", 
                "object-type": "relative-pos", 
                "offset": 78, 
                "reference": "sent-PMC1804119-medscan-96"
            }, 
            "text": "phosphorylation", 
            "type": "phosphorylation"
        }, 
        {
            "arguments": [
                {
                    "arg": "ment-PMC1804119-cmu-medscan-184", 
                    "object-type": "argument", 
                    "type": "arg0"
                }, 
                {
                    "arg": "ment-PMC1804119-cmu-junsys-185", 
                    "object-type": "argument", 
                    "type": "arg1"
                }
            ], 
            "context": "n-Butylidenephthalide significantly induced Fas expression", 
            "end-pos": {
                "context-end": "induced/1", 
                "object-type": "relative-pos", 
                "offset": 63, 
                "reference": "sent-PMC1804119-medscan-111"
            }, 
            "frame-id": "eve-PMC1804119-cmu-junsys-424", 
            "frame-type": "event-mention", 
            "object-meta": {
                "component": "Jun-System", 
                "object-type": "meta-info", 
                "organization": "CMU"
            }, 
            "object-type": "frame", 
            "sentence": "sent-PMC1804119-medscan-111", 
            "start-pos": {
                "context-start": "induced/1", 
                "object-type": "relative-pos", 
                "offset": 56, 
                "reference": "sent-PMC1804119-medscan-111"
            }, 
            "text": "induced", 
            "type": "induce"
        }, 
        {
            "arguments": [
                {
                    "arg": "ment-PMC1804119-cmu-junsys-191", 
                    "object-type": "argument", 
                    "type": "arg1"
                }
            ], 
            "context": "activation of death receptor-induced apoptosis-related caspase 8 protein", 
            "end-pos": {
                "context-end": "activation/1", 
                "object-type": "relative-pos", 
                "offset": 23, 
                "reference": "sent-PMC1804119-medscan-112"
            }, 
            "frame-id": "eve-PMC1804119-cmu-junsys-425", 
            "frame-type": "event-mention", 
            "object-meta": {
                "component": "Jun-System", 
                "object-type": "meta-info", 
                "organization": "CMU"
            }, 
            "object-type": "frame", 
            "sentence": "sent-PMC1804119-medscan-112", 
            "start-pos": {
                "context-start": "activation/1", 
                "object-type": "relative-pos", 
                "offset": 13, 
                "reference": "sent-PMC1804119-medscan-112"
            }, 
            "text": "activation", 
            "type": "activate"
        }, 
        {
            "arguments": [
                {
                    "arg": "ment-PMC1804119-cmu-junsys-196", 
                    "object-type": "argument", 
                    "type": "arg1"
                }
            ], 
            "context": "activation of pro-caspase", 
            "end-pos": {
                "context-end": "activation/1", 
                "object-type": "relative-pos", 
                "offset": 19, 
                "reference": "sent-PMC1804119-medscan-114"
            }, 
            "frame-id": "eve-PMC1804119-cmu-junsys-426", 
            "frame-type": "event-mention", 
            "object-meta": {
                "component": "Jun-System", 
                "object-type": "meta-info", 
                "organization": "CMU"
            }, 
            "object-type": "frame", 
            "sentence": "sent-PMC1804119-medscan-114", 
            "start-pos": {
                "context-start": "activation/1", 
                "object-type": "relative-pos", 
                "offset": 9, 
                "reference": "sent-PMC1804119-medscan-114"
            }, 
            "text": "activation", 
            "type": "activate"
        }, 
        {
            "arguments": [
                {
                    "arg": "ment-PMC1804119-cmu-junsys-215", 
                    "object-type": "argument", 
                    "type": "arg0"
                }, 
                {
                    "arg": "ment-PMC1804119-cmu-junsys-216", 
                    "object-type": "argument", 
                    "type": "arg1"
                }
            ], 
            "context": "treatment increased the cleavage", 
            "end-pos": {
                "context-end": "increased/1", 
                "object-type": "relative-pos", 
                "offset": 111, 
                "reference": "sent-PMC1804119-medscan-122"
            }, 
            "frame-id": "eve-PMC1804119-cmu-junsys-427", 
            "frame-type": "event-mention", 
            "object-meta": {
                "component": "Jun-System", 
                "object-type": "meta-info", 
                "organization": "CMU"
            }, 
            "object-type": "frame", 
            "sentence": "sent-PMC1804119-medscan-122", 
            "start-pos": {
                "context-start": "increased/1", 
                "object-type": "relative-pos", 
                "offset": 102, 
                "reference": "sent-PMC1804119-medscan-122"
            }, 
            "text": "increased", 
            "type": "increase"
        }, 
        {
            "arguments": [
                {
                    "arg": "ment-PMC1804119-cmu-junsys-219", 
                    "object-type": "argument", 
                    "type": "arg1"
                }
            ], 
            "context": "inhibition of tumor cell growth", 
            "end-pos": {
                "context-end": "inhibition/1", 
                "object-type": "relative-pos", 
                "offset": 19, 
                "reference": "sent-PMC1804119-medscan-123"
            }, 
            "frame-id": "eve-PMC1804119-cmu-junsys-428", 
            "frame-type": "event-mention", 
            "object-meta": {
                "component": "Jun-System", 
                "object-type": "meta-info", 
                "organization": "CMU"
            }, 
            "object-type": "frame", 
            "sentence": "sent-PMC1804119-medscan-123", 
            "start-pos": {
                "context-start": "inhibition/1", 
                "object-type": "relative-pos", 
                "offset": 9, 
                "reference": "sent-PMC1804119-medscan-123"
            }, 
            "text": "inhibition", 
            "type": "inhibit"
        }, 
        {
            "arguments": [
                {
                    "arg": "ment-PMC1804119-cmu-junsys-221", 
                    "object-type": "argument", 
                    "type": "arg1"
                }
            ], 
            "context": "induction of tumor cell apoptosis pathways", 
            "end-pos": {
                "context-end": "induction/1", 
                "object-type": "relative-pos", 
                "offset": 58, 
                "reference": "sent-PMC1804119-medscan-123"
            }, 
            "frame-id": "eve-PMC1804119-cmu-junsys-429", 
            "frame-type": "event-mention", 
            "object-meta": {
                "component": "Jun-System", 
                "object-type": "meta-info", 
                "organization": "CMU"
            }, 
            "object-type": "frame", 
            "sentence": "sent-PMC1804119-medscan-123", 
            "start-pos": {
                "context-start": "induction/1", 
                "object-type": "relative-pos", 
                "offset": 49, 
                "reference": "sent-PMC1804119-medscan-123"
            }, 
            "text": "induction", 
            "type": "induce"
        }, 
        {
            "arguments": [
                {
                    "arg": "ment-PMC1804119-cmu-junsys-226", 
                    "object-type": "argument", 
                    "type": "arg1"
                }
            ], 
            "context": "inhibition of tumor growth", 
            "end-pos": {
                "context-end": "inhibition/1", 
                "object-type": "relative-pos", 
                "offset": 32, 
                "reference": "sent-PMC1804119-medscan-125"
            }, 
            "frame-id": "eve-PMC1804119-cmu-junsys-430", 
            "frame-type": "event-mention", 
            "object-meta": {
                "component": "Jun-System", 
                "object-type": "meta-info", 
                "organization": "CMU"
            }, 
            "object-type": "frame", 
            "sentence": "sent-PMC1804119-medscan-125", 
            "start-pos": {
                "context-start": "inhibition/1", 
                "object-type": "relative-pos", 
                "offset": 22, 
                "reference": "sent-PMC1804119-medscan-125"
            }, 
            "text": "inhibition", 
            "type": "inhibit"
        }, 
        {
            "arguments": [
                {
                    "arg": "ment-PMC1804119-cmu-junsys-291", 
                    "object-type": "argument", 
                    "type": "arg1"
                }
            ], 
            "context": "inhibition of tumor growth", 
            "end-pos": {
                "context-end": "inhibition/1", 
                "object-type": "relative-pos", 
                "offset": 54, 
                "reference": "sent-PMC1804119-medscan-166"
            }, 
            "frame-id": "eve-PMC1804119-cmu-junsys-431", 
            "frame-type": "event-mention", 
            "object-meta": {
                "component": "Jun-System", 
                "object-type": "meta-info", 
                "organization": "CMU"
            }, 
            "object-type": "frame", 
            "sentence": "sent-PMC1804119-medscan-166", 
            "start-pos": {
                "context-start": "inhibition/1", 
                "object-type": "relative-pos", 
                "offset": 44, 
                "reference": "sent-PMC1804119-medscan-166"
            }, 
            "text": "inhibition", 
            "type": "inhibit"
        }, 
        {
            "arguments": [
                {
                    "arg": "ment-PMC1804119-cmu-junsys-295", 
                    "object-type": "argument", 
                    "type": "arg1"
                }
            ], 
            "context": "induction of apoptosis", 
            "end-pos": {
                "context-end": "induction/1", 
                "object-type": "relative-pos", 
                "offset": 157, 
                "reference": "sent-PMC1804119-medscan-166"
            }, 
            "frame-id": "eve-PMC1804119-cmu-junsys-432", 
            "frame-type": "event-mention", 
            "object-meta": {
                "component": "Jun-System", 
                "object-type": "meta-info", 
                "organization": "CMU"
            }, 
            "object-type": "frame", 
            "sentence": "sent-PMC1804119-medscan-166", 
            "start-pos": {
                "context-start": "induction/1", 
                "object-type": "relative-pos", 
                "offset": 148, 
                "reference": "sent-PMC1804119-medscan-166"
            }, 
            "text": "induction", 
            "type": "induce"
        }, 
        {
            "arguments": [
                {
                    "arg": "ment-PMC1804119-cmu-junsys-299", 
                    "object-type": "argument", 
                    "type": "arg1"
                }
            ], 
            "context": "regulation of gene expression", 
            "end-pos": {
                "context-end": "regulation/1", 
                "object-type": "relative-pos", 
                "offset": 149, 
                "reference": "sent-PMC1804119-medscan-167"
            }, 
            "frame-id": "eve-PMC1804119-cmu-junsys-433", 
            "frame-type": "event-mention", 
            "object-meta": {
                "component": "Jun-System", 
                "object-type": "meta-info", 
                "organization": "CMU"
            }, 
            "object-type": "frame", 
            "sentence": "sent-PMC1804119-medscan-167", 
            "start-pos": {
                "context-start": "regulation/1", 
                "object-type": "relative-pos", 
                "offset": 139, 
                "reference": "sent-PMC1804119-medscan-167"
            }, 
            "text": "regulation", 
            "type": "regulate"
        }, 
        {
            "arguments": [
                {
                    "arg": "ment-PMC1804119-cmu-junsys-305", 
                    "object-type": "argument", 
                    "type": "arg1"
                }
            ], 
            "context": "activation of other proteins", 
            "end-pos": {
                "context-end": "activation/1", 
                "object-type": "relative-pos", 
                "offset": 47, 
                "reference": "sent-PMC1804119-medscan-169"
            }, 
            "frame-id": "eve-PMC1804119-cmu-junsys-434", 
            "frame-type": "event-mention", 
            "object-meta": {
                "component": "Jun-System", 
                "object-type": "meta-info", 
                "organization": "CMU"
            }, 
            "object-type": "frame", 
            "sentence": "sent-PMC1804119-medscan-169", 
            "start-pos": {
                "context-start": "activation/1", 
                "object-type": "relative-pos", 
                "offset": 37, 
                "reference": "sent-PMC1804119-medscan-169"
            }, 
            "text": "activation", 
            "type": "activate"
        }, 
        {
            "arguments": [
                {
                    "arg": "ment-PMC1804119-cmu-junsys-308", 
                    "object-type": "argument", 
                    "type": "arg0"
                }, 
                {
                    "arg": "ment-PMC1804119-cmu-junsys-310", 
                    "object-type": "argument", 
                    "type": "arg1"
                }
            ], 
            "context": "that negatively regulate cdk or cyclin/cdk complexes", 
            "end-pos": {
                "context-end": "regulate/1", 
                "object-type": "relative-pos", 
                "offset": 68, 
                "reference": "sent-PMC1804119-medscan-170"
            }, 
            "frame-id": "eve-PMC1804119-cmu-junsys-435", 
            "frame-type": "event-mention", 
            "object-meta": {
                "component": "Jun-System", 
                "object-type": "meta-info", 
                "organization": "CMU"
            }, 
            "object-type": "frame", 
            "sentence": "sent-PMC1804119-medscan-170", 
            "start-pos": {
                "context-start": "regulate/1", 
                "object-type": "relative-pos", 
                "offset": 60, 
                "reference": "sent-PMC1804119-medscan-170"
            }, 
            "text": "regulate", 
            "type": "regulate"
        }, 
        {
            "arguments": [
                {
                    "arg": "ment-PMC1804119-cmu-junsys-311", 
                    "object-type": "argument", 
                    "type": "arg0"
                }
            ], 
            "context": "protein, a member of the INK4 family, binds", 
            "end-pos": {
                "object-type": "relative-pos", 
                "offset": -1, 
                "reference": "sent-PMC1804119-medscan-171"
            }, 
            "frame-id": "eve-PMC1804119-cmu-junsys-436", 
            "frame-type": "event-mention", 
            "object-meta": {
                "component": "Jun-System", 
                "object-type": "meta-info", 
                "organization": "CMU"
            }, 
            "object-type": "frame", 
            "sentence": "sent-PMC1804119-medscan-171", 
            "start-pos": {
                "object-type": "relative-pos", 
                "offset": -1, 
                "reference": "sent-PMC1804119-medscan-171"
            }, 
            "text": "binds", 
            "type": "bind"
        }, 
        {
            "arguments": [
                {
                    "arg": "ment-PMC1804119-cmu-junsys-315", 
                    "object-type": "argument", 
                    "type": "arg0"
                }
            ], 
            "context": "protein binds", 
            "end-pos": {
                "context-end": "binds/1", 
                "object-type": "relative-pos", 
                "offset": 21, 
                "reference": "sent-PMC1804119-medscan-172"
            }, 
            "frame-id": "eve-PMC1804119-cmu-junsys-437", 
            "frame-type": "event-mention", 
            "object-meta": {
                "component": "Jun-System", 
                "object-type": "meta-info", 
                "organization": "CMU"
            }, 
            "object-type": "frame", 
            "sentence": "sent-PMC1804119-medscan-172", 
            "start-pos": {
                "context-start": "binds/1", 
                "object-type": "relative-pos", 
                "offset": 16, 
                "reference": "sent-PMC1804119-medscan-172"
            }, 
            "text": "binds", 
            "type": "bind"
        }, 
        {
            "arguments": [
                {
                    "arg": "ment-PMC1804119-cmu-junsys-317", 
                    "object-type": "argument", 
                    "type": "arg1"
                }
            ], 
            "context": "inhibition of the G1", 
            "end-pos": {
                "context-end": "inhibition/1", 
                "object-type": "relative-pos", 
                "offset": 76, 
                "reference": "sent-PMC1804119-medscan-172"
            }, 
            "frame-id": "eve-PMC1804119-cmu-junsys-438", 
            "frame-type": "event-mention", 
            "object-meta": {
                "component": "Jun-System", 
                "object-type": "meta-info", 
                "organization": "CMU"
            }, 
            "object-type": "frame", 
            "sentence": "sent-PMC1804119-medscan-172", 
            "start-pos": {
                "context-start": "inhibition/1", 
                "object-type": "relative-pos", 
                "offset": 66, 
                "reference": "sent-PMC1804119-medscan-172"
            }, 
            "text": "inhibition", 
            "type": "inhibit"
        }, 
        {
            "arguments": [
                {
                    "arg": "ment-PMC1804119-cmu-junsys-319", 
                    "object-type": "argument", 
                    "type": "arg1"
                }
            ], 
            "context": "Rb phosphorylation", 
            "end-pos": {
                "context-end": "phosphorylation/1", 
                "object-type": "relative-pos", 
                "offset": 150, 
                "reference": "sent-PMC1804119-medscan-172"
            }, 
            "frame-id": "eve-PMC1804119-cmu-junsys-439", 
            "frame-type": "event-mention", 
            "object-meta": {
                "component": "Jun-System", 
                "object-type": "meta-info", 
                "organization": "CMU"
            }, 
            "object-type": "frame", 
            "sentence": "sent-PMC1804119-medscan-172", 
            "start-pos": {
                "context-start": "phosphorylation/1", 
                "object-type": "relative-pos", 
                "offset": 135, 
                "reference": "sent-PMC1804119-medscan-172"
            }, 
            "text": "phosphorylation", 
            "type": "phosphorylation"
        }, 
        {
            "arguments": [
                {
                    "arg": "ment-PMC1804119-cmu-junsys-322", 
                    "object-type": "argument", 
                    "type": "arg0"
                }, 
                {
                    "arg": "ment-PMC1804119-cmu-junsys-323", 
                    "object-type": "argument", 
                    "type": "arg1"
                }
            ], 
            "context": "which decreases the activities", 
            "end-pos": {
                "context-end": "decreases/1", 
                "object-type": "relative-pos", 
                "offset": 145, 
                "reference": "sent-PMC1804119-medscan-173"
            }, 
            "frame-id": "eve-PMC1804119-cmu-junsys-440", 
            "frame-type": "event-mention", 
            "object-meta": {
                "component": "Jun-System", 
                "object-type": "meta-info", 
                "organization": "CMU"
            }, 
            "object-type": "frame", 
            "sentence": "sent-PMC1804119-medscan-173", 
            "start-pos": {
                "context-start": "decreases/1", 
                "object-type": "relative-pos", 
                "offset": 136, 
                "reference": "sent-PMC1804119-medscan-173"
            }, 
            "text": "decreases", 
            "type": "decrease"
        }, 
        {
            "arguments": [
                {
                    "arg": "ment-PMC1804119-cmu-junsys-332", 
                    "object-type": "argument", 
                    "type": "arg1"
                }
            ], 
            "context": "Rb phosphorylation", 
            "end-pos": {
                "context-end": "phosphorylation/1", 
                "object-type": "relative-pos", 
                "offset": 146, 
                "reference": "sent-PMC1804119-medscan-176"
            }, 
            "frame-id": "eve-PMC1804119-cmu-junsys-441", 
            "frame-type": "event-mention", 
            "object-meta": {
                "component": "Jun-System", 
                "object-type": "meta-info", 
                "organization": "CMU"
            }, 
            "object-type": "frame", 
            "sentence": "sent-PMC1804119-medscan-176", 
            "start-pos": {
                "context-start": "phosphorylation/1", 
                "object-type": "relative-pos", 
                "offset": 131, 
                "reference": "sent-PMC1804119-medscan-176"
            }, 
            "text": "phosphorylation", 
            "type": "phosphorylation"
        }, 
        {
            "arguments": [], 
            "context": "promote the phosphorylation", 
            "end-pos": {
                "context-end": "promote/1", 
                "object-type": "relative-pos", 
                "offset": 109, 
                "reference": "sent-PMC1804119-medscan-178"
            }, 
            "frame-id": "eve-PMC1804119-cmu-junsys-442", 
            "frame-type": "event-mention", 
            "object-meta": {
                "component": "Jun-System", 
                "object-type": "meta-info", 
                "organization": "CMU"
            }, 
            "object-type": "frame", 
            "sentence": "sent-PMC1804119-medscan-178", 
            "start-pos": {
                "context-start": "promote/1", 
                "object-type": "relative-pos", 
                "offset": 102, 
                "reference": "sent-PMC1804119-medscan-178"
            }, 
            "text": "promote", 
            "type": "promote"
        }, 
        {
            "arguments": [
                {
                    "arg": "ment-PMC1804119-cmu-medscan-339", 
                    "object-type": "argument", 
                    "type": "arg1"
                }
            ], 
            "context": "phosphorylation of p53", 
            "end-pos": {
                "context-end": "phosphorylation/1", 
                "object-type": "relative-pos", 
                "offset": 129, 
                "reference": "sent-PMC1804119-medscan-178"
            }, 
            "frame-id": "eve-PMC1804119-cmu-junsys-443", 
            "frame-type": "event-mention", 
            "object-meta": {
                "component": "Jun-System", 
                "object-type": "meta-info", 
                "organization": "CMU"
            }, 
            "object-type": "frame", 
            "sentence": "sent-PMC1804119-medscan-178", 
            "start-pos": {
                "context-start": "phosphorylation/1", 
                "object-type": "relative-pos", 
                "offset": 114, 
                "reference": "sent-PMC1804119-medscan-178"
            }, 
            "text": "phosphorylation", 
            "type": "phosphorylation"
        }, 
        {
            "arguments": [
                {
                    "arg": "ment-PMC1804119-cmu-junsys-338", 
                    "object-type": "argument", 
                    "type": "arg0"
                }, 
                {
                    "arg": "ment-PMC1804119-cmu-junsys-341", 
                    "object-type": "argument", 
                    "type": "arg1"
                }
            ], 
            "context": "treatment could promote the phosphorylation of p53 in the DBTRG tumor cells and increase p53 expression", 
            "end-pos": {
                "context-end": "increase/1", 
                "object-type": "relative-pos", 
                "offset": 174, 
                "reference": "sent-PMC1804119-medscan-178"
            }, 
            "frame-id": "eve-PMC1804119-cmu-junsys-444", 
            "frame-type": "event-mention", 
            "object-meta": {
                "component": "Jun-System", 
                "object-type": "meta-info", 
                "organization": "CMU"
            }, 
            "object-type": "frame", 
            "sentence": "sent-PMC1804119-medscan-178", 
            "start-pos": {
                "context-start": "increase/1", 
                "object-type": "relative-pos", 
                "offset": 166, 
                "reference": "sent-PMC1804119-medscan-178"
            }, 
            "text": "increase", 
            "type": "increase"
        }, 
        {
            "arguments": [
                {
                    "arg": "ment-PMC1804119-cmu-medscan-344", 
                    "object-type": "argument", 
                    "type": "arg1"
                }
            ], 
            "context": "Mdm2 inhibition", 
            "end-pos": {
                "context-end": "inhibition/1", 
                "object-type": "relative-pos", 
                "offset": 73, 
                "reference": "sent-PMC1804119-medscan-179"
            }, 
            "frame-id": "eve-PMC1804119-cmu-junsys-445", 
            "frame-type": "event-mention", 
            "object-meta": {
                "component": "Jun-System", 
                "object-type": "meta-info", 
                "organization": "CMU"
            }, 
            "object-type": "frame", 
            "sentence": "sent-PMC1804119-medscan-179", 
            "start-pos": {
                "context-start": "inhibition/1", 
                "object-type": "relative-pos", 
                "offset": 63, 
                "reference": "sent-PMC1804119-medscan-179"
            }, 
            "text": "inhibition", 
            "type": "inhibit"
        }, 
        {
            "arguments": [
                {
                    "arg": "ment-PMC1804119-cmu-junsys-350", 
                    "object-type": "argument", 
                    "type": "arg1"
                }
            ], 
            "context": "inhibition of Bcl-2 transcription", 
            "end-pos": {
                "context-end": "inhibition/2", 
                "object-type": "relative-pos", 
                "offset": 180, 
                "reference": "sent-PMC1804119-medscan-179"
            }, 
            "frame-id": "eve-PMC1804119-cmu-junsys-446", 
            "frame-type": "event-mention", 
            "object-meta": {
                "component": "Jun-System", 
                "object-type": "meta-info", 
                "organization": "CMU"
            }, 
            "object-type": "frame", 
            "sentence": "sent-PMC1804119-medscan-179", 
            "start-pos": {
                "context-start": "inhibition/2", 
                "object-type": "relative-pos", 
                "offset": 170, 
                "reference": "sent-PMC1804119-medscan-179"
            }, 
            "text": "inhibition", 
            "type": "inhibit"
        }, 
        {
            "arguments": [
                {
                    "arg": "ment-PMC1804119-cmu-junsys-355", 
                    "object-type": "argument", 
                    "type": "arg1"
                }
            ], 
            "context": "procaspase 3 activation", 
            "end-pos": {
                "context-end": "activation/2", 
                "object-type": "relative-pos", 
                "offset": 210, 
                "reference": "sent-PMC1804119-medscan-183"
            }, 
            "frame-id": "eve-PMC1804119-cmu-junsys-447", 
            "frame-type": "event-mention", 
            "object-meta": {
                "component": "Jun-System", 
                "object-type": "meta-info", 
                "organization": "CMU"
            }, 
            "object-type": "frame", 
            "sentence": "sent-PMC1804119-medscan-183", 
            "start-pos": {
                "context-start": "activation/2", 
                "object-type": "relative-pos", 
                "offset": 200, 
                "reference": "sent-PMC1804119-medscan-183"
            }, 
            "text": "activation", 
            "type": "activate"
        }, 
        {
            "arguments": [
                {
                    "arg": "ment-PMC1804119-cmu-junsys-367", 
                    "object-type": "argument", 
                    "type": "arg1"
                }
            ], 
            "context": "activation of procaspase", 
            "end-pos": {
                "context-end": "activation/1", 
                "object-type": "relative-pos", 
                "offset": 105, 
                "reference": "sent-PMC1804119-medscan-183"
            }, 
            "frame-id": "eve-PMC1804119-cmu-junsys-448", 
            "frame-type": "event-mention", 
            "object-meta": {
                "component": "Jun-System", 
                "object-type": "meta-info", 
                "organization": "CMU"
            }, 
            "object-type": "frame", 
            "sentence": "sent-PMC1804119-medscan-183", 
            "start-pos": {
                "context-start": "activation/1", 
                "object-type": "relative-pos", 
                "offset": 95, 
                "reference": "sent-PMC1804119-medscan-183"
            }, 
            "text": "activation", 
            "type": "activate"
        }, 
        {
            "arguments": [], 
            "context": "promotes procaspase 3 activation", 
            "end-pos": {
                "context-end": "promotes/1", 
                "object-type": "relative-pos", 
                "offset": 186, 
                "reference": "sent-PMC1804119-medscan-183"
            }, 
            "frame-id": "eve-PMC1804119-cmu-junsys-449", 
            "frame-type": "event-mention", 
            "object-meta": {
                "component": "Jun-System", 
                "object-type": "meta-info", 
                "organization": "CMU"
            }, 
            "object-type": "frame", 
            "sentence": "sent-PMC1804119-medscan-183", 
            "start-pos": {
                "context-start": "promotes/1", 
                "object-type": "relative-pos", 
                "offset": 178, 
                "reference": "sent-PMC1804119-medscan-183"
            }, 
            "text": "promotes", 
            "type": "promote"
        }, 
        {
            "arguments": [
                {
                    "arg": "ment-PMC1804119-cmu-junsys-370", 
                    "object-type": "argument", 
                    "type": "arg1"
                }
            ], 
            "context": "procaspase 3 activation", 
            "end-pos": {
                "context-end": "activation/2", 
                "object-type": "relative-pos", 
                "offset": 210, 
                "reference": "sent-PMC1804119-medscan-183"
            }, 
            "frame-id": "eve-PMC1804119-cmu-junsys-450", 
            "frame-type": "event-mention", 
            "object-meta": {
                "component": "Jun-System", 
                "object-type": "meta-info", 
                "organization": "CMU"
            }, 
            "object-type": "frame", 
            "sentence": "sent-PMC1804119-medscan-183", 
            "start-pos": {
                "context-start": "activation/2", 
                "object-type": "relative-pos", 
                "offset": 200, 
                "reference": "sent-PMC1804119-medscan-183"
            }, 
            "text": "activation", 
            "type": "activate"
        }, 
        {
            "arguments": [
                {
                    "arg": "ment-PMC1804119-cmu-junsys-377", 
                    "object-type": "argument", 
                    "type": "arg1"
                }
            ], 
            "context": "growth inhibition", 
            "end-pos": {
                "context-end": "inhibition/1", 
                "object-type": "relative-pos", 
                "offset": 56, 
                "reference": "sent-PMC1804119-medscan-187"
            }, 
            "frame-id": "eve-PMC1804119-cmu-junsys-451", 
            "frame-type": "event-mention", 
            "object-meta": {
                "component": "Jun-System", 
                "object-type": "meta-info", 
                "organization": "CMU"
            }, 
            "object-type": "frame", 
            "sentence": "sent-PMC1804119-medscan-187", 
            "start-pos": {
                "context-start": "inhibition/1", 
                "object-type": "relative-pos", 
                "offset": 46, 
                "reference": "sent-PMC1804119-medscan-187"
            }, 
            "text": "inhibition", 
            "type": "inhibit"
        }, 
        {
            "arguments": [
                {
                    "arg": "ment-PMC1804119-cmu-junsys-386", 
                    "object-type": "argument", 
                    "type": "arg1"
                }
            ], 
            "context": "regulation of Fas and Bax protein", 
            "end-pos": {
                "context-end": "regulation/1", 
                "object-type": "relative-pos", 
                "offset": 20, 
                "reference": "sent-PMC1804119-medscan-192"
            }, 
            "frame-id": "eve-PMC1804119-cmu-junsys-452", 
            "frame-type": "event-mention", 
            "object-meta": {
                "component": "Jun-System", 
                "object-type": "meta-info", 
                "organization": "CMU"
            }, 
            "object-type": "frame", 
            "sentence": "sent-PMC1804119-medscan-192", 
            "start-pos": {
                "context-start": "regulation/1", 
                "object-type": "relative-pos", 
                "offset": 10, 
                "reference": "sent-PMC1804119-medscan-192"
            }, 
            "text": "regulation", 
            "type": "regulate"
        }, 
        {
            "arguments": [], 
            "context": "activation of procaspase 9 and p27 induction", 
            "end-pos": {
                "context-end": "activation/1", 
                "object-type": "relative-pos", 
                "offset": 54, 
                "reference": "sent-PMC1804119-medscan-196"
            }, 
            "frame-id": "eve-PMC1804119-cmu-junsys-453", 
            "frame-type": "event-mention", 
            "object-meta": {
                "component": "Jun-System", 
                "object-type": "meta-info", 
                "organization": "CMU"
            }, 
            "object-type": "frame", 
            "sentence": "sent-PMC1804119-medscan-196", 
            "start-pos": {
                "context-start": "activation/1", 
                "object-type": "relative-pos", 
                "offset": 44, 
                "reference": "sent-PMC1804119-medscan-196"
            }, 
            "text": "activation", 
            "type": "activate"
        }, 
        {
            "arguments": [
                {
                    "arg": "ment-PMC1804119-cmu-junsys-401", 
                    "object-type": "argument", 
                    "type": "arg1"
                }
            ], 
            "context": "p27 induction", 
            "end-pos": {
                "context-end": "induction/1", 
                "object-type": "relative-pos", 
                "offset": 88, 
                "reference": "sent-PMC1804119-medscan-196"
            }, 
            "frame-id": "eve-PMC1804119-cmu-junsys-454", 
            "frame-type": "event-mention", 
            "object-meta": {
                "component": "Jun-System", 
                "object-type": "meta-info", 
                "organization": "CMU"
            }, 
            "object-type": "frame", 
            "sentence": "sent-PMC1804119-medscan-196", 
            "start-pos": {
                "context-start": "induction/1", 
                "object-type": "relative-pos", 
                "offset": 79, 
                "reference": "sent-PMC1804119-medscan-196"
            }, 
            "text": "induction", 
            "type": "induce"
        }, 
        {
            "arguments": [
                {
                    "arg": "ment-PMC1804119-cmu-junsys-404", 
                    "object-type": "argument", 
                    "type": "arg1"
                }
            ], 
            "context": "cell growth inhibition", 
            "end-pos": {
                "object-type": "relative-pos", 
                "offset": -1, 
                "reference": "NOT LINKED"
            }, 
            "frame-id": "eve-PMC1804119-cmu-junsys-455", 
            "frame-type": "event-mention", 
            "object-meta": {
                "component": "Jun-System", 
                "object-type": "meta-info", 
                "organization": "CMU"
            }, 
            "object-type": "frame", 
            "sentence": "NOT LINKED", 
            "start-pos": {
                "object-type": "relative-pos", 
                "offset": -1, 
                "reference": "NOT LINKED"
            }, 
            "text": "inhibition", 
            "type": "inhibit"
        }, 
        {
            "arguments": [
                {
                    "arg": "ment-PMC1804119-cmu-junsys-407", 
                    "object-type": "argument", 
                    "type": "arg1"
                }
            ], 
            "context": "caspase-9 and p27 activation", 
            "end-pos": {
                "context-end": "activation/1", 
                "object-type": "relative-pos", 
                "offset": 80, 
                "reference": "sent-PMC1804119-medscan-199"
            }, 
            "frame-id": "eve-PMC1804119-cmu-junsys-456", 
            "frame-type": "event-mention", 
            "object-meta": {
                "component": "Jun-System", 
                "object-type": "meta-info", 
                "organization": "CMU"
            }, 
            "object-type": "frame", 
            "sentence": "sent-PMC1804119-medscan-199", 
            "start-pos": {
                "context-start": "activation/1", 
                "object-type": "relative-pos", 
                "offset": 70, 
                "reference": "sent-PMC1804119-medscan-199"
            }, 
            "text": "activation", 
            "type": "activate"
        }, 
        {
            "arguments": [
                {
                    "arg": "ment-PMC1804119-cmu-junsys-416", 
                    "object-type": "argument", 
                    "type": "arg1"
                }
            ], 
            "context": "tumor inhibition", 
            "end-pos": {
                "object-type": "relative-pos", 
                "offset": -1, 
                "reference": "NOT LINKED"
            }, 
            "frame-id": "eve-PMC1804119-cmu-junsys-457", 
            "frame-type": "event-mention", 
            "object-meta": {
                "component": "Jun-System", 
                "object-type": "meta-info", 
                "organization": "CMU"
            }, 
            "object-type": "frame", 
            "sentence": "NOT LINKED", 
            "start-pos": {
                "object-type": "relative-pos", 
                "offset": -1, 
                "reference": "NOT LINKED"
            }, 
            "text": "inhibition", 
            "type": "inhibit"
        }, 
        {
            "arguments": [
                {
                    "arg": "ment-PMC1804119-cmu-junsys-419", 
                    "object-type": "argument", 
                    "type": "arg1"
                }
            ], 
            "context": "regulation of brain cancer cells", 
            "end-pos": {
                "object-type": "relative-pos", 
                "offset": -1, 
                "reference": "NOT LINKED"
            }, 
            "frame-id": "eve-PMC1804119-cmu-junsys-458", 
            "frame-type": "event-mention", 
            "object-meta": {
                "component": "Jun-System", 
                "object-type": "meta-info", 
                "organization": "CMU"
            }, 
            "object-type": "frame", 
            "sentence": "NOT LINKED", 
            "start-pos": {
                "object-type": "relative-pos", 
                "offset": -1, 
                "reference": "NOT LINKED"
            }, 
            "text": "regulation", 
            "type": "regulate"
        }, 
        {
            "frame-id": "ent-PMC1804119-cmu-junsys-460", 
            "frame-type": "entity", 
            "members": [
                "ment-PMC1804119-cmu-junsys-0", 
                "ment-PMC1804119-cmu-junsys-1"
            ], 
            "object-meta": {
                "component": "Jun-System", 
                "object-type": "meta-info", 
                "organization": "CMU"
            }, 
            "object-type": "frame"
        }, 
        {
            "frame-id": "ent-PMC1804119-cmu-junsys-461", 
            "frame-type": "entity", 
            "members": [
                "ment-PMC1804119-cmu-junsys-84", 
                "ment-PMC1804119-cmu-junsys-85"
            ], 
            "object-meta": {
                "component": "Jun-System", 
                "object-type": "meta-info", 
                "organization": "CMU"
            }, 
            "object-type": "frame"
        }, 
        {
            "frame-id": "ent-PMC1804119-cmu-junsys-462", 
            "frame-type": "entity", 
            "members": [
                "ment-PMC1804119-cmu-junsys-91", 
                "ment-PMC1804119-cmu-junsys-92"
            ], 
            "object-meta": {
                "component": "Jun-System", 
                "object-type": "meta-info", 
                "organization": "CMU"
            }, 
            "object-type": "frame"
        }, 
        {
            "frame-id": "ent-PMC1804119-cmu-junsys-463", 
            "frame-type": "entity", 
            "members": [
                "ment-PMC1804119-cmu-junsys-208", 
                "ment-PMC1804119-cmu-junsys-209"
            ], 
            "object-meta": {
                "component": "Jun-System", 
                "object-type": "meta-info", 
                "organization": "CMU"
            }, 
            "object-type": "frame"
        }, 
        {
            "frame-id": "ent-PMC1804119-cmu-junsys-464", 
            "frame-type": "entity", 
            "members": [
                "ment-PMC1804119-cmu-junsys-321", 
                "ment-PMC1804119-cmu-junsys-322"
            ], 
            "object-meta": {
                "component": "Jun-System", 
                "object-type": "meta-info", 
                "organization": "CMU"
            }, 
            "object-type": "frame"
        }, 
        {
            "frame-id": "ent-PMC1804119-cmu-junsys-465", 
            "frame-type": "entity", 
            "members": [
                "ment-PMC1804119-cmu-junsys-327", 
                "ment-PMC1804119-cmu-junsys-328"
            ], 
            "object-meta": {
                "component": "Jun-System", 
                "object-type": "meta-info", 
                "organization": "CMU"
            }, 
            "object-type": "frame"
        }, 
        {
            "frame-id": "ent-PMC1804119-cmu-junsys-466", 
            "frame-type": "entity", 
            "members": [
                "ment-PMC1804119-cmu-junsys-341", 
                "ment-PMC1804119-cmu-junsys-342"
            ], 
            "object-meta": {
                "component": "Jun-System", 
                "object-type": "meta-info", 
                "organization": "CMU"
            }, 
            "object-type": "frame"
        }, 
        {
            "frame-id": "ent-PMC1804119-cmu-junsys-467", 
            "frame-type": "entity", 
            "members": [
                "ment-PMC1804119-cmu-junsys-345", 
                "ment-PMC1804119-cmu-junsys-346"
            ], 
            "object-meta": {
                "component": "Jun-System", 
                "object-type": "meta-info", 
                "organization": "CMU"
            }, 
            "object-type": "frame"
        }, 
        {
            "frame-id": "ent-PMC1804119-cmu-junsys-468", 
            "frame-type": "entity", 
            "members": [
                "ment-PMC1804119-cmu-junsys-365", 
                "ment-PMC1804119-cmu-junsys-366"
            ], 
            "object-meta": {
                "component": "Jun-System", 
                "object-type": "meta-info", 
                "organization": "CMU"
            }, 
            "object-type": "frame"
        }
    ], 
    "object-meta": {
        "component": "Jun-System", 
        "component-type": "machine", 
        "doc-id": "PMC1804119", 
        "object-type": "meta-info", 
        "organization": "CMU"
    }, 
    "object-type": "frame-collection"
}
