{
    "frames": [
        {
            "frame-id": "sent-PMC2856675-cmu-0", 
            "frame-type": "sentence", 
            "object-type": "frame", 
            "start-pos": {
                "object-type": "absolute-pos", 
                "offset": 0
            }, 
            "text": "XML Paper ( id '2856675 ' ) : 'Selective Estrogen Receptor Down-Regulator and Selective Estrogen Receptor Modulators Differentially Regulate Lactotroph Proliferation '"
        }, 
        {
            "frame-id": "sent-PMC2856675-cmu-1", 
            "frame-type": "sentence", 
            "object-type": "frame", 
            "start-pos": {
                "object-type": "absolute-pos", 
                "offset": 1
            }, 
            "text": "Introduction"
        }, 
        {
            "frame-id": "sent-PMC2856675-cmu-2", 
            "frame-type": "sentence", 
            "object-type": "frame", 
            "start-pos": {
                "object-type": "absolute-pos", 
                "offset": 2
            }, 
            "text": "Drugs that block estrogen receptor ( ER ) activation/function are categorized as anti-estrogens ."
        }, 
        {
            "frame-id": "sent-PMC2856675-cmu-3", 
            "frame-type": "sentence", 
            "object-type": "frame", 
            "start-pos": {
                "object-type": "absolute-pos", 
                "offset": 3
            }, 
            "text": "Within this class of pharmacological agents are the selective ER modulators ( SERMs ) exemplified by tamoxifene ( Tam ) and raloxifene ( Ral ) , selective ER downregulators , ( SERDs ) exemplified by ICI 182780 ( ICI ) , and aromatase inhibitors , which inhibit the conversion of androgens to estrogens and block ER activation ."
        }, 
        {
            "frame-id": "sent-PMC2856675-cmu-4", 
            "frame-type": "sentence", 
            "object-type": "frame", 
            "start-pos": {
                "object-type": "absolute-pos", 
                "offset": 4
            }, 
            "text": "Since ICI is deprived of any estrogenic activity [ 1 ] it is considered a \u201cpure\u201d anti-estrogen ."
        }, 
        {
            "frame-id": "sent-PMC2856675-cmu-5", 
            "frame-type": "sentence", 
            "object-type": "frame", 
            "start-pos": {
                "object-type": "absolute-pos", 
                "offset": 5
            }, 
            "text": "Several mechanisms have been proposed to characterize ICI-mediated ER antagonism ."
        }, 
        {
            "frame-id": "sent-PMC2856675-cmu-6", 
            "frame-type": "sentence", 
            "object-type": "frame", 
            "start-pos": {
                "object-type": "absolute-pos", 
                "offset": 6
            }, 
            "text": "These include competition with ligand binding to the ER , inhibition of transactivation domains ( AF-1 and AF-2 ) , prevention of ER dimerization and nuclear localization [ 2 ] , [ 3 ] , and downregulation of ER [ 4 ] ."
        }, 
        {
            "frame-id": "sent-PMC2856675-cmu-7", 
            "frame-type": "sentence", 
            "object-type": "frame", 
            "start-pos": {
                "object-type": "absolute-pos", 
                "offset": 7
            }, 
            "text": "Furthermore , both ER\u03b1- and ER\u03b2-mediated transcription is inhibited by ICI , indicating that both receptor subtypes are targets of ICI [ 5 ] , [ 6 ] ."
        }, 
        {
            "frame-id": "sent-PMC2856675-cmu-8", 
            "frame-type": "sentence", 
            "object-type": "frame", 
            "start-pos": {
                "object-type": "absolute-pos", 
                "offset": 8
            }, 
            "text": "A response to estrogen is governed by ER availability ."
        }, 
        {
            "frame-id": "sent-PMC2856675-cmu-9", 
            "frame-type": "sentence", 
            "object-type": "frame", 
            "start-pos": {
                "object-type": "absolute-pos", 
                "offset": 9
            }, 
            "text": "Since the initial observation of a reduction of ER expression following exposure to E2 [ 7 ] , it is now well accepted that the ER protein is rapidly turned over by both agonist and antagonist and its half life is reduced from 24 hr to 3\u20135 hr in the presence of estrogen [ 8 ] , [ 9 ] ."
        }, 
        {
            "frame-id": "sent-PMC2856675-cmu-10", 
            "frame-type": "sentence", 
            "object-type": "frame", 
            "start-pos": {
                "object-type": "absolute-pos", 
                "offset": 10
            }, 
            "text": "This degradation of the ER is attributed to the processing of the ER via the ubiquitin-proteasomal pathway ."
        }, 
        {
            "frame-id": "sent-PMC2856675-cmu-11", 
            "frame-type": "sentence", 
            "object-type": "frame", 
            "start-pos": {
                "object-type": "absolute-pos", 
                "offset": 11
            }, 
            "text": "Blockade of estrogen-induced ER degradation reduces its transcriptional activity , suggesting that receptor processing is required for ER function [ 10 ] ."
        }, 
        {
            "frame-id": "sent-PMC2856675-cmu-12", 
            "frame-type": "sentence", 
            "object-type": "frame", 
            "start-pos": {
                "object-type": "absolute-pos", 
                "offset": 12
            }, 
            "text": "The ER is not unique in this respect as other members of the nuclear receptor super-family also require degradation by ubiquitin-proteasome for activation [ 11 ] , [ 12 ] ."
        }, 
        {
            "frame-id": "sent-PMC2856675-cmu-13", 
            "frame-type": "sentence", 
            "object-type": "frame", 
            "start-pos": {
                "object-type": "absolute-pos", 
                "offset": 13
            }, 
            "text": "To further support this hypothesis , several proteins ( UBC9 , RSP5/RPF1 , SUG1/TRIP1 and E6-AP ) that interact with the nuclear receptors belong to the ubiquitin-proteasome pathway [ 13 ] \u2013 [ 16 ] ."
        }, 
        {
            "frame-id": "sent-PMC2856675-cmu-14", 
            "frame-type": "sentence", 
            "object-type": "frame", 
            "start-pos": {
                "object-type": "absolute-pos", 
                "offset": 14
            }, 
            "text": "This suggests that agonist-mediated ER degradation , although required for transcriptional activation , could also be a mechanism by which the cell regulates its responses to estrogens ."
        }, 
        {
            "frame-id": "sent-PMC2856675-cmu-15", 
            "frame-type": "sentence", 
            "object-type": "frame", 
            "start-pos": {
                "object-type": "absolute-pos", 
                "offset": 15
            }, 
            "text": "The pure anti-estrogen ICI also rapidly degrades the ER via the ubiquitin-proteasome pathway and thus abolishes the estrogen responsiveness of target cells [ 4 ] , [ 10 ] ."
        }, 
        {
            "frame-id": "sent-PMC2856675-cmu-16", 
            "frame-type": "sentence", 
            "object-type": "frame", 
            "start-pos": {
                "object-type": "absolute-pos", 
                "offset": 16
            }, 
            "text": "Interestingly , tamoxifen stabilizes the ER by inhibiting receptor degradation [ 17 ] ."
        }, 
        {
            "frame-id": "sent-PMC2856675-cmu-17", 
            "frame-type": "sentence", 
            "object-type": "frame", 
            "start-pos": {
                "object-type": "absolute-pos", 
                "offset": 17
            }, 
            "text": "Taken together , these observations highlight the importance of regulating the ubiquitin-proteasome pathway , by both estrogen and anti-estrogens , as a critical process for governing ER availability , and ultimately its biological outcome ."
        }, 
        {
            "frame-id": "sent-PMC2856675-cmu-18", 
            "frame-type": "sentence", 
            "object-type": "frame", 
            "start-pos": {
                "object-type": "absolute-pos", 
                "offset": 18
            }, 
            "text": "Lactotrophs are a well established estrogen-responsive cell ."
        }, 
        {
            "frame-id": "sent-PMC2856675-cmu-19", 
            "frame-type": "sentence", 
            "object-type": "frame", 
            "start-pos": {
                "object-type": "absolute-pos", 
                "offset": 19
            }, 
            "text": "Both genomic and non-genomic effects of E2 have been reported in lactotrophs ."
        }, 
        {
            "frame-id": "sent-PMC2856675-cmu-20", 
            "frame-type": "sentence", 
            "object-type": "frame", 
            "start-pos": {
                "object-type": "absolute-pos", 
                "offset": 20
            }, 
            "text": "Previous reports showed that ICI suppressed cell proliferation and affected ER expression in GH3 and PR1 cells [ 18 ] , [ 19 ] ."
        }, 
        {
            "frame-id": "sent-PMC2856675-cmu-21", 
            "frame-type": "sentence", 
            "object-type": "frame", 
            "start-pos": {
                "object-type": "absolute-pos", 
                "offset": 21
            }, 
            "text": "We conducted a detailed comparison of the effects of ICI , tamoxifen and raloxifene , in the absence of exogenous E2 , on lactotroph proliferation and PRL production/release [ 20 ] ."
        }, 
        {
            "frame-id": "sent-PMC2856675-cmu-22", 
            "frame-type": "sentence", 
            "object-type": "frame", 
            "start-pos": {
                "object-type": "absolute-pos", 
                "offset": 22
            }, 
            "text": "We found that ICI , but not tamoxifen or raloxifene , at low doses inhibited lactotroph proliferation in an ER\u03b1-dependent manner ."
        }, 
        {
            "frame-id": "sent-PMC2856675-cmu-23", 
            "frame-type": "sentence", 
            "object-type": "frame", 
            "start-pos": {
                "object-type": "absolute-pos", 
                "offset": 23
            }, 
            "text": "The maintenance of basal intracellular PRL levels and PRL release were dependent on functional ER\u03b1 ."
        }, 
        {
            "frame-id": "sent-PMC2856675-cmu-24", 
            "frame-type": "sentence", 
            "object-type": "frame", 
            "start-pos": {
                "object-type": "absolute-pos", 
                "offset": 24
            }, 
            "text": "A striking observation of this study was the very rapid ( within 1 hr ) reduction in ER\u03b1 levels , but a significantly delayed reduction in ER\u03b2 levels , in response to ICI ."
        }, 
        {
            "frame-id": "sent-PMC2856675-cmu-25", 
            "frame-type": "sentence", 
            "object-type": "frame", 
            "start-pos": {
                "object-type": "absolute-pos", 
                "offset": 25
            }, 
            "text": "The anti-estrogens , tamoxifen and raloxifene , that were incapable of inhibiting lactotroph proliferation , did not downregulate ER\u03b1/\u03b2 [ 20 ] ."
        }, 
        {
            "frame-id": "sent-PMC2856675-cmu-26", 
            "frame-type": "sentence", 
            "object-type": "frame", 
            "start-pos": {
                "object-type": "absolute-pos", 
                "offset": 26
            }, 
            "text": "Our objectives in the present study were : first , to determine whether ICI-mediated ER\u03b1 degradation or antagonism was responsible for inhibiting lactotroph proliferation and PRL expression ."
        }, 
        {
            "frame-id": "sent-PMC2856675-cmu-27", 
            "frame-type": "sentence", 
            "object-type": "frame", 
            "start-pos": {
                "object-type": "absolute-pos", 
                "offset": 27
            }, 
            "text": "Second , to determine whether the disruption of ICI-mediated ER\u03b1 degradation reverses the growth inhibition in lactotrophs ."
        }, 
        {
            "frame-id": "sent-PMC2856675-cmu-28", 
            "frame-type": "sentence", 
            "object-type": "frame", 
            "start-pos": {
                "object-type": "absolute-pos", 
                "offset": 28
            }, 
            "text": "We report that in GH3 cells ER\u03b1 degradation sets in motion a signal cascade that culminates in the inhibition of cell proliferation , while occupation of ER\u03b1 by an antagonist is sufficient to inhibit prl expression and release ."
        }, 
        {
            "frame-id": "sent-PMC2856675-cmu-29", 
            "frame-type": "sentence", 
            "object-type": "frame", 
            "start-pos": {
                "object-type": "absolute-pos", 
                "offset": 29
            }, 
            "text": "Results"
        }, 
        {
            "frame-id": "sent-PMC2856675-cmu-30", 
            "frame-type": "sentence", 
            "object-type": "frame", 
            "start-pos": {
                "object-type": "absolute-pos", 
                "offset": 30
            }, 
            "text": "Differential effects of ER\u03b1 antagonists on lactotroph proliferation"
        }, 
        {
            "frame-id": "sent-PMC2856675-cmu-31", 
            "frame-type": "sentence", 
            "object-type": "frame", 
            "start-pos": {
                "object-type": "absolute-pos", 
                "offset": 31
            }, 
            "text": "We have recently reported that anti-estrogens had differential effects on lactotroph proliferation [ 20 ] ."
        }, 
        {
            "frame-id": "sent-PMC2856675-cmu-32", 
            "frame-type": "sentence", 
            "object-type": "frame", 
            "start-pos": {
                "object-type": "absolute-pos", 
                "offset": 32
            }, 
            "text": "While tamoxifen and raloxifene had no growth suppressive effects on lactotroph proliferation , the pure ER antagonist , ICI , had a potent growth suppressive effect ."
        }, 
        {
            "frame-id": "sent-PMC2856675-cmu-33", 
            "frame-type": "sentence", 
            "object-type": "frame", 
            "start-pos": {
                "object-type": "absolute-pos", 
                "offset": 33
            }, 
            "text": "We also found that the ability of ICI to suppress lactotroph proliferation was mediated through ER\u03b1 [ 20 ] ."
        }, 
        {
            "frame-id": "sent-PMC2856675-cmu-34", 
            "frame-type": "sentence", 
            "object-type": "frame", 
            "start-pos": {
                "object-type": "absolute-pos", 
                "offset": 34
            }, 
            "text": "In this study , we first questioned whether an ER\u03b1 specific antagonist mimics the effects of ICI on ER\u03b1 expression and lactotroph proliferation ."
        }, 
        {
            "frame-id": "sent-PMC2856675-cmu-35", 
            "frame-type": "sentence", 
            "object-type": "frame", 
            "start-pos": {
                "object-type": "absolute-pos", 
                "offset": 35
            }, 
            "text": "GH3 cells were treated with either vehicle , ICI ( 10 nM ) or the ER\u03b1 specific antagonist MPP ( 100 nM ) [ 21 ] , [ 22 ] , for 5 days , and equal amounts of cell lysates were subjected to western blotting with an anti-ER\u03b1 specific Ab ."
        }, 
        {
            "frame-id": "sent-PMC2856675-cmu-36", 
            "frame-type": "sentence", 
            "object-type": "frame", 
            "start-pos": {
                "object-type": "absolute-pos", 
                "offset": 36
            }, 
            "text": "Consistent with our previous report [ 20 ] , ICI caused a robust degradation of ER\u03b1 ."
        }, 
        {
            "frame-id": "sent-PMC2856675-cmu-37", 
            "frame-type": "sentence", 
            "object-type": "frame", 
            "start-pos": {
                "object-type": "absolute-pos", 
                "offset": 37
            }, 
            "text": "Unlike ICI , MPP had no significant effect on ER\u03b1 levels after 5 days ( Fig ."
        }, 
        {
            "frame-id": "sent-PMC2856675-cmu-38", 
            "frame-type": "sentence", 
            "object-type": "frame", 
            "start-pos": {
                "object-type": "absolute-pos", 
                "offset": 38
            }, 
            "text": "1A ) ."
        }, 
        {
            "frame-id": "sent-PMC2856675-cmu-39", 
            "frame-type": "sentence", 
            "object-type": "frame", 
            "start-pos": {
                "object-type": "absolute-pos", 
                "offset": 39
            }, 
            "text": "Next , we questioned whether the rapid downregulation of ER\u03b1 levels in GH3 cells by ICI is mediated through the ubiquitin-proteasome system ."
        }, 
        {
            "frame-id": "sent-PMC2856675-cmu-40", 
            "frame-type": "sentence", 
            "object-type": "frame", 
            "start-pos": {
                "object-type": "absolute-pos", 
                "offset": 40
            }, 
            "text": "Untreated GH3 cells , or cells pretreated with the broad spectrum proteasome inhibitor MG132 ( 10 \u00b5M , 1 hr ) , were incubated with either vehicle or 10 nM ICI for 1 hr , and equal amount of cell lysate was subjected to western blotting ."
        }, 
        {
            "frame-id": "sent-PMC2856675-cmu-41", 
            "frame-type": "sentence", 
            "object-type": "frame", 
            "start-pos": {
                "object-type": "absolute-pos", 
                "offset": 41
            }, 
            "text": "Fig ."
        }, 
        {
            "frame-id": "sent-PMC2856675-cmu-42", 
            "frame-type": "sentence", 
            "object-type": "frame", 
            "start-pos": {
                "object-type": "absolute-pos", 
                "offset": 42
            }, 
            "text": "1B shows that in the absence of MG132 , ICI induced a potent ER\u03b1 degradation , and this was significantly reversed in the presence of MG132 ."
        }, 
        {
            "frame-id": "sent-PMC2856675-cmu-43", 
            "frame-type": "sentence", 
            "object-type": "frame", 
            "start-pos": {
                "object-type": "absolute-pos", 
                "offset": 43
            }, 
            "text": "Together , these results suggest that ICI induced degradation of ER\u03b1 could be the underlying mechanism for growth suppression ."
        }, 
        {
            "frame-id": "sent-PMC2856675-cmu-44", 
            "frame-type": "sentence", 
            "object-type": "frame", 
            "start-pos": {
                "object-type": "absolute-pos", 
                "offset": 44
            }, 
            "text": "We next compared the ability of ICI and MPP to suppress GH3 cell proliferation ."
        }, 
        {
            "frame-id": "sent-PMC2856675-cmu-45", 
            "frame-type": "sentence", 
            "object-type": "frame", 
            "start-pos": {
                "object-type": "absolute-pos", 
                "offset": 45
            }, 
            "text": "GH3 cells were treated with either vehicle or the indicated concentrations of ICI or MPP , and cell proliferation was determined after 5 days ."
        }, 
        {
            "frame-id": "sent-PMC2856675-cmu-46", 
            "frame-type": "sentence", 
            "object-type": "frame", 
            "start-pos": {
                "object-type": "absolute-pos", 
                "offset": 46
            }, 
            "text": "Fig ."
        }, 
        {
            "frame-id": "sent-PMC2856675-cmu-47", 
            "frame-type": "sentence", 
            "object-type": "frame", 
            "start-pos": {
                "object-type": "absolute-pos", 
                "offset": 47
            }, 
            "text": "1C clearly demonstrates that consistent with our previous report , ICI inhibits GH3 cell proliferation with a maximal inhibitory effect seen at concentrations as low as 1 nM ."
        }, 
        {
            "frame-id": "sent-PMC2856675-cmu-48", 
            "frame-type": "sentence", 
            "object-type": "frame", 
            "start-pos": {
                "object-type": "absolute-pos", 
                "offset": 48
            }, 
            "text": "Conversely , MPP at all tested concentrations had no significant effect on GH3 cell proliferation ."
        }, 
        {
            "frame-id": "sent-PMC2856675-cmu-49", 
            "frame-type": "sentence", 
            "object-type": "frame", 
            "start-pos": {
                "object-type": "absolute-pos", 
                "offset": 49
            }, 
            "text": "Since both MPP and ICI competitively inhibit E2 binding to ER , we questioned whether pretreatment of GH3 cells with MPP would prevent ICI binding to ER\u03b1 , thereby blocking its effects ."
        }, 
        {
            "frame-id": "sent-PMC2856675-cmu-50", 
            "frame-type": "sentence", 
            "object-type": "frame", 
            "start-pos": {
                "object-type": "absolute-pos", 
                "offset": 50
            }, 
            "text": "To address this , we pretreated GH3 cells with excess MPP ( 100 nM for 1 hr ) and then tested the ability of ICI ( 1 and 10 nM ) to inhibit cell proliferation ."
        }, 
        {
            "frame-id": "sent-PMC2856675-cmu-51", 
            "frame-type": "sentence", 
            "object-type": "frame", 
            "start-pos": {
                "object-type": "absolute-pos", 
                "offset": 51
            }, 
            "text": "Our results demonstrate ( Fig ."
        }, 
        {
            "frame-id": "sent-PMC2856675-cmu-52", 
            "frame-type": "sentence", 
            "object-type": "frame", 
            "start-pos": {
                "object-type": "absolute-pos", 
                "offset": 52
            }, 
            "text": "1D ) that , pretreatment of GH3 cells with MPP , reversed the inhibitory effect of ICI on cell proliferation ."
        }, 
        {
            "frame-id": "sent-PMC2856675-cmu-53", 
            "frame-type": "sentence", 
            "object-type": "frame", 
            "start-pos": {
                "object-type": "absolute-pos", 
                "offset": 53
            }, 
            "text": "ICI 182780 but not MPP inhibits anchorage independent growth of GH3 cells"
        }, 
        {
            "frame-id": "sent-PMC2856675-cmu-54", 
            "frame-type": "sentence", 
            "object-type": "frame", 
            "start-pos": {
                "object-type": "absolute-pos", 
                "offset": 54
            }, 
            "text": "We next compared the effects of the ER\u03b1 antagonists on the anchorage independent growth of GH3 cells ."
        }, 
        {
            "frame-id": "sent-PMC2856675-cmu-55", 
            "frame-type": "sentence", 
            "object-type": "frame", 
            "start-pos": {
                "object-type": "absolute-pos", 
                "offset": 55
            }, 
            "text": "Our results demonstrate that GH3 cells have a robust capability to form colonies in soft agar , and this was significantly decreased by ICI ( Control 100 % vs ICI 20.9 % ) whereas MPP had no effect on anchorage independent growth of GH3 cells ( Fig ."
        }, 
        {
            "frame-id": "sent-PMC2856675-cmu-56", 
            "frame-type": "sentence", 
            "object-type": "frame", 
            "start-pos": {
                "object-type": "absolute-pos", 
                "offset": 56
            }, 
            "text": "2A and B ) ."
        }, 
        {
            "frame-id": "sent-PMC2856675-cmu-57", 
            "frame-type": "sentence", 
            "object-type": "frame", 
            "start-pos": {
                "object-type": "absolute-pos", 
                "offset": 57
            }, 
            "text": "The effects of the anti-estrogens in the anchorage independent growth assays were similar to those observed in clonogenic assays with GH3 cells ( data not shown ) ."
        }, 
        {
            "frame-id": "sent-PMC2856675-cmu-58", 
            "frame-type": "sentence", 
            "object-type": "frame", 
            "start-pos": {
                "object-type": "absolute-pos", 
                "offset": 58
            }, 
            "text": "Both ICI 182780 and MPP are effective at inhibiting PRL expression as well as suppressing ERE activity"
        }, 
        {
            "frame-id": "sent-PMC2856675-cmu-59", 
            "frame-type": "sentence", 
            "object-type": "frame", 
            "start-pos": {
                "object-type": "absolute-pos", 
                "offset": 59
            }, 
            "text": "We next examined whether occupation of ER\u03b1 by an antagonist or ER\u03b1 degradation , are required for inhibiting PRL production and release ."
        }, 
        {
            "frame-id": "sent-PMC2856675-cmu-60", 
            "frame-type": "sentence", 
            "object-type": "frame", 
            "start-pos": {
                "object-type": "absolute-pos", 
                "offset": 60
            }, 
            "text": "We first examined the intracellular levels of PRL in GH3 cells treated with ICI ( 10 nM ) , MPP ( 100 nM ) or preincubated with MPP for 1 hr , followed by ICI treatment ."
        }, 
        {
            "frame-id": "sent-PMC2856675-cmu-61", 
            "frame-type": "sentence", 
            "object-type": "frame", 
            "start-pos": {
                "object-type": "absolute-pos", 
                "offset": 61
            }, 
            "text": "Intracellular PRL levels were determined in cell lysates by western blotting with an anti-PRL Ab ."
        }, 
        {
            "frame-id": "sent-PMC2856675-cmu-62", 
            "frame-type": "sentence", 
            "object-type": "frame", 
            "start-pos": {
                "object-type": "absolute-pos", 
                "offset": 62
            }, 
            "text": "Fig ."
        }, 
        {
            "frame-id": "sent-PMC2856675-cmu-63", 
            "frame-type": "sentence", 
            "object-type": "frame", 
            "start-pos": {
                "object-type": "absolute-pos", 
                "offset": 63
            }, 
            "text": "3A shows that both ICI and MPP markedly decreased intracellular PRL levels ."
        }, 
        {
            "frame-id": "sent-PMC2856675-cmu-64", 
            "frame-type": "sentence", 
            "object-type": "frame", 
            "start-pos": {
                "object-type": "absolute-pos", 
                "offset": 64
            }, 
            "text": "Pretreatment with MPP did not block the ICI-induced decrease in intracellular PRL , and did not have an additive effect ."
        }, 
        {
            "frame-id": "sent-PMC2856675-cmu-65", 
            "frame-type": "sentence", 
            "object-type": "frame", 
            "start-pos": {
                "object-type": "absolute-pos", 
                "offset": 65
            }, 
            "text": "To further confirm the suppressive effects of anti-estrogens on intracellular PRL levels , we used a reporter assay to examine the effects of ICI and MPP on prl expression ."
        }, 
        {
            "frame-id": "sent-PMC2856675-cmu-66", 
            "frame-type": "sentence", 
            "object-type": "frame", 
            "start-pos": {
                "object-type": "absolute-pos", 
                "offset": 66
            }, 
            "text": "As evident in Fig ."
        }, 
        {
            "frame-id": "sent-PMC2856675-cmu-67", 
            "frame-type": "sentence", 
            "object-type": "frame", 
            "start-pos": {
                "object-type": "absolute-pos", 
                "offset": 67
            }, 
            "text": "3B , both ICI and MPP suppressed PRL/Luc activity ."
        }, 
        {
            "frame-id": "sent-PMC2856675-cmu-68", 
            "frame-type": "sentence", 
            "object-type": "frame", 
            "start-pos": {
                "object-type": "absolute-pos", 
                "offset": 68
            }, 
            "text": "We next examined the effects of the anti-estrogens on PRL release from GH3 cells ."
        }, 
        {
            "frame-id": "sent-PMC2856675-cmu-69", 
            "frame-type": "sentence", 
            "object-type": "frame", 
            "start-pos": {
                "object-type": "absolute-pos", 
                "offset": 69
            }, 
            "text": "GH3 cells were treated with ICI ( 10 nM ) , MPP ( 100 nM ) , or pretreated with MPP ( for 1 hr ) followed by ICI ."
        }, 
        {
            "frame-id": "sent-PMC2856675-cmu-70", 
            "frame-type": "sentence", 
            "object-type": "frame", 
            "start-pos": {
                "object-type": "absolute-pos", 
                "offset": 70
            }, 
            "text": "After 48 hrs , PRL released into the CM was determined by the sensitive Nb2 bioassay ."
        }, 
        {
            "frame-id": "sent-PMC2856675-cmu-71", 
            "frame-type": "sentence", 
            "object-type": "frame", 
            "start-pos": {
                "object-type": "absolute-pos", 
                "offset": 71
            }, 
            "text": "( Fig ."
        }, 
        {
            "frame-id": "sent-PMC2856675-cmu-72", 
            "frame-type": "sentence", 
            "object-type": "frame", 
            "start-pos": {
                "object-type": "absolute-pos", 
                "offset": 72
            }, 
            "text": "3C ) clearly shows that both ICI and MPP independently inhibit PRL release from GH3 cells ."
        }, 
        {
            "frame-id": "sent-PMC2856675-cmu-73", 
            "frame-type": "sentence", 
            "object-type": "frame", 
            "start-pos": {
                "object-type": "absolute-pos", 
                "offset": 73
            }, 
            "text": "Pretreatment with MPP did not lead to blockade or augmentation of the inhibitory effects of ICI on PRL release ."
        }, 
        {
            "frame-id": "sent-PMC2856675-cmu-74", 
            "frame-type": "sentence", 
            "object-type": "frame", 
            "start-pos": {
                "object-type": "absolute-pos", 
                "offset": 74
            }, 
            "text": "We have previously shown that the presence of ICI in the CM , at the dilutions used in the Nb2 assay , does not directly affect the proliferation of Nb2 cells [ 20 ] ."
        }, 
        {
            "frame-id": "sent-PMC2856675-cmu-75", 
            "frame-type": "sentence", 
            "object-type": "frame", 
            "start-pos": {
                "object-type": "absolute-pos", 
                "offset": 75
            }, 
            "text": "To verify that the observed MPP-induced decrease in PRL released ( Fig ."
        }, 
        {
            "frame-id": "sent-PMC2856675-cmu-76", 
            "frame-type": "sentence", 
            "object-type": "frame", 
            "start-pos": {
                "object-type": "absolute-pos", 
                "offset": 76
            }, 
            "text": "3C ) was not due to its direct effect on Nb2 cells , we examined the responsiveness of Nb2 cells to rat PRL in the presence and absence of MPP ."
        }, 
        {
            "frame-id": "sent-PMC2856675-cmu-77", 
            "frame-type": "sentence", 
            "object-type": "frame", 
            "start-pos": {
                "object-type": "absolute-pos", 
                "offset": 77
            }, 
            "text": "Our results ( Fig ."
        }, 
        {
            "frame-id": "sent-PMC2856675-cmu-78", 
            "frame-type": "sentence", 
            "object-type": "frame", 
            "start-pos": {
                "object-type": "absolute-pos", 
                "offset": 78
            }, 
            "text": "3D ) show MPP had no significant effect on Nb2 cell proliferation in response to PRL ."
        }, 
        {
            "frame-id": "sent-PMC2856675-cmu-79", 
            "frame-type": "sentence", 
            "object-type": "frame", 
            "start-pos": {
                "object-type": "absolute-pos", 
                "offset": 79
            }, 
            "text": "Since both ICI and MPP suppressed prl expression , we next questioned whether either compound suppresses ERE-mediated transcriptional activity ."
        }, 
        {
            "frame-id": "sent-PMC2856675-cmu-80", 
            "frame-type": "sentence", 
            "object-type": "frame", 
            "start-pos": {
                "object-type": "absolute-pos", 
                "offset": 80
            }, 
            "text": "For that , GH3 cells were transfected with ERE-Luc reporter plasmid , and the ability of ICI and MPP to suppress ERE transcriptional activity were evaluated ."
        }, 
        {
            "frame-id": "sent-PMC2856675-cmu-81", 
            "frame-type": "sentence", 
            "object-type": "frame", 
            "start-pos": {
                "object-type": "absolute-pos", 
                "offset": 81
            }, 
            "text": "Fig ."
        }, 
        {
            "frame-id": "sent-PMC2856675-cmu-82", 
            "frame-type": "sentence", 
            "object-type": "frame", 
            "start-pos": {
                "object-type": "absolute-pos", 
                "offset": 82
            }, 
            "text": "4 demonstrates that Both ICI and MPP suppress ERE transcriptional activity in a dose dependent manner , with a significant ( p < 0.05 ) suppression seen with 0.1 nM of ICI and 1 nM of MPP ."
        }, 
        {
            "frame-id": "sent-PMC2856675-cmu-83", 
            "frame-type": "sentence", 
            "object-type": "frame", 
            "start-pos": {
                "object-type": "absolute-pos", 
                "offset": 83
            }, 
            "text": "At the 10 nM concentration , both ICI ( 89.4 % inhibition ) and MPP ( 75 % inhibition ) robustly suppressed ERE activity ."
        }, 
        {
            "frame-id": "sent-PMC2856675-cmu-84", 
            "frame-type": "sentence", 
            "object-type": "frame", 
            "start-pos": {
                "object-type": "absolute-pos", 
                "offset": 84
            }, 
            "text": "Discussion"
        }, 
        {
            "frame-id": "sent-PMC2856675-cmu-85", 
            "frame-type": "sentence", 
            "object-type": "frame", 
            "start-pos": {
                "object-type": "absolute-pos", 
                "offset": 85
            }, 
            "text": "Work from our laboratory as well as others have established a role for ER in mediating lactotroph proliferation and PRL expression , both in the presence and absence of E2 ."
        }, 
        {
            "frame-id": "sent-PMC2856675-cmu-86", 
            "frame-type": "sentence", 
            "object-type": "frame", 
            "start-pos": {
                "object-type": "absolute-pos", 
                "offset": 86
            }, 
            "text": "We have previously shown that , even in the absence of E2 , the \u201cpure\u201d anti-estrogen ICI caused a rapid and robust degradation of ER\u03b1 , leading to inhibition of cell proliferation ."
        }, 
        {
            "frame-id": "sent-PMC2856675-cmu-87", 
            "frame-type": "sentence", 
            "object-type": "frame", 
            "start-pos": {
                "object-type": "absolute-pos", 
                "offset": 87
            }, 
            "text": "We also demonstrated that although Tam and Ral failed to significantly inhibit lactotroph proliferation , like ICI , they are potent inhibitors of PRL release from GH3 cells [ 20 ] ."
        }, 
        {
            "frame-id": "sent-PMC2856675-cmu-88", 
            "frame-type": "sentence", 
            "object-type": "frame", 
            "start-pos": {
                "object-type": "absolute-pos", 
                "offset": 88
            }, 
            "text": "These studies lead us to hypothesize that differential biological outcomes can be expected , depending upon the ability of the anti-estrogen to degrade ER\u03b1 ."
        }, 
        {
            "frame-id": "sent-PMC2856675-cmu-89", 
            "frame-type": "sentence", 
            "object-type": "frame", 
            "start-pos": {
                "object-type": "absolute-pos", 
                "offset": 89
            }, 
            "text": "Our results show that ICI induces proteasome-mediated degradation of ER\u03b1 in GH3 cells which was reversed by the broad spectrum proteasome inhibitor MG132 ( Fig ."
        }, 
        {
            "frame-id": "sent-PMC2856675-cmu-90", 
            "frame-type": "sentence", 
            "object-type": "frame", 
            "start-pos": {
                "object-type": "absolute-pos", 
                "offset": 90
            }, 
            "text": "1 ) ."
        }, 
        {
            "frame-id": "sent-PMC2856675-cmu-91", 
            "frame-type": "sentence", 
            "object-type": "frame", 
            "start-pos": {
                "object-type": "absolute-pos", 
                "offset": 91
            }, 
            "text": "The ability of ICI to degrade ER via the proteasome is consistent with previous reports in a variety of cell types [ 2 ] , [ 4 ] ."
        }, 
        {
            "frame-id": "sent-PMC2856675-cmu-92", 
            "frame-type": "sentence", 
            "object-type": "frame", 
            "start-pos": {
                "object-type": "absolute-pos", 
                "offset": 92
            }, 
            "text": "We next questioned whether preventing ICI-induced ER\u03b1 degradation limits its growth inhibitory effect on GH3 cells ."
        }, 
        {
            "frame-id": "sent-PMC2856675-cmu-93", 
            "frame-type": "sentence", 
            "object-type": "frame", 
            "start-pos": {
                "object-type": "absolute-pos", 
                "offset": 93
            }, 
            "text": "A simple approach would have been to block the ICI-induced ER\u03b1 degradation with MG132 ( Fig ."
        }, 
        {
            "frame-id": "sent-PMC2856675-cmu-94", 
            "frame-type": "sentence", 
            "object-type": "frame", 
            "start-pos": {
                "object-type": "absolute-pos", 
                "offset": 94
            }, 
            "text": "1 ) , and then assess its effect on cell proliferation ."
        }, 
        {
            "frame-id": "sent-PMC2856675-cmu-95", 
            "frame-type": "sentence", 
            "object-type": "frame", 
            "start-pos": {
                "object-type": "absolute-pos", 
                "offset": 95
            }, 
            "text": "However , we ( data not shown ) and others have shown that prolonged use of proteasome inhibitors results in apoptosis in lactotrophs [ 23 ] ."
        }, 
        {
            "frame-id": "sent-PMC2856675-cmu-96", 
            "frame-type": "sentence", 
            "object-type": "frame", 
            "start-pos": {
                "object-type": "absolute-pos", 
                "offset": 96
            }, 
            "text": "We further explored this issue by comparing the effects of MPP , a highly specific ER\u03b1 antagonist that does not degrade ER\u03b1 [ 21 ] , [ 22 ] ."
        }, 
        {
            "frame-id": "sent-PMC2856675-cmu-97", 
            "frame-type": "sentence", 
            "object-type": "frame", 
            "start-pos": {
                "object-type": "absolute-pos", 
                "offset": 97
            }, 
            "text": "Unlike ICI , which has a rapid and robust effect on ER\u03b1 degradation , MPP had no effect on ER\u03b1 degradation ."
        }, 
        {
            "frame-id": "sent-PMC2856675-cmu-98", 
            "frame-type": "sentence", 
            "object-type": "frame", 
            "start-pos": {
                "object-type": "absolute-pos", 
                "offset": 98
            }, 
            "text": "Compared to ICI , MPP by itself was ineffective at inhibiting GH3 cell proliferation ."
        }, 
        {
            "frame-id": "sent-PMC2856675-cmu-99", 
            "frame-type": "sentence", 
            "object-type": "frame", 
            "start-pos": {
                "object-type": "absolute-pos", 
                "offset": 99
            }, 
            "text": "Supporting the above conclusion were the results of the anchorage-independent growth assay as well as clonogenic property of GH3 cells ."
        }, 
        {
            "frame-id": "sent-PMC2856675-cmu-100", 
            "frame-type": "sentence", 
            "object-type": "frame", 
            "start-pos": {
                "object-type": "absolute-pos", 
                "offset": 100
            }, 
            "text": "While ICI completely blocked colony formation , MPP had no significant effect ."
        }, 
        {
            "frame-id": "sent-PMC2856675-cmu-101", 
            "frame-type": "sentence", 
            "object-type": "frame", 
            "start-pos": {
                "object-type": "absolute-pos", 
                "offset": 101
            }, 
            "text": "In addition , preincubation of GH3 cells with 10-fold excess MPP , blocks ICI-induced inhibition of cell proliferation ( Fig ."
        }, 
        {
            "frame-id": "sent-PMC2856675-cmu-102", 
            "frame-type": "sentence", 
            "object-type": "frame", 
            "start-pos": {
                "object-type": "absolute-pos", 
                "offset": 102
            }, 
            "text": "1D ) ."
        }, 
        {
            "frame-id": "sent-PMC2856675-cmu-103", 
            "frame-type": "sentence", 
            "object-type": "frame", 
            "start-pos": {
                "object-type": "absolute-pos", 
                "offset": 103
            }, 
            "text": "The inability of MPP to suppress cell proliferation as well as anchorage independent growth of GH3 cells was not due to its ineffectiveness , since both ICI and MPP were effective at blocking ERE activity in reporter gene assays ( Fig ."
        }, 
        {
            "frame-id": "sent-PMC2856675-cmu-104", 
            "frame-type": "sentence", 
            "object-type": "frame", 
            "start-pos": {
                "object-type": "absolute-pos", 
                "offset": 104
            }, 
            "text": "4 ) ."
        }, 
        {
            "frame-id": "sent-PMC2856675-cmu-105", 
            "frame-type": "sentence", 
            "object-type": "frame", 
            "start-pos": {
                "object-type": "absolute-pos", 
                "offset": 105
            }, 
            "text": "Further , this differential effect of ICI and MPP were observed in two other rat lactotroph cell lines ( data not shown ) ."
        }, 
        {
            "frame-id": "sent-PMC2856675-cmu-106", 
            "frame-type": "sentence", 
            "object-type": "frame", 
            "start-pos": {
                "object-type": "absolute-pos", 
                "offset": 106
            }, 
            "text": "Taken together , we conclude that in the absence of E2 occupation of ER\u03b1 by an antagonist is not sufficient to inhibit lactotroph proliferation ."
        }, 
        {
            "frame-id": "sent-PMC2856675-cmu-107", 
            "frame-type": "sentence", 
            "object-type": "frame", 
            "start-pos": {
                "object-type": "absolute-pos", 
                "offset": 107
            }, 
            "text": "Instead , ER\u03b1 degradation must follow upon antagonist occupation of the receptor ."
        }, 
        {
            "frame-id": "sent-PMC2856675-cmu-108", 
            "frame-type": "sentence", 
            "object-type": "frame", 
            "start-pos": {
                "object-type": "absolute-pos", 
                "offset": 108
            }, 
            "text": "While both MPP and ICI are competitive inhibitors of ligand binding to ER\u03b1 , it could be hypothesized that their differential effects on cell proliferation are due to their interaction with different pools of ER\u03b1 ."
        }, 
        {
            "frame-id": "sent-PMC2856675-cmu-109", 
            "frame-type": "sentence", 
            "object-type": "frame", 
            "start-pos": {
                "object-type": "absolute-pos", 
                "offset": 109
            }, 
            "text": "Although both our work ( unpublished observations ) as well as work from other laboratories have demonstrated the presence of nuclear as well as extra-nuclear ER\u03b1 in GH3 cells , it is unlikely that ICI and MPP target different pools of ER\u03b1 ."
        }, 
        {
            "frame-id": "sent-PMC2856675-cmu-110", 
            "frame-type": "sentence", 
            "object-type": "frame", 
            "start-pos": {
                "object-type": "absolute-pos", 
                "offset": 110
            }, 
            "text": "This is based on our observations that excess MPP effectively blocks the ICI induced inhibition of cell proliferation ."
        }, 
        {
            "frame-id": "sent-PMC2856675-cmu-111", 
            "frame-type": "sentence", 
            "object-type": "frame", 
            "start-pos": {
                "object-type": "absolute-pos", 
                "offset": 111
            }, 
            "text": "An alternate mechanism which could explain the differential growth suppressive effects of ICI and MPP , is an involvement of non-genomic/non-classical signaling mechanisms activated by anti-estrogen-occupied ER ."
        }, 
        {
            "frame-id": "sent-PMC2856675-cmu-112", 
            "frame-type": "sentence", 
            "object-type": "frame", 
            "start-pos": {
                "object-type": "absolute-pos", 
                "offset": 112
            }, 
            "text": "Indeed , ICI-mediated Erk1/2 activation appears to be critical for growth modulation in immature cerebellar neurons [ 24 ] ."
        }, 
        {
            "frame-id": "sent-PMC2856675-cmu-113", 
            "frame-type": "sentence", 
            "object-type": "frame", 
            "start-pos": {
                "object-type": "absolute-pos", 
                "offset": 113
            }, 
            "text": "Our preliminary results demonstrate that ICI induced growth suppression of pituitary lactotrophs is accompanied with decrease in cyclin D3 expression and phosphorylation of Rb ( unpublished observations ) ."
        }, 
        {
            "frame-id": "sent-PMC2856675-cmu-114", 
            "frame-type": "sentence", 
            "object-type": "frame", 
            "start-pos": {
                "object-type": "absolute-pos", 
                "offset": 114
            }, 
            "text": "These results are consistent with a previous study demonstrating a decrease in cyclin D3 levels in response to ICI treatment in PR1 pituitary lactotrophs [ 18 ] ."
        }, 
        {
            "frame-id": "sent-PMC2856675-cmu-115", 
            "frame-type": "sentence", 
            "object-type": "frame", 
            "start-pos": {
                "object-type": "absolute-pos", 
                "offset": 115
            }, 
            "text": "Future studies will examine whether ICI-mediated growth suppression is due to modulation of a non-genomic signaling pathway that leads to decrease cyclin D3 expression and decreased phosphorylation of Rb ."
        }, 
        {
            "frame-id": "sent-PMC2856675-cmu-116", 
            "frame-type": "sentence", 
            "object-type": "frame", 
            "start-pos": {
                "object-type": "absolute-pos", 
                "offset": 116
            }, 
            "text": "We next explored the role of ER\u03b1 degradation on PRL production and release ."
        }, 
        {
            "frame-id": "sent-PMC2856675-cmu-117", 
            "frame-type": "sentence", 
            "object-type": "frame", 
            "start-pos": {
                "object-type": "absolute-pos", 
                "offset": 117
            }, 
            "text": "The use of a reporter assay , western blotting for intracellular PRL levels , and Nb2 assay for secreted PRL we found that both ICI and MPP are equally effective at suppressing PRL gene expression ( Fig ."
        }, 
        {
            "frame-id": "sent-PMC2856675-cmu-118", 
            "frame-type": "sentence", 
            "object-type": "frame", 
            "start-pos": {
                "object-type": "absolute-pos", 
                "offset": 118
            }, 
            "text": "3B ) , decreased intracellular PRL ( Fig ."
        }, 
        {
            "frame-id": "sent-PMC2856675-cmu-119", 
            "frame-type": "sentence", 
            "object-type": "frame", 
            "start-pos": {
                "object-type": "absolute-pos", 
                "offset": 119
            }, 
            "text": "3A ) , as well as decreased release of PRL from GH3 cells into CM ( Fig ."
        }, 
        {
            "frame-id": "sent-PMC2856675-cmu-120", 
            "frame-type": "sentence", 
            "object-type": "frame", 
            "start-pos": {
                "object-type": "absolute-pos", 
                "offset": 120
            }, 
            "text": "3C ) ."
        }, 
        {
            "frame-id": "sent-PMC2856675-cmu-121", 
            "frame-type": "sentence", 
            "object-type": "frame", 
            "start-pos": {
                "object-type": "absolute-pos", 
                "offset": 121
            }, 
            "text": "When GH3 cells were preincubated with a 10 -fold excess of MPP , MPP failed to block the decreased expression of prl , intracellular levels of PRL as well as the amount of PRL released into the CM ."
        }, 
        {
            "frame-id": "sent-PMC2856675-cmu-122", 
            "frame-type": "sentence", 
            "object-type": "frame", 
            "start-pos": {
                "object-type": "absolute-pos", 
                "offset": 122
            }, 
            "text": "These results indicate that occupation , and not degradation of ER\u03b1 , is sufficient to inhibit prl expression , and subsequently , its production and release from GH3 cells ."
        }, 
        {
            "frame-id": "sent-PMC2856675-cmu-123", 
            "frame-type": "sentence", 
            "object-type": "frame", 
            "start-pos": {
                "object-type": "absolute-pos", 
                "offset": 123
            }, 
            "text": "Since both ICI and MPP were effective at suppressing prl expression , we examined whether either compound inhibits ERE-mediated transcriptional activity ."
        }, 
        {
            "frame-id": "sent-PMC2856675-cmu-124", 
            "frame-type": "sentence", 
            "object-type": "frame", 
            "start-pos": {
                "object-type": "absolute-pos", 
                "offset": 124
            }, 
            "text": "At the 10 nM levels , both ICI and MPP inhibited ERE activity by more than 75 % ."
        }, 
        {
            "frame-id": "sent-PMC2856675-cmu-125", 
            "frame-type": "sentence", 
            "object-type": "frame", 
            "start-pos": {
                "object-type": "absolute-pos", 
                "offset": 125
            }, 
            "text": "However , at 10 nM levels , MPP did not have any significant effect on cell proliferation or ER\u03b1 degradation ."
        }, 
        {
            "frame-id": "sent-PMC2856675-cmu-126", 
            "frame-type": "sentence", 
            "object-type": "frame", 
            "start-pos": {
                "object-type": "absolute-pos", 
                "offset": 126
            }, 
            "text": "This suggests that suppression of ERE transactivation is not the underlying mechanism by which ICI inhibits cell proliferation ."
        }, 
        {
            "frame-id": "sent-PMC2856675-cmu-127", 
            "frame-type": "sentence", 
            "object-type": "frame", 
            "start-pos": {
                "object-type": "absolute-pos", 
                "offset": 127
            }, 
            "text": "Taken together our results indicate that in pituitary lactotrophs , an ER\u03b1 degrading antagonist such as ICI , but not an ER\u03b1 occupying antagonist such as MPP , initiates a signal cascade that inhibits cell proliferation ."
        }, 
        {
            "frame-id": "sent-PMC2856675-cmu-128", 
            "frame-type": "sentence", 
            "object-type": "frame", 
            "start-pos": {
                "object-type": "absolute-pos", 
                "offset": 128
            }, 
            "text": "On the other hand , occupation of ER\u03b1 by either type of antagonist is sufficient for inhibiting prl expression and release ."
        }, 
        {
            "frame-id": "sent-PMC2856675-cmu-129", 
            "frame-type": "sentence", 
            "object-type": "frame", 
            "start-pos": {
                "object-type": "absolute-pos", 
                "offset": 129
            }, 
            "text": "Anti-estrogens have been proposed as a class of novel therapeutics for suppressing prolactionomas ."
        }, 
        {
            "frame-id": "sent-PMC2856675-cmu-130", 
            "frame-type": "sentence", 
            "object-type": "frame", 
            "start-pos": {
                "object-type": "absolute-pos", 
                "offset": 130
            }, 
            "text": "Therefore , a complete understanding of their differential effects on the lactotrophs could help in the development of more effective therapeutics ."
        }, 
        {
            "frame-id": "sent-PMC2856675-cmu-131", 
            "frame-type": "sentence", 
            "object-type": "frame", 
            "start-pos": {
                "object-type": "absolute-pos", 
                "offset": 131
            }, 
            "text": "Materials and Methods"
        }, 
        {
            "frame-id": "sent-PMC2856675-cmu-132", 
            "frame-type": "sentence", 
            "object-type": "frame", 
            "start-pos": {
                "object-type": "absolute-pos", 
                "offset": 132
            }, 
            "text": "Chemicals and reagents"
        }, 
        {
            "frame-id": "sent-PMC2856675-cmu-133", 
            "frame-type": "sentence", 
            "object-type": "frame", 
            "start-pos": {
                "object-type": "absolute-pos", 
                "offset": 133
            }, 
            "text": "ICI 182780 and the ER\u03b1 specific antagonist 4,4\u2032,4\u2033- ( 4-Propyl- [ 1H ] pyrazole-1,3,5-triyl ) trisphenol ( MPP ) , were purchased from Tocris ( Ellisville , MO ) ."
        }, 
        {
            "frame-id": "sent-PMC2856675-cmu-134", 
            "frame-type": "sentence", 
            "object-type": "frame", 
            "start-pos": {
                "object-type": "absolute-pos", 
                "offset": 134
            }, 
            "text": "MG 132 was purchased from Calbiochem/EMD Chemicals ."
        }, 
        {
            "frame-id": "sent-PMC2856675-cmu-135", 
            "frame-type": "sentence", 
            "object-type": "frame", 
            "start-pos": {
                "object-type": "absolute-pos", 
                "offset": 135
            }, 
            "text": "Inc. ( La Jolla , CA ) ."
        }, 
        {
            "frame-id": "sent-PMC2856675-cmu-136", 
            "frame-type": "sentence", 
            "object-type": "frame", 
            "start-pos": {
                "object-type": "absolute-pos", 
                "offset": 136
            }, 
            "text": "Cell culture"
        }, 
        {
            "frame-id": "sent-PMC2856675-cmu-137", 
            "frame-type": "sentence", 
            "object-type": "frame", 
            "start-pos": {
                "object-type": "absolute-pos", 
                "offset": 137
            }, 
            "text": "GH3 cells were purchased from ATCC ( Manassas , VA ) and maintained in DMEM : F12 50\u223650 mix ( Mediatech , Herndon , VA ) containing 10 % FBS ( Gibco/Invitrogen ) and 5 U/ml Penicillin/5 \u00b5g/ml Streptomycin ( Pen/Strep ) ."
        }, 
        {
            "frame-id": "sent-PMC2856675-cmu-138", 
            "frame-type": "sentence", 
            "object-type": "frame", 
            "start-pos": {
                "object-type": "absolute-pos", 
                "offset": 138
            }, 
            "text": "Assessment of cell proliferation"
        }, 
        {
            "frame-id": "sent-PMC2856675-cmu-139", 
            "frame-type": "sentence", 
            "object-type": "frame", 
            "start-pos": {
                "object-type": "absolute-pos", 
                "offset": 139
            }, 
            "text": "GH3 cells in log phase were seeded at 20,000\u201330,000 cells/well in DMEM : F12 ( 50\u223650 ) phenol red -free medium containing ITS ( insulin , transferrin , selenious acid ) premix ( BD Biosciences , San Jose , CA ) and Pen/Strep ."
        }, 
        {
            "frame-id": "sent-PMC2856675-cmu-140", 
            "frame-type": "sentence", 
            "object-type": "frame", 
            "start-pos": {
                "object-type": "absolute-pos", 
                "offset": 140
            }, 
            "text": "Next day , cells were treated as indicated in plating medium ."
        }, 
        {
            "frame-id": "sent-PMC2856675-cmu-141", 
            "frame-type": "sentence", 
            "object-type": "frame", 
            "start-pos": {
                "object-type": "absolute-pos", 
                "offset": 141
            }, 
            "text": "Cell proliferation was quantitated using MTT assay as described [ 20 ] ."
        }, 
        {
            "frame-id": "sent-PMC2856675-cmu-142", 
            "frame-type": "sentence", 
            "object-type": "frame", 
            "start-pos": {
                "object-type": "absolute-pos", 
                "offset": 142
            }, 
            "text": "Briefly , 125 \u00b5g/well of MTT ( 3- [ 4,5-dimethylthiazole-2-yl ] -2,5-diphenyltetrazolium bromide ( Sigma ) was added to the treatment wells , and 2 hrs later , 100 \u00b5l of developer solution ( 50 % v/v DMF ; 20 % w/v SDS ; 0.24 % v/v glacial acetic acid ; 60 mM sodium acetate ) was added ."
        }, 
        {
            "frame-id": "sent-PMC2856675-cmu-143", 
            "frame-type": "sentence", 
            "object-type": "frame", 
            "start-pos": {
                "object-type": "absolute-pos", 
                "offset": 143
            }, 
            "text": "Optical density at 570 nm was determined ."
        }, 
        {
            "frame-id": "sent-PMC2856675-cmu-144", 
            "frame-type": "sentence", 
            "object-type": "frame", 
            "start-pos": {
                "object-type": "absolute-pos", 
                "offset": 144
            }, 
            "text": "Data are presented as optical density or as percent of vehicle ( DMSO ) control ."
        }, 
        {
            "frame-id": "sent-PMC2856675-cmu-145", 
            "frame-type": "sentence", 
            "object-type": "frame", 
            "start-pos": {
                "object-type": "absolute-pos", 
                "offset": 145
            }, 
            "text": "We have recently shown that the MTT assay is in excellent agreement with BrdU incorporation assay in determining cell proliferation or inhibition in GH3 cells [ 20 ] ."
        }, 
        {
            "frame-id": "sent-PMC2856675-cmu-146", 
            "frame-type": "sentence", 
            "object-type": "frame", 
            "start-pos": {
                "object-type": "absolute-pos", 
                "offset": 146
            }, 
            "text": "Luciferase reporter assays"
        }, 
        {
            "frame-id": "sent-PMC2856675-cmu-147", 
            "frame-type": "sentence", 
            "object-type": "frame", 
            "start-pos": {
                "object-type": "absolute-pos", 
                "offset": 147
            }, 
            "text": "After seeding , GH3 cells were cultured for 24 hrs , followed by transient co-transfection with 0.8 \u00b5g of the 2.5 Kb rat PRL pA3 PRL/luc plasmid [ 25 ] ; ( a gift from Dr. A. Gutierrez-Hartman , Denver , CO ) ; or p3X ERE-luc reporter plasmid ( gifted from Dr. R. Bigsby , Indianapolis , IN ) ; together with the control pGL4.70 [ hRLuc ] Renilla plasmid ( Promega , Madison , WI ) , using Lipofectamine 2000 ( Invitrogen ) ."
        }, 
        {
            "frame-id": "sent-PMC2856675-cmu-148", 
            "frame-type": "sentence", 
            "object-type": "frame", 
            "start-pos": {
                "object-type": "absolute-pos", 
                "offset": 148
            }, 
            "text": "Cells were washed and the medium was replaced with plating medium containing the indicated treatments ."
        }, 
        {
            "frame-id": "sent-PMC2856675-cmu-149", 
            "frame-type": "sentence", 
            "object-type": "frame", 
            "start-pos": {
                "object-type": "absolute-pos", 
                "offset": 149
            }, 
            "text": "After treatments , cells were lysed and luciferase activity was determined using the dual luciferase assay kit ( Promega , Madison , WI ) ."
        }, 
        {
            "frame-id": "sent-PMC2856675-cmu-150", 
            "frame-type": "sentence", 
            "object-type": "frame", 
            "start-pos": {
                "object-type": "absolute-pos", 
                "offset": 150
            }, 
            "text": "Fold change in luciferase activity was calculated after normalization to renilla ."
        }, 
        {
            "frame-id": "sent-PMC2856675-cmu-151", 
            "frame-type": "sentence", 
            "object-type": "frame", 
            "start-pos": {
                "object-type": "absolute-pos", 
                "offset": 151
            }, 
            "text": "Anchorage independent growth in soft agar"
        }, 
        {
            "frame-id": "sent-PMC2856675-cmu-152", 
            "frame-type": "sentence", 
            "object-type": "frame", 
            "start-pos": {
                "object-type": "absolute-pos", 
                "offset": 152
            }, 
            "text": "Anchorage independent growth was determined as described [ 26 ] ."
        }, 
        {
            "frame-id": "sent-PMC2856675-cmu-153", 
            "frame-type": "sentence", 
            "object-type": "frame", 
            "start-pos": {
                "object-type": "absolute-pos", 
                "offset": 153
            }, 
            "text": "Briefly , after pouring the base agar ( 0.6 % ) layer , the agar was allowed to set ."
        }, 
        {
            "frame-id": "sent-PMC2856675-cmu-154", 
            "frame-type": "sentence", 
            "object-type": "frame", 
            "start-pos": {
                "object-type": "absolute-pos", 
                "offset": 154
            }, 
            "text": "GH3 cells ( 1.5\u00d7105 cells/well , in a 6 well plate ) in 2X complete medium ( containing either vehicle , ICI 10 nM , or MPP 10 nM ) were mixed with 0.3 % agar and layered on the bottom gelled layer of agar ."
        }, 
        {
            "frame-id": "sent-PMC2856675-cmu-155", 
            "frame-type": "sentence", 
            "object-type": "frame", 
            "start-pos": {
                "object-type": "absolute-pos", 
                "offset": 155
            }, 
            "text": "Medium ( containing ICI/MPP ) was changed every 3\u20134 days , and colony formation was determined by counting the number of colonies using phase-contrast microscopy ."
        }, 
        {
            "frame-id": "sent-PMC2856675-cmu-156", 
            "frame-type": "sentence", 
            "object-type": "frame", 
            "start-pos": {
                "object-type": "absolute-pos", 
                "offset": 156
            }, 
            "text": "Western blotting"
        }, 
        {
            "frame-id": "sent-PMC2856675-cmu-157", 
            "frame-type": "sentence", 
            "object-type": "frame", 
            "start-pos": {
                "object-type": "absolute-pos", 
                "offset": 157
            }, 
            "text": "After treatment cell lysates were harvested as described [ 20 ] ."
        }, 
        {
            "frame-id": "sent-PMC2856675-cmu-158", 
            "frame-type": "sentence", 
            "object-type": "frame", 
            "start-pos": {
                "object-type": "absolute-pos", 
                "offset": 158
            }, 
            "text": "Equal amounts of proteins ( 25\u201390 \u00b5g ) were subjected to electrophoresis on 7\u201312 % SDS-PAGE gels ."
        }, 
        {
            "frame-id": "sent-PMC2856675-cmu-159", 
            "frame-type": "sentence", 
            "object-type": "frame", 
            "start-pos": {
                "object-type": "absolute-pos", 
                "offset": 159
            }, 
            "text": "Fractionated proteins were electrophoretically transferred onto PVDF membranes ."
        }, 
        {
            "frame-id": "sent-PMC2856675-cmu-160", 
            "frame-type": "sentence", 
            "object-type": "frame", 
            "start-pos": {
                "object-type": "absolute-pos", 
                "offset": 160
            }, 
            "text": "Incubation of membranes with primary antibodies was done at 4\u00b0C o/n ."
        }, 
        {
            "frame-id": "sent-PMC2856675-cmu-161", 
            "frame-type": "sentence", 
            "object-type": "frame", 
            "start-pos": {
                "object-type": "absolute-pos", 
                "offset": 161
            }, 
            "text": "Incubation of membranes with secondary antibodies was done at room temperature for 1 hr , and proteins detected by enhanced chemiluminescence reagents ( Pierce ) , as suggested in the manufacturers protocol ."
        }, 
        {
            "frame-id": "sent-PMC2856675-cmu-162", 
            "frame-type": "sentence", 
            "object-type": "frame", 
            "start-pos": {
                "object-type": "absolute-pos", 
                "offset": 162
            }, 
            "text": "Nb2 Bioassay for quantitating PRL release"
        }, 
        {
            "frame-id": "sent-PMC2856675-cmu-163", 
            "frame-type": "sentence", 
            "object-type": "frame", 
            "start-pos": {
                "object-type": "absolute-pos", 
                "offset": 163
            }, 
            "text": "PRL concentrations in conditioned media ( CM ) were determined using a bioassay as described [ 20 ] ."
        }, 
        {
            "frame-id": "sent-PMC2856675-cmu-164", 
            "frame-type": "sentence", 
            "object-type": "frame", 
            "start-pos": {
                "object-type": "absolute-pos", 
                "offset": 164
            }, 
            "text": "Briefly , after overnight starvation , Nb2 cells were cultured for 72 hr with either rPRL standard , amniotic fluid ( 1\u22361000 ) serving as an internal control , or with CM aliquots from GH3 cells ."
        }, 
        {
            "frame-id": "sent-PMC2856675-cmu-165", 
            "frame-type": "sentence", 
            "object-type": "frame", 
            "start-pos": {
                "object-type": "absolute-pos", 
                "offset": 165
            }, 
            "text": "After 3 days , Nb2 cell number was determined by the MTT assay as above ."
        }, 
        {
            "frame-id": "sent-PMC2856675-cmu-166", 
            "frame-type": "sentence", 
            "object-type": "frame", 
            "start-pos": {
                "object-type": "absolute-pos", 
                "offset": 166
            }, 
            "text": "The amount of PRL secreted by GH3 cells was calculated from the standard curve and is expressed as \u00b5g PRL/\u00b5g protein ."
        }, 
        {
            "frame-id": "sent-PMC2856675-cmu-167", 
            "frame-type": "sentence", 
            "object-type": "frame", 
            "start-pos": {
                "object-type": "absolute-pos", 
                "offset": 167
            }, 
            "text": "Data analysis"
        }, 
        {
            "frame-id": "sent-PMC2856675-cmu-168", 
            "frame-type": "sentence", 
            "object-type": "frame", 
            "start-pos": {
                "object-type": "absolute-pos", 
                "offset": 168
            }, 
            "text": "Statistical significance was determined using Student 's t test , a value of p < 0.05 was considered significant ."
        }
    ], 
    "object-meta": {
        "component": "Nicolas-NXML-Parser", 
        "component-type": "machine", 
        "doc-id": "PMC2856675", 
        "object-type": "meta-info", 
        "organization": "CMU"
    }, 
    "object-type": "frame-collection"
}
