{
    "frames": [
        {
            "cell-type": [
                "HEK293T cells"
            ], 
            "frame-id": "imp-PMC2699591-cmu-pradsys-403", 
            "frame-type": "implication", 
            "implication-type": "binds", 
            "object-meta": {
                "object-type": "meta-info", 
                "organization": "CMU"
            }, 
            "object-type": "frame", 
            "sentence": "sent-PMC2699591-cmu-21", 
            "transfection-molecule": [
                "NP-40 ( Fig"
            ]
        }, 
        {
            "frame-id": "imp-PMC2699591-cmu-pradsys-404", 
            "frame-type": "implication", 
            "implication-type": "binds", 
            "object-meta": {
                "object-type": "meta-info", 
                "organization": "CMU"
            }, 
            "object-type": "frame", 
            "sentence": "sent-PMC2699591-cmu-23", 
            "transfection-molecule": [
                "Nudel ( Fig"
            ]
        }, 
        {
            "frame-id": "imp-PMC2699591-cmu-pradsys-405", 
            "frame-type": "implication", 
            "implication-type": "binds", 
            "object-meta": {
                "object-type": "meta-info", 
                "organization": "CMU"
            }, 
            "object-type": "frame", 
            "process": [
                "LB3 antibodies"
            ], 
            "sentence": "sent-PMC2699591-cmu-27"
        }, 
        {
            "binds-controller": [
                "1c ) or 74.1"
            ], 
            "frame-id": "imp-PMC2699591-cmu-pradsys-406", 
            "frame-type": "implication", 
            "implication-type": "binds", 
            "object-meta": {
                "object-type": "meta-info", 
                "organization": "CMU"
            }, 
            "object-type": "frame", 
            "sentence": "sent-PMC2699591-cmu-28"
        }, 
        {
            "frame-id": "imp-PMC2699591-cmu-pradsys-407", 
            "frame-type": "implication", 
            "implication-type": "binds", 
            "ip-molecule": [
                "Nudel"
            ], 
            "object-meta": {
                "object-type": "meta-info", 
                "organization": "CMU"
            }, 
            "object-type": "frame", 
            "sentence": "sent-PMC2699591-cmu-30"
        }, 
        {
            "frame-id": "imp-PMC2699591-cmu-pradsys-408", 
            "frame-type": "implication", 
            "implication-type": "binds", 
            "object-meta": {
                "object-type": "meta-info", 
                "organization": "CMU"
            }, 
            "object-type": "frame", 
            "sentence": "sent-PMC2699591-cmu-32", 
            "transfection-molecule": [
                "Nudel ( Fig"
            ]
        }, 
        {
            "binds-constituent1": [
                "LB3"
            ], 
            "binds-site": [
                "pulled"
            ], 
            "frame-id": "imp-PMC2699591-cmu-pradsys-409", 
            "frame-type": "implication", 
            "implication-type": "binds", 
            "object-meta": {
                "object-type": "meta-info", 
                "organization": "CMU"
            }, 
            "object-type": "frame", 
            "sentence": "sent-PMC2699591-cmu-34"
        }, 
        {
            "binds-constituent1": [
                "N-"
            ], 
            "frame-id": "imp-PMC2699591-cmu-pradsys-410", 
            "frame-type": "implication", 
            "implication-type": "binds", 
            "object-meta": {
                "object-type": "meta-info", 
                "organization": "CMU"
            }, 
            "object-type": "frame", 
            "sentence": "sent-PMC2699591-cmu-36"
        }, 
        {
            "binds-constituent1": [
                "Nudel"
            ], 
            "binds-constituent2": [
                "GST-LB3-rod"
            ], 
            "binds-site": [
                "exhibited stronger interaction with"
            ], 
            "frame-id": "imp-PMC2699591-cmu-pradsys-411", 
            "frame-type": "implication", 
            "implication-type": "binds", 
            "object-meta": {
                "object-type": "meta-info", 
                "organization": "CMU"
            }, 
            "object-type": "frame", 
            "sentence": "sent-PMC2699591-cmu-39"
        }, 
        {
            "binds-constituent1": [
                "LB3-rod"
            ], 
            "binds-site": [
                "The coil2 region of"
            ], 
            "frame-id": "imp-PMC2699591-cmu-pradsys-412", 
            "frame-type": "implication", 
            "implication-type": "binds", 
            "object-meta": {
                "object-type": "meta-info", 
                "organization": "CMU"
            }, 
            "object-type": "frame", 
            "sentence": "sent-PMC2699591-cmu-42", 
            "transfection-molecule": [
                "Nudel ( Fig"
            ]
        }, 
        {
            "frame-id": "imp-PMC2699591-cmu-pradsys-413", 
            "frame-type": "implication", 
            "implication-type": "binds", 
            "object-meta": {
                "object-type": "meta-info", 
                "organization": "CMU"
            }, 
            "object-type": "frame", 
            "sentence": "sent-PMC2699591-cmu-44", 
            "transfection-molecule": [
                "the conserved coil2 of LB3 ( Fig"
            ]
        }, 
        {
            "binds-constituent1": [
                "Nudel", 
                "LB3"
            ], 
            "binds-site": [
                "the coil2 domain of"
            ], 
            "frame-id": "imp-PMC2699591-cmu-pradsys-414", 
            "frame-type": "implication", 
            "implication-type": "binds", 
            "object-meta": {
                "object-type": "meta-info", 
                "organization": "CMU"
            }, 
            "object-type": "frame", 
            "sentence": "sent-PMC2699591-cmu-46"
        }, 
        {
            "binds-constituent1": [
                "Nudel"
            ], 
            "binds-constituent2": [
                "dynein"
            ], 
            "frame-id": "imp-PMC2699591-cmu-pradsys-415", 
            "frame-type": "implication", 
            "implication-type": "binds", 
            "object-meta": {
                "object-type": "meta-info", 
                "organization": "CMU"
            }, 
            "object-type": "frame", 
            "sentence": "sent-PMC2699591-cmu-47"
        }, 
        {
            "binds-constituent1": [
                "Nudel"
            ], 
            "frame-id": "imp-PMC2699591-cmu-pradsys-416", 
            "frame-type": "implication", 
            "implication-type": "binds", 
            "object-meta": {
                "object-type": "meta-info", 
                "organization": "CMU"
            }, 
            "object-type": "frame", 
            "sentence": "sent-PMC2699591-cmu-48"
        }, 
        {
            "binds-constituent1": [
                "LB3"
            ], 
            "frame-id": "imp-PMC2699591-cmu-pradsys-417", 
            "frame-type": "implication", 
            "implication-type": "binds", 
            "ip-molecule": [
                "Nudel ( Supplementary Information"
            ], 
            "object-meta": {
                "object-type": "meta-info", 
                "organization": "CMU"
            }, 
            "object-type": "frame", 
            "sentence": "sent-PMC2699591-cmu-49"
        }, 
        {
            "binds-constituent1": [
                "dynein"
            ], 
            "frame-id": "imp-PMC2699591-cmu-pradsys-418", 
            "frame-type": "implication", 
            "implication-type": "binds", 
            "object-meta": {
                "object-type": "meta-info", 
                "organization": "CMU"
            }, 
            "object-type": "frame", 
            "sentence": "sent-PMC2699591-cmu-51"
        }, 
        {
            "binds-constituent1": [
                "dynein"
            ], 
            "frame-id": "imp-PMC2699591-cmu-pradsys-419", 
            "frame-type": "implication", 
            "implication-type": "binds", 
            "object-meta": {
                "object-type": "meta-info", 
                "organization": "CMU"
            }, 
            "object-type": "frame", 
            "sentence": "sent-PMC2699591-cmu-54"
        }, 
        {
            "binds-constituent1": [
                "dynein"
            ], 
            "frame-id": "imp-PMC2699591-cmu-pradsys-420", 
            "frame-type": "implication", 
            "implication-type": "binds", 
            "object-meta": {
                "object-type": "meta-info", 
                "organization": "CMU"
            }, 
            "object-type": "frame", 
            "sentence": "sent-PMC2699591-cmu-56", 
            "transfection-molecule": [
                "LB3 ( Fig"
            ]
        }, 
        {
            "binds-constituent1": [
                "dynein"
            ], 
            "binds-constituent2": [
                "Nudel"
            ], 
            "frame-id": "imp-PMC2699591-cmu-pradsys-421", 
            "frame-type": "implication", 
            "implication-type": "binds", 
            "object-meta": {
                "object-type": "meta-info", 
                "organization": "CMU"
            }, 
            "object-type": "frame", 
            "sentence": "sent-PMC2699591-cmu-58"
        }, 
        {
            "binds-constituent1": [
                "Nudel"
            ], 
            "frame-id": "imp-PMC2699591-cmu-pradsys-422", 
            "frame-type": "implication", 
            "implication-type": "binds", 
            "object-meta": {
                "object-type": "meta-info", 
                "organization": "CMU"
            }, 
            "object-type": "frame", 
            "sentence": "sent-PMC2699591-cmu-59"
        }, 
        {
            "binds-constituent1": [
                "Nudel"
            ], 
            "frame-id": "imp-PMC2699591-cmu-pradsys-423", 
            "frame-type": "implication", 
            "implication-type": "binds", 
            "object-meta": {
                "object-type": "meta-info", 
                "organization": "CMU"
            }, 
            "object-type": "frame", 
            "sentence": "sent-PMC2699591-cmu-61"
        }, 
        {
            "binds-constituent1": [
                "no obvious bright MT core surrounding"
            ], 
            "frame-id": "imp-PMC2699591-cmu-pradsys-424", 
            "frame-type": "implication", 
            "implication-type": "binds", 
            "object-meta": {
                "object-type": "meta-info", 
                "organization": "CMU"
            }, 
            "object-type": "frame", 
            "sentence": "sent-PMC2699591-cmu-63"
        }, 
        {
            "binds-controller": [
                "increasing MT intensity"
            ], 
            "frame-id": "imp-PMC2699591-cmu-pradsys-425", 
            "frame-type": "implication", 
            "implication-type": "binds", 
            "object-meta": {
                "object-type": "meta-info", 
                "organization": "CMU"
            }, 
            "object-type": "frame", 
            "sentence": "sent-PMC2699591-cmu-65"
        }, 
        {
            "binds-controller": [
                "MT structure ( Fig"
            ], 
            "frame-id": "imp-PMC2699591-cmu-pradsys-426", 
            "frame-type": "implication", 
            "implication-type": "binds", 
            "object-meta": {
                "object-type": "meta-info", 
                "organization": "CMU"
            }, 
            "object-type": "frame", 
            "sentence": "sent-PMC2699591-cmu-68", 
            "transfection-molecule": [
                "6\u2019\u201311\u2019"
            ]
        }, 
        {
            "entity": [
                "poor egg extracts ) to 1"
            ], 
            "frame-id": "imp-PMC2699591-cmu-pradsys-427", 
            "frame-type": "implication", 
            "implication-type": "binds", 
            "object-meta": {
                "object-type": "meta-info", 
                "organization": "CMU"
            }, 
            "object-type": "frame", 
            "sentence": "sent-PMC2699591-cmu-71", 
            "transfection-molecule": [
                "13\u2019\u201315\u2019"
            ]
        }, 
        {
            "binds-constituent1": [
                "GST-N-Nudel"
            ], 
            "binds-site": [
                "the presence of excess"
            ], 
            "frame-id": "imp-PMC2699591-cmu-pradsys-428", 
            "frame-type": "implication", 
            "implication-type": "binds", 
            "object-meta": {
                "object-type": "meta-info", 
                "organization": "CMU"
            }, 
            "object-type": "frame", 
            "sentence": "sent-PMC2699591-cmu-76"
        }, 
        {
            "frame-id": "imp-PMC2699591-cmu-pradsys-429", 
            "frame-type": "implication", 
            "implication-type": "binds", 
            "object-meta": {
                "object-type": "meta-info", 
                "organization": "CMU"
            }, 
            "object-type": "frame", 
            "sentence": "sent-PMC2699591-cmu-81", 
            "transfection-molecule": [
                "long astral arrays of MTs ( yellow arrowheads in Fig"
            ]
        }, 
        {
            "binds-constituent1": [
                "Nudel", 
                "NudE", 
                "other"
            ], 
            "binds-site": [
                "share 48 % overall amino acid identity with each"
            ], 
            "frame-id": "imp-PMC2699591-cmu-pradsys-430", 
            "frame-type": "implication", 
            "implication-type": "binds", 
            "object-meta": {
                "object-type": "meta-info", 
                "organization": "CMU"
            }, 
            "object-type": "frame", 
            "sentence": "sent-PMC2699591-cmu-86"
        }, 
        {
            "binds-constituent1": [
                "Nudel"
            ], 
            "frame-id": "imp-PMC2699591-cmu-pradsys-431", 
            "frame-type": "implication", 
            "implication-type": "binds", 
            "object-meta": {
                "object-type": "meta-info", 
                "organization": "CMU"
            }, 
            "object-type": "frame", 
            "sentence": "sent-PMC2699591-cmu-89"
        }, 
        {
            "binds-constituent1": [
                "Nudel"
            ], 
            "frame-id": "imp-PMC2699591-cmu-pradsys-432", 
            "frame-type": "implication", 
            "implication-type": "binds", 
            "object-meta": {
                "object-type": "meta-info", 
                "organization": "CMU"
            }, 
            "object-type": "frame", 
            "sentence": "sent-PMC2699591-cmu-90"
        }, 
        {
            "binds-constituent1": [
                "LB3"
            ], 
            "frame-id": "imp-PMC2699591-cmu-pradsys-433", 
            "frame-type": "implication", 
            "implication-type": "binds", 
            "object-meta": {
                "object-type": "meta-info", 
                "organization": "CMU"
            }, 
            "object-type": "frame", 
            "sentence": "sent-PMC2699591-cmu-91"
        }, 
        {
            "binds-constituent1": [
                "Nudel"
            ], 
            "coreference-target": [
                "the LB3 network surrounding the late asters"
            ], 
            "frame-id": "imp-PMC2699591-cmu-pradsys-434", 
            "frame-type": "implication", 
            "implication-type": "binds", 
            "object-meta": {
                "object-type": "meta-info", 
                "organization": "CMU"
            }, 
            "object-type": "frame", 
            "sentence": "sent-PMC2699591-cmu-97"
        }, 
        {
            "binds-constituent1": [
                "the LB3 network surrounding MTs"
            ], 
            "frame-id": "imp-PMC2699591-cmu-pradsys-435", 
            "frame-type": "implication", 
            "implication-type": "binds", 
            "object-meta": {
                "object-type": "meta-info", 
                "organization": "CMU"
            }, 
            "object-type": "frame", 
            "sentence": "sent-PMC2699591-cmu-100"
        }, 
        {
            "binds-controller": [
                "Nudel depletion ( Fig"
            ], 
            "frame-id": "imp-PMC2699591-cmu-pradsys-436", 
            "frame-type": "implication", 
            "implication-type": "binds", 
            "ip-molecule": [
                "70.1"
            ], 
            "object-meta": {
                "object-type": "meta-info", 
                "organization": "CMU"
            }, 
            "object-type": "frame", 
            "sentence": "sent-PMC2699591-cmu-102"
        }, 
        {
            "binds-constituent1": [
                "Nudel"
            ], 
            "frame-id": "imp-PMC2699591-cmu-pradsys-437", 
            "frame-type": "implication", 
            "implication-type": "binds", 
            "object-meta": {
                "object-type": "meta-info", 
                "organization": "CMU"
            }, 
            "object-type": "frame", 
            "sentence": "sent-PMC2699591-cmu-104"
        }, 
        {
            "cell-type": [
                "Xenopus sperm"
            ], 
            "frame-id": "imp-PMC2699591-cmu-pradsys-438", 
            "frame-type": "implication", 
            "implication-type": "binds", 
            "object-meta": {
                "object-type": "meta-info", 
                "organization": "CMU"
            }, 
            "object-type": "frame", 
            "sentence": "sent-PMC2699591-cmu-105"
        }, 
        {
            "frame-id": "imp-PMC2699591-cmu-pradsys-439", 
            "frame-type": "implication", 
            "implication-type": "binds", 
            "object-meta": {
                "object-type": "meta-info", 
                "organization": "CMU"
            }, 
            "object-type": "frame", 
            "sentence": "sent-PMC2699591-cmu-106", 
            "transfection-molecule": [
                "radial array of MTs ( Fig"
            ]
        }, 
        {
            "cell-type": [
                "~30\u2019 most MT asters"
            ], 
            "frame-id": "imp-PMC2699591-cmu-pradsys-440", 
            "frame-type": "implication", 
            "implication-type": "binds", 
            "object-meta": {
                "object-type": "meta-info", 
                "organization": "CMU"
            }, 
            "object-type": "frame", 
            "sentence": "sent-PMC2699591-cmu-107", 
            "transfection-molecule": [
                "10\u2019\u201320\u2019"
            ]
        }, 
        {
            "frame-id": "imp-PMC2699591-cmu-pradsys-441", 
            "frame-type": "implication", 
            "implication-type": "binds", 
            "object-meta": {
                "object-type": "meta-info", 
                "organization": "CMU"
            }, 
            "object-type": "frame", 
            "sentence": "sent-PMC2699591-cmu-109", 
            "transfection-molecule": [
                "45\u2019\u2013120\u2019"
            ]
        }, 
        {
            "frame-id": "imp-PMC2699591-cmu-pradsys-442", 
            "frame-type": "implication", 
            "implication-type": "binds", 
            "object-meta": {
                "object-type": "meta-info", 
                "organization": "CMU"
            }, 
            "object-type": "frame", 
            "sentence": "sent-PMC2699591-cmu-111", 
            "transfection-molecule": [
                "LB3 ( Fig"
            ]
        }, 
        {
            "frame-id": "imp-PMC2699591-cmu-pradsys-443", 
            "frame-type": "implication", 
            "implication-type": "binds", 
            "object-meta": {
                "object-type": "meta-info", 
                "organization": "CMU"
            }, 
            "object-type": "frame", 
            "sentence": "sent-PMC2699591-cmu-116", 
            "transfection-molecule": [
                "20\u2019"
            ]
        }, 
        {
            "frame-id": "imp-PMC2699591-cmu-pradsys-444", 
            "frame-type": "implication", 
            "implication-type": "binds", 
            "object-meta": {
                "object-type": "meta-info", 
                "organization": "CMU"
            }, 
            "object-type": "frame", 
            "sentence": "sent-PMC2699591-cmu-118", 
            "transfection-molecule": [
                "20\u2019\u201330\u2019"
            ]
        }, 
        {
            "frame-id": "imp-PMC2699591-cmu-pradsys-445", 
            "frame-type": "implication", 
            "implication-type": "binds", 
            "object-meta": {
                "object-type": "meta-info", 
                "organization": "CMU"
            }, 
            "object-type": "frame", 
            "sentence": "sent-PMC2699591-cmu-120", 
            "transfection-molecule": [
                "45\u2019\u2013120\u2019", 
                "fence-like parallel MT arrays around the chromatin ( unfocused spindles )"
            ]
        }, 
        {
            "assay-molecule": [
                "LB3"
            ], 
            "frame-id": "imp-PMC2699591-cmu-pradsys-446", 
            "frame-type": "implication", 
            "implication-type": "binds", 
            "object-meta": {
                "object-type": "meta-info", 
                "organization": "CMU"
            }, 
            "object-type": "frame", 
            "sentence": "sent-PMC2699591-cmu-122", 
            "transfection-molecule": [
                "the purified Nudel ( Fig"
            ]
        }, 
        {
            "binds-constituent1": [
                "LB3"
            ], 
            "frame-id": "imp-PMC2699591-cmu-pradsys-447", 
            "frame-type": "implication", 
            "implication-type": "binds", 
            "object-meta": {
                "object-type": "meta-info", 
                "organization": "CMU"
            }, 
            "object-type": "frame", 
            "sentence": "sent-PMC2699591-cmu-124"
        }, 
        {
            "frame-id": "imp-PMC2699591-cmu-pradsys-448", 
            "frame-type": "implication", 
            "implication-type": "binds", 
            "object-meta": {
                "object-type": "meta-info", 
                "organization": "CMU"
            }, 
            "object-type": "frame", 
            "sentence": "sent-PMC2699591-cmu-125", 
            "transfection-molecule": [
                "Nudel add-back ( Fig"
            ]
        }, 
        {
            "binds-constituent1": [
                "Nudel"
            ], 
            "frame-id": "imp-PMC2699591-cmu-pradsys-449", 
            "frame-type": "implication", 
            "implication-type": "binds", 
            "object-meta": {
                "object-type": "meta-info", 
                "organization": "CMU"
            }, 
            "object-type": "frame", 
            "sentence": "sent-PMC2699591-cmu-128"
        }, 
        {
            "binds-constituent1": [
                "Nudel"
            ], 
            "frame-id": "imp-PMC2699591-cmu-pradsys-450", 
            "frame-type": "implication", 
            "implication-type": "binds", 
            "object-meta": {
                "object-type": "meta-info", 
                "organization": "CMU"
            }, 
            "object-type": "frame", 
            "sentence": "sent-PMC2699591-cmu-129"
        }, 
        {
            "binds-constituent1": [
                "Nudel"
            ], 
            "frame-id": "imp-PMC2699591-cmu-pradsys-451", 
            "frame-type": "implication", 
            "implication-type": "binds", 
            "object-meta": {
                "object-type": "meta-info", 
                "organization": "CMU"
            }, 
            "object-type": "frame", 
            "sentence": "sent-PMC2699591-cmu-130"
        }, 
        {
            "entity": [
                "Nudel-depleted egg extracts"
            ], 
            "frame-id": "imp-PMC2699591-cmu-pradsys-452", 
            "frame-type": "implication", 
            "implication-type": "binds", 
            "object-meta": {
                "object-type": "meta-info", 
                "organization": "CMU"
            }, 
            "object-type": "frame", 
            "sentence": "sent-PMC2699591-cmu-132"
        }, 
        {
            "binds-constituent1": [
                "Eg5"
            ], 
            "frame-id": "imp-PMC2699591-cmu-pradsys-453", 
            "frame-type": "implication", 
            "implication-type": "binds", 
            "object-meta": {
                "object-type": "meta-info", 
                "organization": "CMU"
            }, 
            "object-type": "frame", 
            "sentence": "sent-PMC2699591-cmu-135"
        }, 
        {
            "binds-constituent1": [
                "Nudel"
            ], 
            "frame-id": "imp-PMC2699591-cmu-pradsys-454", 
            "frame-type": "implication", 
            "implication-type": "binds", 
            "object-meta": {
                "object-type": "meta-info", 
                "organization": "CMU"
            }, 
            "object-type": "frame", 
            "sentence": "sent-PMC2699591-cmu-139"
        }, 
        {
            "binds-constituent1": [
                "Nudel"
            ], 
            "binds-constituent2": [
                "dynein"
            ], 
            "frame-id": "imp-PMC2699591-cmu-pradsys-455", 
            "frame-type": "implication", 
            "implication-type": "binds", 
            "object-meta": {
                "object-type": "meta-info", 
                "organization": "CMU"
            }, 
            "object-type": "frame", 
            "sentence": "sent-PMC2699591-cmu-141"
        }, 
        {
            "assay-molecule": [
                "dynein"
            ], 
            "binds-constituent1": [
                "Nudel"
            ], 
            "frame-id": "imp-PMC2699591-cmu-pradsys-456", 
            "frame-type": "implication", 
            "implication-type": "binds", 
            "object-meta": {
                "object-type": "meta-info", 
                "organization": "CMU"
            }, 
            "object-type": "frame", 
            "sentence": "sent-PMC2699591-cmu-142"
        }, 
        {
            "binds-constituent1": [
                "Nudel"
            ], 
            "frame-id": "imp-PMC2699591-cmu-pradsys-457", 
            "frame-type": "implication", 
            "implication-type": "binds", 
            "object-meta": {
                "object-type": "meta-info", 
                "organization": "CMU"
            }, 
            "object-type": "frame", 
            "sentence": "sent-PMC2699591-cmu-145"
        }, 
        {
            "binds-constituent1": [
                "LB3"
            ], 
            "frame-id": "imp-PMC2699591-cmu-pradsys-458", 
            "frame-type": "implication", 
            "implication-type": "binds", 
            "object-meta": {
                "object-type": "meta-info", 
                "organization": "CMU"
            }, 
            "object-type": "frame", 
            "sentence": "sent-PMC2699591-cmu-154"
        }, 
        {
            "binds-constituent1": [
                "MT"
            ], 
            "frame-id": "imp-PMC2699591-cmu-pradsys-459", 
            "frame-type": "implication", 
            "implication-type": "binds", 
            "object-meta": {
                "object-type": "meta-info", 
                "organization": "CMU"
            }, 
            "object-type": "frame", 
            "sentence": "sent-PMC2699591-cmu-158"
        }, 
        {
            "binds-constituent2": [
                "15\u2019"
            ], 
            "frame-id": "imp-PMC2699591-cmu-pradsys-460", 
            "frame-type": "implication", 
            "implication-type": "binds", 
            "object-meta": {
                "object-type": "meta-info", 
                "organization": "CMU"
            }, 
            "object-type": "frame", 
            "sentence": "sent-PMC2699591-cmu-162"
        }, 
        {
            "binds-constituent1": [
                "MTs"
            ], 
            "binds-site": [
                "were"
            ], 
            "frame-id": "imp-PMC2699591-cmu-pradsys-461", 
            "frame-type": "implication", 
            "implication-type": "binds", 
            "object-meta": {
                "object-type": "meta-info", 
                "organization": "CMU"
            }, 
            "object-type": "frame", 
            "sentence": "sent-PMC2699591-cmu-164"
        }, 
        {
            "binds-controller": [
                "LB3"
            ], 
            "binds-site": [
                "the remaining 2\u201310 nM LB3 ( LB3 concentration in egg extracts"
            ], 
            "frame-id": "imp-PMC2699591-cmu-pradsys-462", 
            "frame-type": "implication", 
            "implication-type": "binds", 
            "object-meta": {
                "object-type": "meta-info", 
                "organization": "CMU"
            }, 
            "object-type": "frame", 
            "sentence": "sent-PMC2699591-cmu-172"
        }, 
        {
            "binds-constituent2": [
                "LB3"
            ], 
            "frame-id": "imp-PMC2699591-cmu-pradsys-463", 
            "frame-type": "implication", 
            "implication-type": "binds", 
            "object-meta": {
                "object-type": "meta-info", 
                "organization": "CMU"
            }, 
            "object-type": "frame", 
            "sentence": "sent-PMC2699591-cmu-173"
        }
    ], 
    "object-meta": {
        "component": "Pradeep-System", 
        "component-type": "machine", 
        "doc-id": "PMC2699591", 
        "object-type": "meta-info", 
        "organization": "CMU"
    }, 
    "object-type": "frame-collection"
}
