{
  "evidence": ["guanine nucleotide exchange factors (GEF), which promote GTPase","The spatial localization of these three GTPases is important for activation by membrane bound guanine nucleotide exchange factors ( GEF ) , which promote GTPase release of GDP and binding to GTP ; the GTP state activates and and or recruits effectors at the membrane , producing the downstream actin mediated cellular response ."],
  "extracted_information": {
    "interaction_type": "increases_activity",
    "negative_information": false,
    "participant_a": {
      "entity_text": "guanine",
      "entity_type": "chemical",
      "identifier": "CHEBI:16235",
      "in_model": false
    },
    "participant_b": {
      "entity_text": "GTPase",
      "entity_type": "protein",
      "identifier": "ungrounded",
      "in_model": false
    }
  },
  "fries_provenance": [
    {
      "component": "REACH",
      "frame-file": "PMC3542069.uaz.events",
      "frame-id": "evem-PMC3542069-UAZ-r1-10-2-6",
      "passage-id": "pass-PMC3542069-UAZ-r1-10",
      "passage-number": 10,
      "passage-section-id": "s1",
      "passage-section-name": "N/A",
      "sentence": "The spatial localization of these three GTPases is important for activation by membrane bound guanine nucleotide exchange factors ( GEF ) , which promote GTPase release of GDP and binding to GTP ; the GTP state activates and and or recruits effectors at the membrane , producing the downstream actin mediated cellular response .",
      "text": "guanine nucleotide exchange factors (GEF), which promote GTPase",
      "uaz-sentence": "The spatial localization of these three GTPases is important for activation by membrane bound guanine nucleotide exchange factors ( GEF ) , which promote GTPase release of GDP and binding to GTP ; the GTP state activates and and or recruits effectors at the membrane , producing the downstream actin mediated cellular response .",
      "uaz-sentence-start": 405
    }
  ],
  "pmc_id": "PMC3542069",
  "reader_type": "machine",
  "reading_complete": "2015-07-02T21:16:48Z",
  "reading_started": "2015-07-02T21:16:43Z",
  "submitter": "FRIES"
}
