{
    "frames": [
        {
            "frame-id": "smap-PMC2132561-cmu-1", 
            "frame-type": "sentence-map", 
            "list1-meta": {
                "component": "nxml2fries", 
                "object-type": "meta-info", 
                "organization": "UAZ"
            }, 
            "list2-meta": {
                "component": "Nicolas-NXML-Parser", 
                "object-type": "meta-info", 
                "organization": "CMU"
            }, 
            "map": [
                {
                    "from": "sent-PMC2132561-UAZ-r1-67-1", 
                    "object-type": "map-range", 
                    "to": "sent-PMC2132561-cmu-155"
                }, 
                {
                    "from": "sent-PMC2132561-UAZ-r1-86-6", 
                    "object-type": "map-range", 
                    "to": "sent-PMC2132561-cmu-238"
                }, 
                {
                    "from": "sent-PMC2132561-UAZ-r1-71-6", 
                    "object-type": "map-range", 
                    "to": "sent-PMC2132561-cmu-174"
                }, 
                {
                    "from": "sent-PMC2132561-UAZ-r1-80-0", 
                    "object-type": "map-range", 
                    "to": "sent-PMC2132561-cmu-201"
                }, 
                {
                    "from": "sent-PMC2132561-UAZ-r1-32-0", 
                    "object-type": "map-range", 
                    "to": "sent-PMC2132561-cmu-68"
                }, 
                {
                    "from": "sent-PMC2132561-UAZ-r1-85-6", 
                    "object-type": "map-range", 
                    "to": "sent-PMC2132561-cmu-226"
                }, 
                {
                    "from": "sent-PMC2132561-UAZ-r1-67-0", 
                    "object-type": "map-range", 
                    "to": "sent-PMC2132561-cmu-154"
                }, 
                {
                    "from": "sent-PMC2132561-UAZ-r1-90-0", 
                    "object-type": "map-range", 
                    "to": "sent-PMC2132561-cmu-265"
                }, 
                {
                    "from": "sent-PMC2132561-UAZ-r1-41-1", 
                    "object-type": "map-range", 
                    "to": "sent-PMC2132561-cmu-79"
                }, 
                {
                    "from": "sent-PMC2132561-UAZ-r1-38-1", 
                    "object-type": "map-range", 
                    "to": "sent-PMC2132561-cmu-73"
                }, 
                {
                    "from": "sent-PMC2132561-UAZ-r1-76-0", 
                    "object-type": "map-range", 
                    "to": "sent-PMC2132561-cmu-188"
                }, 
                {
                    "from": "sent-PMC2132561-UAZ-r1-89-4", 
                    "object-type": "map-range", 
                    "to": "sent-PMC2132561-cmu-263"
                }, 
                {
                    "from": "sent-PMC2132561-UAZ-r1-98-0", 
                    "object-type": "map-range", 
                    "to": "sent-PMC2132561-cmu-82"
                }, 
                {
                    "from": "sent-PMC2132561-UAZ-r1-31-4", 
                    "object-type": "map-range", 
                    "to": "sent-PMC2132561-cmu-65"
                }, 
                {
                    "from": "sent-PMC2132561-UAZ-r1-30-3", 
                    "object-type": "map-range", 
                    "to": "sent-PMC2132561-cmu-56"
                }, 
                {
                    "from": "sent-PMC2132561-UAZ-r1-86-5", 
                    "object-type": "map-range", 
                    "to": "sent-PMC2132561-cmu-235"
                }, 
                {
                    "from": "sent-PMC2132561-UAZ-r1-27-2", 
                    "object-type": "map-range", 
                    "to": "sent-PMC2132561-cmu-48"
                }, 
                {
                    "from": "sent-PMC2132561-UAZ-r1-62-0", 
                    "object-type": "map-range", 
                    "to": "sent-PMC2132561-cmu-144"
                }, 
                {
                    "from": "sent-PMC2132561-UAZ-r1-78-0", 
                    "object-type": "map-range", 
                    "to": "sent-PMC2132561-cmu-191"
                }, 
                {
                    "from": "sent-PMC2132561-UAZ-r1-51-6", 
                    "object-type": "map-range", 
                    "to": "sent-PMC2132561-cmu-113"
                }, 
                {
                    "from": "sent-PMC2132561-UAZ-r1-79-3", 
                    "object-type": "map-range", 
                    "to": "sent-PMC2132561-cmu-200"
                }, 
                {
                    "from": "sent-PMC2132561-UAZ-r1-88-3", 
                    "object-type": "map-range", 
                    "to": "sent-PMC2132561-cmu-256"
                }, 
                {
                    "from": "sent-PMC2132561-UAZ-r1-90-1", 
                    "object-type": "map-range", 
                    "to": "sent-PMC2132561-cmu-266"
                }, 
                {
                    "from": "sent-PMC2132561-UAZ-r1-84-2", 
                    "object-type": "map-range", 
                    "to": "sent-PMC2132561-cmu-208"
                }, 
                {
                    "from": "sent-PMC2132561-UAZ-r1-44-1", 
                    "object-type": "map-range", 
                    "to": "sent-PMC2132561-cmu-84"
                }, 
                {
                    "from": "sent-PMC2132561-UAZ-r1-71-4", 
                    "object-type": "map-range", 
                    "to": "sent-PMC2132561-cmu-172"
                }, 
                {
                    "from": "sent-PMC2132561-UAZ-r1-57-2", 
                    "object-type": "map-range", 
                    "to": "sent-PMC2132561-cmu-129"
                }, 
                {
                    "from": "sent-PMC2132561-UAZ-r1-89-1", 
                    "object-type": "map-range", 
                    "to": "sent-PMC2132561-cmu-260"
                }, 
                {
                    "from": "sent-PMC2132561-UAZ-r1-86-7", 
                    "object-type": "map-range", 
                    "to": "sent-PMC2132561-cmu-239"
                }, 
                {
                    "from": "sent-PMC2132561-UAZ-r1-40-0", 
                    "object-type": "map-range", 
                    "to": "sent-PMC2132561-cmu-77"
                }, 
                {
                    "from": "sent-PMC2132561-UAZ-r1-30-5", 
                    "object-type": "map-range", 
                    "to": "sent-PMC2132561-cmu-58"
                }, 
                {
                    "from": "sent-PMC2132561-UAZ-r1-57-4", 
                    "object-type": "map-range", 
                    "to": "sent-PMC2132561-cmu-133"
                }, 
                {
                    "from": "sent-PMC2132561-UAZ-r1-85-2", 
                    "object-type": "map-range", 
                    "to": "sent-PMC2132561-cmu-219"
                }, 
                {
                    "from": "sent-PMC2132561-UAZ-r1-67-2", 
                    "object-type": "map-range", 
                    "to": "sent-PMC2132561-cmu-156"
                }, 
                {
                    "from": "sent-PMC2132561-UAZ-r1-71-5", 
                    "object-type": "map-range", 
                    "to": "sent-PMC2132561-cmu-173"
                }, 
                {
                    "from": "sent-PMC2132561-UAZ-r1-13-2", 
                    "object-type": "map-range", 
                    "to": "sent-PMC2132561-cmu-33"
                }, 
                {
                    "from": "sent-PMC2132561-UAZ-r1-67-3", 
                    "object-type": "map-range", 
                    "to": "sent-PMC2132561-cmu-157"
                }, 
                {
                    "from": "sent-PMC2132561-UAZ-r1-86-12", 
                    "object-type": "map-range", 
                    "to": "sent-PMC2132561-cmu-247"
                }, 
                {
                    "from": "sent-PMC2132561-UAZ-r1-86-4", 
                    "object-type": "map-range", 
                    "to": "sent-PMC2132561-cmu-234"
                }, 
                {
                    "from": "sent-PMC2132561-UAZ-r1-51-9", 
                    "object-type": "map-range", 
                    "to": "sent-PMC2132561-cmu-116"
                }, 
                {
                    "from": "sent-PMC2132561-UAZ-r1-35-0", 
                    "object-type": "map-range", 
                    "to": "sent-PMC2132561-cmu-70"
                }, 
                {
                    "from": "sent-PMC2132561-UAZ-r1-45-2", 
                    "object-type": "map-range", 
                    "to": "sent-PMC2132561-cmu-91"
                }, 
                {
                    "from": "sent-PMC2132561-UAZ-r1-87-2", 
                    "object-type": "map-range", 
                    "to": "sent-PMC2132561-cmu-250"
                }, 
                {
                    "from": "sent-PMC2132561-UAZ-r1-85-4", 
                    "object-type": "map-range", 
                    "to": "sent-PMC2132561-cmu-224"
                }, 
                {
                    "from": "sent-PMC2132561-UAZ-r1-30-0", 
                    "object-type": "map-range", 
                    "to": "sent-PMC2132561-cmu-53"
                }, 
                {
                    "from": "sent-PMC2132561-UAZ-r1-31-7", 
                    "object-type": "map-range", 
                    "to": "sent-PMC2132561-cmu-67"
                }, 
                {
                    "from": "sent-PMC2132561-UAZ-r1-85-1", 
                    "object-type": "map-range", 
                    "to": "sent-PMC2132561-cmu-217"
                }, 
                {
                    "from": "sent-PMC2132561-UAZ-r1-77-1", 
                    "object-type": "map-range", 
                    "to": "sent-PMC2132561-cmu-190"
                }, 
                {
                    "from": "sent-PMC2132561-UAZ-r1-88-5", 
                    "object-type": "map-range", 
                    "to": "sent-PMC2132561-cmu-257"
                }, 
                {
                    "from": "sent-PMC2132561-UAZ-r1-100-5", 
                    "object-type": "map-range", 
                    "to": "sent-PMC2132561-cmu-171"
                }, 
                {
                    "from": "sent-PMC2132561-UAZ-r1-63-3", 
                    "object-type": "map-range", 
                    "to": "sent-PMC2132561-cmu-150"
                }, 
                {
                    "from": "sent-PMC2132561-UAZ-r1-89-2", 
                    "object-type": "map-range", 
                    "to": "sent-PMC2132561-cmu-261"
                }, 
                {
                    "from": "sent-PMC2132561-UAZ-r1-44-0", 
                    "object-type": "map-range", 
                    "to": "sent-PMC2132561-cmu-83"
                }, 
                {
                    "from": "sent-PMC2132561-UAZ-r1-41-2", 
                    "object-type": "map-range", 
                    "to": "sent-PMC2132561-cmu-80"
                }, 
                {
                    "from": "sent-PMC2132561-UAZ-r1-86-4", 
                    "object-type": "map-range", 
                    "to": "sent-PMC2132561-cmu-160"
                }, 
                {
                    "from": "sent-PMC2132561-UAZ-r1-31-0", 
                    "object-type": "map-range", 
                    "to": "sent-PMC2132561-cmu-61"
                }, 
                {
                    "from": "sent-PMC2132561-UAZ-r1-30-2", 
                    "object-type": "map-range", 
                    "to": "sent-PMC2132561-cmu-55"
                }, 
                {
                    "from": "sent-PMC2132561-UAZ-r1-78-3", 
                    "object-type": "map-range", 
                    "to": "sent-PMC2132561-cmu-169"
                }, 
                {
                    "from": "sent-PMC2132561-UAZ-r1-44-6", 
                    "object-type": "map-range", 
                    "to": "sent-PMC2132561-cmu-88"
                }, 
                {
                    "from": "sent-PMC2132561-UAZ-r1-41-3", 
                    "object-type": "map-range", 
                    "to": "sent-PMC2132561-cmu-81"
                }, 
                {
                    "from": "sent-PMC2132561-UAZ-r1-57-3", 
                    "object-type": "map-range", 
                    "to": "sent-PMC2132561-cmu-131"
                }, 
                {
                    "from": "sent-PMC2132561-UAZ-r1-13-0", 
                    "object-type": "map-range", 
                    "to": "sent-PMC2132561-cmu-31"
                }, 
                {
                    "from": "sent-PMC2132561-UAZ-r1-41-0", 
                    "object-type": "map-range", 
                    "to": "sent-PMC2132561-cmu-78"
                }, 
                {
                    "from": "sent-PMC2132561-UAZ-r1-66-1", 
                    "object-type": "map-range", 
                    "to": "sent-PMC2132561-cmu-153"
                }, 
                {
                    "from": "sent-PMC2132561-UAZ-r1-84-6", 
                    "object-type": "map-range", 
                    "to": "sent-PMC2132561-cmu-213"
                }, 
                {
                    "from": "sent-PMC2132561-UAZ-r1-51-5", 
                    "object-type": "map-range", 
                    "to": "sent-PMC2132561-cmu-112"
                }, 
                {
                    "from": "sent-PMC2132561-UAZ-r1-87-0", 
                    "object-type": "map-range", 
                    "to": "sent-PMC2132561-cmu-248"
                }, 
                {
                    "from": "sent-PMC2132561-UAZ-r1-78-5", 
                    "object-type": "map-range", 
                    "to": "sent-PMC2132561-cmu-196"
                }, 
                {
                    "from": "sent-PMC2132561-UAZ-r1-84-8", 
                    "object-type": "map-range", 
                    "to": "sent-PMC2132561-cmu-215"
                }, 
                {
                    "from": "sent-PMC2132561-UAZ-r1-27-5", 
                    "object-type": "map-range", 
                    "to": "sent-PMC2132561-cmu-51"
                }, 
                {
                    "from": "sent-PMC2132561-UAZ-r1-71-0", 
                    "object-type": "map-range", 
                    "to": "sent-PMC2132561-cmu-166"
                }, 
                {
                    "from": "sent-PMC2132561-UAZ-r1-51-10", 
                    "object-type": "map-range", 
                    "to": "sent-PMC2132561-cmu-117"
                }, 
                {
                    "from": "sent-PMC2132561-UAZ-r1-30-7", 
                    "object-type": "map-range", 
                    "to": "sent-PMC2132561-cmu-59"
                }, 
                {
                    "from": "sent-PMC2132561-UAZ-r1-51-8", 
                    "object-type": "map-range", 
                    "to": "sent-PMC2132561-cmu-115"
                }, 
                {
                    "from": "sent-PMC2132561-UAZ-r1-73-0", 
                    "object-type": "map-range", 
                    "to": "sent-PMC2132561-cmu-182"
                }, 
                {
                    "from": "sent-PMC2132561-UAZ-r1-45-1", 
                    "object-type": "map-range", 
                    "to": "sent-PMC2132561-cmu-90"
                }, 
                {
                    "from": "sent-PMC2132561-UAZ-r1-58-3", 
                    "object-type": "map-range", 
                    "to": "sent-PMC2132561-cmu-137"
                }, 
                {
                    "from": "sent-PMC2132561-UAZ-r1-85-0", 
                    "object-type": "map-range", 
                    "to": "sent-PMC2132561-cmu-216"
                }, 
                {
                    "from": "sent-PMC2132561-UAZ-r1-90-2", 
                    "object-type": "map-range", 
                    "to": "sent-PMC2132561-cmu-267"
                }, 
                {
                    "from": "sent-PMC2132561-UAZ-r1-27-3", 
                    "object-type": "map-range", 
                    "to": "sent-PMC2132561-cmu-49"
                }, 
                {
                    "from": "sent-PMC2132561-UAZ-r1-88-5", 
                    "object-type": "map-range", 
                    "to": "sent-PMC2132561-cmu-258"
                }, 
                {
                    "from": "sent-PMC2132561-UAZ-r1-88-1", 
                    "object-type": "map-range", 
                    "to": "sent-PMC2132561-cmu-253"
                }, 
                {
                    "from": "sent-PMC2132561-UAZ-r1-72-3", 
                    "object-type": "map-range", 
                    "to": "sent-PMC2132561-cmu-179"
                }, 
                {
                    "from": "sent-PMC2132561-UAZ-r1-11-0", 
                    "object-type": "map-range", 
                    "to": "sent-PMC2132561-cmu-26"
                }, 
                {
                    "from": "sent-PMC2132561-UAZ-r1-90-3", 
                    "object-type": "map-range", 
                    "to": "sent-PMC2132561-cmu-268"
                }, 
                {
                    "from": "sent-PMC2132561-UAZ-r1-86-0", 
                    "object-type": "map-range", 
                    "to": "sent-PMC2132561-cmu-229"
                }, 
                {
                    "from": "sent-PMC2132561-UAZ-r1-30-4", 
                    "object-type": "map-range", 
                    "to": "sent-PMC2132561-cmu-57"
                }, 
                {
                    "from": "sent-PMC2132561-UAZ-r1-44-3", 
                    "object-type": "map-range", 
                    "to": "sent-PMC2132561-cmu-86"
                }, 
                {
                    "from": "sent-PMC2132561-UAZ-r1-84-4", 
                    "object-type": "map-range", 
                    "to": "sent-PMC2132561-cmu-210"
                }, 
                {
                    "from": "sent-PMC2132561-UAZ-r1-77-0", 
                    "object-type": "map-range", 
                    "to": "sent-PMC2132561-cmu-189"
                }, 
                {
                    "from": "sent-PMC2132561-UAZ-r1-44-4", 
                    "object-type": "map-range", 
                    "to": "sent-PMC2132561-cmu-87"
                }, 
                {
                    "from": "sent-PMC2132561-UAZ-r1-38-3", 
                    "object-type": "map-range", 
                    "to": "sent-PMC2132561-cmu-75"
                }, 
                {
                    "from": "sent-PMC2132561-UAZ-r1-87-3", 
                    "object-type": "map-range", 
                    "to": "sent-PMC2132561-cmu-251"
                }, 
                {
                    "from": "sent-PMC2132561-UAZ-r1-85-5", 
                    "object-type": "map-range", 
                    "to": "sent-PMC2132561-cmu-225"
                }, 
                {
                    "from": "sent-PMC2132561-UAZ-r1-48-10", 
                    "object-type": "map-range", 
                    "to": "sent-PMC2132561-cmu-105"
                }, 
                {
                    "from": "sent-PMC2132561-UAZ-r1-58-2", 
                    "object-type": "map-range", 
                    "to": "sent-PMC2132561-cmu-136"
                }, 
                {
                    "from": "sent-PMC2132561-UAZ-r1-70-0", 
                    "object-type": "map-range", 
                    "to": "sent-PMC2132561-cmu-165"
                }, 
                {
                    "from": "sent-PMC2132561-UAZ-r1-84-7", 
                    "object-type": "map-range", 
                    "to": "sent-PMC2132561-cmu-214"
                }, 
                {
                    "from": "sent-PMC2132561-UAZ-r1-58-0", 
                    "object-type": "map-range", 
                    "to": "sent-PMC2132561-cmu-134"
                }, 
                {
                    "from": "sent-PMC2132561-UAZ-r1-78-2", 
                    "object-type": "map-range", 
                    "to": "sent-PMC2132561-cmu-193"
                }, 
                {
                    "from": "sent-PMC2132561-UAZ-r1-31-3", 
                    "object-type": "map-range", 
                    "to": "sent-PMC2132561-cmu-64"
                }, 
                {
                    "from": "sent-PMC2132561-UAZ-r1-74-0", 
                    "object-type": "map-range", 
                    "to": "sent-PMC2132561-cmu-187"
                }, 
                {
                    "from": "sent-PMC2132561-UAZ-r1-58-5", 
                    "object-type": "map-range", 
                    "to": "sent-PMC2132561-cmu-147"
                }, 
                {
                    "from": "sent-PMC2132561-UAZ-r1-13-5", 
                    "object-type": "map-range", 
                    "to": "sent-PMC2132561-cmu-36"
                }, 
                {
                    "from": "sent-PMC2132561-UAZ-r1-78-4", 
                    "object-type": "map-range", 
                    "to": "sent-PMC2132561-cmu-195"
                }, 
                {
                    "from": "sent-PMC2132561-UAZ-r1-84-5", 
                    "object-type": "map-range", 
                    "to": "sent-PMC2132561-cmu-212"
                }, 
                {
                    "from": "sent-PMC2132561-UAZ-r1-86-1", 
                    "object-type": "map-range", 
                    "to": "sent-PMC2132561-cmu-230"
                }, 
                {
                    "from": "sent-PMC2132561-UAZ-r1-1-6", 
                    "object-type": "map-range", 
                    "to": "sent-PMC2132561-cmu-220"
                }, 
                {
                    "from": "sent-PMC2132561-UAZ-r1-86-2", 
                    "object-type": "map-range", 
                    "to": "sent-PMC2132561-cmu-231"
                }, 
                {
                    "from": "sent-PMC2132561-UAZ-r1-1-3", 
                    "object-type": "map-range", 
                    "to": "sent-PMC2132561-cmu-209"
                }, 
                {
                    "from": "sent-PMC2132561-UAZ-r1-27-0", 
                    "object-type": "map-range", 
                    "to": "sent-PMC2132561-cmu-46"
                }, 
                {
                    "from": "sent-PMC2132561-UAZ-r1-48-8", 
                    "object-type": "map-range", 
                    "to": "sent-PMC2132561-cmu-103"
                }, 
                {
                    "from": "sent-PMC2132561-UAZ-r1-51-2", 
                    "object-type": "map-range", 
                    "to": "sent-PMC2132561-cmu-109"
                }, 
                {
                    "from": "sent-PMC2132561-UAZ-r1-86-11", 
                    "object-type": "map-range", 
                    "to": "sent-PMC2132561-cmu-246"
                }, 
                {
                    "from": "sent-PMC2132561-UAZ-r1-38-2", 
                    "object-type": "map-range", 
                    "to": "sent-PMC2132561-cmu-74"
                }, 
                {
                    "from": "sent-PMC2132561-UAZ-r1-68-3", 
                    "object-type": "map-range", 
                    "to": "sent-PMC2132561-cmu-162"
                }, 
                {
                    "from": "sent-PMC2132561-UAZ-r1-86-9", 
                    "object-type": "map-range", 
                    "to": "sent-PMC2132561-cmu-241"
                }, 
                {
                    "from": "sent-PMC2132561-UAZ-r1-78-3", 
                    "object-type": "map-range", 
                    "to": "sent-PMC2132561-cmu-194"
                }, 
                {
                    "from": "sent-PMC2132561-UAZ-r1-48-4", 
                    "object-type": "map-range", 
                    "to": "sent-PMC2132561-cmu-99"
                }, 
                {
                    "from": "sent-PMC2132561-UAZ-r1-87-1", 
                    "object-type": "map-range", 
                    "to": "sent-PMC2132561-cmu-249"
                }, 
                {
                    "from": "sent-PMC2132561-UAZ-r1-13-4", 
                    "object-type": "map-range", 
                    "to": "sent-PMC2132561-cmu-35"
                }, 
                {
                    "from": "sent-PMC2132561-UAZ-r1-66-0", 
                    "object-type": "map-range", 
                    "to": "sent-PMC2132561-cmu-152"
                }, 
                {
                    "from": "sent-PMC2132561-UAZ-r1-88-0", 
                    "object-type": "map-range", 
                    "to": "sent-PMC2132561-cmu-252"
                }, 
                {
                    "from": "sent-PMC2132561-UAZ-r1-51-4", 
                    "object-type": "map-range", 
                    "to": "sent-PMC2132561-cmu-111"
                }, 
                {
                    "from": "sent-PMC2132561-UAZ-r1-48-1", 
                    "object-type": "map-range", 
                    "to": "sent-PMC2132561-cmu-96"
                }, 
                {
                    "from": "sent-PMC2132561-UAZ-r1-45-3", 
                    "object-type": "map-range", 
                    "to": "sent-PMC2132561-cmu-92"
                }, 
                {
                    "from": "sent-PMC2132561-UAZ-r1-48-9", 
                    "object-type": "map-range", 
                    "to": "sent-PMC2132561-cmu-104"
                }, 
                {
                    "from": "sent-PMC2132561-UAZ-r1-61-0", 
                    "object-type": "map-range", 
                    "to": "sent-PMC2132561-cmu-143"
                }, 
                {
                    "from": "sent-PMC2132561-UAZ-r1-47-0", 
                    "object-type": "map-range", 
                    "to": "sent-PMC2132561-cmu-93"
                }, 
                {
                    "from": "sent-PMC2132561-UAZ-r1-27-1", 
                    "object-type": "map-range", 
                    "to": "sent-PMC2132561-cmu-47"
                }, 
                {
                    "from": "sent-PMC2132561-UAZ-r1-38-4", 
                    "object-type": "map-range", 
                    "to": "sent-PMC2132561-cmu-76"
                }, 
                {
                    "from": "sent-PMC2132561-UAZ-r1-89-3", 
                    "object-type": "map-range", 
                    "to": "sent-PMC2132561-cmu-262"
                }, 
                {
                    "from": "sent-PMC2132561-UAZ-r1-38-0", 
                    "object-type": "map-range", 
                    "to": "sent-PMC2132561-cmu-72"
                }, 
                {
                    "from": "sent-PMC2132561-UAZ-r1-84-1", 
                    "object-type": "map-range", 
                    "to": "sent-PMC2132561-cmu-207"
                }, 
                {
                    "from": "sent-PMC2132561-UAZ-r1-89-0", 
                    "object-type": "map-range", 
                    "to": "sent-PMC2132561-cmu-259"
                }, 
                {
                    "from": "sent-PMC2132561-UAZ-r1-86-10", 
                    "object-type": "map-range", 
                    "to": "sent-PMC2132561-cmu-245"
                }, 
                {
                    "from": "sent-PMC2132561-UAZ-r1-62-1", 
                    "object-type": "map-range", 
                    "to": "sent-PMC2132561-cmu-145"
                }, 
                {
                    "from": "sent-PMC2132561-UAZ-r1-48-2", 
                    "object-type": "map-range", 
                    "to": "sent-PMC2132561-cmu-97"
                }, 
                {
                    "from": "sent-PMC2132561-UAZ-r1-79-0", 
                    "object-type": "map-range", 
                    "to": "sent-PMC2132561-cmu-197"
                }, 
                {
                    "from": "sent-PMC2132561-UAZ-r1-72-1", 
                    "object-type": "map-range", 
                    "to": "sent-PMC2132561-cmu-177"
                }, 
                {
                    "from": "sent-PMC2132561-UAZ-r1-31-1", 
                    "object-type": "map-range", 
                    "to": "sent-PMC2132561-cmu-62"
                }, 
                {
                    "from": "sent-PMC2132561-UAZ-r1-48-5", 
                    "object-type": "map-range", 
                    "to": "sent-PMC2132561-cmu-100"
                }, 
                {
                    "from": "sent-PMC2132561-UAZ-r1-56-3", 
                    "object-type": "map-range", 
                    "to": "sent-PMC2132561-cmu-125"
                }, 
                {
                    "from": "sent-PMC2132561-UAZ-r1-72-2", 
                    "object-type": "map-range", 
                    "to": "sent-PMC2132561-cmu-178"
                }, 
                {
                    "from": "sent-PMC2132561-UAZ-r1-48-7", 
                    "object-type": "map-range", 
                    "to": "sent-PMC2132561-cmu-102"
                }, 
                {
                    "from": "sent-PMC2132561-UAZ-r1-31-2", 
                    "object-type": "map-range", 
                    "to": "sent-PMC2132561-cmu-63"
                }, 
                {
                    "from": "sent-PMC2132561-UAZ-r1-51-0", 
                    "object-type": "map-range", 
                    "to": "sent-PMC2132561-cmu-107"
                }, 
                {
                    "from": "sent-PMC2132561-UAZ-r1-56-4", 
                    "object-type": "map-range", 
                    "to": "sent-PMC2132561-cmu-126"
                }, 
                {
                    "from": "sent-PMC2132561-UAZ-r1-48-0", 
                    "object-type": "map-range", 
                    "to": "sent-PMC2132561-cmu-94"
                }, 
                {
                    "from": "sent-PMC2132561-UAZ-r1-81-0", 
                    "object-type": "map-range", 
                    "to": "sent-PMC2132561-cmu-204"
                }, 
                {
                    "from": "sent-PMC2132561-UAZ-r1-27-4", 
                    "object-type": "map-range", 
                    "to": "sent-PMC2132561-cmu-50"
                }, 
                {
                    "from": "sent-PMC2132561-UAZ-r1-13-3", 
                    "object-type": "map-range", 
                    "to": "sent-PMC2132561-cmu-34"
                }, 
                {
                    "from": "sent-PMC2132561-UAZ-r1-13-1", 
                    "object-type": "map-range", 
                    "to": "sent-PMC2132561-cmu-32"
                }, 
                {
                    "from": "sent-PMC2132561-UAZ-r1-45-0", 
                    "object-type": "map-range", 
                    "to": "sent-PMC2132561-cmu-89"
                }, 
                {
                    "from": "sent-PMC2132561-UAZ-r1-44-2", 
                    "object-type": "map-range", 
                    "to": "sent-PMC2132561-cmu-85"
                }, 
                {
                    "from": "sent-PMC2132561-UAZ-r1-48-3", 
                    "object-type": "map-range", 
                    "to": "sent-PMC2132561-cmu-98"
                }, 
                {
                    "from": "sent-PMC2132561-UAZ-r1-84-0", 
                    "object-type": "map-range", 
                    "to": "sent-PMC2132561-cmu-206"
                }, 
                {
                    "from": "sent-PMC2132561-UAZ-r1-65-0", 
                    "object-type": "map-range", 
                    "to": "sent-PMC2132561-cmu-151"
                }, 
                {
                    "from": "sent-PMC2132561-UAZ-r1-56-0", 
                    "object-type": "map-range", 
                    "to": "sent-PMC2132561-cmu-120"
                }, 
                {
                    "from": "sent-PMC2132561-UAZ-r1-72-0", 
                    "object-type": "map-range", 
                    "to": "sent-PMC2132561-cmu-176"
                }, 
                {
                    "from": "sent-PMC2132561-UAZ-r1-89-5", 
                    "object-type": "map-range", 
                    "to": "sent-PMC2132561-cmu-264"
                }, 
                {
                    "from": "sent-PMC2132561-UAZ-r1-30-1", 
                    "object-type": "map-range", 
                    "to": "sent-PMC2132561-cmu-54"
                }, 
                {
                    "from": "sent-PMC2132561-UAZ-r1-51-1", 
                    "object-type": "map-range", 
                    "to": "sent-PMC2132561-cmu-108"
                }, 
                {
                    "from": "sent-PMC2132561-UAZ-r1-58-6", 
                    "object-type": "map-range", 
                    "to": "sent-PMC2132561-cmu-202"
                }
            ], 
            "object-meta": {
                "component": "Pradeep-Matcher", 
                "object-type": "meta-info", 
                "organization": "CMU"
            }, 
            "object-type": "frame"
        }, 
        {
            "frame-id": "smap-PMC2132561-cmu-2", 
            "frame-type": "sentence-map", 
            "list1-meta": {
                "component": "MedScan", 
                "object-type": "meta-info", 
                "organization": "CMU"
            }, 
            "list2-meta": {
                "component": "Nicolas-NXML-Parser", 
                "object-type": "meta-info", 
                "organization": "CMU"
            }, 
            "map": [
                {
                    "from": "sent-PMC2132561-medscan-125", 
                    "object-type": "map-range", 
                    "to": "sent-PMC2132561-cmu-155"
                }, 
                {
                    "from": "sent-PMC2132561-medscan-183", 
                    "object-type": "map-range", 
                    "to": "sent-PMC2132561-cmu-238"
                }, 
                {
                    "from": "sent-PMC2132561-medscan-22", 
                    "object-type": "map-range", 
                    "to": "sent-PMC2132561-cmu-23"
                }, 
                {
                    "from": "sent-PMC2132561-medscan-137", 
                    "object-type": "map-range", 
                    "to": "sent-PMC2132561-cmu-174"
                }, 
                {
                    "from": "sent-PMC2132561-medscan-18", 
                    "object-type": "map-range", 
                    "to": "sent-PMC2132561-cmu-19"
                }, 
                {
                    "from": "sent-PMC2132561-medscan-157", 
                    "object-type": "map-range", 
                    "to": "sent-PMC2132561-cmu-201"
                }, 
                {
                    "from": "sent-PMC2132561-medscan-157", 
                    "object-type": "map-range", 
                    "to": "sent-PMC2132561-cmu-201"
                }, 
                {
                    "from": "sent-PMC2132561-medscan-177", 
                    "object-type": "map-range", 
                    "to": "sent-PMC2132561-cmu-226"
                }, 
                {
                    "from": "sent-PMC2132561-medscan-174", 
                    "object-type": "map-range", 
                    "to": "sent-PMC2132561-cmu-223"
                }, 
                {
                    "from": "sent-PMC2132561-medscan-124", 
                    "object-type": "map-range", 
                    "to": "sent-PMC2132561-cmu-154"
                }, 
                {
                    "from": "sent-PMC2132561-medscan-204", 
                    "object-type": "map-range", 
                    "to": "sent-PMC2132561-cmu-265"
                }, 
                {
                    "from": "sent-PMC2132561-medscan-66", 
                    "object-type": "map-range", 
                    "to": "sent-PMC2132561-cmu-79"
                }, 
                {
                    "from": "sent-PMC2132561-medscan-61", 
                    "object-type": "map-range", 
                    "to": "sent-PMC2132561-cmu-73"
                }, 
                {
                    "from": "sent-PMC2132561-medscan-202", 
                    "object-type": "map-range", 
                    "to": "sent-PMC2132561-cmu-263"
                }, 
                {
                    "from": "sent-PMC2132561-medscan-46", 
                    "object-type": "map-range", 
                    "to": "sent-PMC2132561-cmu-56"
                }, 
                {
                    "from": "sent-PMC2132561-medscan-182", 
                    "object-type": "map-range", 
                    "to": "sent-PMC2132561-cmu-235"
                }, 
                {
                    "from": "sent-PMC2132561-medscan-39", 
                    "object-type": "map-range", 
                    "to": "sent-PMC2132561-cmu-48"
                }, 
                {
                    "from": "sent-PMC2132561-medscan-116", 
                    "object-type": "map-range", 
                    "to": "sent-PMC2132561-cmu-144"
                }, 
                {
                    "from": "sent-PMC2132561-medscan-150", 
                    "object-type": "map-range", 
                    "to": "sent-PMC2132561-cmu-191"
                }, 
                {
                    "from": "sent-PMC2132561-medscan-97", 
                    "object-type": "map-range", 
                    "to": "sent-PMC2132561-cmu-113"
                }, 
                {
                    "from": "sent-PMC2132561-medscan-156", 
                    "object-type": "map-range", 
                    "to": "sent-PMC2132561-cmu-200"
                }, 
                {
                    "from": "sent-PMC2132561-medscan-195", 
                    "object-type": "map-range", 
                    "to": "sent-PMC2132561-cmu-256"
                }, 
                {
                    "from": "sent-PMC2132561-medscan-205", 
                    "object-type": "map-range", 
                    "to": "sent-PMC2132561-cmu-266"
                }, 
                {
                    "from": "sent-PMC2132561-medscan-162", 
                    "object-type": "map-range", 
                    "to": "sent-PMC2132561-cmu-208"
                }, 
                {
                    "from": "sent-PMC2132561-medscan-70", 
                    "object-type": "map-range", 
                    "to": "sent-PMC2132561-cmu-84"
                }, 
                {
                    "from": "sent-PMC2132561-medscan-87", 
                    "object-type": "map-range", 
                    "to": "sent-PMC2132561-cmu-101"
                }, 
                {
                    "from": "sent-PMC2132561-medscan-135", 
                    "object-type": "map-range", 
                    "to": "sent-PMC2132561-cmu-172"
                }, 
                {
                    "from": "sent-PMC2132561-medscan-105", 
                    "object-type": "map-range", 
                    "to": "sent-PMC2132561-cmu-129"
                }, 
                {
                    "from": "sent-PMC2132561-medscan-26", 
                    "object-type": "map-range", 
                    "to": "sent-PMC2132561-cmu-30"
                }, 
                {
                    "from": "sent-PMC2132561-medscan-199", 
                    "object-type": "map-range", 
                    "to": "sent-PMC2132561-cmu-260"
                }, 
                {
                    "from": "sent-PMC2132561-medscan-184", 
                    "object-type": "map-range", 
                    "to": "sent-PMC2132561-cmu-239"
                }, 
                {
                    "from": "sent-PMC2132561-medscan-48", 
                    "object-type": "map-range", 
                    "to": "sent-PMC2132561-cmu-58"
                }, 
                {
                    "from": "sent-PMC2132561-medscan-33", 
                    "object-type": "map-range", 
                    "to": "sent-PMC2132561-cmu-37"
                }, 
                {
                    "from": "sent-PMC2132561-medscan-107", 
                    "object-type": "map-range", 
                    "to": "sent-PMC2132561-cmu-133"
                }, 
                {
                    "from": "sent-PMC2132561-medscan-171", 
                    "object-type": "map-range", 
                    "to": "sent-PMC2132561-cmu-219"
                }, 
                {
                    "from": "sent-PMC2132561-medscan-126", 
                    "object-type": "map-range", 
                    "to": "sent-PMC2132561-cmu-156"
                }, 
                {
                    "from": "sent-PMC2132561-medscan-136", 
                    "object-type": "map-range", 
                    "to": "sent-PMC2132561-cmu-173"
                }, 
                {
                    "from": "sent-PMC2132561-medscan-29", 
                    "object-type": "map-range", 
                    "to": "sent-PMC2132561-cmu-33"
                }, 
                {
                    "from": "sent-PMC2132561-medscan-21", 
                    "object-type": "map-range", 
                    "to": "sent-PMC2132561-cmu-22"
                }, 
                {
                    "from": "sent-PMC2132561-medscan-127", 
                    "object-type": "map-range", 
                    "to": "sent-PMC2132561-cmu-157"
                }, 
                {
                    "from": "sent-PMC2132561-medscan-188", 
                    "object-type": "map-range", 
                    "to": "sent-PMC2132561-cmu-247"
                }, 
                {
                    "from": "sent-PMC2132561-medscan-181", 
                    "object-type": "map-range", 
                    "to": "sent-PMC2132561-cmu-234"
                }, 
                {
                    "from": "sent-PMC2132561-medscan-99", 
                    "object-type": "map-range", 
                    "to": "sent-PMC2132561-cmu-116"
                }, 
                {
                    "from": "sent-PMC2132561-medscan-58", 
                    "object-type": "map-range", 
                    "to": "sent-PMC2132561-cmu-70"
                }, 
                {
                    "from": "sent-PMC2132561-medscan-78", 
                    "object-type": "map-range", 
                    "to": "sent-PMC2132561-cmu-91"
                }, 
                {
                    "from": "sent-PMC2132561-medscan-191", 
                    "object-type": "map-range", 
                    "to": "sent-PMC2132561-cmu-250"
                }, 
                {
                    "from": "sent-PMC2132561-medscan-175", 
                    "object-type": "map-range", 
                    "to": "sent-PMC2132561-cmu-224"
                }, 
                {
                    "from": "sent-PMC2132561-medscan-43", 
                    "object-type": "map-range", 
                    "to": "sent-PMC2132561-cmu-53"
                }, 
                {
                    "from": "sent-PMC2132561-medscan-56", 
                    "object-type": "map-range", 
                    "to": "sent-PMC2132561-cmu-67"
                }, 
                {
                    "from": "sent-PMC2132561-medscan-170", 
                    "object-type": "map-range", 
                    "to": "sent-PMC2132561-cmu-217"
                }, 
                {
                    "from": "sent-PMC2132561-medscan-197", 
                    "object-type": "map-range", 
                    "to": "sent-PMC2132561-cmu-257"
                }, 
                {
                    "from": "sent-PMC2132561-medscan-197", 
                    "object-type": "map-range", 
                    "to": "sent-PMC2132561-cmu-257"
                }, 
                {
                    "from": "sent-PMC2132561-medscan-134", 
                    "object-type": "map-range", 
                    "to": "sent-PMC2132561-cmu-171"
                }, 
                {
                    "from": "sent-PMC2132561-medscan-121", 
                    "object-type": "map-range", 
                    "to": "sent-PMC2132561-cmu-150"
                }, 
                {
                    "from": "sent-PMC2132561-medscan-200", 
                    "object-type": "map-range", 
                    "to": "sent-PMC2132561-cmu-261"
                }, 
                {
                    "from": "sent-PMC2132561-medscan-69", 
                    "object-type": "map-range", 
                    "to": "sent-PMC2132561-cmu-83"
                }, 
                {
                    "from": "sent-PMC2132561-medscan-67", 
                    "object-type": "map-range", 
                    "to": "sent-PMC2132561-cmu-80"
                }, 
                {
                    "from": "sent-PMC2132561-medscan-181", 
                    "object-type": "map-range", 
                    "to": "sent-PMC2132561-cmu-160"
                }, 
                {
                    "from": "sent-PMC2132561-medscan-181", 
                    "object-type": "map-range", 
                    "to": "sent-PMC2132561-cmu-160"
                }, 
                {
                    "from": "sent-PMC2132561-medscan-51", 
                    "object-type": "map-range", 
                    "to": "sent-PMC2132561-cmu-61"
                }, 
                {
                    "from": "sent-PMC2132561-medscan-133", 
                    "object-type": "map-range", 
                    "to": "sent-PMC2132561-cmu-169"
                }, 
                {
                    "from": "sent-PMC2132561-medscan-133", 
                    "object-type": "map-range", 
                    "to": "sent-PMC2132561-cmu-169"
                }, 
                {
                    "from": "sent-PMC2132561-medscan-75", 
                    "object-type": "map-range", 
                    "to": "sent-PMC2132561-cmu-88"
                }, 
                {
                    "from": "sent-PMC2132561-medscan-12", 
                    "object-type": "map-range", 
                    "to": "sent-PMC2132561-cmu-13"
                }, 
                {
                    "from": "sent-PMC2132561-medscan-25", 
                    "object-type": "map-range", 
                    "to": "sent-PMC2132561-cmu-29"
                }, 
                {
                    "from": "sent-PMC2132561-medscan-68", 
                    "object-type": "map-range", 
                    "to": "sent-PMC2132561-cmu-81"
                }, 
                {
                    "from": "sent-PMC2132561-medscan-106", 
                    "object-type": "map-range", 
                    "to": "sent-PMC2132561-cmu-131"
                }, 
                {
                    "from": "sent-PMC2132561-medscan-27", 
                    "object-type": "map-range", 
                    "to": "sent-PMC2132561-cmu-31"
                }, 
                {
                    "from": "sent-PMC2132561-medscan-65", 
                    "object-type": "map-range", 
                    "to": "sent-PMC2132561-cmu-78"
                }, 
                {
                    "from": "sent-PMC2132561-medscan-123", 
                    "object-type": "map-range", 
                    "to": "sent-PMC2132561-cmu-153"
                }, 
                {
                    "from": "sent-PMC2132561-medscan-8", 
                    "object-type": "map-range", 
                    "to": "sent-PMC2132561-cmu-9"
                }, 
                {
                    "from": "sent-PMC2132561-medscan-10", 
                    "object-type": "map-range", 
                    "to": "sent-PMC2132561-cmu-11"
                }, 
                {
                    "from": "sent-PMC2132561-medscan-166", 
                    "object-type": "map-range", 
                    "to": "sent-PMC2132561-cmu-213"
                }, 
                {
                    "from": "sent-PMC2132561-medscan-13", 
                    "object-type": "map-range", 
                    "to": "sent-PMC2132561-cmu-14"
                }, 
                {
                    "from": "sent-PMC2132561-medscan-96", 
                    "object-type": "map-range", 
                    "to": "sent-PMC2132561-cmu-112"
                }, 
                {
                    "from": "sent-PMC2132561-medscan-189", 
                    "object-type": "map-range", 
                    "to": "sent-PMC2132561-cmu-248"
                }, 
                {
                    "from": "sent-PMC2132561-medscan-168", 
                    "object-type": "map-range", 
                    "to": "sent-PMC2132561-cmu-215"
                }, 
                {
                    "from": "sent-PMC2132561-medscan-42", 
                    "object-type": "map-range", 
                    "to": "sent-PMC2132561-cmu-51"
                }, 
                {
                    "from": "sent-PMC2132561-medscan-131", 
                    "object-type": "map-range", 
                    "to": "sent-PMC2132561-cmu-166"
                }, 
                {
                    "from": "sent-PMC2132561-medscan-100", 
                    "object-type": "map-range", 
                    "to": "sent-PMC2132561-cmu-117"
                }, 
                {
                    "from": "sent-PMC2132561-medscan-98", 
                    "object-type": "map-range", 
                    "to": "sent-PMC2132561-cmu-115"
                }, 
                {
                    "from": "sent-PMC2132561-medscan-145", 
                    "object-type": "map-range", 
                    "to": "sent-PMC2132561-cmu-182"
                }, 
                {
                    "from": "sent-PMC2132561-medscan-77", 
                    "object-type": "map-range", 
                    "to": "sent-PMC2132561-cmu-90"
                }, 
                {
                    "from": "sent-PMC2132561-medscan-111", 
                    "object-type": "map-range", 
                    "to": "sent-PMC2132561-cmu-137"
                }, 
                {
                    "from": "sent-PMC2132561-medscan-169", 
                    "object-type": "map-range", 
                    "to": "sent-PMC2132561-cmu-216"
                }, 
                {
                    "from": "sent-PMC2132561-medscan-206", 
                    "object-type": "map-range", 
                    "to": "sent-PMC2132561-cmu-267"
                }, 
                {
                    "from": "sent-PMC2132561-medscan-197", 
                    "object-type": "map-range", 
                    "to": "sent-PMC2132561-cmu-258"
                }, 
                {
                    "from": "sent-PMC2132561-medscan-197", 
                    "object-type": "map-range", 
                    "to": "sent-PMC2132561-cmu-258"
                }, 
                {
                    "from": "sent-PMC2132561-medscan-2", 
                    "object-type": "map-range", 
                    "to": "sent-PMC2132561-cmu-3"
                }, 
                {
                    "from": "sent-PMC2132561-medscan-194", 
                    "object-type": "map-range", 
                    "to": "sent-PMC2132561-cmu-253"
                }, 
                {
                    "from": "sent-PMC2132561-medscan-142", 
                    "object-type": "map-range", 
                    "to": "sent-PMC2132561-cmu-179"
                }, 
                {
                    "from": "sent-PMC2132561-medscan-207", 
                    "object-type": "map-range", 
                    "to": "sent-PMC2132561-cmu-268"
                }, 
                {
                    "from": "sent-PMC2132561-medscan-178", 
                    "object-type": "map-range", 
                    "to": "sent-PMC2132561-cmu-229"
                }, 
                {
                    "from": "sent-PMC2132561-medscan-47", 
                    "object-type": "map-range", 
                    "to": "sent-PMC2132561-cmu-57"
                }, 
                {
                    "from": "sent-PMC2132561-medscan-72", 
                    "object-type": "map-range", 
                    "to": "sent-PMC2132561-cmu-86"
                }, 
                {
                    "from": "sent-PMC2132561-medscan-164", 
                    "object-type": "map-range", 
                    "to": "sent-PMC2132561-cmu-210"
                }, 
                {
                    "from": "sent-PMC2132561-medscan-148", 
                    "object-type": "map-range", 
                    "to": "sent-PMC2132561-cmu-189"
                }, 
                {
                    "from": "sent-PMC2132561-medscan-73", 
                    "object-type": "map-range", 
                    "to": "sent-PMC2132561-cmu-87"
                }, 
                {
                    "from": "sent-PMC2132561-medscan-63", 
                    "object-type": "map-range", 
                    "to": "sent-PMC2132561-cmu-75"
                }, 
                {
                    "from": "sent-PMC2132561-medscan-192", 
                    "object-type": "map-range", 
                    "to": "sent-PMC2132561-cmu-251"
                }, 
                {
                    "from": "sent-PMC2132561-medscan-176", 
                    "object-type": "map-range", 
                    "to": "sent-PMC2132561-cmu-225"
                }, 
                {
                    "from": "sent-PMC2132561-medscan-91", 
                    "object-type": "map-range", 
                    "to": "sent-PMC2132561-cmu-105"
                }, 
                {
                    "from": "sent-PMC2132561-medscan-110", 
                    "object-type": "map-range", 
                    "to": "sent-PMC2132561-cmu-136"
                }, 
                {
                    "from": "sent-PMC2132561-medscan-167", 
                    "object-type": "map-range", 
                    "to": "sent-PMC2132561-cmu-214"
                }, 
                {
                    "from": "sent-PMC2132561-medscan-108", 
                    "object-type": "map-range", 
                    "to": "sent-PMC2132561-cmu-134"
                }, 
                {
                    "from": "sent-PMC2132561-medscan-151", 
                    "object-type": "map-range", 
                    "to": "sent-PMC2132561-cmu-193"
                }, 
                {
                    "from": "sent-PMC2132561-medscan-54", 
                    "object-type": "map-range", 
                    "to": "sent-PMC2132561-cmu-64"
                }, 
                {
                    "from": "sent-PMC2132561-medscan-147", 
                    "object-type": "map-range", 
                    "to": "sent-PMC2132561-cmu-187"
                }, 
                {
                    "from": "sent-PMC2132561-medscan-7", 
                    "object-type": "map-range", 
                    "to": "sent-PMC2132561-cmu-8"
                }, 
                {
                    "from": "sent-PMC2132561-medscan-118", 
                    "object-type": "map-range", 
                    "to": "sent-PMC2132561-cmu-147"
                }, 
                {
                    "from": "sent-PMC2132561-medscan-165", 
                    "object-type": "map-range", 
                    "to": "sent-PMC2132561-cmu-212"
                }, 
                {
                    "from": "sent-PMC2132561-medscan-179", 
                    "object-type": "map-range", 
                    "to": "sent-PMC2132561-cmu-230"
                }, 
                {
                    "from": "sent-PMC2132561-medscan-172", 
                    "object-type": "map-range", 
                    "to": "sent-PMC2132561-cmu-220"
                }, 
                {
                    "from": "sent-PMC2132561-medscan-1", 
                    "object-type": "map-range", 
                    "to": "sent-PMC2132561-cmu-2"
                }, 
                {
                    "from": "sent-PMC2132561-medscan-23", 
                    "object-type": "map-range", 
                    "to": "sent-PMC2132561-cmu-24"
                }, 
                {
                    "from": "sent-PMC2132561-medscan-180", 
                    "object-type": "map-range", 
                    "to": "sent-PMC2132561-cmu-231"
                }, 
                {
                    "from": "sent-PMC2132561-medscan-163", 
                    "object-type": "map-range", 
                    "to": "sent-PMC2132561-cmu-209"
                }, 
                {
                    "from": "sent-PMC2132561-medscan-37", 
                    "object-type": "map-range", 
                    "to": "sent-PMC2132561-cmu-46"
                }, 
                {
                    "from": "sent-PMC2132561-medscan-89", 
                    "object-type": "map-range", 
                    "to": "sent-PMC2132561-cmu-103"
                }, 
                {
                    "from": "sent-PMC2132561-medscan-94", 
                    "object-type": "map-range", 
                    "to": "sent-PMC2132561-cmu-109"
                }, 
                {
                    "from": "sent-PMC2132561-medscan-187", 
                    "object-type": "map-range", 
                    "to": "sent-PMC2132561-cmu-246"
                }, 
                {
                    "from": "sent-PMC2132561-medscan-62", 
                    "object-type": "map-range", 
                    "to": "sent-PMC2132561-cmu-74"
                }, 
                {
                    "from": "sent-PMC2132561-medscan-130", 
                    "object-type": "map-range", 
                    "to": "sent-PMC2132561-cmu-162"
                }, 
                {
                    "from": "sent-PMC2132561-medscan-185", 
                    "object-type": "map-range", 
                    "to": "sent-PMC2132561-cmu-241"
                }, 
                {
                    "from": "sent-PMC2132561-medscan-0", 
                    "object-type": "map-range", 
                    "to": "sent-PMC2132561-cmu-1"
                }, 
                {
                    "from": "sent-PMC2132561-medscan-4", 
                    "object-type": "map-range", 
                    "to": "sent-PMC2132561-cmu-5"
                }, 
                {
                    "from": "sent-PMC2132561-medscan-133", 
                    "object-type": "map-range", 
                    "to": "sent-PMC2132561-cmu-194"
                }, 
                {
                    "from": "sent-PMC2132561-medscan-133", 
                    "object-type": "map-range", 
                    "to": "sent-PMC2132561-cmu-194"
                }, 
                {
                    "from": "sent-PMC2132561-medscan-85", 
                    "object-type": "map-range", 
                    "to": "sent-PMC2132561-cmu-99"
                }, 
                {
                    "from": "sent-PMC2132561-medscan-173", 
                    "object-type": "map-range", 
                    "to": "sent-PMC2132561-cmu-222"
                }, 
                {
                    "from": "sent-PMC2132561-medscan-190", 
                    "object-type": "map-range", 
                    "to": "sent-PMC2132561-cmu-249"
                }, 
                {
                    "from": "sent-PMC2132561-medscan-31", 
                    "object-type": "map-range", 
                    "to": "sent-PMC2132561-cmu-35"
                }, 
                {
                    "from": "sent-PMC2132561-medscan-20", 
                    "object-type": "map-range", 
                    "to": "sent-PMC2132561-cmu-21"
                }, 
                {
                    "from": "sent-PMC2132561-medscan-122", 
                    "object-type": "map-range", 
                    "to": "sent-PMC2132561-cmu-152"
                }, 
                {
                    "from": "sent-PMC2132561-medscan-193", 
                    "object-type": "map-range", 
                    "to": "sent-PMC2132561-cmu-252"
                }, 
                {
                    "from": "sent-PMC2132561-medscan-95", 
                    "object-type": "map-range", 
                    "to": "sent-PMC2132561-cmu-111"
                }, 
                {
                    "from": "sent-PMC2132561-medscan-50", 
                    "object-type": "map-range", 
                    "to": "sent-PMC2132561-cmu-60"
                }, 
                {
                    "from": "sent-PMC2132561-medscan-82", 
                    "object-type": "map-range", 
                    "to": "sent-PMC2132561-cmu-96"
                }, 
                {
                    "from": "sent-PMC2132561-medscan-79", 
                    "object-type": "map-range", 
                    "to": "sent-PMC2132561-cmu-92"
                }, 
                {
                    "from": "sent-PMC2132561-medscan-90", 
                    "object-type": "map-range", 
                    "to": "sent-PMC2132561-cmu-104"
                }, 
                {
                    "from": "sent-PMC2132561-medscan-132", 
                    "object-type": "map-range", 
                    "to": "sent-PMC2132561-cmu-167"
                }, 
                {
                    "from": "sent-PMC2132561-medscan-38", 
                    "object-type": "map-range", 
                    "to": "sent-PMC2132561-cmu-47"
                }, 
                {
                    "from": "sent-PMC2132561-medscan-64", 
                    "object-type": "map-range", 
                    "to": "sent-PMC2132561-cmu-76"
                }, 
                {
                    "from": "sent-PMC2132561-medscan-201", 
                    "object-type": "map-range", 
                    "to": "sent-PMC2132561-cmu-262"
                }, 
                {
                    "from": "sent-PMC2132561-medscan-60", 
                    "object-type": "map-range", 
                    "to": "sent-PMC2132561-cmu-72"
                }, 
                {
                    "from": "sent-PMC2132561-medscan-161", 
                    "object-type": "map-range", 
                    "to": "sent-PMC2132561-cmu-207"
                }, 
                {
                    "from": "sent-PMC2132561-medscan-14", 
                    "object-type": "map-range", 
                    "to": "sent-PMC2132561-cmu-15"
                }, 
                {
                    "from": "sent-PMC2132561-medscan-198", 
                    "object-type": "map-range", 
                    "to": "sent-PMC2132561-cmu-259"
                }, 
                {
                    "from": "sent-PMC2132561-medscan-186", 
                    "object-type": "map-range", 
                    "to": "sent-PMC2132561-cmu-245"
                }, 
                {
                    "from": "sent-PMC2132561-medscan-117", 
                    "object-type": "map-range", 
                    "to": "sent-PMC2132561-cmu-145"
                }, 
                {
                    "from": "sent-PMC2132561-medscan-55", 
                    "object-type": "map-range", 
                    "to": "sent-PMC2132561-cmu-66"
                }, 
                {
                    "from": "sent-PMC2132561-medscan-15", 
                    "object-type": "map-range", 
                    "to": "sent-PMC2132561-cmu-16"
                }, 
                {
                    "from": "sent-PMC2132561-medscan-83", 
                    "object-type": "map-range", 
                    "to": "sent-PMC2132561-cmu-97"
                }, 
                {
                    "from": "sent-PMC2132561-medscan-154", 
                    "object-type": "map-range", 
                    "to": "sent-PMC2132561-cmu-197"
                }, 
                {
                    "from": "sent-PMC2132561-medscan-140", 
                    "object-type": "map-range", 
                    "to": "sent-PMC2132561-cmu-177"
                }, 
                {
                    "from": "sent-PMC2132561-medscan-52", 
                    "object-type": "map-range", 
                    "to": "sent-PMC2132561-cmu-62"
                }, 
                {
                    "from": "sent-PMC2132561-medscan-11", 
                    "object-type": "map-range", 
                    "to": "sent-PMC2132561-cmu-12"
                }, 
                {
                    "from": "sent-PMC2132561-medscan-86", 
                    "object-type": "map-range", 
                    "to": "sent-PMC2132561-cmu-100"
                }, 
                {
                    "from": "sent-PMC2132561-medscan-102", 
                    "object-type": "map-range", 
                    "to": "sent-PMC2132561-cmu-125"
                }, 
                {
                    "from": "sent-PMC2132561-medscan-141", 
                    "object-type": "map-range", 
                    "to": "sent-PMC2132561-cmu-178"
                }, 
                {
                    "from": "sent-PMC2132561-medscan-88", 
                    "object-type": "map-range", 
                    "to": "sent-PMC2132561-cmu-102"
                }, 
                {
                    "from": "sent-PMC2132561-medscan-53", 
                    "object-type": "map-range", 
                    "to": "sent-PMC2132561-cmu-63"
                }, 
                {
                    "from": "sent-PMC2132561-medscan-103", 
                    "object-type": "map-range", 
                    "to": "sent-PMC2132561-cmu-126"
                }, 
                {
                    "from": "sent-PMC2132561-medscan-81", 
                    "object-type": "map-range", 
                    "to": "sent-PMC2132561-cmu-94"
                }, 
                {
                    "from": "sent-PMC2132561-medscan-159", 
                    "object-type": "map-range", 
                    "to": "sent-PMC2132561-cmu-204"
                }, 
                {
                    "from": "sent-PMC2132561-medscan-41", 
                    "object-type": "map-range", 
                    "to": "sent-PMC2132561-cmu-50"
                }, 
                {
                    "from": "sent-PMC2132561-medscan-30", 
                    "object-type": "map-range", 
                    "to": "sent-PMC2132561-cmu-34"
                }, 
                {
                    "from": "sent-PMC2132561-medscan-28", 
                    "object-type": "map-range", 
                    "to": "sent-PMC2132561-cmu-32"
                }, 
                {
                    "from": "sent-PMC2132561-medscan-76", 
                    "object-type": "map-range", 
                    "to": "sent-PMC2132561-cmu-89"
                }, 
                {
                    "from": "sent-PMC2132561-medscan-16", 
                    "object-type": "map-range", 
                    "to": "sent-PMC2132561-cmu-17"
                }, 
                {
                    "from": "sent-PMC2132561-medscan-71", 
                    "object-type": "map-range", 
                    "to": "sent-PMC2132561-cmu-85"
                }, 
                {
                    "from": "sent-PMC2132561-medscan-84", 
                    "object-type": "map-range", 
                    "to": "sent-PMC2132561-cmu-98"
                }, 
                {
                    "from": "sent-PMC2132561-medscan-160", 
                    "object-type": "map-range", 
                    "to": "sent-PMC2132561-cmu-206"
                }, 
                {
                    "from": "sent-PMC2132561-medscan-19", 
                    "object-type": "map-range", 
                    "to": "sent-PMC2132561-cmu-20"
                }, 
                {
                    "from": "sent-PMC2132561-medscan-101", 
                    "object-type": "map-range", 
                    "to": "sent-PMC2132561-cmu-120"
                }, 
                {
                    "from": "sent-PMC2132561-medscan-139", 
                    "object-type": "map-range", 
                    "to": "sent-PMC2132561-cmu-176"
                }, 
                {
                    "from": "sent-PMC2132561-medscan-203", 
                    "object-type": "map-range", 
                    "to": "sent-PMC2132561-cmu-264"
                }, 
                {
                    "from": "sent-PMC2132561-medscan-44", 
                    "object-type": "map-range", 
                    "to": "sent-PMC2132561-cmu-54"
                }, 
                {
                    "from": "sent-PMC2132561-medscan-93", 
                    "object-type": "map-range", 
                    "to": "sent-PMC2132561-cmu-108"
                }, 
                {
                    "from": "sent-PMC2132561-medscan-143", 
                    "object-type": "map-range", 
                    "to": "sent-PMC2132561-cmu-202"
                }
            ], 
            "object-meta": {
                "component": "Pradeep-Matcher", 
                "object-type": "meta-info", 
                "organization": "CMU"
            }, 
            "object-type": "frame"
        }
    ], 
    "object-meta": {
        "component": "Pradeep-Matcher", 
        "component-type": "machine", 
        "doc-id": "PMC2132561", 
        "object-type": "meta-info", 
        "organization": "CMU"
    }, 
    "object-type": "frame-collection"
}
