{
  "evidence": ["Cdt2 was efficiently phosphorylated by wild-type ATR ( wt ) but not by a kinase-inactive ATR ( kd ) , demonstrating that Cdt2 was a direct target of ATR          .","phosphorylated by wild-type ATR (wt) but not by a kinase-inactive ATR (kd), demonstrating that Cdt2 was a direct target of ATR"],
  "extracted_information": {
    "interaction_type": "adds_modification",
    "negative_information": true,
    "modifications": [
      {
        "modification_type": "phosphorylation"
      },
      {
        "modification_type": "phosphorylation"
      }
    ],
    "participant_b": {
      "entity_text": "ATR",
      "entity_type": "protein",
      "identifier": "Uniprot:P20848",
      "in_model": true
    }
  },
  "fries_provenance": [
    {
      "component": "REACH",
      "frame-file": "PMC3460910.uaz.events",
      "frame-id": "evem-PMC3460910-UAZ-r1-37-6-49",
      "passage-id": "pass-PMC3460910-UAZ-r1-37",
      "passage-number": 37,
      "passage-section-id": "s2d",
      "passage-section-name": "N/A",
      "sentence": "Cdt2 was efficiently phosphorylated by wild-type ATR ( wt ) but not by a kinase-inactive ATR ( kd ) , demonstrating that Cdt2 was a direct target of ATR          .",
      "text": "phosphorylated by wild-type ATR (wt) but not by a kinase-inactive ATR (kd), demonstrating that Cdt2 was a direct target of ATR",
      "uaz-sentence": "Cdt2 was efficiently phosphorylated by wild-type ATR ( wt ) but not by a kinase-inactive ATR ( kd ) , demonstrating that Cdt2 was a direct target of ATR          .",
      "uaz-sentence-start": 773
    }
  ],
  "model_relation": "extension",
  "pmc_id": "PMC3460910",
  "reader_type": "machine",
  "reading_complete": "2015-06-15T22:58:16Z",
  "reading_started": "2015-06-15T22:58:11Z",
  "submitter": "FRIES"
}
