{
  "evidence": ["For example , multiple papers have demonstrated that disruption of these structures using various pharmacological agents or a dominant interfering caveolin mutant all perturb insulin stimulated GLUT4 translocation                                            .","Furthermore , it has been reported that overexpression of Par3 in adipocytes inhibits insulin induced glucose uptake and GLUT4 translocation                      .","insulin stimulation of GLUT4","insulin-induced glucose uptake and GLUT4","insulin-stimulated GLUT4","insulin-stimulated PKCzeta/lambda activation and GLUT4","In adipocytes , expression of the guanine nucleotide exchange factor C3G activates TC10 and potentiates the insulin stimulation of GLUT4 translocation                      .","In contrast , TC10 expression results in a marked disruption of adipocyte cortical actin organization , leading to an inhibition of insulin stimulated GLUT4 translocation                                                                      .","This conclusion is further strengthened by the observation that overexpression of Par3 inhibits insulin stimulated PKCzeta and lambda activation and GLUT4 translocation , presumably by disrupting PKCzeta and lambda phosphorylation and and or localization                      ."],
  "extracted_information": {
    "interaction_type": "increases_activity",
    "negative_information": false,
    "participant_a": {
      "entity_text": "insulin",
      "entity_type": "protein",
      "identifier": "Uniprot:P01308",
      "in_model": true
    },
    "participant_b": {
      "entity_text": "GLUT4",
      "entity_type": "protein",
      "identifier": "Uniprot:P14672",
      "in_model": false
    }
  },
  "fries_provenance": [
    {
      "cmu-sentence-epistemic-status": "belief",
      "cmu-sentence-epistemic-value": 0.9,
      "component": "REACH",
      "frame-file": "PMC2172328.uaz.events",
      "frame-id": "evem-PMC2172328-UAZ-r1-20-0-35",
      "passage-id": "pass-PMC2172328-UAZ-r1-20",
      "passage-number": 20,
      "passage-section-id": "N/A",
      "passage-section-name": "N/A",
      "sentence": "In adipocytes , expression of the guanine nucleotide exchange factor C3G activates TC10 and potentiates the insulin stimulation of GLUT4 translocation                      .",
      "text": "insulin stimulation of GLUT4",
      "uaz-sentence": "In adipocytes , expression of the guanine nucleotide exchange factor C3G activates TC10 and potentiates the insulin stimulation of GLUT4 translocation                      .",
      "uaz-sentence-start": 0
    },
    {
      "cmu-sentence-epistemic-status": "belief",
      "cmu-sentence-epistemic-value": 0.9,
      "component": "REACH",
      "frame-file": "PMC2172328.uaz.events",
      "frame-id": "evem-PMC2172328-UAZ-r1-63-7-133",
      "passage-id": "pass-PMC2172328-UAZ-r1-63",
      "passage-number": 63,
      "passage-section-id": "N/A",
      "passage-section-name": "N/A",
      "sentence": "This conclusion is further strengthened by the observation that overexpression of Par3 inhibits insulin stimulated PKCzeta and lambda activation and GLUT4 translocation , presumably by disrupting PKCzeta and lambda phosphorylation and and or localization                      .",
      "text": "insulin-stimulated PKCzeta/lambda activation and GLUT4",
      "uaz-sentence": "This conclusion is further strengthened by the observation that overexpression of Par3 inhibits insulin stimulated PKCzeta and lambda activation and GLUT4 translocation , presumably by disrupting PKCzeta and lambda phosphorylation and and or localization                      .",
      "uaz-sentence-start": 1116
    },
    {
      "cmu-sentence-epistemic-status": "belief",
      "cmu-sentence-epistemic-value": 0.9,
      "component": "REACH",
      "frame-file": "PMC2172328.uaz.events",
      "frame-id": "evem-PMC2172328-UAZ-r1-65-1-144",
      "passage-id": "pass-PMC2172328-UAZ-r1-65",
      "passage-number": 65,
      "passage-section-id": "N/A",
      "passage-section-name": "N/A",
      "sentence": "For example , multiple papers have demonstrated that disruption of these structures using various pharmacological agents or a dominant interfering caveolin mutant all perturb insulin stimulated GLUT4 translocation                                            .",
      "text": "insulin-stimulated GLUT4",
      "uaz-sentence": "For example , multiple papers have demonstrated that disruption of these structures using various pharmacological agents or a dominant interfering caveolin mutant all perturb insulin stimulated GLUT4 translocation                                            .",
      "uaz-sentence-start": 188
    },
    {
      "cmu-sentence-epistemic-status": "belief",
      "cmu-sentence-epistemic-value": 0.9,
      "component": "REACH",
      "frame-file": "PMC2172328.uaz.events",
      "frame-id": "evem-PMC2172328-UAZ-r1-8-3-12",
      "passage-id": "pass-PMC2172328-UAZ-r1-8",
      "passage-number": 8,
      "passage-section-id": "N/A",
      "passage-section-name": "N/A",
      "sentence": "In contrast , TC10 expression results in a marked disruption of adipocyte cortical actin organization , leading to an inhibition of insulin stimulated GLUT4 translocation                                                                      .",
      "text": "insulin-stimulated GLUT4",
      "uaz-sentence": "In contrast , TC10 expression results in a marked disruption of adipocyte cortical actin organization , leading to an inhibition of insulin stimulated GLUT4 translocation                                                                      .",
      "uaz-sentence-start": 653
    },
    {
      "cmu-sentence-epistemic-status": "belief",
      "cmu-sentence-epistemic-value": 0.9,
      "component": "REACH",
      "frame-file": "PMC2172328.uaz.events",
      "frame-id": "evem-PMC2172328-UAZ-r1-9-9-15",
      "passage-id": "pass-PMC2172328-UAZ-r1-9",
      "passage-number": 9,
      "passage-section-id": "N/A",
      "passage-section-name": "N/A",
      "sentence": "Furthermore , it has been reported that overexpression of Par3 in adipocytes inhibits insulin induced glucose uptake and GLUT4 translocation                      .",
      "text": "insulin-induced glucose uptake and GLUT4",
      "uaz-sentence": "Furthermore , it has been reported that overexpression of Par3 in adipocytes inhibits insulin induced glucose uptake and GLUT4 translocation                      .",
      "uaz-sentence-start": 1712
    }
  ],
  "model_relation": "extension",
  "pmc_id": "PMC2172328",
  "reader_type": "machine",
  "reading_complete": "2015-06-15T19:39:16Z",
  "reading_started": "2015-06-15T19:39:11Z",
  "submitter": "FRIES"
}
