{
    "frames": [
        {
            "frame-id": "sent-PMC1635424-medscan-0", 
            "frame-type": "sentence", 
            "object-type": "frame", 
            "start-pos": {
                "object-type": "absolute-pos", 
                "offset": 0
            }, 
            "text": "Schizophrenia is a chronic and serious psychiatric disorder affecting about 1 % of the population worldwide."
        }, 
        {
            "frame-id": "sent-PMC1635424-medscan-1", 
            "frame-type": "sentence", 
            "object-type": "frame", 
            "start-pos": {
                "object-type": "absolute-pos", 
                "offset": 1
            }, 
            "text": "Several lines of evidence point towards schizophrenia as a neurodevelopmental disorder, and the involvement of myelin- and oligodendrocyte abnormalities in the pathophysiology of the disease has been suggested [ - ]."
        }, 
        {
            "frame-id": "sent-PMC1635424-medscan-2", 
            "frame-type": "sentence", 
            "object-type": "frame", 
            "start-pos": {
                "object-type": "absolute-pos", 
                "offset": 2
            }, 
            "text": "Myelin is formed by oligodendroglial cells and consists mainly of cholesterol, produced de novo in the CNS [ ]."
        }, 
        {
            "frame-id": "sent-PMC1635424-medscan-3", 
            "frame-type": "sentence", 
            "object-type": "frame", 
            "start-pos": {
                "object-type": "absolute-pos", 
                "offset": 3
            }, 
            "text": "Together, cholesterol and apolipoprotein E (ApoE) can serve as a glial growth factor in synaptogenesis [ ]."
        }, 
        {
            "frame-id": "sent-PMC1635424-medscan-4", 
            "frame-type": "sentence", 
            "object-type": "frame", 
            "start-pos": {
                "object-type": "absolute-pos", 
                "offset": 4
            }, 
            "text": "Antipsychotic drugs, such as haloperidol and clozapine, are used to treat and ameliorate the symptoms of schizophrenia and act, at least in part, by blockage of dopamine D2-like receptors in the brain."
        }, 
        {
            "frame-id": "sent-PMC1635424-medscan-5", 
            "frame-type": "sentence", 
            "object-type": "frame", 
            "start-pos": {
                "object-type": "absolute-pos", 
                "offset": 5
            }, 
            "text": "Antipsychotics are usually classified into two main groups, namely typical (e.g. haloperidol and chlorpromazine) and atypical drugs (e.g. clozapine, olanzapine, risperidone and ziprasidone)."
        }, 
        {
            "frame-id": "sent-PMC1635424-medscan-6", 
            "frame-type": "sentence", 
            "object-type": "frame", 
            "start-pos": {
                "object-type": "absolute-pos", 
                "offset": 6
            }, 
            "text": "The typical antipsychotic drugs are all dopamine D2-receptor antagonists, whereas the atypical drugs generally have a more diverse receptor binding profile, suggesting that other neurotransmitters than dopamine might also be involved in mediating the antipsychotic effect [ ]."
        }, 
        {
            "frame-id": "sent-PMC1635424-medscan-7", 
            "frame-type": "sentence", 
            "object-type": "frame", 
            "start-pos": {
                "object-type": "absolute-pos", 
                "offset": 7
            }, 
            "text": "Compared to typical antipsychotics, atypical drugs usually induce less extrapyramidal side effects and may have improved therapeutic efficacy [ , ]."
        }, 
        {
            "frame-id": "sent-PMC1635424-medscan-8", 
            "frame-type": "sentence", 
            "object-type": "frame", 
            "start-pos": {
                "object-type": "absolute-pos", 
                "offset": 8
            }, 
            "text": "However, some of the atypical drugs are associated with side effects such as weight gain and other metabolic adverse [ ]."
        }, 
        {
            "frame-id": "sent-PMC1635424-medscan-9", 
            "frame-type": "sentence", 
            "object-type": "frame", 
            "start-pos": {
                "object-type": "absolute-pos", 
                "offset": 9
            }, 
            "text": "In a recent study, we demonstrated that haloperidol and clozapine markedly increase the expression of a cluster of fatty acid- and cholesterol biosynthetic genes in a human glioma cell line (GaMg), mediated via activation of the sterol regulatory element-binding proteins [ ]."
        }, 
        {
            "frame-id": "sent-PMC1635424-medscan-10", 
            "frame-type": "sentence", 
            "object-type": "frame", 
            "start-pos": {
                "object-type": "absolute-pos", 
                "offset": 10
            }, 
            "text": "We proposed that the sterol regulatory element-binding proteins-mediated activation of cellular lipogenesis represents a new mechanism of psychotropic drug action, involved in both therapeutic efficacy (through enhanced synthesis of cholesterol in CNS) and the metabolic side-effects (through increased production of fatty acids and triglycerides in peripheral tissues) [ ]."
        }, 
        {
            "frame-id": "sent-PMC1635424-medscan-11", 
            "frame-type": "sentence", 
            "object-type": "frame", 
            "start-pos": {
                "object-type": "absolute-pos", 
                "offset": 11
            }, 
            "text": "sterol regulatory element-binding proteins are produced as two isoforms; SREBP1 (with two splice variants, SREBP1a and -1c) and SREBP2."
        }, 
        {
            "frame-id": "sent-PMC1635424-medscan-12", 
            "frame-type": "sentence", 
            "object-type": "frame", 
            "start-pos": {
                "object-type": "absolute-pos", 
                "offset": 12
            }, 
            "text": "The SREBP1 and SREBP2 transcription factors are synthesized as inactive 120 kDa precursors in the endoplasmic reticulum ."
        }, 
        {
            "frame-id": "sent-PMC1635424-medscan-13", 
            "frame-type": "sentence", 
            "object-type": "frame", 
            "start-pos": {
                "object-type": "absolute-pos", 
                "offset": 13
            }, 
            "text": "Upon activation, these proteins are translocated to the Golgi apparatus by the sterol sensing SREBP-cleavage-activating-protein (SCAP) where they undergo proteolytical cleavage, releasing a 60-70 kDa fragment that is transcriptionally active and induces the expression of several lipid biosynthetic genes in the nucleus (for review, see [ ])."
        }, 
        {
            "frame-id": "sent-PMC1635424-medscan-14", 
            "frame-type": "sentence", 
            "object-type": "frame", 
            "start-pos": {
                "object-type": "absolute-pos", 
                "offset": 14
            }, 
            "text": "The different sterol regulatory element-binding proteins variants overlap in function to some extent [ ]."
        }, 
        {
            "frame-id": "sent-PMC1635424-medscan-15", 
            "frame-type": "sentence", 
            "object-type": "frame", 
            "start-pos": {
                "object-type": "absolute-pos", 
                "offset": 15
            }, 
            "text": "In general, SREBP1c controls the expression of fatty acid biosynthesis genes in various tissues [ ], whereas the SREBP1a isoform is predominant in cell cultures, activating both cholesterol and fatty acid biosynthesis genes [ , ]."
        }, 
        {
            "frame-id": "sent-PMC1635424-medscan-16", 
            "frame-type": "sentence", 
            "object-type": "frame", 
            "start-pos": {
                "object-type": "absolute-pos", 
                "offset": 16
            }, 
            "text": "SREBP2 mainly regulates cholesterol biosynthetic genes both in tissues and in cell culture [ ]."
        }, 
        {
            "frame-id": "sent-PMC1635424-medscan-17", 
            "frame-type": "sentence", 
            "object-type": "frame", 
            "start-pos": {
                "object-type": "absolute-pos", 
                "offset": 17
            }, 
            "text": "In the present study, we have extended our knowledge on lipogenic effects of psychotropic drugs by comparison of six antipsychotics with respect to their dose-related ability to activate sterol regulatory element-binding proteins and the expression of sterol regulatory element-binding proteins target genes in human glial GaMg cells."
        }, 
        {
            "frame-id": "sent-PMC1635424-medscan-18", 
            "frame-type": "sentence", 
            "object-type": "frame", 
            "start-pos": {
                "object-type": "absolute-pos", 
                "offset": 18
            }, 
            "text": "We also examined the degree of sterol regulatory element-binding proteins activation in three additional CNS-related cell lines, including glial cell lines (astrocytoma CCF-STTG1 cells) and neuronal cell lines (neuroblastoma SH-SY5Y cells and cortical neuronal HCN2 cells)."
        }, 
        {
            "frame-id": "sent-PMC1635424-medscan-19", 
            "frame-type": "sentence", 
            "object-type": "frame", 
            "start-pos": {
                "object-type": "absolute-pos", 
                "offset": 19
            }, 
            "text": "We here report that chlorpromazine, haloperidol, clozapine, olanzapine, risperidone and ziprasidone display marked differences in their ability to stimulate sterol regulatory element-binding proteins-controlled cellular lipogenesis, and that this effect is most pronounced in glial cells."
        }, 
        {
            "frame-id": "sent-PMC1635424-medscan-20", 
            "frame-type": "sentence", 
            "object-type": "frame", 
            "start-pos": {
                "object-type": "absolute-pos", 
                "offset": 20
            }, 
            "text": "We propose that sterol regulatory element-binding proteins activation might represent a novel glia-mediated mechanism of action of some antipsychotic drugs."
        }, 
        {
            "frame-id": "sent-PMC1635424-medscan-21", 
            "frame-type": "sentence", 
            "object-type": "frame", 
            "start-pos": {
                "object-type": "absolute-pos", 
                "offset": 21
            }, 
            "text": "The effect on GaMg cell viability was investigated for all six antipsychotic drugs (chlorpromazine, haloperidol, clozapine, olanzapine, risperiodone and ziprasidone), using a range of concentrations from 1 \u03bcM to 100 \u03bcM (data not shown)."
        }, 
        {
            "frame-id": "sent-PMC1635424-medscan-22", 
            "frame-type": "sentence", 
            "object-type": "frame", 
            "start-pos": {
                "object-type": "absolute-pos", 
                "offset": 22
            }, 
            "text": "Olanzapine had no cell toxic effect at any of the concentrations tested."
        }, 
        {
            "frame-id": "sent-PMC1635424-medscan-23", 
            "frame-type": "sentence", 
            "object-type": "frame", 
            "start-pos": {
                "object-type": "absolute-pos", 
                "offset": 23
            }, 
            "text": "Up to 25 \u03bcM, no statistically significant reduction in cell viability was observed for haloperidol, clozapine and risperidone."
        }, 
        {
            "frame-id": "sent-PMC1635424-medscan-24", 
            "frame-type": "sentence", 
            "object-type": "frame", 
            "start-pos": {
                "object-type": "absolute-pos", 
                "offset": 24
            }, 
            "text": "Cell viability in response to chlorpromazine exposure (10 \u03bcM and 25 \u03bcM) was decreased by about 30 % and 50 %, respectively."
        }, 
        {
            "frame-id": "sent-PMC1635424-medscan-25", 
            "frame-type": "sentence", 
            "object-type": "frame", 
            "start-pos": {
                "object-type": "absolute-pos", 
                "offset": 25
            }, 
            "text": "Ziprasidone reduced cell viability by 30 % and 75 % at 10 \u03bcM and 25 \u03bcM, respectively, as compared to the control."
        }, 
        {
            "frame-id": "sent-PMC1635424-medscan-26", 
            "frame-type": "sentence", 
            "object-type": "frame", 
            "start-pos": {
                "object-type": "absolute-pos", 
                "offset": 26
            }, 
            "text": "In an attempt to further understand antipsychotic-induced stimulation of cellular lipogenesis, we examined similarities and differences between several sterol regulatory element-binding proteins target genes involved in various aspects of lipid homeostasis."
        }, 
        {
            "frame-id": "sent-PMC1635424-medscan-27", 
            "frame-type": "sentence", 
            "object-type": "frame", 
            "start-pos": {
                "object-type": "absolute-pos", 
                "offset": 27
            }, 
            "text": "As shown in Fig. , clozapine (0.1 \u03bcM - 50 \u03bcM) induced a statistically significant dose-dependent transcriptional activation of all nine sterol regulatory element-binding proteins target genes examined in cultured GaMg cells."
        }, 
        {
            "frame-id": "sent-PMC1635424-medscan-28", 
            "frame-type": "sentence", 
            "object-type": "frame", 
            "start-pos": {
                "object-type": "absolute-pos", 
                "offset": 28
            }, 
            "text": "These genes are involved in cholesterol biosynthesis (ACAT2, HMGCS1, HMGCR, FDPS, SC5DL and DHCR7; see legend to Fig. for complete names), cholesterol transport (LDLR) and fatty acid biosynthesis (FASN and SCD1)."
        }, 
        {
            "frame-id": "sent-PMC1635424-medscan-29", 
            "frame-type": "sentence", 
            "object-type": "frame", 
            "start-pos": {
                "object-type": "absolute-pos", 
                "offset": 29
            }, 
            "text": "The degree of maximum activation (obtained by 50 \u03bcM clozapine) varied markedly between the different genes, with fold-changes ranging from 2.2 (FDPS) to 7.3 (SCD1) (Fig. )."
        }, 
        {
            "frame-id": "sent-PMC1635424-medscan-30", 
            "frame-type": "sentence", 
            "object-type": "frame", 
            "start-pos": {
                "object-type": "absolute-pos", 
                "offset": 30
            }, 
            "text": "The expression of SREBP1a and -2 was readily detected, and the expression levels of both genes increased markedly with increasing clozapine concentrations (Fig )."
        }, 
        {
            "frame-id": "sent-PMC1635424-medscan-31", 
            "frame-type": "sentence", 
            "object-type": "frame", 
            "start-pos": {
                "object-type": "absolute-pos", 
                "offset": 31
            }, 
            "text": "The transcriptional activation was most pronounced for the SREBP2 gene."
        }, 
        {
            "frame-id": "sent-PMC1635424-medscan-32", 
            "frame-type": "sentence", 
            "object-type": "frame", 
            "start-pos": {
                "object-type": "absolute-pos", 
                "offset": 32
            }, 
            "text": "The expression of SREBP1c also appeared to be significantly increased by clozapine (results not shown), but due to the low expression levels (Ct-values around 36), the interpretation of the data should be cautious."
        }, 
        {
            "frame-id": "sent-PMC1635424-medscan-33", 
            "frame-type": "sentence", 
            "object-type": "frame", 
            "start-pos": {
                "object-type": "absolute-pos", 
                "offset": 33
            }, 
            "text": "In order to compare various drugs with regard to their ability to activate sterol regulatory element-binding proteins-mediated gene expression, a selection of sterol regulatory element-binding proteins target genes (HMGCS1, HMGCR, SC5DL and LDLR) was measured after exposing GaMg cells to various concentrations (0.1, 1, 10 and 25 \u03bcM) of chlorpromazine, haloperidol, clozapine, olanzapine, risperidone or ziprasidone (Table )."
        }, 
        {
            "frame-id": "sent-PMC1635424-medscan-34", 
            "frame-type": "sentence", 
            "object-type": "frame", 
            "start-pos": {
                "object-type": "absolute-pos", 
                "offset": 34
            }, 
            "text": "Clozapine and haloperidol, and to a lesser extent olanzapine and chlorpromazine, clearly enhanced the transcription of all four sterol regulatory element-binding proteins target genes, especially HMGCS1 and HMGCR."
        }, 
        {
            "frame-id": "sent-PMC1635424-medscan-35", 
            "frame-type": "sentence", 
            "object-type": "frame", 
            "start-pos": {
                "object-type": "absolute-pos", 
                "offset": 35
            }, 
            "text": "For olanzapine, the stimulating effect was most pronounced at the highest concentration (25 \u03bcM), whereas chlorpromazine tended to be less effective at the same concentration, probably due to drug toxicity (see above)."
        }, 
        {
            "frame-id": "sent-PMC1635424-medscan-36", 
            "frame-type": "sentence", 
            "object-type": "frame", 
            "start-pos": {
                "object-type": "absolute-pos", 
                "offset": 36
            }, 
            "text": "Interestingly, risperidone and ziprazidone demonstrated significantly lower ability to activate the expression of the sterol regulatory element-binding proteins-controlled genes."
        }, 
        {
            "frame-id": "sent-PMC1635424-medscan-37", 
            "frame-type": "sentence", 
            "object-type": "frame", 
            "start-pos": {
                "object-type": "absolute-pos", 
                "offset": 37
            }, 
            "text": "For ziprasidone, the limited action could not be overcome by increased concentrations, since the drug then induced a marked reduction in cell viability."
        }, 
        {
            "frame-id": "sent-PMC1635424-medscan-38", 
            "frame-type": "sentence", 
            "object-type": "frame", 
            "start-pos": {
                "object-type": "absolute-pos", 
                "offset": 38
            }, 
            "text": "The psychotropic-induced transcriptional activation of cellular lipogenesis in GaMg cells is due to an increased proteolytic cleavage of the sterol regulatory element-binding proteins transcription factors, especially SREBP2 [ ]."
        }, 
        {
            "frame-id": "sent-PMC1635424-medscan-39", 
            "frame-type": "sentence", 
            "object-type": "frame", 
            "start-pos": {
                "object-type": "absolute-pos", 
                "offset": 39
            }, 
            "text": "In the present study, we therefore examined the effect of the six antipsychotics on proteolytic cleavage and activation of SREBP2 only."
        }, 
        {
            "frame-id": "sent-PMC1635424-medscan-40", 
            "frame-type": "sentence", 
            "object-type": "frame", 
            "start-pos": {
                "object-type": "absolute-pos", 
                "offset": 40
            }, 
            "text": "In western blot experiments, the semi-quantitative M/P ratio between the mature transcriptionally active 60-70 kDa fragment (M) and 120 kDa precursor protein (P) was used as an indicator of SREBP2 stimulation, as measured after 24 hours of drug exposure in GaMg cells (Fig. )."
        }, 
        {
            "frame-id": "sent-PMC1635424-medscan-41", 
            "frame-type": "sentence", 
            "object-type": "frame", 
            "start-pos": {
                "object-type": "absolute-pos", 
                "offset": 41
            }, 
            "text": "The degree of SREBP2 activation was parallel to the expression level of SREBP2 target genes for all drugs (see Table for comparison)."
        }, 
        {
            "frame-id": "sent-PMC1635424-medscan-42", 
            "frame-type": "sentence", 
            "object-type": "frame", 
            "start-pos": {
                "object-type": "absolute-pos", 
                "offset": 42
            }, 
            "text": "Haloperidol, chlorpromazine, and at higher non-toxic concentrations, clozapine and olanzapine, all induced SREBP2 cleavage markedly above the control level."
        }, 
        {
            "frame-id": "sent-PMC1635424-medscan-43", 
            "frame-type": "sentence", 
            "object-type": "frame", 
            "start-pos": {
                "object-type": "absolute-pos", 
                "offset": 43
            }, 
            "text": "Risperidone and ziprasidone apparently had less pronounced or no effect on SREBP2 activation."
        }, 
        {
            "frame-id": "sent-PMC1635424-medscan-44", 
            "frame-type": "sentence", 
            "object-type": "frame", 
            "start-pos": {
                "object-type": "absolute-pos", 
                "offset": 44
            }, 
            "text": "To further explore the mechanism behind the drug-induced activation of sterol regulatory element-binding proteins, we investigated whether clozapine could interfere with the effect of 25-hydroxycholesterol , a well-known sterol regulatory element-binding proteins repressor [ ]."
        }, 
        {
            "frame-id": "sent-PMC1635424-medscan-45", 
            "frame-type": "sentence", 
            "object-type": "frame", 
            "start-pos": {
                "object-type": "absolute-pos", 
                "offset": 45
            }, 
            "text": "The repressive effect of 25-hydroxycholesterol is mediated by its ability to increase cholesterol transport from the cell plasma membrane to the SCAP sterol sensor in the endoplasmic reticulum [ ]. 25-hydroxycholesterol (1 \u03bcg/ml) markedly reduced basal SREBP2 activity after 2 hours of incubation in cultured GaMg cells (Fig )."
        }, 
        {
            "frame-id": "sent-PMC1635424-medscan-46", 
            "frame-type": "sentence", 
            "object-type": "frame", 
            "start-pos": {
                "object-type": "absolute-pos", 
                "offset": 46
            }, 
            "text": "Co-treatment with clozapine (30 \u03bcM) clearly counteracted the repressive effect of 25-hydroxycholesterol."
        }, 
        {
            "frame-id": "sent-PMC1635424-medscan-47", 
            "frame-type": "sentence", 
            "object-type": "frame", 
            "start-pos": {
                "object-type": "absolute-pos", 
                "offset": 47
            }, 
            "text": "This opposing effect was not detectable after longer periods of co-incubation (4-24 hours), probably due to the high potency of 25HC to repress sterol regulatory element-binding proteins (results not shown)."
        }, 
        {
            "frame-id": "sent-PMC1635424-medscan-48", 
            "frame-type": "sentence", 
            "object-type": "frame", 
            "start-pos": {
                "object-type": "absolute-pos", 
                "offset": 48
            }, 
            "text": "In clinical practice, the therapeutically relevant serum levels vary considerably between the different antipsychotic drugs."
        }, 
        {
            "frame-id": "sent-PMC1635424-medscan-49", 
            "frame-type": "sentence", 
            "object-type": "frame", 
            "start-pos": {
                "object-type": "absolute-pos", 
                "offset": 49
            }, 
            "text": "In order to examine the potential clinical relevance of the drug-induced sterol regulatory element-binding proteins activation that was observed in cultured cells, the molar concentrations used in the cell culture experiment were transformed into multiples of the therapeutically relevant serum concentration for each drug (Fig ; see the legend for further details about the transformation factor)."
        }, 
        {
            "frame-id": "sent-PMC1635424-medscan-50", 
            "frame-type": "sentence", 
            "object-type": "frame", 
            "start-pos": {
                "object-type": "absolute-pos", 
                "offset": 50
            }, 
            "text": "The transformed data illustrate that although all drugs stimulated HMGCR expression at some concentrations, only clozapine and chlorpromazine induced significant sterol regulatory element-binding proteins activation in the cell cultures at concentrations rather close to their therapeutic serum levels."
        }, 
        {
            "frame-id": "sent-PMC1635424-medscan-51", 
            "frame-type": "sentence", 
            "object-type": "frame", 
            "start-pos": {
                "object-type": "absolute-pos", 
                "offset": 51
            }, 
            "text": "For the other drugs, the stimulation of gene expression occurred at concentrations far above their therapeutically relevant serum levels."
        }, 
        {
            "frame-id": "sent-PMC1635424-medscan-52", 
            "frame-type": "sentence", 
            "object-type": "frame", 
            "start-pos": {
                "object-type": "absolute-pos", 
                "offset": 52
            }, 
            "text": "The issue of cell culture concentrations, serum levels and relevant tissue (brain) concentrations of the drugs is further outlined in the Discussion section."
        }, 
        {
            "frame-id": "sent-PMC1635424-medscan-53", 
            "frame-type": "sentence", 
            "object-type": "frame", 
            "start-pos": {
                "object-type": "absolute-pos", 
                "offset": 53
            }, 
            "text": "In order to study whether the antipsychotic-induced sterol regulatory element-binding proteins activation is valid in more than one CNS-related human cell line, we examined HMGCR expression in astrocytoma CCF-STTG1 cells, neuroblastoma SH-5YSY cells, and cortical neuronal HCN2 cells, all exposed to clozapine or haloperidol for 24 hours."
        }, 
        {
            "frame-id": "sent-PMC1635424-medscan-54", 
            "frame-type": "sentence", 
            "object-type": "frame", 
            "start-pos": {
                "object-type": "absolute-pos", 
                "offset": 54
            }, 
            "text": "The largest increase in gene expression was observed in the astrocytoma cells, reaching a statistically significant fold change of 5.0 \u00b1 0.2 and 9.4 \u00b1 0.4 with clozapine (25 \u03bcM) and haloperidol (25 \u03bcM), respectively (Table )."
        }, 
        {
            "frame-id": "sent-PMC1635424-medscan-55", 
            "frame-type": "sentence", 
            "object-type": "frame", 
            "start-pos": {
                "object-type": "absolute-pos", 
                "offset": 55
            }, 
            "text": "In contrast, the SH-SY5Y neuroblastoma cells displayed minimal activation of the sterol regulatory element-binding proteins transcription system upon drug exposure, with a relative increase in HMGCR expression of 1.5 \u00b1 0.1 and 1.4 \u00b1 0.1 by haloperidol (25 \u03bcM) and clozapine (25 \u03bcM), respectively (Table )."
        }, 
        {
            "frame-id": "sent-PMC1635424-medscan-56", 
            "frame-type": "sentence", 
            "object-type": "frame", 
            "start-pos": {
                "object-type": "absolute-pos", 
                "offset": 56
            }, 
            "text": "In the slow growing HCN2 cells, the HMGCR gene expression was activated slightly to moderately by the drugs, demonstrating that antipsychotic-induced sterol regulatory element-binding proteins activation is not a tumor cell-specific phenomenon."
        }, 
        {
            "frame-id": "sent-PMC1635424-medscan-57", 
            "frame-type": "sentence", 
            "object-type": "frame", 
            "start-pos": {
                "object-type": "absolute-pos", 
                "offset": 57
            }, 
            "text": "In a pilot experiment (n = 1), we also examined the R-Hi-501 rat hippocampus primary cell culture, which contains both glial and neuronal cells."
        }, 
        {
            "frame-id": "sent-PMC1635424-medscan-58", 
            "frame-type": "sentence", 
            "object-type": "frame", 
            "start-pos": {
                "object-type": "absolute-pos", 
                "offset": 58
            }, 
            "text": "Incubation with 25 \u03bcM of clozapine led to a 2.1-fold increase in HMGCR mRNA."
        }, 
        {
            "frame-id": "sent-PMC1635424-medscan-59", 
            "frame-type": "sentence", 
            "object-type": "frame", 
            "start-pos": {
                "object-type": "absolute-pos", 
                "offset": 59
            }, 
            "text": "The expression levels of HMGCS1 and FASN were also tested in these cells and increased 1.6- and 2.1 fold, respectively."
        }, 
        {
            "frame-id": "sent-PMC1635424-medscan-60", 
            "frame-type": "sentence", 
            "object-type": "frame", 
            "start-pos": {
                "object-type": "absolute-pos", 
                "offset": 60
            }, 
            "text": "The basal expression level of HMGCR was quite similar in all cell types, as measured with real-time PCR, thereby allowing comparison between different cell lines with respect to the effect of drug exposure."
        }, 
        {
            "frame-id": "sent-PMC1635424-medscan-61", 
            "frame-type": "sentence", 
            "object-type": "frame", 
            "start-pos": {
                "object-type": "absolute-pos", 
                "offset": 61
            }, 
            "text": "In this study, we have extended our initial findings with haloperidol and clozapine by demonstrating that antipsychotic drugs in general enhance the expression of sterol regulatory element-binding proteins-controlled lipid biosynthetic genes in a concentration-dependent manner in cultured glial cells, with less pronounced stimulation in neuroblastoma- and cortical neuronal cells."
        }, 
        {
            "frame-id": "sent-PMC1635424-medscan-62", 
            "frame-type": "sentence", 
            "object-type": "frame", 
            "start-pos": {
                "object-type": "absolute-pos", 
                "offset": 62
            }, 
            "text": "The degree of sterol regulatory element-binding proteins activation, however, varies considerably between the different antipsychotics."
        }, 
        {
            "frame-id": "sent-PMC1635424-medscan-63", 
            "frame-type": "sentence", 
            "object-type": "frame", 
            "start-pos": {
                "object-type": "absolute-pos", 
                "offset": 63
            }, 
            "text": "The mechanisms by which the antipsychotic drugs activate the sterol regulatory element-binding proteins system could, in principle, involve receptor-dependent and -independent processes."
        }, 
        {
            "frame-id": "sent-PMC1635424-medscan-64", 
            "frame-type": "sentence", 
            "object-type": "frame", 
            "start-pos": {
                "object-type": "absolute-pos", 
                "offset": 64
            }, 
            "text": "All antipsychotic drugs block dopamine D2-like receptors (DRD2, DRD3 and DRD4), but with marked differences in their affinities [ , ]."
        }, 
        {
            "frame-id": "sent-PMC1635424-medscan-65", 
            "frame-type": "sentence", 
            "object-type": "frame", 
            "start-pos": {
                "object-type": "absolute-pos", 
                "offset": 65
            }, 
            "text": "In addition, they also vary widely in their antagonistic binding to other neurotransmitter receptors, e.g., 5-HT and histamine H1 receptors [ ]."
        }, 
        {
            "frame-id": "sent-PMC1635424-medscan-66", 
            "frame-type": "sentence", 
            "object-type": "frame", 
            "start-pos": {
                "object-type": "absolute-pos", 
                "offset": 66
            }, 
            "text": "In the present dose-response comparison, haloperidol and clozapine were the most potent activators of sterol regulatory element-binding proteins-controlled gene expression on the basis of their molar concentrations in the cell cultures, whereas risperidone and ziprasidone were minimally effective."
        }, 
        {
            "frame-id": "sent-PMC1635424-medscan-67", 
            "frame-type": "sentence", 
            "object-type": "frame", 
            "start-pos": {
                "object-type": "absolute-pos", 
                "offset": 67
            }, 
            "text": "Chlorpromazine and olanzapine had intermediate effects."
        }, 
        {
            "frame-id": "sent-PMC1635424-medscan-68", 
            "frame-type": "sentence", 
            "object-type": "frame", 
            "start-pos": {
                "object-type": "absolute-pos", 
                "offset": 68
            }, 
            "text": "These data imply that the sterol regulatory element-binding proteins activation is neither linked to the receptor profiles nor the therapeutic classification (typical vs. atypical) of the drugs, since there is no apparent relationship between these properties and their sterol regulatory element-binding proteins-stimulating effect."
        }, 
        {
            "frame-id": "sent-PMC1635424-medscan-69", 
            "frame-type": "sentence", 
            "object-type": "frame", 
            "start-pos": {
                "object-type": "absolute-pos", 
                "offset": 69
            }, 
            "text": "This assumption is supported by a recent study [ ], in which we demonstrated that several antidepressant drugs (especially tricyclic antidepressants), but not mood stabilizers (carbamazepine and valproate), activate the sterol regulatory element-binding proteins system in cultured glial cells in a similar manner to the antipsychotics."
        }, 
        {
            "frame-id": "sent-PMC1635424-medscan-70", 
            "frame-type": "sentence", 
            "object-type": "frame", 
            "start-pos": {
                "object-type": "absolute-pos", 
                "offset": 70
            }, 
            "text": "This fact makes is likely that the drug-induced sterol regulatory element-binding proteins activation is related to some shared chemical property of these psychotropic compounds."
        }, 
        {
            "frame-id": "sent-PMC1635424-medscan-71", 
            "frame-type": "sentence", 
            "object-type": "frame", 
            "start-pos": {
                "object-type": "absolute-pos", 
                "offset": 71
            }, 
            "text": "Due to the different receptor-binding properties of these drugs it is likely that their shared sterol regulatory element-binding proteins-activating effect is mediated via a receptor-independent mechanism of action."
        }, 
        {
            "frame-id": "sent-PMC1635424-medscan-72", 
            "frame-type": "sentence", 
            "object-type": "frame", 
            "start-pos": {
                "object-type": "absolute-pos", 
                "offset": 72
            }, 
            "text": "All of the antipsychotics and antidepressants that we have investigated are cationic amphiphiles."
        }, 
        {
            "frame-id": "sent-PMC1635424-medscan-73", 
            "frame-type": "sentence", 
            "object-type": "frame", 
            "start-pos": {
                "object-type": "absolute-pos", 
                "offset": 73
            }, 
            "text": "Such substances have previously been shown to increase the synthesis and accumulation of total cellular cholesterol levels via a mechanism involving a reduction of cholesterol levels in the endoplasmic reticulum , which is the sterol-sensing compartment in the cell [ , ]."
        }, 
        {
            "frame-id": "sent-PMC1635424-medscan-74", 
            "frame-type": "sentence", 
            "object-type": "frame", 
            "start-pos": {
                "object-type": "absolute-pos", 
                "offset": 74
            }, 
            "text": "sterol regulatory element-binding proteins activation is controlled by the sterol-sensitive SREBP-cleavage-activating-protein (SCAP) that is located in the endoplasmic reticulum [ ]."
        }, 
        {
            "frame-id": "sent-PMC1635424-medscan-75", 
            "frame-type": "sentence", 
            "object-type": "frame", 
            "start-pos": {
                "object-type": "absolute-pos", 
                "offset": 75
            }, 
            "text": "When endoplasmic reticulum-cholesterol is depleted, SCAP undergoes a conformational change that promotes translocation of the sterol regulatory element-binding proteins/SCAP complex to the Golgi, representing the inital step in sterol regulatory element-binding proteins activation."
        }, 
        {
            "frame-id": "sent-PMC1635424-medscan-76", 
            "frame-type": "sentence", 
            "object-type": "frame", 
            "start-pos": {
                "object-type": "absolute-pos", 
                "offset": 76
            }, 
            "text": "Both cholesterol and a hydroxylated derivative of cholesterol, 25-OH-cholesterol (25-hydroxycholesterol), inhibit the sterol regulatory element-binding proteins system by affecting the function of the SCAP protein [ ]."
        }, 
        {
            "frame-id": "sent-PMC1635424-medscan-77", 
            "frame-type": "sentence", 
            "object-type": "frame", 
            "start-pos": {
                "object-type": "absolute-pos", 
                "offset": 77
            }, 
            "text": "It is therefore interesting to note that clozapine was able to counteract the sterol regulatory element-binding proteins-repressing effect of 25-hydroxycholesterol, which indicates that the effect of antipsychotic drugs on SCAP/sterol regulatory element-binding proteins activation is the opposite of cholesterol and 25-hydroxycholesterol."
        }, 
        {
            "frame-id": "sent-PMC1635424-medscan-78", 
            "frame-type": "sentence", 
            "object-type": "frame", 
            "start-pos": {
                "object-type": "absolute-pos", 
                "offset": 78
            }, 
            "text": "This contrasts in vitro data from a recent study demonstrating that some cationic amphiphiles (including clozapine, haloperidol and chlorpromazine) mimic the effect of cholesterol on SCAP conformation [ ]."
        }, 
        {
            "frame-id": "sent-PMC1635424-medscan-79", 
            "frame-type": "sentence", 
            "object-type": "frame", 
            "start-pos": {
                "object-type": "absolute-pos", 
                "offset": 79
            }, 
            "text": "However, in line with our results, this study could not reproduce the cholesterol-mimicking effect of cationic amphiphiles when tested in cultured cells [ ]."
        }, 
        {
            "frame-id": "sent-PMC1635424-medscan-80", 
            "frame-type": "sentence", 
            "object-type": "frame", 
            "start-pos": {
                "object-type": "absolute-pos", 
                "offset": 80
            }, 
            "text": "We propose that drug-induced transcriptional activation of cholesterol biosynthesis in the brain could represent a new mechanism of action for some psychotropic drugs."
        }, 
        {
            "frame-id": "sent-PMC1635424-medscan-81", 
            "frame-type": "sentence", 
            "object-type": "frame", 
            "start-pos": {
                "object-type": "absolute-pos", 
                "offset": 81
            }, 
            "text": "Interestingly, the sterol regulatory element-binding proteins-stimulating effect is shared by several different antipsychotics and antidepressants, demonstrating a common molecular mode of action."
        }, 
        {
            "frame-id": "sent-PMC1635424-medscan-82", 
            "frame-type": "sentence", 
            "object-type": "frame", 
            "start-pos": {
                "object-type": "absolute-pos", 
                "offset": 82
            }, 
            "text": "This effect cannot be related to the group-specific antipsychotic- or antidepressant properties of the drugs."
        }, 
        {
            "frame-id": "sent-PMC1635424-medscan-83", 
            "frame-type": "sentence", 
            "object-type": "frame", 
            "start-pos": {
                "object-type": "absolute-pos", 
                "offset": 83
            }, 
            "text": "Instead, it might be linked to some common symptoms or deficits that are present in both schizophrenia and major affective disorders (e.g., cognitive dysfunctions)."
        }, 
        {
            "frame-id": "sent-PMC1635424-medscan-84", 
            "frame-type": "sentence", 
            "object-type": "frame", 
            "start-pos": {
                "object-type": "absolute-pos", 
                "offset": 84
            }, 
            "text": "This possibility is further underscored by the therapeutic breadth of these classes of drugs, with antipsychotic drugs frequently used in treatment of depressed patients and vice versa."
        }, 
        {
            "frame-id": "sent-PMC1635424-medscan-85", 
            "frame-type": "sentence", 
            "object-type": "frame", 
            "start-pos": {
                "object-type": "absolute-pos", 
                "offset": 85
            }, 
            "text": "Involvement of myelin- and oligodendrocyte (glial) abnormalities has been indicated in the etiology of both schizophrenia and bipolar disorder [ - ]."
        }, 
        {
            "frame-id": "sent-PMC1635424-medscan-86", 
            "frame-type": "sentence", 
            "object-type": "frame", 
            "start-pos": {
                "object-type": "absolute-pos", 
                "offset": 86
            }, 
            "text": "The myelination process requires intact cholesterol biosynthesis [ , ], and during CNS development, the expression of cholesterol biosynthesis genes is enhanced [ ]."
        }, 
        {
            "frame-id": "sent-PMC1635424-medscan-87", 
            "frame-type": "sentence", 
            "object-type": "frame", 
            "start-pos": {
                "object-type": "absolute-pos", 
                "offset": 87
            }, 
            "text": "Furthermore, malfunction of synaptic processes, including reduced dendritic spine density, has been proposed in the pathophysiology of schizophrenia [ - ]."
        }, 
        {
            "frame-id": "sent-PMC1635424-medscan-88", 
            "frame-type": "sentence", 
            "object-type": "frame", 
            "start-pos": {
                "object-type": "absolute-pos", 
                "offset": 88
            }, 
            "text": "Cholesterol, together with ApoE, can act as a glia-derived growth factor supporting the formation of synapses in culture [ ]."
        }, 
        {
            "frame-id": "sent-PMC1635424-medscan-89", 
            "frame-type": "sentence", 
            "object-type": "frame", 
            "start-pos": {
                "object-type": "absolute-pos", 
                "offset": 89
            }, 
            "text": "In line with this, cholesterol has recently been demonstrated as essential for dendrite maturation, the rate-limiting step in glia-induced synaptogenesis, and is required for continuous synapse development in cultures [ ]."
        }, 
        {
            "frame-id": "sent-PMC1635424-medscan-90", 
            "frame-type": "sentence", 
            "object-type": "frame", 
            "start-pos": {
                "object-type": "absolute-pos", 
                "offset": 90
            }, 
            "text": "Interestingly, drug-induced sterol regulatory element-binding proteins activation was most evident in the glial-like GaMg glioma- and CCF-STTG1 astrocytoma cell lines, and less pronounced in the HCN2 cortical neuron cells and in a primary cell culture from rat hippocampus."
        }, 
        {
            "frame-id": "sent-PMC1635424-medscan-91", 
            "frame-type": "sentence", 
            "object-type": "frame", 
            "start-pos": {
                "object-type": "absolute-pos", 
                "offset": 91
            }, 
            "text": "Lipogenic activation was almost absent in SH-SY5Y neuroblastoma cells."
        }, 
        {
            "frame-id": "sent-PMC1635424-medscan-92", 
            "frame-type": "sentence", 
            "object-type": "frame", 
            "start-pos": {
                "object-type": "absolute-pos", 
                "offset": 92
            }, 
            "text": "These data are in agreement with the fact that in the CNS, the majority of cholesterol is produced de novo by glial cells [ ]."
        }, 
        {
            "frame-id": "sent-PMC1635424-medscan-93", 
            "frame-type": "sentence", 
            "object-type": "frame", 
            "start-pos": {
                "object-type": "absolute-pos", 
                "offset": 93
            }, 
            "text": "Cultured neurons have a poorly developed machinery for cholesterol biosynthesis and rely on glia-derived cholesterol for synaptogenesis [ ]."
        }, 
        {
            "frame-id": "sent-PMC1635424-medscan-94", 
            "frame-type": "sentence", 
            "object-type": "frame", 
            "start-pos": {
                "object-type": "absolute-pos", 
                "offset": 94
            }, 
            "text": "It is thus conceivable that drug-induced sterol regulatory element-binding proteins-controlled activation of glial cholesterol biosynthesis in the brain represents a receptor-independent therapeutic mechanism of action and provides essential building blocks to the myelination process or synaptogenesis."
        }, 
        {
            "frame-id": "sent-PMC1635424-medscan-95", 
            "frame-type": "sentence", 
            "object-type": "frame", 
            "start-pos": {
                "object-type": "absolute-pos", 
                "offset": 95
            }, 
            "text": "A critical issue is whether the sterol regulatory element-binding proteins-stimulating effect observed in cultured cells also occurs during drug treatment in the clinical setting."
        }, 
        {
            "frame-id": "sent-PMC1635424-medscan-96", 
            "frame-type": "sentence", 
            "object-type": "frame", 
            "start-pos": {
                "object-type": "absolute-pos", 
                "offset": 96
            }, 
            "text": "Although any interpretation of the clinical relevance of cell culture data is difficult, the relationship between in vitro and in vivo (therapeutically relevant) concentrations of the drugs requires special attention."
        }, 
        {
            "frame-id": "sent-PMC1635424-medscan-97", 
            "frame-type": "sentence", 
            "object-type": "frame", 
            "start-pos": {
                "object-type": "absolute-pos", 
                "offset": 97
            }, 
            "text": "The investigated drugs are clinically efficacious at highly different ranges of serum concentrations [ ]."
        }, 
        {
            "frame-id": "sent-PMC1635424-medscan-98", 
            "frame-type": "sentence", 
            "object-type": "frame", 
            "start-pos": {
                "object-type": "absolute-pos", 
                "offset": 98
            }, 
            "text": "In an attempt to highlight the possible clinical impact of their sterol regulatory element-binding proteins-activation, we transformed the molar concentrations of each drug (as used in the GaMg cell culture experiments) into multiples of the therapeutically relevant upper serum concentrations of the corresponding drug (as determined from the AGNP-TDM expert group consensus guidelines) [ ]."
        }, 
        {
            "frame-id": "sent-PMC1635424-medscan-99", 
            "frame-type": "sentence", 
            "object-type": "frame", 
            "start-pos": {
                "object-type": "absolute-pos", 
                "offset": 99
            }, 
            "text": "By this approach, clozapine and chlorpromazine appeared to significantly activate the sterol regulatory element-binding proteins system in the cultured cells at concentrations that were 5-10-fold above their therapeutic serum levels."
        }, 
        {
            "frame-id": "sent-PMC1635424-medscan-100", 
            "frame-type": "sentence", 
            "object-type": "frame", 
            "start-pos": {
                "object-type": "absolute-pos", 
                "offset": 100
            }, 
            "text": "In contrast, the concentration of haloperidol necessary to induce this lipogenic effect in the cultured cells was about 200 times higher than the clinically relevant serum level, and ziprasidone hardly activated the sterol regulatory element-binding proteins pathway at all."
        }, 
        {
            "frame-id": "sent-PMC1635424-medscan-101", 
            "frame-type": "sentence", 
            "object-type": "frame", 
            "start-pos": {
                "object-type": "absolute-pos", 
                "offset": 101
            }, 
            "text": "It is important to bear in mind that many psychotropic drugs are highly lipophilic, leading to enrichment in lipid-rich tissues."
        }, 
        {
            "frame-id": "sent-PMC1635424-medscan-102", 
            "frame-type": "sentence", 
            "object-type": "frame", 
            "start-pos": {
                "object-type": "absolute-pos", 
                "offset": 102
            }, 
            "text": "Levels of haloperidol and clozapine have been demonstrated to be 10-30 times higher in the CNS compared to the corresponding serum concentration [ , ]."
        }, 
        {
            "frame-id": "sent-PMC1635424-medscan-103", 
            "frame-type": "sentence", 
            "object-type": "frame", 
            "start-pos": {
                "object-type": "absolute-pos", 
                "offset": 103
            }, 
            "text": "Taken together, these data indicate that sterol regulatory element-binding proteins-activation by clozapine and chlorpromazine might occur in the brain when serum levels are within their therapeutically relevant range, whereas the sterol regulatory element-binding proteins activation observed for haloperidol would be expected to be of minor clinical relevance."
        }, 
        {
            "frame-id": "sent-PMC1635424-medscan-104", 
            "frame-type": "sentence", 
            "object-type": "frame", 
            "start-pos": {
                "object-type": "absolute-pos", 
                "offset": 104
            }, 
            "text": "Interestingly, clozapine has been described as a drug with superior therapeutic efficacy [ , ], with positive effects in otherwise treatment-refractory patients."
        }, 
        {
            "frame-id": "sent-PMC1635424-medscan-105", 
            "frame-type": "sentence", 
            "object-type": "frame", 
            "start-pos": {
                "object-type": "absolute-pos", 
                "offset": 105
            }, 
            "text": "However, a similar supremacy has not been shown for chlorpromazine, the other apparent potent sterol regulatory element-binding proteins-activating drug."
        }, 
        {
            "frame-id": "sent-PMC1635424-medscan-106", 
            "frame-type": "sentence", 
            "object-type": "frame", 
            "start-pos": {
                "object-type": "absolute-pos", 
                "offset": 106
            }, 
            "text": "Finally, it is uncertain how large an in vivo response would need to be in order to be of any clinical relevance, since even minor changes in cellular lipid biosynthesis in vivo could have marked clinical effects."
        }, 
        {
            "frame-id": "sent-PMC1635424-medscan-107", 
            "frame-type": "sentence", 
            "object-type": "frame", 
            "start-pos": {
                "object-type": "absolute-pos", 
                "offset": 107
            }, 
            "text": "Caution should always be taken when making inferences from cell cultures to the clinical setting, and further studies are indeed warranted to draw more reliable conclusions about the clinical impact of our results."
        }, 
        {
            "frame-id": "sent-PMC1635424-medscan-108", 
            "frame-type": "sentence", 
            "object-type": "frame", 
            "start-pos": {
                "object-type": "absolute-pos", 
                "offset": 108
            }, 
            "text": "We here extend our initial studies with haloperidol and clozapine by demonstrating that antipsychotic drugs in general stimulate sterol regulatory element-binding proteins-controlled gene expression in several CNS-relevant cell lines, but with marked differences between the various drugs and types of cells."
        }, 
        {
            "frame-id": "sent-PMC1635424-medscan-109", 
            "frame-type": "sentence", 
            "object-type": "frame", 
            "start-pos": {
                "object-type": "absolute-pos", 
                "offset": 109
            }, 
            "text": "We have previously suggested that the psychotropic-induced sterol regulatory element-binding proteins activation is a glial-mediated mechanism of drug action."
        }, 
        {
            "frame-id": "sent-PMC1635424-medscan-110", 
            "frame-type": "sentence", 
            "object-type": "frame", 
            "start-pos": {
                "object-type": "absolute-pos", 
                "offset": 110
            }, 
            "text": "This proposal is supported by our present results, demonstrating that the lipogenic effect is apparently more pronounced in glial than in neuronal cell lines."
        }, 
        {
            "frame-id": "sent-PMC1635424-medscan-111", 
            "frame-type": "sentence", 
            "object-type": "frame", 
            "start-pos": {
                "object-type": "absolute-pos", 
                "offset": 111
            }, 
            "text": "We hypothesize that drug-induced transcriptional activation of cholesterol biosynthesis in the brain represents a receptor-independent mechanism of therapeutic action of some antipsychotic drugs, possibly by providing essential building blocks for the myelination process and synaptogenesis."
        }, 
        {
            "frame-id": "sent-PMC1635424-medscan-112", 
            "frame-type": "sentence", 
            "object-type": "frame", 
            "start-pos": {
                "object-type": "absolute-pos", 
                "offset": 112
            }, 
            "text": "Further studies on gene expression changes and lipid parameters in blood samples from drug-treated patients and brain tissue from animal models should be undertaken."
        }, 
        {
            "frame-id": "sent-PMC1635424-medscan-113", 
            "frame-type": "sentence", 
            "object-type": "frame", 
            "start-pos": {
                "object-type": "absolute-pos", 
                "offset": 113
            }, 
            "text": "The human glioma GaMg cell line was kindly provided by an in-house source [ ]."
        }, 
        {
            "frame-id": "sent-PMC1635424-medscan-114", 
            "frame-type": "sentence", 
            "object-type": "frame", 
            "start-pos": {
                "object-type": "absolute-pos", 
                "offset": 114
            }, 
            "text": "The R-Hi-501 rat hippocampal primary cell culture was purchased from Cambrex (Cambrex Biosciences, USA)."
        }, 
        {
            "frame-id": "sent-PMC1635424-medscan-115", 
            "frame-type": "sentence", 
            "object-type": "frame", 
            "start-pos": {
                "object-type": "absolute-pos", 
                "offset": 115
            }, 
            "text": "All other cell lines were purchased from ATCC (LGC Promochem, UK)."
        }, 
        {
            "frame-id": "sent-PMC1635424-medscan-116", 
            "frame-type": "sentence", 
            "object-type": "frame", 
            "start-pos": {
                "object-type": "absolute-pos", 
                "offset": 116
            }, 
            "text": "GaMg human glioblastoma cells were cultured in Dulbecco's Modified Eagle Medium containing 2 mM L-glutamine, 4.5 g/L glucose and 10 % fetal bovine serum ."
        }, 
        {
            "frame-id": "sent-PMC1635424-medscan-117", 
            "frame-type": "sentence", 
            "object-type": "frame", 
            "start-pos": {
                "object-type": "absolute-pos", 
                "offset": 117
            }, 
            "text": "CCF-STTG1 human astrocytoma cells were grown in RPMI 1640 medium containing 2 mM L-glutamine 1.5 g/L sodium bicarbonate, 4.5 g/L glucose, 10 mM HEPES, 1.0 mM sodium pyruvate and 10 % fetal bovine serum."
        }, 
        {
            "frame-id": "sent-PMC1635424-medscan-118", 
            "frame-type": "sentence", 
            "object-type": "frame", 
            "start-pos": {
                "object-type": "absolute-pos", 
                "offset": 118
            }, 
            "text": "SH-SY5Y human neuroblastoma cells were cultured in Eagle's Minimum Essential Medium containing 1.5 g/L sodium bicarbonate, 1.0 mM sodium pyruvate, 0.1 mM non-essential amino acids , 2 mM L-glutamine and 10 % fetal bovine serum."
        }, 
        {
            "frame-id": "sent-PMC1635424-medscan-119", 
            "frame-type": "sentence", 
            "object-type": "frame", 
            "start-pos": {
                "object-type": "absolute-pos", 
                "offset": 119
            }, 
            "text": "HCN2 human cortical neuron cells cells (derived from cortical tissue removed from a patient undergoing hemispherectomy for intractable seizures associated with Rasmussen's encephalitis) were grown in Dulbecco's Modified Eagle Medium medium containing 1.5 g/L sodium-bicarbonate, 4.5 g/L glucose and 4 mM L-glutamine and 10 % fetal bovine serum."
        }, 
        {
            "frame-id": "sent-PMC1635424-medscan-120", 
            "frame-type": "sentence", 
            "object-type": "frame", 
            "start-pos": {
                "object-type": "absolute-pos", 
                "offset": 120
            }, 
            "text": "R-Hi-501 rat hippocampal cells were grown in Neurobasal Medium containing 2 mM L-Glutamine and 2 % B27 supplement."
        }, 
        {
            "frame-id": "sent-PMC1635424-medscan-121", 
            "frame-type": "sentence", 
            "object-type": "frame", 
            "start-pos": {
                "object-type": "absolute-pos", 
                "offset": 121
            }, 
            "text": "GaMg, CCF-STTG1 and SH-SY5Y cells were cultured on 6-well plates (TPP, Switzerland) in monolayer to high confluence."
        }, 
        {
            "frame-id": "sent-PMC1635424-medscan-122", 
            "frame-type": "sentence", 
            "object-type": "frame", 
            "start-pos": {
                "object-type": "absolute-pos", 
                "offset": 122
            }, 
            "text": "HCN2 were cultured on laminin/poly-D-lysine coated 6-well plates (Becton Dickinson, USA) at high confluence."
        }, 
        {
            "frame-id": "sent-PMC1635424-medscan-123", 
            "frame-type": "sentence", 
            "object-type": "frame", 
            "start-pos": {
                "object-type": "absolute-pos", 
                "offset": 123
            }, 
            "text": "R-Hi-501 cells were grown in poly-D-lysine and laminin coated plates, prepared according to the manufacturers recommendations."
        }, 
        {
            "frame-id": "sent-PMC1635424-medscan-124", 
            "frame-type": "sentence", 
            "object-type": "frame", 
            "start-pos": {
                "object-type": "absolute-pos", 
                "offset": 124
            }, 
            "text": "All cells were incubated in the presence of 100 U/ml Penicillin-Streptomycin Mixture (Cambrex Biosciences) in 5 % CO2 at 37\u00b0C."
        }, 
        {
            "frame-id": "sent-PMC1635424-medscan-125", 
            "frame-type": "sentence", 
            "object-type": "frame", 
            "start-pos": {
                "object-type": "absolute-pos", 
                "offset": 125
            }, 
            "text": "The cell lines were cultured for 1-2 days before drug exposure and experiments were performed in triplicate, with the exception of the R-Hi-501 cells (n = 1)."
        }, 
        {
            "frame-id": "sent-PMC1635424-medscan-126", 
            "frame-type": "sentence", 
            "object-type": "frame", 
            "start-pos": {
                "object-type": "absolute-pos", 
                "offset": 126
            }, 
            "text": "For examination of the effects on cell viability for haloperidol (Janssen-Cilag, Belgium), chlorpromazine (Sigma-Aldrich, USA), clozapine (Sigma-Aldrich), olanzapine (Toronto Research Chemicals, Canada), risperidone (Sigma-Aldrich) and ziprasidone (Toronto Research Chemicals), we used the Cell Proliferation Reagent WST-1 (Roche Diagnostics, Germany)."
        }, 
        {
            "frame-id": "sent-PMC1635424-medscan-127", 
            "frame-type": "sentence", 
            "object-type": "frame", 
            "start-pos": {
                "object-type": "absolute-pos", 
                "offset": 127
            }, 
            "text": "GaMg cells were spread out with a density of 6000 cells/well (96 multi-well plates) and exposed to 1, 5, 10, 25, 50 and 100 \u03bcM of the respective drug for 24 hours."
        }, 
        {
            "frame-id": "sent-PMC1635424-medscan-128", 
            "frame-type": "sentence", 
            "object-type": "frame", 
            "start-pos": {
                "object-type": "absolute-pos", 
                "offset": 128
            }, 
            "text": "Cell viability in response to drug exposure was compared to the growth of vehicle-exposed (lactic acid, 6 \u03bcg/ml) cells as well as to a cell density gradient created by plating out 3000, 4000, 6000, 8000 or 10000 GaMg cells per well."
        }, 
        {
            "frame-id": "sent-PMC1635424-medscan-129", 
            "frame-type": "sentence", 
            "object-type": "frame", 
            "start-pos": {
                "object-type": "absolute-pos", 
                "offset": 129
            }, 
            "text": "The WST-1 analysis was performed in accordance with the supplier's recommendations."
        }, 
        {
            "frame-id": "sent-PMC1635424-medscan-130", 
            "frame-type": "sentence", 
            "object-type": "frame", 
            "start-pos": {
                "object-type": "absolute-pos", 
                "offset": 130
            }, 
            "text": "All experiments were initiated by replacement of the pre-exposure media with fresh media containing vehicle control (lactate acid) or the respective drug."
        }, 
        {
            "frame-id": "sent-PMC1635424-medscan-131", 
            "frame-type": "sentence", 
            "object-type": "frame", 
            "start-pos": {
                "object-type": "absolute-pos", 
                "offset": 131
            }, 
            "text": "All experiments were performed in quadruplicate."
        }, 
        {
            "frame-id": "sent-PMC1635424-medscan-132", 
            "frame-type": "sentence", 
            "object-type": "frame", 
            "start-pos": {
                "object-type": "absolute-pos", 
                "offset": 132
            }, 
            "text": "After drug exposure, cells were trypsinated and total RNA was extracted using the ABI PRISM\u2122 6100 Nucleic Acid PrepStation (Applied Biosystems, USA)."
        }, 
        {
            "frame-id": "sent-PMC1635424-medscan-133", 
            "frame-type": "sentence", 
            "object-type": "frame", 
            "start-pos": {
                "object-type": "absolute-pos", 
                "offset": 133
            }, 
            "text": "RNA quantity and quality was measured on the NanoDrop\u00ae ND-1000 spectrophotometer (NanoDrop Technologies, USA). cDNA was synthesized using the TaqMan Reverse Transcription reagents (Applied Biosystems) and used as template for real-time PCR analysis on an ABI Prism 7900HT sequence detector system (Applied Biosystems) with SYBR-green (Eurogentec, Belgium) as detector, as previously described [ ]."
        }, 
        {
            "frame-id": "sent-PMC1635424-medscan-134", 
            "frame-type": "sentence", 
            "object-type": "frame", 
            "start-pos": {
                "object-type": "absolute-pos", 
                "offset": 134
            }, 
            "text": "Each sample was run in triplicate."
        }, 
        {
            "frame-id": "sent-PMC1635424-medscan-135", 
            "frame-type": "sentence", 
            "object-type": "frame", 
            "start-pos": {
                "object-type": "absolute-pos", 
                "offset": 135
            }, 
            "text": "The relative gene expression levels were determined with the comparative \u0394Ct-method [ ] and normalized relative to the ribosomal protein P0 gene."
        }, 
        {
            "frame-id": "sent-PMC1635424-medscan-136", 
            "frame-type": "sentence", 
            "object-type": "frame", 
            "start-pos": {
                "object-type": "absolute-pos", 
                "offset": 136
            }, 
            "text": "Similar results were obtained in a pilot study when normalizing relative to GAPDH and B-actin."
        }, 
        {
            "frame-id": "sent-PMC1635424-medscan-137", 
            "frame-type": "sentence", 
            "object-type": "frame", 
            "start-pos": {
                "object-type": "absolute-pos", 
                "offset": 137
            }, 
            "text": "GaMg cells were seeded into 6-well plates and left to adhere over night."
        }, 
        {
            "frame-id": "sent-PMC1635424-medscan-138", 
            "frame-type": "sentence", 
            "object-type": "frame", 
            "start-pos": {
                "object-type": "absolute-pos", 
                "offset": 138
            }, 
            "text": "To reduce the endogenous sterol regulatory element-binding proteins activity, the medium was supplemented to contain 20 % fetal bovine serum three hours prior to addition of the drugs or vehicle."
        }, 
        {
            "frame-id": "sent-PMC1635424-medscan-139", 
            "frame-type": "sentence", 
            "object-type": "frame", 
            "start-pos": {
                "object-type": "absolute-pos", 
                "offset": 139
            }, 
            "text": "The cells were grown in the same medium for 24 hours during drug exposure."
        }, 
        {
            "frame-id": "sent-PMC1635424-medscan-140", 
            "frame-type": "sentence", 
            "object-type": "frame", 
            "start-pos": {
                "object-type": "absolute-pos", 
                "offset": 140
            }, 
            "text": "In order to terminate the experiments, cell cultures were washed twice with cold PBS before adding RIPA lysis buffer (15 mM NaCl, 50 mM TRIS, 0.5 % sodium deoxycholate, 1 % Np-40 and 0.1 % SDS) containing Complete protease inhibitor (one tablet per 10 ml RIPA; Roche Diagnostics, USA)."
        }, 
        {
            "frame-id": "sent-PMC1635424-medscan-141", 
            "frame-type": "sentence", 
            "object-type": "frame", 
            "start-pos": {
                "object-type": "absolute-pos", 
                "offset": 141
            }, 
            "text": "To achieve complete lysis, the cell suspensions were kept in the RIPA-containing buffer for 30 min at 4\u00b0C, before storage at -20\u00b0C."
        }, 
        {
            "frame-id": "sent-PMC1635424-medscan-142", 
            "frame-type": "sentence", 
            "object-type": "frame", 
            "start-pos": {
                "object-type": "absolute-pos", 
                "offset": 142
            }, 
            "text": "For Western blotting, the samples were thawed and centrifuged in an Eppendorf 5415D microcentrifuge (Eppendorf, USA) at 16000 \u00d7 g for 10 minutes."
        }, 
        {
            "frame-id": "sent-PMC1635424-medscan-143", 
            "frame-type": "sentence", 
            "object-type": "frame", 
            "start-pos": {
                "object-type": "absolute-pos", 
                "offset": 143
            }, 
            "text": "Protein content was determined from the supernatant using the Bio-Rad DC (detergent compatible) Protein Assay (Bio-Rad Laboratories, USA)."
        }, 
        {
            "frame-id": "sent-PMC1635424-medscan-144", 
            "frame-type": "sentence", 
            "object-type": "frame", 
            "start-pos": {
                "object-type": "absolute-pos", 
                "offset": 144
            }, 
            "text": "Immunoblotting was performed by the Western Breeze system (Invitrogen, USA): 10 \u03bcg of total protein from each sample was separated on NuPAGE 4-12 % Bis-Tris Gels and blotted onto Invitrolon\u2122 PVDF membranes."
        }, 
        {
            "frame-id": "sent-PMC1635424-medscan-145", 
            "frame-type": "sentence", 
            "object-type": "frame", 
            "start-pos": {
                "object-type": "absolute-pos", 
                "offset": 145
            }, 
            "text": "The membranes were incubated overnight at 4\u00b0C with 1.5 \u03bcg/ml purified monoclonal anti-human SREBP2 mouse antibody (IgG-1C6, BD Biosciences Pharmingen, USA), and probed with alkaline phosphatase-conjugated goat anti-mouse secondary antibody solution (Invitrogen) for 1 hour."
        }, 
        {
            "frame-id": "sent-PMC1635424-medscan-146", 
            "frame-type": "sentence", 
            "object-type": "frame", 
            "start-pos": {
                "object-type": "absolute-pos", 
                "offset": 146
            }, 
            "text": "Chemiluminescence detection was performed according to manufacturer's instructions (Invitrogen)."
        }, 
        {
            "frame-id": "sent-PMC1635424-medscan-147", 
            "frame-type": "sentence", 
            "object-type": "frame", 
            "start-pos": {
                "object-type": "absolute-pos", 
                "offset": 147
            }, 
            "text": "The SREBP2 activation was semi-quantified as the signal intensity of the mature (M) active 60-70 kDa sterol regulatory element-binding proteins fragment divided by the signal intensity of the inactive 120 kDa precursor (P) protein, annotated as the \"M/P-ratio\"."
        }, 
        {
            "frame-id": "sent-PMC1635424-medscan-148", 
            "frame-type": "sentence", 
            "object-type": "frame", 
            "start-pos": {
                "object-type": "absolute-pos", 
                "offset": 148
            }, 
            "text": "Signal intensity measurements were performed with computer-assisted densitometry and image scanning using the Fuji Las-1000 luminescent image analyzer (Fuji, Japan) and the Image Gauge v4.0 software (Fuji)."
        }, 
        {
            "frame-id": "sent-PMC1635424-medscan-149", 
            "frame-type": "sentence", 
            "object-type": "frame", 
            "start-pos": {
                "object-type": "absolute-pos", 
                "offset": 149
            }, 
            "text": "Relative gene expression values were analyzed by one-way analysis of variance , when not stated otherwise."
        }, 
        {
            "frame-id": "sent-PMC1635424-medscan-150", 
            "frame-type": "sentence", 
            "object-type": "frame", 
            "start-pos": {
                "object-type": "absolute-pos", 
                "offset": 150
            }, 
            "text": "When the analysis of variance test indicated statistical significance, a Dunnett post-hoc test was applied to determine the concentrations where the change in gene expression was statistically different from the vehicle-treated control."
        }, 
        {
            "frame-id": "sent-PMC1635424-medscan-151", 
            "frame-type": "sentence", 
            "object-type": "frame", 
            "start-pos": {
                "object-type": "absolute-pos", 
                "offset": 151
            }, 
            "text": "In experimental setups with only few comparisons, the student's t-test was applied."
        }, 
        {
            "frame-id": "sent-PMC1635424-medscan-152", 
            "frame-type": "sentence", 
            "object-type": "frame", 
            "start-pos": {
                "object-type": "absolute-pos", 
                "offset": 152
            }, 
            "text": "All statistical tests were conducted with Statistica\u00ae software version 6.0 (StatSoft, USA)."
        }, 
        {
            "frame-id": "sent-PMC1635424-medscan-153", 
            "frame-type": "sentence", 
            "object-type": "frame", 
            "start-pos": {
                "object-type": "absolute-pos", 
                "offset": 153
            }, 
            "text": "JF was responsible for the design of the study, participated in the real-time PCR and immunoblot analyses, carried out statistical analysis and drafted the manuscript."
        }, 
        {
            "frame-id": "sent-PMC1635424-medscan-154", 
            "frame-type": "sentence", 
            "object-type": "frame", 
            "start-pos": {
                "object-type": "absolute-pos", 
                "offset": 154
            }, 
            "text": "SS was involved in the design of the study, participated in the cell culture work and real-time PCR, and contributed to the writing process."
        }, 
        {
            "frame-id": "sent-PMC1635424-medscan-155", 
            "frame-type": "sentence", 
            "object-type": "frame", 
            "start-pos": {
                "object-type": "absolute-pos", 
                "offset": 155
            }, 
            "text": "BH was involved in the design of the study, participated in cell culture work, and contributed in drafting the manuscript."
        }, 
        {
            "frame-id": "sent-PMC1635424-medscan-156", 
            "frame-type": "sentence", 
            "object-type": "frame", 
            "start-pos": {
                "object-type": "absolute-pos", 
                "offset": 156
            }, 
            "text": "AOVM participated in design of the study, developed a real-time PCR analysis protocol, and contributed to the writing process."
        }, 
        {
            "frame-id": "sent-PMC1635424-medscan-157", 
            "frame-type": "sentence", 
            "object-type": "frame", 
            "start-pos": {
                "object-type": "absolute-pos", 
                "offset": 157
            }, 
            "text": "VMS conceived of the study, participated in its design, coordination and data analysis, and helped to draft the manuscript."
        }, 
        {
            "frame-id": "sent-PMC1635424-medscan-158", 
            "frame-type": "sentence", 
            "object-type": "frame", 
            "start-pos": {
                "object-type": "absolute-pos", 
                "offset": 158
            }, 
            "text": "All authors have read and approved the final manuscript."
        }
    ], 
    "object-meta": {
        "component": "MedScan", 
        "component-type": "machine", 
        "doc-id": "PMC1635424", 
        "object-type": "meta-info", 
        "organization": "CMU"
    }, 
    "object-type": "frame-collection"
}
