{
    "frames": [
        {
            "end-pos": {
                "context-end": "AChE/1", 
                "object-type": "relative-pos", 
                "offset": 22, 
                "reference": "sent-PMC3029310-medscan-4"
            }, 
            "frame-id": "ment-PMC3029310-cmu-junsys-9", 
            "frame-type": "entity-mention", 
            "object-meta": {
                "component": "Jun-System", 
                "object-type": "meta-info", 
                "organization": "CMU"
            }, 
            "object-type": "frame", 
            "sentence": "sent-PMC3029310-medscan-4", 
            "start-pos": {
                "context-start": "AChE/1", 
                "object-type": "relative-pos", 
                "offset": 18, 
                "reference": "sent-PMC3029310-medscan-4"
            }, 
            "text": "AChE", 
            "xrefs": []
        }, 
        {
            "end-pos": {
                "context-end": "AChE/1", 
                "object-type": "relative-pos", 
                "offset": 129, 
                "reference": "sent-PMC3029310-medscan-6"
            }, 
            "frame-id": "ment-PMC3029310-cmu-junsys-18", 
            "frame-type": "entity-mention", 
            "object-meta": {
                "component": "Jun-System", 
                "object-type": "meta-info", 
                "organization": "CMU"
            }, 
            "object-type": "frame", 
            "sentence": "sent-PMC3029310-medscan-6", 
            "start-pos": {
                "context-start": "AChE/1", 
                "object-type": "relative-pos", 
                "offset": 125, 
                "reference": "sent-PMC3029310-medscan-6"
            }, 
            "text": "AChE", 
            "xrefs": []
        }, 
        {
            "end-pos": {
                "context-end": "AChE/1", 
                "object-type": "relative-pos", 
                "offset": 22, 
                "reference": "sent-PMC3029310-medscan-15"
            }, 
            "frame-id": "ment-PMC3029310-cmu-junsys-32", 
            "frame-type": "entity-mention", 
            "object-meta": {
                "component": "Jun-System", 
                "object-type": "meta-info", 
                "organization": "CMU"
            }, 
            "object-type": "frame", 
            "sentence": "sent-PMC3029310-medscan-15", 
            "start-pos": {
                "context-start": "AChE/1", 
                "object-type": "relative-pos", 
                "offset": 18, 
                "reference": "sent-PMC3029310-medscan-15"
            }, 
            "text": "AChE", 
            "xrefs": []
        }, 
        {
            "end-pos": {
                "context-end": "nymphs/1", 
                "object-type": "relative-pos", 
                "offset": 350, 
                "reference": "sent-PMC3029310-medscan-66"
            }, 
            "frame-id": "ment-PMC3029310-cmu-junsys-83", 
            "frame-type": "entity-mention", 
            "object-meta": {
                "component": "Jun-System", 
                "object-type": "meta-info", 
                "organization": "CMU"
            }, 
            "object-type": "frame", 
            "sentence": "sent-PMC3029310-medscan-66", 
            "start-pos": {
                "context-start": "nymphs/1", 
                "object-type": "relative-pos", 
                "offset": 344, 
                "reference": "sent-PMC3029310-medscan-66"
            }, 
            "text": "nymphs", 
            "xrefs": []
        }, 
        {
            "end-pos": {
                "context-end": "which/1", 
                "object-type": "relative-pos", 
                "offset": 118, 
                "reference": "sent-PMC3029310-medscan-63"
            }, 
            "frame-id": "ment-PMC3029310-cmu-junsys-84", 
            "frame-type": "entity-mention", 
            "object-meta": {
                "component": "Jun-System", 
                "object-type": "meta-info", 
                "organization": "CMU"
            }, 
            "object-type": "frame", 
            "sentence": "sent-PMC3029310-medscan-63", 
            "start-pos": {
                "context-start": "which/1", 
                "object-type": "relative-pos", 
                "offset": 113, 
                "reference": "sent-PMC3029310-medscan-63"
            }, 
            "text": "which", 
            "xrefs": []
        }, 
        {
            "end-pos": {
                "context-end": "mol-1min-1/1", 
                "object-type": "relative-pos", 
                "offset": 149, 
                "reference": "sent-PMC3029310-medscan-69"
            }, 
            "frame-id": "ment-PMC3029310-cmu-junsys-93", 
            "frame-type": "entity-mention", 
            "object-meta": {
                "component": "Jun-System", 
                "object-type": "meta-info", 
                "organization": "CMU"
            }, 
            "object-type": "frame", 
            "sentence": "sent-PMC3029310-medscan-69", 
            "start-pos": {
                "context-start": "mol-1min-1/1", 
                "object-type": "relative-pos", 
                "offset": 139, 
                "reference": "sent-PMC3029310-medscan-69"
            }, 
            "text": "mol-1min-1", 
            "xrefs": []
        }, 
        {
            "end-pos": {
                "context-end": "which/1", 
                "object-type": "relative-pos", 
                "offset": 155, 
                "reference": "sent-PMC3029310-medscan-72"
            }, 
            "frame-id": "ment-PMC3029310-cmu-junsys-94", 
            "frame-type": "entity-mention", 
            "object-meta": {
                "component": "Jun-System", 
                "object-type": "meta-info", 
                "organization": "CMU"
            }, 
            "object-type": "frame", 
            "sentence": "sent-PMC3029310-medscan-72", 
            "start-pos": {
                "context-start": "which/1", 
                "object-type": "relative-pos", 
                "offset": 150, 
                "reference": "sent-PMC3029310-medscan-72"
            }, 
            "text": "which", 
            "xrefs": []
        }, 
        {
            "end-pos": {
                "context-end": "min-1/1", 
                "object-type": "relative-pos", 
                "offset": 149, 
                "reference": "sent-PMC3029310-medscan-72"
            }, 
            "frame-id": "ment-PMC3029310-cmu-junsys-99", 
            "frame-type": "entity-mention", 
            "object-meta": {
                "component": "Jun-System", 
                "object-type": "meta-info", 
                "organization": "CMU"
            }, 
            "object-type": "frame", 
            "sentence": "sent-PMC3029310-medscan-72", 
            "start-pos": {
                "context-start": "min-1/1", 
                "object-type": "relative-pos", 
                "offset": 144, 
                "reference": "sent-PMC3029310-medscan-72"
            }, 
            "text": "min-1", 
            "xrefs": []
        }, 
        {
            "end-pos": {
                "context-end": "which/1", 
                "object-type": "relative-pos", 
                "offset": 155, 
                "reference": "sent-PMC3029310-medscan-72"
            }, 
            "frame-id": "ment-PMC3029310-cmu-junsys-100", 
            "frame-type": "entity-mention", 
            "object-meta": {
                "component": "Jun-System", 
                "object-type": "meta-info", 
                "organization": "CMU"
            }, 
            "object-type": "frame", 
            "sentence": "sent-PMC3029310-medscan-72", 
            "start-pos": {
                "context-start": "which/1", 
                "object-type": "relative-pos", 
                "offset": 150, 
                "reference": "sent-PMC3029310-medscan-72"
            }, 
            "text": "which", 
            "xrefs": []
        }, 
        {
            "end-pos": {
                "object-type": "relative-pos", 
                "offset": -1, 
                "reference": "NOT LINKED"
            }, 
            "frame-id": "ment-PMC3029310-cmu-junsys-103", 
            "frame-type": "entity-mention", 
            "object-meta": {
                "component": "Jun-System", 
                "object-type": "meta-info", 
                "organization": "CMU"
            }, 
            "object-type": "frame", 
            "sentence": "NOT LINKED", 
            "start-pos": {
                "object-type": "relative-pos", 
                "offset": -1, 
                "reference": "NOT LINKED"
            }, 
            "text": "progress", 
            "xrefs": []
        }, 
        {
            "end-pos": {
                "context-end": "progress/1", 
                "object-type": "relative-pos", 
                "offset": 27, 
                "reference": "sent-PMC3029310-medscan-84"
            }, 
            "frame-id": "ment-PMC3029310-cmu-junsys-115", 
            "frame-type": "entity-mention", 
            "object-meta": {
                "component": "Jun-System", 
                "object-type": "meta-info", 
                "organization": "CMU"
            }, 
            "object-type": "frame", 
            "sentence": "sent-PMC3029310-medscan-84", 
            "start-pos": {
                "context-start": "progress/1", 
                "object-type": "relative-pos", 
                "offset": 19, 
                "reference": "sent-PMC3029310-medscan-84"
            }, 
            "text": "progress", 
            "xrefs": []
        }, 
        {
            "end-pos": {
                "context-end": "treatment/1", 
                "object-type": "relative-pos", 
                "offset": 33, 
                "reference": "sent-PMC3029310-medscan-87"
            }, 
            "frame-id": "ment-PMC3029310-cmu-junsys-122", 
            "frame-type": "entity-mention", 
            "object-meta": {
                "component": "Jun-System", 
                "object-type": "meta-info", 
                "organization": "CMU"
            }, 
            "object-type": "frame", 
            "sentence": "sent-PMC3029310-medscan-87", 
            "start-pos": {
                "context-start": "treatment/1", 
                "object-type": "relative-pos", 
                "offset": 24, 
                "reference": "sent-PMC3029310-medscan-87"
            }, 
            "text": "treatment", 
            "xrefs": []
        }, 
        {
            "end-pos": {
                "context-end": "toxicity/1", 
                "object-type": "relative-pos", 
                "offset": 18, 
                "reference": "sent-PMC3029310-medscan-88"
            }, 
            "frame-id": "ment-PMC3029310-cmu-junsys-127", 
            "frame-type": "entity-mention", 
            "object-meta": {
                "component": "Jun-System", 
                "object-type": "meta-info", 
                "organization": "CMU"
            }, 
            "object-type": "frame", 
            "sentence": "sent-PMC3029310-medscan-88", 
            "start-pos": {
                "context-start": "toxicity/1", 
                "object-type": "relative-pos", 
                "offset": 10, 
                "reference": "sent-PMC3029310-medscan-88"
            }, 
            "text": "toxicity", 
            "xrefs": []
        }, 
        {
            "end-pos": {
                "context-end": "germanica/1", 
                "object-type": "relative-pos", 
                "offset": 135, 
                "reference": "sent-PMC3029310-medscan-90"
            }, 
            "frame-id": "ment-PMC3029310-cmu-junsys-132", 
            "frame-type": "entity-mention", 
            "object-meta": {
                "component": "Jun-System", 
                "object-type": "meta-info", 
                "organization": "CMU"
            }, 
            "object-type": "frame", 
            "sentence": "sent-PMC3029310-medscan-90", 
            "start-pos": {
                "context-start": "germanica/1", 
                "object-type": "relative-pos", 
                "offset": 126, 
                "reference": "sent-PMC3029310-medscan-90"
            }, 
            "text": "germanica", 
            "xrefs": []
        }, 
        {
            "end-pos": {
                "object-type": "relative-pos", 
                "offset": -1, 
                "reference": "NOT LINKED"
            }, 
            "frame-id": "ment-PMC3029310-cmu-junsys-133", 
            "frame-type": "entity-mention", 
            "object-meta": {
                "component": "Jun-System", 
                "object-type": "meta-info", 
                "organization": "CMU"
            }, 
            "object-type": "frame", 
            "sentence": "NOT LINKED", 
            "start-pos": {
                "object-type": "relative-pos", 
                "offset": -1, 
                "reference": "NOT LINKED"
            }, 
            "text": "which", 
            "xrefs": []
        }, 
        {
            "end-pos": {
                "context-end": "AChE/1", 
                "object-type": "relative-pos", 
                "offset": 38, 
                "reference": "sent-PMC3029310-medscan-92"
            }, 
            "frame-id": "ment-PMC3029310-cmu-junsys-134", 
            "frame-type": "entity-mention", 
            "object-meta": {
                "component": "Jun-System", 
                "object-type": "meta-info", 
                "organization": "CMU"
            }, 
            "object-type": "frame", 
            "sentence": "sent-PMC3029310-medscan-92", 
            "start-pos": {
                "context-start": "AChE/1", 
                "object-type": "relative-pos", 
                "offset": 34, 
                "reference": "sent-PMC3029310-medscan-92"
            }, 
            "text": "AChE", 
            "xrefs": []
        }, 
        {
            "end-pos": {
                "context-end": "AChE/1", 
                "object-type": "relative-pos", 
                "offset": 33, 
                "reference": "sent-PMC3029310-medscan-95"
            }, 
            "frame-id": "ment-PMC3029310-cmu-junsys-138", 
            "frame-type": "entity-mention", 
            "object-meta": {
                "component": "Jun-System", 
                "object-type": "meta-info", 
                "organization": "CMU"
            }, 
            "object-type": "frame", 
            "sentence": "sent-PMC3029310-medscan-95", 
            "start-pos": {
                "context-start": "AChE/1", 
                "object-type": "relative-pos", 
                "offset": 29, 
                "reference": "sent-PMC3029310-medscan-95"
            }, 
            "text": "AChE", 
            "xrefs": []
        }, 
        {
            "end-pos": {
                "context-end": "AChE/1", 
                "object-type": "relative-pos", 
                "offset": 101, 
                "reference": "sent-PMC3029310-medscan-97"
            }, 
            "frame-id": "ment-PMC3029310-cmu-junsys-143", 
            "frame-type": "entity-mention", 
            "object-meta": {
                "component": "Jun-System", 
                "object-type": "meta-info", 
                "organization": "CMU"
            }, 
            "object-type": "frame", 
            "sentence": "sent-PMC3029310-medscan-97", 
            "start-pos": {
                "context-start": "AChE/1", 
                "object-type": "relative-pos", 
                "offset": 97, 
                "reference": "sent-PMC3029310-medscan-97"
            }, 
            "text": "AChE", 
            "xrefs": []
        }, 
        {
            "arguments": [
                {
                    "arg": "ment-PMC3029310-cmu-junsys-9", 
                    "object-type": "argument", 
                    "type": "arg1"
                }
            ], 
            "context": "inhibition of AChE", 
            "end-pos": {
                "context-end": "inhibition/1", 
                "object-type": "relative-pos", 
                "offset": 14, 
                "reference": "sent-PMC3029310-medscan-4"
            }, 
            "frame-id": "eve-PMC3029310-cmu-junsys-166", 
            "frame-type": "event-mention", 
            "object-meta": {
                "component": "Jun-System", 
                "object-type": "meta-info", 
                "organization": "CMU"
            }, 
            "object-type": "frame", 
            "sentence": "sent-PMC3029310-medscan-4", 
            "start-pos": {
                "context-start": "inhibition/1", 
                "object-type": "relative-pos", 
                "offset": 4, 
                "reference": "sent-PMC3029310-medscan-4"
            }, 
            "text": "inhibition", 
            "type": "inhibit"
        }, 
        {
            "arguments": [
                {
                    "arg": "ment-PMC3029310-cmu-junsys-18", 
                    "object-type": "argument", 
                    "type": "arg1"
                }
            ], 
            "context": "inhibition of AChE", 
            "end-pos": {
                "context-end": "inhibition/1", 
                "object-type": "relative-pos", 
                "offset": 121, 
                "reference": "sent-PMC3029310-medscan-6"
            }, 
            "frame-id": "eve-PMC3029310-cmu-junsys-167", 
            "frame-type": "event-mention", 
            "object-meta": {
                "component": "Jun-System", 
                "object-type": "meta-info", 
                "organization": "CMU"
            }, 
            "object-type": "frame", 
            "sentence": "sent-PMC3029310-medscan-6", 
            "start-pos": {
                "context-start": "inhibition/1", 
                "object-type": "relative-pos", 
                "offset": 111, 
                "reference": "sent-PMC3029310-medscan-6"
            }, 
            "text": "inhibition", 
            "type": "inhibit"
        }, 
        {
            "arguments": [
                {
                    "arg": "ment-PMC3029310-cmu-junsys-32", 
                    "object-type": "argument", 
                    "type": "arg1"
                }
            ], 
            "context": "inhibition of AChE", 
            "end-pos": {
                "context-end": "inhibition/1", 
                "object-type": "relative-pos", 
                "offset": 14, 
                "reference": "sent-PMC3029310-medscan-15"
            }, 
            "frame-id": "eve-PMC3029310-cmu-junsys-168", 
            "frame-type": "event-mention", 
            "object-meta": {
                "component": "Jun-System", 
                "object-type": "meta-info", 
                "organization": "CMU"
            }, 
            "object-type": "frame", 
            "sentence": "sent-PMC3029310-medscan-15", 
            "start-pos": {
                "context-start": "inhibition/1", 
                "object-type": "relative-pos", 
                "offset": 4, 
                "reference": "sent-PMC3029310-medscan-15"
            }, 
            "text": "inhibition", 
            "type": "inhibit"
        }, 
        {
            "arguments": [
                {
                    "arg": "ment-PMC3029310-cmu-junsys-103", 
                    "object-type": "argument", 
                    "type": "arg1"
                }
            ], 
            "context": "Inhibition of AChE progress", 
            "end-pos": {
                "context-end": "Inhibition/1", 
                "object-type": "relative-pos", 
                "offset": 105, 
                "reference": "sent-PMC3029310-medscan-75"
            }, 
            "frame-id": "eve-PMC3029310-cmu-junsys-169", 
            "frame-type": "event-mention", 
            "object-meta": {
                "component": "Jun-System", 
                "object-type": "meta-info", 
                "organization": "CMU"
            }, 
            "object-type": "frame", 
            "sentence": "sent-PMC3029310-medscan-75", 
            "start-pos": {
                "context-start": "Inhibition/1", 
                "object-type": "relative-pos", 
                "offset": 95, 
                "reference": "sent-PMC3029310-medscan-75"
            }, 
            "text": "Inhibition", 
            "type": "inhibit"
        }, 
        {
            "arguments": [
                {
                    "arg": "ment-PMC3029310-cmu-junsys-115", 
                    "object-type": "argument", 
                    "type": "arg1"
                }
            ], 
            "context": "Inhibition of AChE progress", 
            "end-pos": {
                "context-end": "Inhibition/1", 
                "object-type": "relative-pos", 
                "offset": 10, 
                "reference": "sent-PMC3029310-medscan-84"
            }, 
            "frame-id": "eve-PMC3029310-cmu-junsys-170", 
            "frame-type": "event-mention", 
            "object-meta": {
                "component": "Jun-System", 
                "object-type": "meta-info", 
                "organization": "CMU"
            }, 
            "object-type": "frame", 
            "sentence": "sent-PMC3029310-medscan-84", 
            "start-pos": {
                "context-start": "Inhibition/1", 
                "object-type": "relative-pos", 
                "offset": 0, 
                "reference": "sent-PMC3029310-medscan-84"
            }, 
            "text": "Inhibition", 
            "type": "inhibit"
        }, 
        {
            "arguments": [
                {
                    "arg": "ment-PMC3029310-cmu-junsys-122", 
                    "object-type": "argument", 
                    "type": "arg0"
                }, 
                {
                    "arg": "ment-PMC3029310-cmu-junsys-127", 
                    "object-type": "argument", 
                    "type": "arg1"
                }
            ], 
            "context": "treatment of B. germanica with the cytochrome P450 monooxygenase inhibitor, Piperonyl butoxide, increased dichlorvos and propoxur toxicity", 
            "end-pos": {
                "object-type": "relative-pos", 
                "offset": -1, 
                "reference": "sent-PMC3029310-medscan-87"
            }, 
            "frame-id": "eve-PMC3029310-cmu-junsys-171", 
            "frame-type": "event-mention", 
            "object-meta": {
                "component": "Jun-System", 
                "object-type": "meta-info", 
                "organization": "CMU"
            }, 
            "object-type": "frame", 
            "sentence": "sent-PMC3029310-medscan-87", 
            "start-pos": {
                "object-type": "relative-pos", 
                "offset": -1, 
                "reference": "sent-PMC3029310-medscan-87"
            }, 
            "text": "increased", 
            "type": "increase"
        }, 
        {
            "arguments": [
                {
                    "arg": "ment-PMC3029310-cmu-junsys-134", 
                    "object-type": "argument", 
                    "type": "arg1"
                }
            ], 
            "context": "inhibition of AChE", 
            "end-pos": {
                "context-end": "inhibition/1", 
                "object-type": "relative-pos", 
                "offset": 14, 
                "reference": "sent-PMC3029310-medscan-94"
            }, 
            "frame-id": "eve-PMC3029310-cmu-junsys-172", 
            "frame-type": "event-mention", 
            "object-meta": {
                "component": "Jun-System", 
                "object-type": "meta-info", 
                "organization": "CMU"
            }, 
            "object-type": "frame", 
            "sentence": "sent-PMC3029310-medscan-94", 
            "start-pos": {
                "context-start": "inhibition/1", 
                "object-type": "relative-pos", 
                "offset": 4, 
                "reference": "sent-PMC3029310-medscan-94"
            }, 
            "text": "inhibition", 
            "type": "inhibit"
        }, 
        {
            "arguments": [
                {
                    "arg": "ment-PMC3029310-cmu-medscan-137", 
                    "object-type": "argument", 
                    "type": "arg1"
                }
            ], 
            "context": "inhibition of propoxur", 
            "end-pos": {
                "context-end": "inhibition/1", 
                "object-type": "relative-pos", 
                "offset": 29, 
                "reference": "sent-PMC3029310-medscan-93"
            }, 
            "frame-id": "eve-PMC3029310-cmu-junsys-173", 
            "frame-type": "event-mention", 
            "object-meta": {
                "component": "Jun-System", 
                "object-type": "meta-info", 
                "organization": "CMU"
            }, 
            "object-type": "frame", 
            "sentence": "sent-PMC3029310-medscan-93", 
            "start-pos": {
                "context-start": "inhibition/1", 
                "object-type": "relative-pos", 
                "offset": 19, 
                "reference": "sent-PMC3029310-medscan-93"
            }, 
            "text": "inhibition", 
            "type": "inhibit"
        }, 
        {
            "arguments": [
                {
                    "arg": "ment-PMC3029310-cmu-junsys-138", 
                    "object-type": "argument", 
                    "type": "arg1"
                }
            ], 
            "context": "inhibition of AChE", 
            "end-pos": {
                "object-type": "relative-pos", 
                "offset": -1, 
                "reference": "NOT LINKED"
            }, 
            "frame-id": "eve-PMC3029310-cmu-junsys-174", 
            "frame-type": "event-mention", 
            "object-meta": {
                "component": "Jun-System", 
                "object-type": "meta-info", 
                "organization": "CMU"
            }, 
            "object-type": "frame", 
            "sentence": "NOT LINKED", 
            "start-pos": {
                "object-type": "relative-pos", 
                "offset": -1, 
                "reference": "NOT LINKED"
            }, 
            "text": "inhibition", 
            "type": "inhibit"
        }, 
        {
            "arguments": [
                {
                    "arg": "ment-PMC3029310-cmu-medscan-141", 
                    "object-type": "argument", 
                    "type": "arg1"
                }
            ], 
            "context": "inhibition of acetylcholinesterase", 
            "end-pos": {
                "object-type": "relative-pos", 
                "offset": -1, 
                "reference": "NOT LINKED"
            }, 
            "frame-id": "eve-PMC3029310-cmu-junsys-175", 
            "frame-type": "event-mention", 
            "object-meta": {
                "component": "Jun-System", 
                "object-type": "meta-info", 
                "organization": "CMU"
            }, 
            "object-type": "frame", 
            "sentence": "NOT LINKED", 
            "start-pos": {
                "object-type": "relative-pos", 
                "offset": -1, 
                "reference": "NOT LINKED"
            }, 
            "text": "inhibition", 
            "type": "inhibit"
        }, 
        {
            "arguments": [
                {
                    "arg": "ment-PMC3029310-cmu-junsys-143", 
                    "object-type": "argument", 
                    "type": "arg1"
                }
            ], 
            "context": "inhibition of AChE", 
            "end-pos": {
                "context-end": "inhibition/1", 
                "object-type": "relative-pos", 
                "offset": 68, 
                "reference": "sent-PMC3029310-medscan-96"
            }, 
            "frame-id": "eve-PMC3029310-cmu-junsys-176", 
            "frame-type": "event-mention", 
            "object-meta": {
                "component": "Jun-System", 
                "object-type": "meta-info", 
                "organization": "CMU"
            }, 
            "object-type": "frame", 
            "sentence": "sent-PMC3029310-medscan-96", 
            "start-pos": {
                "context-start": "inhibition/1", 
                "object-type": "relative-pos", 
                "offset": 58, 
                "reference": "sent-PMC3029310-medscan-96"
            }, 
            "text": "inhibition", 
            "type": "inhibit"
        }, 
        {
            "frame-id": "ent-PMC3029310-cmu-junsys-178", 
            "frame-type": "entity", 
            "members": [
                "ment-PMC3029310-cmu-junsys-83", 
                "ment-PMC3029310-cmu-junsys-84"
            ], 
            "object-meta": {
                "component": "Jun-System", 
                "object-type": "meta-info", 
                "organization": "CMU"
            }, 
            "object-type": "frame"
        }, 
        {
            "frame-id": "ent-PMC3029310-cmu-junsys-179", 
            "frame-type": "entity", 
            "members": [
                "ment-PMC3029310-cmu-junsys-93", 
                "ment-PMC3029310-cmu-junsys-94"
            ], 
            "object-meta": {
                "component": "Jun-System", 
                "object-type": "meta-info", 
                "organization": "CMU"
            }, 
            "object-type": "frame"
        }, 
        {
            "frame-id": "ent-PMC3029310-cmu-junsys-180", 
            "frame-type": "entity", 
            "members": [
                "ment-PMC3029310-cmu-junsys-99", 
                "ment-PMC3029310-cmu-junsys-100"
            ], 
            "object-meta": {
                "component": "Jun-System", 
                "object-type": "meta-info", 
                "organization": "CMU"
            }, 
            "object-type": "frame"
        }, 
        {
            "frame-id": "ent-PMC3029310-cmu-junsys-181", 
            "frame-type": "entity", 
            "members": [
                "ment-PMC3029310-cmu-junsys-132", 
                "ment-PMC3029310-cmu-junsys-133"
            ], 
            "object-meta": {
                "component": "Jun-System", 
                "object-type": "meta-info", 
                "organization": "CMU"
            }, 
            "object-type": "frame"
        }
    ], 
    "object-meta": {
        "component": "Jun-System", 
        "component-type": "machine", 
        "doc-id": "PMC3029310", 
        "object-type": "meta-info", 
        "organization": "CMU"
    }, 
    "object-type": "frame-collection"
}
