{
  "frames":[
    {
      "frame-id":"evem-PMC1278483-UAZ-r1-4-9-1",
      "text":"PRL secretion was also blocked by nifedipine",
      "arguments":[
        {
          "text":"PRL",
          "argument-type":"entity",
          "object-type":"argument",
          "index":0,
          "argument-label":"controlled",
          "arg":"ment-PMC1278483-UAZ-r1-4-9-24"
        },
        {
          "text":"nifedipine",
          "argument-type":"entity",
          "object-type":"argument",
          "index":0,
          "argument-label":"controller",
          "arg":"ment-PMC1278483-UAZ-r1-4-9-25"
        }
      ],
      "type":"activation",
      "frame-type":"event-mention",
      "subtype":"negative-activation",
      "end-pos":{
        "reference":"pass-PMC1278483-UAZ-r1-4",
        "offset":1434,
        "object-type":"relative-pos"
      },
      "object-type":"frame",
      "start-pos":{
        "reference":"pass-PMC1278483-UAZ-r1-4",
        "offset":1390,
        "object-type":"relative-pos"
      },
      "sentence":"sent-PMC1278483-UAZ-r1-4-9",
      "found-by":"Negative_activation_syntax_2_verb",
      "object-meta":{
        "component":"REACH",
        "object-type":"meta-info"
      },
      "verbose-text":"PRL secretion was also blocked by nifedipine , demonstrating a correlation between Ca2+ influx and PRL secretion ."
    },
    {
      "frame-id":"evem-PMC1278483-UAZ-r1-47-2-2",
      "text":"Coumestrol triggered PRL",
      "arguments":[
        {
          "text":"PRL",
          "argument-type":"entity",
          "object-type":"argument",
          "index":0,
          "argument-label":"controlled",
          "arg":"ment-PMC1278483-UAZ-r1-47-2-186"
        },
        {
          "text":"Coumestrol",
          "argument-type":"entity",
          "object-type":"argument",
          "index":0,
          "argument-label":"controller",
          "arg":"ment-PMC1278483-UAZ-r1-47-2-185"
        }
      ],
      "type":"activation",
      "frame-type":"event-mention",
      "subtype":"positive-activation",
      "end-pos":{
        "reference":"pass-PMC1278483-UAZ-r1-47",
        "offset":401,
        "object-type":"relative-pos"
      },
      "object-type":"frame",
      "start-pos":{
        "reference":"pass-PMC1278483-UAZ-r1-47",
        "offset":377,
        "object-type":"relative-pos"
      },
      "sentence":"sent-PMC1278483-UAZ-r1-47-2",
      "found-by":"Positive_activation_syntax_1_verb",
      "object-meta":{
        "component":"REACH",
        "object-type":"meta-info"
      },
      "verbose-text":"The E2 and DES dose response curves were interrupted by a single lower and inactive nanomolar dose that sits between two active doses of 10-10 M and 10-8 M. Coumestrol triggered PRL release only at the highest concentration ( 10-8 M ) ."
    },
    {
      "frame-id":"evem-PMC1278483-UAZ-r1-49-0-3",
      "text":"PRL secretion is blocked by nifedipine",
      "arguments":[
        {
          "text":"PRL",
          "argument-type":"entity",
          "object-type":"argument",
          "index":0,
          "argument-label":"controlled",
          "arg":"ment-PMC1278483-UAZ-r1-49-0-192"
        },
        {
          "text":"nifedipine",
          "argument-type":"entity",
          "object-type":"argument",
          "index":0,
          "argument-label":"controller",
          "arg":"ment-PMC1278483-UAZ-r1-49-0-193"
        }
      ],
      "type":"activation",
      "frame-type":"event-mention",
      "subtype":"negative-activation",
      "end-pos":{
        "reference":"pass-PMC1278483-UAZ-r1-49",
        "offset":38,
        "object-type":"relative-pos"
      },
      "object-type":"frame",
      "start-pos":{
        "reference":"pass-PMC1278483-UAZ-r1-49",
        "offset":0,
        "object-type":"relative-pos"
      },
      "sentence":"sent-PMC1278483-UAZ-r1-49-0",
      "found-by":"Negative_activation_syntax_2_verb",
      "object-meta":{
        "component":"REACH",
        "object-type":"meta-info"
      },
      "verbose-text":"PRL secretion is blocked by nifedipine ."
    },
    {
      "frame-id":"evem-PMC1278483-UAZ-r1-50-2-4",
      "text":"E2- and XE-induced PRL",
      "arguments":[
        {
          "text":"PRL",
          "argument-type":"entity",
          "object-type":"argument",
          "index":0,
          "argument-label":"controlled",
          "arg":"ment-PMC1278483-UAZ-r1-50-2-203"
        },
        {
          "text":"E2-",
          "argument-type":"entity",
          "object-type":"argument",
          "index":0,
          "argument-label":"controller",
          "arg":"ment-PMC1278483-UAZ-r1-50-2-201"
        }
      ],
      "type":"activation",
      "frame-type":"event-mention",
      "subtype":"positive-activation",
      "end-pos":{
        "reference":"pass-PMC1278483-UAZ-r1-50",
        "offset":398,
        "object-type":"relative-pos"
      },
      "object-type":"frame",
      "start-pos":{
        "reference":"pass-PMC1278483-UAZ-r1-50",
        "offset":376,
        "object-type":"relative-pos"
      },
      "sentence":"sent-PMC1278483-UAZ-r1-50-2",
      "found-by":"Positive_activation_syntax_1_verb",
      "object-meta":{
        "component":"REACH",
        "object-type":"meta-info"
      },
      "verbose-text":"Nifedipine , which blocked the entry of Ca2+ from the extracellular solution , also abolished the E2- and XE induced PRL secretion at 3 min ."
    },
    {
      "frame-id":"evem-PMC1278483-UAZ-r1-50-2-5",
      "text":"XE-induced PRL",
      "arguments":[
        {
          "text":"PRL",
          "argument-type":"entity",
          "object-type":"argument",
          "index":0,
          "argument-label":"controlled",
          "arg":"ment-PMC1278483-UAZ-r1-50-2-203"
        },
        {
          "text":"XE",
          "argument-type":"entity",
          "object-type":"argument",
          "index":0,
          "argument-label":"controller",
          "arg":"ment-PMC1278483-UAZ-r1-50-2-202"
        }
      ],
      "type":"activation",
      "frame-type":"event-mention",
      "subtype":"positive-activation",
      "end-pos":{
        "reference":"pass-PMC1278483-UAZ-r1-50",
        "offset":398,
        "object-type":"relative-pos"
      },
      "object-type":"frame",
      "start-pos":{
        "reference":"pass-PMC1278483-UAZ-r1-50",
        "offset":384,
        "object-type":"relative-pos"
      },
      "sentence":"sent-PMC1278483-UAZ-r1-50-2",
      "found-by":"Positive_activation_syntax_1_verb",
      "object-meta":{
        "component":"REACH",
        "object-type":"meta-info"
      },
      "verbose-text":"Nifedipine , which blocked the entry of Ca2+ from the extracellular solution , also abolished the E2- and XE induced PRL secretion at 3 min ."
    },
    {
      "frame-id":"evem-PMC1278483-UAZ-r1-53-4-6",
      "text":"extracellular signal-regulated kinase (ERK) phosphorylation",
      "arguments":[
        {
          "text":"extracellular signal-regulated kinase",
          "argument-type":"entity",
          "object-type":"argument",
          "index":0,
          "argument-label":"theme",
          "arg":"ment-PMC1278483-UAZ-r1-53-4-208"
        }
      ],
      "type":"protein-modification",
      "frame-type":"event-mention",
      "subtype":"phosphorylation",
      "end-pos":{
        "reference":"pass-PMC1278483-UAZ-r1-53",
        "offset":870,
        "object-type":"relative-pos"
      },
      "object-type":"frame",
      "start-pos":{
        "reference":"pass-PMC1278483-UAZ-r1-53",
        "offset":811,
        "object-type":"relative-pos"
      },
      "sentence":"sent-PMC1278483-UAZ-r1-53-4",
      "found-by":"Phosphorylation_token_8_noun",
      "object-meta":{
        "component":"REACH",
        "object-type":"meta-info"
      },
      "verbose-text":"We previously demonstrated that these cells can respond rapidly to E2 by extracellular signal regulated kinase ( ERK ) phosphorylation                                                  and PRL release                                           ."
    },
    {
      "frame-id":"evem-PMC1278483-UAZ-r1-53-4-7",
      "text":"phosphorylation                                                  and PRL",
      "arguments":[
        {
          "text":"PRL",
          "argument-type":"entity",
          "object-type":"argument",
          "index":0,
          "argument-label":"theme",
          "arg":"ment-PMC1278483-UAZ-r1-53-4-210"
        }
      ],
      "type":"protein-modification",
      "frame-type":"event-mention",
      "subtype":"phosphorylation",
      "end-pos":{
        "reference":"pass-PMC1278483-UAZ-r1-53",
        "offset":927,
        "object-type":"relative-pos"
      },
      "object-type":"frame",
      "start-pos":{
        "reference":"pass-PMC1278483-UAZ-r1-53",
        "offset":855,
        "object-type":"relative-pos"
      },
      "sentence":"sent-PMC1278483-UAZ-r1-53-4",
      "found-by":"Phosphorylation_syntax_4_noun",
      "object-meta":{
        "component":"REACH",
        "object-type":"meta-info"
      },
      "verbose-text":"We previously demonstrated that these cells can respond rapidly to E2 by extracellular signal regulated kinase ( ERK ) phosphorylation                                                  and PRL release                                           ."
    },
    {
      "frame-id":"evem-PMC1278483-UAZ-r1-58-0-8",
      "text":"adenylyl cyclase production of cAMP",
      "arguments":[
        {
          "text":"cAMP",
          "argument-type":"entity",
          "object-type":"argument",
          "index":0,
          "argument-label":"controlled",
          "arg":"ment-PMC1278483-UAZ-r1-58-0-249"
        },
        {
          "text":"adenylyl cyclase",
          "argument-type":"entity",
          "object-type":"argument",
          "index":0,
          "argument-label":"controller",
          "arg":"ment-PMC1278483-UAZ-r1-58-0-248"
        }
      ],
      "type":"activation",
      "frame-type":"event-mention",
      "subtype":"positive-activation",
      "end-pos":{
        "reference":"pass-PMC1278483-UAZ-r1-58",
        "offset":226,
        "object-type":"relative-pos"
      },
      "object-type":"frame",
      "start-pos":{
        "reference":"pass-PMC1278483-UAZ-r1-58",
        "offset":191,
        "object-type":"relative-pos"
      },
      "sentence":"sent-PMC1278483-UAZ-r1-58-0",
      "found-by":"Positive_activation_syntax_3_noun",
      "object-meta":{
        "component":"REACH",
        "object-type":"meta-info"
      },
      "verbose-text":"Increased Ca2+ levels can trigger the release of PRL and other hormones from secretory vesicles , but it can also initiate signaling cascades leading to a variety of kinase activations ( e.g. , adenylyl cyclase production of cAMP leading to activation of protein kinase A , phospholipase C activation resulting in activation of protein kinase C , calmodulin activation of pathways leading to MAP kinase phosphorylation , etc. ) , resulting in changes in the phosphorylation status of a variety of cellular proteins leading to rapid functional consequences ."
    },
    {
      "frame-id":"evem-PMC1278483-UAZ-r1-58-0-9",
      "text":"MAP kinase phosphorylation",
      "arguments":[
        {
          "text":"MAP",
          "argument-type":"entity",
          "object-type":"argument",
          "index":0,
          "argument-label":"theme",
          "arg":"ment-PMC1278483-UAZ-r1-58-0-253"
        }
      ],
      "type":"protein-modification",
      "frame-type":"event-mention",
      "subtype":"phosphorylation",
      "end-pos":{
        "reference":"pass-PMC1278483-UAZ-r1-58",
        "offset":413,
        "object-type":"relative-pos"
      },
      "object-type":"frame",
      "start-pos":{
        "reference":"pass-PMC1278483-UAZ-r1-58",
        "offset":387,
        "object-type":"relative-pos"
      },
      "sentence":"sent-PMC1278483-UAZ-r1-58-0",
      "found-by":"Phosphorylation_syntax_4_noun",
      "object-meta":{
        "component":"REACH",
        "object-type":"meta-info"
      },
      "verbose-text":"Increased Ca2+ levels can trigger the release of PRL and other hormones from secretory vesicles , but it can also initiate signaling cascades leading to a variety of kinase activations ( e.g. , adenylyl cyclase production of cAMP leading to activation of protein kinase A , phospholipase C activation resulting in activation of protein kinase C , calmodulin activation of pathways leading to MAP kinase phosphorylation , etc. ) , resulting in changes in the phosphorylation status of a variety of cellular proteins leading to rapid functional consequences ."
    },
    {
      "frame-id":"evem-PMC1278483-UAZ-r1-193-0-10",
      "text":"XE-induced PRL",
      "arguments":[
        {
          "text":"PRL",
          "argument-type":"entity",
          "object-type":"argument",
          "index":0,
          "argument-label":"controlled",
          "arg":"ment-PMC1278483-UAZ-r1-193-0-346"
        },
        {
          "text":"XE",
          "argument-type":"entity",
          "object-type":"argument",
          "index":0,
          "argument-label":"controller",
          "arg":"ment-PMC1278483-UAZ-r1-193-0-345"
        }
      ],
      "type":"activation",
      "frame-type":"event-mention",
      "subtype":"positive-activation",
      "end-pos":{
        "reference":"pass-PMC1278483-UAZ-r1-193",
        "offset":47,
        "object-type":"relative-pos"
      },
      "object-type":"frame",
      "start-pos":{
        "reference":"pass-PMC1278483-UAZ-r1-193",
        "offset":33,
        "object-type":"relative-pos"
      },
      "sentence":"sent-PMC1278483-UAZ-r1-193-0",
      "found-by":"Positive_activation_syntax_1_verb",
      "object-meta":{
        "component":"REACH",
        "object-type":"meta-info"
      },
      "verbose-text":"Time dependence ( mean + /- SE ) of XE induced PRL release in GH3/B6/F10 cells ."
    },
    {
      "frame-id":"evem-PMC1278483-UAZ-r1-197-0-11",
      "text":"XE-induced PRL",
      "arguments":[
        {
          "text":"PRL",
          "argument-type":"entity",
          "object-type":"argument",
          "index":0,
          "argument-label":"controlled",
          "arg":"ment-PMC1278483-UAZ-r1-197-0-370"
        },
        {
          "text":"XE",
          "argument-type":"entity",
          "object-type":"argument",
          "index":0,
          "argument-label":"controller",
          "arg":"ment-PMC1278483-UAZ-r1-197-0-369"
        }
      ],
      "type":"activation",
      "frame-type":"event-mention",
      "subtype":"negative-activation",
      "end-pos":{
        "reference":"pass-PMC1278483-UAZ-r1-197",
        "offset":28,
        "object-type":"relative-pos"
      },
      "object-type":"frame",
      "start-pos":{
        "reference":"pass-PMC1278483-UAZ-r1-197",
        "offset":14,
        "object-type":"relative-pos"
      },
      "sentence":"sent-PMC1278483-UAZ-r1-197-0",
      "found-by":"Positive_activation_syntax_1_verb",
      "object-meta":{
        "component":"REACH",
        "object-type":"meta-info"
      },
      "verbose-text":"Inhibition of XE induced PRL secretion ( mean + /- SE ) by nifedipine ( Nifed ) in GH3/B6/F10 cells treated with E2 or XE at 10-8 M with or without 10 muM Nifed ."
    },
    {
      "frame-id":"evem-PMC1278483-UAZ-r1-197-0-12",
      "text":"XE-induced PRL secretion (mean +/- SE",
      "arguments":[
        {
          "text":"SE",
          "argument-type":"entity",
          "object-type":"argument",
          "index":0,
          "argument-label":"controlled",
          "arg":"ment-PMC1278483-UAZ-r1-197-0-371"
        },
        {
          "text":"XE",
          "argument-type":"entity",
          "object-type":"argument",
          "index":0,
          "argument-label":"controller",
          "arg":"ment-PMC1278483-UAZ-r1-197-0-369"
        }
      ],
      "type":"activation",
      "frame-type":"event-mention",
      "subtype":"negative-activation",
      "end-pos":{
        "reference":"pass-PMC1278483-UAZ-r1-197",
        "offset":51,
        "object-type":"relative-pos"
      },
      "object-type":"frame",
      "start-pos":{
        "reference":"pass-PMC1278483-UAZ-r1-197",
        "offset":14,
        "object-type":"relative-pos"
      },
      "sentence":"sent-PMC1278483-UAZ-r1-197-0",
      "found-by":"Positive_activation_syntax_1_verb",
      "object-meta":{
        "component":"REACH",
        "object-type":"meta-info"
      },
      "verbose-text":"Inhibition of XE induced PRL secretion ( mean + /- SE ) by nifedipine ( Nifed ) in GH3/B6/F10 cells treated with E2 or XE at 10-8 M with or without 10 muM Nifed ."
    }
  ],
  "object-type":"frame-collection",
  "object-meta":{
    "processing-end":"2015-06-14T21:51:32Z",
    "doc-id":"PMC1278483",
    "component-type":"machine",
    "component":"REACH",
    "processing-start":"2015-06-14T21:48:47Z",
    "object-type":"meta-info",
    "organization":"UAZ"
  }
}
