{
    "frames": [
        {
            "frame-id": "smap-PMC1278483-cmu-1", 
            "frame-type": "sentence-map", 
            "list1-meta": {
                "component": "nxml2fries", 
                "object-type": "meta-info", 
                "organization": "UAZ"
            }, 
            "list2-meta": {
                "component": "Nicolas-NXML-Parser", 
                "object-type": "meta-info", 
                "organization": "CMU"
            }, 
            "map": [
                {
                    "from": "sent-PMC1278483-UAZ-r1-32-15", 
                    "object-type": "map-range", 
                    "to": "sent-PMC1278483-cmu-109"
                }, 
                {
                    "from": "sent-PMC1278483-UAZ-r1-53-6", 
                    "object-type": "map-range", 
                    "to": "sent-PMC1278483-cmu-158"
                }, 
                {
                    "from": "sent-PMC1278483-UAZ-r1-50-2", 
                    "object-type": "map-range", 
                    "to": "sent-PMC1278483-cmu-145"
                }, 
                {
                    "from": "sent-PMC1278483-UAZ-r1-53-2", 
                    "object-type": "map-range", 
                    "to": "sent-PMC1278483-cmu-149"
                }, 
                {
                    "from": "sent-PMC1278483-UAZ-r1-24-6", 
                    "object-type": "map-range", 
                    "to": "sent-PMC1278483-cmu-86"
                }, 
                {
                    "from": "sent-PMC1278483-UAZ-r1-41-2", 
                    "object-type": "map-range", 
                    "to": "sent-PMC1278483-cmu-128"
                }, 
                {
                    "from": "sent-PMC1278483-UAZ-r1-59-5", 
                    "object-type": "map-range", 
                    "to": "sent-PMC1278483-cmu-217"
                }, 
                {
                    "from": "sent-PMC1278483-UAZ-r1-18-7", 
                    "object-type": "map-range", 
                    "to": "sent-PMC1278483-cmu-61"
                }, 
                {
                    "from": "sent-PMC1278483-UAZ-r1-47-0", 
                    "object-type": "map-range", 
                    "to": "sent-PMC1278483-cmu-137"
                }, 
                {
                    "from": "sent-PMC1278483-UAZ-r1-38-2", 
                    "object-type": "map-range", 
                    "to": "sent-PMC1278483-cmu-118"
                }, 
                {
                    "from": "sent-PMC1278483-UAZ-r1-60-1", 
                    "object-type": "map-range", 
                    "to": "sent-PMC1278483-cmu-219"
                }, 
                {
                    "from": "sent-PMC1278483-UAZ-r1-32-4", 
                    "object-type": "map-range", 
                    "to": "sent-PMC1278483-cmu-97"
                }, 
                {
                    "from": "sent-PMC1278483-UAZ-r1-24-2", 
                    "object-type": "map-range", 
                    "to": "sent-PMC1278483-cmu-82"
                }, 
                {
                    "from": "sent-PMC1278483-UAZ-r1-18-2", 
                    "object-type": "map-range", 
                    "to": "sent-PMC1278483-cmu-55"
                }, 
                {
                    "from": "sent-PMC1278483-UAZ-r1-49-0", 
                    "object-type": "map-range", 
                    "to": "sent-PMC1278483-cmu-142"
                }, 
                {
                    "from": "sent-PMC1278483-UAZ-r1-21-2", 
                    "object-type": "map-range", 
                    "to": "sent-PMC1278483-cmu-71"
                }, 
                {
                    "from": "sent-PMC1278483-UAZ-r1-53-7", 
                    "object-type": "map-range", 
                    "to": "sent-PMC1278483-cmu-159"
                }, 
                {
                    "from": "sent-PMC1278483-UAZ-r1-54-1", 
                    "object-type": "map-range", 
                    "to": "sent-PMC1278483-cmu-161"
                }, 
                {
                    "from": "sent-PMC1278483-UAZ-r1-24-3", 
                    "object-type": "map-range", 
                    "to": "sent-PMC1278483-cmu-83"
                }, 
                {
                    "from": "sent-PMC1278483-UAZ-r1-58-2", 
                    "object-type": "map-range", 
                    "to": "sent-PMC1278483-cmu-200"
                }, 
                {
                    "from": "sent-PMC1278483-UAZ-r1-54-2", 
                    "object-type": "map-range", 
                    "to": "sent-PMC1278483-cmu-163"
                }, 
                {
                    "from": "sent-PMC1278483-UAZ-r1-15-0", 
                    "object-type": "map-range", 
                    "to": "sent-PMC1278483-cmu-46"
                }, 
                {
                    "from": "sent-PMC1278483-UAZ-r1-58-0", 
                    "object-type": "map-range", 
                    "to": "sent-PMC1278483-cmu-197"
                }, 
                {
                    "from": "sent-PMC1278483-UAZ-r1-55-2", 
                    "object-type": "map-range", 
                    "to": "sent-PMC1278483-cmu-170"
                }, 
                {
                    "from": "sent-PMC1278483-UAZ-r1-53-3", 
                    "object-type": "map-range", 
                    "to": "sent-PMC1278483-cmu-151"
                }, 
                {
                    "from": "sent-PMC1278483-UAZ-r1-21-8", 
                    "object-type": "map-range", 
                    "to": "sent-PMC1278483-cmu-77"
                }, 
                {
                    "from": "sent-PMC1278483-UAZ-r1-41-1", 
                    "object-type": "map-range", 
                    "to": "sent-PMC1278483-cmu-127"
                }, 
                {
                    "from": "sent-PMC1278483-UAZ-r1-21-6", 
                    "object-type": "map-range", 
                    "to": "sent-PMC1278483-cmu-75"
                }, 
                {
                    "from": "sent-PMC1278483-UAZ-r1-18-6", 
                    "object-type": "map-range", 
                    "to": "sent-PMC1278483-cmu-60"
                }, 
                {
                    "from": "sent-PMC1278483-UAZ-r1-53-1", 
                    "object-type": "map-range", 
                    "to": "sent-PMC1278483-cmu-148"
                }, 
                {
                    "from": "sent-PMC1278483-UAZ-r1-60-3", 
                    "object-type": "map-range", 
                    "to": "sent-PMC1278483-cmu-221"
                }, 
                {
                    "from": "sent-PMC1278483-UAZ-r1-54-0", 
                    "object-type": "map-range", 
                    "to": "sent-PMC1278483-cmu-160"
                }, 
                {
                    "from": "sent-PMC1278483-UAZ-r1-47-3", 
                    "object-type": "map-range", 
                    "to": "sent-PMC1278483-cmu-140"
                }, 
                {
                    "from": "sent-PMC1278483-UAZ-r1-56-0", 
                    "object-type": "map-range", 
                    "to": "sent-PMC1278483-cmu-171"
                }, 
                {
                    "from": "sent-PMC1278483-UAZ-r1-15-4", 
                    "object-type": "map-range", 
                    "to": "sent-PMC1278483-cmu-51"
                }, 
                {
                    "from": "sent-PMC1278483-UAZ-r1-43-0", 
                    "object-type": "map-range", 
                    "to": "sent-PMC1278483-cmu-133"
                }, 
                {
                    "from": "sent-PMC1278483-UAZ-r1-21-1", 
                    "object-type": "map-range", 
                    "to": "sent-PMC1278483-cmu-70"
                }, 
                {
                    "from": "sent-PMC1278483-UAZ-r1-59-2", 
                    "object-type": "map-range", 
                    "to": "sent-PMC1278483-cmu-211"
                }, 
                {
                    "from": "sent-PMC1278483-UAZ-r1-18-9", 
                    "object-type": "map-range", 
                    "to": "sent-PMC1278483-cmu-63"
                }, 
                {
                    "from": "sent-PMC1278483-UAZ-r1-38-5", 
                    "object-type": "map-range", 
                    "to": "sent-PMC1278483-cmu-121"
                }, 
                {
                    "from": "sent-PMC1278483-UAZ-r1-179-0", 
                    "object-type": "map-range", 
                    "to": "sent-PMC1278483-cmu-115"
                }, 
                {
                    "from": "sent-PMC1278483-UAZ-r1-18-4", 
                    "object-type": "map-range", 
                    "to": "sent-PMC1278483-cmu-57"
                }, 
                {
                    "from": "sent-PMC1278483-UAZ-r1-57-0", 
                    "object-type": "map-range", 
                    "to": "sent-PMC1278483-cmu-189"
                }, 
                {
                    "from": "sent-PMC1278483-UAZ-r1-18-13", 
                    "object-type": "map-range", 
                    "to": "sent-PMC1278483-cmu-67"
                }, 
                {
                    "from": "sent-PMC1278483-UAZ-r1-24-5", 
                    "object-type": "map-range", 
                    "to": "sent-PMC1278483-cmu-85"
                }, 
                {
                    "from": "sent-PMC1278483-UAZ-r1-59-1", 
                    "object-type": "map-range", 
                    "to": "sent-PMC1278483-cmu-208"
                }, 
                {
                    "from": "sent-PMC1278483-UAZ-r1-53-0", 
                    "object-type": "map-range", 
                    "to": "sent-PMC1278483-cmu-147"
                }, 
                {
                    "from": "sent-PMC1278483-UAZ-r1-38-3", 
                    "object-type": "map-range", 
                    "to": "sent-PMC1278483-cmu-119"
                }, 
                {
                    "from": "sent-PMC1278483-UAZ-r1-58-4", 
                    "object-type": "map-range", 
                    "to": "sent-PMC1278483-cmu-204"
                }, 
                {
                    "from": "sent-PMC1278483-UAZ-r1-53-5", 
                    "object-type": "map-range", 
                    "to": "sent-PMC1278483-cmu-156"
                }, 
                {
                    "from": "sent-PMC1278483-UAZ-r1-24-4", 
                    "object-type": "map-range", 
                    "to": "sent-PMC1278483-cmu-84"
                }, 
                {
                    "from": "sent-PMC1278483-UAZ-r1-32-7", 
                    "object-type": "map-range", 
                    "to": "sent-PMC1278483-cmu-100"
                }, 
                {
                    "from": "sent-PMC1278483-UAZ-r1-32-2", 
                    "object-type": "map-range", 
                    "to": "sent-PMC1278483-cmu-94"
                }, 
                {
                    "from": "sent-PMC1278483-UAZ-r1-35-1", 
                    "object-type": "map-range", 
                    "to": "sent-PMC1278483-cmu-113"
                }, 
                {
                    "from": "sent-PMC1278483-UAZ-r1-54-3", 
                    "object-type": "map-range", 
                    "to": "sent-PMC1278483-cmu-164"
                }, 
                {
                    "from": "sent-PMC1278483-UAZ-r1-32-6", 
                    "object-type": "map-range", 
                    "to": "sent-PMC1278483-cmu-99"
                }, 
                {
                    "from": "sent-PMC1278483-UAZ-r1-38-0", 
                    "object-type": "map-range", 
                    "to": "sent-PMC1278483-cmu-116"
                }, 
                {
                    "from": "sent-PMC1278483-UAZ-r1-23-0", 
                    "object-type": "map-range", 
                    "to": "sent-PMC1278483-cmu-79"
                }, 
                {
                    "from": "sent-PMC1278483-UAZ-r1-32-0", 
                    "object-type": "map-range", 
                    "to": "sent-PMC1278483-cmu-91"
                }, 
                {
                    "from": "sent-PMC1278483-UAZ-r1-55-0", 
                    "object-type": "map-range", 
                    "to": "sent-PMC1278483-cmu-166"
                }, 
                {
                    "from": "sent-PMC1278483-UAZ-r1-41-3", 
                    "object-type": "map-range", 
                    "to": "sent-PMC1278483-cmu-129"
                }, 
                {
                    "from": "sent-PMC1278483-UAZ-r1-32-16", 
                    "object-type": "map-range", 
                    "to": "sent-PMC1278483-cmu-110"
                }, 
                {
                    "from": "sent-PMC1278483-UAZ-r1-56-4", 
                    "object-type": "map-range", 
                    "to": "sent-PMC1278483-cmu-188"
                }, 
                {
                    "from": "sent-PMC1278483-UAZ-r1-18-8", 
                    "object-type": "map-range", 
                    "to": "sent-PMC1278483-cmu-62"
                }, 
                {
                    "from": "sent-PMC1278483-UAZ-r1-41-6", 
                    "object-type": "map-range", 
                    "to": "sent-PMC1278483-cmu-132"
                }, 
                {
                    "from": "sent-PMC1278483-UAZ-r1-18-11", 
                    "object-type": "map-range", 
                    "to": "sent-PMC1278483-cmu-65"
                }, 
                {
                    "from": "sent-PMC1278483-UAZ-r1-58-1", 
                    "object-type": "map-range", 
                    "to": "sent-PMC1278483-cmu-199"
                }, 
                {
                    "from": "sent-PMC1278483-UAZ-r1-43-0", 
                    "object-type": "map-range", 
                    "to": "sent-PMC1278483-cmu-136"
                }, 
                {
                    "from": "sent-PMC1278483-UAZ-r1-41-4", 
                    "object-type": "map-range", 
                    "to": "sent-PMC1278483-cmu-130"
                }, 
                {
                    "from": "sent-PMC1278483-UAZ-r1-15-3", 
                    "object-type": "map-range", 
                    "to": "sent-PMC1278483-cmu-50"
                }, 
                {
                    "from": "sent-PMC1278483-UAZ-r1-60-2", 
                    "object-type": "map-range", 
                    "to": "sent-PMC1278483-cmu-220"
                }, 
                {
                    "from": "sent-PMC1278483-UAZ-r1-34-0", 
                    "object-type": "map-range", 
                    "to": "sent-PMC1278483-cmu-111"
                }, 
                {
                    "from": "sent-PMC1278483-UAZ-r1-32-11", 
                    "object-type": "map-range", 
                    "to": "sent-PMC1278483-cmu-104"
                }, 
                {
                    "from": "sent-PMC1278483-UAZ-r1-38-4", 
                    "object-type": "map-range", 
                    "to": "sent-PMC1278483-cmu-120"
                }, 
                {
                    "from": "sent-PMC1278483-UAZ-r1-54-4", 
                    "object-type": "map-range", 
                    "to": "sent-PMC1278483-cmu-165"
                }, 
                {
                    "from": "sent-PMC1278483-UAZ-r1-50-1", 
                    "object-type": "map-range", 
                    "to": "sent-PMC1278483-cmu-144"
                }, 
                {
                    "from": "sent-PMC1278483-UAZ-r1-41-0", 
                    "object-type": "map-range", 
                    "to": "sent-PMC1278483-cmu-125"
                }, 
                {
                    "from": "sent-PMC1278483-UAZ-r1-32-9", 
                    "object-type": "map-range", 
                    "to": "sent-PMC1278483-cmu-102"
                }, 
                {
                    "from": "sent-PMC1278483-UAZ-r1-21-3", 
                    "object-type": "map-range", 
                    "to": "sent-PMC1278483-cmu-72"
                }, 
                {
                    "from": "sent-PMC1278483-UAZ-r1-32-14", 
                    "object-type": "map-range", 
                    "to": "sent-PMC1278483-cmu-108"
                }, 
                {
                    "from": "sent-PMC1278483-UAZ-r1-21-4", 
                    "object-type": "map-range", 
                    "to": "sent-PMC1278483-cmu-73"
                }, 
                {
                    "from": "sent-PMC1278483-UAZ-r1-18-10", 
                    "object-type": "map-range", 
                    "to": "sent-PMC1278483-cmu-64"
                }, 
                {
                    "from": "sent-PMC1278483-UAZ-r1-20-0", 
                    "object-type": "map-range", 
                    "to": "sent-PMC1278483-cmu-68"
                }, 
                {
                    "from": "sent-PMC1278483-UAZ-r1-24-1", 
                    "object-type": "map-range", 
                    "to": "sent-PMC1278483-cmu-81"
                }, 
                {
                    "from": "sent-PMC1278483-UAZ-r1-57-3", 
                    "object-type": "map-range", 
                    "to": "sent-PMC1278483-cmu-195"
                }, 
                {
                    "from": "sent-PMC1278483-UAZ-r1-44-1", 
                    "object-type": "map-range", 
                    "to": "sent-PMC1278483-cmu-135"
                }, 
                {
                    "from": "sent-PMC1278483-UAZ-r1-59-0", 
                    "object-type": "map-range", 
                    "to": "sent-PMC1278483-cmu-205"
                }, 
                {
                    "from": "sent-PMC1278483-UAZ-r1-47-4", 
                    "object-type": "map-range", 
                    "to": "sent-PMC1278483-cmu-141"
                }, 
                {
                    "from": "sent-PMC1278483-UAZ-r1-18-3", 
                    "object-type": "map-range", 
                    "to": "sent-PMC1278483-cmu-56"
                }, 
                {
                    "from": "sent-PMC1278483-UAZ-r1-21-7", 
                    "object-type": "map-range", 
                    "to": "sent-PMC1278483-cmu-76"
                }, 
                {
                    "from": "sent-PMC1278483-UAZ-r1-56-3", 
                    "object-type": "map-range", 
                    "to": "sent-PMC1278483-cmu-185"
                }, 
                {
                    "from": "sent-PMC1278483-UAZ-r1-15-2", 
                    "object-type": "map-range", 
                    "to": "sent-PMC1278483-cmu-49"
                }, 
                {
                    "from": "sent-PMC1278483-UAZ-r1-35-0", 
                    "object-type": "map-range", 
                    "to": "sent-PMC1278483-cmu-112"
                }, 
                {
                    "from": "sent-PMC1278483-UAZ-r1-32-8", 
                    "object-type": "map-range", 
                    "to": "sent-PMC1278483-cmu-101"
                }, 
                {
                    "from": "sent-PMC1278483-UAZ-r1-60-6", 
                    "object-type": "map-range", 
                    "to": "sent-PMC1278483-cmu-224"
                }, 
                {
                    "from": "sent-PMC1278483-UAZ-r1-38-6", 
                    "object-type": "map-range", 
                    "to": "sent-PMC1278483-cmu-122"
                }, 
                {
                    "from": "sent-PMC1278483-UAZ-r1-27-0", 
                    "object-type": "map-range", 
                    "to": "sent-PMC1278483-cmu-88"
                }, 
                {
                    "from": "sent-PMC1278483-UAZ-r1-32-3", 
                    "object-type": "map-range", 
                    "to": "sent-PMC1278483-cmu-96"
                }, 
                {
                    "from": "sent-PMC1278483-UAZ-r1-60-4", 
                    "object-type": "map-range", 
                    "to": "sent-PMC1278483-cmu-222"
                }, 
                {
                    "from": "sent-PMC1278483-UAZ-r1-41-5", 
                    "object-type": "map-range", 
                    "to": "sent-PMC1278483-cmu-131"
                }, 
                {
                    "from": "sent-PMC1278483-UAZ-r1-14-0", 
                    "object-type": "map-range", 
                    "to": "sent-PMC1278483-cmu-45"
                }, 
                {
                    "from": "sent-PMC1278483-UAZ-r1-60-5", 
                    "object-type": "map-range", 
                    "to": "sent-PMC1278483-cmu-223"
                }, 
                {
                    "from": "sent-PMC1278483-UAZ-r1-50-0", 
                    "object-type": "map-range", 
                    "to": "sent-PMC1278483-cmu-143"
                }, 
                {
                    "from": "sent-PMC1278483-UAZ-r1-56-1", 
                    "object-type": "map-range", 
                    "to": "sent-PMC1278483-cmu-172"
                }, 
                {
                    "from": "sent-PMC1278483-UAZ-r1-15-1", 
                    "object-type": "map-range", 
                    "to": "sent-PMC1278483-cmu-48"
                }, 
                {
                    "from": "sent-PMC1278483-UAZ-r1-32-13", 
                    "object-type": "map-range", 
                    "to": "sent-PMC1278483-cmu-106"
                }, 
                {
                    "from": "sent-PMC1278483-UAZ-r1-59-4", 
                    "object-type": "map-range", 
                    "to": "sent-PMC1278483-cmu-215"
                }, 
                {
                    "from": "sent-PMC1278483-UAZ-r1-21-1", 
                    "object-type": "map-range", 
                    "to": "sent-PMC1278483-cmu-54"
                }, 
                {
                    "from": "sent-PMC1278483-UAZ-r1-35-2", 
                    "object-type": "map-range", 
                    "to": "sent-PMC1278483-cmu-114"
                }, 
                {
                    "from": "sent-PMC1278483-UAZ-r1-60-0", 
                    "object-type": "map-range", 
                    "to": "sent-PMC1278483-cmu-218"
                }, 
                {
                    "from": "sent-PMC1278483-UAZ-r1-32-10", 
                    "object-type": "map-range", 
                    "to": "sent-PMC1278483-cmu-103"
                }, 
                {
                    "from": "sent-PMC1278483-UAZ-r1-18-12", 
                    "object-type": "map-range", 
                    "to": "sent-PMC1278483-cmu-66"
                }, 
                {
                    "from": "sent-PMC1278483-UAZ-r1-57-2", 
                    "object-type": "map-range", 
                    "to": "sent-PMC1278483-cmu-193"
                }, 
                {
                    "from": "sent-PMC1278483-UAZ-r1-32-12", 
                    "object-type": "map-range", 
                    "to": "sent-PMC1278483-cmu-105"
                }, 
                {
                    "from": "sent-PMC1278483-UAZ-r1-38-7", 
                    "object-type": "map-range", 
                    "to": "sent-PMC1278483-cmu-123"
                }, 
                {
                    "from": "sent-PMC1278483-UAZ-r1-32-1", 
                    "object-type": "map-range", 
                    "to": "sent-PMC1278483-cmu-93"
                }, 
                {
                    "from": "sent-PMC1278483-UAZ-r1-56-2", 
                    "object-type": "map-range", 
                    "to": "sent-PMC1278483-cmu-178"
                }, 
                {
                    "from": "sent-PMC1278483-UAZ-r1-21-9", 
                    "object-type": "map-range", 
                    "to": "sent-PMC1278483-cmu-78"
                }, 
                {
                    "from": "sent-PMC1278483-UAZ-r1-38-1", 
                    "object-type": "map-range", 
                    "to": "sent-PMC1278483-cmu-117"
                }, 
                {
                    "from": "sent-PMC1278483-UAZ-r1-18-5", 
                    "object-type": "map-range", 
                    "to": "sent-PMC1278483-cmu-59"
                }, 
                {
                    "from": "sent-PMC1278483-UAZ-r1-32-5", 
                    "object-type": "map-range", 
                    "to": "sent-PMC1278483-cmu-98"
                }, 
                {
                    "from": "sent-PMC1278483-UAZ-r1-53-4", 
                    "object-type": "map-range", 
                    "to": "sent-PMC1278483-cmu-152"
                }, 
                {
                    "from": "sent-PMC1278483-UAZ-r1-24-0", 
                    "object-type": "map-range", 
                    "to": "sent-PMC1278483-cmu-80"
                }, 
                {
                    "from": "sent-PMC1278483-UAZ-r1-21-5", 
                    "object-type": "map-range", 
                    "to": "sent-PMC1278483-cmu-74"
                }
            ], 
            "object-meta": {
                "component": "Pradeep-Matcher", 
                "object-type": "meta-info", 
                "organization": "CMU"
            }, 
            "object-type": "frame"
        }, 
        {
            "frame-id": "smap-PMC1278483-cmu-2", 
            "frame-type": "sentence-map", 
            "list1-meta": {
                "component": "MedScan", 
                "object-type": "meta-info", 
                "organization": "CMU"
            }, 
            "list2-meta": {
                "component": "Nicolas-NXML-Parser", 
                "object-type": "meta-info", 
                "organization": "CMU"
            }, 
            "map": [
                {
                    "from": "sent-PMC1278483-medscan-76", 
                    "object-type": "map-range", 
                    "to": "sent-PMC1278483-cmu-109"
                }, 
                {
                    "from": "sent-PMC1278483-medscan-114", 
                    "object-type": "map-range", 
                    "to": "sent-PMC1278483-cmu-158"
                }, 
                {
                    "from": "sent-PMC1278483-medscan-18", 
                    "object-type": "map-range", 
                    "to": "sent-PMC1278483-cmu-37"
                }, 
                {
                    "from": "sent-PMC1278483-medscan-107", 
                    "object-type": "map-range", 
                    "to": "sent-PMC1278483-cmu-145"
                }, 
                {
                    "from": "sent-PMC1278483-medscan-110", 
                    "object-type": "map-range", 
                    "to": "sent-PMC1278483-cmu-149"
                }, 
                {
                    "from": "sent-PMC1278483-medscan-59", 
                    "object-type": "map-range", 
                    "to": "sent-PMC1278483-cmu-86"
                }, 
                {
                    "from": "sent-PMC1278483-medscan-91", 
                    "object-type": "map-range", 
                    "to": "sent-PMC1278483-cmu-128"
                }, 
                {
                    "from": "sent-PMC1278483-medscan-141", 
                    "object-type": "map-range", 
                    "to": "sent-PMC1278483-cmu-212"
                }, 
                {
                    "from": "sent-PMC1278483-medscan-143", 
                    "object-type": "map-range", 
                    "to": "sent-PMC1278483-cmu-217"
                }, 
                {
                    "from": "sent-PMC1278483-medscan-4", 
                    "object-type": "map-range", 
                    "to": "sent-PMC1278483-cmu-11"
                }, 
                {
                    "from": "sent-PMC1278483-medscan-36", 
                    "object-type": "map-range", 
                    "to": "sent-PMC1278483-cmu-61"
                }, 
                {
                    "from": "sent-PMC1278483-medscan-83", 
                    "object-type": "map-range", 
                    "to": "sent-PMC1278483-cmu-118"
                }, 
                {
                    "from": "sent-PMC1278483-medscan-145", 
                    "object-type": "map-range", 
                    "to": "sent-PMC1278483-cmu-219"
                }, 
                {
                    "from": "sent-PMC1278483-medscan-65", 
                    "object-type": "map-range", 
                    "to": "sent-PMC1278483-cmu-97"
                }, 
                {
                    "from": "sent-PMC1278483-medscan-22", 
                    "object-type": "map-range", 
                    "to": "sent-PMC1278483-cmu-43"
                }, 
                {
                    "from": "sent-PMC1278483-medscan-55", 
                    "object-type": "map-range", 
                    "to": "sent-PMC1278483-cmu-82"
                }, 
                {
                    "from": "sent-PMC1278483-medscan-3", 
                    "object-type": "map-range", 
                    "to": "sent-PMC1278483-cmu-10"
                }, 
                {
                    "from": "sent-PMC1278483-medscan-31", 
                    "object-type": "map-range", 
                    "to": "sent-PMC1278483-cmu-55"
                }, 
                {
                    "from": "sent-PMC1278483-medscan-1", 
                    "object-type": "map-range", 
                    "to": "sent-PMC1278483-cmu-8"
                }, 
                {
                    "from": "sent-PMC1278483-medscan-45", 
                    "object-type": "map-range", 
                    "to": "sent-PMC1278483-cmu-71"
                }, 
                {
                    "from": "sent-PMC1278483-medscan-115", 
                    "object-type": "map-range", 
                    "to": "sent-PMC1278483-cmu-159"
                }, 
                {
                    "from": "sent-PMC1278483-medscan-117", 
                    "object-type": "map-range", 
                    "to": "sent-PMC1278483-cmu-161"
                }, 
                {
                    "from": "sent-PMC1278483-medscan-56", 
                    "object-type": "map-range", 
                    "to": "sent-PMC1278483-cmu-83"
                }, 
                {
                    "from": "sent-PMC1278483-medscan-135", 
                    "object-type": "map-range", 
                    "to": "sent-PMC1278483-cmu-200"
                }, 
                {
                    "from": "sent-PMC1278483-medscan-6", 
                    "object-type": "map-range", 
                    "to": "sent-PMC1278483-cmu-17"
                }, 
                {
                    "from": "sent-PMC1278483-medscan-118", 
                    "object-type": "map-range", 
                    "to": "sent-PMC1278483-cmu-163"
                }, 
                {
                    "from": "sent-PMC1278483-medscan-24", 
                    "object-type": "map-range", 
                    "to": "sent-PMC1278483-cmu-46"
                }, 
                {
                    "from": "sent-PMC1278483-medscan-133", 
                    "object-type": "map-range", 
                    "to": "sent-PMC1278483-cmu-197"
                }, 
                {
                    "from": "sent-PMC1278483-medscan-123", 
                    "object-type": "map-range", 
                    "to": "sent-PMC1278483-cmu-170"
                }, 
                {
                    "from": "sent-PMC1278483-medscan-111", 
                    "object-type": "map-range", 
                    "to": "sent-PMC1278483-cmu-151"
                }, 
                {
                    "from": "sent-PMC1278483-medscan-51", 
                    "object-type": "map-range", 
                    "to": "sent-PMC1278483-cmu-77"
                }, 
                {
                    "from": "sent-PMC1278483-medscan-90", 
                    "object-type": "map-range", 
                    "to": "sent-PMC1278483-cmu-127"
                }, 
                {
                    "from": "sent-PMC1278483-medscan-49", 
                    "object-type": "map-range", 
                    "to": "sent-PMC1278483-cmu-75"
                }, 
                {
                    "from": "sent-PMC1278483-medscan-35", 
                    "object-type": "map-range", 
                    "to": "sent-PMC1278483-cmu-60"
                }, 
                {
                    "from": "sent-PMC1278483-medscan-109", 
                    "object-type": "map-range", 
                    "to": "sent-PMC1278483-cmu-148"
                }, 
                {
                    "from": "sent-PMC1278483-medscan-147", 
                    "object-type": "map-range", 
                    "to": "sent-PMC1278483-cmu-221"
                }, 
                {
                    "from": "sent-PMC1278483-medscan-116", 
                    "object-type": "map-range", 
                    "to": "sent-PMC1278483-cmu-160"
                }, 
                {
                    "from": "sent-PMC1278483-medscan-124", 
                    "object-type": "map-range", 
                    "to": "sent-PMC1278483-cmu-171"
                }, 
                {
                    "from": "sent-PMC1278483-medscan-28", 
                    "object-type": "map-range", 
                    "to": "sent-PMC1278483-cmu-51"
                }, 
                {
                    "from": "sent-PMC1278483-medscan-12", 
                    "object-type": "map-range", 
                    "to": "sent-PMC1278483-cmu-26"
                }, 
                {
                    "from": "sent-PMC1278483-medscan-44", 
                    "object-type": "map-range", 
                    "to": "sent-PMC1278483-cmu-70"
                }, 
                {
                    "from": "sent-PMC1278483-medscan-44", 
                    "object-type": "map-range", 
                    "to": "sent-PMC1278483-cmu-70"
                }, 
                {
                    "from": "sent-PMC1278483-medscan-140", 
                    "object-type": "map-range", 
                    "to": "sent-PMC1278483-cmu-211"
                }, 
                {
                    "from": "sent-PMC1278483-medscan-38", 
                    "object-type": "map-range", 
                    "to": "sent-PMC1278483-cmu-63"
                }, 
                {
                    "from": "sent-PMC1278483-medscan-86", 
                    "object-type": "map-range", 
                    "to": "sent-PMC1278483-cmu-121"
                }, 
                {
                    "from": "sent-PMC1278483-medscan-33", 
                    "object-type": "map-range", 
                    "to": "sent-PMC1278483-cmu-57"
                }, 
                {
                    "from": "sent-PMC1278483-medscan-42", 
                    "object-type": "map-range", 
                    "to": "sent-PMC1278483-cmu-67"
                }, 
                {
                    "from": "sent-PMC1278483-medscan-58", 
                    "object-type": "map-range", 
                    "to": "sent-PMC1278483-cmu-85"
                }, 
                {
                    "from": "sent-PMC1278483-medscan-139", 
                    "object-type": "map-range", 
                    "to": "sent-PMC1278483-cmu-208"
                }, 
                {
                    "from": "sent-PMC1278483-medscan-108", 
                    "object-type": "map-range", 
                    "to": "sent-PMC1278483-cmu-147"
                }, 
                {
                    "from": "sent-PMC1278483-medscan-84", 
                    "object-type": "map-range", 
                    "to": "sent-PMC1278483-cmu-119"
                }, 
                {
                    "from": "sent-PMC1278483-medscan-137", 
                    "object-type": "map-range", 
                    "to": "sent-PMC1278483-cmu-204"
                }, 
                {
                    "from": "sent-PMC1278483-medscan-7", 
                    "object-type": "map-range", 
                    "to": "sent-PMC1278483-cmu-19"
                }, 
                {
                    "from": "sent-PMC1278483-medscan-113", 
                    "object-type": "map-range", 
                    "to": "sent-PMC1278483-cmu-156"
                }, 
                {
                    "from": "sent-PMC1278483-medscan-57", 
                    "object-type": "map-range", 
                    "to": "sent-PMC1278483-cmu-84"
                }, 
                {
                    "from": "sent-PMC1278483-medscan-68", 
                    "object-type": "map-range", 
                    "to": "sent-PMC1278483-cmu-100"
                }, 
                {
                    "from": "sent-PMC1278483-medscan-63", 
                    "object-type": "map-range", 
                    "to": "sent-PMC1278483-cmu-94"
                }, 
                {
                    "from": "sent-PMC1278483-medscan-79", 
                    "object-type": "map-range", 
                    "to": "sent-PMC1278483-cmu-113"
                }, 
                {
                    "from": "sent-PMC1278483-medscan-119", 
                    "object-type": "map-range", 
                    "to": "sent-PMC1278483-cmu-164"
                }, 
                {
                    "from": "sent-PMC1278483-medscan-81", 
                    "object-type": "map-range", 
                    "to": "sent-PMC1278483-cmu-116"
                }, 
                {
                    "from": "sent-PMC1278483-medscan-11", 
                    "object-type": "map-range", 
                    "to": "sent-PMC1278483-cmu-25"
                }, 
                {
                    "from": "sent-PMC1278483-medscan-61", 
                    "object-type": "map-range", 
                    "to": "sent-PMC1278483-cmu-91"
                }, 
                {
                    "from": "sent-PMC1278483-medscan-121", 
                    "object-type": "map-range", 
                    "to": "sent-PMC1278483-cmu-166"
                }, 
                {
                    "from": "sent-PMC1278483-medscan-29", 
                    "object-type": "map-range", 
                    "to": "sent-PMC1278483-cmu-53"
                }, 
                {
                    "from": "sent-PMC1278483-medscan-92", 
                    "object-type": "map-range", 
                    "to": "sent-PMC1278483-cmu-129"
                }, 
                {
                    "from": "sent-PMC1278483-medscan-15", 
                    "object-type": "map-range", 
                    "to": "sent-PMC1278483-cmu-31"
                }, 
                {
                    "from": "sent-PMC1278483-medscan-77", 
                    "object-type": "map-range", 
                    "to": "sent-PMC1278483-cmu-110"
                }, 
                {
                    "from": "sent-PMC1278483-medscan-19", 
                    "object-type": "map-range", 
                    "to": "sent-PMC1278483-cmu-39"
                }, 
                {
                    "from": "sent-PMC1278483-medscan-128", 
                    "object-type": "map-range", 
                    "to": "sent-PMC1278483-cmu-188"
                }, 
                {
                    "from": "sent-PMC1278483-medscan-9", 
                    "object-type": "map-range", 
                    "to": "sent-PMC1278483-cmu-22"
                }, 
                {
                    "from": "sent-PMC1278483-medscan-37", 
                    "object-type": "map-range", 
                    "to": "sent-PMC1278483-cmu-62"
                }, 
                {
                    "from": "sent-PMC1278483-medscan-95", 
                    "object-type": "map-range", 
                    "to": "sent-PMC1278483-cmu-132"
                }, 
                {
                    "from": "sent-PMC1278483-medscan-40", 
                    "object-type": "map-range", 
                    "to": "sent-PMC1278483-cmu-65"
                }, 
                {
                    "from": "sent-PMC1278483-medscan-134", 
                    "object-type": "map-range", 
                    "to": "sent-PMC1278483-cmu-199"
                }, 
                {
                    "from": "sent-PMC1278483-medscan-93", 
                    "object-type": "map-range", 
                    "to": "sent-PMC1278483-cmu-130"
                }, 
                {
                    "from": "sent-PMC1278483-medscan-27", 
                    "object-type": "map-range", 
                    "to": "sent-PMC1278483-cmu-50"
                }, 
                {
                    "from": "sent-PMC1278483-medscan-146", 
                    "object-type": "map-range", 
                    "to": "sent-PMC1278483-cmu-220"
                }, 
                {
                    "from": "sent-PMC1278483-medscan-72", 
                    "object-type": "map-range", 
                    "to": "sent-PMC1278483-cmu-104"
                }, 
                {
                    "from": "sent-PMC1278483-medscan-85", 
                    "object-type": "map-range", 
                    "to": "sent-PMC1278483-cmu-120"
                }, 
                {
                    "from": "sent-PMC1278483-medscan-120", 
                    "object-type": "map-range", 
                    "to": "sent-PMC1278483-cmu-165"
                }, 
                {
                    "from": "sent-PMC1278483-medscan-106", 
                    "object-type": "map-range", 
                    "to": "sent-PMC1278483-cmu-144"
                }, 
                {
                    "from": "sent-PMC1278483-medscan-89", 
                    "object-type": "map-range", 
                    "to": "sent-PMC1278483-cmu-125"
                }, 
                {
                    "from": "sent-PMC1278483-medscan-46", 
                    "object-type": "map-range", 
                    "to": "sent-PMC1278483-cmu-72"
                }, 
                {
                    "from": "sent-PMC1278483-medscan-75", 
                    "object-type": "map-range", 
                    "to": "sent-PMC1278483-cmu-108"
                }, 
                {
                    "from": "sent-PMC1278483-medscan-47", 
                    "object-type": "map-range", 
                    "to": "sent-PMC1278483-cmu-73"
                }, 
                {
                    "from": "sent-PMC1278483-medscan-39", 
                    "object-type": "map-range", 
                    "to": "sent-PMC1278483-cmu-64"
                }, 
                {
                    "from": "sent-PMC1278483-medscan-17", 
                    "object-type": "map-range", 
                    "to": "sent-PMC1278483-cmu-35"
                }, 
                {
                    "from": "sent-PMC1278483-medscan-21", 
                    "object-type": "map-range", 
                    "to": "sent-PMC1278483-cmu-42"
                }, 
                {
                    "from": "sent-PMC1278483-medscan-54", 
                    "object-type": "map-range", 
                    "to": "sent-PMC1278483-cmu-81"
                }, 
                {
                    "from": "sent-PMC1278483-medscan-132", 
                    "object-type": "map-range", 
                    "to": "sent-PMC1278483-cmu-195"
                }, 
                {
                    "from": "sent-PMC1278483-medscan-97", 
                    "object-type": "map-range", 
                    "to": "sent-PMC1278483-cmu-135"
                }, 
                {
                    "from": "sent-PMC1278483-medscan-0", 
                    "object-type": "map-range", 
                    "to": "sent-PMC1278483-cmu-1"
                }, 
                {
                    "from": "sent-PMC1278483-medscan-8", 
                    "object-type": "map-range", 
                    "to": "sent-PMC1278483-cmu-21"
                }, 
                {
                    "from": "sent-PMC1278483-medscan-138", 
                    "object-type": "map-range", 
                    "to": "sent-PMC1278483-cmu-205"
                }, 
                {
                    "from": "sent-PMC1278483-medscan-32", 
                    "object-type": "map-range", 
                    "to": "sent-PMC1278483-cmu-56"
                }, 
                {
                    "from": "sent-PMC1278483-medscan-50", 
                    "object-type": "map-range", 
                    "to": "sent-PMC1278483-cmu-76"
                }, 
                {
                    "from": "sent-PMC1278483-medscan-127", 
                    "object-type": "map-range", 
                    "to": "sent-PMC1278483-cmu-185"
                }, 
                {
                    "from": "sent-PMC1278483-medscan-26", 
                    "object-type": "map-range", 
                    "to": "sent-PMC1278483-cmu-49"
                }, 
                {
                    "from": "sent-PMC1278483-medscan-78", 
                    "object-type": "map-range", 
                    "to": "sent-PMC1278483-cmu-112"
                }, 
                {
                    "from": "sent-PMC1278483-medscan-23", 
                    "object-type": "map-range", 
                    "to": "sent-PMC1278483-cmu-44"
                }, 
                {
                    "from": "sent-PMC1278483-medscan-69", 
                    "object-type": "map-range", 
                    "to": "sent-PMC1278483-cmu-101"
                }, 
                {
                    "from": "sent-PMC1278483-medscan-122", 
                    "object-type": "map-range", 
                    "to": "sent-PMC1278483-cmu-167"
                }, 
                {
                    "from": "sent-PMC1278483-medscan-150", 
                    "object-type": "map-range", 
                    "to": "sent-PMC1278483-cmu-224"
                }, 
                {
                    "from": "sent-PMC1278483-medscan-87", 
                    "object-type": "map-range", 
                    "to": "sent-PMC1278483-cmu-122"
                }, 
                {
                    "from": "sent-PMC1278483-medscan-60", 
                    "object-type": "map-range", 
                    "to": "sent-PMC1278483-cmu-88"
                }, 
                {
                    "from": "sent-PMC1278483-medscan-64", 
                    "object-type": "map-range", 
                    "to": "sent-PMC1278483-cmu-96"
                }, 
                {
                    "from": "sent-PMC1278483-medscan-148", 
                    "object-type": "map-range", 
                    "to": "sent-PMC1278483-cmu-222"
                }, 
                {
                    "from": "sent-PMC1278483-medscan-94", 
                    "object-type": "map-range", 
                    "to": "sent-PMC1278483-cmu-131"
                }, 
                {
                    "from": "sent-PMC1278483-medscan-14", 
                    "object-type": "map-range", 
                    "to": "sent-PMC1278483-cmu-28"
                }, 
                {
                    "from": "sent-PMC1278483-medscan-105", 
                    "object-type": "map-range", 
                    "to": "sent-PMC1278483-cmu-143"
                }, 
                {
                    "from": "sent-PMC1278483-medscan-125", 
                    "object-type": "map-range", 
                    "to": "sent-PMC1278483-cmu-172"
                }, 
                {
                    "from": "sent-PMC1278483-medscan-25", 
                    "object-type": "map-range", 
                    "to": "sent-PMC1278483-cmu-48"
                }, 
                {
                    "from": "sent-PMC1278483-medscan-74", 
                    "object-type": "map-range", 
                    "to": "sent-PMC1278483-cmu-106"
                }, 
                {
                    "from": "sent-PMC1278483-medscan-44", 
                    "object-type": "map-range", 
                    "to": "sent-PMC1278483-cmu-54"
                }, 
                {
                    "from": "sent-PMC1278483-medscan-44", 
                    "object-type": "map-range", 
                    "to": "sent-PMC1278483-cmu-54"
                }, 
                {
                    "from": "sent-PMC1278483-medscan-16", 
                    "object-type": "map-range", 
                    "to": "sent-PMC1278483-cmu-33"
                }, 
                {
                    "from": "sent-PMC1278483-medscan-80", 
                    "object-type": "map-range", 
                    "to": "sent-PMC1278483-cmu-114"
                }, 
                {
                    "from": "sent-PMC1278483-medscan-144", 
                    "object-type": "map-range", 
                    "to": "sent-PMC1278483-cmu-218"
                }, 
                {
                    "from": "sent-PMC1278483-medscan-41", 
                    "object-type": "map-range", 
                    "to": "sent-PMC1278483-cmu-66"
                }, 
                {
                    "from": "sent-PMC1278483-medscan-131", 
                    "object-type": "map-range", 
                    "to": "sent-PMC1278483-cmu-193"
                }, 
                {
                    "from": "sent-PMC1278483-medscan-20", 
                    "object-type": "map-range", 
                    "to": "sent-PMC1278483-cmu-41"
                }, 
                {
                    "from": "sent-PMC1278483-medscan-73", 
                    "object-type": "map-range", 
                    "to": "sent-PMC1278483-cmu-105"
                }, 
                {
                    "from": "sent-PMC1278483-medscan-88", 
                    "object-type": "map-range", 
                    "to": "sent-PMC1278483-cmu-123"
                }, 
                {
                    "from": "sent-PMC1278483-medscan-62", 
                    "object-type": "map-range", 
                    "to": "sent-PMC1278483-cmu-93"
                }, 
                {
                    "from": "sent-PMC1278483-medscan-126", 
                    "object-type": "map-range", 
                    "to": "sent-PMC1278483-cmu-178"
                }, 
                {
                    "from": "sent-PMC1278483-medscan-52", 
                    "object-type": "map-range", 
                    "to": "sent-PMC1278483-cmu-78"
                }, 
                {
                    "from": "sent-PMC1278483-medscan-82", 
                    "object-type": "map-range", 
                    "to": "sent-PMC1278483-cmu-117"
                }, 
                {
                    "from": "sent-PMC1278483-medscan-34", 
                    "object-type": "map-range", 
                    "to": "sent-PMC1278483-cmu-59"
                }, 
                {
                    "from": "sent-PMC1278483-medscan-66", 
                    "object-type": "map-range", 
                    "to": "sent-PMC1278483-cmu-98"
                }, 
                {
                    "from": "sent-PMC1278483-medscan-112", 
                    "object-type": "map-range", 
                    "to": "sent-PMC1278483-cmu-152"
                }, 
                {
                    "from": "sent-PMC1278483-medscan-53", 
                    "object-type": "map-range", 
                    "to": "sent-PMC1278483-cmu-80"
                }, 
                {
                    "from": "sent-PMC1278483-medscan-2", 
                    "object-type": "map-range", 
                    "to": "sent-PMC1278483-cmu-9"
                }
            ], 
            "object-meta": {
                "component": "Pradeep-Matcher", 
                "object-type": "meta-info", 
                "organization": "CMU"
            }, 
            "object-type": "frame"
        }
    ], 
    "object-meta": {
        "component": "Pradeep-Matcher", 
        "component-type": "machine", 
        "doc-id": "PMC1278483", 
        "object-type": "meta-info", 
        "organization": "CMU"
    }, 
    "object-type": "frame-collection"
}
