{
  "evidence": ["SOC NSC currents activated by intracellular calcium","The kinetic characteristics of the PECAM-1-dependent current are similar to DAC and SOC NSC currents activated by intracellular calcium release ( capacitative calcium entry ) , which are sensitive to trivalent cations such as lanthanum chloride ( LaCl3 )                                                                       ."],
  "extracted_information": {
    "interaction_type": "increases_activity",
    "negative_information": false,
    "participant_a": {
      "entity_text": "calcium",
      "entity_type": "chemical",
      "identifier": "CHEBI:48760",
      "in_model": true
    },
    "participant_b": {
      "entity_text": "SOC",
      "entity_type": "protein",
      "identifier": "Uniprot:Q5T124",
      "in_model": false
    }
  },
  "fries_provenance": [
    {
      "component": "REACH",
      "frame-file": "PMC2173260.uaz.events",
      "frame-id": "evem-PMC2173260-UAZ-r1-37-0-13",
      "passage-id": "pass-PMC2173260-UAZ-r1-37",
      "passage-number": 37,
      "passage-section-id": "N/A",
      "passage-section-name": "N/A",
      "sentence": "The kinetic characteristics of the PECAM-1-dependent current are similar to DAC and SOC NSC currents activated by intracellular calcium release ( capacitative calcium entry ) , which are sensitive to trivalent cations such as lanthanum chloride ( LaCl3 )                                                                       .",
      "text": "SOC NSC currents activated by intracellular calcium",
      "uaz-sentence": "The kinetic characteristics of the PECAM-1-dependent current are similar to DAC and SOC NSC currents activated by intracellular calcium release ( capacitative calcium entry ) , which are sensitive to trivalent cations such as lanthanum chloride ( LaCl3 )                                                                       .",
      "uaz-sentence-start": 0
    }
  ],
  "model_relation": "extension",
  "pmc_id": "PMC2173260",
  "reader_type": "machine",
  "reading_complete": "2015-06-15T19:44:45Z",
  "reading_started": "2015-06-15T19:44:40Z",
  "submitter": "FRIES"
}
