{
  "evidence": ["In this study, we used biochemical and genetic approaches to unambiguously identify PTP-1B, which is a ubiquitous nonreceptor tyrosine phosphatase, as a phosphatase that is required for dephosphorylation of c-Srctyrosine 529//529 and for c-Src activation downstream of \\u03b1IIb\\u03b23.","nonreceptor tyrosine phosphatase, as a phosphatase that is required for dephosphorylation of c-Src"],
  "extracted_information": {
    "interaction_type": "increases",
    "negative_information": false,
    "participant_a": {
      "entity_text": "nonreceptor tyrosine phosphatase",
      "entity_type": "protein_family",
      "identifier": "GO:0004726",
      "in_model": true
    },
    "participant_b": {
      "entity_text": "c-Src",
      "entity_type": "protein",
      "identifier": "Uniprot:Q9H7V3",
      "in_model": true
    }
  },
  "fries_provenance": [
    {
      "component": "MedScan",
      "frame-file": "PMC2171339.cmu.medscan",
      "frame-id": "relm-PMC2171339-cmu-medscan-777",
      "passage-id": "pass-PMC2171339-UAZ-r1-9",
      "passage-number": 9,
      "passage-section-id": "N/A",
      "passage-section-name": "N/A",
      "sentence": "In this study, we used biochemical and genetic approaches to unambiguously identify PTP-1B, which is a ubiquitous nonreceptor tyrosine phosphatase, as a phosphatase that is required for dephosphorylation of c-Srctyrosine 529//529 and for c-Src activation downstream of \\u03b1IIb\\u03b23.",
      "text": "nonreceptor tyrosine phosphatase, as a phosphatase that is required for dephosphorylation of c-Src",
      "uaz-sentence": "In this study , we used biochemical and genetic approaches to unambiguously identify PTP-1B , which is a ubiquitous nonreceptor tyrosine phosphatase , as a phosphatase that is required for dephosphorylation of c-Src tyrosine 529 and for c-Src activation downstream of alphaIIbbeta3 .",
      "uaz-sentence-start": 1145
    },
    {
      "component": "MedScan",
      "frame-file": "PMC2171339.cmu.medscan",
      "frame-id": "relm-PMC2171339-cmu-medscan-778",
      "passage-id": "pass-PMC2171339-UAZ-r1-9",
      "passage-number": 9,
      "passage-section-id": "N/A",
      "passage-section-name": "N/A",
      "sentence": "In this study, we used biochemical and genetic approaches to unambiguously identify PTP-1B, which is a ubiquitous nonreceptor tyrosine phosphatase, as a phosphatase that is required for dephosphorylation of c-Srctyrosine 529//529 and for c-Src activation downstream of \\u03b1IIb\\u03b23.",
      "text": "nonreceptor tyrosine phosphatase, as a phosphatase that is required for dephosphorylation of c-Src",
      "uaz-sentence": "In this study , we used biochemical and genetic approaches to unambiguously identify PTP-1B , which is a ubiquitous nonreceptor tyrosine phosphatase , as a phosphatase that is required for dephosphorylation of c-Src tyrosine 529 and for c-Src activation downstream of alphaIIbbeta3 .",
      "uaz-sentence-start": 1145
    }
  ],
  "model_relation": "extension",
  "pmc_id": "PMC2171339",
  "reader_type": "machine",
  "reading_complete": "2015-06-15T19:33:06Z",
  "reading_started": "2015-06-15T19:33:01Z",
  "submitter": "FRIES"
}
