{
  "evidence": ["c-myc mRNA with levels similar in each cell line but much higher than that of gp130-induced c-myc mRNA, indicating that the poor gp130","Expression of either dominant-negative STAT3 almost completely inhibited the gp130-mediated expression of both c-myc and junB mRNA (Fig. ), the latter of which has been known to be one of IL-6-inducible immediate early response genes ( , , ).","gp130 activates STAT3, and induces c-myc","gp130 was required for full c-myc","gp130-mediated c-myc","gp130-mediated expression of both c-myc and junB","gp130-mediated induction of the c-myc mRNA expression and showed that STAT3 rapidly activated the c-myc gene promoter by binding to a site overlapping with the c-myc","However, at the present time we do not know whether STAT3 cooperates with other proteins to activate the c-myc promoter-driven transcription or whether STAT3 synergistically enhances the c-myc mRNA expression with other uncharacterized pathway(s) or mechanisms affecting the levels of transcriptional elongation or mRNA stability.","Previously, we showed that the membrane-proximal region of gp130, consisting of 133-amino acid residues, is necessary and sufficient for ligand-induced cell growth .","Stimulation of gp130 activates STAT3, and induces c-myc mRNA expression and cell proliferation in BAF/B03 cells .","The three cell lines, BAF-G133, BAF-G133 Signal transducers and activators of transcription3F, and BAF-G133 Signal transducers and activators of transcription3D, could respond to IL-3 by expressing c-myc mRNA with levels similar in each cell line but much higher than that of gp130-induced c-myc mRNA, indicating that the poor gp130-mediated induction of c-myc mRNA seen in the dominant-negative Signal transducers and activators of transcription3-expressing cell lines was due to the specific effect of the exogenous Signal transducers and activators of transcription3F and Signal transducers and activators of transcription3D.","Third, dominant-negative STAT3, but not dominant-negative STAT1 (data not shown), inhibited IL-6-induced activation of the c-myc gene promoter activity in HepG2 cells (Fig. B).","We first characterized the nature of the gp130-mediated c-myc mRNA induction in BAF-G277, a BAF-B03 pro-B cell line expressing the chimeric receptor containing the extracellular domain of the G-CSF receptor and the transmembrane and cytoplasmic domains of gp130 ."],
  "extracted_information": {
    "interaction_type": "increases_activity",
    "negative_information": false,
    "participant_a": {
      "entity_text": "gp130",
      "entity_type": "protein",
      "identifier": "Uniprot:P40189",
      "in_model": true
    },
    "participant_b": {
      "entity_text": "c-myc",
      "entity_type": "protein",
      "identifier": "Uniprot:P52160",
      "in_model": true
    }
  },
  "fries_provenance": [
    {
      "cmu-sentence-epistemic-status": "implication",
      "cmu-sentence-epistemic-value": 0.6,
      "component": "MedScan",
      "frame-file": "PMC1887683.cmu.medscan",
      "frame-id": "relm-PMC1887683-cmu-medscan-713",
      "sentence": "Stimulation of gp130 activates STAT3, and induces c-myc mRNA expression and cell proliferation in BAF/B03 cells .",
      "text": "gp130 activates STAT3, and induces c-myc"
    },
    {
      "cmu-sentence-epistemic-status": "implication",
      "cmu-sentence-epistemic-value": 0.6,
      "component": "MedScan",
      "frame-file": "PMC1887683.cmu.medscan",
      "frame-id": "relm-PMC1887683-cmu-medscan-718",
      "passage-id": "pass-PMC1887683-UAZ-r1-31",
      "passage-number": 31,
      "passage-section-id": "N/A",
      "passage-section-name": "N/A",
      "sentence": "We first characterized the nature of the gp130-mediated c-myc mRNA induction in BAF-G277, a BAF-B03 pro-B cell line expressing the chimeric receptor containing the extracellular domain of the G-CSF receptor and the transmembrane and cytoplasmic domains of gp130 .",
      "text": "gp130-mediated c-myc",
      "uaz-sentence": "We first characterized the nature of the gp130 mediated c-myc mRNA induction in BAF-G277 , a BAF-B03 pro-B cell line expressing the chimeric receptor containing the extracellular domain of the G-CSF receptor and the transmembrane and cytoplasmic domains of gp130     .",
      "uaz-sentence-start": 0
    },
    {
      "cmu-sentence-epistemic-status": "implication",
      "cmu-sentence-epistemic-value": 0.6,
      "component": "MedScan",
      "frame-file": "PMC1887683.cmu.medscan",
      "frame-id": "relm-PMC1887683-cmu-medscan-719",
      "passage-id": "pass-PMC1887683-UAZ-r1-31",
      "passage-number": 31,
      "passage-section-id": "N/A",
      "passage-section-name": "N/A",
      "sentence": "We first characterized the nature of the gp130-mediated c-myc mRNA induction in BAF-G277, a BAF-B03 pro-B cell line expressing the chimeric receptor containing the extracellular domain of the G-CSF receptor and the transmembrane and cytoplasmic domains of gp130 .",
      "text": "gp130-mediated c-myc",
      "uaz-sentence": "We first characterized the nature of the gp130 mediated c-myc mRNA induction in BAF-G277 , a BAF-B03 pro-B cell line expressing the chimeric receptor containing the extracellular domain of the G-CSF receptor and the transmembrane and cytoplasmic domains of gp130     .",
      "uaz-sentence-start": 0
    },
    {
      "cmu-sentence-epistemic-status": "implication",
      "cmu-sentence-epistemic-value": 0.6,
      "component": "MedScan",
      "frame-file": "PMC1887683.cmu.medscan",
      "frame-id": "relm-PMC1887683-cmu-medscan-723",
      "passage-id": "pass-PMC1887683-UAZ-r1-34",
      "passage-number": 34,
      "passage-section-id": "N/A",
      "passage-section-name": "N/A",
      "sentence": "Previously, we showed that the membrane-proximal region of gp130, consisting of 133-amino acid residues, is necessary and sufficient for ligand-induced cell growth .",
      "text": "gp130 was required for full c-myc",
      "uaz-sentence": "Previously , we showed that the membrane proximal region of gp130 , consisting of 133-amino acid residues , is necessary and sufficient for ligand induced cell growth     .",
      "uaz-sentence-start": 436
    },
    {
      "cmu-sentence-epistemic-status": "implication",
      "cmu-sentence-epistemic-value": 0.6,
      "component": "MedScan",
      "frame-file": "PMC1887683.cmu.medscan",
      "frame-id": "relm-PMC1887683-cmu-medscan-727",
      "passage-id": "pass-PMC1887683-UAZ-r1-34",
      "passage-number": 34,
      "passage-section-id": "N/A",
      "passage-section-name": "N/A",
      "sentence": "Expression of either dominant-negative STAT3 almost completely inhibited the gp130-mediated expression of both c-myc and junB mRNA (Fig. ), the latter of which has been known to be one of IL-6-inducible immediate early response genes ( , , ).",
      "text": "gp130-mediated expression of both c-myc and junB",
      "uaz-sentence": "Expression of either dominant negative STAT3 almost completely inhibited the gp130 mediated expression of both c-myc and junB mRNA                                                                                                                                                                                                                                                                                                                                                                                                                                                                                                                                                                                                                                                                                                                                                                              and that the STAT3 transcription factor was involved , it seemed likely that STAT3 directly activated transcription of the c-myc gene by binding to a cis-regulatory region ( s ) of the gene .",
      "uaz-sentence-start": 2082
    },
    {
      "cmu-sentence-epistemic-status": "implication",
      "cmu-sentence-epistemic-value": 0.6,
      "component": "MedScan",
      "frame-file": "PMC1887683.cmu.medscan",
      "frame-id": "relm-PMC1887683-cmu-medscan-729",
      "sentence": "The three cell lines, BAF-G133, BAF-G133 Signal transducers and activators of transcription3F, and BAF-G133 Signal transducers and activators of transcription3D, could respond to IL-3 by expressing c-myc mRNA with levels similar in each cell line but much higher than that of gp130-induced c-myc mRNA, indicating that the poor gp130-mediated induction of c-myc mRNA seen in the dominant-negative Signal transducers and activators of transcription3-expressing cell lines was due to the specific effect of the exogenous Signal transducers and activators of transcription3F and Signal transducers and activators of transcription3D.",
      "text": "c-myc mRNA with levels similar in each cell line but much higher than that of gp130-induced c-myc mRNA, indicating that the poor gp130"
    },
    {
      "cmu-sentence-epistemic-status": "implication",
      "cmu-sentence-epistemic-value": 0.6,
      "component": "MedScan",
      "frame-file": "PMC1887683.cmu.medscan",
      "frame-id": "relm-PMC1887683-cmu-medscan-730",
      "sentence": "The three cell lines, BAF-G133, BAF-G133 Signal transducers and activators of transcription3F, and BAF-G133 Signal transducers and activators of transcription3D, could respond to IL-3 by expressing c-myc mRNA with levels similar in each cell line but much higher than that of gp130-induced c-myc mRNA, indicating that the poor gp130-mediated induction of c-myc mRNA seen in the dominant-negative Signal transducers and activators of transcription3-expressing cell lines was due to the specific effect of the exogenous Signal transducers and activators of transcription3F and Signal transducers and activators of transcription3D.",
      "text": "c-myc mRNA with levels similar in each cell line but much higher than that of gp130-induced c-myc mRNA, indicating that the poor gp130"
    },
    {
      "cmu-sentence-epistemic-status": "implication",
      "cmu-sentence-epistemic-value": 0.6,
      "component": "MedScan",
      "frame-file": "PMC1887683.cmu.medscan",
      "frame-id": "relm-PMC1887683-cmu-medscan-741",
      "passage-id": "pass-PMC1887683-UAZ-r1-54",
      "passage-number": 54,
      "passage-section-id": "N/A",
      "passage-section-name": "N/A",
      "sentence": "However, at the present time we do not know whether STAT3 cooperates with other proteins to activate the c-myc promoter-driven transcription or whether STAT3 synergistically enhances the c-myc mRNA expression with other uncharacterized pathway(s) or mechanisms affecting the levels of transcriptional elongation or mRNA stability.",
      "text": "gp130-mediated induction of the c-myc mRNA expression and showed that STAT3 rapidly activated the c-myc gene promoter by binding to a site overlapping with the c-myc",
      "uaz-sentence": "However , at the present time we do not know whether STAT3 cooperates with other proteins to activate the c-myc promoter driven transcription or whether STAT3 synergistically enhances the c-myc mRNA expression with other uncharacterized pathway ( s ) or mechanisms affecting the levels of transcriptional elongation or mRNA stability .",
      "uaz-sentence-start": 999
    },
    {
      "cmu-sentence-epistemic-status": "implication",
      "cmu-sentence-epistemic-value": 0.6,
      "component": "MedScan",
      "frame-file": "PMC1887683.cmu.medscan",
      "frame-id": "relm-PMC1887683-cmu-medscan-762",
      "sentence": "Third, dominant-negative STAT3, but not dominant-negative STAT1 (data not shown), inhibited IL-6-induced activation of the c-myc gene promoter activity in HepG2 cells (Fig. B).",
      "text": "gp130-mediated c-myc"
    }
  ],
  "model_relation": "extension",
  "pmc_id": "PMC1887683",
  "reader_type": "machine",
  "reading_complete": "2015-06-15T19:00:06Z",
  "reading_started": "2015-06-15T19:00:01Z",
  "submitter": "FRIES"
}
