{
    "frames": [
        {
            "frame-id": "sent-PMC3159447-medscan-0", 
            "frame-type": "sentence", 
            "object-type": "frame", 
            "start-pos": {
                "object-type": "absolute-pos", 
                "offset": 0
            }, 
            "text": "Mammalian nuclear factor \u03baB is a critical mediator of inducible transcription in the control of key physiological and pathological states, from immunity and inflammation to cancer [reviewed in ]."
        }, 
        {
            "frame-id": "sent-PMC3159447-medscan-1", 
            "frame-type": "sentence", 
            "object-type": "frame", 
            "start-pos": {
                "object-type": "absolute-pos", 
                "offset": 1
            }, 
            "text": "The nuclear factor \u03baB family of transcription factors consists of five members: p65 (RelA), p50 (NF-\u03baB1), p52 (NF-\u03baB2), c-Rel and RelB ."
        }, 
        {
            "frame-id": "sent-PMC3159447-medscan-2", 
            "frame-type": "sentence", 
            "object-type": "frame", 
            "start-pos": {
                "object-type": "absolute-pos", 
                "offset": 2
            }, 
            "text": "The area of greatest homology among the nuclear factor \u03baB members occurs in the conserved N-terminal Rel homology region, which is composed of a DNA binding domain and a dimerization domain."
        }, 
        {
            "frame-id": "sent-PMC3159447-medscan-3", 
            "frame-type": "sentence", 
            "object-type": "frame", 
            "start-pos": {
                "object-type": "absolute-pos", 
                "offset": 3
            }, 
            "text": "Through the dimerization domain, different nuclear factor \u03baB members form a variety of homo- and hetero-dimers, with the p65/p50 combination being the most abundant."
        }, 
        {
            "frame-id": "sent-PMC3159447-medscan-4", 
            "frame-type": "sentence", 
            "object-type": "frame", 
            "start-pos": {
                "object-type": "absolute-pos", 
                "offset": 4
            }, 
            "text": "In addition, p65, but not p50, possesses a C-terminal transactivation domain that is required for promoting transcription (see Supplementary Figure S1a)."
        }, 
        {
            "frame-id": "sent-PMC3159447-medscan-5", 
            "frame-type": "sentence", 
            "object-type": "frame", 
            "start-pos": {
                "object-type": "absolute-pos", 
                "offset": 5
            }, 
            "text": "In unstimulated cells, the majority of nuclear factor \u03baB, including the p65/p50 heterodimer species, is sequestered in the cytosol by the ankyrin-repeat-containing I\u03baB proteins."
        }, 
        {
            "frame-id": "sent-PMC3159447-medscan-6", 
            "frame-type": "sentence", 
            "object-type": "frame", 
            "start-pos": {
                "object-type": "absolute-pos", 
                "offset": 6
            }, 
            "text": "nuclear factor \u03baB activation by stimulants-like cytokines triggers a signaling cascade that results in degradation of I\u03baB and releasing nuclear factor \u03baB to translocate into the nucleus and function as a transcription factor at target genes ."
        }, 
        {
            "frame-id": "sent-PMC3159447-medscan-7", 
            "frame-type": "sentence", 
            "object-type": "frame", 
            "start-pos": {
                "object-type": "absolute-pos", 
                "offset": 7
            }, 
            "text": "Recently, we described a previously uncharacterized mechanism in which, under basal conditions, the protein lysine methyltransferase (PKMT) SETD6 monomethylates chromatin-associated RelA at lysine 310, a residue located within the linker region between the dimerization and activation domains of RelA ."
        }, 
        {
            "frame-id": "sent-PMC3159447-medscan-8", 
            "frame-type": "sentence", 
            "object-type": "frame", 
            "start-pos": {
                "object-type": "absolute-pos", 
                "offset": 8
            }, 
            "text": "Another PKMT, G9a-like protein , via its ankyrin-repeat domain, binds RelA methylated at Lys310//310 (Lys310//310me1) and acts to locally condense chromatin at several nuclear factor \u03baB-dependent target genes."
        }, 
        {
            "frame-id": "sent-PMC3159447-medscan-9", 
            "frame-type": "sentence", 
            "object-type": "frame", 
            "start-pos": {
                "object-type": "absolute-pos", 
                "offset": 9
            }, 
            "text": "The repressed chromatin state is terminated upon stimulating cells with TNF\u03b1, due to phosphorylation of RelA at serine 311//311 ."
        }, 
        {
            "frame-id": "sent-PMC3159447-medscan-10", 
            "frame-type": "sentence", 
            "object-type": "frame", 
            "start-pos": {
                "object-type": "absolute-pos", 
                "offset": 10
            }, 
            "text": "Here we determine the SETD6-RelA peptide complex structure, which provides insight into the molecular basis for RelA peptide recognition by SETD6 as well as an understanding of the effects of modifications at nearby residues on SETD6-mediated Lys310//310 methylation."
        }, 
        {
            "frame-id": "sent-PMC3159447-medscan-11", 
            "frame-type": "sentence", 
            "object-type": "frame", 
            "start-pos": {
                "object-type": "absolute-pos", 
                "offset": 11
            }, 
            "text": "In addition, we investigate the molecular basis of RelA Lys310//310me1 peptide recognition by the G9a-like protein ankyrin repeats."
        }, 
        {
            "frame-id": "sent-PMC3159447-medscan-12", 
            "frame-type": "sentence", 
            "object-type": "frame", 
            "start-pos": {
                "object-type": "absolute-pos", 
                "offset": 12
            }, 
            "text": "Finally we generate a model that connects histone peptide-bound G9a-like protein with a DNA-bound nuclear factor \u03baB, using the existing structural information."
        }, 
        {
            "frame-id": "sent-PMC3159447-medscan-13", 
            "frame-type": "sentence", 
            "object-type": "frame", 
            "start-pos": {
                "object-type": "absolute-pos", 
                "offset": 13
            }, 
            "text": "Our study suggests that the methyl-phospho switch between two adjacent residues of RelA, Lys310//310 and Ser311//311, regulates localized chromatin state to influence nuclear factor \u03baB-target gene expression."
        }, 
        {
            "frame-id": "sent-PMC3159447-medscan-14", 
            "frame-type": "sentence", 
            "object-type": "frame", 
            "start-pos": {
                "object-type": "absolute-pos", 
                "offset": 14
            }, 
            "text": "There are two splice variants of human SETD6 ( a): the longer 473 residue variant (isoform a) and the shorter 449 residue variant (isoform b), which lacks an in-frame segment (residues 40-63) and was used here for crystallography (residue numbering is based on the longer variant)."
        }, 
        {
            "frame-id": "sent-PMC3159447-medscan-15", 
            "frame-type": "sentence", 
            "object-type": "frame", 
            "start-pos": {
                "object-type": "absolute-pos", 
                "offset": 15
            }, 
            "text": "SETD6 isoform b (residues 17-449) was sub-cloned into a His6-SUMO vector (generating plasmid pXC862) and confirmed by sequencing."
        }, 
        {
            "frame-id": "sent-PMC3159447-medscan-16", 
            "frame-type": "sentence", 
            "object-type": "frame", 
            "start-pos": {
                "object-type": "absolute-pos", 
                "offset": 16
            }, 
            "text": "All of the proteins were overexpressed in Escherichia coli strain BL21 (DE3) RIL-Codon plus strain (Stratagene)."
        }, 
        {
            "frame-id": "sent-PMC3159447-medscan-17", 
            "frame-type": "sentence", 
            "object-type": "frame", 
            "start-pos": {
                "object-type": "absolute-pos", 
                "offset": 17
            }, 
            "text": "Cells expressing His6-SUMO-tagged SETD6 were induced with 0.4 mM isopropyl \u03b2-d-1-thiogalactopyranoside for 16 h at 16\u00b0C."
        }, 
        {
            "frame-id": "sent-PMC3159447-medscan-18", 
            "frame-type": "sentence", 
            "object-type": "frame", 
            "start-pos": {
                "object-type": "absolute-pos", 
                "offset": 18
            }, 
            "text": "Cells were collected, pelleted and then resuspended in 50 mM sodium phosphate, pH 7.4, 300 mM NaCl, 5% glycerol."
        }, 
        {
            "frame-id": "sent-PMC3159447-medscan-19", 
            "frame-type": "sentence", 
            "object-type": "frame", 
            "start-pos": {
                "object-type": "absolute-pos", 
                "offset": 19
            }, 
            "text": "The cells were lysed by two passes through a French pressure cell press and then centrifuged at 23 000g for 1 h."
        }, 
        {
            "frame-id": "sent-PMC3159447-medscan-20", 
            "frame-type": "sentence", 
            "object-type": "frame", 
            "start-pos": {
                "object-type": "absolute-pos", 
                "offset": 20
            }, 
            "text": "The soluble His6-SUMO fusion protein was first purified using the HisTrap HP column (GE Healthcare)."
        }, 
        {
            "frame-id": "sent-PMC3159447-medscan-21", 
            "frame-type": "sentence", 
            "object-type": "frame", 
            "start-pos": {
                "object-type": "absolute-pos", 
                "offset": 21
            }, 
            "text": "The fusion protein was cleaved by Ulp-1 protease in overnight dialysis at 4\u00b0C."
        }, 
        {
            "frame-id": "sent-PMC3159447-medscan-22", 
            "frame-type": "sentence", 
            "object-type": "frame", 
            "start-pos": {
                "object-type": "absolute-pos", 
                "offset": 22
            }, 
            "text": "Only two extraneous N-terminal amino acids (HisAsn) were left as a result of a restriction site."
        }, 
        {
            "frame-id": "sent-PMC3159447-medscan-23", 
            "frame-type": "sentence", 
            "object-type": "frame", 
            "start-pos": {
                "object-type": "absolute-pos", 
                "offset": 23
            }, 
            "text": "The cleaved SUMO tag was removed by ion exchange purification (HiTrap Q HP, GE Healthcare)."
        }, 
        {
            "frame-id": "sent-PMC3159447-medscan-24", 
            "frame-type": "sentence", 
            "object-type": "frame", 
            "start-pos": {
                "object-type": "absolute-pos", 
                "offset": 24
            }, 
            "text": "The SETD6 protein was further purified by gel-filtration chromatography (Superdex 200, GE Healthcare)."
        }, 
        {
            "frame-id": "sent-PMC3159447-medscan-25", 
            "frame-type": "sentence", 
            "object-type": "frame", 
            "start-pos": {
                "object-type": "absolute-pos", 
                "offset": 25
            }, 
            "text": "All protein purification was performed at 4\u00b0C."
        }, 
        {
            "frame-id": "sent-PMC3159447-medscan-26", 
            "frame-type": "sentence", 
            "object-type": "frame", 
            "start-pos": {
                "object-type": "absolute-pos", 
                "offset": 26
            }, 
            "text": "For crystallization, the purified protein was concentrated to \u223c16 mg ml-1 in the presence of 100 \u00b5M S-adenosyl-l-methionine ."
        }, 
        {
            "frame-id": "sent-PMC3159447-medscan-27", 
            "frame-type": "sentence", 
            "object-type": "frame", 
            "start-pos": {
                "object-type": "absolute-pos", 
                "offset": 27
            }, 
            "text": "Figure 1.Structure of SETD6. (a) Schematic representation of human SETD6, with the long and short isoforms. (b) Two views of SETD6 with a V-cleft appearance, colored magenta (N-terminal helix), yellow (SET), orange (i-SET), and green (C-SET)."
        }, 
        {
            "frame-id": "sent-PMC3159447-medscan-28", 
            "frame-type": "sentence", 
            "object-type": "frame", 
            "start-pos": {
                "object-type": "absolute-pos", 
                "offset": 28
            }, 
            "text": "Dashed lines indicate the disordered loops, residues 230-236 (yellow) and 387-394 (green)."
        }, 
        {
            "frame-id": "sent-PMC3159447-medscan-29", 
            "frame-type": "sentence", 
            "object-type": "frame", 
            "start-pos": {
                "object-type": "absolute-pos", 
                "offset": 29
            }, 
            "text": "The RelA K310 peptide and S-adenosyl-l-methionine are in stick model."
        }, 
        {
            "frame-id": "sent-PMC3159447-medscan-30", 
            "frame-type": "sentence", 
            "object-type": "frame", 
            "start-pos": {
                "object-type": "absolute-pos", 
                "offset": 30
            }, 
            "text": "The human RelA dimerization domain plus the linker region (amino acids 191-325; see Supplementary Figure S1a) was expressed as a His6-SUMO tagged construct in E. coli BL21(DE3)-Gold cells (Stratagene) with RIL-Codon plus plasmid (pXC875)."
        }, 
        {
            "frame-id": "sent-PMC3159447-medscan-31", 
            "frame-type": "sentence", 
            "object-type": "frame", 
            "start-pos": {
                "object-type": "absolute-pos", 
                "offset": 31
            }, 
            "text": "For the RelA:p50 heterodimer, His6-SUMO-tagged human RelA (residues 1-325 including DNA binding domain, dimerization domain and linker region; pXC914) and non-tagged human p50 dimerization domain (residues 243-366; pXC902) in pET21b (Novagen) were coexpressed in E. coli BL21(DE3)."
        }, 
        {
            "frame-id": "sent-PMC3159447-medscan-32", 
            "frame-type": "sentence", 
            "object-type": "frame", 
            "start-pos": {
                "object-type": "absolute-pos", 
                "offset": 32
            }, 
            "text": "Similar purification strategies were used for both complexes."
        }, 
        {
            "frame-id": "sent-PMC3159447-medscan-33", 
            "frame-type": "sentence", 
            "object-type": "frame", 
            "start-pos": {
                "object-type": "absolute-pos", 
                "offset": 33
            }, 
            "text": "The soluble fraction was isolated using a nickel-charged HiTrap chelating HP column (GE Healthcare)."
        }, 
        {
            "frame-id": "sent-PMC3159447-medscan-34", 
            "frame-type": "sentence", 
            "object-type": "frame", 
            "start-pos": {
                "object-type": "absolute-pos", 
                "offset": 34
            }, 
            "text": "The fused SUMO tag was removed by Ulp-1 protease in overnight dialysis at 4\u00b0C."
        }, 
        {
            "frame-id": "sent-PMC3159447-medscan-35", 
            "frame-type": "sentence", 
            "object-type": "frame", 
            "start-pos": {
                "object-type": "absolute-pos", 
                "offset": 35
            }, 
            "text": "The product protein was further purified by cation-exchange and gel-filtration chromatography."
        }, 
        {
            "frame-id": "sent-PMC3159447-medscan-36", 
            "frame-type": "sentence", 
            "object-type": "frame", 
            "start-pos": {
                "object-type": "absolute-pos", 
                "offset": 36
            }, 
            "text": "Size exclusion chromatography was employed to evaluate dimer formation."
        }, 
        {
            "frame-id": "sent-PMC3159447-medscan-37", 
            "frame-type": "sentence", 
            "object-type": "frame", 
            "start-pos": {
                "object-type": "absolute-pos", 
                "offset": 37
            }, 
            "text": "Crystallization of the SETD6-S-adenosyl-l-methionine-RelA peptide complex was carried out by the hanging-drop vapor-diffusion method at 16\u00b0C after mixing the protein with peptide in a ratio of \u223c1:1.2, and then mixing with an equal amount of well solution (1.5 \u03bcl)."
        }, 
        {
            "frame-id": "sent-PMC3159447-medscan-38", 
            "frame-type": "sentence", 
            "object-type": "frame", 
            "start-pos": {
                "object-type": "absolute-pos", 
                "offset": 38
            }, 
            "text": "Both native and selenium-substituted SETD6-S-adenosyl-l-methionine, in the presence of RelA peptide, were crystallized using well solutions containing 15% (w/v) polyethylene glycol 3350, 0.1 M di-ammonium hydrogen citrate, pH 4.6."
        }, 
        {
            "frame-id": "sent-PMC3159447-medscan-39", 
            "frame-type": "sentence", 
            "object-type": "frame", 
            "start-pos": {
                "object-type": "absolute-pos", 
                "offset": 39
            }, 
            "text": "The crystals belonged to space group P1 with two SETD6-S-adenosyl-l-methionine-peptide complexes per asymmetric unit."
        }, 
        {
            "frame-id": "sent-PMC3159447-medscan-40", 
            "frame-type": "sentence", 
            "object-type": "frame", 
            "start-pos": {
                "object-type": "absolute-pos", 
                "offset": 40
            }, 
            "text": "For data collection, the crystals were equilibrated in a cryoprotectant buffer containing reservoir buffer plus 20% (v/v) ethylene glycol."
        }, 
        {
            "frame-id": "sent-PMC3159447-medscan-41", 
            "frame-type": "sentence", 
            "object-type": "frame", 
            "start-pos": {
                "object-type": "absolute-pos", 
                "offset": 41
            }, 
            "text": "The native and selenium SAD data sets were collected at SER-CAT beamline 24ID of Advanced Photon Source at Argonne National Laboratory."
        }, 
        {
            "frame-id": "sent-PMC3159447-medscan-42", 
            "frame-type": "sentence", 
            "object-type": "frame", 
            "start-pos": {
                "object-type": "absolute-pos", 
                "offset": 42
            }, 
            "text": "All the data sets were processed using the program HKL2000."
        }, 
        {
            "frame-id": "sent-PMC3159447-medscan-43", 
            "frame-type": "sentence", 
            "object-type": "frame", 
            "start-pos": {
                "object-type": "absolute-pos", 
                "offset": 43
            }, 
            "text": "The structure was determined and refined utilizing components of the SGXPRO  and PHENIX  program packages."
        }, 
        {
            "frame-id": "sent-PMC3159447-medscan-44", 
            "frame-type": "sentence", 
            "object-type": "frame", 
            "start-pos": {
                "object-type": "absolute-pos", 
                "offset": 44
            }, 
            "text": "The program COOT  was used for building peptide and manual model manipulation between rounds of refinement with PHENIX."
        }, 
        {
            "frame-id": "sent-PMC3159447-medscan-45", 
            "frame-type": "sentence", 
            "object-type": "frame", 
            "start-pos": {
                "object-type": "absolute-pos", 
                "offset": 45
            }, 
            "text": "Structural figures were generated by the program MacPyMol (DeLano Scientific)."
        }, 
        {
            "frame-id": "sent-PMC3159447-medscan-46", 
            "frame-type": "sentence", 
            "object-type": "frame", 
            "start-pos": {
                "object-type": "absolute-pos", 
                "offset": 46
            }, 
            "text": "The RelA peptide was synthesized at the W.M."
        }, 
        {
            "frame-id": "sent-PMC3159447-medscan-47", 
            "frame-type": "sentence", 
            "object-type": "frame", 
            "start-pos": {
                "object-type": "absolute-pos", 
                "offset": 47
            }, 
            "text": "Keck Foundation Biotechnology Resource Laboratory (Yale University)."
        }, 
        {
            "frame-id": "sent-PMC3159447-medscan-48", 
            "frame-type": "sentence", 
            "object-type": "frame", 
            "start-pos": {
                "object-type": "absolute-pos", 
                "offset": 48
            }, 
            "text": "Human RelA peptide (residues 302-316) was used as substrate for SETD6."
        }, 
        {
            "frame-id": "sent-PMC3159447-medscan-49", 
            "frame-type": "sentence", 
            "object-type": "frame", 
            "start-pos": {
                "object-type": "absolute-pos", 
                "offset": 49
            }, 
            "text": "A reaction mixture contained 50 mM glycine pH 10.2 (or di-ammonium hydrogen citrate for pH 4.6, Bis-Tris-HCl for pH 6.4, Tris-HCl for pH 7.4, 8.2 and 8.6, and glycine/NaOH for pH 9.0-11.0), 5 mM dithiothreitol, 200-500 \u00b5M S-adenosyl-l-methionine, 10 \u00b5M SETD6 and 30 \u00b5M peptide."
        }, 
        {
            "frame-id": "sent-PMC3159447-medscan-50", 
            "frame-type": "sentence", 
            "object-type": "frame", 
            "start-pos": {
                "object-type": "absolute-pos", 
                "offset": 50
            }, 
            "text": "The assays were carried out at room temperature (\u223c25\u00b0C) for 1 h with a total volume of 20 \u00b5l."
        }, 
        {
            "frame-id": "sent-PMC3159447-medscan-51", 
            "frame-type": "sentence", 
            "object-type": "frame", 
            "start-pos": {
                "object-type": "absolute-pos", 
                "offset": 51
            }, 
            "text": "The reaction was terminated by addition of trifluoroacetic acid to 0.1% (v/v)."
        }, 
        {
            "frame-id": "sent-PMC3159447-medscan-52", 
            "frame-type": "sentence", 
            "object-type": "frame", 
            "start-pos": {
                "object-type": "absolute-pos", 
                "offset": 52
            }, 
            "text": "The resulting peptides were measured by MALDI-TOF on a Bruker Ultraflex II TOF/TOF instrument (Biochemistry Department, Emory University School of Medicine)."
        }, 
        {
            "frame-id": "sent-PMC3159447-medscan-53", 
            "frame-type": "sentence", 
            "object-type": "frame", 
            "start-pos": {
                "object-type": "absolute-pos", 
                "offset": 53
            }, 
            "text": "Peptides methylated by SETD6 were analyzed by reverse-phase liquid chromatography coupled with tandem mass spectrometry (LC-MS/MS) as reported ."
        }, 
        {
            "frame-id": "sent-PMC3159447-medscan-54", 
            "frame-type": "sentence", 
            "object-type": "frame", 
            "start-pos": {
                "object-type": "absolute-pos", 
                "offset": 54
            }, 
            "text": "The peptide mixtures were loaded onto a C18 column, eluted and monitored in a MS survey scan followed by data-dependent MS/MS scans on a LTQ-Orbitrap mass spectrometer (Thermo Finnigan, San Jose, CA, USA)."
        }, 
        {
            "frame-id": "sent-PMC3159447-medscan-55", 
            "frame-type": "sentence", 
            "object-type": "frame", 
            "start-pos": {
                "object-type": "absolute-pos", 
                "offset": 55
            }, 
            "text": "The acquired MS/MS spectra were searched against a database containing the synthetic peptides."
        }, 
        {
            "frame-id": "sent-PMC3159447-medscan-56", 
            "frame-type": "sentence", 
            "object-type": "frame", 
            "start-pos": {
                "object-type": "absolute-pos", 
                "offset": 56
            }, 
            "text": "Modified methylation sites were determined by dynamic assignment of mass addition (14 Da) to lysine residues during the search."
        }, 
        {
            "frame-id": "sent-PMC3159447-medscan-57", 
            "frame-type": "sentence", 
            "object-type": "frame", 
            "start-pos": {
                "object-type": "absolute-pos", 
                "offset": 57
            }, 
            "text": "Finally, all modified peptide assignments were manually examined."
        }, 
        {
            "frame-id": "sent-PMC3159447-medscan-58", 
            "frame-type": "sentence", 
            "object-type": "frame", 
            "start-pos": {
                "object-type": "absolute-pos", 
                "offset": 58
            }, 
            "text": "Methylation assays were carried out in a 20 \u00b5l reaction (45 \u00b5M substrate, 5.5 \u00b5M [methyl-3H]S-adenosyl-l-methionine, with and without 32 \u00b5M recombinant SETD6) in 20 mM Tris, pH 8.5 and 5 mM DTT for 12 h at 25\u00b0C."
        }, 
        {
            "frame-id": "sent-PMC3159447-medscan-59", 
            "frame-type": "sentence", 
            "object-type": "frame", 
            "start-pos": {
                "object-type": "absolute-pos", 
                "offset": 59
            }, 
            "text": "Samples were analyzed by 17% SDS-PAGE gel and fluorography after 36 h of exposure."
        }, 
        {
            "frame-id": "sent-PMC3159447-medscan-60", 
            "frame-type": "sentence", 
            "object-type": "frame", 
            "start-pos": {
                "object-type": "absolute-pos", 
                "offset": 60
            }, 
            "text": "Human embryonic kidney 293T cells were grown in Dulbecco's modified Eagle's medium (GIBCO) supplemented with 10% fetal calf serum (FCS, GIBCO), 100 U ml-1 penicillin and l-glutamine."
        }, 
        {
            "frame-id": "sent-PMC3159447-medscan-61", 
            "frame-type": "sentence", 
            "object-type": "frame", 
            "start-pos": {
                "object-type": "absolute-pos", 
                "offset": 61
            }, 
            "text": "Cells were transfected with TransIT 293 transfection reagent (Mirus) according to the manufacturer's protocols."
        }, 
        {
            "frame-id": "sent-PMC3159447-medscan-62", 
            "frame-type": "sentence", 
            "object-type": "frame", 
            "start-pos": {
                "object-type": "absolute-pos", 
                "offset": 62
            }, 
            "text": "For overexpression in mammalian cells, the plasmids used were: pcDNA-RelA, pCAG-Flag-SETD6 WT, pCAG-Flag-SETD6N283A."
        }, 
        {
            "frame-id": "sent-PMC3159447-medscan-63", 
            "frame-type": "sentence", 
            "object-type": "frame", 
            "start-pos": {
                "object-type": "absolute-pos", 
                "offset": 63
            }, 
            "text": "The pGEX-derived plasmids used were pGEX-GLPANK WT, pGEX-GLPANK W843A, pGEX-GLPANK E851A and pGEX-GLPANK W881A."
        }, 
        {
            "frame-id": "sent-PMC3159447-medscan-64", 
            "frame-type": "sentence", 
            "object-type": "frame", 
            "start-pos": {
                "object-type": "absolute-pos", 
                "offset": 64
            }, 
            "text": "Mutants were constructed using the QuikChange site-directed mutagenesis kit (Stratagene)."
        }, 
        {
            "frame-id": "sent-PMC3159447-medscan-65", 
            "frame-type": "sentence", 
            "object-type": "frame", 
            "start-pos": {
                "object-type": "absolute-pos", 
                "offset": 65
            }, 
            "text": "Cell extracts and immunoblot analyses were done as described ."
        }, 
        {
            "frame-id": "sent-PMC3159447-medscan-66", 
            "frame-type": "sentence", 
            "object-type": "frame", 
            "start-pos": {
                "object-type": "absolute-pos", 
                "offset": 66
            }, 
            "text": "The antibodies used were as follows: RelA/p65 (Santa Cruz Biotechnology), RelA/p65 (Abcam), \u03b2-Actin (Sigma-Aldrich) and GST-HRP (Abcam)."
        }, 
        {
            "frame-id": "sent-PMC3159447-medscan-67", 
            "frame-type": "sentence", 
            "object-type": "frame", 
            "start-pos": {
                "object-type": "absolute-pos", 
                "offset": 67
            }, 
            "text": "RelAK310me1 and SETD6 rabbit polyclonal antibodies were described ."
        }, 
        {
            "frame-id": "sent-PMC3159447-medscan-68", 
            "frame-type": "sentence", 
            "object-type": "frame", 
            "start-pos": {
                "object-type": "absolute-pos", 
                "offset": 68
            }, 
            "text": "Peptide pull-down assays were performed as previously described ."
        }, 
        {
            "frame-id": "sent-PMC3159447-medscan-69", 
            "frame-type": "sentence", 
            "object-type": "frame", 
            "start-pos": {
                "object-type": "absolute-pos", 
                "offset": 69
            }, 
            "text": "Peptides were synthesized at the W.M."
        }, 
        {
            "frame-id": "sent-PMC3159447-medscan-70", 
            "frame-type": "sentence", 
            "object-type": "frame", 
            "start-pos": {
                "object-type": "absolute-pos", 
                "offset": 70
            }, 
            "text": "Keck Foundation Biotechnology Resource Laboratory (Yale University)."
        }, 
        {
            "frame-id": "sent-PMC3159447-medscan-71", 
            "frame-type": "sentence", 
            "object-type": "frame", 
            "start-pos": {
                "object-type": "absolute-pos", 
                "offset": 71
            }, 
            "text": "The sequences of the peptides used were Biotin-E-K-R-K-R-T-Y-E-T-F-Km-S-I-M-K-K-S-P-F-S-G for RelA amino acids 300-320 and A-R-T-K-Q-T-A-R-Km-S-T-G-G-K-A-P-R-K-Q-L-A-K-Biotin for H3 amino acids 1-22."
        }, 
        {
            "frame-id": "sent-PMC3159447-medscan-72", 
            "frame-type": "sentence", 
            "object-type": "frame", 
            "start-pos": {
                "object-type": "absolute-pos", 
                "offset": 72
            }, 
            "text": "RelAK310 and H3K9 were either unmodified (me0), monomethylated (me1) or dimethylated (me2)."
        }, 
        {
            "frame-id": "sent-PMC3159447-medscan-73", 
            "frame-type": "sentence", 
            "object-type": "frame", 
            "start-pos": {
                "object-type": "absolute-pos", 
                "offset": 73
            }, 
            "text": "G9a-like protein ankyrin repeats WT (residues 734-968) and mutants were purified as described ."
        }, 
        {
            "frame-id": "sent-PMC3159447-medscan-74", 
            "frame-type": "sentence", 
            "object-type": "frame", 
            "start-pos": {
                "object-type": "absolute-pos", 
                "offset": 74
            }, 
            "text": "We determined the structure of SETD6 by producing selenomethionyl protein for phasing  and the wild-type protein in complex with a RelA Lys310//310 peptide in the presence of S-adenosyl-l-methionine at a resolution of 2.2 \u00c5 (Supplementary Table S1//1)."
        }, 
        {
            "frame-id": "sent-PMC3159447-medscan-75", 
            "frame-type": "sentence", 
            "object-type": "frame", 
            "start-pos": {
                "object-type": "absolute-pos", 
                "offset": 75
            }, 
            "text": "There are two complexes in the crystallographic asymmetric unit."
        }, 
        {
            "frame-id": "sent-PMC3159447-medscan-76", 
            "frame-type": "sentence", 
            "object-type": "frame", 
            "start-pos": {
                "object-type": "absolute-pos", 
                "offset": 76
            }, 
            "text": "The protein components of the two complexes are highly similar, with a root mean squared deviation of \u223c0.7 \u00c5 when comparing 410 pairs of C\u03b1 atoms."
        }, 
        {
            "frame-id": "sent-PMC3159447-medscan-77", 
            "frame-type": "sentence", 
            "object-type": "frame", 
            "start-pos": {
                "object-type": "absolute-pos", 
                "offset": 77
            }, 
            "text": "The overall structure of SETD6 in complex with S-adenosyl-l-methionine and the RelA peptide, as viewed in b, resembles a V-shaped cleft."
        }, 
        {
            "frame-id": "sent-PMC3159447-medscan-78", 
            "frame-type": "sentence", 
            "object-type": "frame", 
            "start-pos": {
                "object-type": "absolute-pos", 
                "offset": 78
            }, 
            "text": "The V-like appearance is mainly determined by the helical structures of i-SET (an insertion of about 125 amino acids in the middle of the SET domain; orange helices \u03b1B-\u03b1G) and the C-terminal domain (green) that is mainly helical (\u03b1H-\u03b1Q) except for two \u03b2 strands (6 and 7) ( b)."
        }, 
        {
            "frame-id": "sent-PMC3159447-medscan-79", 
            "frame-type": "sentence", 
            "object-type": "frame", 
            "start-pos": {
                "object-type": "absolute-pos", 
                "offset": 79
            }, 
            "text": "The two pairs of helices (one short and one long)-helices \u03b1E and \u03b1F and helices \u03b1H and \u03b1Q-lie next to one another near the bottom of the cleft and are largely responsible for the V-like appearance of SETD6 (Supplementary Figure S2a)."
        }, 
        {
            "frame-id": "sent-PMC3159447-medscan-80", 
            "frame-type": "sentence", 
            "object-type": "frame", 
            "start-pos": {
                "object-type": "absolute-pos", 
                "offset": 80
            }, 
            "text": "We used a RelA peptide encompassing amino acids 302-316 for co-crystallization in the presence of the methyl donor S-adenosyl-l-methionine."
        }, 
        {
            "frame-id": "sent-PMC3159447-medscan-81", 
            "frame-type": "sentence", 
            "object-type": "frame", 
            "start-pos": {
                "object-type": "absolute-pos", 
                "offset": 81
            }, 
            "text": "The complex was crystallized under the conditions of pH 4.6 (see 'Materials and Methods' section), under which no activity was observed in vitro ( a), and an intact S-adenosyl-l-methionine was present in the structure (Supplementary Figure S2//2b)."
        }, 
        {
            "frame-id": "sent-PMC3159447-medscan-82", 
            "frame-type": "sentence", 
            "object-type": "frame", 
            "start-pos": {
                "object-type": "absolute-pos", 
                "offset": 82
            }, 
            "text": "Like other SET domain proteins DIM-5  and Rubisco large subunit methyltransferase , SETD6 showed maximal in vitro activity at approximately pH 10."
        }, 
        {
            "frame-id": "sent-PMC3159447-medscan-83", 
            "frame-type": "sentence", 
            "object-type": "frame", 
            "start-pos": {
                "object-type": "absolute-pos", 
                "offset": 83
            }, 
            "text": "At pH 10, the \u03b5-amino group of target lysine (with a typical pKa value of 10) may be partially neutralized in the active site."
        }, 
        {
            "frame-id": "sent-PMC3159447-medscan-84", 
            "frame-type": "sentence", 
            "object-type": "frame", 
            "start-pos": {
                "object-type": "absolute-pos", 
                "offset": 84
            }, 
            "text": "However, under the low pH conditions, the deprotonation event would not occur and the methyl transfer between the donor methyl group (S+-CH3) and the acceptor amino group () would be inhibited."
        }, 
        {
            "frame-id": "sent-PMC3159447-medscan-85", 
            "frame-type": "sentence", 
            "object-type": "frame", 
            "start-pos": {
                "object-type": "absolute-pos", 
                "offset": 85
            }, 
            "text": "Figure 2.Interactions of SETD6 and RelA K310 peptide. (a) SETD6 activity as a function of pH, (b) the surface representation of SETD6, colored with yellow (SET), orange (i-SET) and green (C-SET)."
        }, 
        {
            "frame-id": "sent-PMC3159447-medscan-86", 
            "frame-type": "sentence", 
            "object-type": "frame", 
            "start-pos": {
                "object-type": "absolute-pos", 
                "offset": 86
            }, 
            "text": "For clarity, the C-SET domain has been sliced away."
        }, 
        {
            "frame-id": "sent-PMC3159447-medscan-87", 
            "frame-type": "sentence", 
            "object-type": "frame", 
            "start-pos": {
                "object-type": "absolute-pos", 
                "offset": 87
            }, 
            "text": "In addition, the surface nitrogen atoms are colored blue and surface oxygen atoms are red, (c) electrostatic interactions, hydrogen bonds and van der Waals interactions define SETD6 (in green) and RelA peptide (in light blue) interactions."
        }, 
        {
            "frame-id": "sent-PMC3159447-medscan-88", 
            "frame-type": "sentence", 
            "object-type": "frame", 
            "start-pos": {
                "object-type": "absolute-pos", 
                "offset": 88
            }, 
            "text": "The linear conformation of Lys310//310 of RelA is in cyan, and the bent conformation in light blue, (d) the bent conformation of the target lysine side chain forms a hydrogen bond with the side chain hydroxyl oxygen of Y297 and the main-chain carbonyl oxygen of S224//224, (e) a model of phosphated-Ser311//311 of RelA with the phosphate group potentially clashing with P228 of SETD6 and (f) In vitro methylation assays by SETD6 on unmodified RelA peptides (left panels) or phosphorylated at Ser311//311 (right panels) followed by mass spectrometry of the reaction products (0 h, before assay; 3 h, after assay)."
        }, 
        {
            "frame-id": "sent-PMC3159447-medscan-89", 
            "frame-type": "sentence", 
            "object-type": "frame", 
            "start-pos": {
                "object-type": "absolute-pos", 
                "offset": 89
            }, 
            "text": "Interestingly, the side chain of the target lysine 310//310 of RelA adopts two conformations: one is linear and the other is bent ( c)."
        }, 
        {
            "frame-id": "sent-PMC3159447-medscan-90", 
            "frame-type": "sentence", 
            "object-type": "frame", 
            "start-pos": {
                "object-type": "absolute-pos", 
                "offset": 90
            }, 
            "text": "The linear conformation of lysine 310//310 points its \u03b5-amino group to the transferable methyl group of S-adenosyl-l-methionine ( c) so that the methyl donor and acceptor are aligned in a nearly linear geometry (N \u2026 C distance of 3.4 \u00c5 and N \u2026 C-S angle of 161\u00b0) for SN2 nucleophilic transfer of the methyl group during catalysis."
        }, 
        {
            "frame-id": "sent-PMC3159447-medscan-91", 
            "frame-type": "sentence", 
            "object-type": "frame", 
            "start-pos": {
                "object-type": "absolute-pos", 
                "offset": 91
            }, 
            "text": "The terminal \u03b5-amino group of the bent conformation sits in the carboxyl end of helix \u03b1G ( d and Supplementary Figure S2c)."
        }, 
        {
            "frame-id": "sent-PMC3159447-medscan-92", 
            "frame-type": "sentence", 
            "object-type": "frame", 
            "start-pos": {
                "object-type": "absolute-pos", 
                "offset": 92
            }, 
            "text": "Thus the positive charge of the terminal \u03b5-amino group of the bent conformation under the low pH condition is effectively balanced by the partial negative dipole charge at the carboxyl end of the helix and stabilized by hydrogen-bonding interactions with S224//224 (main chain carbonyl oxygen) and Y297 (side chain hydroxyl oxygen) of SETD6 ( d; one-letter code is used for SETD6 residues)."
        }, 
        {
            "frame-id": "sent-PMC3159447-medscan-93", 
            "frame-type": "sentence", 
            "object-type": "frame", 
            "start-pos": {
                "object-type": "absolute-pos", 
                "offset": 93
            }, 
            "text": "Specificity for the RelA peptide is determined primarily through recognition of side chains of RelA (Phe309, Ser311//311 and Ile312) before and after the target Lys310//310 ( c; three-letter code is used for RelA residues)."
        }, 
        {
            "frame-id": "sent-PMC3159447-medscan-94", 
            "frame-type": "sentence", 
            "object-type": "frame", 
            "start-pos": {
                "object-type": "absolute-pos", 
                "offset": 94
            }, 
            "text": "The network of interactions includes the following: (i) the phenyl ring of Phe309 of RelA packs against M296 and Y297 of SETD6, (ii) The target nitrogen atom of RelA Lys310//310 forms a water-mediated hydrogen bond with the main chain carboxyl oxygen of L250//250 (the linear conformation) or with Y297 and S224//224 (the bent conformation); (iii) Ser311//311 of RelA is involved in a polar interaction with the main chain carbonyl oxygen of Q226 and a van der Waals contact with P228 of SETD6."
        }, 
        {
            "frame-id": "sent-PMC3159447-medscan-95", 
            "frame-type": "sentence", 
            "object-type": "frame", 
            "start-pos": {
                "object-type": "absolute-pos", 
                "offset": 95
            }, 
            "text": "Adding a phosphate group to the side chain hydroxyl oxygen of Ser311//311 of RelA would result in repulsion from SETD6 ( e)."
        }, 
        {
            "frame-id": "sent-PMC3159447-medscan-96", 
            "frame-type": "sentence", 
            "object-type": "frame", 
            "start-pos": {
                "object-type": "absolute-pos", 
                "offset": 96
            }, 
            "text": "As shown in f, phosphorylation of Ser311//311  causes a complete loss of Lys310//310 methylation in the context of peptide substrate; and (iv) the side chain of Ile312 of RelA fits into a surface pocket formed by F225, L260//260, N283 and T284//284 of SETD6."
        }, 
        {
            "frame-id": "sent-PMC3159447-medscan-97", 
            "frame-type": "sentence", 
            "object-type": "frame", 
            "start-pos": {
                "object-type": "absolute-pos", 
                "offset": 97
            }, 
            "text": "Four aromatic residues (Y223, F225, Y285, Y297) and one polar residue (N283) of SETD6 form the largely hydrophobic active site and wrap around the aliphatic chain of the target lysine."
        }, 
        {
            "frame-id": "sent-PMC3159447-medscan-98", 
            "frame-type": "sentence", 
            "object-type": "frame", 
            "start-pos": {
                "object-type": "absolute-pos", 
                "offset": 98
            }, 
            "text": "Interestingly, only one of these residues (Y285) is conserved in Set7/9 ( a), another human protein lysine mono-methyltransferase."
        }, 
        {
            "frame-id": "sent-PMC3159447-medscan-99", 
            "frame-type": "sentence", 
            "object-type": "frame", 
            "start-pos": {
                "object-type": "absolute-pos", 
                "offset": 99
            }, 
            "text": "The hydroxyl group of Y285 of SETD6 is hydrogen bonded to the backbone carbonyl oxygen of L250//250 and is snug between the methyl group and adenine ring of S-adenosyl-l-methionine ( b)."
        }, 
        {
            "frame-id": "sent-PMC3159447-medscan-100", 
            "frame-type": "sentence", 
            "object-type": "frame", 
            "start-pos": {
                "object-type": "absolute-pos", 
                "offset": 100
            }, 
            "text": "The Y285A mutation in SETD6 abolished its enzymatic activity , whereas the corresponding Y283F mutation in DIM-5 (a Neurospora histone H3lysine 9//9 tri-methyltransferase) lost its S-adenosyl-l-methionine binding and thus activity ."
        }, 
        {
            "frame-id": "sent-PMC3159447-medscan-101", 
            "frame-type": "sentence", 
            "object-type": "frame", 
            "start-pos": {
                "object-type": "absolute-pos", 
                "offset": 101
            }, 
            "text": "In contrast, all four aromatic residues are conserved and superimposable between SETD6 and DIM-5 ( c) as well as G9a methyltransferase [a mammalian histone H3lysine 9//9 mono- and di-methyltransferase ], while N283 of SETD6 is in the place of F281 of DIM-5 ( c) or the corresponding Phe (F1205) of G9a."
        }, 
        {
            "frame-id": "sent-PMC3159447-medscan-102", 
            "frame-type": "sentence", 
            "object-type": "frame", 
            "start-pos": {
                "object-type": "absolute-pos", 
                "offset": 102
            }, 
            "text": "There are two differences between SETD6 and Rubisco large subunit methyltransferase (an enzyme that generates a tri-methyl-lysine) in the active site, Y223 and N283 of SETD6 replacing R222 and I285 of large subunit methyltransferase, respectively ( d)."
        }, 
        {
            "frame-id": "sent-PMC3159447-medscan-103", 
            "frame-type": "sentence", 
            "object-type": "frame", 
            "start-pos": {
                "object-type": "absolute-pos", 
                "offset": 103
            }, 
            "text": "Despite the high level of conservation among the active site residues of the two tri-methyltransferases (DIM-5 and large subunit methyltransferase) and SETD6, SETD6 is a mono-methyltransferase (see Discussion in Supplementary Data)."
        }, 
        {
            "frame-id": "sent-PMC3159447-medscan-104", 
            "frame-type": "sentence", 
            "object-type": "frame", 
            "start-pos": {
                "object-type": "absolute-pos", 
                "offset": 104
            }, 
            "text": "Figure 3.Comparison of active sites of SETD6 and related SET domain proteins. (a) Superimposition of active sites of SETD6 (colored) and Set7/9-ER (estrogen receptor) complex (PDB 3CBM), (b) The hydroxyl group of Y285 of SETD6 is in contact with S-adenosyl-l-methionine, (c) Superimposition of active sites of SETD6 (colored) and Dim-5-H3 complex (PDB 1polyethylene glycol) and (d) Superimpositions of active sites of SETD6 (colored) and large subunit methyltransferase (PDB 2H2J)."
        }, 
        {
            "frame-id": "sent-PMC3159447-medscan-105", 
            "frame-type": "sentence", 
            "object-type": "frame", 
            "start-pos": {
                "object-type": "absolute-pos", 
                "offset": 105
            }, 
            "text": "The structure of SETD6 shares high similarity with Rubisco large subunit methyltransferase  ( a), and the structure-based sequence alignment between the two enzymes reveals sequence conservation throughout the entire region ( b)."
        }, 
        {
            "frame-id": "sent-PMC3159447-medscan-106", 
            "frame-type": "sentence", 
            "object-type": "frame", 
            "start-pos": {
                "object-type": "absolute-pos", 
                "offset": 106
            }, 
            "text": "SETD6 represents a sub-family of SET domain-containing protein lysine methyltransferases (PKMTs) with an insertion of about 100-200 amino acids in the middle of the SET domain (Supplementary Figure S2//2d)."
        }, 
        {
            "frame-id": "sent-PMC3159447-medscan-107", 
            "frame-type": "sentence", 
            "object-type": "frame", 
            "start-pos": {
                "object-type": "absolute-pos", 
                "offset": 107
            }, 
            "text": "Two sequences share 18% identity (81/449) and 31% similarity (140/449)."
        }, 
        {
            "frame-id": "sent-PMC3159447-medscan-108", 
            "frame-type": "sentence", 
            "object-type": "frame", 
            "start-pos": {
                "object-type": "absolute-pos", 
                "offset": 108
            }, 
            "text": "Only three regions have suffered insertions of more than five residues in SETD6: residues 232-239 (part of a disordered loop connecting i-SET to SET domain), residues 333-345 (helix \u03b1J) and residues 440-444 (helix \u03b1P)."
        }, 
        {
            "frame-id": "sent-PMC3159447-medscan-109", 
            "frame-type": "sentence", 
            "object-type": "frame", 
            "start-pos": {
                "object-type": "absolute-pos", 
                "offset": 109
            }, 
            "text": "There is one 9-residue deletion around SETD6 residue 265 (making a shorter loop between two strands of SET domain)."
        }, 
        {
            "frame-id": "sent-PMC3159447-medscan-110", 
            "frame-type": "sentence", 
            "object-type": "frame", 
            "start-pos": {
                "object-type": "absolute-pos", 
                "offset": 110
            }, 
            "text": "Figure 4.Structural and sequence similarities between SETD6 and large subunit methyltransferase. (a) Superimposition of SETD6 (colored) and large subunit methyltransferase (gray) (PDB 2H2J) by their respective N-terminal (left panel) or C-terminal halves (right panel) reveals an \u223c20\u00b0 rotation between the two lobes. (b) Structure-based sequence alignment of human SETD6 (AAH22451) and Rubisco methyltransferase (large subunit methyltransferase, PDB 2H2E)."
        }, 
        {
            "frame-id": "sent-PMC3159447-medscan-111", 
            "frame-type": "sentence", 
            "object-type": "frame", 
            "start-pos": {
                "object-type": "absolute-pos", 
                "offset": 111
            }, 
            "text": "Isoform a of SETD6 has 473 residues (NP_001153777), whereas isoform b has 449 residues (NP_079136) missing 24 amino acids (residues 40-63)."
        }, 
        {
            "frame-id": "sent-PMC3159447-medscan-112", 
            "frame-type": "sentence", 
            "object-type": "frame", 
            "start-pos": {
                "object-type": "absolute-pos", 
                "offset": 112
            }, 
            "text": "Between AAH22451 and isoform a (NP_001153777), there is a point mutation at position 206//206 (G or R)."
        }, 
        {
            "frame-id": "sent-PMC3159447-medscan-113", 
            "frame-type": "sentence", 
            "object-type": "frame", 
            "start-pos": {
                "object-type": "absolute-pos", 
                "offset": 113
            }, 
            "text": "Secondary structural elements (arrows for \u03b2-strands, and rectangles for \u03b1-helices) are indicated."
        }, 
        {
            "frame-id": "sent-PMC3159447-medscan-114", 
            "frame-type": "sentence", 
            "object-type": "frame", 
            "start-pos": {
                "object-type": "absolute-pos", 
                "offset": 114
            }, 
            "text": "White-on-black residues are invariant between the two sequences examined, while gray-highlighted positions are conserved (R and K, E and D, T and S, Q and N, F and Y, V, I, L and M)."
        }, 
        {
            "frame-id": "sent-PMC3159447-medscan-115", 
            "frame-type": "sentence", 
            "object-type": "frame", 
            "start-pos": {
                "object-type": "absolute-pos", 
                "offset": 115
            }, 
            "text": "Positions highlighted are responsible for various functions as indicated (a = S-adenosyl-l-methionine binding; s = substrate binding; c = catalysis)."
        }, 
        {
            "frame-id": "sent-PMC3159447-medscan-116", 
            "frame-type": "sentence", 
            "object-type": "frame", 
            "start-pos": {
                "object-type": "absolute-pos", 
                "offset": 116
            }, 
            "text": "The SET domain was originally identified in three Drosophila proteins involved in epigenetic processes: the suppressor of position-effect variegation 3-9, Su(var)3-9; an enhancer of the eye color mutant zeste, En(zeste); and the homeotic gene regulator Trithorax ."
        }, 
        {
            "frame-id": "sent-PMC3159447-medscan-117", 
            "frame-type": "sentence", 
            "object-type": "frame", 
            "start-pos": {
                "object-type": "absolute-pos", 
                "offset": 117
            }, 
            "text": "Based on the sequence similarity of the SET domain to that of plant methyltransferases including the Rubisco large subunit methyltransferase, the mammalian homologues of Drosophila Su(var)3-9 and of Schizosaccharomyces pombe Clr4 were the first histone lysine methyltransferases identified, and they specifically methylate lysine 9//9 of histone H3 ."
        }, 
        {
            "frame-id": "sent-PMC3159447-medscan-118", 
            "frame-type": "sentence", 
            "object-type": "frame", 
            "start-pos": {
                "object-type": "absolute-pos", 
                "offset": 118
            }, 
            "text": "Here we show that human SETD6 shares a striking structural similarity to the Rubisco large subunit methyltransferase  throughout the entire protein."
        }, 
        {
            "frame-id": "sent-PMC3159447-medscan-119", 
            "frame-type": "sentence", 
            "object-type": "frame", 
            "start-pos": {
                "object-type": "absolute-pos", 
                "offset": 119
            }, 
            "text": "The unexpected resemblance of these two PKMTs, given the restriction of Rubisco to plant species, suggests that this particular appearance of the PKMT has been evolutionarily successful."
        }, 
        {
            "frame-id": "sent-PMC3159447-medscan-120", 
            "frame-type": "sentence", 
            "object-type": "frame", 
            "start-pos": {
                "object-type": "absolute-pos", 
                "offset": 120
            }, 
            "text": "Based on the fact that the RelA linker region-containing the methylation site Lys310//310-has a simple secondary structure (either a single helix or a flexible loop; Supplementary Figure S1//1b and c), we performed a rigid body docking of the RelA/p50 heterodimer into the V-cleft of SETD6, resulting in a very good overall fit ( a)."
        }, 
        {
            "frame-id": "sent-PMC3159447-medscan-121", 
            "frame-type": "sentence", 
            "object-type": "frame", 
            "start-pos": {
                "object-type": "absolute-pos", 
                "offset": 121
            }, 
            "text": "In our docking, the RelA linker helical region localizes to the bottom of the cleft and the helical axis is nearly perpendicular to the longest dimension of SETD6, with the dimerization and the activation domains on either side of the V-cleft ( a)."
        }, 
        {
            "frame-id": "sent-PMC3159447-medscan-122", 
            "frame-type": "sentence", 
            "object-type": "frame", 
            "start-pos": {
                "object-type": "absolute-pos", 
                "offset": 122
            }, 
            "text": "In this view, SETD6 grips RelA like a dumbbell."
        }, 
        {
            "frame-id": "sent-PMC3159447-medscan-123", 
            "frame-type": "sentence", 
            "object-type": "frame", 
            "start-pos": {
                "object-type": "absolute-pos", 
                "offset": 123
            }, 
            "text": "The corresponding linker region from the p50 subunit of the heterodimer is positioned near the helical rim of the C-terminal domain, away from the active site."
        }, 
        {
            "frame-id": "sent-PMC3159447-medscan-124", 
            "frame-type": "sentence", 
            "object-type": "frame", 
            "start-pos": {
                "object-type": "absolute-pos", 
                "offset": 124
            }, 
            "text": "Figure 5.Hypothetical complex model of SETD6/nuclear factor \u03baB. (a) The RelA subunit resembles a dumbbell with the dimerization and the activation domains (transactivation domain) connected by a linker region."
        }, 
        {
            "frame-id": "sent-PMC3159447-medscan-125", 
            "frame-type": "sentence", 
            "object-type": "frame", 
            "start-pos": {
                "object-type": "absolute-pos", 
                "offset": 125
            }, 
            "text": "The SETD6-driven methylation site, Lys310//310, is part of the linker region that also harbors nuclear localization signal (see Supplementary Figure S1a)."
        }, 
        {
            "frame-id": "sent-PMC3159447-medscan-126", 
            "frame-type": "sentence", 
            "object-type": "frame", 
            "start-pos": {
                "object-type": "absolute-pos", 
                "offset": 126
            }, 
            "text": "The truncated nuclear factor \u03baB heterodimer structure [PDB 1FNI; p50 (gray)/RelA (cyan)]  is docked onto the V-cleft of SETD6, which grips the linker region. (b) In vitro methylation of RelA, either as a RelA homodimer (lanes 2 and 3) or a RelA/p50 heterodimer (lanes 4 and 5), by SETD6."
        }, 
        {
            "frame-id": "sent-PMC3159447-medscan-127", 
            "frame-type": "sentence", 
            "object-type": "frame", 
            "start-pos": {
                "object-type": "absolute-pos", 
                "offset": 127
            }, 
            "text": "The top panel shows the Coomassie stain and the fluorography is presented at the bottom."
        }, 
        {
            "frame-id": "sent-PMC3159447-medscan-128", 
            "frame-type": "sentence", 
            "object-type": "frame", 
            "start-pos": {
                "object-type": "absolute-pos", 
                "offset": 128
            }, 
            "text": "In vitro methylation assays indicated that the p50 subunit of nuclear factor \u03baB is not a substrate of SETD6 ( b; lanes 4 and 5) ."
        }, 
        {
            "frame-id": "sent-PMC3159447-medscan-129", 
            "frame-type": "sentence", 
            "object-type": "frame", 
            "start-pos": {
                "object-type": "absolute-pos", 
                "offset": 129
            }, 
            "text": "There are two disordered internal loops of the SETD6 structure: residues 230-236 (yellow) and 387-394 (green), located in the inner surface of the V-cleft and the rim of the C-terminal domain."
        }, 
        {
            "frame-id": "sent-PMC3159447-medscan-130", 
            "frame-type": "sentence", 
            "object-type": "frame", 
            "start-pos": {
                "object-type": "absolute-pos", 
                "offset": 130
            }, 
            "text": "We hypothesize that on association with the RelA/p50 heterodimer or RelA homodimer (Supplementary Figure S1//1d), the unstructured SETD6 loops adopt stable conformations that include contacts with the linker regions of RelA/p50."
        }, 
        {
            "frame-id": "sent-PMC3159447-medscan-131", 
            "frame-type": "sentence", 
            "object-type": "frame", 
            "start-pos": {
                "object-type": "absolute-pos", 
                "offset": 131
            }, 
            "text": "Methylation of RelA by SETD6 represses nuclear factor \u03baB signaling via the recognition of Lys310//310me1 by the ankryin repeats of G9a-like protein (G9a-like protein) with a dissociation constant (KD) of \u223c5 \u00b5M ."
        }, 
        {
            "frame-id": "sent-PMC3159447-medscan-132", 
            "frame-type": "sentence", 
            "object-type": "frame", 
            "start-pos": {
                "object-type": "absolute-pos", 
                "offset": 132
            }, 
            "text": "G9a and G9a-like protein are euchromatin-associated methyltransferases that repress transcription by mono- and di-methylating histone H3lysine 9//9 (H3K9me1/2) via their C-terminal SET domains ."
        }, 
        {
            "frame-id": "sent-PMC3159447-medscan-133", 
            "frame-type": "sentence", 
            "object-type": "frame", 
            "start-pos": {
                "object-type": "absolute-pos", 
                "offset": 133
            }, 
            "text": "Previously, we showed that the centrally located ankyrin repeat domains of G9a and G9a-like protein bind to histone H3 peptides containing H3K9me2/1, and phosphorylation of H3S10 in the context of H3K9me2 completely eliminates peptide binding ."
        }, 
        {
            "frame-id": "sent-PMC3159447-medscan-134", 
            "frame-type": "sentence", 
            "object-type": "frame", 
            "start-pos": {
                "object-type": "absolute-pos", 
                "offset": 134
            }, 
            "text": "Analogous to H3S10 phosphorylation (see sequence alignment in a), phosphorylation of Ser311//311 of RelA blocks the binding of Lys310//310me1 by G9a-like protein in vitro and in cells , probably due to steric hindrance from the Ser-interacting glutamate (E874 of humanG9a-like protein) ( a)."
        }, 
        {
            "frame-id": "sent-PMC3159447-medscan-135", 
            "frame-type": "sentence", 
            "object-type": "frame", 
            "start-pos": {
                "object-type": "absolute-pos", 
                "offset": 135
            }, 
            "text": "Mutations of the G9a-like protein residues involved in forming the methyl-lysine cage (W843A, E851A and W881A) abrogate the binding of G9a-like protein to the Lys310//310 -monomethylated RelA peptide ( b)."
        }, 
        {
            "frame-id": "sent-PMC3159447-medscan-136", 
            "frame-type": "sentence", 
            "object-type": "frame", 
            "start-pos": {
                "object-type": "absolute-pos", 
                "offset": 136
            }, 
            "text": "Figure 6.Recognition of RelA Lys310//310me1 by G9a-like protein. (a) The model of G9a-like protein ankyrin repeats with the RelA peptide was built based on the structure of G9a-like protein with a bound H3K9 peptide (residues 1-15) (PDB 3B95)."
        }, 
        {
            "frame-id": "sent-PMC3159447-medscan-137", 
            "frame-type": "sentence", 
            "object-type": "frame", 
            "start-pos": {
                "object-type": "absolute-pos", 
                "offset": 137
            }, 
            "text": "The side chains of RelA Lys310//310me1 and Ser311//311 were modeled graphically without repulsive clashing between G9a-like protein and the RelA peptide, (b) Biotinylated peptide pull-down assay with the indicated G9a-like protein ankyrin repeats constructs (WT and mutants) using the indicated biotinylated peptides, (c) A model of DNA-nuclear factor \u03baB-G9a-like protein (ANK-SET)-H3 peptide."
        }, 
        {
            "frame-id": "sent-PMC3159447-medscan-138", 
            "frame-type": "sentence", 
            "object-type": "frame", 
            "start-pos": {
                "object-type": "absolute-pos", 
                "offset": 138
            }, 
            "text": "The RelA and p50 are in cyan and gray, respectively; G9a-like protein is in green, the H3 peptide is in magenta stick model and the DNA is in orange (phosphate backbone) and blue (bases)."
        }, 
        {
            "frame-id": "sent-PMC3159447-medscan-139", 
            "frame-type": "sentence", 
            "object-type": "frame", 
            "start-pos": {
                "object-type": "absolute-pos", 
                "offset": 139
            }, 
            "text": "The structures of DNA-nuclear factor \u03baB (PDB 2I9T) and I\u03baB-nuclear factor \u03baB (PDB 1NFI) were superimposed via their respective dimerization domains, generating a ternary complex of DNA-I\u03baB-nuclear factor \u03baB (data not shown)."
        }, 
        {
            "frame-id": "sent-PMC3159447-medscan-140", 
            "frame-type": "sentence", 
            "object-type": "frame", 
            "start-pos": {
                "object-type": "absolute-pos", 
                "offset": 140
            }, 
            "text": "The I\u03baB was then replaced by G9a-like protein (PDB 3B95) via superimposing their respective ankyrin repeats."
        }, 
        {
            "frame-id": "sent-PMC3159447-medscan-141", 
            "frame-type": "sentence", 
            "object-type": "frame", 
            "start-pos": {
                "object-type": "absolute-pos", 
                "offset": 141
            }, 
            "text": "In this model, the Lys310//310-contaning helix or the flexible loop of RelA might undergo intradomain movement to position the Lys310//310 in the methyl-lysine binding cage of the G9a-like protein ankyrin repeat domain, as shown in a."
        }, 
        {
            "frame-id": "sent-PMC3159447-medscan-142", 
            "frame-type": "sentence", 
            "object-type": "frame", 
            "start-pos": {
                "object-type": "absolute-pos", 
                "offset": 142
            }, 
            "text": "The G9a-like protein SET-H3 peptide structure (PDB 3HNA) was manually connected to the G9a-like protein ankyrin repeat domain with a short dotted stretch and (d) A cartoon illustration of the proposed model of signaling cross-talk between the Lys310//310 methylated RelA/p50 heterodimer, the G9a-like protein/G9a heterodimer , and repressive chromatin with H3K9 methylation."
        }, 
        {
            "frame-id": "sent-PMC3159447-medscan-143", 
            "frame-type": "sentence", 
            "object-type": "frame", 
            "start-pos": {
                "object-type": "absolute-pos", 
                "offset": 143
            }, 
            "text": "Three classes of ankyrin repeat domain-containing proteins are involved in controlling nuclear factor \u03baB signaling."
        }, 
        {
            "frame-id": "sent-PMC3159447-medscan-144", 
            "frame-type": "sentence", 
            "object-type": "frame", 
            "start-pos": {
                "object-type": "absolute-pos", 
                "offset": 144
            }, 
            "text": "The nuclear factor \u03baB precursor protein p105 possesses a N-terminal p50 amino acid sequence and its own inhibitory ankyrin repeats within its carboxy-terminal region ."
        }, 
        {
            "frame-id": "sent-PMC3159447-medscan-145", 
            "frame-type": "sentence", 
            "object-type": "frame", 
            "start-pos": {
                "object-type": "absolute-pos", 
                "offset": 145
            }, 
            "text": "Once processed, the nuclear factor \u03baB dimer RelA/p50 exists in the cytoplasm of resting cells by its association with an I\u03baB inhibitor protein ."
        }, 
        {
            "frame-id": "sent-PMC3159447-medscan-146", 
            "frame-type": "sentence", 
            "object-type": "frame", 
            "start-pos": {
                "object-type": "absolute-pos", 
                "offset": 146
            }, 
            "text": "I\u03baB uses its entire ankyrin repeat domain for interacting with the RelA linker region, which includes Lys310//310 [reviewed in ]."
        }, 
        {
            "frame-id": "sent-PMC3159447-medscan-147", 
            "frame-type": "sentence", 
            "object-type": "frame", 
            "start-pos": {
                "object-type": "absolute-pos", 
                "offset": 147
            }, 
            "text": "Active nuclear factor \u03baB accumulates in the nucleus where it preferentially binds a specific DNA sequence in the promoter regions of target genes to activate transcription."
        }, 
        {
            "frame-id": "sent-PMC3159447-medscan-148", 
            "frame-type": "sentence", 
            "object-type": "frame", 
            "start-pos": {
                "object-type": "absolute-pos", 
                "offset": 148
            }, 
            "text": "In addition, Levy et al.  suggested that SETD6-mediated Lys310//310 methylation and its recognition by the ankyrin repeat domain of G9a-like protein renders nuclear factor \u03baB inert due to downstream silencing events mediated by G9a-like protein-associated histone H3lysine 9//9 methylation."
        }, 
        {
            "frame-id": "sent-PMC3159447-medscan-149", 
            "frame-type": "sentence", 
            "object-type": "frame", 
            "start-pos": {
                "object-type": "absolute-pos", 
                "offset": 149
            }, 
            "text": "Encouraged by the known structures of (i) the RelA/p50 heterodimer bound to DNA , (ii) the RelA/p50 heterodimer bound to I\u03baB  and (iii) the G9a-like protein ankyrin repeat domain  and SET domain of G9a-like protein bound with H3 peptide , we modeled a quaternary complex involving DNA, nuclear factor \u03baB (RelA/p50), and G9a-like protein (ankyrin repeats and SET domain) ( c)."
        }, 
        {
            "frame-id": "sent-PMC3159447-medscan-150", 
            "frame-type": "sentence", 
            "object-type": "frame", 
            "start-pos": {
                "object-type": "absolute-pos", 
                "offset": 150
            }, 
            "text": "Our model supports the notion that the SETD6-RelA-G9a-like protein-H3K9me2/1 network constitutes a lysine methylation signaling cascade, initiated by SETD6-mediated RelA methylation at Lys310//310, followed by recruitment of a histone-modifying enzyme (G9a-like protein), which subsequently generates a repressive mark (H3K9me2/1)."
        }, 
        {
            "frame-id": "sent-PMC3159447-medscan-151", 
            "frame-type": "sentence", 
            "object-type": "frame", 
            "start-pos": {
                "object-type": "absolute-pos", 
                "offset": 151
            }, 
            "text": "Finally, it is interesting to note that a different class of nuclear, ankyrin repeat-containing I\u03baB proteins  bind homodimers of p50  that lack tranactivation domains, and the nuclear I\u03baB\u00b7NF-\u03baB complexes can bind DNA as repressors of transcription."
        }, 
        {
            "frame-id": "sent-PMC3159447-medscan-152", 
            "frame-type": "sentence", 
            "object-type": "frame", 
            "start-pos": {
                "object-type": "absolute-pos", 
                "offset": 152
            }, 
            "text": "In this regard, we speculate that the ankyrin repeat-containing G9a-like protein might function as an interaction competitor of nuclear I\u03baB for the RelA subunit, and the resulting H3K9 methylation may reinforce silencing."
        }, 
        {
            "frame-id": "sent-PMC3159447-medscan-153", 
            "frame-type": "sentence", 
            "object-type": "frame", 
            "start-pos": {
                "object-type": "absolute-pos", 
                "offset": 153
            }, 
            "text": "It is possible that the repressive G9a-like protein and G9a heterodimer  allows one of these methyltransferases to interact with RelA and the other to interact with histone H3 ( d)."
        }, 
        {
            "frame-id": "sent-PMC3159447-medscan-154", 
            "frame-type": "sentence", 
            "object-type": "frame", 
            "start-pos": {
                "object-type": "absolute-pos", 
                "offset": 154
            }, 
            "text": "Protein Data Bank: The coordinates and structure factors of the SETD6-RelA peptide-S-adenosyl-l-methionine complex have been deposited with accession numbers 3QXY (with the target lysine in alternative bent and linear conformations) and 3RC0 (with the target lysine in bent conformation)."
        }, 
        {
            "frame-id": "sent-PMC3159447-medscan-155", 
            "frame-type": "sentence", 
            "object-type": "frame", 
            "start-pos": {
                "object-type": "absolute-pos", 
                "offset": 155
            }, 
            "text": "Supplementary Data are available at NAR Online."
        }, 
        {
            "frame-id": "sent-PMC3159447-medscan-156", 
            "frame-type": "sentence", 
            "object-type": "frame", 
            "start-pos": {
                "object-type": "absolute-pos", 
                "offset": 156
            }, 
            "text": "The Department of Biochemistry at the Emory University School of Medicine supported the use of the SER-CAT synchrotron beamline at the Advanced Photon Source of Argonne National Laboratory, local X-ray facility and MALDI-TOF mass spectrometry."
        }, 
        {
            "frame-id": "sent-PMC3159447-medscan-157", 
            "frame-type": "sentence", 
            "object-type": "frame", 
            "start-pos": {
                "object-type": "absolute-pos", 
                "offset": 157
            }, 
            "text": "US National Institutes of Health (Grants GM068680 to X.C. and DA025800 to O.G.); (NIH/NCRR R21RR025822 to J.P.); European Molecular Biology Organization, Human Frontier Science Program, and the Machiah Foundation Fellowship (to D.L., partial); X.C. is a Georgia Research Alliance Eminent Scholar; O.G. is an Ellison Senior Scholar."
        }, 
        {
            "frame-id": "sent-PMC3159447-medscan-158", 
            "frame-type": "sentence", 
            "object-type": "frame", 
            "start-pos": {
                "object-type": "absolute-pos", 
                "offset": 158
            }, 
            "text": "Funding for open access charge: National Institutes of Health."
        }
    ], 
    "object-meta": {
        "component": "MedScan", 
        "component-type": "machine", 
        "doc-id": "PMC3159447", 
        "object-type": "meta-info", 
        "organization": "CMU"
    }, 
    "object-type": "frame-collection"
}
