{
  "evidence": ["Phosphorylation of Serotonin 2A Receptor at Ser280","Quantitative Phosphoproteomics Unravels Biased Phosphorylation of Serotonin 2A Receptor at Ser280 by Hallucinogenic versus Nonhallucinogenic Agonists"],
  "extracted_information": {
    "interaction_type": "adds_modification",
    "negative_information": false,
    "modifications": [
      {
        "modification_type": "phosphorylation",
        "site": 280
      }
    ],
    "participant_b": {
      "entity_text": "Serotonin",
      "entity_type": "chemical",
      "identifier": "CHEBI:350546",
      "in_model": true
    }
  },
  "fries_provenance": [
    {
      "component": "REACH",
      "frame-file": "PMC4014284.uaz.events",
      "frame-id": "evem-PMC4014284-UAZ-r1-0-0-1",
      "passage-id": "pass-PMC4014284-UAZ-r1-0",
      "passage-number": 0,
      "passage-section-id": "N/A",
      "passage-section-name": "article-title",
      "sentence": "Quantitative Phosphoproteomics Unravels Biased Phosphorylation of Serotonin 2A Receptor at Ser280 by Hallucinogenic versus Nonhallucinogenic Agonists",
      "text": "Phosphorylation of Serotonin 2A Receptor at Ser280",
      "uaz-sentence": "Quantitative Phosphoproteomics Unravels Biased Phosphorylation of Serotonin 2A Receptor at Ser280 by Hallucinogenic versus Nonhallucinogenic Agonists",
      "uaz-sentence-start": 0
    }
  ],
  "model_relation": "extension",
  "pmc_id": "PMC4014284",
  "reader_type": "machine",
  "reading_complete": "2015-06-15T23:49:58Z",
  "reading_started": "2015-06-15T23:49:53Z",
  "submitter": "FRIES"
}
