{
  "evidence": ["interaction between Src and Cbl","Since autophosphorylation of Pyk2 at Y402 creates a consensus binding site for the SH2 domain of Src                    , we investigated whether Src , Pyk2 , and possibly Cbl , which is known to interact with Src                     , were present in the same molecular complexes .","Src mutants in which the kinase domain or the whole COOH-terminal half were deleted could still associate with both Pyk2 and Cbl","Src, Pyk2, and possibly Cbl, which is known to interact with Src                     , were present in the same molecular complexes","The adaptor role of Src was further supported by the fact that Src mutants in which the kinase domain or the whole COOH-terminal half were deleted could still associate with both Pyk2 and Cbl                   .","The mutation completely blocked the ability of overexpressed v-Cbl to inhibit the Src 's kinase activity           , implying that while the initial and predominant interaction between Src and Cbl is likely via the Src SH3-Cbl proline rich domains , the PTB domain of Cbl can subsequently bind to the autophosphorylation site on Src 's activation loop to inhibit Src kinase activity ."],
  "extracted_information": {
    "interaction_type": "binds",
    "negative_information": false,
    "participant_a": {
      "entity_text": "Src",
      "entity_type": "protein",
      "identifier": "Uniprot:P12931",
      "in_model": true
    },
    "participant_b": {
      "entity_text": "Cbl",
      "entity_type": "protein",
      "identifier": "Uniprot:P22681",
      "in_model": true
    }
  },
  "fries_provenance": [
    {
      "cmu-sentence-epistemic-status": "implication",
      "cmu-sentence-epistemic-value": 0.6,
      "component": "REACH",
      "frame-file": "PMC2193648.uaz.events",
      "frame-id": "evem-PMC2193648-UAZ-r1-55-6-28",
      "passage-id": "pass-PMC2193648-UAZ-r1-55",
      "passage-number": 55,
      "passage-section-id": "N/A",
      "passage-section-name": "N/A",
      "sentence": "Since autophosphorylation of Pyk2 at Y402 creates a consensus binding site for the SH2 domain of Src                    , we investigated whether Src , Pyk2 , and possibly Cbl , which is known to interact with Src                     , were present in the same molecular complexes .",
      "text": "Src, Pyk2, and possibly Cbl, which is known to interact with Src                     , were present in the same molecular complexes",
      "uaz-event-epistemic-status": "hypothesis",
      "uaz-sentence": "Since autophosphorylation of Pyk2 at Y402 creates a consensus binding site for the SH2 domain of Src                    , we investigated whether Src , Pyk2 , and possibly Cbl , which is known to interact with Src                     , were present in the same molecular complexes .",
      "uaz-sentence-start": 988
    },
    {
      "cmu-sentence-epistemic-status": "implication",
      "cmu-sentence-epistemic-value": 0.6,
      "component": "REACH",
      "frame-file": "PMC2193648.uaz.events",
      "frame-id": "evem-PMC2193648-UAZ-r1-75-2-70",
      "passage-id": "pass-PMC2193648-UAZ-r1-75",
      "passage-number": 75,
      "passage-section-id": "N/A",
      "passage-section-name": "N/A",
      "sentence": "The adaptor role of Src was further supported by the fact that Src mutants in which the kinase domain or the whole COOH-terminal half were deleted could still associate with both Pyk2 and Cbl                   .",
      "text": "Src mutants in which the kinase domain or the whole COOH-terminal half were deleted could still associate with both Pyk2 and Cbl",
      "uaz-sentence": "The adaptor role of Src was further supported by the fact that Src mutants in which the kinase domain or the whole COOH-terminal half were deleted could still associate with both Pyk2 and Cbl                   .",
      "uaz-sentence-start": 444
    },
    {
      "cmu-sentence-epistemic-status": "implication",
      "cmu-sentence-epistemic-value": 0.6,
      "component": "REACH",
      "frame-file": "PMC2193648.uaz.events",
      "frame-id": "evem-PMC2193648-UAZ-r1-87-1-88",
      "passage-id": "pass-PMC2193648-UAZ-r1-87",
      "passage-number": 87,
      "passage-section-id": "N/A",
      "passage-section-name": "N/A",
      "sentence": "The mutation completely blocked the ability of overexpressed v-Cbl to inhibit the Src 's kinase activity           , implying that while the initial and predominant interaction between Src and Cbl is likely via the Src SH3-Cbl proline rich domains , the PTB domain of Cbl can subsequently bind to the autophosphorylation site on Src 's activation loop to inhibit Src kinase activity .",
      "text": "interaction between Src and Cbl",
      "uaz-sentence": "The mutation completely blocked the ability of overexpressed v-Cbl to inhibit the Src 's kinase activity           , implying that while the initial and predominant interaction between Src and Cbl is likely via the Src SH3-Cbl proline rich domains , the PTB domain of Cbl can subsequently bind to the autophosphorylation site on Src 's activation loop to inhibit Src kinase activity .",
      "uaz-sentence-start": 163
    }
  ],
  "model_relation": "extension",
  "pmc_id": "PMC2193648",
  "reader_type": "machine",
  "reading_complete": "2015-06-15T20:01:13Z",
  "reading_started": "2015-06-15T20:01:08Z",
  "submitter": "FRIES"
}
