{
  "evidence": ["beta-catenin reduces the binding of Smad3 to MRTF","Taken together , the results indicate that beta-catenin reduces the binding of Smad3 to MRTF , whereas Smad3 mitigates the binding of beta-catenin to MRTF , and these mutually inhibitory effects do not require the same MRTF sequence ."],
  "extracted_information": {
    "interaction_type": "increases",
    "negative_information": false,
    "participant_a": {
      "entity_text": "beta-catenin",
      "entity_type": "protein",
      "identifier": "Uniprot:P35222",
      "in_model": true
    },
    "participant_b": {
      "entities": [
        {
          "entity_text": "Smad3",
          "entity_type": "protein",
          "identifier": "Uniprot:P84022",
          "in_model": true
        },
        {
          "entity_text": "MRTF",
          "entity_type": "protein",
          "identifier": "ungrounded",
          "in_model": false
        }
      ],
      "entity_type": "complex",
      "in_model": false
    }
  },
  "fries_provenance": [
    {
      "component": "REACH",
      "frame-file": "PMC3226468.uaz.events",
      "frame-id": "evem-PMC3226468-UAZ-r1-51-2-105",
      "passage-id": "pass-PMC3226468-UAZ-r1-51",
      "passage-number": 51,
      "passage-section-id": "N/A",
      "passage-section-name": "N/A",
      "sentence": "Taken together , the results indicate that beta-catenin reduces the binding of Smad3 to MRTF , whereas Smad3 mitigates the binding of beta-catenin to MRTF , and these mutually inhibitory effects do not require the same MRTF sequence .",
      "text": "beta-catenin reduces the binding of Smad3 to MRTF",
      "uaz-event-epistemic-status": "hypothesis",
      "uaz-sentence": "Taken together , the results indicate that beta-catenin reduces the binding of Smad3 to MRTF , whereas Smad3 mitigates the binding of beta-catenin to MRTF , and these mutually inhibitory effects do not require the same MRTF sequence .",
      "uaz-sentence-start": 296
    }
  ],
  "model_relation": "extension",
  "pmc_id": "PMC3226468",
  "reader_type": "machine",
  "reading_complete": "2015-06-15T22:26:39Z",
  "reading_started": "2015-06-15T22:26:34Z",
  "submitter": "FRIES"
}
