{
  "evidence": ["\\u03b2-catenin enhances the myocardin-related transcription factor-Smad3","\\u03b2-catenin reduces the binding of Smad3","\\u03b2-catenin, which neutralizes Smad3","\\u03b2-Catenin inhibits the association of Smad3","Indeed, Smad3 has been reported to bind to Glycogen synthase kinase-3\\u03b2 through its MH2 domain , and we found that the absence of Smad3 suppresses Glycogen synthase kinase-3\\u03b2/myocardin-related transcription factor association and subsequent myocardin-related transcription factor degradation in \\u03b2-catenin-depleted cells.","It was recently reported  that the N-terminal and armadillo domain of \\u03b2-catenin associates with the C-terminal region of Smad3.","Smad3 recruits Glycogen synthase kinase-3\\u03b2 to myocardin-related transcription factor, and this process is counteracted by \\u03b2-catenin","Taken together, the results indicate that \\u03b2-catenin reduces the binding of Smad3 to myocardin-related transcription factor, whereas Smad3 mitigates the binding of \\u03b2-catenin to myocardin-related transcription factor, and these mutually inhibitory effects do not require the same myocardin-related transcription factor sequence.","The central role of \\u03b2-catenin in the myogenic program is substantiated by our findings that \\u03b2-catenin knockdown suppresses the \\u03b1-smooth muscle actin promoter and protein expression induced by AJ disruption or E-cadherin silencing combined with TGF\\u03b2 treatment.","These experiments indicate that \\u03b2-catenin is a negative regulator of the Smad3/myocardin-related transcription factor interaction. \\u03b2-Catenin inhibits the association of Smad3 with myocardin-related transcription factor. (A) Cells were cotransfected with the indicated vectors for 24 h, followed by immunoprecipitation of hemagglutinin-myocardin-related transcription factor."],
  "extracted_information": {
    "interaction_type": "decreases",
    "negative_information": false,
    "participant_a": {
      "entity_text": "\\u03b2-Catenin",
      "entity_type": "protein",
      "identifier": "Uniprot:E9PDF9",
      "in_model": true
    },
    "participant_b": {
      "entity_text": "Smad3",
      "entity_type": "protein",
      "identifier": "Uniprot:P84022",
      "in_model": true
    }
  },
  "fries_provenance": [
    {
      "cmu-sentence-epistemic-status": "implication",
      "cmu-sentence-epistemic-value": 0.6,
      "component": "MedScan",
      "frame-file": "PMC3226468.cmu.medscan",
      "frame-id": "relm-PMC3226468-cmu-medscan-1094",
      "passage-id": "pass-PMC3226468-UAZ-r1-47",
      "passage-number": 47,
      "passage-section-id": "N/A",
      "passage-section-name": "N/A",
      "sentence": "These experiments indicate that \\u03b2-catenin is a negative regulator of the Smad3/myocardin-related transcription factor interaction. \\u03b2-Catenin inhibits the association of Smad3 with myocardin-related transcription factor. (A) Cells were cotransfected with the indicated vectors for 24 h, followed by immunoprecipitation of hemagglutinin-myocardin-related transcription factor.",
      "text": "\\u03b2-Catenin inhibits the association of Smad3",
      "uaz-sentence": "These experiments indicate that beta-catenin is a negative regulator of the Smad3 and MRTF interaction .",
      "uaz-sentence-start": 952
    },
    {
      "component": "MedScan",
      "frame-file": "PMC3226468.cmu.medscan",
      "frame-id": "relm-PMC3226468-cmu-medscan-1096",
      "sentence": "Taken together, the results indicate that \\u03b2-catenin reduces the binding of Smad3 to myocardin-related transcription factor, whereas Smad3 mitigates the binding of \\u03b2-catenin to myocardin-related transcription factor, and these mutually inhibitory effects do not require the same myocardin-related transcription factor sequence.",
      "text": "\\u03b2-catenin reduces the binding of Smad3"
    },
    {
      "cmu-sentence-epistemic-status": "implication",
      "cmu-sentence-epistemic-value": 0.6,
      "component": "MedScan",
      "frame-file": "PMC3226468.cmu.medscan",
      "frame-id": "relm-PMC3226468-cmu-medscan-1112",
      "sentence": "The central role of \\u03b2-catenin in the myogenic program is substantiated by our findings that \\u03b2-catenin knockdown suppresses the \\u03b1-smooth muscle actin promoter and protein expression induced by AJ disruption or E-cadherin silencing combined with TGF\\u03b2 treatment.",
      "text": "\\u03b2-catenin, which neutralizes Smad3"
    },
    {
      "cmu-sentence-epistemic-status": "implication",
      "cmu-sentence-epistemic-value": 0.6,
      "component": "MedScan",
      "frame-file": "PMC3226468.cmu.medscan",
      "frame-id": "relm-PMC3226468-cmu-medscan-1121",
      "passage-id": "pass-PMC3226468-UAZ-r1-74",
      "passage-number": 74,
      "passage-section-id": "N/A",
      "passage-section-name": "N/A",
      "sentence": "It was recently reported  that the N-terminal and armadillo domain of \\u03b2-catenin associates with the C-terminal region of Smad3.",
      "text": "\\u03b2-catenin enhances the myocardin-related transcription factor-Smad3",
      "uaz-sentence": "It was recently reported                      that the N-terminal and armadillo domain of beta-catenin associates with the C-terminal region of Smad3 .",
      "uaz-sentence-start": 1226
    },
    {
      "cmu-sentence-epistemic-status": "implication",
      "cmu-sentence-epistemic-value": 0.6,
      "component": "MedScan",
      "frame-file": "PMC3226468.cmu.medscan",
      "frame-id": "relm-PMC3226468-cmu-medscan-1133",
      "passage-id": "pass-PMC3226468-UAZ-r1-79",
      "passage-number": 79,
      "passage-section-id": "N/A",
      "passage-section-name": "N/A",
      "sentence": "Indeed, Smad3 has been reported to bind to Glycogen synthase kinase-3\\u03b2 through its MH2 domain , and we found that the absence of Smad3 suppresses Glycogen synthase kinase-3\\u03b2/myocardin-related transcription factor association and subsequent myocardin-related transcription factor degradation in \\u03b2-catenin-depleted cells.",
      "text": "Smad3 recruits Glycogen synthase kinase-3\\u03b2 to myocardin-related transcription factor, and this process is counteracted by \\u03b2-catenin",
      "uaz-sentence": "Indeed , Smad3 has been reported to bind to GSK-3beta through its MH2 domain                   , and we found that the absence of Smad3 suppresses GSK-3beta / MRTF association and subsequent MRTF degradation in beta-catenin-depleted cells .",
      "uaz-sentence-start": 163
    },
    {
      "cmu-sentence-epistemic-status": "implication",
      "cmu-sentence-epistemic-value": 0.6,
      "component": "MedScan",
      "frame-file": "PMC3226468.cmu.medscan",
      "frame-id": "relm-PMC3226468-cmu-medscan-1134",
      "passage-id": "pass-PMC3226468-UAZ-r1-79",
      "passage-number": 79,
      "passage-section-id": "N/A",
      "passage-section-name": "N/A",
      "sentence": "Indeed, Smad3 has been reported to bind to Glycogen synthase kinase-3\\u03b2 through its MH2 domain , and we found that the absence of Smad3 suppresses Glycogen synthase kinase-3\\u03b2/myocardin-related transcription factor association and subsequent myocardin-related transcription factor degradation in \\u03b2-catenin-depleted cells.",
      "text": "Smad3 recruits Glycogen synthase kinase-3\\u03b2 to myocardin-related transcription factor, and this process is counteracted by \\u03b2-catenin",
      "uaz-sentence": "Indeed , Smad3 has been reported to bind to GSK-3beta through its MH2 domain                   , and we found that the absence of Smad3 suppresses GSK-3beta / MRTF association and subsequent MRTF degradation in beta-catenin-depleted cells .",
      "uaz-sentence-start": 163
    }
  ],
  "model_relation": "extension",
  "pmc_id": "PMC3226468",
  "reader_type": "machine",
  "reading_complete": "2015-06-15T22:26:39Z",
  "reading_started": "2015-06-15T22:26:34Z",
  "submitter": "FRIES"
}
