{
  "evidence": ["ERK phosphorylation of cortactin","ERK phosphorylation of cortactin at these sites      increases cortactin mediated actin polymerization via association with N-WASP and activation of the Arp2 and 3 complex      and increases cortactin localization to sites of dynamic actin regulation , promoting increased duration of lamellipodia formation     ."],
  "extracted_information": {
    "interaction_type": "adds_modification",
    "negative_information": false,
    "modifications": [
      {
        "modification_type": "phosphorylation"
      }
    ],
    "participant_a": {
      "entity_text": "ERK",
      "entity_type": "protein",
      "identifier": "Uniprot:P29323",
      "in_model": true
    },
    "participant_b": {
      "entity_text": "cortactin",
      "entity_type": "protein",
      "identifier": "Uniprot:Q01406",
      "in_model": false
    }
  },
  "fries_provenance": [
    {
      "cmu-sentence-epistemic-status": "implication",
      "cmu-sentence-epistemic-value": 0.6,
      "component": "REACH",
      "frame-file": "PMC3643583.uaz.events",
      "frame-id": "evem-PMC3643583-UAZ-r1-95-5-189",
      "passage-id": "pass-PMC3643583-UAZ-r1-95",
      "passage-number": 95,
      "passage-section-id": "fig-10",
      "passage-section-name": "fig-10",
      "sentence": "ERK phosphorylation of cortactin at these sites      increases cortactin mediated actin polymerization via association with N-WASP and activation of the Arp2 and 3 complex      and increases cortactin localization to sites of dynamic actin regulation , promoting increased duration of lamellipodia formation     .",
      "text": "ERK phosphorylation of cortactin",
      "uaz-sentence": "ERK phosphorylation of cortactin at these sites      increases cortactin mediated actin polymerization via association with N-WASP and activation of the Arp2 and 3 complex      and increases cortactin localization to sites of dynamic actin regulation , promoting increased duration of lamellipodia formation     .",
      "uaz-sentence-start": 914
    }
  ],
  "model_relation": "extension",
  "pmc_id": "PMC3643583",
  "reader_type": "machine",
  "reading_complete": "2015-06-15T23:19:38Z",
  "reading_started": "2015-06-15T23:19:33Z",
  "submitter": "FRIES"
}
