{
    "frames": [
        {
            "frame-id": "sent-PMC3522594-cmu-0", 
            "frame-type": "sentence", 
            "object-type": "frame", 
            "start-pos": {
                "object-type": "absolute-pos", 
                "offset": 0
            }, 
            "text": "XML Paper ( id '3522594 ' ) : 'Effects of Exposure to a DNA Damaging Agent on the Hypoxia Inducible Factors in Organogenesis Stage Mouse Limbs '"
        }, 
        {
            "frame-id": "sent-PMC3522594-cmu-1", 
            "frame-type": "sentence", 
            "object-type": "frame", 
            "start-pos": {
                "object-type": "absolute-pos", 
                "offset": 1
            }, 
            "text": "Introduction"
        }, 
        {
            "frame-id": "sent-PMC3522594-cmu-2", 
            "frame-type": "sentence", 
            "object-type": "frame", 
            "start-pos": {
                "object-type": "absolute-pos", 
                "offset": 2
            }, 
            "text": "Early organogenesis stage mammalian embryos develop normally only in a relatively hypoxic environment ."
        }, 
        {
            "frame-id": "sent-PMC3522594-cmu-3", 
            "frame-type": "sentence", 
            "object-type": "frame", 
            "start-pos": {
                "object-type": "absolute-pos", 
                "offset": 3
            }, 
            "text": "Indeed , exposure to O2 tensions that are either too low or too high has an adverse consequence ."
        }, 
        {
            "frame-id": "sent-PMC3522594-cmu-4", 
            "frame-type": "sentence", 
            "object-type": "frame", 
            "start-pos": {
                "object-type": "absolute-pos", 
                "offset": 4
            }, 
            "text": "For example , early headfold stage rat embryos develop optimally in culture with 5 % O2 ; exposure of gestation day 9 embryos to even physiological O2 ( 20 % ) results in neural tube malformations [ 1 ] ."
        }, 
        {
            "frame-id": "sent-PMC3522594-cmu-5", 
            "frame-type": "sentence", 
            "object-type": "frame", 
            "start-pos": {
                "object-type": "absolute-pos", 
                "offset": 5
            }, 
            "text": "Hypoxia is important in the regulation of energy metabolism , heart development , angiogenesis , chondrogenesis , endochondral bone formation and cell death [ 2 ] ."
        }, 
        {
            "frame-id": "sent-PMC3522594-cmu-6", 
            "frame-type": "sentence", 
            "object-type": "frame", 
            "start-pos": {
                "object-type": "absolute-pos", 
                "offset": 6
            }, 
            "text": "Hypoxia-inducible factors ( HIFs ) are transcription factors that play an essential role in the response of cells to hypoxia ."
        }, 
        {
            "frame-id": "sent-PMC3522594-cmu-7", 
            "frame-type": "sentence", 
            "object-type": "frame", 
            "start-pos": {
                "object-type": "absolute-pos", 
                "offset": 7
            }, 
            "text": "The HIFA proteins form heterodimers with the HIFB subunit , previously identified as the aryl hydrocarbon receptor nuclear translocator ( ARNT ) , and bind to the hypoxia response element in target genes that include phosphoglycerate kinase 1 ( Pgk1 ) , vascular endothelial growth factor ( Vegfa ) , erythropoietin ( Epo ) , and transforming growth factor \u03b2 ( Tgfb1 ) , as well as pro-apoptotic genes , such as BCL2/adenovirus E1B interacting protein 3 ( Bnip3 ) [ 3 ] ."
        }, 
        {
            "frame-id": "sent-PMC3522594-cmu-8", 
            "frame-type": "sentence", 
            "object-type": "frame", 
            "start-pos": {
                "object-type": "absolute-pos", 
                "offset": 8
            }, 
            "text": "The O2-dependence of HIF transcription factor activity may be regulated at the level of transcription , translation , or post-translational modifications [ 3 ] , but much of the literature has focused on protein stability ."
        }, 
        {
            "frame-id": "sent-PMC3522594-cmu-9", 
            "frame-type": "sentence", 
            "object-type": "frame", 
            "start-pos": {
                "object-type": "absolute-pos", 
                "offset": 9
            }, 
            "text": "HIFA proteins are hydroxylated on specific amino acid residues by O2-dependent prolyl and asparaginyl hydroxylases ; hydroxylated HIFa proteins are recognized and targeted for polyubiquitination and proteasomal degradation by von Hippel Lindau tumour suppressor protein ( pVHL ) [ 4 ] ."
        }, 
        {
            "frame-id": "sent-PMC3522594-cmu-10", 
            "frame-type": "sentence", 
            "object-type": "frame", 
            "start-pos": {
                "object-type": "absolute-pos", 
                "offset": 10
            }, 
            "text": "Under hypoxic conditions , hydroxylation is reduced , binding to pVHL does not occur , and the HIFA proteins are stabilized , translocated to the nucleus , and interact with HIF1B [ 5 ] ."
        }, 
        {
            "frame-id": "sent-PMC3522594-cmu-11", 
            "frame-type": "sentence", 
            "object-type": "frame", 
            "start-pos": {
                "object-type": "absolute-pos", 
                "offset": 11
            }, 
            "text": "Under conditions of normoxia , exogenous stimuli , such as retinoic acid , lipopolysaccharides , glucose , or maternal undernutrition , may alter HIF transcription factor activity but little is known about the underlying mechanisms [ 6 ] , [ 7 ] ."
        }, 
        {
            "frame-id": "sent-PMC3522594-cmu-12", 
            "frame-type": "sentence", 
            "object-type": "frame", 
            "start-pos": {
                "object-type": "absolute-pos", 
                "offset": 12
            }, 
            "text": "There are three Hifa genes , Hif1a , Hif2a and Hif3a ."
        }, 
        {
            "frame-id": "sent-PMC3522594-cmu-13", 
            "frame-type": "sentence", 
            "object-type": "frame", 
            "start-pos": {
                "object-type": "absolute-pos", 
                "offset": 13
            }, 
            "text": "Hif1a and Hif2a are co-expressed in many cell types and have partially overlapping but non-redundant roles [ 8 ] , [ 9 ] ."
        }, 
        {
            "frame-id": "sent-PMC3522594-cmu-14", 
            "frame-type": "sentence", 
            "object-type": "frame", 
            "start-pos": {
                "object-type": "absolute-pos", 
                "offset": 14
            }, 
            "text": "The Hif3a mRNA is differentially spliced to produce multiple HIF3A isoforms that promote or inhibit the activities of HIF1A and HIF2A [ 10 ] ."
        }, 
        {
            "frame-id": "sent-PMC3522594-cmu-15", 
            "frame-type": "sentence", 
            "object-type": "frame", 
            "start-pos": {
                "object-type": "absolute-pos", 
                "offset": 15
            }, 
            "text": "Hif1a expression is elevated in the cranial neuroepithelium , branchial arches , limb buds and tail of mid-gestation mouse embryos [ 11 ] ."
        }, 
        {
            "frame-id": "sent-PMC3522594-cmu-16", 
            "frame-type": "sentence", 
            "object-type": "frame", 
            "start-pos": {
                "object-type": "absolute-pos", 
                "offset": 16
            }, 
            "text": "Mice that lack Hif1a have severe defects by gestation day 9.5 , including open neural tube and heart malformations [ 12 ] , [ 13 ] ."
        }, 
        {
            "frame-id": "sent-PMC3522594-cmu-17", 
            "frame-type": "sentence", 
            "object-type": "frame", 
            "start-pos": {
                "object-type": "absolute-pos", 
                "offset": 17
            }, 
            "text": "Downregulation of Hif1a , associated with the administration of a retinoic acid receptor antagonist , produces cardiac defects [ 14 ] , whereas overexpression is associated with an increased incidence of preeclampsia and intra-uterine growth retardation [ 15 ] ."
        }, 
        {
            "frame-id": "sent-PMC3522594-cmu-18", 
            "frame-type": "sentence", 
            "object-type": "frame", 
            "start-pos": {
                "object-type": "absolute-pos", 
                "offset": 18
            }, 
            "text": "Hif2a ( Epas1 gene ) is expressed predominantly in endothelial cells of the embryo and adult mouse [ 16 ] ; Hif2a deficiency results in embryonic or perinatal mortality or survival with multiple organ deficiencies [ 17 ] ."
        }, 
        {
            "frame-id": "sent-PMC3522594-cmu-19", 
            "frame-type": "sentence", 
            "object-type": "frame", 
            "start-pos": {
                "object-type": "absolute-pos", 
                "offset": 19
            }, 
            "text": "Homozygous mutant mice in which the first exon of Hif3a is replaced are viable but display enlargement of the right ventricle and impaired lung remodeling [ 18 ] ."
        }, 
        {
            "frame-id": "sent-PMC3522594-cmu-20", 
            "frame-type": "sentence", 
            "object-type": "frame", 
            "start-pos": {
                "object-type": "absolute-pos", 
                "offset": 20
            }, 
            "text": "Together , these studies suggest that the HIFA proteins play critical , non-overlapping , roles in development ."
        }, 
        {
            "frame-id": "sent-PMC3522594-cmu-21", 
            "frame-type": "sentence", 
            "object-type": "frame", 
            "start-pos": {
                "object-type": "absolute-pos", 
                "offset": 21
            }, 
            "text": "Chondrogenesis and apoptosis are key processes in limb development [ 19 ] ."
        }, 
        {
            "frame-id": "sent-PMC3522594-cmu-22", 
            "frame-type": "sentence", 
            "object-type": "frame", 
            "start-pos": {
                "object-type": "absolute-pos", 
                "offset": 22
            }, 
            "text": "Mesenchymal cells form pre-chondrogenic condensations and differentiate into the cartilage anlagen of the limb , taking on their regional identities in a temporal proximal-distal fashion ."
        }, 
        {
            "frame-id": "sent-PMC3522594-cmu-23", 
            "frame-type": "sentence", 
            "object-type": "frame", 
            "start-pos": {
                "object-type": "absolute-pos", 
                "offset": 23
            }, 
            "text": "Programmed cell death is the basic mechanism by which the limb is shaped ."
        }, 
        {
            "frame-id": "sent-PMC3522594-cmu-24", 
            "frame-type": "sentence", 
            "object-type": "frame", 
            "start-pos": {
                "object-type": "absolute-pos", 
                "offset": 24
            }, 
            "text": "There is evidence that the HIF proteins play an important role in the regulation of chondrogenesis and cell death ."
        }, 
        {
            "frame-id": "sent-PMC3522594-cmu-25", 
            "frame-type": "sentence", 
            "object-type": "frame", 
            "start-pos": {
                "object-type": "absolute-pos", 
                "offset": 25
            }, 
            "text": "HIF1A and HIF2A activate expression of Sox9 , a key regulator of chondrogenesis [ 20 ] , [ 21 ] ."
        }, 
        {
            "frame-id": "sent-PMC3522594-cmu-26", 
            "frame-type": "sentence", 
            "object-type": "frame", 
            "start-pos": {
                "object-type": "absolute-pos", 
                "offset": 26
            }, 
            "text": "Deletion of Hif1a early or late during chondrogenesis leads to cell death in the proximal limb bones and severe limb shortening [ 22 ] , [ 23 ] ."
        }, 
        {
            "frame-id": "sent-PMC3522594-cmu-27", 
            "frame-type": "sentence", 
            "object-type": "frame", 
            "start-pos": {
                "object-type": "absolute-pos", 
                "offset": 27
            }, 
            "text": "In animal studies , temporary periods of hypoxia , due to a constriction of the uterine arteries or exposure to drugs that induce hypoxia by affecting the maternal cardiovascular system , lead to birth defects such as transverse limb reduction defects or heart defects [ 24 ] ."
        }, 
        {
            "frame-id": "sent-PMC3522594-cmu-28", 
            "frame-type": "sentence", 
            "object-type": "frame", 
            "start-pos": {
                "object-type": "absolute-pos", 
                "offset": 28
            }, 
            "text": "The culture of gestation day 10.5 rat embryos in 10\u201315 % O2 increased the incidence of malformations and the extent of oxidative stress [ 25 ] ."
        }, 
        {
            "frame-id": "sent-PMC3522594-cmu-29", 
            "frame-type": "sentence", 
            "object-type": "frame", 
            "start-pos": {
                "object-type": "absolute-pos", 
                "offset": 29
            }, 
            "text": "Our interest in the role of hypoxia signalling in mediating the effects of teratogenic exposures on embryo development was triggered by the observation that exposure to a DNA damaging teratogen , 4-hydroperoxycyclophosphamide ( 4-OOHCPA ) , increased Hif1a expression in cultured murine limb buds [ 26 ] ."
        }, 
        {
            "frame-id": "sent-PMC3522594-cmu-30", 
            "frame-type": "sentence", 
            "object-type": "frame", 
            "start-pos": {
                "object-type": "absolute-pos", 
                "offset": 30
            }, 
            "text": "The teratogenicity of cyclophosphamide , an anticancer nitrogen mustard drug , has been well characterized in several species in vivo [ 27 ] ."
        }, 
        {
            "frame-id": "sent-PMC3522594-cmu-31", 
            "frame-type": "sentence", 
            "object-type": "frame", 
            "start-pos": {
                "object-type": "absolute-pos", 
                "offset": 31
            }, 
            "text": "4-OOHCPA , a preactivated analog of cyclophosphamide , causes growth reduction and digit defects in the limb bud culture system [ 28 ] ; since this is an in vitro model , the effect is direct , i.e ."
        }, 
        {
            "frame-id": "sent-PMC3522594-cmu-32", 
            "frame-type": "sentence", 
            "object-type": "frame", 
            "start-pos": {
                "object-type": "absolute-pos", 
                "offset": 32
            }, 
            "text": "not due to the induction of hypoxia in the dam ."
        }, 
        {
            "frame-id": "sent-PMC3522594-cmu-33", 
            "frame-type": "sentence", 
            "object-type": "frame", 
            "start-pos": {
                "object-type": "absolute-pos", 
                "offset": 33
            }, 
            "text": "We hypothesize that teratogenic exposures disrupt limb development by altering the hypoxia signalling pathway ."
        }, 
        {
            "frame-id": "sent-PMC3522594-cmu-34", 
            "frame-type": "sentence", 
            "object-type": "frame", 
            "start-pos": {
                "object-type": "absolute-pos", 
                "offset": 34
            }, 
            "text": "To test this hypothesis , we determined the impact of exposure to 4-OOHCPA on HIF DNA binding activity and the expression and activity of the HIF transcription factors in limbs ."
        }, 
        {
            "frame-id": "sent-PMC3522594-cmu-35", 
            "frame-type": "sentence", 
            "object-type": "frame", 
            "start-pos": {
                "object-type": "absolute-pos", 
                "offset": 35
            }, 
            "text": "Furthermore , to elucidate the oxygen-dependence of this HIF response , we compared the localization of HIFA proteins with that of hypoxia in limb ."
        }, 
        {
            "frame-id": "sent-PMC3522594-cmu-36", 
            "frame-type": "sentence", 
            "object-type": "frame", 
            "start-pos": {
                "object-type": "absolute-pos", 
                "offset": 36
            }, 
            "text": "Together , the results of this study reveal that the HIFs have oxygen-independent functions during limb development , particularly in regulating cell death ."
        }, 
        {
            "frame-id": "sent-PMC3522594-cmu-37", 
            "frame-type": "sentence", 
            "object-type": "frame", 
            "start-pos": {
                "object-type": "absolute-pos", 
                "offset": 37
            }, 
            "text": "Materials and Methods"
        }, 
        {
            "frame-id": "sent-PMC3522594-cmu-38", 
            "frame-type": "sentence", 
            "object-type": "frame", 
            "start-pos": {
                "object-type": "absolute-pos", 
                "offset": 38
            }, 
            "text": "Limb Bud Cultures and Drug Treatments"
        }, 
        {
            "frame-id": "sent-PMC3522594-cmu-39", 
            "frame-type": "sentence", 
            "object-type": "frame", 
            "start-pos": {
                "object-type": "absolute-pos", 
                "offset": 39
            }, 
            "text": "Ethics statement"
        }, 
        {
            "frame-id": "sent-PMC3522594-cmu-40", 
            "frame-type": "sentence", 
            "object-type": "frame", 
            "start-pos": {
                "object-type": "absolute-pos", 
                "offset": 40
            }, 
            "text": "This study was done in accordance with the guidelines of the Canadian Council on Animal Care for the ethical use and care of animals in science ."
        }, 
        {
            "frame-id": "sent-PMC3522594-cmu-41", 
            "frame-type": "sentence", 
            "object-type": "frame", 
            "start-pos": {
                "object-type": "absolute-pos", 
                "offset": 41
            }, 
            "text": "The protocol ( Protocol Number 1825 ) was approved by the Animal Care Committee of McGill University ."
        }, 
        {
            "frame-id": "sent-PMC3522594-cmu-42", 
            "frame-type": "sentence", 
            "object-type": "frame", 
            "start-pos": {
                "object-type": "absolute-pos", 
                "offset": 42
            }, 
            "text": "Timed-pregnant CD1 mice ( 20\u201325 g ) , mated between 8\u223600 and 10\u223600 ( gestation day 0 ) , were purchased from Charles River Canada Inc. ( St ."
        }, 
        {
            "frame-id": "sent-PMC3522594-cmu-43", 
            "frame-type": "sentence", 
            "object-type": "frame", 
            "start-pos": {
                "object-type": "absolute-pos", 
                "offset": 43
            }, 
            "text": "Constant , QC ) and housed at the McIntyre Animal Centre ( McGill University , Montr\u00e9al , QC ) ."
        }, 
        {
            "frame-id": "sent-PMC3522594-cmu-44", 
            "frame-type": "sentence", 
            "object-type": "frame", 
            "start-pos": {
                "object-type": "absolute-pos", 
                "offset": 44
            }, 
            "text": "Between 8\u223600 and 10\u223600 on gestation day 12 , females were killed by CO2 overdose and cervical dislocation , uteri were removed , and the embryos were dissected out in sterile Hank\u2019s Balanced Salt Solution ; the embryos at this time were 5\u20136 mm in length with about 42 somite pairs ."
        }, 
        {
            "frame-id": "sent-PMC3522594-cmu-45", 
            "frame-type": "sentence", 
            "object-type": "frame", 
            "start-pos": {
                "object-type": "absolute-pos", 
                "offset": 45
            }, 
            "text": "Forelimbs were excised just lateral to the somites , pooled , and cultured in 6 ml of culture medium consisting of 75 % BGJb Medium ( GIBCO BRL Products , Burlington , ON ) and 25 % salt solution supplemented with ascorbic acid ( 160 \u00b5g/ml ) and gentamycin ( 1 \u00b5l/ml , GIBCO BRL Products ) , as previously described [ 26 ] , [ 28 ] ."
        }, 
        {
            "frame-id": "sent-PMC3522594-cmu-46", 
            "frame-type": "sentence", 
            "object-type": "frame", 
            "start-pos": {
                "object-type": "absolute-pos", 
                "offset": 46
            }, 
            "text": "4-Hydroperoxycyclophosphamide ( 4-OOHCPA ; a gift from Dr. S. Ludeman ) or distilled water was added to the designated cultures ."
        }, 
        {
            "frame-id": "sent-PMC3522594-cmu-47", 
            "frame-type": "sentence", 
            "object-type": "frame", 
            "start-pos": {
                "object-type": "absolute-pos", 
                "offset": 47
            }, 
            "text": "The cultures were terminated at the specified times ."
        }, 
        {
            "frame-id": "sent-PMC3522594-cmu-48", 
            "frame-type": "sentence", 
            "object-type": "frame", 
            "start-pos": {
                "object-type": "absolute-pos", 
                "offset": 48
            }, 
            "text": "HIF1 DNA Binding Activity Determination with ELISA"
        }, 
        {
            "frame-id": "sent-PMC3522594-cmu-49", 
            "frame-type": "sentence", 
            "object-type": "frame", 
            "start-pos": {
                "object-type": "absolute-pos", 
                "offset": 49
            }, 
            "text": "Limbs were cultured for 0.5 , 1 , 3 , or 6 h , in the presence or absence of 4-OOHCPA ( 1 \u00b5g/ml or 3 \u00b5g/ml ) ."
        }, 
        {
            "frame-id": "sent-PMC3522594-cmu-50", 
            "frame-type": "sentence", 
            "object-type": "frame", 
            "start-pos": {
                "object-type": "absolute-pos", 
                "offset": 50
            }, 
            "text": "In previous studies , we showed that exposure to these concentrations of 4-OOHCPA had marked effects on long bone outgrowth , digit formation and cell death ; HIF1A expression was induced by 3 h [ 26 ] , [ 28 ] ."
        }, 
        {
            "frame-id": "sent-PMC3522594-cmu-51", 
            "frame-type": "sentence", 
            "object-type": "frame", 
            "start-pos": {
                "object-type": "absolute-pos", 
                "offset": 51
            }, 
            "text": "Eight fresh limbs from each treatment group were used to prepare nuclear extracts ( Nuclear Extract Kit , Active Motif , Carlsbad , CA ) following the manufacturer 's recommendations ."
        }, 
        {
            "frame-id": "sent-PMC3522594-cmu-52", 
            "frame-type": "sentence", 
            "object-type": "frame", 
            "start-pos": {
                "object-type": "absolute-pos", 
                "offset": 52
            }, 
            "text": "Nuclear protein concentrations were assessed with the Bio-Rad Laboratories protein spectrophotometric assay ( Mississauga , ON , Canada ) ."
        }, 
        {
            "frame-id": "sent-PMC3522594-cmu-53", 
            "frame-type": "sentence", 
            "object-type": "frame", 
            "start-pos": {
                "object-type": "absolute-pos", 
                "offset": 53
            }, 
            "text": "The HIF1 heterodimer complex DNA binding activity was detected using TransAM\u2122 Chemi Kits ( Active Motif ) in which an oligonucleotide containing the hypoxia response element from the Epo gene ( 5\u2032- TACGTGCT-3\u2032 ) is immobilized on 96 well plates ."
        }, 
        {
            "frame-id": "sent-PMC3522594-cmu-54", 
            "frame-type": "sentence", 
            "object-type": "frame", 
            "start-pos": {
                "object-type": "absolute-pos", 
                "offset": 54
            }, 
            "text": "The primary antibody recognizes an epitope on HIF1A that is accessible after DNA binding ; conjugation of the secondary antibody to horseradish peroxidase provides a colorimetric readout ."
        }, 
        {
            "frame-id": "sent-PMC3522594-cmu-55", 
            "frame-type": "sentence", 
            "object-type": "frame", 
            "start-pos": {
                "object-type": "absolute-pos", 
                "offset": 55
            }, 
            "text": "Three or four separate replicates ( each with limbs obtained from different litters ) were done for each treatment and time point ; values represent means \u00b1 SEM ."
        }, 
        {
            "frame-id": "sent-PMC3522594-cmu-56", 
            "frame-type": "sentence", 
            "object-type": "frame", 
            "start-pos": {
                "object-type": "absolute-pos", 
                "offset": 56
            }, 
            "text": "The data were analyzed by one-way ANOVA using the SigmaPlot version 12 software program ( Systat Software Inc. , Chicago , IL ) ."
        }, 
        {
            "frame-id": "sent-PMC3522594-cmu-57", 
            "frame-type": "sentence", 
            "object-type": "frame", 
            "start-pos": {
                "object-type": "absolute-pos", 
                "offset": 57
            }, 
            "text": "The level of significance was taken as P < 0.05 ."
        }, 
        {
            "frame-id": "sent-PMC3522594-cmu-58", 
            "frame-type": "sentence", 
            "object-type": "frame", 
            "start-pos": {
                "object-type": "absolute-pos", 
                "offset": 58
            }, 
            "text": "Mouse HIF-Regulated cDNA Plate Arrays"
        }, 
        {
            "frame-id": "sent-PMC3522594-cmu-59", 
            "frame-type": "sentence", 
            "object-type": "frame", 
            "start-pos": {
                "object-type": "absolute-pos", 
                "offset": 59
            }, 
            "text": "Consequences on target gene expression were assessed in limbs cultured in the presence or absence of 1 \u00b5g/ml of 4-OOHCPA for 3 or 6 h ( since the HIF1 DNA binding activity experiments , described above , revealed that binding was increased significantly in limbs exposed to this concentration for 3 h ) ."
        }, 
        {
            "frame-id": "sent-PMC3522594-cmu-60", 
            "frame-type": "sentence", 
            "object-type": "frame", 
            "start-pos": {
                "object-type": "absolute-pos", 
                "offset": 60
            }, 
            "text": "Total RNA was isolated using RNeasy\u00ae Micro Kits ( Qiagen , Mississauga , ON ) , following the manufacturer\u2019s recommendations ."
        }, 
        {
            "frame-id": "sent-PMC3522594-cmu-61", 
            "frame-type": "sentence", 
            "object-type": "frame", 
            "start-pos": {
                "object-type": "absolute-pos", 
                "offset": 61
            }, 
            "text": "The RNA ( 2.5 \u00b5g/sample ) was reverse transcribed into cDNA in the presence of biotin-dUTP and then hybridized to Mouse HIF-Regulated cDNA Plate Arrays pre-coated with the specific oligonucleotides for 23 HIF-regulated genes ( Signosis , Inc. , Sunnyvale , CA ) ."
        }, 
        {
            "frame-id": "sent-PMC3522594-cmu-62", 
            "frame-type": "sentence", 
            "object-type": "frame", 
            "start-pos": {
                "object-type": "absolute-pos", 
                "offset": 62
            }, 
            "text": "The cDNAs bound to these oligonucleotides were detected with streptavidin-horseradish peroxidase using a horseradish peroxidase chemiluminescent substrate and the LUMIstar Galaxy plate reader ( BMG Labtech/Fisher Scientific , Nepean , ON , Canada ) ."
        }, 
        {
            "frame-id": "sent-PMC3522594-cmu-63", 
            "frame-type": "sentence", 
            "object-type": "frame", 
            "start-pos": {
                "object-type": "absolute-pos", 
                "offset": 63
            }, 
            "text": "Procedures for the generation of the biotin-labeled cDNAs by in vitro transcription , the hybridization to the array , washing , and scanning were all conducted in accordance with the manufacturer\u2019s recommendations ."
        }, 
        {
            "frame-id": "sent-PMC3522594-cmu-64", 
            "frame-type": "sentence", 
            "object-type": "frame", 
            "start-pos": {
                "object-type": "absolute-pos", 
                "offset": 64
            }, 
            "text": "Five separate replicates were done for each treatment and time point ."
        }, 
        {
            "frame-id": "sent-PMC3522594-cmu-65", 
            "frame-type": "sentence", 
            "object-type": "frame", 
            "start-pos": {
                "object-type": "absolute-pos", 
                "offset": 65
            }, 
            "text": "The raw chemiluminescent intensities obtained from the LUMIstar Galaxy plate reader were imported into GeneSpring ( version 11.5.1 ; Agilent Technologies , Palo Alto , CA ) for analysis ."
        }, 
        {
            "frame-id": "sent-PMC3522594-cmu-66", 
            "frame-type": "sentence", 
            "object-type": "frame", 
            "start-pos": {
                "object-type": "absolute-pos", 
                "offset": 66
            }, 
            "text": "To minimize experimental variation , the ratio of the cDNA intensity for the 18S rRNA of each replicate to the average 18S intensity for all replicates , including both control and treated groups , was used as an internal control ."
        }, 
        {
            "frame-id": "sent-PMC3522594-cmu-67", 
            "frame-type": "sentence", 
            "object-type": "frame", 
            "start-pos": {
                "object-type": "absolute-pos", 
                "offset": 67
            }, 
            "text": "Thus , the intensity of each gene was adjusted for the 18S ratio of the replicate ."
        }, 
        {
            "frame-id": "sent-PMC3522594-cmu-68", 
            "frame-type": "sentence", 
            "object-type": "frame", 
            "start-pos": {
                "object-type": "absolute-pos", 
                "offset": 68
            }, 
            "text": "Changes in gene expression were considered only when the difference in expression level was at least 1.5-fold control ; a 1.5-fold change is equivalent to an increase by 50 % or a decrease by 33 % ."
        }, 
        {
            "frame-id": "sent-PMC3522594-cmu-69", 
            "frame-type": "sentence", 
            "object-type": "frame", 
            "start-pos": {
                "object-type": "absolute-pos", 
                "offset": 69
            }, 
            "text": "The expression of genes in the 4-OOHCPA treated limbs that passed this \u22651.5-fold change filter was compared to that in control limbs by the Student\u2019s t-test with the Benjamini and Hochberg multiple comparisons correction and a false detection rate of 5 % ."
        }, 
        {
            "frame-id": "sent-PMC3522594-cmu-70", 
            "frame-type": "sentence", 
            "object-type": "frame", 
            "start-pos": {
                "object-type": "absolute-pos", 
                "offset": 70
            }, 
            "text": "Real-time qRT-PCR Analysis of Matrix Metallopeptidase 2 ( Mmp2 ) Gene Expression"
        }, 
        {
            "frame-id": "sent-PMC3522594-cmu-71", 
            "frame-type": "sentence", 
            "object-type": "frame", 
            "start-pos": {
                "object-type": "absolute-pos", 
                "offset": 71
            }, 
            "text": "Limbs were cultured in the presence or absence of 4-OOHCPA ( 1 \u00b5g/ml ) for 3 or 6 h and then stored in RNAlater RNA Stabilization Reagent ( Qiagen ) at \u221220\u00b0C ."
        }, 
        {
            "frame-id": "sent-PMC3522594-cmu-72", 
            "frame-type": "sentence", 
            "object-type": "frame", 
            "start-pos": {
                "object-type": "absolute-pos", 
                "offset": 72
            }, 
            "text": "Total RNA for real-time qRT-PCR analysis was isolated using the RNeasy\u00ae Micro Kit ( Qiagen ) , following the manufacturer\u2019s recommendations ."
        }, 
        {
            "frame-id": "sent-PMC3522594-cmu-73", 
            "frame-type": "sentence", 
            "object-type": "frame", 
            "start-pos": {
                "object-type": "absolute-pos", 
                "offset": 73
            }, 
            "text": "qRT-PCR analysis of Mmp2 gene expression was done using One step QuantiTect\u00ae SYBR\u00ae Green RT-PCR analysis ( Qiagen ) ."
        }, 
        {
            "frame-id": "sent-PMC3522594-cmu-74", 
            "frame-type": "sentence", 
            "object-type": "frame", 
            "start-pos": {
                "object-type": "absolute-pos", 
                "offset": 74
            }, 
            "text": "First-strand cDNA was synthesized from 10 ng of total RNA using an optimized blend of Omniscript and Sensiscript Reverse Transcriptases ( Qiagen ) ."
        }, 
        {
            "frame-id": "sent-PMC3522594-cmu-75", 
            "frame-type": "sentence", 
            "object-type": "frame", 
            "start-pos": {
                "object-type": "absolute-pos", 
                "offset": 75
            }, 
            "text": "The primers were generated with Primer3 software ( http : //frodo.wi.mit.edu ) and produced by Alpha DNA ( Montreal , QC , Canada ) ."
        }, 
        {
            "frame-id": "sent-PMC3522594-cmu-76", 
            "frame-type": "sentence", 
            "object-type": "frame", 
            "start-pos": {
                "object-type": "absolute-pos", 
                "offset": 76
            }, 
            "text": "Reactions containing 10 pmol each of the left ( TTCAACGGTCGGGAATACA ) and right ( AGCCATACTTGCCATCCTTC ) primers and the SYBR Green PT-PCR Mix were amplified in a final volume of 20 \u00b5l ."
        }, 
        {
            "frame-id": "sent-PMC3522594-cmu-77", 
            "frame-type": "sentence", 
            "object-type": "frame", 
            "start-pos": {
                "object-type": "absolute-pos", 
                "offset": 77
            }, 
            "text": "Cycling parameters were : 50\u00b0C for 20 min for the reverse transcription reaction , 95\u00b0C for 15 min for primer activation , followed by 45 cycles of denaturation at 94\u00b0C for 15 s , annealing at 55\u00b0C for 30 s , and primer extension at 72\u00b0C for 20 s. Amplification reactions and fluorescent measurements were done using a real-time LightCycler\u00ae ( Roche Diagnostics , Laval , QC , Canada ) ."
        }, 
        {
            "frame-id": "sent-PMC3522594-cmu-78", 
            "frame-type": "sentence", 
            "object-type": "frame", 
            "start-pos": {
                "object-type": "absolute-pos", 
                "offset": 78
            }, 
            "text": "A melting curve analysis was done on all samples to confirm the amplification specificity ."
        }, 
        {
            "frame-id": "sent-PMC3522594-cmu-79", 
            "frame-type": "sentence", 
            "object-type": "frame", 
            "start-pos": {
                "object-type": "absolute-pos", 
                "offset": 79
            }, 
            "text": "The relative quantification data were obtained by comparison of the sample fluorescence with a standard curve that was amplified in parallel ; this standard curve consisted of first-strand cDNA generated from hindlimb total RNA ."
        }, 
        {
            "frame-id": "sent-PMC3522594-cmu-80", 
            "frame-type": "sentence", 
            "object-type": "frame", 
            "start-pos": {
                "object-type": "absolute-pos", 
                "offset": 80
            }, 
            "text": "Parallel amplification of 18S rRNA ( Rn18s ) was used as an internal control to normalize the gene expression ( left primer : AAACGGCTACCACATCCAAG , right primer : CCTCCAATGGATCCTCGTTA ) ."
        }, 
        {
            "frame-id": "sent-PMC3522594-cmu-81", 
            "frame-type": "sentence", 
            "object-type": "frame", 
            "start-pos": {
                "object-type": "absolute-pos", 
                "offset": 81
            }, 
            "text": "Amplifications were done in duplicate ; the results are from six independent cultures of each treatment group , with a minimum of four limbs per replicate ."
        }, 
        {
            "frame-id": "sent-PMC3522594-cmu-82", 
            "frame-type": "sentence", 
            "object-type": "frame", 
            "start-pos": {
                "object-type": "absolute-pos", 
                "offset": 82
            }, 
            "text": "Data were analyzed using one-way ANOVA and the post-hoc Dunnett multiple comparison test ( SigmaPlot 12 , Systat Software , Inc. , San Jose , CA ) ."
        }, 
        {
            "frame-id": "sent-PMC3522594-cmu-83", 
            "frame-type": "sentence", 
            "object-type": "frame", 
            "start-pos": {
                "object-type": "absolute-pos", 
                "offset": 83
            }, 
            "text": "The level of significance was taken as p\u22640.05 ."
        }, 
        {
            "frame-id": "sent-PMC3522594-cmu-84", 
            "frame-type": "sentence", 
            "object-type": "frame", 
            "start-pos": {
                "object-type": "absolute-pos", 
                "offset": 84
            }, 
            "text": "Western Blot Analysis"
        }, 
        {
            "frame-id": "sent-PMC3522594-cmu-85", 
            "frame-type": "sentence", 
            "object-type": "frame", 
            "start-pos": {
                "object-type": "absolute-pos", 
                "offset": 85
            }, 
            "text": "At the designated times , four to eight limbs per group were placed in liquid N2 and stored at \u221280\u00b0C ."
        }, 
        {
            "frame-id": "sent-PMC3522594-cmu-86", 
            "frame-type": "sentence", 
            "object-type": "frame", 
            "start-pos": {
                "object-type": "absolute-pos", 
                "offset": 86
            }, 
            "text": "Lysates were prepared by sonicating limbs with high intensity ultrasonic liquid processors ( Sonics & Materials Inc , Danbury , CT ) for 2\u20133 seconds in lysis buffer ( 50 mM Tris , pH 7.5 , 150 mM NaCl , 0.1 % SDS , 0.5 % sodium deoxycholate , 0.2 M phenylmethylsulfonyl fluoride , 10 \u00b5g/ml leupeptin , 3 \u00b5g/ml aprotinin , 40 \u00b5g/ml bestatin , and 1 % Nonidet P-40 ) ."
        }, 
        {
            "frame-id": "sent-PMC3522594-cmu-87", 
            "frame-type": "sentence", 
            "object-type": "frame", 
            "start-pos": {
                "object-type": "absolute-pos", 
                "offset": 87
            }, 
            "text": "The lysates were cleared by centrifugation for 10 min at 10,000 rpm at 4\u00b0C and denatured at 85\u00b0C for 5 min ."
        }, 
        {
            "frame-id": "sent-PMC3522594-cmu-88", 
            "frame-type": "sentence", 
            "object-type": "frame", 
            "start-pos": {
                "object-type": "absolute-pos", 
                "offset": 88
            }, 
            "text": "Protein concentrations were assessed with the Bio-Rad Laboratories protein spectrophotometric assay ( Mississauga , ON , Canada ) ."
        }, 
        {
            "frame-id": "sent-PMC3522594-cmu-89", 
            "frame-type": "sentence", 
            "object-type": "frame", 
            "start-pos": {
                "object-type": "absolute-pos", 
                "offset": 89
            }, 
            "text": "Samples ( 25 \u00b5g protein ) were fractionated by SDS-PAGE using 4\u201320 % Novex\u00ae Tris-Glycine gels ( Life Technologies Inc. , Burlington , ON , Canada ) ."
        }, 
        {
            "frame-id": "sent-PMC3522594-cmu-90", 
            "frame-type": "sentence", 
            "object-type": "frame", 
            "start-pos": {
                "object-type": "absolute-pos", 
                "offset": 90
            }, 
            "text": "Novex\u00ae Sharp Standards ( Life Technologies Inc. ) were used as molecular weight markers ."
        }, 
        {
            "frame-id": "sent-PMC3522594-cmu-91", 
            "frame-type": "sentence", 
            "object-type": "frame", 
            "start-pos": {
                "object-type": "absolute-pos", 
                "offset": 91
            }, 
            "text": "Lysates of limbs cultures treated with deferoxamine mesylate salt ( 1 mM , 6 h , Sigma-Aldrich , St-Louis , MO ) , an iron chelator that acts as an hypoxia-mimetic agent , and hypoxia-induced COS-7 nuclear extracts ( Novus Biologicals , Inc. , Oakville , ON , Canada ) were used as positive controls ."
        }, 
        {
            "frame-id": "sent-PMC3522594-cmu-92", 
            "frame-type": "sentence", 
            "object-type": "frame", 
            "start-pos": {
                "object-type": "absolute-pos", 
                "offset": 92
            }, 
            "text": "The fractionated proteins were transferred to a PVDF membrane using iBlot\u00ae Western Detection Kits ( Life Technologies Inc. ) ."
        }, 
        {
            "frame-id": "sent-PMC3522594-cmu-93", 
            "frame-type": "sentence", 
            "object-type": "frame", 
            "start-pos": {
                "object-type": "absolute-pos", 
                "offset": 93
            }, 
            "text": "The blots were blocked with 10 % nonfat dried milk , in TBS-T ( 137 mM NaC1 , 20 mM Tris [ pH 7.4 ] , 0.1 % Tween\u00ae 20 ) at room temperature for 1 h and then incubated with the antibody to HIF2A ( Novus Biologicals , Inc. , primary mouse monoclonal , NB100\u2013132 , 1\u22361,000 ) , or HIF3A ( Abcam , primary rabbit polyclonal antibody to ab2165 , 1\u22361,000 ) in 5 % nonfat dried milk , in TBS-T overnight at 4\u00b0C ."
        }, 
        {
            "frame-id": "sent-PMC3522594-cmu-94", 
            "frame-type": "sentence", 
            "object-type": "frame", 
            "start-pos": {
                "object-type": "absolute-pos", 
                "offset": 94
            }, 
            "text": "The secondary antibodies , sheep anti-mouse IgG ( 1\u22362,000 , GE Healthcare Limited , Baie d\u2019Urf\u00e9 , QC , Canada ) or donkey anti-rabbit antibody ( 1\u223610,000 , GE Healthcare Limited ) conjugated to horseradish peroxidase , were used to detect specific antibody interactions ."
        }, 
        {
            "frame-id": "sent-PMC3522594-cmu-95", 
            "frame-type": "sentence", 
            "object-type": "frame", 
            "start-pos": {
                "object-type": "absolute-pos", 
                "offset": 95
            }, 
            "text": "Western blots were visualized with the Enhanced Chemiluminescence Plus Kit ( GE Healthcare Limited ) and CL-XPosure film ( Fisher Scientific ) ."
        }, 
        {
            "frame-id": "sent-PMC3522594-cmu-96", 
            "frame-type": "sentence", 
            "object-type": "frame", 
            "start-pos": {
                "object-type": "absolute-pos", 
                "offset": 96
            }, 
            "text": "Quantification of western blot data was done using a ChemiImager 4000 imaging system ( Alpha Innotech , San Leandro , CA ) with AlphaEase 3.3b software ."
        }, 
        {
            "frame-id": "sent-PMC3522594-cmu-97", 
            "frame-type": "sentence", 
            "object-type": "frame", 
            "start-pos": {
                "object-type": "absolute-pos", 
                "offset": 97
            }, 
            "text": "Actin ( 1\u22365,000 ) protein expression was monitored as a loading control , using a donkey anti-goat polyclonal antibody ( 1\u223610,000 , [ 0.04 \u00b5g/ml ] Santa Cruz Biotechnology , Santa Cruz , CA ) ."
        }, 
        {
            "frame-id": "sent-PMC3522594-cmu-98", 
            "frame-type": "sentence", 
            "object-type": "frame", 
            "start-pos": {
                "object-type": "absolute-pos", 
                "offset": 98
            }, 
            "text": "Six or seven separate replicates were done for each experiment ; values represent means \u00b1 SEM ."
        }, 
        {
            "frame-id": "sent-PMC3522594-cmu-99", 
            "frame-type": "sentence", 
            "object-type": "frame", 
            "start-pos": {
                "object-type": "absolute-pos", 
                "offset": 99
            }, 
            "text": "The data were analyzed by two-way ANOVA using the SigmaPlot version 12 software program ( Systat Software Inc. , Chicago , IL ) ."
        }, 
        {
            "frame-id": "sent-PMC3522594-cmu-100", 
            "frame-type": "sentence", 
            "object-type": "frame", 
            "start-pos": {
                "object-type": "absolute-pos", 
                "offset": 100
            }, 
            "text": "The level of significance was taken as P\u22640.05 ."
        }, 
        {
            "frame-id": "sent-PMC3522594-cmu-101", 
            "frame-type": "sentence", 
            "object-type": "frame", 
            "start-pos": {
                "object-type": "absolute-pos", 
                "offset": 101
            }, 
            "text": "Immunohistochemical Localization of HIF1A , HIF2A , and VEGF"
        }, 
        {
            "frame-id": "sent-PMC3522594-cmu-102", 
            "frame-type": "sentence", 
            "object-type": "frame", 
            "start-pos": {
                "object-type": "absolute-pos", 
                "offset": 102
            }, 
            "text": "Limbs were cultured for 3 , 6 or 24 h , fixed with 4 % paraformaldehyde at 4\u00b0C for 4 h , dehydrated with ascending ethanol concentrations , cleared with xylene , and embedded in paraffin ."
        }, 
        {
            "frame-id": "sent-PMC3522594-cmu-103", 
            "frame-type": "sentence", 
            "object-type": "frame", 
            "start-pos": {
                "object-type": "absolute-pos", 
                "offset": 103
            }, 
            "text": "Sections ( 5 \u00b5m ) were cut , mounted on slides , deparaffinized with xylene , and rehydrated with descending concentrations of ethanol ."
        }, 
        {
            "frame-id": "sent-PMC3522594-cmu-104", 
            "frame-type": "sentence", 
            "object-type": "frame", 
            "start-pos": {
                "object-type": "absolute-pos", 
                "offset": 104
            }, 
            "text": "To detect HIF1A an antigen unmasking step was necessary ; these sections were heated in a microwave oven for a total of 15 min ( 2 min with high power and 13 min with 10 % power , cooled at room temperature for 15 min ) in 0.1 M sodium citrate ."
        }, 
        {
            "frame-id": "sent-PMC3522594-cmu-105", 
            "frame-type": "sentence", 
            "object-type": "frame", 
            "start-pos": {
                "object-type": "absolute-pos", 
                "offset": 105
            }, 
            "text": "Following this , the sections were washed with TBS ( 137 mM NaC1 , 20 mM Tris , pH 7.4 ) , treated with 0.45 % H2O2 in methanol for 25 min , washed with TBS , blocked with 1.5 % normal horse serum in TBS for 30 min , and then incubated with rabbit polyclonal antibodies to HIF1A ( Novus Biologicals , Inc. , NB100\u2013449 , at 1\u223650 dilution , for 1 h at room temperature ) or VEGF ( Santa Cruz , SC-507 , at a dilution of 1\u2236100 , overnight at 4\u00b0C ) ."
        }, 
        {
            "frame-id": "sent-PMC3522594-cmu-106", 
            "frame-type": "sentence", 
            "object-type": "frame", 
            "start-pos": {
                "object-type": "absolute-pos", 
                "offset": 106
            }, 
            "text": "After washing with TBS , sections were stained via the avidin biotin-peroxidase complex method with a Vectastain Elite ABC kit ( Vector Laboratories Inc. , Burlingame , CA ) ."
        }, 
        {
            "frame-id": "sent-PMC3522594-cmu-107", 
            "frame-type": "sentence", 
            "object-type": "frame", 
            "start-pos": {
                "object-type": "absolute-pos", 
                "offset": 107
            }, 
            "text": "Each section was reacted with 3,3 ' diaminobenzidine ( DAB ) substrate to detect peroxidase using an ImmPACT\u2122 DAB substrate kit ( Vector Laboratories Inc ) , and then counterstained with methylene blue ."
        }, 
        {
            "frame-id": "sent-PMC3522594-cmu-108", 
            "frame-type": "sentence", 
            "object-type": "frame", 
            "start-pos": {
                "object-type": "absolute-pos", 
                "offset": 108
            }, 
            "text": "Four separate replicates were done for each experiment ."
        }, 
        {
            "frame-id": "sent-PMC3522594-cmu-109", 
            "frame-type": "sentence", 
            "object-type": "frame", 
            "start-pos": {
                "object-type": "absolute-pos", 
                "offset": 109
            }, 
            "text": "The preparation of sections for the analysis of HIF2A immunohistochemistry was similar except for the following modifications ."
        }, 
        {
            "frame-id": "sent-PMC3522594-cmu-110", 
            "frame-type": "sentence", 
            "object-type": "frame", 
            "start-pos": {
                "object-type": "absolute-pos", 
                "offset": 110
            }, 
            "text": "Sections were cleared and deparaffinized with Histo-Clear ( National Diagnostics/Diamed Lab Supplies , Mississauga , ON , Canada ) ."
        }, 
        {
            "frame-id": "sent-PMC3522594-cmu-111", 
            "frame-type": "sentence", 
            "object-type": "frame", 
            "start-pos": {
                "object-type": "absolute-pos", 
                "offset": 111
            }, 
            "text": "They were washed with PBS , treated with 0.3 % H2O2 in water for 5 min , washed with PBS , blocked with M.O.M ."
        }, 
        {
            "frame-id": "sent-PMC3522594-cmu-112", 
            "frame-type": "sentence", 
            "object-type": "frame", 
            "start-pos": {
                "object-type": "absolute-pos", 
                "offset": 112
            }, 
            "text": "reagent ( mouse-on-mouse , Vector Laboratories Inc. ) in PBS for 1 h , and then incubated with the mouse monoclonal antibody for HIF2A ( Novus Biologicals , Inc. , NB100\u2013132 , at 1\u223640 dilution for 30 min ) at room temperature ."
        }, 
        {
            "frame-id": "sent-PMC3522594-cmu-113", 
            "frame-type": "sentence", 
            "object-type": "frame", 
            "start-pos": {
                "object-type": "absolute-pos", 
                "offset": 113
            }, 
            "text": "Detection of Hypoxia Using Hypoxyprobe"
        }, 
        {
            "frame-id": "sent-PMC3522594-cmu-114", 
            "frame-type": "sentence", 
            "object-type": "frame", 
            "start-pos": {
                "object-type": "absolute-pos", 
                "offset": 114
            }, 
            "text": "Timed pregnant CD1 gestation day 12 mice were injected with pimonidazole , a marker of tissue hypoxia ( 60 mg/kg i.v ."
        }, 
        {
            "frame-id": "sent-PMC3522594-cmu-115", 
            "frame-type": "sentence", 
            "object-type": "frame", 
            "start-pos": {
                "object-type": "absolute-pos", 
                "offset": 115
            }, 
            "text": "; NPI-Hypoxyprobe Inc. , Burlington , MA ) [ 29 ] ."
        }, 
        {
            "frame-id": "sent-PMC3522594-cmu-116", 
            "frame-type": "sentence", 
            "object-type": "frame", 
            "start-pos": {
                "object-type": "absolute-pos", 
                "offset": 116
            }, 
            "text": "The mice were euthanized 1 h later ; forelimbs were excised and cultured in the absence or presence of 4-OOHCPA ( 1.0 or 3.0 \u00b5g/ml ) for 3 , 6 , or 24 h. Limbs were fixed with 4 % paraformaldehyde at 4\u00b0C for 4 h , dehydrated with ascending ethanol concentrations , cleared with xylene , and embedded in paraffin ."
        }, 
        {
            "frame-id": "sent-PMC3522594-cmu-117", 
            "frame-type": "sentence", 
            "object-type": "frame", 
            "start-pos": {
                "object-type": "absolute-pos", 
                "offset": 117
            }, 
            "text": "Sections ( 5 \u00b5m ) were cut , mounted on slides , deparaffinized with xylene , and rehydrated with descending concentrations of ethanol ."
        }, 
        {
            "frame-id": "sent-PMC3522594-cmu-118", 
            "frame-type": "sentence", 
            "object-type": "frame", 
            "start-pos": {
                "object-type": "absolute-pos", 
                "offset": 118
            }, 
            "text": "The sections were washed with TBS , treated with 3.0 % H2O2 in water for 5 min , washed with TBS , blocked with IHC Select blocking Reagent ( EMD Millipore , Billerica , MA ) for 5 min , and then incubated with a conjugate between the Hypoxyprobe\u2122-1 monoclonal antibody and fluorescein isothiocyanate ( FITC ) ( NPI-Hypoxyprobe Inc. ) at a 1\u2236200 dilution for 30 min at room temperature ."
        }, 
        {
            "frame-id": "sent-PMC3522594-cmu-119", 
            "frame-type": "sentence", 
            "object-type": "frame", 
            "start-pos": {
                "object-type": "absolute-pos", 
                "offset": 119
            }, 
            "text": "After washing with TBS , sections were incubated with a secondary conjugate for 30 min ."
        }, 
        {
            "frame-id": "sent-PMC3522594-cmu-120", 
            "frame-type": "sentence", 
            "object-type": "frame", 
            "start-pos": {
                "object-type": "absolute-pos", 
                "offset": 120
            }, 
            "text": "Each section was reacted with DAB substrate for peroxidase using an ImmPACT\u2122 DAB substrate kit ( Vector Laboratories Inc ) , and counterstained with methylene blue , as described above ."
        }, 
        {
            "frame-id": "sent-PMC3522594-cmu-121", 
            "frame-type": "sentence", 
            "object-type": "frame", 
            "start-pos": {
                "object-type": "absolute-pos", 
                "offset": 121
            }, 
            "text": "Four separate replicates were done for this experiment ."
        }, 
        {
            "frame-id": "sent-PMC3522594-cmu-122", 
            "frame-type": "sentence", 
            "object-type": "frame", 
            "start-pos": {
                "object-type": "absolute-pos", 
                "offset": 122
            }, 
            "text": "Results"
        }, 
        {
            "frame-id": "sent-PMC3522594-cmu-123", 
            "frame-type": "sentence", 
            "object-type": "frame", 
            "start-pos": {
                "object-type": "absolute-pos", 
                "offset": 123
            }, 
            "text": "Effects of 4-OOHCPA Treatment on HIF1 DNA Binding Activity and on the Expression of HIF1-Responsive Genes"
        }, 
        {
            "frame-id": "sent-PMC3522594-cmu-124", 
            "frame-type": "sentence", 
            "object-type": "frame", 
            "start-pos": {
                "object-type": "absolute-pos", 
                "offset": 124
            }, 
            "text": "The relative DNA binding activity of HIF1 heterodimers was transiently enhanced by exposure of limbs to 4-OOHCPA for 3 h ( Fig ."
        }, 
        {
            "frame-id": "sent-PMC3522594-cmu-125", 
            "frame-type": "sentence", 
            "object-type": "frame", 
            "start-pos": {
                "object-type": "absolute-pos", 
                "offset": 125
            }, 
            "text": "1 ) ."
        }, 
        {
            "frame-id": "sent-PMC3522594-cmu-126", 
            "frame-type": "sentence", 
            "object-type": "frame", 
            "start-pos": {
                "object-type": "absolute-pos", 
                "offset": 126
            }, 
            "text": "To determine the impact of this increase in DNA binding activity on gene expression , we profiled the expression of 23 HIF1 dependent genes in control and 4-OOHCPA ( 1 \u00b5g/ml ) exposed limbs using cDNA plate arrays ( Table 1 , Supplementary data , Table S1 ) ."
        }, 
        {
            "frame-id": "sent-PMC3522594-cmu-127", 
            "frame-type": "sentence", 
            "object-type": "frame", 
            "start-pos": {
                "object-type": "absolute-pos", 
                "offset": 127
            }, 
            "text": "Four genes , Crebp , Glut1 , Vhl , and Ep300 , were highly expressed ( \u22652 fold the average expression of the array , Supplementary data , Table S1 ) in both the control and drug treated groups ."
        }, 
        {
            "frame-id": "sent-PMC3522594-cmu-128", 
            "frame-type": "sentence", 
            "object-type": "frame", 
            "start-pos": {
                "object-type": "absolute-pos", 
                "offset": 128
            }, 
            "text": "Treatment with 4-OOHCPA for 3 h upregulated the expression of Igf2 and Mmp2 ( \u22651.5 fold ) ; exposure for 6 h upregulated the expression of Bcl2 and Hif2a and downregulated the expression of Pdk1 ( Table 1 ) ."
        }, 
        {
            "frame-id": "sent-PMC3522594-cmu-129", 
            "frame-type": "sentence", 
            "object-type": "frame", 
            "start-pos": {
                "object-type": "absolute-pos", 
                "offset": 129
            }, 
            "text": "qRT-PCR analysis of Mmp2 expression confirmed that this gene was upregulated in limbs exposed to 4-OOHCPA at 3 h ( 1.26\u00b10.08 , mean \u00b1 SEM , n = 6 ; p\u22640.05 ) ; by 6 h , Mmp2 expression did not differ between the drug-treated and control limbs ( 0.93\u00b10.09 , n = 6 ) ."
        }, 
        {
            "frame-id": "sent-PMC3522594-cmu-130", 
            "frame-type": "sentence", 
            "object-type": "frame", 
            "start-pos": {
                "object-type": "absolute-pos", 
                "offset": 130
            }, 
            "text": "Localization of HIF1A Immunoreactivity in Control and 4-OOHCPA Treated Limbs"
        }, 
        {
            "frame-id": "sent-PMC3522594-cmu-131", 
            "frame-type": "sentence", 
            "object-type": "frame", 
            "start-pos": {
                "object-type": "absolute-pos", 
                "offset": 131
            }, 
            "text": "In a previous study , we reported that exposure to 4-OOHCPA for 6 h resulted in a concentration-dependent increase in HIF1A protein concentration ( 0.3 \u00b5g/ml : 1.78 fold ; 1.0 \u00b5g/ml : 1.84 fold ; 3.0 \u00b5g/ml : 2.36 fold ) compared to vehicle treated controls [ 26 ] ; this induction was not observed at 3 h and did not persist to 24 h. In this study , we determined the localization of this HIF1A immunoreactivity in control and 4-OOHCPA treated limbs ( Fig ."
        }, 
        {
            "frame-id": "sent-PMC3522594-cmu-132", 
            "frame-type": "sentence", 
            "object-type": "frame", 
            "start-pos": {
                "object-type": "absolute-pos", 
                "offset": 132
            }, 
            "text": "2 ) ."
        }, 
        {
            "frame-id": "sent-PMC3522594-cmu-133", 
            "frame-type": "sentence", 
            "object-type": "frame", 
            "start-pos": {
                "object-type": "absolute-pos", 
                "offset": 133
            }, 
            "text": "In control limbs , immunoreactivity was detected in isolated cells in the apical ectodermal ridge and interdigital regions ( denoted as I.R . ) ."
        }, 
        {
            "frame-id": "sent-PMC3522594-cmu-134", 
            "frame-type": "sentence", 
            "object-type": "frame", 
            "start-pos": {
                "object-type": "absolute-pos", 
                "offset": 134
            }, 
            "text": "A comparison of the limbs cultured for 3 , 6 or 24 h revealed that time in culture did not have an appreciable effect on HIF1A staining ."
        }, 
        {
            "frame-id": "sent-PMC3522594-cmu-135", 
            "frame-type": "sentence", 
            "object-type": "frame", 
            "start-pos": {
                "object-type": "absolute-pos", 
                "offset": 135
            }, 
            "text": "However , treatment with 4-OOHCPA produced a dramatic increase in HIF1A immunoreactivity in the 3 and 6 h exposure groups ; by 24 h staining was diminished ."
        }, 
        {
            "frame-id": "sent-PMC3522594-cmu-136", 
            "frame-type": "sentence", 
            "object-type": "frame", 
            "start-pos": {
                "object-type": "absolute-pos", 
                "offset": 136
            }, 
            "text": "This increase in HIF1A immunoreactivity in the presence of 4-OOHCPA was also largely localized to the apical ectodermal ridge and the interdigital regions ."
        }, 
        {
            "frame-id": "sent-PMC3522594-cmu-137", 
            "frame-type": "sentence", 
            "object-type": "frame", 
            "start-pos": {
                "object-type": "absolute-pos", 
                "offset": 137
            }, 
            "text": "Effects of 4-OOHCPA Exposure on HIF2A and HIF3A Protein Expression"
        }, 
        {
            "frame-id": "sent-PMC3522594-cmu-138", 
            "frame-type": "sentence", 
            "object-type": "frame", 
            "start-pos": {
                "object-type": "absolute-pos", 
                "offset": 138
            }, 
            "text": "Since the three Hif1a genes have complimentary functions , we were interested in the effects of 4-OOHCPA exposure on the expression of HIF2A and HIF3A in limbs ."
        }, 
        {
            "frame-id": "sent-PMC3522594-cmu-139", 
            "frame-type": "sentence", 
            "object-type": "frame", 
            "start-pos": {
                "object-type": "absolute-pos", 
                "offset": 139
            }, 
            "text": "Although Hif2a mRNA concentrations in limbs exposed to 4-OOHCPA for 6 h were increased ( 1.58 fold , relative to control ) , this increase was not statistically significant ( Table 1 ) ."
        }, 
        {
            "frame-id": "sent-PMC3522594-cmu-140", 
            "frame-type": "sentence", 
            "object-type": "frame", 
            "start-pos": {
                "object-type": "absolute-pos", 
                "offset": 140
            }, 
            "text": "However , Western blot analysis revealed that 4-OOHCPA exposure increased the protein concentrations of HIF2A ( Fig ."
        }, 
        {
            "frame-id": "sent-PMC3522594-cmu-141", 
            "frame-type": "sentence", 
            "object-type": "frame", 
            "start-pos": {
                "object-type": "absolute-pos", 
                "offset": 141
            }, 
            "text": "3 ) ."
        }, 
        {
            "frame-id": "sent-PMC3522594-cmu-142", 
            "frame-type": "sentence", 
            "object-type": "frame", 
            "start-pos": {
                "object-type": "absolute-pos", 
                "offset": 142
            }, 
            "text": "This induction was both concentration- and time-dependent ."
        }, 
        {
            "frame-id": "sent-PMC3522594-cmu-143", 
            "frame-type": "sentence", 
            "object-type": "frame", 
            "start-pos": {
                "object-type": "absolute-pos", 
                "offset": 143
            }, 
            "text": "Interestingly , increased HIF2A was observed as early as 10 minutes after 4-OOHCPA exposure and peaked at 1 h ; limbs cultured for 3 , 6 or 24 h did not differ from controls ."
        }, 
        {
            "frame-id": "sent-PMC3522594-cmu-144", 
            "frame-type": "sentence", 
            "object-type": "frame", 
            "start-pos": {
                "object-type": "absolute-pos", 
                "offset": 144
            }, 
            "text": "HIF2A immunoreactivity was detected in control limbs cultured for 1 or 3 h in the apical ectodermal ridge , interdigital regions and the core mesenchymal condensations ( Fig ."
        }, 
        {
            "frame-id": "sent-PMC3522594-cmu-145", 
            "frame-type": "sentence", 
            "object-type": "frame", 
            "start-pos": {
                "object-type": "absolute-pos", 
                "offset": 145
            }, 
            "text": "4 ) ."
        }, 
        {
            "frame-id": "sent-PMC3522594-cmu-146", 
            "frame-type": "sentence", 
            "object-type": "frame", 
            "start-pos": {
                "object-type": "absolute-pos", 
                "offset": 146
            }, 
            "text": "4-OOHCPA exposure for 3 h increased HIF2A immunoreactivity in the interdigital regions and apical ectodermal ridge ( I.R . )"
        }, 
        {
            "frame-id": "sent-PMC3522594-cmu-147", 
            "frame-type": "sentence", 
            "object-type": "frame", 
            "start-pos": {
                "object-type": "absolute-pos", 
                "offset": 147
            }, 
            "text": "areas ."
        }, 
        {
            "frame-id": "sent-PMC3522594-cmu-148", 
            "frame-type": "sentence", 
            "object-type": "frame", 
            "start-pos": {
                "object-type": "absolute-pos", 
                "offset": 148
            }, 
            "text": "No marked differences in HIF2A immunoreactivity were observed between the control and drug-treated limbs after 1 , 6 or 24 h of culture ."
        }, 
        {
            "frame-id": "sent-PMC3522594-cmu-149", 
            "frame-type": "sentence", 
            "object-type": "frame", 
            "start-pos": {
                "object-type": "absolute-pos", 
                "offset": 149
            }, 
            "text": "HIF3A protein was detected in control limbs at all time points tested ( Fig ."
        }, 
        {
            "frame-id": "sent-PMC3522594-cmu-150", 
            "frame-type": "sentence", 
            "object-type": "frame", 
            "start-pos": {
                "object-type": "absolute-pos", 
                "offset": 150
            }, 
            "text": "5 ) ."
        }, 
        {
            "frame-id": "sent-PMC3522594-cmu-151", 
            "frame-type": "sentence", 
            "object-type": "frame", 
            "start-pos": {
                "object-type": "absolute-pos", 
                "offset": 151
            }, 
            "text": "Since drug treatment did not alter HIF3A protein concentrations in limbs we did not assess the localization of this protein ."
        }, 
        {
            "frame-id": "sent-PMC3522594-cmu-152", 
            "frame-type": "sentence", 
            "object-type": "frame", 
            "start-pos": {
                "object-type": "absolute-pos", 
                "offset": 152
            }, 
            "text": "Localization of Hypoxia in Limbs"
        }, 
        {
            "frame-id": "sent-PMC3522594-cmu-153", 
            "frame-type": "sentence", 
            "object-type": "frame", 
            "start-pos": {
                "object-type": "absolute-pos", 
                "offset": 153
            }, 
            "text": "Pimonidazole immunoreactivity ( Hypoxyprobe ) was used as a marker to determine the localization of hypoxia in cultured limb buds ( Fig ."
        }, 
        {
            "frame-id": "sent-PMC3522594-cmu-154", 
            "frame-type": "sentence", 
            "object-type": "frame", 
            "start-pos": {
                "object-type": "absolute-pos", 
                "offset": 154
            }, 
            "text": "6 ) ."
        }, 
        {
            "frame-id": "sent-PMC3522594-cmu-155", 
            "frame-type": "sentence", 
            "object-type": "frame", 
            "start-pos": {
                "object-type": "absolute-pos", 
                "offset": 155
            }, 
            "text": "Hypoxia was detected in control limbs in the regions undergoing chondrogenesis , i.e ."
        }, 
        {
            "frame-id": "sent-PMC3522594-cmu-156", 
            "frame-type": "sentence", 
            "object-type": "frame", 
            "start-pos": {
                "object-type": "absolute-pos", 
                "offset": 156
            }, 
            "text": "the forming cartilaginous anlagen of the long bones and digits ( denoted as \u201cDigits\u201d ) ."
        }, 
        {
            "frame-id": "sent-PMC3522594-cmu-157", 
            "frame-type": "sentence", 
            "object-type": "frame", 
            "start-pos": {
                "object-type": "absolute-pos", 
                "offset": 157
            }, 
            "text": "Maximal reactivity was detected in the control limbs cultured for 3 h ; the signal decreased by 6 h and was faint after culture for 24 h. Limbs exposed to 4-OOHCPA did not differ noticeably from controls , with immunoreactivity remaining focused in the mesenchymal condensations and no change in the intensity of staining ."
        }, 
        {
            "frame-id": "sent-PMC3522594-cmu-158", 
            "frame-type": "sentence", 
            "object-type": "frame", 
            "start-pos": {
                "object-type": "absolute-pos", 
                "offset": 158
            }, 
            "text": "Immunolocalization of VEGF in 4-OOHCPA-treated and Control Limbs"
        }, 
        {
            "frame-id": "sent-PMC3522594-cmu-159", 
            "frame-type": "sentence", 
            "object-type": "frame", 
            "start-pos": {
                "object-type": "absolute-pos", 
                "offset": 159
            }, 
            "text": "Vegfa expression is regulated by both HIF1A and HIF2A [ 8 ] ; previously , we reported that the exposure of limbs to 4-OOHCPA upregulated Vegfa expression [ 26 ] ."
        }, 
        {
            "frame-id": "sent-PMC3522594-cmu-160", 
            "frame-type": "sentence", 
            "object-type": "frame", 
            "start-pos": {
                "object-type": "absolute-pos", 
                "offset": 160
            }, 
            "text": "In this study , there was an apparent increase in Vegfa expression ( 1.45 fold increase in limbs exposed to 1 \u00b5g/ml of 4-OOHCPA for 3 h ) but this increase did not reach our > 1.5 fold cut-off value ( Supplementary data , Table S1 ) ."
        }, 
        {
            "frame-id": "sent-PMC3522594-cmu-161", 
            "frame-type": "sentence", 
            "object-type": "frame", 
            "start-pos": {
                "object-type": "absolute-pos", 
                "offset": 161
            }, 
            "text": "VEGFA immunoreactivity in limbs is shown in Figure 7 ."
        }, 
        {
            "frame-id": "sent-PMC3522594-cmu-162", 
            "frame-type": "sentence", 
            "object-type": "frame", 
            "start-pos": {
                "object-type": "absolute-pos", 
                "offset": 162
            }, 
            "text": "VEGF immunoreactivity was detected in control limbs in the apical ectodermal ridge , interdigital and mesenchymal condensations ; staining was stronger at 24 h than at 3 or 6 h. Exposure to 4-OOHCPA did not visibly enhance VEGF immunoreactivity in the cartilaginous anlagen or digits ; after 24 h an increase in staining in the interdigital areas was observed ."
        }, 
        {
            "frame-id": "sent-PMC3522594-cmu-163", 
            "frame-type": "sentence", 
            "object-type": "frame", 
            "start-pos": {
                "object-type": "absolute-pos", 
                "offset": 163
            }, 
            "text": "Discussion"
        }, 
        {
            "frame-id": "sent-PMC3522594-cmu-164", 
            "frame-type": "sentence", 
            "object-type": "frame", 
            "start-pos": {
                "object-type": "absolute-pos", 
                "offset": 164
            }, 
            "text": "Here , we demonstrate that the exposure of developing limb buds to 4-OOHCPA induces HIF1A and HIF2A , but not HIF3A ."
        }, 
        {
            "frame-id": "sent-PMC3522594-cmu-165", 
            "frame-type": "sentence", 
            "object-type": "frame", 
            "start-pos": {
                "object-type": "absolute-pos", 
                "offset": 165
            }, 
            "text": "HIF1A and HIF2A immunoreactivities are enhanced in the apical ectodermal ridge and interdigital regions , where programmed cell death occurs ."
        }, 
        {
            "frame-id": "sent-PMC3522594-cmu-166", 
            "frame-type": "sentence", 
            "object-type": "frame", 
            "start-pos": {
                "object-type": "absolute-pos", 
                "offset": 166
            }, 
            "text": "In contrast , hypoxia is localized to the cartilaginous anlagen formed by the condensation of mesenchymal cells and is not enhanced by drug exposure ."
        }, 
        {
            "frame-id": "sent-PMC3522594-cmu-167", 
            "frame-type": "sentence", 
            "object-type": "frame", 
            "start-pos": {
                "object-type": "absolute-pos", 
                "offset": 167
            }, 
            "text": "VEGF , an HIF target gene , immunoreactivity was found in both the apical ectodermal ridge/interdigital area and in the mesenchymal condensations but was not visibly affected by 4-OOHCPA exposure ."
        }, 
        {
            "frame-id": "sent-PMC3522594-cmu-168", 
            "frame-type": "sentence", 
            "object-type": "frame", 
            "start-pos": {
                "object-type": "absolute-pos", 
                "offset": 168
            }, 
            "text": "Thus , exposure to this DNA damaging agent induces the hypoxia response signalling pathway in limb buds in the absence of an effect on hypoxia ."
        }, 
        {
            "frame-id": "sent-PMC3522594-cmu-169", 
            "frame-type": "sentence", 
            "object-type": "frame", 
            "start-pos": {
                "object-type": "absolute-pos", 
                "offset": 169
            }, 
            "text": "Under normoxia , the stimuli that have been reported to induce HIF1 transcription factor activity include growth factors , insulin , and glucose [ 30 ] ."
        }, 
        {
            "frame-id": "sent-PMC3522594-cmu-170", 
            "frame-type": "sentence", 
            "object-type": "frame", 
            "start-pos": {
                "object-type": "absolute-pos", 
                "offset": 170
            }, 
            "text": "Cyclophosphamide , a bifunctional nitrogen mustard , alkylates DNA to form crosslinks , resulting in single and double strand breaks ."
        }, 
        {
            "frame-id": "sent-PMC3522594-cmu-171", 
            "frame-type": "sentence", 
            "object-type": "frame", 
            "start-pos": {
                "object-type": "absolute-pos", 
                "offset": 171
            }, 
            "text": "The mechanism by which such a DNA damaging agent might induce HIF proteins in the absence of hypoxia is not known ."
        }, 
        {
            "frame-id": "sent-PMC3522594-cmu-172", 
            "frame-type": "sentence", 
            "object-type": "frame", 
            "start-pos": {
                "object-type": "absolute-pos", 
                "offset": 172
            }, 
            "text": "One possibility is that 4-OOHCPA-induced DNA damage activates Sirt1 , a class III histone deacetylase ."
        }, 
        {
            "frame-id": "sent-PMC3522594-cmu-173", 
            "frame-type": "sentence", 
            "object-type": "frame", 
            "start-pos": {
                "object-type": "absolute-pos", 
                "offset": 173
            }, 
            "text": "Previous studies have shown that Sirt1 activation increases HIF2A signalling and Epo gene expression [ 31 ] ."
        }, 
        {
            "frame-id": "sent-PMC3522594-cmu-174", 
            "frame-type": "sentence", 
            "object-type": "frame", 
            "start-pos": {
                "object-type": "absolute-pos", 
                "offset": 174
            }, 
            "text": "Exposure to 4-OOHCPA increased the steady state concentrations of both the mRNA and protein concentrations of Hif1a and Hif2a in limbs , without influencing HIF3A protein concentrations ."
        }, 
        {
            "frame-id": "sent-PMC3522594-cmu-175", 
            "frame-type": "sentence", 
            "object-type": "frame", 
            "start-pos": {
                "object-type": "absolute-pos", 
                "offset": 175
            }, 
            "text": "Thus , the expression of HIFA family members in limbs is differentially regulated and may occur at multiple levels ."
        }, 
        {
            "frame-id": "sent-PMC3522594-cmu-176", 
            "frame-type": "sentence", 
            "object-type": "frame", 
            "start-pos": {
                "object-type": "absolute-pos", 
                "offset": 176
            }, 
            "text": "Based on the time course of induction , we speculate that DNA damage may regulate HIF1A transcription and translation ."
        }, 
        {
            "frame-id": "sent-PMC3522594-cmu-177", 
            "frame-type": "sentence", 
            "object-type": "frame", 
            "start-pos": {
                "object-type": "absolute-pos", 
                "offset": 177
            }, 
            "text": "The rapidity of the increase in HIF2A protein concentrations ( 10 min ) suggests that the primary effect may be on protein stability , probably mediated via inhibition of proteasomal degradation ; the induction of Hif2a mRNA concentrations is a later response , not observed until 6 h after drug exposure ."
        }, 
        {
            "frame-id": "sent-PMC3522594-cmu-178", 
            "frame-type": "sentence", 
            "object-type": "frame", 
            "start-pos": {
                "object-type": "absolute-pos", 
                "offset": 178
            }, 
            "text": "In the context of these data , it is interesting that the exposure of human bronchial epithelial cells to inorganic arsenic increased the expression of HIF2A , but not HIF1A , by inhibiting its degradation through the ubiquitin-mediated proteasome pathway [ 32 ] ."
        }, 
        {
            "frame-id": "sent-PMC3522594-cmu-179", 
            "frame-type": "sentence", 
            "object-type": "frame", 
            "start-pos": {
                "object-type": "absolute-pos", 
                "offset": 179
            }, 
            "text": "Hypoxia plays a major role in limb development by activating the expression Sox9 , a key regulator of chondrogenesis [ 21 ] , [ 23 ] , and by inhibiting expression of Runx2 , affecting osteogenesis [ 33 ] ."
        }, 
        {
            "frame-id": "sent-PMC3522594-cmu-180", 
            "frame-type": "sentence", 
            "object-type": "frame", 
            "start-pos": {
                "object-type": "absolute-pos", 
                "offset": 180
            }, 
            "text": "We observed hypoxia in the cartilaginous anlagen of cultured limbs in the absence of appreciable HIF1A immunoreactivity ."
        }, 
        {
            "frame-id": "sent-PMC3522594-cmu-181", 
            "frame-type": "sentence", 
            "object-type": "frame", 
            "start-pos": {
                "object-type": "absolute-pos", 
                "offset": 181
            }, 
            "text": "Conditional knockout experiments provide data suggesting that the HIF proteins are not required for early events during chondrogenesis ."
        }, 
        {
            "frame-id": "sent-PMC3522594-cmu-182", 
            "frame-type": "sentence", 
            "object-type": "frame", 
            "start-pos": {
                "object-type": "absolute-pos", 
                "offset": 182
            }, 
            "text": "Indeed , conditional inactivation of Hif1a did not affect either the formation of precartilaginous condensations or Sox9 expression in gestation day 12.5 mouse embryos , although there was a delay in cartilage formation by gestation day 13.5 [ 33 ] , [ 34 ] ."
        }, 
        {
            "frame-id": "sent-PMC3522594-cmu-183", 
            "frame-type": "sentence", 
            "object-type": "frame", 
            "start-pos": {
                "object-type": "absolute-pos", 
                "offset": 183
            }, 
            "text": "Conditional inactivation of Hif2a in limbs revealed that Hif2a is also not required for the differentiation of mesenchymal cells into chondrocytes ; here , no limb phenotype was observed until gestation day 15.5 [ 35 ] ."
        }, 
        {
            "frame-id": "sent-PMC3522594-cmu-184", 
            "frame-type": "sentence", 
            "object-type": "frame", 
            "start-pos": {
                "object-type": "absolute-pos", 
                "offset": 184
            }, 
            "text": "The apical ectodermal ridge and interdigital regions of limbs exposed 4-OOHCPA display increased apoptotic cell death ; pretreatment with an inhibitor of caspase 3 activation , DEVD-CHO , provided partial protection in 4-OOHCPA exposed limbs [ 36 ] ."
        }, 
        {
            "frame-id": "sent-PMC3522594-cmu-185", 
            "frame-type": "sentence", 
            "object-type": "frame", 
            "start-pos": {
                "object-type": "absolute-pos", 
                "offset": 185
            }, 
            "text": "The p53 tumor suppressor gene signaling pathway plays a protective role in regulating apoptosis in the limbs ; interestingly , a p53-dependent switch in the type of cell death , from apoptosis to necrosis , was observed in limbs exposed to 4-OOHCPA [ 37 ] ."
        }, 
        {
            "frame-id": "sent-PMC3522594-cmu-186", 
            "frame-type": "sentence", 
            "object-type": "frame", 
            "start-pos": {
                "object-type": "absolute-pos", 
                "offset": 186
            }, 
            "text": "A number of studies have linked hypoxia , increased HIF1A , and increased p53 to an increase in apoptosis ."
        }, 
        {
            "frame-id": "sent-PMC3522594-cmu-187", 
            "frame-type": "sentence", 
            "object-type": "frame", 
            "start-pos": {
                "object-type": "absolute-pos", 
                "offset": 187
            }, 
            "text": "An et al ."
        }, 
        {
            "frame-id": "sent-PMC3522594-cmu-188", 
            "frame-type": "sentence", 
            "object-type": "frame", 
            "start-pos": {
                "object-type": "absolute-pos", 
                "offset": 188
            }, 
            "text": "[ 38 ] reported that HIF1a overexpression under normoxia increased p53 activity ."
        }, 
        {
            "frame-id": "sent-PMC3522594-cmu-189", 
            "frame-type": "sentence", 
            "object-type": "frame", 
            "start-pos": {
                "object-type": "absolute-pos", 
                "offset": 189
            }, 
            "text": "Here again , HIF1a and HIF2a may have opposite roles ."
        }, 
        {
            "frame-id": "sent-PMC3522594-cmu-190", 
            "frame-type": "sentence", 
            "object-type": "frame", 
            "start-pos": {
                "object-type": "absolute-pos", 
                "offset": 190
            }, 
            "text": "However , since DNA damage itself activates p53 , it is not possible to attribute a downstream increase in p53-dependent apoptosis to the observed increase in HIFA immunoreactivity in the apical ectodermal ridge and interdigital regions ."
        }, 
        {
            "frame-id": "sent-PMC3522594-cmu-191", 
            "frame-type": "sentence", 
            "object-type": "frame", 
            "start-pos": {
                "object-type": "absolute-pos", 
                "offset": 191
            }, 
            "text": "It is clear that the interactions between HIFs and p53 are complex [ 39 ] ."
        }, 
        {
            "frame-id": "sent-PMC3522594-cmu-192", 
            "frame-type": "sentence", 
            "object-type": "frame", 
            "start-pos": {
                "object-type": "absolute-pos", 
                "offset": 192
            }, 
            "text": "Thus , hypoxia signalling pathways are activated in limbs exposed to a developmental toxicant in a region and time-specific manner ."
        }, 
        {
            "frame-id": "sent-PMC3522594-cmu-193", 
            "frame-type": "sentence", 
            "object-type": "frame", 
            "start-pos": {
                "object-type": "absolute-pos", 
                "offset": 193
            }, 
            "text": "The oxygen-independent functions of this signalling pathway may play a role in mediating the response to a variety of exogenous exposures ."
        }, 
        {
            "frame-id": "sent-PMC3522594-cmu-194", 
            "frame-type": "sentence", 
            "object-type": "frame", 
            "start-pos": {
                "object-type": "absolute-pos", 
                "offset": 194
            }, 
            "text": "Supporting Information"
        }
    ], 
    "object-meta": {
        "component": "Nicolas-NXML-Parser", 
        "component-type": "machine", 
        "doc-id": "PMC3522594", 
        "object-type": "meta-info", 
        "organization": "CMU"
    }, 
    "object-type": "frame-collection"
}
