{
  "evidence": ["AR and ERalpha were immunoprecipitated overnight at 4degreesC with 1 mug anti-AR Ab-1 or 1.5 mug anti-ERalpha Ab-10 antibodies , respectively .","ERalpha were immunoprecipitated overnight at 4degreesC with 1 mug","ERalpha were immunoprecipitated overnight at 4degreesC with 1 mug anti-AR Ab-1 or 1.5 mug"],
  "extracted_information": {
    "interaction_type": "binds",
    "negative_information": false,
    "participant_a": {
      "entity_text": "ERalpha",
      "entity_type": "protein",
      "identifier": "Uniprot:P03372",
      "in_model": true
    },
    "participant_b": {
      "entity_text": "mug",
      "entity_type": "protein",
      "identifier": "Uniprot:Q3YXH4",
      "in_model": false
    }
  },
  "fries_provenance": [
    {
      "component": "REACH",
      "frame-file": "PMC2359939.uaz.events",
      "frame-id": "evem-PMC2359939-UAZ-r1-18-5-11",
      "passage-id": "pass-PMC2359939-UAZ-r1-18",
      "passage-number": 18,
      "passage-section-id": "N/A",
      "passage-section-name": "N/A",
      "sentence": "AR and ERalpha were immunoprecipitated overnight at 4degreesC with 1 mug anti-AR Ab-1 or 1.5 mug anti-ERalpha Ab-10 antibodies , respectively .",
      "text": "ERalpha were immunoprecipitated overnight at 4degreesC with 1 mug",
      "uaz-sentence": "AR and ERalpha were immunoprecipitated overnight at 4degreesC with 1 mug anti-AR Ab-1 or 1.5 mug anti-ERalpha Ab-10 antibodies , respectively .",
      "uaz-sentence-start": 967
    },
    {
      "component": "REACH",
      "frame-file": "PMC2359939.uaz.events",
      "frame-id": "evem-PMC2359939-UAZ-r1-18-5-12",
      "passage-id": "pass-PMC2359939-UAZ-r1-18",
      "passage-number": 18,
      "passage-section-id": "N/A",
      "passage-section-name": "N/A",
      "sentence": "AR and ERalpha were immunoprecipitated overnight at 4degreesC with 1 mug anti-AR Ab-1 or 1.5 mug anti-ERalpha Ab-10 antibodies , respectively .",
      "text": "ERalpha were immunoprecipitated overnight at 4degreesC with 1 mug anti-AR Ab-1 or 1.5 mug",
      "uaz-sentence": "AR and ERalpha were immunoprecipitated overnight at 4degreesC with 1 mug anti-AR Ab-1 or 1.5 mug anti-ERalpha Ab-10 antibodies , respectively .",
      "uaz-sentence-start": 967
    }
  ],
  "model_relation": "extension",
  "pmc_id": "PMC2359939",
  "reader_type": "machine",
  "reading_complete": "2015-06-15T20:19:14Z",
  "reading_started": "2015-06-15T20:19:09Z",
  "submitter": "FRIES"
}
