{
    "frames": [
        {
            "frame-id": "sent-PMC2628450-cmu-0", 
            "frame-type": "sentence", 
            "object-type": "frame", 
            "start-pos": {
                "object-type": "absolute-pos", 
                "offset": 0
            }, 
            "text": "XML Paper ( id '2628450 ' ) : 'The RON receptor tyrosine kinase promotes MSP-independent cell spreading and survival in breast epithelial cells '"
        }, 
        {
            "frame-id": "sent-PMC2628450-cmu-1", 
            "frame-type": "sentence", 
            "object-type": "frame", 
            "start-pos": {
                "object-type": "absolute-pos", 
                "offset": 1
            }, 
            "text": "Introduction"
        }, 
        {
            "frame-id": "sent-PMC2628450-cmu-2", 
            "frame-type": "sentence", 
            "object-type": "frame", 
            "start-pos": {
                "object-type": "absolute-pos", 
                "offset": 2
            }, 
            "text": "The receptor tyrosine kinase ( RTK ) RON is a member of the c-Met family of scatter-factor receptors ."
        }, 
        {
            "frame-id": "sent-PMC2628450-cmu-3", 
            "frame-type": "sentence", 
            "object-type": "frame", 
            "start-pos": {
                "object-type": "absolute-pos", 
                "offset": 3
            }, 
            "text": "( Ronsin et al. , 1993 ) ."
        }, 
        {
            "frame-id": "sent-PMC2628450-cmu-4", 
            "frame-type": "sentence", 
            "object-type": "frame", 
            "start-pos": {
                "object-type": "absolute-pos", 
                "offset": 4
            }, 
            "text": "After binding to its only known ligand , the macrophage stimulating protein ( MSP ) , RON promotes activation of the PI3K/AKT , MAPK and \u03b2-catenin pathways , among others ( Wang et al. , 2003 ) ."
        }, 
        {
            "frame-id": "sent-PMC2628450-cmu-5", 
            "frame-type": "sentence", 
            "object-type": "frame", 
            "start-pos": {
                "object-type": "absolute-pos", 
                "offset": 5
            }, 
            "text": "Increased levels of RON expression have been found in several epithelial human tumors including colon ( Chen et al. , 2000 ) , pancreatic ( Thomas et al. , 2007 ) and breast cancers ( Maggiora et al. , 1998 ) ."
        }, 
        {
            "frame-id": "sent-PMC2628450-cmu-6", 
            "frame-type": "sentence", 
            "object-type": "frame", 
            "start-pos": {
                "object-type": "absolute-pos", 
                "offset": 6
            }, 
            "text": "Furthermore , clinical studies indicate that increased expression of RON in both human bladder and breast carcinomas correlates with a more aggressive disease and a poor patient prognosis ( Hsu et al. , 2006 ; Lee et al. , 2005 ) ."
        }, 
        {
            "frame-id": "sent-PMC2628450-cmu-7", 
            "frame-type": "sentence", 
            "object-type": "frame", 
            "start-pos": {
                "object-type": "absolute-pos", 
                "offset": 7
            }, 
            "text": "Recent studies demonstrated that a monoclonal antibody that blocks RON activation by MSP also inhibited the growth of human tumor xenographs in mice , indicating that signaling by RON played a role in tumor growth ( O'Toole et al. , 2006 ) ."
        }, 
        {
            "frame-id": "sent-PMC2628450-cmu-8", 
            "frame-type": "sentence", 
            "object-type": "frame", 
            "start-pos": {
                "object-type": "absolute-pos", 
                "offset": 8
            }, 
            "text": "Together , these studies provide evidence that RON may play a general role in cancer development ."
        }, 
        {
            "frame-id": "sent-PMC2628450-cmu-9", 
            "frame-type": "sentence", 
            "object-type": "frame", 
            "start-pos": {
                "object-type": "absolute-pos", 
                "offset": 9
            }, 
            "text": "RON appears to play a significant role in breast cancer ."
        }, 
        {
            "frame-id": "sent-PMC2628450-cmu-10", 
            "frame-type": "sentence", 
            "object-type": "frame", 
            "start-pos": {
                "object-type": "absolute-pos", 
                "offset": 10
            }, 
            "text": "Nearly 47 % of primary human breast cancers expressed RON , and increased expression of RON was found in established breast cancer cell lines ( Maggiora et al. , 1998 ) ."
        }, 
        {
            "frame-id": "sent-PMC2628450-cmu-11", 
            "frame-type": "sentence", 
            "object-type": "frame", 
            "start-pos": {
                "object-type": "absolute-pos", 
                "offset": 11
            }, 
            "text": "Additionally , when mice were engineered to express RON in mammary tissue , 100 % of the RON-expressing mice developed tumors , whereas the parental mice did not develop tumors ( Zinser et al. , 2006 ) Although increased expression of RON in breast carcinomas is well-documented , less-understood is whether RON can promote cancer progression in the absence of MSP ."
        }, 
        {
            "frame-id": "sent-PMC2628450-cmu-12", 
            "frame-type": "sentence", 
            "object-type": "frame", 
            "start-pos": {
                "object-type": "absolute-pos", 
                "offset": 12
            }, 
            "text": "To date , no naturally occurring mutations of RON have been identified in human breast cancers ; therefore , it is likely that interactions with other cell receptors or kinases might be responsible for the ligand-independent activation of RON ."
        }, 
        {
            "frame-id": "sent-PMC2628450-cmu-13", 
            "frame-type": "sentence", 
            "object-type": "frame", 
            "start-pos": {
                "object-type": "absolute-pos", 
                "offset": 13
            }, 
            "text": "In breast carcinomas , the activity of Src promotes tumor progression at least in part by its ability to synergize with the epidermal growth factor receptor ( EGFR ) ( Biscardi et al. , 2000 ; Wilson et al. , 1989 ) ."
        }, 
        {
            "frame-id": "sent-PMC2628450-cmu-14", 
            "frame-type": "sentence", 
            "object-type": "frame", 
            "start-pos": {
                "object-type": "absolute-pos", 
                "offset": 14
            }, 
            "text": "Other RTKs also interact with Src kinases to enhance oncogenic signaling in human cancers , including c-Met ( Emaduddin et al. , 2008 ) and platelet-derived growth factor receptor ( PDGFR ) ( Ishizawar & Parsons , 2004 ) ."
        }, 
        {
            "frame-id": "sent-PMC2628450-cmu-15", 
            "frame-type": "sentence", 
            "object-type": "frame", 
            "start-pos": {
                "object-type": "absolute-pos", 
                "offset": 15
            }, 
            "text": "Additionally , Src mediated RON activation downstream of \u03b21 integrins in human keratinocytes ( Danilkovitch-Miagkova et al. , 2000 ) ."
        }, 
        {
            "frame-id": "sent-PMC2628450-cmu-16", 
            "frame-type": "sentence", 
            "object-type": "frame", 
            "start-pos": {
                "object-type": "absolute-pos", 
                "offset": 16
            }, 
            "text": "The fact that two or more kinases cooperate to increase their oncogenic effects may dramatically impact the clinical treatment for those patients whose tumors are co-expressing RTKs with other kinases ( Stommel et al. , 2007 )"
        }, 
        {
            "frame-id": "sent-PMC2628450-cmu-17", 
            "frame-type": "sentence", 
            "object-type": "frame", 
            "start-pos": {
                "object-type": "absolute-pos", 
                "offset": 17
            }, 
            "text": "Since Src is highly expressed and deregulated in at least 70 % of human breast cancers ( Ishizawar & Parsons , 2004 ) , it is likely that RON and Src are co-expressed in a number of breast tumors ."
        }, 
        {
            "frame-id": "sent-PMC2628450-cmu-18", 
            "frame-type": "sentence", 
            "object-type": "frame", 
            "start-pos": {
                "object-type": "absolute-pos", 
                "offset": 18
            }, 
            "text": "Furthermore , Src is recognized as an important contributing factor to breast cancer progression ( Ishizawar et al. , 2004 ) ."
        }, 
        {
            "frame-id": "sent-PMC2628450-cmu-19", 
            "frame-type": "sentence", 
            "object-type": "frame", 
            "start-pos": {
                "object-type": "absolute-pos", 
                "offset": 19
            }, 
            "text": "In this study , we examined the contributions of RON , and its putative interaction with c-Src , to the progression of breast cancer by expressing RON in the well-characterized MCF-10A human mammary epithelial cell line ."
        }, 
        {
            "frame-id": "sent-PMC2628450-cmu-20", 
            "frame-type": "sentence", 
            "object-type": "frame", 
            "start-pos": {
                "object-type": "absolute-pos", 
                "offset": 20
            }, 
            "text": "MCF-10A cells are a powerful cell system with which to identify the effects of oncogenic signaling by RTKs ( Debnath et al. , 2003 ; Muthuswamy et al. , 2001 ) ."
        }, 
        {
            "frame-id": "sent-PMC2628450-cmu-21", 
            "frame-type": "sentence", 
            "object-type": "frame", 
            "start-pos": {
                "object-type": "absolute-pos", 
                "offset": 21
            }, 
            "text": "Our current research determined that the RON receptor was activated in the absence MSP when expressed in MCF-10A cells , which gave rise to evasion of cell death , an increase in spreading and an increased migratory potential ."
        }, 
        {
            "frame-id": "sent-PMC2628450-cmu-22", 
            "frame-type": "sentence", 
            "object-type": "frame", 
            "start-pos": {
                "object-type": "absolute-pos", 
                "offset": 22
            }, 
            "text": "MSP-stimulation of RON was required for RON-mediated cell migration and proliferation , which suggests that MSP-independent functions of RON are not solely a consequence of increased RON expression levels ."
        }, 
        {
            "frame-id": "sent-PMC2628450-cmu-23", 
            "frame-type": "sentence", 
            "object-type": "frame", 
            "start-pos": {
                "object-type": "absolute-pos", 
                "offset": 23
            }, 
            "text": "In addition , Src activity is required for RON-mediated , MSP-independent biologic effects ."
        }, 
        {
            "frame-id": "sent-PMC2628450-cmu-24", 
            "frame-type": "sentence", 
            "object-type": "frame", 
            "start-pos": {
                "object-type": "absolute-pos", 
                "offset": 24
            }, 
            "text": "These data imply that RON cooperates with Src in mammary epithelial cells to promote cellular changes that may allow progression toward a fully oncogenic state ."
        }, 
        {
            "frame-id": "sent-PMC2628450-cmu-25", 
            "frame-type": "sentence", 
            "object-type": "frame", 
            "start-pos": {
                "object-type": "absolute-pos", 
                "offset": 25
            }, 
            "text": "Results"
        }, 
        {
            "frame-id": "sent-PMC2628450-cmu-26", 
            "frame-type": "sentence", 
            "object-type": "frame", 
            "start-pos": {
                "object-type": "absolute-pos", 
                "offset": 26
            }, 
            "text": "Characterization of RON expression levels in MCF-10A cells"
        }, 
        {
            "frame-id": "sent-PMC2628450-cmu-27", 
            "frame-type": "sentence", 
            "object-type": "frame", 
            "start-pos": {
                "object-type": "absolute-pos", 
                "offset": 27
            }, 
            "text": "Endogenous levels of RON were low in the relatively normal epithelial cell line , MCF-10A ."
        }, 
        {
            "frame-id": "sent-PMC2628450-cmu-28", 
            "frame-type": "sentence", 
            "object-type": "frame", 
            "start-pos": {
                "object-type": "absolute-pos", 
                "offset": 28
            }, 
            "text": "Consequently , the cells did not respond to MSP in any biological or biochemical assays we have tested to date ."
        }, 
        {
            "frame-id": "sent-PMC2628450-cmu-29", 
            "frame-type": "sentence", 
            "object-type": "frame", 
            "start-pos": {
                "object-type": "absolute-pos", 
                "offset": 29
            }, 
            "text": "Therefore , to examine the contributions of RON to the progression of breast cancer , we transduced MCF-10A cells with a retrovirus expressing wild-type human RON and IRES-promoted GFP ."
        }, 
        {
            "frame-id": "sent-PMC2628450-cmu-30", 
            "frame-type": "sentence", 
            "object-type": "frame", 
            "start-pos": {
                "object-type": "absolute-pos", 
                "offset": 30
            }, 
            "text": "Pools of infected cells were selected for high , medium and low GFP expression levels by FACS , and , as expected , GFP levels were mimicked by expression levels of RON ( Figure 1a ) ."
        }, 
        {
            "frame-id": "sent-PMC2628450-cmu-31", 
            "frame-type": "sentence", 
            "object-type": "frame", 
            "start-pos": {
                "object-type": "absolute-pos", 
                "offset": 31
            }, 
            "text": "We designated these cells as 10A/RON and our vector-only negative control cell line was designated 10A/Vector ."
        }, 
        {
            "frame-id": "sent-PMC2628450-cmu-32", 
            "frame-type": "sentence", 
            "object-type": "frame", 
            "start-pos": {
                "object-type": "absolute-pos", 
                "offset": 32
            }, 
            "text": "The levels of RON expression in 10A/RON cells were well within the range of expression found in human breast carcinomas , some of which had RON levels that were up to 72-fold higher than the level found in benign tissue ( Maggiora et al. , 1998 ) ."
        }, 
        {
            "frame-id": "sent-PMC2628450-cmu-33", 
            "frame-type": "sentence", 
            "object-type": "frame", 
            "start-pos": {
                "object-type": "absolute-pos", 
                "offset": 33
            }, 
            "text": "High , medium and low 10A/RON cell lines behaved similarly in all of our experiments therefore , we utilized the medium-RON expressing MCF-10A cell line throughout this study ."
        }, 
        {
            "frame-id": "sent-PMC2628450-cmu-34", 
            "frame-type": "sentence", 
            "object-type": "frame", 
            "start-pos": {
                "object-type": "absolute-pos", 
                "offset": 34
            }, 
            "text": "RON exhibits MSP-independent tyrosine phosphorylation in MCF-10A cells"
        }, 
        {
            "frame-id": "sent-PMC2628450-cmu-35", 
            "frame-type": "sentence", 
            "object-type": "frame", 
            "start-pos": {
                "object-type": "absolute-pos", 
                "offset": 35
            }, 
            "text": "Although MSP is the only known ligand for RON , RON may not require MSP to induce some of its biological effects ."
        }, 
        {
            "frame-id": "sent-PMC2628450-cmu-36", 
            "frame-type": "sentence", 
            "object-type": "frame", 
            "start-pos": {
                "object-type": "absolute-pos", 
                "offset": 36
            }, 
            "text": "For example , RON knockout mice die by E6.5 ( Muraoka et al. , 1999 ) , whereas mice deficient in MSP exhibit a nearly normal phenotype ( Bezerra et al. , 1998 ) ."
        }, 
        {
            "frame-id": "sent-PMC2628450-cmu-37", 
            "frame-type": "sentence", 
            "object-type": "frame", 
            "start-pos": {
                "object-type": "absolute-pos", 
                "offset": 37
            }, 
            "text": "We detected MSP-independent tyrosine phosphorylation of RON using an anti-phospho-tyrosine antibody ( Figure 1b ) , antibodies directed specifically against tyrosine phosphorylated residues in the catalytic site ( Y1238/1239 ) and on C-terminal docking sites ( Y1353 and Y1360 ) of RON ( Figure 1c ) ."
        }, 
        {
            "frame-id": "sent-PMC2628450-cmu-38", 
            "frame-type": "sentence", 
            "object-type": "frame", 
            "start-pos": {
                "object-type": "absolute-pos", 
                "offset": 38
            }, 
            "text": "This data suggests that RON may transduce downstream signals in the absence of MSP ."
        }, 
        {
            "frame-id": "sent-PMC2628450-cmu-39", 
            "frame-type": "sentence", 
            "object-type": "frame", 
            "start-pos": {
                "object-type": "absolute-pos", 
                "offset": 39
            }, 
            "text": "RON also exhibited increased phosphorylation on Y1238/1239 and on the Y1360 docking site in the presence of exogenously added MSP ( Figure 1b , c ) ."
        }, 
        {
            "frame-id": "sent-PMC2628450-cmu-40", 
            "frame-type": "sentence", 
            "object-type": "frame", 
            "start-pos": {
                "object-type": "absolute-pos", 
                "offset": 40
            }, 
            "text": "There was no significant increase of phosphorylation on Y1353 with the addition of MSP ."
        }, 
        {
            "frame-id": "sent-PMC2628450-cmu-41", 
            "frame-type": "sentence", 
            "object-type": "frame", 
            "start-pos": {
                "object-type": "absolute-pos", 
                "offset": 41
            }, 
            "text": "RT-PCR analysis indicated that neither the 10A/Vector nor the 10A/RON cells endogenously express MSP ( Figure 1d ) , indicating that the activation of RON is not due to an autocrine loop unique to MCF-10A cells ."
        }, 
        {
            "frame-id": "sent-PMC2628450-cmu-42", 
            "frame-type": "sentence", 
            "object-type": "frame", 
            "start-pos": {
                "object-type": "absolute-pos", 
                "offset": 42
            }, 
            "text": "Similar levels of RON expression in NIH-3T3 cells did not lead to tyrosine phosphorylation of RON in the absence of ligand ( Supplementary Figure 1a ) , indicating that the RON receptor is not constitutively active , but rather that the activation seen in MCF-10A cells is a cell-specific effect ."
        }, 
        {
            "frame-id": "sent-PMC2628450-cmu-43", 
            "frame-type": "sentence", 
            "object-type": "frame", 
            "start-pos": {
                "object-type": "absolute-pos", 
                "offset": 43
            }, 
            "text": "MSP-independent tyrosine phosphorylation of RON is not unique to MCF-10A cells , as we can recapitulate the MSP-independent activation of RON by expressing RON in HeLa cells ( Supplementary Figure 1b ) ."
        }, 
        {
            "frame-id": "sent-PMC2628450-cmu-44", 
            "frame-type": "sentence", 
            "object-type": "frame", 
            "start-pos": {
                "object-type": "absolute-pos", 
                "offset": 44
            }, 
            "text": "Further , we found that a kinase dead mutant of RON , K1114M ( Danilkovitch-Miagkova et al. , 2000 ) , does not exhibit any tyrosine phosphorylation in HeLa cells ( Supplementary Figure 2b ) , providing evidence that the kinase activity of RON is necessary for phosphorylation ."
        }, 
        {
            "frame-id": "sent-PMC2628450-cmu-45", 
            "frame-type": "sentence", 
            "object-type": "frame", 
            "start-pos": {
                "object-type": "absolute-pos", 
                "offset": 45
            }, 
            "text": "MSP increases stimulation of MAPK and AKT but has no effect on the phosphorylation of FAK"
        }, 
        {
            "frame-id": "sent-PMC2628450-cmu-46", 
            "frame-type": "sentence", 
            "object-type": "frame", 
            "start-pos": {
                "object-type": "absolute-pos", 
                "offset": 46
            }, 
            "text": "We considered possible molecular differences between MSP-dependent and MSP-independent RON signaling in MCF-10A cells by looking at the activation of MAPK ( Erk 1/2 ) and AKT , which are known to be important for MSP-driven activation of RON in other cell systems ."
        }, 
        {
            "frame-id": "sent-PMC2628450-cmu-47", 
            "frame-type": "sentence", 
            "object-type": "frame", 
            "start-pos": {
                "object-type": "absolute-pos", 
                "offset": 47
            }, 
            "text": "In the absence of MSP , RON promotes a low level of MAPK activation and a barely detectable AKT activation ; however , MSP significantly increased the activation of both MAPK and AKT ( Figure 2a ) ."
        }, 
        {
            "frame-id": "sent-PMC2628450-cmu-48", 
            "frame-type": "sentence", 
            "object-type": "frame", 
            "start-pos": {
                "object-type": "absolute-pos", 
                "offset": 48
            }, 
            "text": "We also looked at whether a molecular distinction could be made in focal adhesion kinase ( FAK ) phosphorylation between MSP-dependent and independent RON signaling because of RON\u2019s known role in cell migration and its previously described interaction with the Src kinase ( Danilkovitch-Miagkova et al. , 2000 ) , which has a role in FAK signaling ."
        }, 
        {
            "frame-id": "sent-PMC2628450-cmu-49", 
            "frame-type": "sentence", 
            "object-type": "frame", 
            "start-pos": {
                "object-type": "absolute-pos", 
                "offset": 49
            }, 
            "text": "This data demonstrated that in MCF-10A cells , FAK is constitutively phosphorylated , and there was no discernible difference between 10A/Vector and 10A/RON cells in the presence or absence of MSP ( figure 2b ) ."
        }, 
        {
            "frame-id": "sent-PMC2628450-cmu-50", 
            "frame-type": "sentence", 
            "object-type": "frame", 
            "start-pos": {
                "object-type": "absolute-pos", 
                "offset": 50
            }, 
            "text": "Tyrosine-phosphorylation of RON is Src-dependent"
        }, 
        {
            "frame-id": "sent-PMC2628450-cmu-51", 
            "frame-type": "sentence", 
            "object-type": "frame", 
            "start-pos": {
                "object-type": "absolute-pos", 
                "offset": 51
            }, 
            "text": "Ligand-independent activation of RTKs can occur as a result of interaction with other cell surface receptors or other intracellular kinases ."
        }, 
        {
            "frame-id": "sent-PMC2628450-cmu-52", 
            "frame-type": "sentence", 
            "object-type": "frame", 
            "start-pos": {
                "object-type": "absolute-pos", 
                "offset": 52
            }, 
            "text": "We considered whether the intracellular Src kinase was required for phosphorylation of RON in 10A/RON cells for three reasons : wild-type Src is frequently upregulated in breast cancers ( Ottenhoff-Kalff et al. , 1992 ) , it is known to enhance RTK signals in cancer ( Tice et al. , 1999 ) and Src was implicated in signaling by RON ( Danilkovitch-Miagkova et al. , 2000 ) ."
        }, 
        {
            "frame-id": "sent-PMC2628450-cmu-53", 
            "frame-type": "sentence", 
            "object-type": "frame", 
            "start-pos": {
                "object-type": "absolute-pos", 
                "offset": 53
            }, 
            "text": "When Src activity was blocked with the inhibitor PP2 , we found that both MSP-dependent and MSP-independent phosphorylation of RON was reduced , although in the presence of MSP , substantially more tyrosine phosphorylation of RON remained after PP2 treatment ( Figure 3a ) ."
        }, 
        {
            "frame-id": "sent-PMC2628450-cmu-54", 
            "frame-type": "sentence", 
            "object-type": "frame", 
            "start-pos": {
                "object-type": "absolute-pos", 
                "offset": 54
            }, 
            "text": "These data suggest that MSP-stimulation of RON may promote the activation of additional Src-independent pathways compared to the pathways activated by MSP-independent signaling of RON ."
        }, 
        {
            "frame-id": "sent-PMC2628450-cmu-55", 
            "frame-type": "sentence", 
            "object-type": "frame", 
            "start-pos": {
                "object-type": "absolute-pos", 
                "offset": 55
            }, 
            "text": "To extend these observations , we tested the effect of a dominant-negative mutant of Src , ( in which the Src active site lysine was mutated to arginine ) , on the tyrosine phosphorylation of RON in HeLa cells ."
        }, 
        {
            "frame-id": "sent-PMC2628450-cmu-56", 
            "frame-type": "sentence", 
            "object-type": "frame", 
            "start-pos": {
                "object-type": "absolute-pos", 
                "offset": 56
            }, 
            "text": "MSP-dependent and MSP-independent phosphorylation of RON were blocked when RON was co-transfected with the dominant-negative Src construct ( Figure 3b ) ."
        }, 
        {
            "frame-id": "sent-PMC2628450-cmu-57", 
            "frame-type": "sentence", 
            "object-type": "frame", 
            "start-pos": {
                "object-type": "absolute-pos", 
                "offset": 57
            }, 
            "text": "These data suggest that Src family kinases play a general role in the tyrosine phosphorylation of RON in epithelial cells ."
        }, 
        {
            "frame-id": "sent-PMC2628450-cmu-58", 
            "frame-type": "sentence", 
            "object-type": "frame", 
            "start-pos": {
                "object-type": "absolute-pos", 
                "offset": 58
            }, 
            "text": "MSP-dependent and MSP-independent activation of RON give rise to distinct biological consequences"
        }, 
        {
            "frame-id": "sent-PMC2628450-cmu-59", 
            "frame-type": "sentence", 
            "object-type": "frame", 
            "start-pos": {
                "object-type": "absolute-pos", 
                "offset": 59
            }, 
            "text": "RON-mediated proliferation requires MSP"
        }, 
        {
            "frame-id": "sent-PMC2628450-cmu-60", 
            "frame-type": "sentence", 
            "object-type": "frame", 
            "start-pos": {
                "object-type": "absolute-pos", 
                "offset": 60
            }, 
            "text": "MCF-10A cells require the addition of EGF to proliferate , therefore , by omitting EGF from the growth media , we determined whether 10A/RON cells could proliferate both in the presence and absence of MSP ."
        }, 
        {
            "frame-id": "sent-PMC2628450-cmu-61", 
            "frame-type": "sentence", 
            "object-type": "frame", 
            "start-pos": {
                "object-type": "absolute-pos", 
                "offset": 61
            }, 
            "text": "Approximately 12 % of 10A/RON cells were BrdU positive when cultured without the addition of MSP or EGF compared to approximately 7 % BrdU incorporation in 10A/Vector cells ( Figure 4a ) ."
        }, 
        {
            "frame-id": "sent-PMC2628450-cmu-62", 
            "frame-type": "sentence", 
            "object-type": "frame", 
            "start-pos": {
                "object-type": "absolute-pos", 
                "offset": 62
            }, 
            "text": "In contrast , the addition of MSP to the media of 10A/RON cells led to approximately 30 % BrdU incorporation whereas the 10A/Vector cells did not proliferate in response to MSP ( Figure 4a ) ."
        }, 
        {
            "frame-id": "sent-PMC2628450-cmu-63", 
            "frame-type": "sentence", 
            "object-type": "frame", 
            "start-pos": {
                "object-type": "absolute-pos", 
                "offset": 63
            }, 
            "text": "With EGF , 35 % of both 10A/Vector and 10A/RON cells were BrdU positive ."
        }, 
        {
            "frame-id": "sent-PMC2628450-cmu-64", 
            "frame-type": "sentence", 
            "object-type": "frame", 
            "start-pos": {
                "object-type": "absolute-pos", 
                "offset": 64
            }, 
            "text": "These data indicate that MSP-independent activation of RON is not sufficient for cell proliferation however , due to the increased expression level of RON , MSP can act as a mitogen in 10A/RON cells ."
        }, 
        {
            "frame-id": "sent-PMC2628450-cmu-65", 
            "frame-type": "sentence", 
            "object-type": "frame", 
            "start-pos": {
                "object-type": "absolute-pos", 
                "offset": 65
            }, 
            "text": "Furthermore , the MSP-independent activation of RON does not appear to promote additive proliferative effects with EGFR stimulation ."
        }, 
        {
            "frame-id": "sent-PMC2628450-cmu-66", 
            "frame-type": "sentence", 
            "object-type": "frame", 
            "start-pos": {
                "object-type": "absolute-pos", 
                "offset": 66
            }, 
            "text": "RON-mediated migration requires MSP"
        }, 
        {
            "frame-id": "sent-PMC2628450-cmu-67", 
            "frame-type": "sentence", 
            "object-type": "frame", 
            "start-pos": {
                "object-type": "absolute-pos", 
                "offset": 67
            }, 
            "text": "MSP-stimulation of RON can increase epithelial cell migration ; however , it is not clear whether RON-mediated migration can occur in the absence of MSP ."
        }, 
        {
            "frame-id": "sent-PMC2628450-cmu-68", 
            "frame-type": "sentence", 
            "object-type": "frame", 
            "start-pos": {
                "object-type": "absolute-pos", 
                "offset": 68
            }, 
            "text": "Using Transwell filter migration assays , we confirmed that MSP induced migration in 10A/RON cells , but in the absence of MSP , 10A/RON cells did not significantly migrate ( Figure 4b , c ) ."
        }, 
        {
            "frame-id": "sent-PMC2628450-cmu-69", 
            "frame-type": "sentence", 
            "object-type": "frame", 
            "start-pos": {
                "object-type": "absolute-pos", 
                "offset": 69
            }, 
            "text": "We conclude that MSP-independent RON activation is not sufficient to promote cell migration in the absence of basally-added growth factors ."
        }, 
        {
            "frame-id": "sent-PMC2628450-cmu-70", 
            "frame-type": "sentence", 
            "object-type": "frame", 
            "start-pos": {
                "object-type": "absolute-pos", 
                "offset": 70
            }, 
            "text": "Both 10A/Vector and 10A/RON cells migrated in response to EGF ; however , at 6 hours after EGF addition , approximately 50 % more 10A/RON cells had migrated than 10A/Vector cells ( Figure 4c ) ."
        }, 
        {
            "frame-id": "sent-PMC2628450-cmu-71", 
            "frame-type": "sentence", 
            "object-type": "frame", 
            "start-pos": {
                "object-type": "absolute-pos", 
                "offset": 71
            }, 
            "text": "A similar effect was seen 18 hours after adding EGF , when approximately 27 % more of 10A/RON cells migrated through the filter than 10A/Vector cells ( Figure 4b ) ."
        }, 
        {
            "frame-id": "sent-PMC2628450-cmu-72", 
            "frame-type": "sentence", 
            "object-type": "frame", 
            "start-pos": {
                "object-type": "absolute-pos", 
                "offset": 72
            }, 
            "text": "To determine whether the increased migratory potential of 10A/RON cells was an EGF-specific phenomenon , we repeated the assay with the addition of the c-Met ligand , hepatocyte growth factor ( HGF ) , since MCF-10A cells express endogenous levels of Met ( Montesano et al. , 1998 ) ."
        }, 
        {
            "frame-id": "sent-PMC2628450-cmu-73", 
            "frame-type": "sentence", 
            "object-type": "frame", 
            "start-pos": {
                "object-type": "absolute-pos", 
                "offset": 73
            }, 
            "text": "In this case , approximately 30 % more 10A/RON cells migrated in response to HGF than 10A/Vector cells within 6 hours and approximately 60 % more 10A/RON cells migrated when cells were examined after 18 hours of HGF treatment ( Figure 4b , c ) ."
        }, 
        {
            "frame-id": "sent-PMC2628450-cmu-74", 
            "frame-type": "sentence", 
            "object-type": "frame", 
            "start-pos": {
                "object-type": "absolute-pos", 
                "offset": 74
            }, 
            "text": "These data suggest that although the MSP-independent activation of RON is not sufficient to promote migration on its own , the expression of RON in MCF-10A cells confers an intrinsic migratory advantage of these cells compared to 10A/Vector cells in response to EGF or HGF ."
        }, 
        {
            "frame-id": "sent-PMC2628450-cmu-75", 
            "frame-type": "sentence", 
            "object-type": "frame", 
            "start-pos": {
                "object-type": "absolute-pos", 
                "offset": 75
            }, 
            "text": "RON-mediated cell spreading is MSP-independent"
        }, 
        {
            "frame-id": "sent-PMC2628450-cmu-76", 
            "frame-type": "sentence", 
            "object-type": "frame", 
            "start-pos": {
                "object-type": "absolute-pos", 
                "offset": 76
            }, 
            "text": "During the process of cell migration , cells must first adhere to the substratum and then spread before extending lamellipodia to propel them forward ( Yamaguchi et al. , 2005 ) ."
        }, 
        {
            "frame-id": "sent-PMC2628450-cmu-77", 
            "frame-type": "sentence", 
            "object-type": "frame", 
            "start-pos": {
                "object-type": "absolute-pos", 
                "offset": 77
            }, 
            "text": "We hypothesized that if 10A/RON cells had an ability to adhere and/or spread more efficiently , it would explain the MSP-independent migratory advantage over the 10A/Vector cells ."
        }, 
        {
            "frame-id": "sent-PMC2628450-cmu-78", 
            "frame-type": "sentence", 
            "object-type": "frame", 
            "start-pos": {
                "object-type": "absolute-pos", 
                "offset": 78
            }, 
            "text": "To test this possibility , we allowed the 10A/Vector and 10A/RON cells to briefly attach to poly-d-lysine-coated coverslips ."
        }, 
        {
            "frame-id": "sent-PMC2628450-cmu-79", 
            "frame-type": "sentence", 
            "object-type": "frame", 
            "start-pos": {
                "object-type": "absolute-pos", 
                "offset": 79
            }, 
            "text": ".After 10 minutes the unattached cells were washed away and the remaining cells were fixed and stained with rhodamine-conjugated phalloidin to visualize the actin filaments ."
        }, 
        {
            "frame-id": "sent-PMC2628450-cmu-80", 
            "frame-type": "sentence", 
            "object-type": "frame", 
            "start-pos": {
                "object-type": "absolute-pos", 
                "offset": 80
            }, 
            "text": "Attached cells exhibited two phenotypes : they were either columnar in shape , which indicated a very early point in the cell attachment process , or the cells were flattened and spread , indicating a more advanced stage in the sequence of adhesion events ( Figure 5a ) ."
        }, 
        {
            "frame-id": "sent-PMC2628450-cmu-81", 
            "frame-type": "sentence", 
            "object-type": "frame", 
            "start-pos": {
                "object-type": "absolute-pos", 
                "offset": 81
            }, 
            "text": "When measured , the columnar cells were approximately 15\u201320 microns in diameter or less , whereas spreading cells ranged from 20\u201340 microns in diameter ( data not shown ) ."
        }, 
        {
            "frame-id": "sent-PMC2628450-cmu-82", 
            "frame-type": "sentence", 
            "object-type": "frame", 
            "start-pos": {
                "object-type": "absolute-pos", 
                "offset": 82
            }, 
            "text": "We quantified the difference between 10A/Vector and 10A/RON cells , and found that overall ; approximately 60 % of 10A/RON cells exhibited a flattened appearance within 10 minutes , compared with approximately 20 % spreading of the 10A/Vector cells ( Figure 5b , d ) ."
        }, 
        {
            "frame-id": "sent-PMC2628450-cmu-83", 
            "frame-type": "sentence", 
            "object-type": "frame", 
            "start-pos": {
                "object-type": "absolute-pos", 
                "offset": 83
            }, 
            "text": "The addition of MSP to this assay did not increase the percentage of spreading 10A/RON cells ."
        }, 
        {
            "frame-id": "sent-PMC2628450-cmu-84", 
            "frame-type": "sentence", 
            "object-type": "frame", 
            "start-pos": {
                "object-type": "absolute-pos", 
                "offset": 84
            }, 
            "text": "These data demonstrate that 10A/RON cells have acquired an expanded ability to spread on this substratum ."
        }, 
        {
            "frame-id": "sent-PMC2628450-cmu-85", 
            "frame-type": "sentence", 
            "object-type": "frame", 
            "start-pos": {
                "object-type": "absolute-pos", 
                "offset": 85
            }, 
            "text": "RON-mediated evasion of cell death is MSP-independent"
        }, 
        {
            "frame-id": "sent-PMC2628450-cmu-86", 
            "frame-type": "sentence", 
            "object-type": "frame", 
            "start-pos": {
                "object-type": "absolute-pos", 
                "offset": 86
            }, 
            "text": "MSP stimulation of RON has been associated with anti-apoptotic activity in epithelial cells ( Danilkovitch et al. , 2000 ) ."
        }, 
        {
            "frame-id": "sent-PMC2628450-cmu-87", 
            "frame-type": "sentence", 
            "object-type": "frame", 
            "start-pos": {
                "object-type": "absolute-pos", 
                "offset": 87
            }, 
            "text": "To examine whether RON can protect cells from cell death in the absence of MSP , we used a cell death assay in which we incubated cells in DMEM without added growth factors or serum for 72 hours ."
        }, 
        {
            "frame-id": "sent-PMC2628450-cmu-88", 
            "frame-type": "sentence", 
            "object-type": "frame", 
            "start-pos": {
                "object-type": "absolute-pos", 
                "offset": 88
            }, 
            "text": "Floating cells were collected from the media and pooled with the remaining adherent cells after they were removed from the plate by trypsinization ."
        }, 
        {
            "frame-id": "sent-PMC2628450-cmu-89", 
            "frame-type": "sentence", 
            "object-type": "frame", 
            "start-pos": {
                "object-type": "absolute-pos", 
                "offset": 89
            }, 
            "text": "Dead cells were identified by Propidium Iodide labeling and the percentage of cell survival was assessed by FACS analysis ."
        }, 
        {
            "frame-id": "sent-PMC2628450-cmu-90", 
            "frame-type": "sentence", 
            "object-type": "frame", 
            "start-pos": {
                "object-type": "absolute-pos", 
                "offset": 90
            }, 
            "text": "As seen in Figure 6a , only 7 % of the 10A/Vector cells survived under these conditions in contrast to 31 % of the 10A/RON cells ."
        }, 
        {
            "frame-id": "sent-PMC2628450-cmu-91", 
            "frame-type": "sentence", 
            "object-type": "frame", 
            "start-pos": {
                "object-type": "absolute-pos", 
                "offset": 91
            }, 
            "text": "MSP minimally increased the survival rate to 34 % ."
        }, 
        {
            "frame-id": "sent-PMC2628450-cmu-92", 
            "frame-type": "sentence", 
            "object-type": "frame", 
            "start-pos": {
                "object-type": "absolute-pos", 
                "offset": 92
            }, 
            "text": "These data imply that MSP-independent activation of RON improves 10A/RON cell survival in the absence of growth factors , and that MSP does not significantly contribute to this effect ."
        }, 
        {
            "frame-id": "sent-PMC2628450-cmu-93", 
            "frame-type": "sentence", 
            "object-type": "frame", 
            "start-pos": {
                "object-type": "absolute-pos", 
                "offset": 93
            }, 
            "text": "Figure 6b presents the phenotypic difference between 10A/Vector and 10A/RON cells when cultured without EGF ."
        }, 
        {
            "frame-id": "sent-PMC2628450-cmu-94", 
            "frame-type": "sentence", 
            "object-type": "frame", 
            "start-pos": {
                "object-type": "absolute-pos", 
                "offset": 94
            }, 
            "text": "After 4 days , most of the 10A/Vector cells were rounded-up , floating in the media , and stained positive for Propidium Iodide whereas the 10A/RON cells remained strongly adherent and began to proliferate when growth factors were added to the media ( data not shown ) ."
        }, 
        {
            "frame-id": "sent-PMC2628450-cmu-95", 
            "frame-type": "sentence", 
            "object-type": "frame", 
            "start-pos": {
                "object-type": "absolute-pos", 
                "offset": 95
            }, 
            "text": "The MCF-10A cells undergoing cell death in our survival assay appear to be dying by apoptosis , as Poly ( ADP-ribose ) polymerase ( PARP ) is cleaved in these cells ( Supplementary Figure 2b ) ."
        }, 
        {
            "frame-id": "sent-PMC2628450-cmu-96", 
            "frame-type": "sentence", 
            "object-type": "frame", 
            "start-pos": {
                "object-type": "absolute-pos", 
                "offset": 96
            }, 
            "text": "It was difficult to collect enough 10A/Vector cells for analysis , which is why in it is not possible to distinguish the cleaved form of PARP in the 10A/Vector cells , but it is clear that PARP is cleaved in dying 10A/RON cells from this data ."
        }, 
        {
            "frame-id": "sent-PMC2628450-cmu-97", 
            "frame-type": "sentence", 
            "object-type": "frame", 
            "start-pos": {
                "object-type": "absolute-pos", 
                "offset": 97
            }, 
            "text": "Effects of kinase inhibitors on RON-mediated biological effects"
        }, 
        {
            "frame-id": "sent-PMC2628450-cmu-98", 
            "frame-type": "sentence", 
            "object-type": "frame", 
            "start-pos": {
                "object-type": "absolute-pos", 
                "offset": 98
            }, 
            "text": "Because tyrosine phosphorylation of RON depends on the activity of Src family kinases ( Figure 3 ) , we examined whether Src signaling is required for RON-mediated biological effects ."
        }, 
        {
            "frame-id": "sent-PMC2628450-cmu-99", 
            "frame-type": "sentence", 
            "object-type": "frame", 
            "start-pos": {
                "object-type": "absolute-pos", 
                "offset": 99
            }, 
            "text": "We found that PP2 nearly abolished the increased survival of 10A/RON cells under serum-starved conditions regardless of whether MSP was added ( Figure 6a ) ."
        }, 
        {
            "frame-id": "sent-PMC2628450-cmu-100", 
            "frame-type": "sentence", 
            "object-type": "frame", 
            "start-pos": {
                "object-type": "absolute-pos", 
                "offset": 100
            }, 
            "text": "PP2 treatment had no effect on 10A/Vector and 10A/RON cells cultured in regular growth media for 72 hours ( Supplementary Figure 2a ) ."
        }, 
        {
            "frame-id": "sent-PMC2628450-cmu-101", 
            "frame-type": "sentence", 
            "object-type": "frame", 
            "start-pos": {
                "object-type": "absolute-pos", 
                "offset": 101
            }, 
            "text": "RON-mediated cell spreading was also completely abrogated by PP2 in both the absence and presence of MSP ( Figure 6c , d ) ."
        }, 
        {
            "frame-id": "sent-PMC2628450-cmu-102", 
            "frame-type": "sentence", 
            "object-type": "frame", 
            "start-pos": {
                "object-type": "absolute-pos", 
                "offset": 102
            }, 
            "text": "Src activity was not necessary for cell proliferation in response to EGF or MSP , as PP2 treatment did not influence BrdU incorporation ( data not shown ) ."
        }, 
        {
            "frame-id": "sent-PMC2628450-cmu-103", 
            "frame-type": "sentence", 
            "object-type": "frame", 
            "start-pos": {
                "object-type": "absolute-pos", 
                "offset": 103
            }, 
            "text": "However , PP2 abolished cell migration in response to either MSP or EGF ( data not shown ) , which could potentially be due to the effect of PP2 on cell attachment ."
        }, 
        {
            "frame-id": "sent-PMC2628450-cmu-104", 
            "frame-type": "sentence", 
            "object-type": "frame", 
            "start-pos": {
                "object-type": "absolute-pos", 
                "offset": 104
            }, 
            "text": "We also determined the influence of PI3K/AKT ( LY294002 ) and MEK/ERK ( U0126 ) inhibitors on RON-mediated biological effects ."
        }, 
        {
            "frame-id": "sent-PMC2628450-cmu-105", 
            "frame-type": "sentence", 
            "object-type": "frame", 
            "start-pos": {
                "object-type": "absolute-pos", 
                "offset": 105
            }, 
            "text": "In contrast to PP2 these inhibitors had no effects on cell spreading either with or without MSP ."
        }, 
        {
            "frame-id": "sent-PMC2628450-cmu-106", 
            "frame-type": "sentence", 
            "object-type": "frame", 
            "start-pos": {
                "object-type": "absolute-pos", 
                "offset": 106
            }, 
            "text": "These two inhibitors did , however , completely abrogate the cell survival properties of RON and reduced MSP-induced Transwell migration by 60\u201380 % ( data not shown ) ."
        }, 
        {
            "frame-id": "sent-PMC2628450-cmu-107", 
            "frame-type": "sentence", 
            "object-type": "frame", 
            "start-pos": {
                "object-type": "absolute-pos", 
                "offset": 107
            }, 
            "text": "These data imply the activity of Src family kinases are required for RON-mediated MSP-independent events , but it remains unclear if all MSP-mediated events also depend on Src ."
        }, 
        {
            "frame-id": "sent-PMC2628450-cmu-108", 
            "frame-type": "sentence", 
            "object-type": "frame", 
            "start-pos": {
                "object-type": "absolute-pos", 
                "offset": 108
            }, 
            "text": "Discussion"
        }, 
        {
            "frame-id": "sent-PMC2628450-cmu-109", 
            "frame-type": "sentence", 
            "object-type": "frame", 
            "start-pos": {
                "object-type": "absolute-pos", 
                "offset": 109
            }, 
            "text": "Our study describes a novel and significant role for MSP-independent RON signaling in cell spreading and evasion of cell death ."
        }, 
        {
            "frame-id": "sent-PMC2628450-cmu-110", 
            "frame-type": "sentence", 
            "object-type": "frame", 
            "start-pos": {
                "object-type": "absolute-pos", 
                "offset": 110
            }, 
            "text": "We found that increased expression of RON in breast epithelial cells leads to both MSP-dependent and MSP-independent biological events ."
        }, 
        {
            "frame-id": "sent-PMC2628450-cmu-111", 
            "frame-type": "sentence", 
            "object-type": "frame", 
            "start-pos": {
                "object-type": "absolute-pos", 
                "offset": 111
            }, 
            "text": "In the absence of MSP , RON promoted an increase in cell spreading , cell survival and enhanced growth-factor mediated migration in MCF-10A cells ."
        }, 
        {
            "frame-id": "sent-PMC2628450-cmu-112", 
            "frame-type": "sentence", 
            "object-type": "frame", 
            "start-pos": {
                "object-type": "absolute-pos", 
                "offset": 112
            }, 
            "text": "MSP was required , however , to induce RON-mediated migration and proliferation , implying that RON possesses two distinct modes of signaling ."
        }, 
        {
            "frame-id": "sent-PMC2628450-cmu-113", 
            "frame-type": "sentence", 
            "object-type": "frame", 
            "start-pos": {
                "object-type": "absolute-pos", 
                "offset": 113
            }, 
            "text": "Furthermore , we found that Src family kinases contribute to the activity of RON in both the presence and absence of MSP ."
        }, 
        {
            "frame-id": "sent-PMC2628450-cmu-114", 
            "frame-type": "sentence", 
            "object-type": "frame", 
            "start-pos": {
                "object-type": "absolute-pos", 
                "offset": 114
            }, 
            "text": "Ligand-independent activation of non-mutated RTKs is commonly due to increased expression that allows unregulated receptor dimerization and activation , promoting tumor development ( Weiss et al. , 1997 ) ."
        }, 
        {
            "frame-id": "sent-PMC2628450-cmu-115", 
            "frame-type": "sentence", 
            "object-type": "frame", 
            "start-pos": {
                "object-type": "absolute-pos", 
                "offset": 115
            }, 
            "text": "In epithelial cells that express high amounts of c-Met , cell attachment mediates ligand-independent tyrosine phosphorylation of c-Met ( Wang et al. , 2001 ; Wang et al. , 1996 ) ."
        }, 
        {
            "frame-id": "sent-PMC2628450-cmu-116", 
            "frame-type": "sentence", 
            "object-type": "frame", 
            "start-pos": {
                "object-type": "absolute-pos", 
                "offset": 116
            }, 
            "text": "In our study , we did not find that MSP-independent tyrosine phosphorylation of RON was a direct result of cell attachment ( data not shown ) ."
        }, 
        {
            "frame-id": "sent-PMC2628450-cmu-117", 
            "frame-type": "sentence", 
            "object-type": "frame", 
            "start-pos": {
                "object-type": "absolute-pos", 
                "offset": 117
            }, 
            "text": "However , we found that 10A/RON cells exhibited a significant increase in cell attachment and spreading compared to 10A/Vector cells , suggesting that cell adhesion may generally regulate the scatter factor receptors ."
        }, 
        {
            "frame-id": "sent-PMC2628450-cmu-118", 
            "frame-type": "sentence", 
            "object-type": "frame", 
            "start-pos": {
                "object-type": "absolute-pos", 
                "offset": 118
            }, 
            "text": "We hypothesize that the increased adhesive and spreading property of 10A/RON cells explains their enhanced migratory response toward EGF and HGF , as well as their ability to avoid cell death under serum starved conditions ."
        }, 
        {
            "frame-id": "sent-PMC2628450-cmu-119", 
            "frame-type": "sentence", 
            "object-type": "frame", 
            "start-pos": {
                "object-type": "absolute-pos", 
                "offset": 119
            }, 
            "text": "During migration , 10A/RON cells may attach to the filter more quickly than 10A/Vector cells , allowing for more efficient movement through the pores ."
        }, 
        {
            "frame-id": "sent-PMC2628450-cmu-120", 
            "frame-type": "sentence", 
            "object-type": "frame", 
            "start-pos": {
                "object-type": "absolute-pos", 
                "offset": 120
            }, 
            "text": "Cell adhesion itself activates survival pathways via integrins or other cell surface receptors ( Hofmann et al. , 2007 ; Kang et al. , 2007 ; Muller et al. , 2008 ) ."
        }, 
        {
            "frame-id": "sent-PMC2628450-cmu-121", 
            "frame-type": "sentence", 
            "object-type": "frame", 
            "start-pos": {
                "object-type": "absolute-pos", 
                "offset": 121
            }, 
            "text": "The ability of cells to evade intrinsic cell death pathways is a major contributor to tumor development ( Mehlen & Puisieux , 2006 ) ."
        }, 
        {
            "frame-id": "sent-PMC2628450-cmu-122", 
            "frame-type": "sentence", 
            "object-type": "frame", 
            "start-pos": {
                "object-type": "absolute-pos", 
                "offset": 122
            }, 
            "text": "Even at the lowest level of RON expression , at least 30 % of 10A/RON cells survived serum-free conditions compared to almost no survival of the 10A/Vector cells ."
        }, 
        {
            "frame-id": "sent-PMC2628450-cmu-123", 
            "frame-type": "sentence", 
            "object-type": "frame", 
            "start-pos": {
                "object-type": "absolute-pos", 
                "offset": 123
            }, 
            "text": "It is not known whether the adhesion effects are mediated by interactions of RON with receptors , such as integrins ."
        }, 
        {
            "frame-id": "sent-PMC2628450-cmu-124", 
            "frame-type": "sentence", 
            "object-type": "frame", 
            "start-pos": {
                "object-type": "absolute-pos", 
                "offset": 124
            }, 
            "text": "MCF-10A cells have been reported to secrete laminin 5 ( ( Stahl et al. , 1997 ) and our own unpublished results ) ."
        }, 
        {
            "frame-id": "sent-PMC2628450-cmu-125", 
            "frame-type": "sentence", 
            "object-type": "frame", 
            "start-pos": {
                "object-type": "absolute-pos", 
                "offset": 125
            }, 
            "text": "RON is known to interact with \u03b21 integrins ( Danilkovitch-Miagkova et al. , 2000 ; Santoro et al. , 2003 ) , one of the receptors for laminin 5 , however we could not demonstrate that 10A/RON cells bound more strongly to laminin 5 than did 10A/Vector cells ( data not shown ) ."
        }, 
        {
            "frame-id": "sent-PMC2628450-cmu-126", 
            "frame-type": "sentence", 
            "object-type": "frame", 
            "start-pos": {
                "object-type": "absolute-pos", 
                "offset": 126
            }, 
            "text": "Src mediates a diverse range of biological processes downstream of RTKs , such as cell survival ( Yamamoto et al. , 2006 ) , proliferation ( Riggins et al. , 2006 ) , adhesion and migration ( Van Slambrouck et al. , 2007 ) ."
        }, 
        {
            "frame-id": "sent-PMC2628450-cmu-127", 
            "frame-type": "sentence", 
            "object-type": "frame", 
            "start-pos": {
                "object-type": "absolute-pos", 
                "offset": 127
            }, 
            "text": "Furthermore , RON signals via Src downstream of integrins ( Danilkovitch-Miagkova et al. , 2000 ) and Src was responsible for RON-mediated constitutive activation of MAPK in the absence of MSP ( Wei et al. , 2005 ) ."
        }, 
        {
            "frame-id": "sent-PMC2628450-cmu-128", 
            "frame-type": "sentence", 
            "object-type": "frame", 
            "start-pos": {
                "object-type": "absolute-pos", 
                "offset": 128
            }, 
            "text": "Our data confirms that Src family kinases play a significant role in both MSP-dependent and MSP-independent RON signaling ."
        }, 
        {
            "frame-id": "sent-PMC2628450-cmu-129", 
            "frame-type": "sentence", 
            "object-type": "frame", 
            "start-pos": {
                "object-type": "absolute-pos", 
                "offset": 129
            }, 
            "text": "We found that inhibition of Src family kinases reduced tyrosine phosphorylation of RON and abrogated RON-mediated biological events , with the exception of cell proliferation , implying that RON utilizes a Src-independent pathway to mediate proliferation in MCF-10A cells ."
        }, 
        {
            "frame-id": "sent-PMC2628450-cmu-130", 
            "frame-type": "sentence", 
            "object-type": "frame", 
            "start-pos": {
                "object-type": "absolute-pos", 
                "offset": 130
            }, 
            "text": "In the case of EGFR , Src mediates EGF-independent transactivation , which promotes differential biological effects than EGF-stimulation of EGFR ( Moro et al. , 2002 ; Wu et al. , 2002 ) This is similar to the observations reported here on the MSP-independent activation of RON ."
        }, 
        {
            "frame-id": "sent-PMC2628450-cmu-131", 
            "frame-type": "sentence", 
            "object-type": "frame", 
            "start-pos": {
                "object-type": "absolute-pos", 
                "offset": 131
            }, 
            "text": "In the presence of MSP , RON activates the MAPK and PI3K pathways ( ( Danilkovitch-Miagkova , 2003 ) .and Figure 2 ) ."
        }, 
        {
            "frame-id": "sent-PMC2628450-cmu-132", 
            "frame-type": "sentence", 
            "object-type": "frame", 
            "start-pos": {
                "object-type": "absolute-pos", 
                "offset": 132
            }, 
            "text": "We found that MSP-independent signaling by RON also activates MAPK ( Figure 2 ) , however , the reduced level of stimulation was not sufficient for RON-mediated proliferation or migration ."
        }, 
        {
            "frame-id": "sent-PMC2628450-cmu-133", 
            "frame-type": "sentence", 
            "object-type": "frame", 
            "start-pos": {
                "object-type": "absolute-pos", 
                "offset": 133
            }, 
            "text": "To examine the role of these pathways further we used the inhibitors LY294002 to block PI3K/AKT or U0126 to block MEK/ERK ."
        }, 
        {
            "frame-id": "sent-PMC2628450-cmu-134", 
            "frame-type": "sentence", 
            "object-type": "frame", 
            "start-pos": {
                "object-type": "absolute-pos", 
                "offset": 134
            }, 
            "text": "These pathways were clearly not involved in cell-spreading but did play a role in MSP-dependent and independent cell survival and also in MSP-induced migration ."
        }, 
        {
            "frame-id": "sent-PMC2628450-cmu-135", 
            "frame-type": "sentence", 
            "object-type": "frame", 
            "start-pos": {
                "object-type": "absolute-pos", 
                "offset": 135
            }, 
            "text": "In addition to MAPK and AKT , there is also the potential that MSP regulates additional or alternative signaling pathways to MSP-independent signaling ."
        }, 
        {
            "frame-id": "sent-PMC2628450-cmu-136", 
            "frame-type": "sentence", 
            "object-type": "frame", 
            "start-pos": {
                "object-type": "absolute-pos", 
                "offset": 136
            }, 
            "text": "MSP-stimulation of RON induces conformational changes ( Yokoyama et al. , 2005 ) that could potentially expose alternative residues to activate distinct pathways , or alter the signal intensity and duration ."
        }, 
        {
            "frame-id": "sent-PMC2628450-cmu-137", 
            "frame-type": "sentence", 
            "object-type": "frame", 
            "start-pos": {
                "object-type": "absolute-pos", 
                "offset": 137
            }, 
            "text": "MSP-activation of RON increased phosphorylation of the docking site Y1360 as well as Y1238/1239 in the catalytic domain ( Figure 1c ) , implying that some structural changes do occur in the presence of MSP ."
        }, 
        {
            "frame-id": "sent-PMC2628450-cmu-138", 
            "frame-type": "sentence", 
            "object-type": "frame", 
            "start-pos": {
                "object-type": "absolute-pos", 
                "offset": 138
            }, 
            "text": "In the mouse RON receptor , docking site tyrosines of RON were required for MSP-independent activation of MAPK , but were dispensable for MSP-induced MAPK activation ( Wei et al. , 2005 ) ."
        }, 
        {
            "frame-id": "sent-PMC2628450-cmu-139", 
            "frame-type": "sentence", 
            "object-type": "frame", 
            "start-pos": {
                "object-type": "absolute-pos", 
                "offset": 139
            }, 
            "text": "A future comprehensive analysis of human RON tyrosine phosphorylation sites would appear merited ."
        }, 
        {
            "frame-id": "sent-PMC2628450-cmu-140", 
            "frame-type": "sentence", 
            "object-type": "frame", 
            "start-pos": {
                "object-type": "absolute-pos", 
                "offset": 140
            }, 
            "text": "RON activation in cancer is thought to be a late stage event , due to its roles in migration , invasion and development of EMT in tissue culture ( Cote et al. , 2007 ; Wang et al. , 2004 ) ."
        }, 
        {
            "frame-id": "sent-PMC2628450-cmu-141", 
            "frame-type": "sentence", 
            "object-type": "frame", 
            "start-pos": {
                "object-type": "absolute-pos", 
                "offset": 141
            }, 
            "text": "We propose that in early stage breast cancers , co-expression of Src and RON is sufficient to initiate oncogenic behavior in the absence of MSP ."
        }, 
        {
            "frame-id": "sent-PMC2628450-cmu-142", 
            "frame-type": "sentence", 
            "object-type": "frame", 
            "start-pos": {
                "object-type": "absolute-pos", 
                "offset": 142
            }, 
            "text": "In support of this , one recent study concluded that co-expression of RON , MSP and the MSP-activating enzyme ( MT-SP1 ) was a strong prognostic marker for a poor patient survival ; however , less than 20 % of the samples actually exhibited expression of all three mRNAs ( Welm et al. , 2007 ) ."
        }, 
        {
            "frame-id": "sent-PMC2628450-cmu-143", 
            "frame-type": "sentence", 
            "object-type": "frame", 
            "start-pos": {
                "object-type": "absolute-pos", 
                "offset": 143
            }, 
            "text": "Nonetheless , clinical studies have shown that RON expression alone is predictive for a poor patient prognosis in breast cancers ( Lee et al. , 2005 ) ."
        }, 
        {
            "frame-id": "sent-PMC2628450-cmu-144", 
            "frame-type": "sentence", 
            "object-type": "frame", 
            "start-pos": {
                "object-type": "absolute-pos", 
                "offset": 144
            }, 
            "text": "Taken together , these data offer two major implications ."
        }, 
        {
            "frame-id": "sent-PMC2628450-cmu-145", 
            "frame-type": "sentence", 
            "object-type": "frame", 
            "start-pos": {
                "object-type": "absolute-pos", 
                "offset": 145
            }, 
            "text": "First is that in the majority of RON-expressing breast cancers , RON contributes to oncogenicity in the absence of activated MSP ."
        }, 
        {
            "frame-id": "sent-PMC2628450-cmu-146", 
            "frame-type": "sentence", 
            "object-type": "frame", 
            "start-pos": {
                "object-type": "absolute-pos", 
                "offset": 146
            }, 
            "text": "The second implication is that RON expression and its ligand-independent signaling in breast cancer are early events , and that the later stage disease is characterized by further activation of MSP and MT-SP1 ."
        }, 
        {
            "frame-id": "sent-PMC2628450-cmu-147", 
            "frame-type": "sentence", 
            "object-type": "frame", 
            "start-pos": {
                "object-type": "absolute-pos", 
                "offset": 147
            }, 
            "text": "Nearly all cancer deaths stem from metastatic growths rather than the primary tumors ( Mehlen & Puisieux , 2006 ) , and therefore , it is critical to design cancer therapies that target events occurring in early stages of cancer to prevent secondary growths ."
        }, 
        {
            "frame-id": "sent-PMC2628450-cmu-148", 
            "frame-type": "sentence", 
            "object-type": "frame", 
            "start-pos": {
                "object-type": "absolute-pos", 
                "offset": 148
            }, 
            "text": "Several therapeutic strategies have recently been developed to target RTKs in human cancers ."
        }, 
        {
            "frame-id": "sent-PMC2628450-cmu-149", 
            "frame-type": "sentence", 
            "object-type": "frame", 
            "start-pos": {
                "object-type": "absolute-pos", 
                "offset": 149
            }, 
            "text": "These agents are either small molecule inhibitors that block RTK kinase activity or monoclonal antibodies that bind to the RTK and inhibit its signaling ( Tagliaferri et al. , 2005 ) ."
        }, 
        {
            "frame-id": "sent-PMC2628450-cmu-150", 
            "frame-type": "sentence", 
            "object-type": "frame", 
            "start-pos": {
                "object-type": "absolute-pos", 
                "offset": 150
            }, 
            "text": "Both of these molecular approaches have proven to be clinically successful in many cases , however , strategies targeting the extracellular ligand-binding domain of RTKs may not be successful in treating patients whose tumors exhibit signaling in the absence of ligand ."
        }, 
        {
            "frame-id": "sent-PMC2628450-cmu-151", 
            "frame-type": "sentence", 
            "object-type": "frame", 
            "start-pos": {
                "object-type": "absolute-pos", 
                "offset": 151
            }, 
            "text": "We provide evidence that in the case of RON-expressing mammary tumors , targeting Src in addition to RON could potentially reduce oncogenic behaviors ."
        }, 
        {
            "frame-id": "sent-PMC2628450-cmu-152", 
            "frame-type": "sentence", 
            "object-type": "frame", 
            "start-pos": {
                "object-type": "absolute-pos", 
                "offset": 152
            }, 
            "text": "Materials and Methods"
        }, 
        {
            "frame-id": "sent-PMC2628450-cmu-153", 
            "frame-type": "sentence", 
            "object-type": "frame", 
            "start-pos": {
                "object-type": "absolute-pos", 
                "offset": 153
            }, 
            "text": "Materials and antibodies"
        }, 
        {
            "frame-id": "sent-PMC2628450-cmu-154", 
            "frame-type": "sentence", 
            "object-type": "frame", 
            "start-pos": {
                "object-type": "absolute-pos", 
                "offset": 154
            }, 
            "text": "MSP and the anti-MSP Receptor antibody were from R & D Systems ( Minneapolis , MN , USA ) ."
        }, 
        {
            "frame-id": "sent-PMC2628450-cmu-155", 
            "frame-type": "sentence", 
            "object-type": "frame", 
            "start-pos": {
                "object-type": "absolute-pos", 
                "offset": 155
            }, 
            "text": "EGF was from Peprotech ( Rocky Hill , NJ , USA ) ."
        }, 
        {
            "frame-id": "sent-PMC2628450-cmu-156", 
            "frame-type": "sentence", 
            "object-type": "frame", 
            "start-pos": {
                "object-type": "absolute-pos", 
                "offset": 156
            }, 
            "text": "HGF was a gift from Amgen ( Thousand Oaks , CA , USA ) ."
        }, 
        {
            "frame-id": "sent-PMC2628450-cmu-157", 
            "frame-type": "sentence", 
            "object-type": "frame", 
            "start-pos": {
                "object-type": "absolute-pos", 
                "offset": 157
            }, 
            "text": "Poly-d-Lysine ( P6407 ) , Propidium Iodide ( P4864 ) and anti-BrdU antibody ( Clone BU-33 ) were from Sigma-Aldrich ( St. Louis , MO , USA ) ."
        }, 
        {
            "frame-id": "sent-PMC2628450-cmu-158", 
            "frame-type": "sentence", 
            "object-type": "frame", 
            "start-pos": {
                "object-type": "absolute-pos", 
                "offset": 158
            }, 
            "text": "AlexFluor 546 ( A11030 ) , rhodamine-phalloidin ( R415 ) and Hoechst 33342 were from Molecular Probes/Invitrogen ( Eugene , OR , USA ) ."
        }, 
        {
            "frame-id": "sent-PMC2628450-cmu-159", 
            "frame-type": "sentence", 
            "object-type": "frame", 
            "start-pos": {
                "object-type": "absolute-pos", 
                "offset": 159
            }, 
            "text": "Antibodies for Western Blots were : 4G10 and anti-MAPK from Upstate Biotechnology , Inc ( Lake Placid , NY , USA ) , anti-phospho-MAPK and anti-FAK from BD Transduction Laboratories ( San Diego , CA , USA ) , anti-RON ( sc-22 ) and all anti-phospho-RON rabbit polyclonal antibodies were from Santa Cruz Biotechnology , Inc. ( Santa Cruz , CA , USA ) and anti-phospho-AKT was from Cell Signaling ( Danvers , MA , USA ) , PP2 was from BioMol ( Plymouth Meeting , PA , USA ) ."
        }, 
        {
            "frame-id": "sent-PMC2628450-cmu-160", 
            "frame-type": "sentence", 
            "object-type": "frame", 
            "start-pos": {
                "object-type": "absolute-pos", 
                "offset": 160
            }, 
            "text": "Cell culture"
        }, 
        {
            "frame-id": "sent-PMC2628450-cmu-161", 
            "frame-type": "sentence", 
            "object-type": "frame", 
            "start-pos": {
                "object-type": "absolute-pos", 
                "offset": 161
            }, 
            "text": "Cell culture materials were purchased from Gibco/Invitrogen ( Carlsbad , CA , USA ) ."
        }, 
        {
            "frame-id": "sent-PMC2628450-cmu-162", 
            "frame-type": "sentence", 
            "object-type": "frame", 
            "start-pos": {
                "object-type": "absolute-pos", 
                "offset": 162
            }, 
            "text": "NIH-3T3 and HeLa cells were cultured in Dulbecco\u2019s modified Eagle\u2019s medium ( DMEM ) containing 10 % fetal bovine serum and antibiotics ."
        }, 
        {
            "frame-id": "sent-PMC2628450-cmu-163", 
            "frame-type": "sentence", 
            "object-type": "frame", 
            "start-pos": {
                "object-type": "absolute-pos", 
                "offset": 163
            }, 
            "text": "10A/Vector and 10A/RON cells were cultured as described ( Debnath et al. , 2003 ) ."
        }, 
        {
            "frame-id": "sent-PMC2628450-cmu-164", 
            "frame-type": "sentence", 
            "object-type": "frame", 
            "start-pos": {
                "object-type": "absolute-pos", 
                "offset": 164
            }, 
            "text": "pUSE-DN-Src , was provided by Dr. WT Miller ( SUNY StonyBrook ) ."
        }, 
        {
            "frame-id": "sent-PMC2628450-cmu-165", 
            "frame-type": "sentence", 
            "object-type": "frame", 
            "start-pos": {
                "object-type": "absolute-pos", 
                "offset": 165
            }, 
            "text": "HeLa cells were transfected with Fugene ( Roche Applied Science , Indianapolis , IN , USA ) ."
        }, 
        {
            "frame-id": "sent-PMC2628450-cmu-166", 
            "frame-type": "sentence", 
            "object-type": "frame", 
            "start-pos": {
                "object-type": "absolute-pos", 
                "offset": 166
            }, 
            "text": "The K1114M Ron mutant was generated using a GeneEditor mutagenesis kit ( Promega , Madison , WI , USA ) with the previously reported oligonucleotide ( Danilkovitch-Miagkova et al. , 2000 ) ."
        }, 
        {
            "frame-id": "sent-PMC2628450-cmu-167", 
            "frame-type": "sentence", 
            "object-type": "frame", 
            "start-pos": {
                "object-type": "absolute-pos", 
                "offset": 167
            }, 
            "text": "Generation of MCF-10A/RON cell lines"
        }, 
        {
            "frame-id": "sent-PMC2628450-cmu-168", 
            "frame-type": "sentence", 
            "object-type": "frame", 
            "start-pos": {
                "object-type": "absolute-pos", 
                "offset": 168
            }, 
            "text": "Retroviruses expressing wild-type human RON were generated by transfection of Phoenix E cells with REBNA-RON-IRES-GFP retroviral vector ( Petrenko et al. , 1999 ) ."
        }, 
        {
            "frame-id": "sent-PMC2628450-cmu-169", 
            "frame-type": "sentence", 
            "object-type": "frame", 
            "start-pos": {
                "object-type": "absolute-pos", 
                "offset": 169
            }, 
            "text": "Virus-containing supernatant from the Phoenix E cells was added to MCF-10A/ecoR cells for 6 hours ."
        }, 
        {
            "frame-id": "sent-PMC2628450-cmu-170", 
            "frame-type": "sentence", 
            "object-type": "frame", 
            "start-pos": {
                "object-type": "absolute-pos", 
                "offset": 170
            }, 
            "text": "See the Nolan Laboratory website for further details on generating retroviruses with the Phoenix E cell system ( http : //www.stanford.edu/group/nolan/index.html ) ."
        }, 
        {
            "frame-id": "sent-PMC2628450-cmu-171", 
            "frame-type": "sentence", 
            "object-type": "frame", 
            "start-pos": {
                "object-type": "absolute-pos", 
                "offset": 171
            }, 
            "text": "Proliferation Assays"
        }, 
        {
            "frame-id": "sent-PMC2628450-cmu-172", 
            "frame-type": "sentence", 
            "object-type": "frame", 
            "start-pos": {
                "object-type": "absolute-pos", 
                "offset": 172
            }, 
            "text": "Cells were cultured on coverslips for 48 hours in specified media , pulsed with 5-bromo-2\u2032-deoxyuridine ( BrdU ) for 2 hour , washed with phosphate-buffered saline , fixed with methanol , and treated with 4N HCl for 30 minutes ."
        }, 
        {
            "frame-id": "sent-PMC2628450-cmu-173", 
            "frame-type": "sentence", 
            "object-type": "frame", 
            "start-pos": {
                "object-type": "absolute-pos", 
                "offset": 173
            }, 
            "text": "BrdU was labeled with an anti-BrdU antibody and detected using AlexaFluor 546 secondary antibody ."
        }, 
        {
            "frame-id": "sent-PMC2628450-cmu-174", 
            "frame-type": "sentence", 
            "object-type": "frame", 
            "start-pos": {
                "object-type": "absolute-pos", 
                "offset": 174
            }, 
            "text": "The percent of BrdU-positive cells was determined by counting at least 500 cells per coverslip ."
        }, 
        {
            "frame-id": "sent-PMC2628450-cmu-175", 
            "frame-type": "sentence", 
            "object-type": "frame", 
            "start-pos": {
                "object-type": "absolute-pos", 
                "offset": 175
            }, 
            "text": "Transwell migration assay"
        }, 
        {
            "frame-id": "sent-PMC2628450-cmu-176", 
            "frame-type": "sentence", 
            "object-type": "frame", 
            "start-pos": {
                "object-type": "absolute-pos", 
                "offset": 176
            }, 
            "text": "Cells were starved overnight in DMEM/F-12 media containing 1 % horse serum ."
        }, 
        {
            "frame-id": "sent-PMC2628450-cmu-177", 
            "frame-type": "sentence", 
            "object-type": "frame", 
            "start-pos": {
                "object-type": "absolute-pos", 
                "offset": 177
            }, 
            "text": "100,000 cells were added to the top well of a 24-well , 0.8 micron pore Transwell filter insert ( Costar , Corning , NY , USA ) ."
        }, 
        {
            "frame-id": "sent-PMC2628450-cmu-178", 
            "frame-type": "sentence", 
            "object-type": "frame", 
            "start-pos": {
                "object-type": "absolute-pos", 
                "offset": 178
            }, 
            "text": "Media added to the bottom well contained no growth factors , 10ng/ml EGF , 100 ng/ml MSP or 2 ng/ml HGF ."
        }, 
        {
            "frame-id": "sent-PMC2628450-cmu-179", 
            "frame-type": "sentence", 
            "object-type": "frame", 
            "start-pos": {
                "object-type": "absolute-pos", 
                "offset": 179
            }, 
            "text": "After 6 or 18 hours , cells that remained in the top chamber were removed with a cotton swab , the migrated cells were fixed , and DNA was labeled with Hoechst ."
        }, 
        {
            "frame-id": "sent-PMC2628450-cmu-180", 
            "frame-type": "sentence", 
            "object-type": "frame", 
            "start-pos": {
                "object-type": "absolute-pos", 
                "offset": 180
            }, 
            "text": "The number of migrating cells per field of view was counted on a fluorescent microscope under a 20X magnification ."
        }, 
        {
            "frame-id": "sent-PMC2628450-cmu-181", 
            "frame-type": "sentence", 
            "object-type": "frame", 
            "start-pos": {
                "object-type": "absolute-pos", 
                "offset": 181
            }, 
            "text": "Immunoblotting"
        }, 
        {
            "frame-id": "sent-PMC2628450-cmu-182", 
            "frame-type": "sentence", 
            "object-type": "frame", 
            "start-pos": {
                "object-type": "absolute-pos", 
                "offset": 182
            }, 
            "text": "All immunoprecipitations and immunoblots were performed as described ( Yokayama et al 2005 ) using a 9 % polyacrylamide gel ."
        }, 
        {
            "frame-id": "sent-PMC2628450-cmu-183", 
            "frame-type": "sentence", 
            "object-type": "frame", 
            "start-pos": {
                "object-type": "absolute-pos", 
                "offset": 183
            }, 
            "text": "Apoptosis assay"
        }, 
        {
            "frame-id": "sent-PMC2628450-cmu-184", 
            "frame-type": "sentence", 
            "object-type": "frame", 
            "start-pos": {
                "object-type": "absolute-pos", 
                "offset": 184
            }, 
            "text": "Cells were stained with Propidium Iodide and the percentage of PI-positive cells was determined using a BD FACSCalibur\u2122 system ( BD , Franklin Lakes , NJ , USA ) ."
        }, 
        {
            "frame-id": "sent-PMC2628450-cmu-185", 
            "frame-type": "sentence", 
            "object-type": "frame", 
            "start-pos": {
                "object-type": "absolute-pos", 
                "offset": 185
            }, 
            "text": "PP2 was added to the cultures after the cells were allowed to settle on the dish overnight ."
        }, 
        {
            "frame-id": "sent-PMC2628450-cmu-186", 
            "frame-type": "sentence", 
            "object-type": "frame", 
            "start-pos": {
                "object-type": "absolute-pos", 
                "offset": 186
            }, 
            "text": "Adhesion and attachment assays"
        }, 
        {
            "frame-id": "sent-PMC2628450-cmu-187", 
            "frame-type": "sentence", 
            "object-type": "frame", 
            "start-pos": {
                "object-type": "absolute-pos", 
                "offset": 187
            }, 
            "text": "Cells were incubated on poly-d-lysine coated coverslips in DMEM for 10 minutes ."
        }, 
        {
            "frame-id": "sent-PMC2628450-cmu-188", 
            "frame-type": "sentence", 
            "object-type": "frame", 
            "start-pos": {
                "object-type": "absolute-pos", 
                "offset": 188
            }, 
            "text": "Unbound cells were washed away with PBS ."
        }, 
        {
            "frame-id": "sent-PMC2628450-cmu-189", 
            "frame-type": "sentence", 
            "object-type": "frame", 
            "start-pos": {
                "object-type": "absolute-pos", 
                "offset": 189
            }, 
            "text": "Attached cells were fixed with 3.7 % paraformaldehyde for 15 minutes at 4\u00b0C , incubated with 0.1 % Triton-X 100 for 2 minutes and rhodamine-conjugated phalloidin was added as per commercial protocol ."
        }, 
        {
            "frame-id": "sent-PMC2628450-cmu-190", 
            "frame-type": "sentence", 
            "object-type": "frame", 
            "start-pos": {
                "object-type": "absolute-pos", 
                "offset": 190
            }, 
            "text": "Cells were visualized with an Axiovert 200M ( Zeiss , Thornwood , NY , USA ) using a 63X oil DIC lens and the images were analyzed using the Axiovision software ( Zeiss ) ."
        }, 
        {
            "frame-id": "sent-PMC2628450-cmu-191", 
            "frame-type": "sentence", 
            "object-type": "frame", 
            "start-pos": {
                "object-type": "absolute-pos", 
                "offset": 191
            }, 
            "text": "Reverse-Transcriptase PCR"
        }, 
        {
            "frame-id": "sent-PMC2628450-cmu-192", 
            "frame-type": "sentence", 
            "object-type": "frame", 
            "start-pos": {
                "object-type": "absolute-pos", 
                "offset": 192
            }, 
            "text": "Cellular RNA was isolated with RNeasy kit ( Qiagen , Valencia , CA , USA ) , and reverse transcribed to cDNA using the Superscript II reverse transcriptase system ( Invitrogen ) ."
        }, 
        {
            "frame-id": "sent-PMC2628450-cmu-193", 
            "frame-type": "sentence", 
            "object-type": "frame", 
            "start-pos": {
                "object-type": "absolute-pos", 
                "offset": 193
            }, 
            "text": "MSP was detected using primers previously described ( Zalcenstein et al. , 2006 ) ."
        }, 
        {
            "frame-id": "sent-PMC2628450-cmu-194", 
            "frame-type": "sentence", 
            "object-type": "frame", 
            "start-pos": {
                "object-type": "absolute-pos", 
                "offset": 194
            }, 
            "text": "Supplementary Material"
        }
    ], 
    "object-meta": {
        "component": "Nicolas-NXML-Parser", 
        "component-type": "machine", 
        "doc-id": "PMC2628450", 
        "object-type": "meta-info", 
        "organization": "CMU"
    }, 
    "object-type": "frame-collection"
}
