{
    "frames": [
        {
            "end-pos": {
                "context-end": "Cdc42/1", 
                "object-type": "relative-pos", 
                "offset": 132, 
                "reference": "sent-PMC2684528-medscan-3"
            }, 
            "frame-id": "ment-PMC2684528-cmu-junsys-7", 
            "frame-type": "entity-mention", 
            "object-meta": {
                "component": "Jun-System", 
                "object-type": "meta-info", 
                "organization": "CMU"
            }, 
            "object-type": "frame", 
            "sentence": "sent-PMC2684528-medscan-3", 
            "start-pos": {
                "context-start": "Cdc42/1", 
                "object-type": "relative-pos", 
                "offset": 127, 
                "reference": "sent-PMC2684528-medscan-3"
            }, 
            "text": "Cdc42", 
            "xrefs": []
        }, 
        {
            "end-pos": {
                "context-end": "complexes/1", 
                "object-type": "relative-pos", 
                "offset": 49, 
                "reference": "sent-PMC2684528-medscan-5"
            }, 
            "frame-id": "ment-PMC2684528-cmu-junsys-10", 
            "frame-type": "entity-mention", 
            "object-meta": {
                "component": "Jun-System", 
                "object-type": "meta-info", 
                "organization": "CMU"
            }, 
            "object-type": "frame", 
            "sentence": "sent-PMC2684528-medscan-5", 
            "start-pos": {
                "context-start": "complexes/1", 
                "object-type": "relative-pos", 
                "offset": 40, 
                "reference": "sent-PMC2684528-medscan-5"
            }, 
            "text": "complexes", 
            "xrefs": []
        }, 
        {
            "end-pos": {
                "context-end": "which/1", 
                "object-type": "relative-pos", 
                "offset": 57, 
                "reference": "sent-PMC2684528-medscan-5"
            }, 
            "frame-id": "ment-PMC2684528-cmu-junsys-11", 
            "frame-type": "entity-mention", 
            "object-meta": {
                "component": "Jun-System", 
                "object-type": "meta-info", 
                "organization": "CMU"
            }, 
            "object-type": "frame", 
            "sentence": "sent-PMC2684528-medscan-5", 
            "start-pos": {
                "context-start": "which/1", 
                "object-type": "relative-pos", 
                "offset": 52, 
                "reference": "sent-PMC2684528-medscan-5"
            }, 
            "text": "which", 
            "xrefs": []
        }, 
        {
            "end-pos": {
                "context-end": "which/1", 
                "object-type": "relative-pos", 
                "offset": 74, 
                "reference": "sent-PMC2684528-medscan-8"
            }, 
            "frame-id": "ment-PMC2684528-cmu-junsys-17", 
            "frame-type": "entity-mention", 
            "object-meta": {
                "component": "Jun-System", 
                "object-type": "meta-info", 
                "organization": "CMU"
            }, 
            "object-type": "frame", 
            "sentence": "sent-PMC2684528-medscan-8", 
            "start-pos": {
                "context-start": "which/1", 
                "object-type": "relative-pos", 
                "offset": 69, 
                "reference": "sent-PMC2684528-medscan-8"
            }, 
            "text": "which", 
            "xrefs": []
        }, 
        {
            "end-pos": {
                "context-end": "FAs/1", 
                "object-type": "relative-pos", 
                "offset": 48, 
                "reference": "sent-PMC2684528-medscan-13"
            }, 
            "frame-id": "ment-PMC2684528-cmu-junsys-19", 
            "frame-type": "entity-mention", 
            "object-meta": {
                "component": "Jun-System", 
                "object-type": "meta-info", 
                "organization": "CMU"
            }, 
            "object-type": "frame", 
            "sentence": "sent-PMC2684528-medscan-13", 
            "start-pos": {
                "context-start": "FAs/1", 
                "object-type": "relative-pos", 
                "offset": 45, 
                "reference": "sent-PMC2684528-medscan-13"
            }, 
            "text": "FAs", 
            "xrefs": []
        }, 
        {
            "end-pos": {
                "context-end": "which/1", 
                "object-type": "relative-pos", 
                "offset": 55, 
                "reference": "sent-PMC2684528-medscan-13"
            }, 
            "frame-id": "ment-PMC2684528-cmu-junsys-20", 
            "frame-type": "entity-mention", 
            "object-meta": {
                "component": "Jun-System", 
                "object-type": "meta-info", 
                "organization": "CMU"
            }, 
            "object-type": "frame", 
            "sentence": "sent-PMC2684528-medscan-13", 
            "start-pos": {
                "context-start": "which/1", 
                "object-type": "relative-pos", 
                "offset": 50, 
                "reference": "sent-PMC2684528-medscan-13"
            }, 
            "text": "which", 
            "xrefs": []
        }, 
        {
            "end-pos": {
                "context-end": "knockdown/1", 
                "object-type": "relative-pos", 
                "offset": 45, 
                "reference": "sent-PMC2684528-medscan-35"
            }, 
            "frame-id": "ment-PMC2684528-cmu-junsys-55", 
            "frame-type": "entity-mention", 
            "object-meta": {
                "component": "Jun-System", 
                "object-type": "meta-info", 
                "organization": "CMU"
            }, 
            "object-type": "frame", 
            "sentence": "sent-PMC2684528-medscan-35", 
            "start-pos": {
                "context-start": "knockdown/1", 
                "object-type": "relative-pos", 
                "offset": 36, 
                "reference": "sent-PMC2684528-medscan-35"
            }, 
            "text": "knockdown", 
            "xrefs": []
        }, 
        {
            "end-pos": {
                "context-end": "formation/1", 
                "object-type": "relative-pos", 
                "offset": 87, 
                "reference": "sent-PMC2684528-medscan-35"
            }, 
            "frame-id": "ment-PMC2684528-cmu-junsys-56", 
            "frame-type": "entity-mention", 
            "object-meta": {
                "component": "Jun-System", 
                "object-type": "meta-info", 
                "organization": "CMU"
            }, 
            "object-type": "frame", 
            "sentence": "sent-PMC2684528-medscan-35", 
            "start-pos": {
                "context-start": "formation/1", 
                "object-type": "relative-pos", 
                "offset": 78, 
                "reference": "sent-PMC2684528-medscan-35"
            }, 
            "text": "formation", 
            "xrefs": []
        }, 
        {
            "end-pos": {
                "context-end": "A/1", 
                "object-type": "relative-pos", 
                "offset": 35, 
                "reference": "sent-PMC2684528-medscan-39"
            }, 
            "frame-id": "ment-PMC2684528-cmu-junsys-65", 
            "frame-type": "entity-mention", 
            "object-meta": {
                "component": "Jun-System", 
                "object-type": "meta-info", 
                "organization": "CMU"
            }, 
            "object-type": "frame", 
            "sentence": "sent-PMC2684528-medscan-39", 
            "start-pos": {
                "context-start": "A/1", 
                "object-type": "relative-pos", 
                "offset": 34, 
                "reference": "sent-PMC2684528-medscan-39"
            }, 
            "text": "A", 
            "xrefs": []
        }, 
        {
            "end-pos": {
                "context-end": "formation/1", 
                "object-type": "relative-pos", 
                "offset": 93, 
                "reference": "sent-PMC2684528-medscan-39"
            }, 
            "frame-id": "ment-PMC2684528-cmu-junsys-67", 
            "frame-type": "entity-mention", 
            "object-meta": {
                "component": "Jun-System", 
                "object-type": "meta-info", 
                "organization": "CMU"
            }, 
            "object-type": "frame", 
            "sentence": "sent-PMC2684528-medscan-39", 
            "start-pos": {
                "context-start": "formation/1", 
                "object-type": "relative-pos", 
                "offset": 84, 
                "reference": "sent-PMC2684528-medscan-39"
            }, 
            "text": "formation", 
            "xrefs": []
        }, 
        {
            "end-pos": {
                "context-end": "which/1", 
                "object-type": "relative-pos", 
                "offset": 64, 
                "reference": "sent-PMC2684528-medscan-52"
            }, 
            "frame-id": "ment-PMC2684528-cmu-junsys-79", 
            "frame-type": "entity-mention", 
            "object-meta": {
                "component": "Jun-System", 
                "object-type": "meta-info", 
                "organization": "CMU"
            }, 
            "object-type": "frame", 
            "sentence": "sent-PMC2684528-medscan-52", 
            "start-pos": {
                "context-start": "which/1", 
                "object-type": "relative-pos", 
                "offset": 59, 
                "reference": "sent-PMC2684528-medscan-52"
            }, 
            "text": "which", 
            "xrefs": []
        }, 
        {
            "end-pos": {
                "context-end": "Cdc42/1", 
                "object-type": "relative-pos", 
                "offset": 104, 
                "reference": "sent-PMC2684528-medscan-58"
            }, 
            "frame-id": "ment-PMC2684528-cmu-junsys-90", 
            "frame-type": "entity-mention", 
            "object-meta": {
                "component": "Jun-System", 
                "object-type": "meta-info", 
                "organization": "CMU"
            }, 
            "object-type": "frame", 
            "sentence": "sent-PMC2684528-medscan-58", 
            "start-pos": {
                "context-start": "Cdc42/1", 
                "object-type": "relative-pos", 
                "offset": 99, 
                "reference": "sent-PMC2684528-medscan-58"
            }, 
            "text": "Cdc42", 
            "xrefs": []
        }, 
        {
            "end-pos": {
                "context-end": "transfectants/1", 
                "object-type": "relative-pos", 
                "offset": 25, 
                "reference": "sent-PMC2684528-medscan-60"
            }, 
            "frame-id": "ment-PMC2684528-cmu-junsys-93", 
            "frame-type": "entity-mention", 
            "object-meta": {
                "component": "Jun-System", 
                "object-type": "meta-info", 
                "organization": "CMU"
            }, 
            "object-type": "frame", 
            "sentence": "sent-PMC2684528-medscan-60", 
            "start-pos": {
                "context-start": "transfectants/1", 
                "object-type": "relative-pos", 
                "offset": 12, 
                "reference": "sent-PMC2684528-medscan-60"
            }, 
            "text": "transfectants", 
            "xrefs": []
        }, 
        {
            "end-pos": {
                "context-end": "which/1", 
                "object-type": "relative-pos", 
                "offset": 32, 
                "reference": "sent-PMC2684528-medscan-60"
            }, 
            "frame-id": "ment-PMC2684528-cmu-junsys-94", 
            "frame-type": "entity-mention", 
            "object-meta": {
                "component": "Jun-System", 
                "object-type": "meta-info", 
                "organization": "CMU"
            }, 
            "object-type": "frame", 
            "sentence": "sent-PMC2684528-medscan-60", 
            "start-pos": {
                "context-start": "which/1", 
                "object-type": "relative-pos", 
                "offset": 27, 
                "reference": "sent-PMC2684528-medscan-60"
            }, 
            "text": "which", 
            "xrefs": []
        }, 
        {
            "end-pos": {
                "context-end": "protein-Rac1CA/1", 
                "object-type": "relative-pos", 
                "offset": 54, 
                "reference": "sent-PMC2684528-medscan-61"
            }, 
            "frame-id": "ment-PMC2684528-cmu-junsys-96", 
            "frame-type": "entity-mention", 
            "object-meta": {
                "component": "Jun-System", 
                "object-type": "meta-info", 
                "organization": "CMU"
            }, 
            "object-type": "frame", 
            "sentence": "sent-PMC2684528-medscan-61", 
            "start-pos": {
                "context-start": "protein-Rac1CA/1", 
                "object-type": "relative-pos", 
                "offset": 40, 
                "reference": "sent-PMC2684528-medscan-61"
            }, 
            "text": "protein-Rac1CA", 
            "xrefs": []
        }, 
        {
            "end-pos": {
                "context-end": "protrusions/1", 
                "object-type": "relative-pos", 
                "offset": 90, 
                "reference": "sent-PMC2684528-medscan-61"
            }, 
            "frame-id": "ment-PMC2684528-cmu-junsys-97", 
            "frame-type": "entity-mention", 
            "object-meta": {
                "component": "Jun-System", 
                "object-type": "meta-info", 
                "organization": "CMU"
            }, 
            "object-type": "frame", 
            "sentence": "sent-PMC2684528-medscan-61", 
            "start-pos": {
                "context-start": "protrusions/1", 
                "object-type": "relative-pos", 
                "offset": 79, 
                "reference": "sent-PMC2684528-medscan-61"
            }, 
            "text": "protrusions", 
            "xrefs": []
        }, 
        {
            "end-pos": {
                "context-end": "mutant/1", 
                "object-type": "relative-pos", 
                "offset": 150, 
                "reference": "sent-PMC2684528-medscan-63"
            }, 
            "frame-id": "ment-PMC2684528-cmu-junsys-101", 
            "frame-type": "entity-mention", 
            "object-meta": {
                "component": "Jun-System", 
                "object-type": "meta-info", 
                "organization": "CMU"
            }, 
            "object-type": "frame", 
            "sentence": "sent-PMC2684528-medscan-63", 
            "start-pos": {
                "context-start": "mutant/1", 
                "object-type": "relative-pos", 
                "offset": 144, 
                "reference": "sent-PMC2684528-medscan-63"
            }, 
            "text": "mutant", 
            "xrefs": []
        }, 
        {
            "end-pos": {
                "context-end": "Cdc42/1", 
                "object-type": "relative-pos", 
                "offset": 82, 
                "reference": "sent-PMC2684528-medscan-66"
            }, 
            "frame-id": "ment-PMC2684528-cmu-junsys-107", 
            "frame-type": "entity-mention", 
            "object-meta": {
                "component": "Jun-System", 
                "object-type": "meta-info", 
                "organization": "CMU"
            }, 
            "object-type": "frame", 
            "sentence": "sent-PMC2684528-medscan-66", 
            "start-pos": {
                "context-start": "Cdc42/1", 
                "object-type": "relative-pos", 
                "offset": 77, 
                "reference": "sent-PMC2684528-medscan-66"
            }, 
            "text": "Cdc42", 
            "xrefs": []
        }, 
        {
            "end-pos": {
                "context-end": "Rac1CA/1", 
                "object-type": "relative-pos", 
                "offset": 120, 
                "reference": "sent-PMC2684528-medscan-89"
            }, 
            "frame-id": "ment-PMC2684528-cmu-junsys-148", 
            "frame-type": "entity-mention", 
            "object-meta": {
                "component": "Jun-System", 
                "object-type": "meta-info", 
                "organization": "CMU"
            }, 
            "object-type": "frame", 
            "sentence": "sent-PMC2684528-medscan-89", 
            "start-pos": {
                "context-start": "Rac1CA/1", 
                "object-type": "relative-pos", 
                "offset": 114, 
                "reference": "sent-PMC2684528-medscan-89"
            }, 
            "text": "Rac1CA", 
            "xrefs": []
        }, 
        {
            "end-pos": {
                "context-end": "complex/1", 
                "object-type": "relative-pos", 
                "offset": 270, 
                "reference": "sent-PMC2684528-medscan-89"
            }, 
            "frame-id": "ment-PMC2684528-cmu-junsys-149", 
            "frame-type": "entity-mention", 
            "object-meta": {
                "component": "Jun-System", 
                "object-type": "meta-info", 
                "organization": "CMU"
            }, 
            "object-type": "frame", 
            "sentence": "sent-PMC2684528-medscan-89", 
            "start-pos": {
                "context-start": "complex/1", 
                "object-type": "relative-pos", 
                "offset": 263, 
                "reference": "sent-PMC2684528-medscan-89"
            }, 
            "text": "complex", 
            "xrefs": []
        }, 
        {
            "end-pos": {
                "context-end": "puncta/1", 
                "object-type": "relative-pos", 
                "offset": 71, 
                "reference": "sent-PMC2684528-medscan-121"
            }, 
            "frame-id": "ment-PMC2684528-cmu-junsys-208", 
            "frame-type": "entity-mention", 
            "object-meta": {
                "component": "Jun-System", 
                "object-type": "meta-info", 
                "organization": "CMU"
            }, 
            "object-type": "frame", 
            "sentence": "sent-PMC2684528-medscan-121", 
            "start-pos": {
                "context-start": "puncta/1", 
                "object-type": "relative-pos", 
                "offset": 65, 
                "reference": "sent-PMC2684528-medscan-121"
            }, 
            "text": "puncta", 
            "xrefs": []
        }, 
        {
            "end-pos": {
                "context-end": "which/1", 
                "object-type": "relative-pos", 
                "offset": 78, 
                "reference": "sent-PMC2684528-medscan-121"
            }, 
            "frame-id": "ment-PMC2684528-cmu-junsys-209", 
            "frame-type": "entity-mention", 
            "object-meta": {
                "component": "Jun-System", 
                "object-type": "meta-info", 
                "organization": "CMU"
            }, 
            "object-type": "frame", 
            "sentence": "sent-PMC2684528-medscan-121", 
            "start-pos": {
                "context-start": "which/1", 
                "object-type": "relative-pos", 
                "offset": 73, 
                "reference": "sent-PMC2684528-medscan-121"
            }, 
            "text": "which", 
            "xrefs": []
        }, 
        {
            "end-pos": {
                "context-end": "PGN/1", 
                "object-type": "relative-pos", 
                "offset": 88, 
                "reference": "sent-PMC2684528-medscan-130"
            }, 
            "frame-id": "ment-PMC2684528-cmu-junsys-220", 
            "frame-type": "entity-mention", 
            "object-meta": {
                "component": "Jun-System", 
                "object-type": "meta-info", 
                "organization": "CMU"
            }, 
            "object-type": "frame", 
            "sentence": "sent-PMC2684528-medscan-130", 
            "start-pos": {
                "context-start": "PGN/1", 
                "object-type": "relative-pos", 
                "offset": 85, 
                "reference": "sent-PMC2684528-medscan-130"
            }, 
            "text": "PGN", 
            "xrefs": []
        }, 
        {
            "end-pos": {
                "context-end": "motilities/1", 
                "object-type": "relative-pos", 
                "offset": 106, 
                "reference": "sent-PMC2684528-medscan-142"
            }, 
            "frame-id": "ment-PMC2684528-cmu-junsys-234", 
            "frame-type": "entity-mention", 
            "object-meta": {
                "component": "Jun-System", 
                "object-type": "meta-info", 
                "organization": "CMU"
            }, 
            "object-type": "frame", 
            "sentence": "sent-PMC2684528-medscan-142", 
            "start-pos": {
                "context-start": "motilities/1", 
                "object-type": "relative-pos", 
                "offset": 96, 
                "reference": "sent-PMC2684528-medscan-142"
            }, 
            "text": "motilities", 
            "xrefs": []
        }, 
        {
            "end-pos": {
                "context-end": "which/1", 
                "object-type": "relative-pos", 
                "offset": 114, 
                "reference": "sent-PMC2684528-medscan-142"
            }, 
            "frame-id": "ment-PMC2684528-cmu-junsys-235", 
            "frame-type": "entity-mention", 
            "object-meta": {
                "component": "Jun-System", 
                "object-type": "meta-info", 
                "organization": "CMU"
            }, 
            "object-type": "frame", 
            "sentence": "sent-PMC2684528-medscan-142", 
            "start-pos": {
                "context-start": "which/1", 
                "object-type": "relative-pos", 
                "offset": 109, 
                "reference": "sent-PMC2684528-medscan-142"
            }, 
            "text": "which", 
            "xrefs": []
        }, 
        {
            "end-pos": {
                "context-end": "interaction/1", 
                "object-type": "relative-pos", 
                "offset": 80, 
                "reference": "sent-PMC2684528-medscan-173"
            }, 
            "frame-id": "ment-PMC2684528-cmu-junsys-286", 
            "frame-type": "entity-mention", 
            "object-meta": {
                "component": "Jun-System", 
                "object-type": "meta-info", 
                "organization": "CMU"
            }, 
            "object-type": "frame", 
            "sentence": "sent-PMC2684528-medscan-173", 
            "start-pos": {
                "context-start": "interaction/1", 
                "object-type": "relative-pos", 
                "offset": 69, 
                "reference": "sent-PMC2684528-medscan-173"
            }, 
            "text": "interaction", 
            "xrefs": []
        }, 
        {
            "end-pos": {
                "context-end": "kinase/1", 
                "object-type": "relative-pos", 
                "offset": 52, 
                "reference": "sent-PMC2684528-medscan-178"
            }, 
            "frame-id": "ment-PMC2684528-cmu-junsys-303", 
            "frame-type": "entity-mention", 
            "object-meta": {
                "component": "Jun-System", 
                "object-type": "meta-info", 
                "organization": "CMU"
            }, 
            "object-type": "frame", 
            "sentence": "sent-PMC2684528-medscan-178", 
            "start-pos": {
                "context-start": "kinase/1", 
                "object-type": "relative-pos", 
                "offset": 46, 
                "reference": "sent-PMC2684528-medscan-178"
            }, 
            "text": "kinase", 
            "xrefs": []
        }, 
        {
            "end-pos": {
                "object-type": "relative-pos", 
                "offset": -1, 
                "reference": "NOT LINKED"
            }, 
            "frame-id": "ment-PMC2684528-cmu-junsys-305", 
            "frame-type": "entity-mention", 
            "object-meta": {
                "component": "Jun-System", 
                "object-type": "meta-info", 
                "organization": "CMU"
            }, 
            "object-type": "frame", 
            "sentence": "NOT LINKED", 
            "start-pos": {
                "object-type": "relative-pos", 
                "offset": -1, 
                "reference": "NOT LINKED"
            }, 
            "text": "interaction", 
            "xrefs": []
        }, 
        {
            "end-pos": {
                "context-end": "kinase/1", 
                "object-type": "relative-pos", 
                "offset": 154, 
                "reference": "sent-PMC2684528-medscan-184"
            }, 
            "frame-id": "ment-PMC2684528-cmu-junsys-319", 
            "frame-type": "entity-mention", 
            "object-meta": {
                "component": "Jun-System", 
                "object-type": "meta-info", 
                "organization": "CMU"
            }, 
            "object-type": "frame", 
            "sentence": "sent-PMC2684528-medscan-184", 
            "start-pos": {
                "context-start": "kinase/1", 
                "object-type": "relative-pos", 
                "offset": 148, 
                "reference": "sent-PMC2684528-medscan-184"
            }, 
            "text": "kinase", 
            "xrefs": []
        }, 
        {
            "end-pos": {
                "context-end": "interaction/1", 
                "object-type": "relative-pos", 
                "offset": 33, 
                "reference": "sent-PMC2684528-medscan-184"
            }, 
            "frame-id": "ment-PMC2684528-cmu-junsys-321", 
            "frame-type": "entity-mention", 
            "object-meta": {
                "component": "Jun-System", 
                "object-type": "meta-info", 
                "organization": "CMU"
            }, 
            "object-type": "frame", 
            "sentence": "sent-PMC2684528-medscan-184", 
            "start-pos": {
                "context-start": "interaction/1", 
                "object-type": "relative-pos", 
                "offset": 22, 
                "reference": "sent-PMC2684528-medscan-184"
            }, 
            "text": "interaction", 
            "xrefs": []
        }, 
        {
            "end-pos": {
                "context-end": "that/1", 
                "object-type": "relative-pos", 
                "offset": 195, 
                "reference": "sent-PMC2684528-medscan-184"
            }, 
            "frame-id": "ment-PMC2684528-cmu-junsys-325", 
            "frame-type": "entity-mention", 
            "object-meta": {
                "component": "Jun-System", 
                "object-type": "meta-info", 
                "organization": "CMU"
            }, 
            "object-type": "frame", 
            "sentence": "sent-PMC2684528-medscan-184", 
            "start-pos": {
                "context-start": "that/1", 
                "object-type": "relative-pos", 
                "offset": 191, 
                "reference": "sent-PMC2684528-medscan-184"
            }, 
            "text": "that", 
            "xrefs": []
        }, 
        {
            "end-pos": {
                "context-end": "kinase\u0394FMPX1/1", 
                "object-type": "relative-pos", 
                "offset": 35, 
                "reference": "sent-PMC2684528-medscan-189"
            }, 
            "frame-id": "ment-PMC2684528-cmu-junsys-339", 
            "frame-type": "entity-mention", 
            "object-meta": {
                "component": "Jun-System", 
                "object-type": "meta-info", 
                "organization": "CMU"
            }, 
            "object-type": "frame", 
            "sentence": "sent-PMC2684528-medscan-189", 
            "start-pos": {
                "context-start": "kinase\u0394FMPX1/1", 
                "object-type": "relative-pos", 
                "offset": 23, 
                "reference": "sent-PMC2684528-medscan-189"
            }, 
            "text": "kinase\u0394FMPX1", 
            "xrefs": []
        }, 
        {
            "end-pos": {
                "context-end": "kinase\u0394FMPX2/1", 
                "object-type": "relative-pos", 
                "offset": 67, 
                "reference": "sent-PMC2684528-medscan-189"
            }, 
            "frame-id": "ment-PMC2684528-cmu-junsys-340", 
            "frame-type": "entity-mention", 
            "object-meta": {
                "component": "Jun-System", 
                "object-type": "meta-info", 
                "organization": "CMU"
            }, 
            "object-type": "frame", 
            "sentence": "sent-PMC2684528-medscan-189", 
            "start-pos": {
                "context-start": "kinase\u0394FMPX2/1", 
                "object-type": "relative-pos", 
                "offset": 55, 
                "reference": "sent-PMC2684528-medscan-189"
            }, 
            "text": "kinase\u0394FMPX2", 
            "xrefs": []
        }, 
        {
            "end-pos": {
                "object-type": "relative-pos", 
                "offset": -1, 
                "reference": "NOT LINKED"
            }, 
            "frame-id": "ment-PMC2684528-cmu-junsys-346", 
            "frame-type": "entity-mention", 
            "object-meta": {
                "component": "Jun-System", 
                "object-type": "meta-info", 
                "organization": "CMU"
            }, 
            "object-type": "frame", 
            "sentence": "NOT LINKED", 
            "start-pos": {
                "object-type": "relative-pos", 
                "offset": -1, 
                "reference": "NOT LINKED"
            }, 
            "text": "shrinkage", 
            "xrefs": []
        }, 
        {
            "end-pos": {
                "context-end": "FAKOpn/1", 
                "object-type": "relative-pos", 
                "offset": 92, 
                "reference": "sent-PMC2684528-medscan-202"
            }, 
            "frame-id": "ment-PMC2684528-cmu-junsys-360", 
            "frame-type": "entity-mention", 
            "object-meta": {
                "component": "Jun-System", 
                "object-type": "meta-info", 
                "organization": "CMU"
            }, 
            "object-type": "frame", 
            "sentence": "sent-PMC2684528-medscan-202", 
            "start-pos": {
                "context-start": "FAKOpn/1", 
                "object-type": "relative-pos", 
                "offset": 86, 
                "reference": "sent-PMC2684528-medscan-202"
            }, 
            "text": "FAKOpn", 
            "xrefs": []
        }, 
        {
            "end-pos": {
                "context-end": "shrinkage/1", 
                "object-type": "relative-pos", 
                "offset": 168, 
                "reference": "sent-PMC2684528-medscan-204"
            }, 
            "frame-id": "ment-PMC2684528-cmu-junsys-361", 
            "frame-type": "entity-mention", 
            "object-meta": {
                "component": "Jun-System", 
                "object-type": "meta-info", 
                "organization": "CMU"
            }, 
            "object-type": "frame", 
            "sentence": "sent-PMC2684528-medscan-204", 
            "start-pos": {
                "context-start": "shrinkage/1", 
                "object-type": "relative-pos", 
                "offset": 159, 
                "reference": "sent-PMC2684528-medscan-204"
            }, 
            "text": "shrinkage", 
            "xrefs": []
        }, 
        {
            "end-pos": {
                "context-end": "kinase/1", 
                "object-type": "relative-pos", 
                "offset": 59, 
                "reference": "sent-PMC2684528-medscan-206"
            }, 
            "frame-id": "ment-PMC2684528-cmu-junsys-368", 
            "frame-type": "entity-mention", 
            "object-meta": {
                "component": "Jun-System", 
                "object-type": "meta-info", 
                "organization": "CMU"
            }, 
            "object-type": "frame", 
            "sentence": "sent-PMC2684528-medscan-206", 
            "start-pos": {
                "context-start": "kinase/1", 
                "object-type": "relative-pos", 
                "offset": 53, 
                "reference": "sent-PMC2684528-medscan-206"
            }, 
            "text": "kinase", 
            "xrefs": []
        }, 
        {
            "end-pos": {
                "context-end": "FAKOpn/1", 
                "object-type": "relative-pos", 
                "offset": 29, 
                "reference": "sent-PMC2684528-medscan-206"
            }, 
            "frame-id": "ment-PMC2684528-cmu-junsys-371", 
            "frame-type": "entity-mention", 
            "object-meta": {
                "component": "Jun-System", 
                "object-type": "meta-info", 
                "organization": "CMU"
            }, 
            "object-type": "frame", 
            "sentence": "sent-PMC2684528-medscan-206", 
            "start-pos": {
                "context-start": "FAKOpn/1", 
                "object-type": "relative-pos", 
                "offset": 23, 
                "reference": "sent-PMC2684528-medscan-206"
            }, 
            "text": "FAKOpn", 
            "xrefs": []
        }, 
        {
            "end-pos": {
                "context-end": "which/1", 
                "object-type": "relative-pos", 
                "offset": 36, 
                "reference": "sent-PMC2684528-medscan-206"
            }, 
            "frame-id": "ment-PMC2684528-cmu-junsys-372", 
            "frame-type": "entity-mention", 
            "object-meta": {
                "component": "Jun-System", 
                "object-type": "meta-info", 
                "organization": "CMU"
            }, 
            "object-type": "frame", 
            "sentence": "sent-PMC2684528-medscan-206", 
            "start-pos": {
                "context-start": "which/1", 
                "object-type": "relative-pos", 
                "offset": 31, 
                "reference": "sent-PMC2684528-medscan-206"
            }, 
            "text": "which", 
            "xrefs": []
        }, 
        {
            "end-pos": {
                "context-end": "which/1", 
                "object-type": "relative-pos", 
                "offset": 36, 
                "reference": "sent-PMC2684528-medscan-206"
            }, 
            "frame-id": "ment-PMC2684528-cmu-junsys-374", 
            "frame-type": "entity-mention", 
            "object-meta": {
                "component": "Jun-System", 
                "object-type": "meta-info", 
                "organization": "CMU"
            }, 
            "object-type": "frame", 
            "sentence": "sent-PMC2684528-medscan-206", 
            "start-pos": {
                "context-start": "which/1", 
                "object-type": "relative-pos", 
                "offset": 31, 
                "reference": "sent-PMC2684528-medscan-206"
            }, 
            "text": "which", 
            "xrefs": []
        }, 
        {
            "end-pos": {
                "context-end": "Rac/1", 
                "object-type": "relative-pos", 
                "offset": 36, 
                "reference": "sent-PMC2684528-medscan-216"
            }, 
            "frame-id": "ment-PMC2684528-cmu-junsys-394", 
            "frame-type": "entity-mention", 
            "object-meta": {
                "component": "Jun-System", 
                "object-type": "meta-info", 
                "organization": "CMU"
            }, 
            "object-type": "frame", 
            "sentence": "sent-PMC2684528-medscan-216", 
            "start-pos": {
                "context-start": "Rac/1", 
                "object-type": "relative-pos", 
                "offset": 33, 
                "reference": "sent-PMC2684528-medscan-216"
            }, 
            "text": "Rac", 
            "xrefs": []
        }, 
        {
            "end-pos": {
                "context-end": "activity/1", 
                "object-type": "relative-pos", 
                "offset": 86, 
                "reference": "sent-PMC2684528-medscan-218"
            }, 
            "frame-id": "ment-PMC2684528-cmu-junsys-397", 
            "frame-type": "entity-mention", 
            "object-meta": {
                "component": "Jun-System", 
                "object-type": "meta-info", 
                "organization": "CMU"
            }, 
            "object-type": "frame", 
            "sentence": "sent-PMC2684528-medscan-218", 
            "start-pos": {
                "context-start": "activity/1", 
                "object-type": "relative-pos", 
                "offset": 78, 
                "reference": "sent-PMC2684528-medscan-218"
            }, 
            "text": "activity", 
            "xrefs": []
        }, 
        {
            "end-pos": {
                "context-end": "GTPase/1", 
                "object-type": "relative-pos", 
                "offset": 215, 
                "reference": "sent-PMC2684528-medscan-221"
            }, 
            "frame-id": "ment-PMC2684528-cmu-junsys-409", 
            "frame-type": "entity-mention", 
            "object-meta": {
                "component": "Jun-System", 
                "object-type": "meta-info", 
                "organization": "CMU"
            }, 
            "object-type": "frame", 
            "sentence": "sent-PMC2684528-medscan-221", 
            "start-pos": {
                "context-start": "GTPase/1", 
                "object-type": "relative-pos", 
                "offset": 209, 
                "reference": "sent-PMC2684528-medscan-221"
            }, 
            "text": "GTPase", 
            "xrefs": []
        }, 
        {
            "end-pos": {
                "context-end": "binding/1", 
                "object-type": "relative-pos", 
                "offset": 220, 
                "reference": "sent-PMC2684528-medscan-242"
            }, 
            "frame-id": "ment-PMC2684528-cmu-junsys-452", 
            "frame-type": "entity-mention", 
            "object-meta": {
                "component": "Jun-System", 
                "object-type": "meta-info", 
                "organization": "CMU"
            }, 
            "object-type": "frame", 
            "sentence": "sent-PMC2684528-medscan-242", 
            "start-pos": {
                "context-start": "binding/1", 
                "object-type": "relative-pos", 
                "offset": 213, 
                "reference": "sent-PMC2684528-medscan-242"
            }, 
            "text": "binding", 
            "xrefs": []
        }, 
        {
            "end-pos": {
                "context-end": "change/1", 
                "object-type": "relative-pos", 
                "offset": 267, 
                "reference": "sent-PMC2684528-medscan-242"
            }, 
            "frame-id": "ment-PMC2684528-cmu-junsys-454", 
            "frame-type": "entity-mention", 
            "object-meta": {
                "component": "Jun-System", 
                "object-type": "meta-info", 
                "organization": "CMU"
            }, 
            "object-type": "frame", 
            "sentence": "sent-PMC2684528-medscan-242", 
            "start-pos": {
                "context-start": "change/1", 
                "object-type": "relative-pos", 
                "offset": 261, 
                "reference": "sent-PMC2684528-medscan-242"
            }, 
            "text": "change", 
            "xrefs": []
        }, 
        {
            "end-pos": {
                "context-end": "kinase/1", 
                "object-type": "relative-pos", 
                "offset": 31, 
                "reference": "sent-PMC2684528-medscan-244"
            }, 
            "frame-id": "ment-PMC2684528-cmu-junsys-457", 
            "frame-type": "entity-mention", 
            "object-meta": {
                "component": "Jun-System", 
                "object-type": "meta-info", 
                "organization": "CMU"
            }, 
            "object-type": "frame", 
            "sentence": "sent-PMC2684528-medscan-244", 
            "start-pos": {
                "context-start": "kinase/1", 
                "object-type": "relative-pos", 
                "offset": 25, 
                "reference": "sent-PMC2684528-medscan-244"
            }, 
            "text": "kinase", 
            "xrefs": []
        }, 
        {
            "end-pos": {
                "context-end": "Nudel/1", 
                "object-type": "relative-pos", 
                "offset": 36, 
                "reference": "sent-PMC2684528-medscan-243"
            }, 
            "frame-id": "ment-PMC2684528-cmu-junsys-458", 
            "frame-type": "entity-mention", 
            "object-meta": {
                "component": "Jun-System", 
                "object-type": "meta-info", 
                "organization": "CMU"
            }, 
            "object-type": "frame", 
            "sentence": "sent-PMC2684528-medscan-243", 
            "start-pos": {
                "context-start": "Nudel/1", 
                "object-type": "relative-pos", 
                "offset": 31, 
                "reference": "sent-PMC2684528-medscan-243"
            }, 
            "text": "Nudel", 
            "xrefs": []
        }, 
        {
            "end-pos": {
                "context-end": "kinase/1", 
                "object-type": "relative-pos", 
                "offset": 53, 
                "reference": "sent-PMC2684528-medscan-246"
            }, 
            "frame-id": "ment-PMC2684528-cmu-junsys-462", 
            "frame-type": "entity-mention", 
            "object-meta": {
                "component": "Jun-System", 
                "object-type": "meta-info", 
                "organization": "CMU"
            }, 
            "object-type": "frame", 
            "sentence": "sent-PMC2684528-medscan-246", 
            "start-pos": {
                "context-start": "kinase/1", 
                "object-type": "relative-pos", 
                "offset": 47, 
                "reference": "sent-PMC2684528-medscan-246"
            }, 
            "text": "kinase", 
            "xrefs": []
        }, 
        {
            "end-pos": {
                "context-end": "adhesions/1", 
                "object-type": "relative-pos", 
                "offset": 149, 
                "reference": "sent-PMC2684528-medscan-244"
            }, 
            "frame-id": "ment-PMC2684528-cmu-junsys-463", 
            "frame-type": "entity-mention", 
            "object-meta": {
                "component": "Jun-System", 
                "object-type": "meta-info", 
                "organization": "CMU"
            }, 
            "object-type": "frame", 
            "sentence": "sent-PMC2684528-medscan-244", 
            "start-pos": {
                "context-start": "adhesions/1", 
                "object-type": "relative-pos", 
                "offset": 140, 
                "reference": "sent-PMC2684528-medscan-244"
            }, 
            "text": "adhesions", 
            "xrefs": []
        }, 
        {
            "end-pos": {
                "context-end": "molecules/1", 
                "object-type": "relative-pos", 
                "offset": 214, 
                "reference": "sent-PMC2684528-medscan-250"
            }, 
            "frame-id": "ment-PMC2684528-cmu-junsys-474", 
            "frame-type": "entity-mention", 
            "object-meta": {
                "component": "Jun-System", 
                "object-type": "meta-info", 
                "organization": "CMU"
            }, 
            "object-type": "frame", 
            "sentence": "sent-PMC2684528-medscan-250", 
            "start-pos": {
                "context-start": "molecules/1", 
                "object-type": "relative-pos", 
                "offset": 205, 
                "reference": "sent-PMC2684528-medscan-250"
            }, 
            "text": "molecules", 
            "xrefs": []
        }, 
        {
            "end-pos": {
                "context-end": "kinase/1", 
                "object-type": "relative-pos", 
                "offset": 170, 
                "reference": "sent-PMC2684528-medscan-261"
            }, 
            "frame-id": "ment-PMC2684528-cmu-junsys-500", 
            "frame-type": "entity-mention", 
            "object-meta": {
                "component": "Jun-System", 
                "object-type": "meta-info", 
                "organization": "CMU"
            }, 
            "object-type": "frame", 
            "sentence": "sent-PMC2684528-medscan-261", 
            "start-pos": {
                "context-start": "kinase/1", 
                "object-type": "relative-pos", 
                "offset": 164, 
                "reference": "sent-PMC2684528-medscan-261"
            }, 
            "text": "kinase", 
            "xrefs": []
        }, 
        {
            "end-pos": {
                "object-type": "relative-pos", 
                "offset": -1, 
                "reference": "NOT LINKED"
            }, 
            "frame-id": "ment-PMC2684528-cmu-junsys-525", 
            "frame-type": "entity-mention", 
            "object-meta": {
                "component": "Jun-System", 
                "object-type": "meta-info", 
                "organization": "CMU"
            }, 
            "object-type": "frame", 
            "sentence": "NOT LINKED", 
            "start-pos": {
                "object-type": "relative-pos", 
                "offset": -1, 
                "reference": "NOT LINKED"
            }, 
            "text": "chain", 
            "xrefs": []
        }, 
        {
            "end-pos": {
                "context-end": "Cdc42/1", 
                "object-type": "relative-pos", 
                "offset": 188, 
                "reference": "sent-PMC2684528-medscan-273"
            }, 
            "frame-id": "ment-PMC2684528-cmu-junsys-535", 
            "frame-type": "entity-mention", 
            "object-meta": {
                "component": "Jun-System", 
                "object-type": "meta-info", 
                "organization": "CMU"
            }, 
            "object-type": "frame", 
            "sentence": "sent-PMC2684528-medscan-273", 
            "start-pos": {
                "context-start": "Cdc42/1", 
                "object-type": "relative-pos", 
                "offset": 183, 
                "reference": "sent-PMC2684528-medscan-273"
            }, 
            "text": "Cdc42", 
            "xrefs": []
        }, 
        {
            "end-pos": {
                "context-end": "subunit/1", 
                "object-type": "relative-pos", 
                "offset": 207, 
                "reference": "sent-PMC2684528-medscan-348"
            }, 
            "frame-id": "ment-PMC2684528-cmu-junsys-610", 
            "frame-type": "entity-mention", 
            "object-meta": {
                "component": "Jun-System", 
                "object-type": "meta-info", 
                "organization": "CMU"
            }, 
            "object-type": "frame", 
            "sentence": "sent-PMC2684528-medscan-348", 
            "start-pos": {
                "context-start": "subunit/1", 
                "object-type": "relative-pos", 
                "offset": 200, 
                "reference": "sent-PMC2684528-medscan-348"
            }, 
            "text": "subunit", 
            "xrefs": []
        }, 
        {
            "end-pos": {
                "context-end": "whose/1", 
                "object-type": "relative-pos", 
                "offset": 213, 
                "reference": "sent-PMC2684528-medscan-348"
            }, 
            "frame-id": "ment-PMC2684528-cmu-junsys-611", 
            "frame-type": "entity-mention", 
            "object-meta": {
                "component": "Jun-System", 
                "object-type": "meta-info", 
                "organization": "CMU"
            }, 
            "object-type": "frame", 
            "sentence": "sent-PMC2684528-medscan-348", 
            "start-pos": {
                "context-start": "whose/1", 
                "object-type": "relative-pos", 
                "offset": 208, 
                "reference": "sent-PMC2684528-medscan-348"
            }, 
            "text": "whose", 
            "xrefs": []
        }, 
        {
            "end-pos": {
                "context-end": "overexpression/1", 
                "object-type": "relative-pos", 
                "offset": 21, 
                "reference": "sent-PMC2684528-medscan-372"
            }, 
            "frame-id": "ment-PMC2684528-cmu-junsys-647", 
            "frame-type": "entity-mention", 
            "object-meta": {
                "component": "Jun-System", 
                "object-type": "meta-info", 
                "organization": "CMU"
            }, 
            "object-type": "frame", 
            "sentence": "sent-PMC2684528-medscan-372", 
            "start-pos": {
                "context-start": "overexpression/1", 
                "object-type": "relative-pos", 
                "offset": 7, 
                "reference": "sent-PMC2684528-medscan-372"
            }, 
            "text": "overexpression", 
            "xrefs": []
        }, 
        {
            "end-pos": {
                "context-end": "shrinkage/1", 
                "object-type": "relative-pos", 
                "offset": 188, 
                "reference": "sent-PMC2684528-medscan-374"
            }, 
            "frame-id": "ment-PMC2684528-cmu-junsys-648", 
            "frame-type": "entity-mention", 
            "object-meta": {
                "component": "Jun-System", 
                "object-type": "meta-info", 
                "organization": "CMU"
            }, 
            "object-type": "frame", 
            "sentence": "sent-PMC2684528-medscan-374", 
            "start-pos": {
                "context-start": "shrinkage/1", 
                "object-type": "relative-pos", 
                "offset": 179, 
                "reference": "sent-PMC2684528-medscan-374"
            }, 
            "text": "shrinkage", 
            "xrefs": []
        }, 
        {
            "arguments": [
                {
                    "arg": "ment-PMC2684528-cmu-junsys-7", 
                    "object-type": "argument", 
                    "type": "arg1"
                }
            ], 
            "context": "activation of the Rho-family small GTPases Cdc42", 
            "end-pos": {
                "context-end": "activation/1", 
                "object-type": "relative-pos", 
                "offset": 94, 
                "reference": "sent-PMC2684528-medscan-3"
            }, 
            "frame-id": "eve-PMC2684528-cmu-junsys-667", 
            "frame-type": "event-mention", 
            "object-meta": {
                "component": "Jun-System", 
                "object-type": "meta-info", 
                "organization": "CMU"
            }, 
            "object-type": "frame", 
            "sentence": "sent-PMC2684528-medscan-3", 
            "start-pos": {
                "context-start": "activation/1", 
                "object-type": "relative-pos", 
                "offset": 84, 
                "reference": "sent-PMC2684528-medscan-3"
            }, 
            "text": "activation", 
            "type": "activate"
        }, 
        {
            "arguments": [
                {
                    "arg": "ment-PMC2684528-cmu-junsys-55", 
                    "object-type": "argument", 
                    "type": "arg0"
                }, 
                {
                    "arg": "ment-PMC2684528-cmu-junsys-56", 
                    "object-type": "argument", 
                    "type": "arg1"
                }
            ], 
            "context": "knockdown markedly inhibited pseudopodial formation", 
            "end-pos": {
                "context-end": "inhibited/1", 
                "object-type": "relative-pos", 
                "offset": 64, 
                "reference": "sent-PMC2684528-medscan-35"
            }, 
            "frame-id": "eve-PMC2684528-cmu-junsys-668", 
            "frame-type": "event-mention", 
            "object-meta": {
                "component": "Jun-System", 
                "object-type": "meta-info", 
                "organization": "CMU"
            }, 
            "object-type": "frame", 
            "sentence": "sent-PMC2684528-medscan-35", 
            "start-pos": {
                "context-start": "inhibited/1", 
                "object-type": "relative-pos", 
                "offset": 55, 
                "reference": "sent-PMC2684528-medscan-35"
            }, 
            "text": "inhibited", 
            "type": "inhibit"
        }, 
        {
            "arguments": [
                {
                    "arg": "ment-PMC2684528-cmu-junsys-65", 
                    "object-type": "argument", 
                    "type": "arg0"
                }, 
                {
                    "arg": "ment-PMC2684528-cmu-junsys-67", 
                    "object-type": "argument", 
                    "type": "arg1"
                }
            ], 
            "context": "A) Nudel RNAi inhibits lamellipodial formation", 
            "end-pos": {
                "object-type": "relative-pos", 
                "offset": -1, 
                "reference": "sent-PMC2684528-medscan-39"
            }, 
            "frame-id": "eve-PMC2684528-cmu-junsys-669", 
            "frame-type": "event-mention", 
            "object-meta": {
                "component": "Jun-System", 
                "object-type": "meta-info", 
                "organization": "CMU"
            }, 
            "object-type": "frame", 
            "sentence": "sent-PMC2684528-medscan-39", 
            "start-pos": {
                "object-type": "relative-pos", 
                "offset": -1, 
                "reference": "sent-PMC2684528-medscan-39"
            }, 
            "text": "inhibits", 
            "type": "inhibit"
        }, 
        {
            "arguments": [
                {
                    "arg": "ment-PMC2684528-cmu-medscan-82", 
                    "object-type": "argument", 
                    "type": "arg1"
                }
            ], 
            "context": "inhibition of Rac1", 
            "end-pos": {
                "context-end": "inhibition/1", 
                "object-type": "relative-pos", 
                "offset": 81, 
                "reference": "sent-PMC2684528-medscan-53"
            }, 
            "frame-id": "eve-PMC2684528-cmu-junsys-670", 
            "frame-type": "event-mention", 
            "object-meta": {
                "component": "Jun-System", 
                "object-type": "meta-info", 
                "organization": "CMU"
            }, 
            "object-type": "frame", 
            "sentence": "sent-PMC2684528-medscan-53", 
            "start-pos": {
                "context-start": "inhibition/1", 
                "object-type": "relative-pos", 
                "offset": 71, 
                "reference": "sent-PMC2684528-medscan-53"
            }, 
            "text": "inhibition", 
            "type": "inhibit"
        }, 
        {
            "arguments": [
                {
                    "arg": "ment-PMC2684528-cmu-junsys-90", 
                    "object-type": "argument", 
                    "type": "arg1"
                }
            ], 
            "context": "inhibition of Cdc42", 
            "end-pos": {
                "context-end": "inhibition/1", 
                "object-type": "relative-pos", 
                "offset": 95, 
                "reference": "sent-PMC2684528-medscan-58"
            }, 
            "frame-id": "eve-PMC2684528-cmu-junsys-671", 
            "frame-type": "event-mention", 
            "object-meta": {
                "component": "Jun-System", 
                "object-type": "meta-info", 
                "organization": "CMU"
            }, 
            "object-type": "frame", 
            "sentence": "sent-PMC2684528-medscan-58", 
            "start-pos": {
                "context-start": "inhibition/1", 
                "object-type": "relative-pos", 
                "offset": 85, 
                "reference": "sent-PMC2684528-medscan-58"
            }, 
            "text": "inhibition", 
            "type": "inhibit"
        }, 
        {
            "arguments": [
                {
                    "arg": "ment-PMC2684528-cmu-junsys-96", 
                    "object-type": "argument", 
                    "type": "arg0"
                }, 
                {
                    "arg": "ment-PMC2684528-cmu-junsys-97", 
                    "object-type": "argument", 
                    "type": "arg1"
                }
            ], 
            "context": "protein-Rac1CA induced active membrane protrusions", 
            "end-pos": {
                "context-end": "induced/1", 
                "object-type": "relative-pos", 
                "offset": 62, 
                "reference": "sent-PMC2684528-medscan-61"
            }, 
            "frame-id": "eve-PMC2684528-cmu-junsys-672", 
            "frame-type": "event-mention", 
            "object-meta": {
                "component": "Jun-System", 
                "object-type": "meta-info", 
                "organization": "CMU"
            }, 
            "object-type": "frame", 
            "sentence": "sent-PMC2684528-medscan-61", 
            "start-pos": {
                "context-start": "induced/1", 
                "object-type": "relative-pos", 
                "offset": 55, 
                "reference": "sent-PMC2684528-medscan-61"
            }, 
            "text": "induced", 
            "type": "induce"
        }, 
        {
            "arguments": [
                {
                    "arg": "ment-PMC2684528-cmu-medscan-100", 
                    "object-type": "argument", 
                    "type": "arg1"
                }
            ], 
            "context": "inhibition of dynein", 
            "end-pos": {
                "context-end": "inhibition/1", 
                "object-type": "relative-pos", 
                "offset": 104, 
                "reference": "sent-PMC2684528-medscan-63"
            }, 
            "frame-id": "eve-PMC2684528-cmu-junsys-673", 
            "frame-type": "event-mention", 
            "object-meta": {
                "component": "Jun-System", 
                "object-type": "meta-info", 
                "organization": "CMU"
            }, 
            "object-type": "frame", 
            "sentence": "sent-PMC2684528-medscan-63", 
            "start-pos": {
                "context-start": "inhibition/1", 
                "object-type": "relative-pos", 
                "offset": 94, 
                "reference": "sent-PMC2684528-medscan-63"
            }, 
            "text": "inhibition", 
            "type": "inhibit"
        }, 
        {
            "arguments": [
                {
                    "arg": "ment-PMC2684528-cmu-junsys-101", 
                    "object-type": "argument", 
                    "type": "arg0"
                }, 
                {
                    "arg": "ment-PMC2684528-cmu-medscan-102", 
                    "object-type": "argument", 
                    "type": "arg1"
                }
            ], 
            "context": "mutant whose overexpression inhibits dynein", 
            "end-pos": {
                "context-end": "inhibits/1", 
                "object-type": "relative-pos", 
                "offset": 180, 
                "reference": "sent-PMC2684528-medscan-63"
            }, 
            "frame-id": "eve-PMC2684528-cmu-junsys-674", 
            "frame-type": "event-mention", 
            "object-meta": {
                "component": "Jun-System", 
                "object-type": "meta-info", 
                "organization": "CMU"
            }, 
            "object-type": "frame", 
            "sentence": "sent-PMC2684528-medscan-63", 
            "start-pos": {
                "context-start": "inhibits/1", 
                "object-type": "relative-pos", 
                "offset": 172, 
                "reference": "sent-PMC2684528-medscan-63"
            }, 
            "text": "inhibits", 
            "type": "inhibit"
        }, 
        {
            "arguments": [
                {
                    "arg": "ment-PMC2684528-cmu-junsys-107", 
                    "object-type": "argument", 
                    "type": "arg1"
                }
            ], 
            "context": "regulation of Cdc42", 
            "end-pos": {
                "context-end": "regulation/1", 
                "object-type": "relative-pos", 
                "offset": 73, 
                "reference": "sent-PMC2684528-medscan-66"
            }, 
            "frame-id": "eve-PMC2684528-cmu-junsys-675", 
            "frame-type": "event-mention", 
            "object-meta": {
                "component": "Jun-System", 
                "object-type": "meta-info", 
                "organization": "CMU"
            }, 
            "object-type": "frame", 
            "sentence": "sent-PMC2684528-medscan-66", 
            "start-pos": {
                "context-start": "regulation/1", 
                "object-type": "relative-pos", 
                "offset": 63, 
                "reference": "sent-PMC2684528-medscan-66"
            }, 
            "text": "regulation", 
            "type": "regulate"
        }, 
        {
            "arguments": [
                {
                    "arg": "ment-PMC2684528-cmu-junsys-148", 
                    "object-type": "argument", 
                    "type": "arg0"
                }, 
                {
                    "arg": "ment-PMC2684528-cmu-junsys-149", 
                    "object-type": "argument", 
                    "type": "arg1"
                }
            ], 
            "context": "Rac1CA induced typical focal complex", 
            "end-pos": {
                "context-end": "induced/1", 
                "object-type": "relative-pos", 
                "offset": 32, 
                "reference": "sent-PMC2684528-medscan-88"
            }, 
            "frame-id": "eve-PMC2684528-cmu-junsys-676", 
            "frame-type": "event-mention", 
            "object-meta": {
                "component": "Jun-System", 
                "object-type": "meta-info", 
                "organization": "CMU"
            }, 
            "object-type": "frame", 
            "sentence": "sent-PMC2684528-medscan-88", 
            "start-pos": {
                "context-start": "induced/1", 
                "object-type": "relative-pos", 
                "offset": 25, 
                "reference": "sent-PMC2684528-medscan-88"
            }, 
            "text": "induced", 
            "type": "induce"
        }, 
        {
            "arguments": [
                {
                    "arg": "ment-PMC2684528-cmu-junsys-220", 
                    "object-type": "argument", 
                    "type": "arg0"
                }
            ], 
            "context": "PGN still bound", 
            "end-pos": {
                "context-end": "bound/1", 
                "object-type": "relative-pos", 
                "offset": 25, 
                "reference": "sent-PMC2684528-medscan-129"
            }, 
            "frame-id": "eve-PMC2684528-cmu-junsys-677", 
            "frame-type": "event-mention", 
            "object-meta": {
                "component": "Jun-System", 
                "object-type": "meta-info", 
                "organization": "CMU"
            }, 
            "object-type": "frame", 
            "sentence": "sent-PMC2684528-medscan-129", 
            "start-pos": {
                "context-start": "bound/1", 
                "object-type": "relative-pos", 
                "offset": 20, 
                "reference": "sent-PMC2684528-medscan-129"
            }, 
            "text": "bound", 
            "type": "bind"
        }, 
        {
            "arguments": [
                {
                    "arg": "ment-PMC2684528-cmu-junsys-286", 
                    "object-type": "argument", 
                    "type": "arg1"
                }
            ], 
            "context": "Regulation of the Nudel-paxillin interaction", 
            "end-pos": {
                "context-end": "Regulation/1", 
                "object-type": "relative-pos", 
                "offset": 302, 
                "reference": "sent-PMC2684528-medscan-170"
            }, 
            "frame-id": "eve-PMC2684528-cmu-junsys-678", 
            "frame-type": "event-mention", 
            "object-meta": {
                "component": "Jun-System", 
                "object-type": "meta-info", 
                "organization": "CMU"
            }, 
            "object-type": "frame", 
            "sentence": "sent-PMC2684528-medscan-170", 
            "start-pos": {
                "context-start": "Regulation/1", 
                "object-type": "relative-pos", 
                "offset": 292, 
                "reference": "sent-PMC2684528-medscan-170"
            }, 
            "text": "Regulation", 
            "type": "regulate"
        }, 
        {
            "arguments": [
                {
                    "arg": "ment-PMC2684528-cmu-junsys-303", 
                    "object-type": "argument", 
                    "type": "arg0"
                }, 
                {
                    "arg": "ment-PMC2684528-cmu-junsys-305", 
                    "object-type": "argument", 
                    "type": "arg1"
                }
            ], 
            "context": "kinase indeed regulates the Nudel-paxillin interaction", 
            "end-pos": {
                "context-end": "regulates/1", 
                "object-type": "relative-pos", 
                "offset": 69, 
                "reference": "sent-PMC2684528-medscan-178"
            }, 
            "frame-id": "eve-PMC2684528-cmu-junsys-679", 
            "frame-type": "event-mention", 
            "object-meta": {
                "component": "Jun-System", 
                "object-type": "meta-info", 
                "organization": "CMU"
            }, 
            "object-type": "frame", 
            "sentence": "sent-PMC2684528-medscan-178", 
            "start-pos": {
                "context-start": "regulates/1", 
                "object-type": "relative-pos", 
                "offset": 60, 
                "reference": "sent-PMC2684528-medscan-178"
            }, 
            "text": "regulates", 
            "type": "regulate"
        }, 
        {
            "arguments": [
                {
                    "arg": "ment-PMC2684528-cmu-junsys-319", 
                    "object-type": "argument", 
                    "type": "arg0"
                }, 
                {
                    "arg": "ment-PMC2684528-cmu-junsys-321", 
                    "object-type": "argument", 
                    "type": "arg1"
                }
            ], 
            "context": "kinase can regulate the Nudel-paxillin interaction", 
            "end-pos": {
                "context-end": "regulate/1", 
                "object-type": "relative-pos", 
                "offset": 56, 
                "reference": "sent-PMC2684528-medscan-183"
            }, 
            "frame-id": "eve-PMC2684528-cmu-junsys-680", 
            "frame-type": "event-mention", 
            "object-meta": {
                "component": "Jun-System", 
                "object-type": "meta-info", 
                "organization": "CMU"
            }, 
            "object-type": "frame", 
            "sentence": "sent-PMC2684528-medscan-183", 
            "start-pos": {
                "context-start": "regulate/1", 
                "object-type": "relative-pos", 
                "offset": 48, 
                "reference": "sent-PMC2684528-medscan-183"
            }, 
            "text": "regulate", 
            "type": "regulate"
        }, 
        {
            "arguments": [
                {
                    "arg": "ment-PMC2684528-cmu-junsys-325", 
                    "object-type": "argument", 
                    "type": "arg0"
                }, 
                {
                    "arg": "ment-PMC2684528-cmu-medscan-326", 
                    "object-type": "argument", 
                    "type": "arg1"
                }
            ], 
            "context": "that binds paxillin", 
            "end-pos": {
                "context-end": "binds/1", 
                "object-type": "relative-pos", 
                "offset": 201, 
                "reference": "sent-PMC2684528-medscan-184"
            }, 
            "frame-id": "eve-PMC2684528-cmu-junsys-681", 
            "frame-type": "event-mention", 
            "object-meta": {
                "component": "Jun-System", 
                "object-type": "meta-info", 
                "organization": "CMU"
            }, 
            "object-type": "frame", 
            "sentence": "sent-PMC2684528-medscan-184", 
            "start-pos": {
                "context-start": "binds/1", 
                "object-type": "relative-pos", 
                "offset": 196, 
                "reference": "sent-PMC2684528-medscan-184"
            }, 
            "text": "binds", 
            "type": "bind"
        }, 
        {
            "arguments": [
                {
                    "arg": "ment-PMC2684528-cmu-junsys-340", 
                    "object-type": "argument", 
                    "type": "arg0"
                }, 
                {
                    "arg": "ment-PMC2684528-cmu-junsys-339", 
                    "object-type": "argument", 
                    "type": "arg0"
                }
            ], 
            "context": "kinase\u0394FMPX1 and focal adhesion kinase\u0394FMPX2 do not bind", 
            "end-pos": {
                "context-end": "bind/1", 
                "object-type": "relative-pos", 
                "offset": 79, 
                "reference": "sent-PMC2684528-medscan-189"
            }, 
            "frame-id": "eve-PMC2684528-cmu-junsys-682", 
            "frame-type": "event-mention", 
            "object-meta": {
                "component": "Jun-System", 
                "object-type": "meta-info", 
                "organization": "CMU"
            }, 
            "object-type": "frame", 
            "sentence": "sent-PMC2684528-medscan-189", 
            "start-pos": {
                "context-start": "bind/1", 
                "object-type": "relative-pos", 
                "offset": 75, 
                "reference": "sent-PMC2684528-medscan-189"
            }, 
            "text": "bind", 
            "type": "bind"
        }, 
        {
            "arguments": [
                {
                    "arg": "ment-PMC2684528-cmu-junsys-346", 
                    "object-type": "argument", 
                    "type": "arg1"
                }
            ], 
            "context": "induction of cell edge shrinkage", 
            "end-pos": {
                "context-end": "induction/1", 
                "object-type": "relative-pos", 
                "offset": 91, 
                "reference": "sent-PMC2684528-medscan-190"
            }, 
            "frame-id": "eve-PMC2684528-cmu-junsys-683", 
            "frame-type": "event-mention", 
            "object-meta": {
                "component": "Jun-System", 
                "object-type": "meta-info", 
                "organization": "CMU"
            }, 
            "object-type": "frame", 
            "sentence": "sent-PMC2684528-medscan-190", 
            "start-pos": {
                "context-start": "induction/1", 
                "object-type": "relative-pos", 
                "offset": 82, 
                "reference": "sent-PMC2684528-medscan-190"
            }, 
            "text": "induction", 
            "type": "induce"
        }, 
        {
            "arguments": [
                {
                    "arg": "ment-PMC2684528-cmu-junsys-360", 
                    "object-type": "argument", 
                    "type": "arg0"
                }, 
                {
                    "arg": "ment-PMC2684528-cmu-junsys-361", 
                    "object-type": "argument", 
                    "type": "arg1"
                }
            ], 
            "context": "FAKOpn, a mutant containing two point mutations (Y180A/M183A) that abrogate the autoinhibitory effect of the FERM domain potently induced cell edge shrinkage", 
            "end-pos": {
                "object-type": "relative-pos", 
                "offset": -1, 
                "reference": "sent-PMC2684528-medscan-202"
            }, 
            "frame-id": "eve-PMC2684528-cmu-junsys-684", 
            "frame-type": "event-mention", 
            "object-meta": {
                "component": "Jun-System", 
                "object-type": "meta-info", 
                "organization": "CMU"
            }, 
            "object-type": "frame", 
            "sentence": "sent-PMC2684528-medscan-202", 
            "start-pos": {
                "object-type": "relative-pos", 
                "offset": -1, 
                "reference": "sent-PMC2684528-medscan-202"
            }, 
            "text": "induced", 
            "type": "induce"
        }, 
        {
            "arguments": [
                {
                    "arg": "ment-PMC2684528-cmu-junsys-368", 
                    "object-type": "argument", 
                    "type": "arg1"
                }
            ], 
            "context": "activation of focal adhesion kinase", 
            "end-pos": {
                "context-end": "activation/1", 
                "object-type": "relative-pos", 
                "offset": 106, 
                "reference": "sent-PMC2684528-medscan-204"
            }, 
            "frame-id": "eve-PMC2684528-cmu-junsys-685", 
            "frame-type": "event-mention", 
            "object-meta": {
                "component": "Jun-System", 
                "object-type": "meta-info", 
                "organization": "CMU"
            }, 
            "object-type": "frame", 
            "sentence": "sent-PMC2684528-medscan-204", 
            "start-pos": {
                "context-start": "activation/1", 
                "object-type": "relative-pos", 
                "offset": 96, 
                "reference": "sent-PMC2684528-medscan-204"
            }, 
            "text": "activation", 
            "type": "activate"
        }, 
        {
            "arguments": [
                {
                    "arg": "ment-PMC2684528-cmu-medscan-393", 
                    "object-type": "argument", 
                    "type": "arg0"
                }, 
                {
                    "arg": "ment-PMC2684528-cmu-junsys-394", 
                    "object-type": "argument", 
                    "type": "arg1"
                }
            ], 
            "context": "Cdc42 can activate Rac", 
            "end-pos": {
                "context-end": "activate/1", 
                "object-type": "relative-pos", 
                "offset": 73, 
                "reference": "sent-PMC2684528-medscan-216"
            }, 
            "frame-id": "eve-PMC2684528-cmu-junsys-686", 
            "frame-type": "event-mention", 
            "object-meta": {
                "component": "Jun-System", 
                "object-type": "meta-info", 
                "organization": "CMU"
            }, 
            "object-type": "frame", 
            "sentence": "sent-PMC2684528-medscan-216", 
            "start-pos": {
                "context-start": "activate/1", 
                "object-type": "relative-pos", 
                "offset": 65, 
                "reference": "sent-PMC2684528-medscan-216"
            }, 
            "text": "activate", 
            "type": "activate"
        }, 
        {
            "arguments": [
                {
                    "arg": "ment-PMC2684528-cmu-junsys-397", 
                    "object-type": "argument", 
                    "type": "arg1"
                }
            ], 
            "context": "inhibition of Cdc42 activity", 
            "end-pos": {
                "context-end": "inhibition/1", 
                "object-type": "relative-pos", 
                "offset": 83, 
                "reference": "sent-PMC2684528-medscan-217"
            }, 
            "frame-id": "eve-PMC2684528-cmu-junsys-687", 
            "frame-type": "event-mention", 
            "object-meta": {
                "component": "Jun-System", 
                "object-type": "meta-info", 
                "organization": "CMU"
            }, 
            "object-type": "frame", 
            "sentence": "sent-PMC2684528-medscan-217", 
            "start-pos": {
                "context-start": "inhibition/1", 
                "object-type": "relative-pos", 
                "offset": 73, 
                "reference": "sent-PMC2684528-medscan-217"
            }, 
            "text": "inhibition", 
            "type": "inhibit"
        }, 
        {
            "arguments": [
                {
                    "arg": "ment-PMC2684528-cmu-junsys-409", 
                    "object-type": "argument", 
                    "type": "arg1"
                }
            ], 
            "context": "activation of Rho GTPase", 
            "end-pos": {
                "context-end": "activation/1", 
                "object-type": "relative-pos", 
                "offset": 201, 
                "reference": "sent-PMC2684528-medscan-221"
            }, 
            "frame-id": "eve-PMC2684528-cmu-junsys-688", 
            "frame-type": "event-mention", 
            "object-meta": {
                "component": "Jun-System", 
                "object-type": "meta-info", 
                "organization": "CMU"
            }, 
            "object-type": "frame", 
            "sentence": "sent-PMC2684528-medscan-221", 
            "start-pos": {
                "context-start": "activation/1", 
                "object-type": "relative-pos", 
                "offset": 191, 
                "reference": "sent-PMC2684528-medscan-221"
            }, 
            "text": "activation", 
            "type": "activate"
        }, 
        {
            "arguments": [
                {
                    "arg": "ment-PMC2684528-cmu-medscan-419", 
                    "object-type": "argument", 
                    "type": "arg0"
                }
            ], 
            "context": "paxillin can bind", 
            "end-pos": {
                "context-end": "bind/1", 
                "object-type": "relative-pos", 
                "offset": 116, 
                "reference": "sent-PMC2684528-medscan-225"
            }, 
            "frame-id": "eve-PMC2684528-cmu-junsys-689", 
            "frame-type": "event-mention", 
            "object-meta": {
                "component": "Jun-System", 
                "object-type": "meta-info", 
                "organization": "CMU"
            }, 
            "object-type": "frame", 
            "sentence": "sent-PMC2684528-medscan-225", 
            "start-pos": {
                "context-start": "bind/1", 
                "object-type": "relative-pos", 
                "offset": 112, 
                "reference": "sent-PMC2684528-medscan-225"
            }, 
            "text": "bind", 
            "type": "bind"
        }, 
        {
            "arguments": [
                {
                    "arg": "ment-PMC2684528-cmu-junsys-452", 
                    "object-type": "argument", 
                    "type": "arg0"
                }, 
                {
                    "arg": "ment-PMC2684528-cmu-junsys-454", 
                    "object-type": "argument", 
                    "type": "arg1"
                }
            ], 
            "context": "binding may induce in paxillin a conformational change", 
            "end-pos": {
                "context-end": "induce/1", 
                "object-type": "relative-pos", 
                "offset": 231, 
                "reference": "sent-PMC2684528-medscan-242"
            }, 
            "frame-id": "eve-PMC2684528-cmu-junsys-690", 
            "frame-type": "event-mention", 
            "object-meta": {
                "component": "Jun-System", 
                "object-type": "meta-info", 
                "organization": "CMU"
            }, 
            "object-type": "frame", 
            "sentence": "sent-PMC2684528-medscan-242", 
            "start-pos": {
                "context-start": "induce/1", 
                "object-type": "relative-pos", 
                "offset": 225, 
                "reference": "sent-PMC2684528-medscan-242"
            }, 
            "text": "induce", 
            "type": "induce"
        }, 
        {
            "arguments": [
                {
                    "arg": "ment-PMC2684528-cmu-junsys-457", 
                    "object-type": "argument", 
                    "type": "arg0"
                }, 
                {
                    "arg": "ment-PMC2684528-cmu-junsys-458", 
                    "object-type": "argument", 
                    "type": "arg0"
                }
            ], 
            "context": "kinase and Nudel bound", 
            "end-pos": {
                "context-end": "bound/1", 
                "object-type": "relative-pos", 
                "offset": 42, 
                "reference": "sent-PMC2684528-medscan-243"
            }, 
            "frame-id": "eve-PMC2684528-cmu-junsys-691", 
            "frame-type": "event-mention", 
            "object-meta": {
                "component": "Jun-System", 
                "object-type": "meta-info", 
                "organization": "CMU"
            }, 
            "object-type": "frame", 
            "sentence": "sent-PMC2684528-medscan-243", 
            "start-pos": {
                "context-start": "bound/1", 
                "object-type": "relative-pos", 
                "offset": 37, 
                "reference": "sent-PMC2684528-medscan-243"
            }, 
            "text": "bound", 
            "type": "bind"
        }, 
        {
            "arguments": [
                {
                    "arg": "ment-PMC2684528-cmu-junsys-462", 
                    "object-type": "argument", 
                    "type": "arg0"
                }, 
                {
                    "arg": "ment-PMC2684528-cmu-junsys-463", 
                    "object-type": "argument", 
                    "type": "arg1"
                }
            ], 
            "context": "kinase can negatively regulate nascent adhesions", 
            "end-pos": {
                "context-end": "regulate/1", 
                "object-type": "relative-pos", 
                "offset": 131, 
                "reference": "sent-PMC2684528-medscan-244"
            }, 
            "frame-id": "eve-PMC2684528-cmu-junsys-692", 
            "frame-type": "event-mention", 
            "object-meta": {
                "component": "Jun-System", 
                "object-type": "meta-info", 
                "organization": "CMU"
            }, 
            "object-type": "frame", 
            "sentence": "sent-PMC2684528-medscan-244", 
            "start-pos": {
                "context-start": "regulate/1", 
                "object-type": "relative-pos", 
                "offset": 123, 
                "reference": "sent-PMC2684528-medscan-244"
            }, 
            "text": "regulate", 
            "type": "regulate"
        }, 
        {
            "arguments": [
                {
                    "arg": "ment-PMC2684528-cmu-junsys-474", 
                    "object-type": "argument", 
                    "type": "arg0"
                }
            ], 
            "context": "molecules located on polymerizing F-actin bind", 
            "end-pos": {
                "context-end": "bind/1", 
                "object-type": "relative-pos", 
                "offset": 251, 
                "reference": "sent-PMC2684528-medscan-250"
            }, 
            "frame-id": "eve-PMC2684528-cmu-junsys-693", 
            "frame-type": "event-mention", 
            "object-meta": {
                "component": "Jun-System", 
                "object-type": "meta-info", 
                "organization": "CMU"
            }, 
            "object-type": "frame", 
            "sentence": "sent-PMC2684528-medscan-250", 
            "start-pos": {
                "context-start": "bind/1", 
                "object-type": "relative-pos", 
                "offset": 247, 
                "reference": "sent-PMC2684528-medscan-250"
            }, 
            "text": "bind", 
            "type": "bind"
        }, 
        {
            "arguments": [
                {
                    "arg": "ment-PMC2684528-cmu-junsys-500", 
                    "object-type": "argument", 
                    "type": "arg1"
                }
            ], 
            "context": "activation of the kinase", 
            "end-pos": {
                "context-end": "activation/1", 
                "object-type": "relative-pos", 
                "offset": 131, 
                "reference": "sent-PMC2684528-medscan-260"
            }, 
            "frame-id": "eve-PMC2684528-cmu-junsys-694", 
            "frame-type": "event-mention", 
            "object-meta": {
                "component": "Jun-System", 
                "object-type": "meta-info", 
                "organization": "CMU"
            }, 
            "object-type": "frame", 
            "sentence": "sent-PMC2684528-medscan-260", 
            "start-pos": {
                "context-start": "activation/1", 
                "object-type": "relative-pos", 
                "offset": 121, 
                "reference": "sent-PMC2684528-medscan-260"
            }, 
            "text": "activation", 
            "type": "activate"
        }, 
        {
            "arguments": [
                {
                    "arg": "ment-PMC2684528-cmu-junsys-525", 
                    "object-type": "argument", 
                    "type": "arg0"
                }
            ], 
            "context": "chain bind", 
            "end-pos": {
                "object-type": "relative-pos", 
                "offset": -1, 
                "reference": "NOT LINKED"
            }, 
            "frame-id": "eve-PMC2684528-cmu-junsys-695", 
            "frame-type": "event-mention", 
            "object-meta": {
                "component": "Jun-System", 
                "object-type": "meta-info", 
                "organization": "CMU"
            }, 
            "object-type": "frame", 
            "sentence": "NOT LINKED", 
            "start-pos": {
                "object-type": "relative-pos", 
                "offset": -1, 
                "reference": "NOT LINKED"
            }, 
            "text": "bind", 
            "type": "bind"
        }, 
        {
            "arguments": [
                {
                    "arg": "ment-PMC2684528-cmu-junsys-535", 
                    "object-type": "argument", 
                    "type": "arg1"
                }
            ], 
            "context": "activation of Cdc42", 
            "end-pos": {
                "context-end": "activation/1", 
                "object-type": "relative-pos", 
                "offset": 179, 
                "reference": "sent-PMC2684528-medscan-273"
            }, 
            "frame-id": "eve-PMC2684528-cmu-junsys-696", 
            "frame-type": "event-mention", 
            "object-meta": {
                "component": "Jun-System", 
                "object-type": "meta-info", 
                "organization": "CMU"
            }, 
            "object-type": "frame", 
            "sentence": "sent-PMC2684528-medscan-273", 
            "start-pos": {
                "context-start": "activation/1", 
                "object-type": "relative-pos", 
                "offset": 169, 
                "reference": "sent-PMC2684528-medscan-273"
            }, 
            "text": "activation", 
            "type": "activate"
        }, 
        {
            "arguments": [
                {
                    "arg": "ment-PMC2684528-cmu-junsys-647", 
                    "object-type": "argument", 
                    "type": "arg0"
                }, 
                {
                    "arg": "ment-PMC2684528-cmu-junsys-648", 
                    "object-type": "argument", 
                    "type": "arg1"
                }
            ], 
            "context": "overexpression induces cell shrinkage", 
            "end-pos": {
                "context-end": "induces/1", 
                "object-type": "relative-pos", 
                "offset": 29, 
                "reference": "sent-PMC2684528-medscan-372"
            }, 
            "frame-id": "eve-PMC2684528-cmu-junsys-697", 
            "frame-type": "event-mention", 
            "object-meta": {
                "component": "Jun-System", 
                "object-type": "meta-info", 
                "organization": "CMU"
            }, 
            "object-type": "frame", 
            "sentence": "sent-PMC2684528-medscan-372", 
            "start-pos": {
                "context-start": "induces/1", 
                "object-type": "relative-pos", 
                "offset": 22, 
                "reference": "sent-PMC2684528-medscan-372"
            }, 
            "text": "induces", 
            "type": "induce"
        }, 
        {
            "frame-id": "ent-PMC2684528-cmu-junsys-699", 
            "frame-type": "entity", 
            "members": [
                "ment-PMC2684528-cmu-junsys-10", 
                "ment-PMC2684528-cmu-junsys-11"
            ], 
            "object-meta": {
                "component": "Jun-System", 
                "object-type": "meta-info", 
                "organization": "CMU"
            }, 
            "object-type": "frame"
        }, 
        {
            "frame-id": "ent-PMC2684528-cmu-junsys-700", 
            "frame-type": "entity", 
            "members": [
                "ment-PMC2684528-cmu-medscan-16", 
                "ment-PMC2684528-cmu-junsys-17"
            ], 
            "object-meta": {
                "component": "Jun-System", 
                "object-type": "meta-info", 
                "organization": "CMU"
            }, 
            "object-type": "frame"
        }, 
        {
            "frame-id": "ent-PMC2684528-cmu-junsys-701", 
            "frame-type": "entity", 
            "members": [
                "ment-PMC2684528-cmu-junsys-19", 
                "ment-PMC2684528-cmu-junsys-20"
            ], 
            "object-meta": {
                "component": "Jun-System", 
                "object-type": "meta-info", 
                "organization": "CMU"
            }, 
            "object-type": "frame"
        }, 
        {
            "frame-id": "ent-PMC2684528-cmu-junsys-702", 
            "frame-type": "entity", 
            "members": [
                "ment-PMC2684528-cmu-medscan-78", 
                "ment-PMC2684528-cmu-junsys-79"
            ], 
            "object-meta": {
                "component": "Jun-System", 
                "object-type": "meta-info", 
                "organization": "CMU"
            }, 
            "object-type": "frame"
        }, 
        {
            "frame-id": "ent-PMC2684528-cmu-junsys-703", 
            "frame-type": "entity", 
            "members": [
                "ment-PMC2684528-cmu-junsys-93", 
                "ment-PMC2684528-cmu-junsys-94"
            ], 
            "object-meta": {
                "component": "Jun-System", 
                "object-type": "meta-info", 
                "organization": "CMU"
            }, 
            "object-type": "frame"
        }, 
        {
            "frame-id": "ent-PMC2684528-cmu-junsys-704", 
            "frame-type": "entity", 
            "members": [
                "ment-PMC2684528-cmu-junsys-208", 
                "ment-PMC2684528-cmu-junsys-209"
            ], 
            "object-meta": {
                "component": "Jun-System", 
                "object-type": "meta-info", 
                "organization": "CMU"
            }, 
            "object-type": "frame"
        }, 
        {
            "frame-id": "ent-PMC2684528-cmu-junsys-705", 
            "frame-type": "entity", 
            "members": [
                "ment-PMC2684528-cmu-junsys-234", 
                "ment-PMC2684528-cmu-junsys-235"
            ], 
            "object-meta": {
                "component": "Jun-System", 
                "object-type": "meta-info", 
                "organization": "CMU"
            }, 
            "object-type": "frame"
        }, 
        {
            "frame-id": "ent-PMC2684528-cmu-junsys-706", 
            "frame-type": "entity", 
            "members": [
                "ment-PMC2684528-cmu-junsys-371", 
                "ment-PMC2684528-cmu-junsys-372"
            ], 
            "object-meta": {
                "component": "Jun-System", 
                "object-type": "meta-info", 
                "organization": "CMU"
            }, 
            "object-type": "frame"
        }, 
        {
            "frame-id": "ent-PMC2684528-cmu-junsys-707", 
            "frame-type": "entity", 
            "members": [
                "ment-PMC2684528-cmu-medscan-373", 
                "ment-PMC2684528-cmu-junsys-374"
            ], 
            "object-meta": {
                "component": "Jun-System", 
                "object-type": "meta-info", 
                "organization": "CMU"
            }, 
            "object-type": "frame"
        }, 
        {
            "frame-id": "ent-PMC2684528-cmu-junsys-708", 
            "frame-type": "entity", 
            "members": [
                "ment-PMC2684528-cmu-junsys-610", 
                "ment-PMC2684528-cmu-junsys-611"
            ], 
            "object-meta": {
                "component": "Jun-System", 
                "object-type": "meta-info", 
                "organization": "CMU"
            }, 
            "object-type": "frame"
        }
    ], 
    "object-meta": {
        "component": "Jun-System", 
        "component-type": "machine", 
        "doc-id": "PMC2684528", 
        "object-type": "meta-info", 
        "organization": "CMU"
    }, 
    "object-type": "frame-collection"
}
