{
  "evidence": ["CK1alpha activates Smo","CK1alpha-initiated phosphorylation further increases CK1alpha binding by promoting the open conformation of Smo","Here we demonstrate that mammalian Smo ( mSmo ) is activated through multi-site phosphorylation of its carboxyl-terminal tail by CK1alpha and GRK2 .","In the second step ( referred to as the amplification step ) , CK1alpha initiated phosphorylation further increases CK1alpha binding by promoting the open conformation of Smo C-tail .","Smo (mSmo) is activated through multi-site phosphorylation of its carboxyl-terminal tail by CK1alpha","To determine how CK1alpha positively regulates Shh signaling , we tested whether CK1alpha activates Smo ."],
  "extracted_information": {
    "interaction_type": "increases_activity",
    "negative_information": false,
    "participant_a": {
      "entity_text": "CK1alpha",
      "entity_type": "protein",
      "identifier": "ungrounded",
      "in_model": false
    },
    "participant_b": {
      "entity_text": "Smo",
      "entity_type": "protein",
      "identifier": "Uniprot:Q99835",
      "in_model": true
    }
  },
  "fries_provenance": [
    {
      "cmu-sentence-epistemic-status": "implication",
      "cmu-sentence-epistemic-value": 0.6,
      "component": "REACH",
      "frame-file": "PMC3114773.uaz.events",
      "frame-id": "evem-PMC3114773-UAZ-r1-115-7-221",
      "passage-id": "pass-PMC3114773-UAZ-r1-115",
      "passage-number": 115,
      "passage-section-id": "s3c",
      "passage-section-name": "N/A",
      "sentence": "In the second step ( referred to as the amplification step ) , CK1alpha initiated phosphorylation further increases CK1alpha binding by promoting the open conformation of Smo C-tail .",
      "text": "CK1alpha-initiated phosphorylation further increases CK1alpha binding by promoting the open conformation of Smo",
      "uaz-sentence": "In the second step ( referred to as the amplification step ) , CK1alpha initiated phosphorylation further increases CK1alpha binding by promoting the open conformation of Smo C-tail .",
      "uaz-sentence-start": 1298
    },
    {
      "component": "REACH",
      "frame-file": "PMC3114773.uaz.events",
      "frame-id": "evem-PMC3114773-UAZ-r1-19-1-30",
      "passage-id": "pass-PMC3114773-UAZ-r1-19",
      "passage-number": 19,
      "passage-section-id": "s2a",
      "passage-section-name": "N/A",
      "sentence": "To determine how CK1alpha positively regulates Shh signaling , we tested whether CK1alpha activates Smo .",
      "text": "CK1alpha activates Smo",
      "uaz-event-epistemic-status": "hypothesis",
      "uaz-sentence": "To determine how CK1alpha positively regulates Shh signaling , we tested whether CK1alpha activates Smo .",
      "uaz-sentence-start": 102
    },
    {
      "component": "REACH",
      "frame-file": "PMC3114773.uaz.events",
      "frame-id": "evem-PMC3114773-UAZ-r1-2-3-4",
      "passage-id": "pass-PMC3114773-UAZ-r1-2",
      "passage-number": 2,
      "passage-section-id": "N/A",
      "passage-section-name": "abstract",
      "sentence": "Here we demonstrate that mammalian Smo ( mSmo ) is activated through multi-site phosphorylation of its carboxyl-terminal tail by CK1alpha and GRK2 .",
      "text": "Smo (mSmo) is activated through multi-site phosphorylation of its carboxyl-terminal tail by CK1alpha",
      "uaz-sentence": "Here we demonstrate that mammalian Smo ( mSmo ) is activated through multi-site phosphorylation of its carboxyl-terminal tail by CK1alpha and GRK2 .",
      "uaz-sentence-start": 462
    }
  ],
  "model_relation": "extension",
  "pmc_id": "PMC3114773",
  "reader_type": "machine",
  "reading_complete": "2015-06-15T22:08:43Z",
  "reading_started": "2015-06-15T22:08:38Z",
  "submitter": "FRIES"
}
