{
  "evidence": ["In both cases , Hh induces Smo phosphorylation at multiple sites ( although by distinct sets of kinases ) that fine-tune Smo activity , and phosphorylation activates Smo by inducing its active conformation and regulating its subcellular localization ( cell surface accumulation for dSmo and ciliary accumulation for mSmo ) .","Smo activity, and phosphorylation"],
  "extracted_information": {
    "interaction_type": "adds_modification",
    "negative_information": false,
    "modifications": [
      {
        "modification_type": "phosphorylation"
      }
    ],
    "participant_b": {
      "entity_text": "Smo",
      "entity_type": "protein",
      "identifier": "Uniprot:Q99835",
      "in_model": true
    }
  },
  "fries_provenance": [
    {
      "cmu-sentence-epistemic-status": "implication",
      "cmu-sentence-epistemic-value": 0.6,
      "component": "REACH",
      "frame-file": "PMC3114773.uaz.events",
      "frame-id": "evem-PMC3114773-UAZ-r1-120-1-246",
      "passage-id": "pass-PMC3114773-UAZ-r1-120",
      "passage-number": 120,
      "passage-section-id": "s3d",
      "passage-section-name": "N/A",
      "sentence": "In both cases , Hh induces Smo phosphorylation at multiple sites ( although by distinct sets of kinases ) that fine-tune Smo activity , and phosphorylation activates Smo by inducing its active conformation and regulating its subcellular localization ( cell surface accumulation for dSmo and ciliary accumulation for mSmo ) .",
      "text": "Smo activity, and phosphorylation",
      "uaz-sentence": "In both cases , Hh induces Smo phosphorylation at multiple sites ( although by distinct sets of kinases ) that fine-tune Smo activity , and phosphorylation activates Smo by inducing its active conformation and regulating its subcellular localization ( cell surface accumulation for dSmo and ciliary accumulation for mSmo ) .",
      "uaz-sentence-start": 182
    }
  ],
  "model_relation": "extension",
  "pmc_id": "PMC3114773",
  "reader_type": "machine",
  "reading_complete": "2015-06-15T22:08:43Z",
  "reading_started": "2015-06-15T22:08:38Z",
  "submitter": "FRIES"
}
