{
  "evidence": ["Elk-1 phosphorylation","Thus SRF , Elk-1 and TBP bound to the SRE promoter                           ; SRF and TBP but not Elk-1 bound to the DSE promoter ( lanes 3 and 10 ) whereas neither Elk-1 nor SRF bound to the basal TATA promoter ( lanes 4 and 11 ) , irrespective of prior mitogen stimulation of the cells , as indicated by ERK and Elk-1 phosphorylation            ."],
  "extracted_information": {
    "interaction_type": "adds_modification",
    "negative_information": false,
    "modifications": [
      {
        "modification_type": "phosphorylation"
      }
    ],
    "participant_b": {
      "entity_text": "Elk-1",
      "entity_type": "protein",
      "identifier": "Uniprot:P19419",
      "in_model": true
    }
  },
  "fries_provenance": [
    {
      "cmu-sentence-epistemic-status": "implication",
      "cmu-sentence-epistemic-value": 0.6,
      "component": "REACH",
      "frame-file": "PMC2377423.uaz.events",
      "frame-id": "evem-PMC2377423-UAZ-r1-47-4-19",
      "passage-id": "pass-PMC2377423-UAZ-r1-47",
      "passage-number": 47,
      "passage-section-id": "N/A",
      "passage-section-name": "N/A",
      "sentence": "Thus SRF , Elk-1 and TBP bound to the SRE promoter                           ; SRF and TBP but not Elk-1 bound to the DSE promoter ( lanes 3 and 10 ) whereas neither Elk-1 nor SRF bound to the basal TATA promoter ( lanes 4 and 11 ) , irrespective of prior mitogen stimulation of the cells , as indicated by ERK and Elk-1 phosphorylation            .",
      "text": "Elk-1 phosphorylation",
      "uaz-event-epistemic-status": "hypothesis",
      "uaz-sentence": "Thus SRF , Elk-1 and TBP bound to the SRE promoter                           ; SRF and TBP but not Elk-1 bound to the DSE promoter ( lanes 3 and 10 ) whereas neither Elk-1 nor SRF bound to the basal TATA promoter ( lanes 4 and 11 ) , irrespective of prior mitogen stimulation of the cells , as indicated by ERK and Elk-1 phosphorylation            .",
      "uaz-sentence-start": 483
    }
  ],
  "model_relation": "extension",
  "pmc_id": "PMC2377423",
  "reader_type": "machine",
  "reading_complete": "2015-06-15T20:24:06Z",
  "reading_started": "2015-06-15T20:24:01Z",
  "submitter": "FRIES"
}
