{
    "frames": [
        {
            "frame-id": "smap-PMC3592994-cmu-1", 
            "frame-type": "sentence-map", 
            "list1-meta": {
                "component": "nxml2fries", 
                "object-type": "meta-info", 
                "organization": "UAZ"
            }, 
            "list2-meta": {
                "component": "Nicolas-NXML-Parser", 
                "object-type": "meta-info", 
                "organization": "CMU"
            }, 
            "map": [
                {
                    "from": "sent-PMC3592994-UAZ-r1-39-1", 
                    "object-type": "map-range", 
                    "to": "sent-PMC3592994-cmu-63"
                }, 
                {
                    "from": "sent-PMC3592994-UAZ-r1-63-0", 
                    "object-type": "map-range", 
                    "to": "sent-PMC3592994-cmu-133"
                }, 
                {
                    "from": "sent-PMC3592994-UAZ-r1-55-1", 
                    "object-type": "map-range", 
                    "to": "sent-PMC3592994-cmu-105"
                }, 
                {
                    "from": "sent-PMC3592994-UAZ-r1-66-3", 
                    "object-type": "map-range", 
                    "to": "sent-PMC3592994-cmu-148"
                }, 
                {
                    "from": "sent-PMC3592994-UAZ-r1-62-13", 
                    "object-type": "map-range", 
                    "to": "sent-PMC3592994-cmu-129"
                }, 
                {
                    "from": "sent-PMC3592994-UAZ-r1-37-6", 
                    "object-type": "map-range", 
                    "to": "sent-PMC3592994-cmu-51"
                }, 
                {
                    "from": "sent-PMC3592994-UAZ-r1-46-2", 
                    "object-type": "map-range", 
                    "to": "sent-PMC3592994-cmu-36"
                }, 
                {
                    "from": "sent-PMC3592994-UAZ-r1-49-4", 
                    "object-type": "map-range", 
                    "to": "sent-PMC3592994-cmu-96"
                }, 
                {
                    "from": "sent-PMC3592994-UAZ-r1-38-6", 
                    "object-type": "map-range", 
                    "to": "sent-PMC3592994-cmu-61"
                }, 
                {
                    "from": "sent-PMC3592994-UAZ-r1-63-6", 
                    "object-type": "map-range", 
                    "to": "sent-PMC3592994-cmu-139"
                }, 
                {
                    "from": "sent-PMC3592994-UAZ-r1-38-1", 
                    "object-type": "map-range", 
                    "to": "sent-PMC3592994-cmu-45"
                }, 
                {
                    "from": "sent-PMC3592994-UAZ-r1-34-4", 
                    "object-type": "map-range", 
                    "to": "sent-PMC3592994-cmu-102"
                }, 
                {
                    "from": "sent-PMC3592994-UAZ-r1-3-0", 
                    "object-type": "map-range", 
                    "to": "sent-PMC3592994-cmu-1"
                }, 
                {
                    "from": "sent-PMC3592994-UAZ-r1-39-0", 
                    "object-type": "map-range", 
                    "to": "sent-PMC3592994-cmu-62"
                }, 
                {
                    "from": "sent-PMC3592994-UAZ-r1-27-4", 
                    "object-type": "map-range", 
                    "to": "sent-PMC3592994-cmu-34"
                }, 
                {
                    "from": "sent-PMC3592994-UAZ-r1-16-1", 
                    "object-type": "map-range", 
                    "to": "sent-PMC3592994-cmu-18"
                }, 
                {
                    "from": "sent-PMC3592994-UAZ-r1-27-0", 
                    "object-type": "map-range", 
                    "to": "sent-PMC3592994-cmu-28"
                }, 
                {
                    "from": "sent-PMC3592994-UAZ-r1-46-0", 
                    "object-type": "map-range", 
                    "to": "sent-PMC3592994-cmu-82"
                }, 
                {
                    "from": "sent-PMC3592994-UAZ-r1-34-1", 
                    "object-type": "map-range", 
                    "to": "sent-PMC3592994-cmu-39"
                }, 
                {
                    "from": "sent-PMC3592994-UAZ-r1-55-3", 
                    "object-type": "map-range", 
                    "to": "sent-PMC3592994-cmu-107"
                }, 
                {
                    "from": "sent-PMC3592994-UAZ-r1-54-0", 
                    "object-type": "map-range", 
                    "to": "sent-PMC3592994-cmu-103"
                }, 
                {
                    "from": "sent-PMC3592994-UAZ-r1-38-4", 
                    "object-type": "map-range", 
                    "to": "sent-PMC3592994-cmu-57"
                }, 
                {
                    "from": "sent-PMC3592994-UAZ-r1-61-1", 
                    "object-type": "map-range", 
                    "to": "sent-PMC3592994-cmu-122"
                }, 
                {
                    "from": "sent-PMC3592994-UAZ-r1-55-2", 
                    "object-type": "map-range", 
                    "to": "sent-PMC3592994-cmu-106"
                }, 
                {
                    "from": "sent-PMC3592994-UAZ-r1-45-4", 
                    "object-type": "map-range", 
                    "to": "sent-PMC3592994-cmu-78"
                }, 
                {
                    "from": "sent-PMC3592994-UAZ-r1-62-3", 
                    "object-type": "map-range", 
                    "to": "sent-PMC3592994-cmu-124"
                }, 
                {
                    "from": "sent-PMC3592994-UAZ-r1-42-2", 
                    "object-type": "map-range", 
                    "to": "sent-PMC3592994-cmu-72"
                }, 
                {
                    "from": "sent-PMC3592994-UAZ-r1-62-0", 
                    "object-type": "map-range", 
                    "to": "sent-PMC3592994-cmu-123"
                }, 
                {
                    "from": "sent-PMC3592994-UAZ-r1-45-1", 
                    "object-type": "map-range", 
                    "to": "sent-PMC3592994-cmu-76"
                }, 
                {
                    "from": "sent-PMC3592994-UAZ-r1-22-3", 
                    "object-type": "map-range", 
                    "to": "sent-PMC3592994-cmu-26"
                }, 
                {
                    "from": "sent-PMC3592994-UAZ-r1-16-0", 
                    "object-type": "map-range", 
                    "to": "sent-PMC3592994-cmu-17"
                }, 
                {
                    "from": "sent-PMC3592994-UAZ-r1-55-7", 
                    "object-type": "map-range", 
                    "to": "sent-PMC3592994-cmu-115"
                }, 
                {
                    "from": "sent-PMC3592994-UAZ-r1-13-1", 
                    "object-type": "map-range", 
                    "to": "sent-PMC3592994-cmu-14"
                }, 
                {
                    "from": "sent-PMC3592994-UAZ-r1-27-3", 
                    "object-type": "map-range", 
                    "to": "sent-PMC3592994-cmu-33"
                }, 
                {
                    "from": "sent-PMC3592994-UAZ-r1-34-4", 
                    "object-type": "map-range", 
                    "to": "sent-PMC3592994-cmu-43"
                }, 
                {
                    "from": "sent-PMC3592994-UAZ-r1-27-1", 
                    "object-type": "map-range", 
                    "to": "sent-PMC3592994-cmu-29"
                }, 
                {
                    "from": "sent-PMC3592994-UAZ-r1-13-0", 
                    "object-type": "map-range", 
                    "to": "sent-PMC3592994-cmu-13"
                }, 
                {
                    "from": "sent-PMC3592994-UAZ-r1-39-2", 
                    "object-type": "map-range", 
                    "to": "sent-PMC3592994-cmu-65"
                }, 
                {
                    "from": "sent-PMC3592994-UAZ-r1-52-0", 
                    "object-type": "map-range", 
                    "to": "sent-PMC3592994-cmu-98"
                }, 
                {
                    "from": "sent-PMC3592994-UAZ-r1-38-5", 
                    "object-type": "map-range", 
                    "to": "sent-PMC3592994-cmu-59"
                }, 
                {
                    "from": "sent-PMC3592994-UAZ-r1-41-0", 
                    "object-type": "map-range", 
                    "to": "sent-PMC3592994-cmu-68"
                }, 
                {
                    "from": "sent-PMC3592994-UAZ-r1-42-3", 
                    "object-type": "map-range", 
                    "to": "sent-PMC3592994-cmu-74"
                }, 
                {
                    "from": "sent-PMC3592994-UAZ-r1-63-8", 
                    "object-type": "map-range", 
                    "to": "sent-PMC3592994-cmu-141"
                }, 
                {
                    "from": "sent-PMC3592994-UAZ-r1-62-5", 
                    "object-type": "map-range", 
                    "to": "sent-PMC3592994-cmu-126"
                }, 
                {
                    "from": "sent-PMC3592994-UAZ-r1-38-0", 
                    "object-type": "map-range", 
                    "to": "sent-PMC3592994-cmu-52"
                }, 
                {
                    "from": "sent-PMC3592994-UAZ-r1-45-6", 
                    "object-type": "map-range", 
                    "to": "sent-PMC3592994-cmu-81"
                }, 
                {
                    "from": "sent-PMC3592994-UAZ-r1-62-17", 
                    "object-type": "map-range", 
                    "to": "sent-PMC3592994-cmu-132"
                }, 
                {
                    "from": "sent-PMC3592994-UAZ-r1-62-4", 
                    "object-type": "map-range", 
                    "to": "sent-PMC3592994-cmu-125"
                }, 
                {
                    "from": "sent-PMC3592994-UAZ-r1-62-16", 
                    "object-type": "map-range", 
                    "to": "sent-PMC3592994-cmu-131"
                }, 
                {
                    "from": "sent-PMC3592994-UAZ-r1-65-2", 
                    "object-type": "map-range", 
                    "to": "sent-PMC3592994-cmu-144"
                }, 
                {
                    "from": "sent-PMC3592994-UAZ-r1-63-1", 
                    "object-type": "map-range", 
                    "to": "sent-PMC3592994-cmu-134"
                }, 
                {
                    "from": "sent-PMC3592994-UAZ-r1-42-0", 
                    "object-type": "map-range", 
                    "to": "sent-PMC3592994-cmu-69"
                }, 
                {
                    "from": "sent-PMC3592994-UAZ-r1-62-10", 
                    "object-type": "map-range", 
                    "to": "sent-PMC3592994-cmu-127"
                }, 
                {
                    "from": "sent-PMC3592994-UAZ-r1-66-1", 
                    "object-type": "map-range", 
                    "to": "sent-PMC3592994-cmu-146"
                }, 
                {
                    "from": "sent-PMC3592994-UAZ-r1-27-2", 
                    "object-type": "map-range", 
                    "to": "sent-PMC3592994-cmu-31"
                }, 
                {
                    "from": "sent-PMC3592994-UAZ-r1-49-3", 
                    "object-type": "map-range", 
                    "to": "sent-PMC3592994-cmu-94"
                }, 
                {
                    "from": "sent-PMC3592994-UAZ-r1-61-0", 
                    "object-type": "map-range", 
                    "to": "sent-PMC3592994-cmu-121"
                }, 
                {
                    "from": "sent-PMC3592994-UAZ-r1-49-0", 
                    "object-type": "map-range", 
                    "to": "sent-PMC3592994-cmu-89"
                }, 
                {
                    "from": "sent-PMC3592994-UAZ-r1-46-1", 
                    "object-type": "map-range", 
                    "to": "sent-PMC3592994-cmu-84"
                }, 
                {
                    "from": "sent-PMC3592994-UAZ-r1-45-2", 
                    "object-type": "map-range", 
                    "to": "sent-PMC3592994-cmu-77"
                }, 
                {
                    "from": "sent-PMC3592994-UAZ-r1-66-5", 
                    "object-type": "map-range", 
                    "to": "sent-PMC3592994-cmu-150"
                }, 
                {
                    "from": "sent-PMC3592994-UAZ-r1-22-2", 
                    "object-type": "map-range", 
                    "to": "sent-PMC3592994-cmu-24"
                }, 
                {
                    "from": "sent-PMC3592994-UAZ-r1-52-1", 
                    "object-type": "map-range", 
                    "to": "sent-PMC3592994-cmu-99"
                }, 
                {
                    "from": "sent-PMC3592994-UAZ-r1-60-1", 
                    "object-type": "map-range", 
                    "to": "sent-PMC3592994-cmu-118"
                }, 
                {
                    "from": "sent-PMC3592994-UAZ-r1-45-0", 
                    "object-type": "map-range", 
                    "to": "sent-PMC3592994-cmu-75"
                }, 
                {
                    "from": "sent-PMC3592994-UAZ-r1-34-0", 
                    "object-type": "map-range", 
                    "to": "sent-PMC3592994-cmu-38"
                }, 
                {
                    "from": "sent-PMC3592994-UAZ-r1-45-5", 
                    "object-type": "map-range", 
                    "to": "sent-PMC3592994-cmu-79"
                }, 
                {
                    "from": "sent-PMC3592994-UAZ-r1-46-2", 
                    "object-type": "map-range", 
                    "to": "sent-PMC3592994-cmu-86"
                }, 
                {
                    "from": "sent-PMC3592994-UAZ-r1-49-1", 
                    "object-type": "map-range", 
                    "to": "sent-PMC3592994-cmu-91"
                }, 
                {
                    "from": "sent-PMC3592994-UAZ-r1-62-15", 
                    "object-type": "map-range", 
                    "to": "sent-PMC3592994-cmu-130"
                }, 
                {
                    "from": "sent-PMC3592994-UAZ-r1-22-0", 
                    "object-type": "map-range", 
                    "to": "sent-PMC3592994-cmu-23"
                }, 
                {
                    "from": "sent-PMC3592994-UAZ-r1-63-2", 
                    "object-type": "map-range", 
                    "to": "sent-PMC3592994-cmu-135"
                }, 
                {
                    "from": "sent-PMC3592994-UAZ-r1-55-5", 
                    "object-type": "map-range", 
                    "to": "sent-PMC3592994-cmu-111"
                }, 
                {
                    "from": "sent-PMC3592994-UAZ-r1-26-0", 
                    "object-type": "map-range", 
                    "to": "sent-PMC3592994-cmu-27"
                }, 
                {
                    "from": "sent-PMC3592994-UAZ-r1-60-3", 
                    "object-type": "map-range", 
                    "to": "sent-PMC3592994-cmu-120"
                }, 
                {
                    "from": "sent-PMC3592994-UAZ-r1-66-0", 
                    "object-type": "map-range", 
                    "to": "sent-PMC3592994-cmu-145"
                }, 
                {
                    "from": "sent-PMC3592994-UAZ-r1-63-3", 
                    "object-type": "map-range", 
                    "to": "sent-PMC3592994-cmu-136"
                }, 
                {
                    "from": "sent-PMC3592994-UAZ-r1-63-5", 
                    "object-type": "map-range", 
                    "to": "sent-PMC3592994-cmu-138"
                }, 
                {
                    "from": "sent-PMC3592994-UAZ-r1-63-7", 
                    "object-type": "map-range", 
                    "to": "sent-PMC3592994-cmu-140"
                }, 
                {
                    "from": "sent-PMC3592994-UAZ-r1-60-0", 
                    "object-type": "map-range", 
                    "to": "sent-PMC3592994-cmu-117"
                }, 
                {
                    "from": "sent-PMC3592994-UAZ-r1-16-2", 
                    "object-type": "map-range", 
                    "to": "sent-PMC3592994-cmu-19"
                }, 
                {
                    "from": "sent-PMC3592994-UAZ-r1-42-1", 
                    "object-type": "map-range", 
                    "to": "sent-PMC3592994-cmu-70"
                }, 
                {
                    "from": "sent-PMC3592994-UAZ-r1-55-6", 
                    "object-type": "map-range", 
                    "to": "sent-PMC3592994-cmu-113"
                }, 
                {
                    "from": "sent-PMC3592994-UAZ-r1-55-0", 
                    "object-type": "map-range", 
                    "to": "sent-PMC3592994-cmu-104"
                }, 
                {
                    "from": "sent-PMC3592994-UAZ-r1-13-2", 
                    "object-type": "map-range", 
                    "to": "sent-PMC3592994-cmu-15"
                }, 
                {
                    "from": "sent-PMC3592994-UAZ-r1-62-11", 
                    "object-type": "map-range", 
                    "to": "sent-PMC3592994-cmu-128"
                }, 
                {
                    "from": "sent-PMC3592994-UAZ-r1-60-2", 
                    "object-type": "map-range", 
                    "to": "sent-PMC3592994-cmu-119"
                }, 
                {
                    "from": "sent-PMC3592994-UAZ-r1-37-0", 
                    "object-type": "map-range", 
                    "to": "sent-PMC3592994-cmu-44"
                }, 
                {
                    "from": "sent-PMC3592994-UAZ-r1-38-3", 
                    "object-type": "map-range", 
                    "to": "sent-PMC3592994-cmu-55"
                }, 
                {
                    "from": "sent-PMC3592994-UAZ-r1-65-0", 
                    "object-type": "map-range", 
                    "to": "sent-PMC3592994-cmu-143"
                }, 
                {
                    "from": "sent-PMC3592994-UAZ-r1-39-3", 
                    "object-type": "map-range", 
                    "to": "sent-PMC3592994-cmu-67"
                }, 
                {
                    "from": "sent-PMC3592994-UAZ-r1-55-4", 
                    "object-type": "map-range", 
                    "to": "sent-PMC3592994-cmu-109"
                }, 
                {
                    "from": "sent-PMC3592994-UAZ-r1-64-0", 
                    "object-type": "map-range", 
                    "to": "sent-PMC3592994-cmu-142"
                }, 
                {
                    "from": "sent-PMC3592994-UAZ-r1-66-4", 
                    "object-type": "map-range", 
                    "to": "sent-PMC3592994-cmu-149"
                }, 
                {
                    "from": "sent-PMC3592994-UAZ-r1-63-4", 
                    "object-type": "map-range", 
                    "to": "sent-PMC3592994-cmu-137"
                }, 
                {
                    "from": "sent-PMC3592994-UAZ-r1-66-2", 
                    "object-type": "map-range", 
                    "to": "sent-PMC3592994-cmu-147"
                }, 
                {
                    "from": "sent-PMC3592994-UAZ-r1-49-2", 
                    "object-type": "map-range", 
                    "to": "sent-PMC3592994-cmu-93"
                }, 
                {
                    "from": "sent-PMC3592994-UAZ-r1-46-3", 
                    "object-type": "map-range", 
                    "to": "sent-PMC3592994-cmu-87"
                }
            ], 
            "object-meta": {
                "component": "Pradeep-Matcher", 
                "object-type": "meta-info", 
                "organization": "CMU"
            }, 
            "object-type": "frame"
        }, 
        {
            "frame-id": "smap-PMC3592994-cmu-2", 
            "frame-type": "sentence-map", 
            "list1-meta": {
                "component": "MedScan", 
                "object-type": "meta-info", 
                "organization": "CMU"
            }, 
            "list2-meta": {
                "component": "Nicolas-NXML-Parser", 
                "object-type": "meta-info", 
                "organization": "CMU"
            }, 
            "map": [
                {
                    "from": "sent-PMC3592994-medscan-17", 
                    "object-type": "map-range", 
                    "to": "sent-PMC3592994-cmu-10"
                }, 
                {
                    "from": "sent-PMC3592994-medscan-67", 
                    "object-type": "map-range", 
                    "to": "sent-PMC3592994-cmu-63"
                }, 
                {
                    "from": "sent-PMC3592994-medscan-110", 
                    "object-type": "map-range", 
                    "to": "sent-PMC3592994-cmu-105"
                }, 
                {
                    "from": "sent-PMC3592994-medscan-156", 
                    "object-type": "map-range", 
                    "to": "sent-PMC3592994-cmu-148"
                }, 
                {
                    "from": "sent-PMC3592994-medscan-135", 
                    "object-type": "map-range", 
                    "to": "sent-PMC3592994-cmu-129"
                }, 
                {
                    "from": "sent-PMC3592994-medscan-58", 
                    "object-type": "map-range", 
                    "to": "sent-PMC3592994-cmu-51"
                }, 
                {
                    "from": "sent-PMC3592994-medscan-36", 
                    "object-type": "map-range", 
                    "to": "sent-PMC3592994-cmu-36"
                }, 
                {
                    "from": "sent-PMC3592994-medscan-61", 
                    "object-type": "map-range", 
                    "to": "sent-PMC3592994-cmu-53"
                }, 
                {
                    "from": "sent-PMC3592994-medscan-65", 
                    "object-type": "map-range", 
                    "to": "sent-PMC3592994-cmu-61"
                }, 
                {
                    "from": "sent-PMC3592994-medscan-145", 
                    "object-type": "map-range", 
                    "to": "sent-PMC3592994-cmu-139"
                }, 
                {
                    "from": "sent-PMC3592994-medscan-0", 
                    "object-type": "map-range", 
                    "to": "sent-PMC3592994-cmu-1"
                }, 
                {
                    "from": "sent-PMC3592994-medscan-0", 
                    "object-type": "map-range", 
                    "to": "sent-PMC3592994-cmu-1"
                }, 
                {
                    "from": "sent-PMC3592994-medscan-0", 
                    "object-type": "map-range", 
                    "to": "sent-PMC3592994-cmu-1"
                }, 
                {
                    "from": "sent-PMC3592994-medscan-66", 
                    "object-type": "map-range", 
                    "to": "sent-PMC3592994-cmu-62"
                }, 
                {
                    "from": "sent-PMC3592994-medscan-35", 
                    "object-type": "map-range", 
                    "to": "sent-PMC3592994-cmu-34"
                }, 
                {
                    "from": "sent-PMC3592994-medscan-25", 
                    "object-type": "map-range", 
                    "to": "sent-PMC3592994-cmu-28"
                }, 
                {
                    "from": "sent-PMC3592994-medscan-25", 
                    "object-type": "map-range", 
                    "to": "sent-PMC3592994-cmu-28"
                }, 
                {
                    "from": "sent-PMC3592994-medscan-90", 
                    "object-type": "map-range", 
                    "to": "sent-PMC3592994-cmu-82"
                }, 
                {
                    "from": "sent-PMC3592994-medscan-43", 
                    "object-type": "map-range", 
                    "to": "sent-PMC3592994-cmu-39"
                }, 
                {
                    "from": "sent-PMC3592994-medscan-112", 
                    "object-type": "map-range", 
                    "to": "sent-PMC3592994-cmu-107"
                }, 
                {
                    "from": "sent-PMC3592994-medscan-63", 
                    "object-type": "map-range", 
                    "to": "sent-PMC3592994-cmu-57"
                }, 
                {
                    "from": "sent-PMC3592994-medscan-126", 
                    "object-type": "map-range", 
                    "to": "sent-PMC3592994-cmu-122"
                }, 
                {
                    "from": "sent-PMC3592994-medscan-56", 
                    "object-type": "map-range", 
                    "to": "sent-PMC3592994-cmu-47"
                }, 
                {
                    "from": "sent-PMC3592994-medscan-111", 
                    "object-type": "map-range", 
                    "to": "sent-PMC3592994-cmu-106"
                }, 
                {
                    "from": "sent-PMC3592994-medscan-87", 
                    "object-type": "map-range", 
                    "to": "sent-PMC3592994-cmu-78"
                }, 
                {
                    "from": "sent-PMC3592994-medscan-128", 
                    "object-type": "map-range", 
                    "to": "sent-PMC3592994-cmu-124"
                }, 
                {
                    "from": "sent-PMC3592994-medscan-72", 
                    "object-type": "map-range", 
                    "to": "sent-PMC3592994-cmu-72"
                }, 
                {
                    "from": "sent-PMC3592994-medscan-127", 
                    "object-type": "map-range", 
                    "to": "sent-PMC3592994-cmu-123"
                }, 
                {
                    "from": "sent-PMC3592994-medscan-84", 
                    "object-type": "map-range", 
                    "to": "sent-PMC3592994-cmu-76"
                }, 
                {
                    "from": "sent-PMC3592994-medscan-27", 
                    "object-type": "map-range", 
                    "to": "sent-PMC3592994-cmu-26"
                }, 
                {
                    "from": "sent-PMC3592994-medscan-116", 
                    "object-type": "map-range", 
                    "to": "sent-PMC3592994-cmu-115"
                }, 
                {
                    "from": "sent-PMC3592994-medscan-19", 
                    "object-type": "map-range", 
                    "to": "sent-PMC3592994-cmu-14"
                }, 
                {
                    "from": "sent-PMC3592994-medscan-46", 
                    "object-type": "map-range", 
                    "to": "sent-PMC3592994-cmu-43"
                }, 
                {
                    "from": "sent-PMC3592994-medscan-46", 
                    "object-type": "map-range", 
                    "to": "sent-PMC3592994-cmu-43"
                }, 
                {
                    "from": "sent-PMC3592994-medscan-18", 
                    "object-type": "map-range", 
                    "to": "sent-PMC3592994-cmu-13"
                }, 
                {
                    "from": "sent-PMC3592994-medscan-68", 
                    "object-type": "map-range", 
                    "to": "sent-PMC3592994-cmu-65"
                }, 
                {
                    "from": "sent-PMC3592994-medscan-106", 
                    "object-type": "map-range", 
                    "to": "sent-PMC3592994-cmu-98"
                }, 
                {
                    "from": "sent-PMC3592994-medscan-15", 
                    "object-type": "map-range", 
                    "to": "sent-PMC3592994-cmu-8"
                }, 
                {
                    "from": "sent-PMC3592994-medscan-64", 
                    "object-type": "map-range", 
                    "to": "sent-PMC3592994-cmu-59"
                }, 
                {
                    "from": "sent-PMC3592994-medscan-73", 
                    "object-type": "map-range", 
                    "to": "sent-PMC3592994-cmu-74"
                }, 
                {
                    "from": "sent-PMC3592994-medscan-147", 
                    "object-type": "map-range", 
                    "to": "sent-PMC3592994-cmu-141"
                }, 
                {
                    "from": "sent-PMC3592994-medscan-5", 
                    "object-type": "map-range", 
                    "to": "sent-PMC3592994-cmu-3"
                }, 
                {
                    "from": "sent-PMC3592994-medscan-130", 
                    "object-type": "map-range", 
                    "to": "sent-PMC3592994-cmu-126"
                }, 
                {
                    "from": "sent-PMC3592994-medscan-1", 
                    "object-type": "map-range", 
                    "to": "sent-PMC3592994-cmu-2"
                }, 
                {
                    "from": "sent-PMC3592994-medscan-59", 
                    "object-type": "map-range", 
                    "to": "sent-PMC3592994-cmu-52"
                }, 
                {
                    "from": "sent-PMC3592994-medscan-89", 
                    "object-type": "map-range", 
                    "to": "sent-PMC3592994-cmu-81"
                }, 
                {
                    "from": "sent-PMC3592994-medscan-139", 
                    "object-type": "map-range", 
                    "to": "sent-PMC3592994-cmu-132"
                }, 
                {
                    "from": "sent-PMC3592994-medscan-129", 
                    "object-type": "map-range", 
                    "to": "sent-PMC3592994-cmu-125"
                }, 
                {
                    "from": "sent-PMC3592994-medscan-16", 
                    "object-type": "map-range", 
                    "to": "sent-PMC3592994-cmu-9"
                }, 
                {
                    "from": "sent-PMC3592994-medscan-138", 
                    "object-type": "map-range", 
                    "to": "sent-PMC3592994-cmu-131"
                }, 
                {
                    "from": "sent-PMC3592994-medscan-152", 
                    "object-type": "map-range", 
                    "to": "sent-PMC3592994-cmu-144"
                }, 
                {
                    "from": "sent-PMC3592994-medscan-140", 
                    "object-type": "map-range", 
                    "to": "sent-PMC3592994-cmu-134"
                }, 
                {
                    "from": "sent-PMC3592994-medscan-70", 
                    "object-type": "map-range", 
                    "to": "sent-PMC3592994-cmu-69"
                }, 
                {
                    "from": "sent-PMC3592994-medscan-12", 
                    "object-type": "map-range", 
                    "to": "sent-PMC3592994-cmu-6"
                }, 
                {
                    "from": "sent-PMC3592994-medscan-133", 
                    "object-type": "map-range", 
                    "to": "sent-PMC3592994-cmu-127"
                }, 
                {
                    "from": "sent-PMC3592994-medscan-57", 
                    "object-type": "map-range", 
                    "to": "sent-PMC3592994-cmu-49"
                }, 
                {
                    "from": "sent-PMC3592994-medscan-154", 
                    "object-type": "map-range", 
                    "to": "sent-PMC3592994-cmu-146"
                }, 
                {
                    "from": "sent-PMC3592994-medscan-33", 
                    "object-type": "map-range", 
                    "to": "sent-PMC3592994-cmu-31"
                }, 
                {
                    "from": "sent-PMC3592994-medscan-125", 
                    "object-type": "map-range", 
                    "to": "sent-PMC3592994-cmu-121"
                }, 
                {
                    "from": "sent-PMC3592994-medscan-94", 
                    "object-type": "map-range", 
                    "to": "sent-PMC3592994-cmu-89"
                }, 
                {
                    "from": "sent-PMC3592994-medscan-91", 
                    "object-type": "map-range", 
                    "to": "sent-PMC3592994-cmu-84"
                }, 
                {
                    "from": "sent-PMC3592994-medscan-9", 
                    "object-type": "map-range", 
                    "to": "sent-PMC3592994-cmu-5"
                }, 
                {
                    "from": "sent-PMC3592994-medscan-55", 
                    "object-type": "map-range", 
                    "to": "sent-PMC3592994-cmu-46"
                }, 
                {
                    "from": "sent-PMC3592994-medscan-85", 
                    "object-type": "map-range", 
                    "to": "sent-PMC3592994-cmu-77"
                }, 
                {
                    "from": "sent-PMC3592994-medscan-158", 
                    "object-type": "map-range", 
                    "to": "sent-PMC3592994-cmu-150"
                }, 
                {
                    "from": "sent-PMC3592994-medscan-26", 
                    "object-type": "map-range", 
                    "to": "sent-PMC3592994-cmu-24"
                }, 
                {
                    "from": "sent-PMC3592994-medscan-107", 
                    "object-type": "map-range", 
                    "to": "sent-PMC3592994-cmu-99"
                }, 
                {
                    "from": "sent-PMC3592994-medscan-23", 
                    "object-type": "map-range", 
                    "to": "sent-PMC3592994-cmu-20"
                }, 
                {
                    "from": "sent-PMC3592994-medscan-122", 
                    "object-type": "map-range", 
                    "to": "sent-PMC3592994-cmu-118"
                }, 
                {
                    "from": "sent-PMC3592994-medscan-83", 
                    "object-type": "map-range", 
                    "to": "sent-PMC3592994-cmu-75"
                }, 
                {
                    "from": "sent-PMC3592994-medscan-42", 
                    "object-type": "map-range", 
                    "to": "sent-PMC3592994-cmu-38"
                }, 
                {
                    "from": "sent-PMC3592994-medscan-88", 
                    "object-type": "map-range", 
                    "to": "sent-PMC3592994-cmu-79"
                }, 
                {
                    "from": "sent-PMC3592994-medscan-92", 
                    "object-type": "map-range", 
                    "to": "sent-PMC3592994-cmu-86"
                }, 
                {
                    "from": "sent-PMC3592994-medscan-95", 
                    "object-type": "map-range", 
                    "to": "sent-PMC3592994-cmu-91"
                }, 
                {
                    "from": "sent-PMC3592994-medscan-137", 
                    "object-type": "map-range", 
                    "to": "sent-PMC3592994-cmu-130"
                }, 
                {
                    "from": "sent-PMC3592994-medscan-24", 
                    "object-type": "map-range", 
                    "to": "sent-PMC3592994-cmu-23"
                }, 
                {
                    "from": "sent-PMC3592994-medscan-141", 
                    "object-type": "map-range", 
                    "to": "sent-PMC3592994-cmu-135"
                }, 
                {
                    "from": "sent-PMC3592994-medscan-114", 
                    "object-type": "map-range", 
                    "to": "sent-PMC3592994-cmu-111"
                }, 
                {
                    "from": "sent-PMC3592994-medscan-124", 
                    "object-type": "map-range", 
                    "to": "sent-PMC3592994-cmu-120"
                }, 
                {
                    "from": "sent-PMC3592994-medscan-153", 
                    "object-type": "map-range", 
                    "to": "sent-PMC3592994-cmu-145"
                }, 
                {
                    "from": "sent-PMC3592994-medscan-142", 
                    "object-type": "map-range", 
                    "to": "sent-PMC3592994-cmu-136"
                }, 
                {
                    "from": "sent-PMC3592994-medscan-144", 
                    "object-type": "map-range", 
                    "to": "sent-PMC3592994-cmu-138"
                }, 
                {
                    "from": "sent-PMC3592994-medscan-146", 
                    "object-type": "map-range", 
                    "to": "sent-PMC3592994-cmu-140"
                }, 
                {
                    "from": "sent-PMC3592994-medscan-121", 
                    "object-type": "map-range", 
                    "to": "sent-PMC3592994-cmu-117"
                }, 
                {
                    "from": "sent-PMC3592994-medscan-22", 
                    "object-type": "map-range", 
                    "to": "sent-PMC3592994-cmu-19"
                }, 
                {
                    "from": "sent-PMC3592994-medscan-71", 
                    "object-type": "map-range", 
                    "to": "sent-PMC3592994-cmu-70"
                }, 
                {
                    "from": "sent-PMC3592994-medscan-115", 
                    "object-type": "map-range", 
                    "to": "sent-PMC3592994-cmu-113"
                }, 
                {
                    "from": "sent-PMC3592994-medscan-109", 
                    "object-type": "map-range", 
                    "to": "sent-PMC3592994-cmu-104"
                }, 
                {
                    "from": "sent-PMC3592994-medscan-20", 
                    "object-type": "map-range", 
                    "to": "sent-PMC3592994-cmu-15"
                }, 
                {
                    "from": "sent-PMC3592994-medscan-134", 
                    "object-type": "map-range", 
                    "to": "sent-PMC3592994-cmu-128"
                }, 
                {
                    "from": "sent-PMC3592994-medscan-123", 
                    "object-type": "map-range", 
                    "to": "sent-PMC3592994-cmu-119"
                }, 
                {
                    "from": "sent-PMC3592994-medscan-52", 
                    "object-type": "map-range", 
                    "to": "sent-PMC3592994-cmu-44"
                }, 
                {
                    "from": "sent-PMC3592994-medscan-62", 
                    "object-type": "map-range", 
                    "to": "sent-PMC3592994-cmu-55"
                }, 
                {
                    "from": "sent-PMC3592994-medscan-69", 
                    "object-type": "map-range", 
                    "to": "sent-PMC3592994-cmu-67"
                }, 
                {
                    "from": "sent-PMC3592994-medscan-113", 
                    "object-type": "map-range", 
                    "to": "sent-PMC3592994-cmu-109"
                }, 
                {
                    "from": "sent-PMC3592994-medscan-148", 
                    "object-type": "map-range", 
                    "to": "sent-PMC3592994-cmu-142"
                }, 
                {
                    "from": "sent-PMC3592994-medscan-157", 
                    "object-type": "map-range", 
                    "to": "sent-PMC3592994-cmu-149"
                }, 
                {
                    "from": "sent-PMC3592994-medscan-13", 
                    "object-type": "map-range", 
                    "to": "sent-PMC3592994-cmu-7"
                }, 
                {
                    "from": "sent-PMC3592994-medscan-143", 
                    "object-type": "map-range", 
                    "to": "sent-PMC3592994-cmu-137"
                }, 
                {
                    "from": "sent-PMC3592994-medscan-155", 
                    "object-type": "map-range", 
                    "to": "sent-PMC3592994-cmu-147"
                }, 
                {
                    "from": "sent-PMC3592994-medscan-96", 
                    "object-type": "map-range", 
                    "to": "sent-PMC3592994-cmu-93"
                }, 
                {
                    "from": "sent-PMC3592994-medscan-93", 
                    "object-type": "map-range", 
                    "to": "sent-PMC3592994-cmu-87"
                }
            ], 
            "object-meta": {
                "component": "Pradeep-Matcher", 
                "object-type": "meta-info", 
                "organization": "CMU"
            }, 
            "object-type": "frame"
        }
    ], 
    "object-meta": {
        "component": "Pradeep-Matcher", 
        "component-type": "machine", 
        "doc-id": "PMC3592994", 
        "object-type": "meta-info", 
        "organization": "CMU"
    }, 
    "object-type": "frame-collection"
}
