{
  "evidence": ["EGFR stimulation by treatment with the receptor ligands , including EGF , induces signal transduction pathways for macropinocytotic cellular uptake via the activation of Rac , a member of the Rho family of small GTPases , which leads to actin cytoskeletal organisation containing lamellipodial extensions    .","EGFR stimulation by treatment with the receptor ligands, including EGF, induces signal transduction pathways for macropinocytotic cellular uptake via the activation of Rac, a member of the Rho family of small GTPases"],
  "extracted_information": {
    "interaction_type": "increases_activity",
    "negative_information": false,
    "participant_a": {
      "entity_text": "EGFR",
      "entity_type": "protein",
      "identifier": "Uniprot:P00533",
      "in_model": false
    },
    "participant_b": {
      "entity_text": "small GTPases",
      "entity_type": "protein",
      "identifier": "ungrounded",
      "in_model": false
    }
  },
  "fries_provenance": [
    {
      "component": "REACH",
      "frame-file": "PMC4453128.uaz.events",
      "frame-id": "evem-PMC4453128-UAZ-r1-10-7-2",
      "passage-id": "pass-PMC4453128-UAZ-r1-10",
      "passage-number": 10,
      "passage-section-id": "N/A",
      "passage-section-name": "N/A",
      "sentence": "EGFR stimulation by treatment with the receptor ligands , including EGF , induces signal transduction pathways for macropinocytotic cellular uptake via the activation of Rac , a member of the Rho family of small GTPases , which leads to actin cytoskeletal organisation containing lamellipodial extensions    .",
      "text": "EGFR stimulation by treatment with the receptor ligands, including EGF, induces signal transduction pathways for macropinocytotic cellular uptake via the activation of Rac, a member of the Rho family of small GTPases",
      "uaz-sentence": "EGFR stimulation by treatment with the receptor ligands , including EGF , induces signal transduction pathways for macropinocytotic cellular uptake via the activation of Rac , a member of the Rho family of small GTPases , which leads to actin cytoskeletal organisation containing lamellipodial extensions    .",
      "uaz-sentence-start": 1061
    }
  ],
  "pmc_id": "PMC4453128",
  "reader_type": "machine",
  "reading_complete": "2015-07-02T21:29:26Z",
  "reading_started": "2015-07-02T21:29:21Z",
  "submitter": "FRIES"
}
