{
  "evidence": ["By increasing mitochondrial biogenesis and metabolic rate , resveratrol reduced fat and increased glucose tolerance and insulin sensitivity and physical endurance .","However , resveratrol dramatically decreased the fasting insulin levels in wild-type , AMPKalpha1-/- , and AMPKalpha2-/- mice even though resveratrol increased insulin sensitivity only in wild-type mice          .","OBJECTIVE Resveratrol , a natural polyphenolic compound that is found in grapes and red wine , increases metabolic rate , insulin sensitivity , mitochondrial biogenesis , and physical endurance and reduces fat accumulation in mice .","resveratrol increased insulin","resveratrol reduced fat and increased glucose tolerance and insulin","Resveratrol , a natural polyphenolic compound that is found in grapes and red wine , increases metabolic rate , insulin sensitivity , mitochondrial biogenesis , and physical endurance and reduces fat accumulation in mice .","Resveratrol, a natural polyphenolic compound that is found in grapes and red wine, increases metabolic rate, insulin","To determine whether resveratrol increased insulin sensitivity by increasing adiponectin levels , we measured serum adiponectin levels in resveratrol treated mice ."],
  "extracted_information": {
    "interaction_type": "increases_activity",
    "negative_information": false,
    "participant_a": {
      "entity_text": "Resveratrol",
      "entity_type": "chemical",
      "identifier": "CHEBI:27881",
      "in_model": true
    },
    "participant_b": {
      "entity_text": "insulin",
      "entity_type": "protein",
      "identifier": "Uniprot:P01308",
      "in_model": true
    }
  },
  "fries_provenance": [
    {
      "component": "REACH",
      "frame-file": "PMC2828647.uaz.events",
      "frame-id": "evem-PMC2828647-UAZ-r1-2-0-2",
      "passage-id": "pass-PMC2828647-UAZ-r1-2",
      "passage-number": 2,
      "passage-section-id": "N/A",
      "passage-section-name": "abstract",
      "sentence": "OBJECTIVE Resveratrol , a natural polyphenolic compound that is found in grapes and red wine , increases metabolic rate , insulin sensitivity , mitochondrial biogenesis , and physical endurance and reduces fat accumulation in mice .",
      "text": "Resveratrol, a natural polyphenolic compound that is found in grapes and red wine, increases metabolic rate, insulin",
      "uaz-sentence": "OBJECTIVE Resveratrol , a natural polyphenolic compound that is found in grapes and red wine , increases metabolic rate , insulin sensitivity , mitochondrial biogenesis , and physical endurance and reduces fat accumulation in mice .",
      "uaz-sentence-start": 0
    },
    {
      "component": "REACH",
      "frame-file": "PMC2828647.uaz.events",
      "frame-id": "evem-PMC2828647-UAZ-r1-5-0-5",
      "passage-id": "pass-PMC2828647-UAZ-r1-5",
      "passage-number": 5,
      "passage-section-id": "N/A",
      "passage-section-name": "N/A",
      "sentence": "Resveratrol , a natural polyphenolic compound that is found in grapes and red wine , increases metabolic rate , insulin sensitivity , mitochondrial biogenesis , and physical endurance and reduces fat accumulation in mice .",
      "text": "Resveratrol, a natural polyphenolic compound that is found in grapes and red wine, increases metabolic rate, insulin",
      "uaz-sentence": "Resveratrol , a natural polyphenolic compound that is found in grapes and red wine , increases metabolic rate , insulin sensitivity , mitochondrial biogenesis , and physical endurance and reduces fat accumulation in mice .",
      "uaz-sentence-start": 0
    },
    {
      "cmu-sentence-epistemic-status": "implication",
      "cmu-sentence-epistemic-value": 0.6,
      "component": "REACH",
      "frame-file": "PMC2828647.uaz.events",
      "frame-id": "evem-PMC2828647-UAZ-r1-84-6-51",
      "passage-id": "pass-PMC2828647-UAZ-r1-84",
      "passage-number": 84,
      "passage-section-id": "fig-3",
      "passage-section-name": "fig-3",
      "sentence": "To determine whether resveratrol increased insulin sensitivity by increasing adiponectin levels , we measured serum adiponectin levels in resveratrol treated mice .",
      "text": "resveratrol increased insulin",
      "uaz-event-epistemic-status": "hypothesis",
      "uaz-sentence": "To determine whether resveratrol increased insulin sensitivity by increasing adiponectin levels , we measured serum adiponectin levels in resveratrol treated mice .",
      "uaz-sentence-start": 1020
    },
    {
      "component": "REACH",
      "frame-file": "PMC2828647.uaz.events",
      "frame-id": "evem-PMC2828647-UAZ-r1-84-9-53",
      "passage-id": "pass-PMC2828647-UAZ-r1-84",
      "passage-number": 84,
      "passage-section-id": "fig-3",
      "passage-section-name": "fig-3",
      "sentence": "However , resveratrol dramatically decreased the fasting insulin levels in wild-type , AMPKalpha1-/- , and AMPKalpha2-/- mice even though resveratrol increased insulin sensitivity only in wild-type mice          .",
      "text": "resveratrol increased insulin",
      "uaz-sentence": "However , resveratrol dramatically decreased the fasting insulin levels in wild-type , AMPKalpha1-/- , and AMPKalpha2-/- mice even though resveratrol increased insulin sensitivity only in wild-type mice          .",
      "uaz-sentence-start": 1384
    },
    {
      "cmu-sentence-epistemic-status": "implication",
      "cmu-sentence-epistemic-value": 0.6,
      "component": "REACH",
      "frame-file": "PMC2828647.uaz.events",
      "frame-id": "evem-PMC2828647-UAZ-r1-95-4-70",
      "passage-id": "pass-PMC2828647-UAZ-r1-95",
      "passage-number": 95,
      "passage-section-id": "N/A",
      "passage-section-name": "discussion",
      "sentence": "By increasing mitochondrial biogenesis and metabolic rate , resveratrol reduced fat and increased glucose tolerance and insulin sensitivity and physical endurance .",
      "text": "resveratrol reduced fat and increased glucose tolerance and insulin",
      "uaz-sentence": "By increasing mitochondrial biogenesis and metabolic rate , resveratrol reduced fat and increased glucose tolerance and insulin sensitivity and physical endurance .",
      "uaz-sentence-start": 524
    }
  ],
  "model_relation": "extension",
  "pmc_id": "PMC2828647",
  "reader_type": "machine",
  "reading_complete": "2015-06-15T21:07:37Z",
  "reading_started": "2015-06-15T21:07:32Z",
  "submitter": "FRIES"
}
