{
  "evidence": ["By increasing mitochondrial biogenesis and metabolic rate , resveratrol reduced fat and increased glucose tolerance and insulin sensitivity and physical endurance .","resveratrol reduced fat and increased glucose"],
  "extracted_information": {
    "interaction_type": "increases_activity",
    "negative_information": false,
    "participant_a": {
      "entity_text": "resveratrol",
      "entity_type": "chemical",
      "identifier": "CHEBI:27881",
      "in_model": true
    },
    "participant_b": {
      "entity_text": "glucose",
      "entity_type": "chemical",
      "identifier": "CHEBI:4167",
      "in_model": false
    }
  },
  "fries_provenance": [
    {
      "cmu-sentence-epistemic-status": "implication",
      "cmu-sentence-epistemic-value": 0.6,
      "component": "REACH",
      "frame-file": "PMC2828647.uaz.events",
      "frame-id": "evem-PMC2828647-UAZ-r1-95-4-69",
      "passage-id": "pass-PMC2828647-UAZ-r1-95",
      "passage-number": 95,
      "passage-section-id": "N/A",
      "passage-section-name": "discussion",
      "sentence": "By increasing mitochondrial biogenesis and metabolic rate , resveratrol reduced fat and increased glucose tolerance and insulin sensitivity and physical endurance .",
      "text": "resveratrol reduced fat and increased glucose",
      "uaz-sentence": "By increasing mitochondrial biogenesis and metabolic rate , resveratrol reduced fat and increased glucose tolerance and insulin sensitivity and physical endurance .",
      "uaz-sentence-start": 524
    }
  ],
  "model_relation": "extension",
  "pmc_id": "PMC2828647",
  "reader_type": "machine",
  "reading_complete": "2015-06-15T21:07:37Z",
  "reading_started": "2015-06-15T21:07:32Z",
  "submitter": "FRIES"
}
