{
    "frames": [
        {
            "binds-constituent1": [
                "Snail1"
            ], 
            "frame-id": "imp-PMC2808231-cmu-pradsys-604", 
            "frame-type": "implication", 
            "implication-type": "binds", 
            "object-meta": {
                "object-type": "meta-info", 
                "organization": "CMU"
            }, 
            "object-type": "frame", 
            "sentence": "sent-PMC2808231-cmu-119"
        }, 
        {
            "cell-type": [
                "Phosphorylated Snail1"
            ], 
            "frame-id": "imp-PMC2808231-cmu-pradsys-605", 
            "frame-type": "implication", 
            "implication-type": "binds", 
            "ip-molecule": [
                "parallel Western blot control"
            ], 
            "object-meta": {
                "object-type": "meta-info", 
                "organization": "CMU"
            }, 
            "object-type": "frame", 
            "sentence": "sent-PMC2808231-cmu-123"
        }, 
        {
            "assay-molecule": [
                "Snail1"
            ], 
            "frame-id": "imp-PMC2808231-cmu-pradsys-606", 
            "frame-type": "implication", 
            "implication-type": "binds", 
            "object-meta": {
                "object-type": "meta-info", 
                "organization": "CMU"
            }, 
            "object-type": "frame", 
            "sentence": "sent-PMC2808231-cmu-125"
        }, 
        {
            "binds-site": [
                "the 3rd residue"
            ], 
            "frame-id": "imp-PMC2808231-cmu-pradsys-607", 
            "frame-type": "implication", 
            "implication-type": "binds", 
            "object-meta": {
                "object-type": "meta-info", 
                "organization": "CMU"
            }, 
            "object-type": "frame", 
            "sentence": "sent-PMC2808231-cmu-127"
        }, 
        {
            "frame-id": "imp-PMC2808231-cmu-pradsys-608", 
            "frame-type": "implication", 
            "implication-type": "binds", 
            "m-comp": [
                "a particular spot in the S-to-A mutant relative to wild"
            ], 
            "object-meta": {
                "object-type": "meta-info", 
                "organization": "CMU"
            }, 
            "object-type": "frame", 
            "sentence": "sent-PMC2808231-cmu-133"
        }, 
        {
            "binds-constituent1": [
                "a corresponding S-to-A mutant"
            ], 
            "frame-id": "imp-PMC2808231-cmu-pradsys-609", 
            "frame-type": "implication", 
            "implication-type": "binds", 
            "object-meta": {
                "object-type": "meta-info", 
                "organization": "CMU"
            }, 
            "object-type": "frame", 
            "sentence": "sent-PMC2808231-cmu-134", 
            "transfection-molecule": [
                "1\u20136"
            ]
        }, 
        {
            "assay-molecule": [
                "Snail1"
            ], 
            "frame-id": "imp-PMC2808231-cmu-pradsys-610", 
            "frame-type": "implication", 
            "implication-type": "binds", 
            "object-meta": {
                "object-type": "meta-info", 
                "organization": "CMU"
            }, 
            "object-type": "frame", 
            "sentence": "sent-PMC2808231-cmu-135"
        }, 
        {
            "binds-constituent2": [
                "SRD"
            ], 
            "binds-site": [
                "the N-terminal of the"
            ], 
            "frame-id": "imp-PMC2808231-cmu-pradsys-611", 
            "frame-type": "implication", 
            "implication-type": "binds", 
            "object-meta": {
                "object-type": "meta-info", 
                "organization": "CMU"
            }, 
            "object-type": "frame", 
            "sentence": "sent-PMC2808231-cmu-137"
        }, 
        {
            "binds-constituent2": [
                "SRD"
            ], 
            "binds-site": [
                "the N-terminal of the"
            ], 
            "frame-id": "imp-PMC2808231-cmu-pradsys-612", 
            "frame-type": "implication", 
            "implication-type": "binds", 
            "object-meta": {
                "object-type": "meta-info", 
                "organization": "CMU"
            }, 
            "object-type": "frame", 
            "sentence": "sent-PMC2808231-cmu-139"
        }, 
        {
            "assay-molecule": [
                "S92A"
            ], 
            "frame-id": "imp-PMC2808231-cmu-pradsys-613", 
            "frame-type": "implication", 
            "implication-type": "binds", 
            "m-val": [
                "is not detected"
            ], 
            "object-meta": {
                "object-type": "meta-info", 
                "organization": "CMU"
            }, 
            "object-type": "frame", 
            "sentence": "sent-PMC2808231-cmu-140"
        }, 
        {
            "frame-id": "imp-PMC2808231-cmu-pradsys-614", 
            "frame-type": "implication", 
            "implication-type": "binds", 
            "object-meta": {
                "object-type": "meta-info", 
                "organization": "CMU"
            }, 
            "object-type": "frame", 
            "sentence": "sent-PMC2808231-cmu-148", 
            "transfection-molecule": [
                "100"
            ]
        }, 
        {
            "frame-id": "imp-PMC2808231-cmu-pradsys-615", 
            "frame-type": "implication", 
            "implication-type": "binds", 
            "object-meta": {
                "object-type": "meta-info", 
                "organization": "CMU"
            }, 
            "object-type": "frame", 
            "sentence": "sent-PMC2808231-cmu-150", 
            "transfection-molecule": [
                "111", 
                "115"
            ]
        }, 
        {
            "assay-molecule": [
                "SRD"
            ], 
            "frame-id": "imp-PMC2808231-cmu-pradsys-616", 
            "frame-type": "implication", 
            "implication-type": "binds", 
            "object-meta": {
                "object-type": "meta-info", 
                "organization": "CMU"
            }, 
            "object-type": "frame", 
            "sentence": "sent-PMC2808231-cmu-151"
        }, 
        {
            "frame-id": "imp-PMC2808231-cmu-pradsys-617", 
            "frame-type": "implication", 
            "implication-type": "binds", 
            "object-meta": {
                "object-type": "meta-info", 
                "organization": "CMU"
            }, 
            "object-type": "frame", 
            "sentence": "sent-PMC2808231-cmu-152", 
            "transfection-molecule": [
                "104"
            ]
        }, 
        {
            "binds-constituent1": [
                "Snail1"
            ], 
            "frame-id": "imp-PMC2808231-cmu-pradsys-618", 
            "frame-type": "implication", 
            "implication-type": "binds", 
            "object-meta": {
                "object-type": "meta-info", 
                "organization": "CMU"
            }, 
            "object-type": "frame", 
            "sentence": "sent-PMC2808231-cmu-153"
        }, 
        {
            "binds-controller": [
                "S246A mutation"
            ], 
            "frame-id": "imp-PMC2808231-cmu-pradsys-619", 
            "frame-type": "implication", 
            "implication-type": "binds", 
            "ip-molecule": [
                "Snail1 ( Supplemental Figure S2 )"
            ], 
            "object-meta": {
                "object-type": "meta-info", 
                "organization": "CMU"
            }, 
            "object-type": "frame", 
            "sentence": "sent-PMC2808231-cmu-155"
        }, 
        {
            "cell-type": [
                "HEK293T cells"
            ], 
            "frame-id": "imp-PMC2808231-cmu-pradsys-620", 
            "frame-type": "implication", 
            "implication-type": "binds", 
            "object-meta": {
                "object-type": "meta-info", 
                "organization": "CMU"
            }, 
            "object-type": "frame", 
            "sentence": "sent-PMC2808231-cmu-156"
        }, 
        {
            "assay-molecule": [
                "mutant"
            ], 
            "frame-id": "imp-PMC2808231-cmu-pradsys-621", 
            "frame-type": "implication", 
            "implication-type": "binds", 
            "object-meta": {
                "object-type": "meta-info", 
                "organization": "CMU"
            }, 
            "object-type": "frame", 
            "sentence": "sent-PMC2808231-cmu-158"
        }, 
        {
            "frame-id": "imp-PMC2808231-cmu-pradsys-622", 
            "frame-type": "implication", 
            "implication-type": "binds", 
            "m-val": [
                "the various serines did not have significant effect"
            ], 
            "object-meta": {
                "object-type": "meta-info", 
                "organization": "CMU"
            }, 
            "object-type": "frame", 
            "sentence": "sent-PMC2808231-cmu-159"
        }, 
        {
            "binds-constituent1": [
                "Snail1"
            ], 
            "frame-id": "imp-PMC2808231-cmu-pradsys-623", 
            "frame-type": "implication", 
            "implication-type": "binds", 
            "object-meta": {
                "object-type": "meta-info", 
                "organization": "CMU"
            }, 
            "object-type": "frame", 
            "sentence": "sent-PMC2808231-cmu-160", 
            "transfection-molecule": [
                "11", 
                "82", 
                "92", 
                "104", 
                "107"
            ]
        }, 
        {
            "binds-constituent1": [
                "Snail1"
            ], 
            "frame-id": "imp-PMC2808231-cmu-pradsys-624", 
            "frame-type": "implication", 
            "implication-type": "binds", 
            "object-meta": {
                "object-type": "meta-info", 
                "organization": "CMU"
            }, 
            "object-type": "frame", 
            "sentence": "sent-PMC2808231-cmu-161"
        }, 
        {
            "binds-controller": [
                "silico analysis of Snail1 protein"
            ], 
            "frame-id": "imp-PMC2808231-cmu-pradsys-625", 
            "frame-type": "implication", 
            "implication-type": "binds", 
            "object-meta": {
                "object-type": "meta-info", 
                "organization": "CMU"
            }, 
            "object-type": "frame", 
            "sentence": "sent-PMC2808231-cmu-162"
        }, 
        {
            "binds-constituent2": [
                "0.7"
            ], 
            "frame-id": "imp-PMC2808231-cmu-pradsys-626", 
            "frame-type": "implication", 
            "implication-type": "binds", 
            "object-meta": {
                "object-type": "meta-info", 
                "organization": "CMU"
            }, 
            "object-type": "frame", 
            "sentence": "sent-PMC2808231-cmu-163"
        }, 
        {
            "binds-constituent1": [
                "PKA"
            ], 
            "frame-id": "imp-PMC2808231-cmu-pradsys-627", 
            "frame-type": "implication", 
            "implication-type": "binds", 
            "object-meta": {
                "object-type": "meta-info", 
                "organization": "CMU"
            }, 
            "object-type": "frame", 
            "sentence": "sent-PMC2808231-cmu-166"
        }, 
        {
            "binds-constituent1": [
                "GST-Snail1"
            ], 
            "binds-controller": [
                "the GST-Snail1S92A mutant"
            ], 
            "frame-id": "imp-PMC2808231-cmu-pradsys-628", 
            "frame-type": "implication", 
            "implication-type": "binds", 
            "object-meta": {
                "object-type": "meta-info", 
                "organization": "CMU"
            }, 
            "object-type": "frame", 
            "sentence": "sent-PMC2808231-cmu-167"
        }, 
        {
            "binds-controller": [
                "Phosphopeptide analysis"
            ], 
            "frame-id": "imp-PMC2808231-cmu-pradsys-629", 
            "frame-type": "implication", 
            "implication-type": "binds", 
            "object-meta": {
                "object-type": "meta-info", 
                "organization": "CMU"
            }, 
            "object-type": "frame", 
            "sentence": "sent-PMC2808231-cmu-168"
        }, 
        {
            "binds-controller": [
                "the phosphopeptide mapping of Snail1S92A mutant"
            ], 
            "frame-id": "imp-PMC2808231-cmu-pradsys-630", 
            "frame-type": "implication", 
            "implication-type": "binds", 
            "object-meta": {
                "object-type": "meta-info", 
                "organization": "CMU"
            }, 
            "object-type": "frame", 
            "sentence": "sent-PMC2808231-cmu-171"
        }, 
        {
            "binds-controller": [
                "the GST-Snail1S11A mutant"
            ], 
            "frame-id": "imp-PMC2808231-cmu-pradsys-631", 
            "frame-type": "implication", 
            "implication-type": "binds", 
            "object-meta": {
                "object-type": "meta-info", 
                "organization": "CMU"
            }, 
            "object-type": "frame", 
            "sentence": "sent-PMC2808231-cmu-172"
        }, 
        {
            "binds-controller": [
                "the GST-Snail1S11A mutant"
            ], 
            "frame-id": "imp-PMC2808231-cmu-pradsys-632", 
            "frame-type": "implication", 
            "implication-type": "binds", 
            "object-meta": {
                "object-type": "meta-info", 
                "organization": "CMU"
            }, 
            "object-type": "frame", 
            "sentence": "sent-PMC2808231-cmu-173"
        }, 
        {
            "binds-constituent1": [
                "Snail1"
            ], 
            "frame-id": "imp-PMC2808231-cmu-pradsys-633", 
            "frame-type": "implication", 
            "implication-type": "binds", 
            "object-meta": {
                "object-type": "meta-info", 
                "organization": "CMU"
            }, 
            "object-type": "frame", 
            "sentence": "sent-PMC2808231-cmu-175"
        }, 
        {
            "binds-constituent1": [
                "Snail1"
            ], 
            "binds-site": [
                "interacting proteins"
            ], 
            "frame-id": "imp-PMC2808231-cmu-pradsys-634", 
            "frame-type": "implication", 
            "implication-type": "binds", 
            "object-meta": {
                "object-type": "meta-info", 
                "organization": "CMU"
            }, 
            "object-type": "frame", 
            "sentence": "sent-PMC2808231-cmu-176"
        }, 
        {
            "binds-constituent1": [
                "CK2\u03b1"
            ], 
            "binds-site": [
                "the N-terminal regulatory domain of Snail1 ( 1\u2013150 ) as bait"
            ], 
            "frame-id": "imp-PMC2808231-cmu-pradsys-635", 
            "frame-type": "implication", 
            "implication-type": "binds", 
            "object-meta": {
                "object-type": "meta-info", 
                "organization": "CMU"
            }, 
            "object-type": "frame", 
            "sentence": "sent-PMC2808231-cmu-177"
        }, 
        {
            "binds-constituent1": [
                "CK2\u03b1"
            ], 
            "frame-id": "imp-PMC2808231-cmu-pradsys-636", 
            "frame-type": "implication", 
            "implication-type": "binds", 
            "object-meta": {
                "object-type": "meta-info", 
                "organization": "CMU"
            }, 
            "object-type": "frame", 
            "sentence": "sent-PMC2808231-cmu-179"
        }, 
        {
            "binds-constituent1": [
                "Snail1/CK2\u03b1"
            ], 
            "cell-type": [
                "HEK293T cells transiently"
            ], 
            "frame-id": "imp-PMC2808231-cmu-pradsys-637", 
            "frame-type": "implication", 
            "implication-type": "binds", 
            "object-meta": {
                "object-type": "meta-info", 
                "organization": "CMU"
            }, 
            "object-type": "frame", 
            "sentence": "sent-PMC2808231-cmu-180"
        }, 
        {
            "binds-constituent1": [
                "Snail1"
            ], 
            "frame-id": "imp-PMC2808231-cmu-pradsys-638", 
            "frame-type": "implication", 
            "implication-type": "binds", 
            "object-meta": {
                "object-type": "meta-info", 
                "organization": "CMU"
            }, 
            "object-type": "frame", 
            "sentence": "sent-PMC2808231-cmu-182"
        }, 
        {
            "binds-constituent1": [
                "Snail1", 
                "CK2"
            ], 
            "frame-id": "imp-PMC2808231-cmu-pradsys-639", 
            "frame-type": "implication", 
            "implication-type": "binds", 
            "object-meta": {
                "object-type": "meta-info", 
                "organization": "CMU"
            }, 
            "object-type": "frame", 
            "sentence": "sent-PMC2808231-cmu-183"
        }, 
        {
            "binds-constituent2": [
                "the wild-type Snail1 protein"
            ], 
            "frame-id": "imp-PMC2808231-cmu-pradsys-640", 
            "frame-type": "implication", 
            "implication-type": "binds", 
            "incubation-reagent": [
                "the human ( Figure 6A ) or mouse E-cadherin promoter ( Supplemental Figure S3A )"
            ], 
            "object-meta": {
                "object-type": "meta-info", 
                "organization": "CMU"
            }, 
            "object-type": "frame", 
            "sentence": "sent-PMC2808231-cmu-186", 
            "transfection-molecule": [
                "Snail1 transcriptional repression on E-cadherin"
            ]
        }, 
        {
            "binds-complex": [
                "the mSin3A/HDAC1/2 corepressor complex ("
            ], 
            "frame-id": "imp-PMC2808231-cmu-pradsys-641", 
            "frame-type": "implication", 
            "implication-type": "binds", 
            "object-meta": {
                "object-type": "meta-info", 
                "organization": "CMU"
            }, 
            "object-type": "frame", 
            "sentence": "sent-PMC2808231-cmu-188"
        }, 
        {
            "binds-constituent1": [
                "Snail1S11A", 
                "Snail1-HA"
            ], 
            "cell-type": [
                "HEK293T cells transiently"
            ], 
            "frame-id": "imp-PMC2808231-cmu-pradsys-642", 
            "frame-type": "implication", 
            "implication-type": "binds", 
            "object-meta": {
                "object-type": "meta-info", 
                "organization": "CMU"
            }, 
            "object-type": "frame", 
            "process": [
                "transfected"
            ], 
            "sentence": "sent-PMC2808231-cmu-189"
        }, 
        {
            "assay-molecule": [
                "Snail1"
            ], 
            "frame-id": "imp-PMC2808231-cmu-pradsys-643", 
            "frame-type": "implication", 
            "implication-type": "binds", 
            "object-meta": {
                "object-type": "meta-info", 
                "organization": "CMU"
            }, 
            "object-type": "frame", 
            "sentence": "sent-PMC2808231-cmu-191"
        }, 
        {
            "binds-constituent1": [
                "Snail1"
            ], 
            "frame-id": "imp-PMC2808231-cmu-pradsys-644", 
            "frame-type": "implication", 
            "implication-type": "binds", 
            "object-meta": {
                "object-type": "meta-info", 
                "organization": "CMU"
            }, 
            "object-type": "frame", 
            "sentence": "sent-PMC2808231-cmu-193"
        }, 
        {
            "cell-type": [
                "HEK293T cells"
            ], 
            "frame-id": "imp-PMC2808231-cmu-pradsys-645", 
            "frame-type": "implication", 
            "implication-type": "binds", 
            "object-meta": {
                "object-type": "meta-info", 
                "organization": "CMU"
            }, 
            "object-type": "frame", 
            "sentence": "sent-PMC2808231-cmu-194"
        }, 
        {
            "assay-molecule": [
                "Snail1"
            ], 
            "binds-controller": [
                "Snail1S92A mutation"
            ], 
            "frame-id": "imp-PMC2808231-cmu-pradsys-646", 
            "frame-type": "implication", 
            "implication-type": "binds", 
            "object-meta": {
                "object-type": "meta-info", 
                "organization": "CMU"
            }, 
            "object-type": "frame", 
            "sentence": "sent-PMC2808231-cmu-195"
        }, 
        {
            "binds-constituent1": [
                "the double Snail1S104A/S107A mutant shows increased protein stability", 
                "the human E-cadherin promoter"
            ], 
            "cell-type": [
                "HEK293T cells"
            ], 
            "frame-id": "imp-PMC2808231-cmu-pradsys-647", 
            "frame-type": "implication", 
            "implication-type": "binds", 
            "object-meta": {
                "object-type": "meta-info", 
                "organization": "CMU"
            }, 
            "object-type": "frame", 
            "sentence": "sent-PMC2808231-cmu-197"
        }, 
        {
            "frame-id": "imp-PMC2808231-cmu-pradsys-648", 
            "frame-type": "implication", 
            "implication-type": "binds", 
            "ip-molecule": [
                "Snail1 wild type ( Supplemental Figure S5 )"
            ], 
            "object-meta": {
                "object-type": "meta-info", 
                "organization": "CMU"
            }, 
            "object-type": "frame", 
            "sentence": "sent-PMC2808231-cmu-199"
        }, 
        {
            "frame-id": "imp-PMC2808231-cmu-pradsys-649", 
            "frame-type": "implication", 
            "implication-type": "binds", 
            "m-val": [
                "a marked increased stability compared with wild-type Snail1"
            ], 
            "object-meta": {
                "object-type": "meta-info", 
                "organization": "CMU"
            }, 
            "object-type": "frame", 
            "sentence": "sent-PMC2808231-cmu-200"
        }, 
        {
            "binds-constituent1": [
                "To"
            ], 
            "frame-id": "imp-PMC2808231-cmu-pradsys-650", 
            "frame-type": "implication", 
            "implication-type": "binds", 
            "object-meta": {
                "object-type": "meta-info", 
                "organization": "CMU"
            }, 
            "object-type": "frame", 
            "sentence": "sent-PMC2808231-cmu-202"
        }, 
        {
            "cell-type": [
                "MDCK cells"
            ], 
            "frame-id": "imp-PMC2808231-cmu-pradsys-651", 
            "frame-type": "implication", 
            "implication-type": "binds", 
            "object-meta": {
                "object-type": "meta-info", 
                "organization": "CMU"
            }, 
            "object-type": "frame", 
            "process": [
                "transfected"
            ], 
            "sentence": "sent-PMC2808231-cmu-203", 
            "transfection-molecule": [
                "human Snail1-HA wild-type , Snail1S11A-HA ,"
            ]
        }, 
        {
            "binds-constituent1": [
                "E-cadherin"
            ], 
            "cell-type": [
                "MDCK cells"
            ], 
            "frame-id": "imp-PMC2808231-cmu-pradsys-652", 
            "frame-type": "implication", 
            "implication-type": "binds", 
            "object-meta": {
                "object-type": "meta-info", 
                "organization": "CMU"
            }, 
            "object-type": "frame", 
            "sentence": "sent-PMC2808231-cmu-204"
        }, 
        {
            "cell-type": [
                "MDCK cells"
            ], 
            "frame-id": "imp-PMC2808231-cmu-pradsys-653", 
            "frame-type": "implication", 
            "implication-type": "binds", 
            "object-meta": {
                "object-type": "meta-info", 
                "organization": "CMU"
            }, 
            "object-type": "frame", 
            "sentence": "sent-PMC2808231-cmu-205"
        }, 
        {
            "assay-molecule": [
                "E-cadherin"
            ], 
            "binds-constituent1": [
                "c"
            ], 
            "frame-id": "imp-PMC2808231-cmu-pradsys-654", 
            "frame-type": "implication", 
            "implication-type": "binds", 
            "object-meta": {
                "object-type": "meta-info", 
                "organization": "CMU"
            }, 
            "object-type": "frame", 
            "sentence": "sent-PMC2808231-cmu-206"
        }, 
        {
            "binds-constituent1": [
                "g"
            ], 
            "frame-id": "imp-PMC2808231-cmu-pradsys-655", 
            "frame-type": "implication", 
            "implication-type": "binds", 
            "object-meta": {
                "object-type": "meta-info", 
                "organization": "CMU"
            }, 
            "object-type": "frame", 
            "sentence": "sent-PMC2808231-cmu-207"
        }, 
        {
            "frame-id": "imp-PMC2808231-cmu-pradsys-656", 
            "frame-type": "implication", 
            "implication-type": "binds", 
            "object-meta": {
                "object-type": "meta-info", 
                "organization": "CMU"
            }, 
            "object-type": "frame", 
            "sentence": "sent-PMC2808231-cmu-209", 
            "transfection-molecule": [
                "the mutant Snail1S11A protein to levels similar to those of Snail1-HA wild type present in MDCK-Snail1 suffering EMT ( Figure 8C )"
            ]
        }, 
        {
            "binds-catalysis": [
                "a deleterious effect"
            ], 
            "cell-type": [
                "MDCK cells"
            ], 
            "frame-id": "imp-PMC2808231-cmu-pradsys-657", 
            "frame-type": "implication", 
            "implication-type": "binds", 
            "object-meta": {
                "object-type": "meta-info", 
                "organization": "CMU"
            }, 
            "object-type": "frame", 
            "sentence": "sent-PMC2808231-cmu-210"
        }, 
        {
            "binds-controller": [
                "The basal nonfunctional level of endogenous Snail1"
            ], 
            "cell-type": [
                "MDCK-CMV cells"
            ], 
            "frame-id": "imp-PMC2808231-cmu-pradsys-658", 
            "frame-type": "implication", 
            "implication-type": "binds", 
            "object-meta": {
                "object-type": "meta-info", 
                "organization": "CMU"
            }, 
            "object-type": "frame", 
            "sentence": "sent-PMC2808231-cmu-212"
        }, 
        {
            "frame-id": "imp-PMC2808231-cmu-pradsys-659", 
            "frame-type": "implication", 
            "implication-type": "binds", 
            "object-meta": {
                "object-type": "meta-info", 
                "organization": "CMU"
            }, 
            "object-type": "frame", 
            "sentence": "sent-PMC2808231-cmu-213", 
            "transfection-molecule": [
                "S11 and S92 residues for Snail1 function in EMT"
            ]
        }, 
        {
            "binds-constituent1": [
                "CK2"
            ], 
            "frame-id": "imp-PMC2808231-cmu-pradsys-660", 
            "frame-type": "implication", 
            "implication-type": "binds", 
            "object-meta": {
                "object-type": "meta-info", 
                "organization": "CMU"
            }, 
            "object-type": "frame", 
            "sentence": "sent-PMC2808231-cmu-214"
        }
    ], 
    "object-meta": {
        "component": "Pradeep-System", 
        "component-type": "machine", 
        "doc-id": "PMC2808231", 
        "object-type": "meta-info", 
        "organization": "CMU"
    }, 
    "object-type": "frame-collection"
}
