{
    "frames": [
        {
            "frame-id": "epi-PMC2898035-cmu-nicosys-204", 
            "frame-type": "epistemics", 
            "object-meta": {
                "object-type": "meta-info", 
                "organization": "CMU"
            }, 
            "object-type": "frame", 
            "sentence": "sent-PMC2898035-cmu-7", 
            "status": "belief", 
            "value": 0.9
        }, 
        {
            "frame-id": "epi-PMC2898035-cmu-nicosys-205", 
            "frame-type": "epistemics", 
            "object-meta": {
                "object-type": "meta-info", 
                "organization": "CMU"
            }, 
            "object-type": "frame", 
            "sentence": "sent-PMC2898035-cmu-8", 
            "status": "implication", 
            "value": 0.6
        }, 
        {
            "frame-id": "epi-PMC2898035-cmu-nicosys-206", 
            "frame-type": "epistemics", 
            "object-meta": {
                "object-type": "meta-info", 
                "organization": "CMU"
            }, 
            "object-type": "frame", 
            "sentence": "sent-PMC2898035-cmu-48", 
            "status": "belief", 
            "value": 0.9
        }, 
        {
            "frame-id": "epi-PMC2898035-cmu-nicosys-207", 
            "frame-type": "epistemics", 
            "object-meta": {
                "object-type": "meta-info", 
                "organization": "CMU"
            }, 
            "object-type": "frame", 
            "sentence": "sent-PMC2898035-cmu-58", 
            "status": "belief", 
            "value": 0.9
        }, 
        {
            "frame-id": "epi-PMC2898035-cmu-nicosys-208", 
            "frame-type": "epistemics", 
            "object-meta": {
                "object-type": "meta-info", 
                "organization": "CMU"
            }, 
            "object-type": "frame", 
            "sentence": "sent-PMC2898035-cmu-75", 
            "status": "belief", 
            "value": 0.9
        }, 
        {
            "frame-id": "epi-PMC2898035-cmu-nicosys-209", 
            "frame-type": "epistemics", 
            "object-meta": {
                "object-type": "meta-info", 
                "organization": "CMU"
            }, 
            "object-type": "frame", 
            "sentence": "sent-PMC2898035-cmu-75", 
            "status": "belief", 
            "value": 0.9
        }, 
        {
            "frame-id": "epi-PMC2898035-cmu-nicosys-210", 
            "frame-type": "epistemics", 
            "object-meta": {
                "object-type": "meta-info", 
                "organization": "CMU"
            }, 
            "object-type": "frame", 
            "sentence": "sent-PMC2898035-cmu-84", 
            "status": "implication", 
            "value": 0.6
        }, 
        {
            "frame-id": "epi-PMC2898035-cmu-nicosys-211", 
            "frame-type": "epistemics", 
            "object-meta": {
                "object-type": "meta-info", 
                "organization": "CMU"
            }, 
            "object-type": "frame", 
            "sentence": "sent-PMC2898035-cmu-84", 
            "status": "implication", 
            "value": 0.6
        }, 
        {
            "frame-id": "epi-PMC2898035-cmu-nicosys-212", 
            "frame-type": "epistemics", 
            "object-meta": {
                "object-type": "meta-info", 
                "organization": "CMU"
            }, 
            "object-type": "frame", 
            "sentence": "sent-PMC2898035-cmu-90", 
            "status": "implication", 
            "value": 0.6
        }, 
        {
            "frame-id": "epi-PMC2898035-cmu-nicosys-213", 
            "frame-type": "epistemics", 
            "object-meta": {
                "object-type": "meta-info", 
                "organization": "CMU"
            }, 
            "object-type": "frame", 
            "sentence": "sent-PMC2898035-cmu-91", 
            "status": "implication", 
            "value": 0.6
        }, 
        {
            "frame-id": "epi-PMC2898035-cmu-nicosys-214", 
            "frame-type": "epistemics", 
            "object-meta": {
                "object-type": "meta-info", 
                "organization": "CMU"
            }, 
            "object-type": "frame", 
            "sentence": "sent-PMC2898035-cmu-91", 
            "status": "implication", 
            "value": 0.6
        }, 
        {
            "frame-id": "epi-PMC2898035-cmu-nicosys-215", 
            "frame-type": "epistemics", 
            "object-meta": {
                "object-type": "meta-info", 
                "organization": "CMU"
            }, 
            "object-type": "frame", 
            "sentence": "sent-PMC2898035-cmu-93", 
            "status": "belief", 
            "value": 0.9
        }
    ], 
    "object-meta": {
        "component": "Nicolas-System", 
        "component-type": "machine", 
        "doc-id": "PMC2898035", 
        "object-type": "meta-info", 
        "organization": "CMU"
    }, 
    "object-type": "frame-collection"
}
