{
  "evidence": ["Src-family tyrosine kinases are typically recognized to activate Erk1/2 in various cells     ,     , and to our surprise, inhibiting Src kinases with PP2 enhanced the activation of Erk1/2 by ghrelin","The Src family tyrosine kinases are typically recognized to activate Erk1 and 2 in various cells     ,     , and to our surprise , inhibiting Src kinases with PP2 enhanced the activation of Erk1 and 2 by ghrelin in macrophages , resulting in increased phosphorylation on PPARgamma Ser-84 and consequently decreased PPARgamma activity ."],
  "extracted_information": {
    "interaction_type": "increases_activity",
    "negative_information": false,
    "participant_a": {
      "entity_text": "ghrelin",
      "entity_type": "protein",
      "identifier": "Uniprot:Q9UBU3",
      "in_model": false
    },
    "participant_b": {
      "entity_text": "Src",
      "entity_type": "protein",
      "identifier": "Uniprot:P12931",
      "in_model": true
    }
  },
  "fries_provenance": [
    {
      "component": "REACH",
      "frame-file": "PMC2766837.uaz.events",
      "frame-id": "evem-PMC2766837-UAZ-r1-68-0-103",
      "passage-id": "pass-PMC2766837-UAZ-r1-68",
      "passage-number": 68,
      "passage-section-id": "s3",
      "passage-section-name": "N/A",
      "sentence": "The Src family tyrosine kinases are typically recognized to activate Erk1 and 2 in various cells     ,     , and to our surprise , inhibiting Src kinases with PP2 enhanced the activation of Erk1 and 2 by ghrelin in macrophages , resulting in increased phosphorylation on PPARgamma Ser-84 and consequently decreased PPARgamma activity .",
      "text": "Src-family tyrosine kinases are typically recognized to activate Erk1/2 in various cells     ,     , and to our surprise, inhibiting Src kinases with PP2 enhanced the activation of Erk1/2 by ghrelin",
      "uaz-sentence": "The Src family tyrosine kinases are typically recognized to activate Erk1 and 2 in various cells     ,     , and to our surprise , inhibiting Src kinases with PP2 enhanced the activation of Erk1 and 2 by ghrelin in macrophages , resulting in increased phosphorylation on PPARgamma Ser-84 and consequently decreased PPARgamma activity .",
      "uaz-sentence-start": 0
    }
  ],
  "model_relation": "extension",
  "pmc_id": "PMC2766837",
  "reader_type": "machine",
  "reading_complete": "2015-06-15T20:58:44Z",
  "reading_started": "2015-06-15T20:58:39Z",
  "submitter": "FRIES"
}
