{
  "evidence": ["( C ) Activation of PPARgamma by ghrelin is independent of serine 84 .","( G ) PPARgamma activation by ghrelin is dependent on Galphaq as determined by luciferase assay performed as in ( D ) in the presence or absence of 6 microM GP antagonist-2A .","activation of PPARgamma by ghrelin","Activation of Galphaq Subunit Is Required for Ghrelin Induced Akt and PPARgamma Activation","Activation of PPARgamma by ghrelin","Also , substitution of Ser-84 preserved the ghrelin induced PPARgamma activity and responsiveness to Src inhibition , supporting a mechanism independent of Ser-84 in PPARgamma response to ghrelin .","Based on recent reports that have implicated the Gq proteins in the central effects of ghrelin on GHS-R1a signaling in pituitary cells     ,     , and on their possible convergence with the Akt pathway in endothelial cells     , we wanted to determine whether the activation of PPARgamma by ghrelin was dependent on G protein signaling pathway in macrophages .","ghrelin signals to activate PPARgamma","ghrelin triggers PPARgamma","ghrelin-induced PPARgamma","ghrelin-mediated activation of PPARgamma","Ghrelin Promotes PPARgamma","Ghrelin Promotes PPARgamma Transcriptional Activity through the AF-1 Domain","Ghrelin-Induced Akt and PPARgamma","Here , we demonstrate that ghrelin triggers PPARgamma activation through a concerted signaling cascade involving Erk1 and 2 and Akt kinases , resulting in enhanced expression of downstream effectors LXRalpha and ABC sterol transporters in human macrophages .","In line with the inhibitory role of Ser-84 phosphorylation on PPARgamma activity , we next tested the influence of Src and Fyn inhibition on ghrelin mediated activation of PPARgamma .","PPARgamma activation by ghrelin","This prompted us to consider whether the PI3-K and Akt signaling pathway could be involved in the ghrelin mediated activation of PPARgamma .","To directly assess whether ghrelin signals to activate PPARgamma , we used a luciferase reporter assay in which human embryonic kidney 293 cells were transfected in presence or absence of the GHS-R1a receptor , along with a Gal4-PPARgamma expression plasmid and a UAStkLuc reporter ."],
  "extracted_information": {
    "interaction_type": "increases_activity",
    "negative_information": false,
    "participant_a": {
      "entity_text": "Ghrelin",
      "entity_type": "protein",
      "identifier": "Uniprot:Q9UBU3",
      "in_model": false
    },
    "participant_b": {
      "entity_text": "PPARgamma",
      "entity_type": "protein",
      "identifier": "Uniprot:P37231",
      "in_model": true
    }
  },
  "fries_provenance": [
    {
      "component": "REACH",
      "frame-file": "PMC2766837.uaz.events",
      "frame-id": "evem-PMC2766837-UAZ-r1-19-0-25",
      "passage-id": "pass-PMC2766837-UAZ-r1-19",
      "passage-number": 19,
      "passage-section-id": "s2b",
      "passage-section-name": "N/A",
      "sentence": "Ghrelin Promotes PPARgamma Transcriptional Activity through the AF-1 Domain",
      "text": "Ghrelin Promotes PPARgamma",
      "uaz-sentence": "Ghrelin Promotes PPARgamma Transcriptional Activity through the AF-1 Domain",
      "uaz-sentence-start": 0
    },
    {
      "component": "REACH",
      "frame-file": "PMC2766837.uaz.events",
      "frame-id": "evem-PMC2766837-UAZ-r1-2-3-1",
      "passage-id": "pass-PMC2766837-UAZ-r1-2",
      "passage-number": 2,
      "passage-section-id": "N/A",
      "passage-section-name": "abstract",
      "sentence": "Here , we demonstrate that ghrelin triggers PPARgamma activation through a concerted signaling cascade involving Erk1 and 2 and Akt kinases , resulting in enhanced expression of downstream effectors LXRalpha and ABC sterol transporters in human macrophages .",
      "text": "ghrelin triggers PPARgamma",
      "uaz-sentence": "Here , we demonstrate that ghrelin triggers PPARgamma activation through a concerted signaling cascade involving Erk1 and 2 and Akt kinases , resulting in enhanced expression of downstream effectors LXRalpha and ABC sterol transporters in human macrophages .",
      "uaz-sentence-start": 560
    },
    {
      "component": "REACH",
      "frame-file": "PMC2766837.uaz.events",
      "frame-id": "evem-PMC2766837-UAZ-r1-2-6-3",
      "passage-id": "pass-PMC2766837-UAZ-r1-2",
      "passage-number": 2,
      "passage-section-id": "N/A",
      "passage-section-name": "abstract",
      "sentence": "Also , substitution of Ser-84 preserved the ghrelin induced PPARgamma activity and responsiveness to Src inhibition , supporting a mechanism independent of Ser-84 in PPARgamma response to ghrelin .",
      "text": "ghrelin-induced PPARgamma",
      "uaz-sentence": "Also , substitution of Ser-84 preserved the ghrelin induced PPARgamma activity and responsiveness to Src inhibition , supporting a mechanism independent of Ser-84 in PPARgamma response to ghrelin .",
      "uaz-sentence-start": 1232
    },
    {
      "cmu-sentence-epistemic-status": "implication",
      "cmu-sentence-epistemic-value": 0.6,
      "component": "REACH",
      "frame-file": "PMC2766837.uaz.events",
      "frame-id": "evem-PMC2766837-UAZ-r1-20-0-26",
      "passage-id": "pass-PMC2766837-UAZ-r1-20",
      "passage-number": 20,
      "passage-section-id": "s2b",
      "passage-section-name": "N/A",
      "sentence": "To directly assess whether ghrelin signals to activate PPARgamma , we used a luciferase reporter assay in which human embryonic kidney 293 cells were transfected in presence or absence of the GHS-R1a receptor , along with a Gal4-PPARgamma expression plasmid and a UAStkLuc reporter .",
      "text": "ghrelin signals to activate PPARgamma",
      "uaz-event-epistemic-status": "hypothesis",
      "uaz-sentence": "To directly assess whether ghrelin signals to activate PPARgamma , we used a luciferase reporter assay in which human embryonic kidney 293 cells were transfected in presence or absence of the GHS-R1a receptor , along with a Gal4-PPARgamma expression plasmid and a UAStkLuc reporter .",
      "uaz-sentence-start": 0
    },
    {
      "component": "REACH",
      "frame-file": "PMC2766837.uaz.events",
      "frame-id": "evem-PMC2766837-UAZ-r1-23-5-32",
      "passage-id": "pass-PMC2766837-UAZ-r1-23",
      "passage-number": 23,
      "passage-section-id": "fig-2",
      "passage-section-name": "fig-2",
      "sentence": "( C ) Activation of PPARgamma by ghrelin is independent of serine 84 .",
      "text": "Activation of PPARgamma by ghrelin",
      "uaz-sentence": "( C ) Activation of PPARgamma by ghrelin is independent of serine 84 .",
      "uaz-sentence-start": 748
    },
    {
      "cmu-sentence-epistemic-status": "implication",
      "cmu-sentence-epistemic-value": 0.6,
      "component": "REACH",
      "frame-file": "PMC2766837.uaz.events",
      "frame-id": "evem-PMC2766837-UAZ-r1-42-4-51",
      "passage-id": "pass-PMC2766837-UAZ-r1-42",
      "passage-number": 42,
      "passage-section-id": "s2f",
      "passage-section-name": "N/A",
      "sentence": "In line with the inhibitory role of Ser-84 phosphorylation on PPARgamma activity , we next tested the influence of Src and Fyn inhibition on ghrelin mediated activation of PPARgamma .",
      "text": "ghrelin-mediated activation of PPARgamma",
      "uaz-sentence": "In line with the inhibitory role of Ser-84 phosphorylation on PPARgamma activity , we next tested the influence of Src and Fyn inhibition on ghrelin mediated activation of PPARgamma .",
      "uaz-sentence-start": 728
    },
    {
      "cmu-sentence-epistemic-status": "implication",
      "cmu-sentence-epistemic-value": 0.6,
      "component": "REACH",
      "frame-file": "PMC2766837.uaz.events",
      "frame-id": "evem-PMC2766837-UAZ-r1-51-2-75",
      "passage-id": "pass-PMC2766837-UAZ-r1-51",
      "passage-number": 51,
      "passage-section-id": "s2h",
      "passage-section-name": "N/A",
      "sentence": "This prompted us to consider whether the PI3-K and Akt signaling pathway could be involved in the ghrelin mediated activation of PPARgamma .",
      "text": "ghrelin-mediated activation of PPARgamma",
      "uaz-event-epistemic-status": "hypothesis",
      "uaz-sentence": "This prompted us to consider whether the PI3-K and Akt signaling pathway could be involved in the ghrelin mediated activation of PPARgamma .",
      "uaz-sentence-start": 468
    },
    {
      "component": "REACH",
      "frame-file": "PMC2766837.uaz.events",
      "frame-id": "evem-PMC2766837-UAZ-r1-54-16-80",
      "passage-id": "pass-PMC2766837-UAZ-r1-54",
      "passage-number": 54,
      "passage-section-id": "fig-6",
      "passage-section-name": "fig-6",
      "sentence": "( G ) PPARgamma activation by ghrelin is dependent on Galphaq as determined by luciferase assay performed as in ( D ) in the presence or absence of 6 microM GP antagonist-2A .",
      "text": "PPARgamma activation by ghrelin",
      "uaz-sentence": "( G ) PPARgamma activation by ghrelin is dependent on Galphaq as determined by luciferase assay performed as in ( D ) in the presence or absence of 6 microM GP antagonist-2A .",
      "uaz-sentence-start": 1964
    },
    {
      "component": "REACH",
      "frame-file": "PMC2766837.uaz.events",
      "frame-id": "evem-PMC2766837-UAZ-r1-56-0-82",
      "passage-id": "pass-PMC2766837-UAZ-r1-56",
      "passage-number": 56,
      "passage-section-id": "s2i",
      "passage-section-name": "N/A",
      "sentence": "Activation of Galphaq Subunit Is Required for Ghrelin Induced Akt and PPARgamma Activation",
      "text": "Ghrelin-Induced Akt and PPARgamma",
      "uaz-sentence": "Activation of Galphaq Subunit Is Required for Ghrelin Induced Akt and PPARgamma Activation",
      "uaz-sentence-start": 0
    },
    {
      "cmu-sentence-epistemic-status": "implication",
      "cmu-sentence-epistemic-value": 0.6,
      "component": "REACH",
      "frame-file": "PMC2766837.uaz.events",
      "frame-id": "evem-PMC2766837-UAZ-r1-57-0-84",
      "passage-id": "pass-PMC2766837-UAZ-r1-57",
      "passage-number": 57,
      "passage-section-id": "s2i",
      "passage-section-name": "N/A",
      "sentence": "Based on recent reports that have implicated the Gq proteins in the central effects of ghrelin on GHS-R1a signaling in pituitary cells     ,     , and on their possible convergence with the Akt pathway in endothelial cells     , we wanted to determine whether the activation of PPARgamma by ghrelin was dependent on G protein signaling pathway in macrophages .",
      "text": "activation of PPARgamma by ghrelin",
      "uaz-event-epistemic-status": "hypothesis",
      "uaz-sentence": "Based on recent reports that have implicated the Gq proteins in the central effects of ghrelin on GHS-R1a signaling in pituitary cells     ,     , and on their possible convergence with the Akt pathway in endothelial cells     , we wanted to determine whether the activation of PPARgamma by ghrelin was dependent on G protein signaling pathway in macrophages .",
      "uaz-sentence-start": 0
    }
  ],
  "model_relation": "extension",
  "pmc_id": "PMC2766837",
  "reader_type": "machine",
  "reading_complete": "2015-06-15T20:58:44Z",
  "reading_started": "2015-06-15T20:58:39Z",
  "submitter": "FRIES"
}
