{
    "frames": [
        {
            "frame-id": "sent-PMC2644975-cmu-0", 
            "frame-type": "sentence", 
            "object-type": "frame", 
            "start-pos": {
                "object-type": "absolute-pos", 
                "offset": 0
            }, 
            "text": "XML Paper ( id '2644975 ' ) : 'Requirement of focal adhesion kinase in branching tubulogenesis '"
        }, 
        {
            "frame-id": "sent-PMC2644975-cmu-1", 
            "frame-type": "sentence", 
            "object-type": "frame", 
            "start-pos": {
                "object-type": "absolute-pos", 
                "offset": 1
            }, 
            "text": "Background"
        }, 
        {
            "frame-id": "sent-PMC2644975-cmu-2", 
            "frame-type": "sentence", 
            "object-type": "frame", 
            "start-pos": {
                "object-type": "absolute-pos", 
                "offset": 2
            }, 
            "text": "Epithelial branching tubulogenesis plays an essential role in the development of several tissues such as kidney , lung , salivary and mammary glands , and the study of the underlying mechanisms has been of both basic and clinical interest ."
        }, 
        {
            "frame-id": "sent-PMC2644975-cmu-3", 
            "frame-type": "sentence", 
            "object-type": "frame", 
            "start-pos": {
                "object-type": "absolute-pos", 
                "offset": 3
            }, 
            "text": "Mardin-Darby canine kidney ( MDCK ) cells cultured in collagen gel are widely used as the simplest and most convenient model for studying tubulogenesis ."
        }, 
        {
            "frame-id": "sent-PMC2644975-cmu-4", 
            "frame-type": "sentence", 
            "object-type": "frame", 
            "start-pos": {
                "object-type": "absolute-pos", 
                "offset": 4
            }, 
            "text": "Clone II 3B5 , isolated from MDCK cells , can undergo morphogenesis and develop into polarized , elongated and branching tubule structures under the stimulation of hepatocyte growth factor ( HGF ) [ 1,2 ] ."
        }, 
        {
            "frame-id": "sent-PMC2644975-cmu-5", 
            "frame-type": "sentence", 
            "object-type": "frame", 
            "start-pos": {
                "object-type": "absolute-pos", 
                "offset": 5
            }, 
            "text": "In our previous study , we successfully isolated several MDCK sub-clones , y224 and m634 , that exhibited either cystic or tubular phenotypes in low concentration of collagen gel without HGF stimulation [ 3,4 ] ."
        }, 
        {
            "frame-id": "sent-PMC2644975-cmu-6", 
            "frame-type": "sentence", 
            "object-type": "frame", 
            "start-pos": {
                "object-type": "absolute-pos", 
                "offset": 6
            }, 
            "text": "These cells became excellent models for studying novel regulatory mechanisms of branching tubulogenesis ."
        }, 
        {
            "frame-id": "sent-PMC2644975-cmu-7", 
            "frame-type": "sentence", 
            "object-type": "frame", 
            "start-pos": {
                "object-type": "absolute-pos", 
                "offset": 7
            }, 
            "text": "It has been demonstrated that extracellular matrix proteins ( ECM ) are key regulators for branching morphogenesis ."
        }, 
        {
            "frame-id": "sent-PMC2644975-cmu-8", 
            "frame-type": "sentence", 
            "object-type": "frame", 
            "start-pos": {
                "object-type": "absolute-pos", 
                "offset": 8
            }, 
            "text": "Fibronectin , for example , is synthesized by groups of adherent cells that assemble it into a fibrillar network [ 5,6 ] ."
        }, 
        {
            "frame-id": "sent-PMC2644975-cmu-9", 
            "frame-type": "sentence", 
            "object-type": "frame", 
            "start-pos": {
                "object-type": "absolute-pos", 
                "offset": 9
            }, 
            "text": "Fibronectin is known to provide survival cues for MDCK cell morphogenesis and development of mouse submandibular salivary gland , kidney as well as lung [ 7-9 ] ."
        }, 
        {
            "frame-id": "sent-PMC2644975-cmu-10", 
            "frame-type": "sentence", 
            "object-type": "frame", 
            "start-pos": {
                "object-type": "absolute-pos", 
                "offset": 10
            }, 
            "text": "Laminin , another example of ECM , is crucial in the end bud persistence and ductal elongation in the developing mammary gland [ 10 ] ."
        }, 
        {
            "frame-id": "sent-PMC2644975-cmu-11", 
            "frame-type": "sentence", 
            "object-type": "frame", 
            "start-pos": {
                "object-type": "absolute-pos", 
                "offset": 11
            }, 
            "text": "Despite the importance of extracellular matrix proteins , integrins ( the membrane receptors of ECM ) are also of particular significance , as the potential of branching tubulogenesis in MDCK cells was inhibited by the decrease in \u03b13 integrin expression [ 3 ] ."
        }, 
        {
            "frame-id": "sent-PMC2644975-cmu-12", 
            "frame-type": "sentence", 
            "object-type": "frame", 
            "start-pos": {
                "object-type": "absolute-pos", 
                "offset": 12
            }, 
            "text": "Monoclonal antibodies against either \u03b16 or \u03b21 subunit were shown to reduce kidney tubulogenesis in vitro [ 11 ] , while temporal and spatial changes in integrin expression promoted branching morphogenesis of the developing collecting system in vivo [ 12 ] ."
        }, 
        {
            "frame-id": "sent-PMC2644975-cmu-13", 
            "frame-type": "sentence", 
            "object-type": "frame", 
            "start-pos": {
                "object-type": "absolute-pos", 
                "offset": 13
            }, 
            "text": "Focal adhesion proteins are downstream of ECM and interact with integrins ."
        }, 
        {
            "frame-id": "sent-PMC2644975-cmu-14", 
            "frame-type": "sentence", 
            "object-type": "frame", 
            "start-pos": {
                "object-type": "absolute-pos", 
                "offset": 14
            }, 
            "text": "Among all focal adhesion complex proteins , focal adhesion kinase ( FAK ) is of greatest significance ."
        }, 
        {
            "frame-id": "sent-PMC2644975-cmu-15", 
            "frame-type": "sentence", 
            "object-type": "frame", 
            "start-pos": {
                "object-type": "absolute-pos", 
                "offset": 15
            }, 
            "text": "FAK connects both integrin and growth factor receptors with the intracellular signaling pathways and has five tyrosine phosphorylation sites ( Y397 , Y407 , Y577 , Y861 , Y925 ) , each mediating a different cellular function ."
        }, 
        {
            "frame-id": "sent-PMC2644975-cmu-16", 
            "frame-type": "sentence", 
            "object-type": "frame", 
            "start-pos": {
                "object-type": "absolute-pos", 
                "offset": 16
            }, 
            "text": "In general , FAK-mediated signaling affects cell motility , cell survival , and cell cycle progression [ 13,14 ] ."
        }, 
        {
            "frame-id": "sent-PMC2644975-cmu-17", 
            "frame-type": "sentence", 
            "object-type": "frame", 
            "start-pos": {
                "object-type": "absolute-pos", 
                "offset": 17
            }, 
            "text": "Because of the FAK involvement in the downstream cascade of integrin signaling , we wished to examine the role FAK in renal branching tubulogenesis ."
        }, 
        {
            "frame-id": "sent-PMC2644975-cmu-18", 
            "frame-type": "sentence", 
            "object-type": "frame", 
            "start-pos": {
                "object-type": "absolute-pos", 
                "offset": 18
            }, 
            "text": "In the present study we isolated several clones from MDCK cell line , i.e ."
        }, 
        {
            "frame-id": "sent-PMC2644975-cmu-19", 
            "frame-type": "sentence", 
            "object-type": "frame", 
            "start-pos": {
                "object-type": "absolute-pos", 
                "offset": 19
            }, 
            "text": "cyst and mass clones , according to the methods described previously [ 3 ] ."
        }, 
        {
            "frame-id": "sent-PMC2644975-cmu-20", 
            "frame-type": "sentence", 
            "object-type": "frame", 
            "start-pos": {
                "object-type": "absolute-pos", 
                "offset": 20
            }, 
            "text": "When both clones were cultured in 0.1 % collagen gel , cyst clones formed cysts , while mass cells formed tubular structures ."
        }, 
        {
            "frame-id": "sent-PMC2644975-cmu-21", 
            "frame-type": "sentence", 
            "object-type": "frame", 
            "start-pos": {
                "object-type": "absolute-pos", 
                "offset": 21
            }, 
            "text": "The investigation of the protein profiles showed that FAK expression was higher in mass clones then cyst clones ."
        }, 
        {
            "frame-id": "sent-PMC2644975-cmu-22", 
            "frame-type": "sentence", 
            "object-type": "frame", 
            "start-pos": {
                "object-type": "absolute-pos", 
                "offset": 22
            }, 
            "text": "Overexpression of wild type FAK in cyst clones did not facilitate branching tube morphology when cultured in collagen gel ."
        }, 
        {
            "frame-id": "sent-PMC2644975-cmu-23", 
            "frame-type": "sentence", 
            "object-type": "frame", 
            "start-pos": {
                "object-type": "absolute-pos", 
                "offset": 23
            }, 
            "text": "However , decrease of FAK expression levels by antisense cDNA in mass clones resulted in a marked reduction in branching tubule morphology in collagen gel ."
        }, 
        {
            "frame-id": "sent-PMC2644975-cmu-24", 
            "frame-type": "sentence", 
            "object-type": "frame", 
            "start-pos": {
                "object-type": "absolute-pos", 
                "offset": 24
            }, 
            "text": "Our data suggest that FAK is required , but not sufficient for renal branching tubulogenesis ."
        }, 
        {
            "frame-id": "sent-PMC2644975-cmu-25", 
            "frame-type": "sentence", 
            "object-type": "frame", 
            "start-pos": {
                "object-type": "absolute-pos", 
                "offset": 25
            }, 
            "text": "Materials and methods"
        }, 
        {
            "frame-id": "sent-PMC2644975-cmu-26", 
            "frame-type": "sentence", 
            "object-type": "frame", 
            "start-pos": {
                "object-type": "absolute-pos", 
                "offset": 26
            }, 
            "text": "Cell lines and transfection"
        }, 
        {
            "frame-id": "sent-PMC2644975-cmu-27", 
            "frame-type": "sentence", 
            "object-type": "frame", 
            "start-pos": {
                "object-type": "absolute-pos", 
                "offset": 27
            }, 
            "text": "Cells were maintained in Dulbecco 's modified Eagle 's medium ( DMEM , GIBCO BRL ) supplemented with 5 % fetal bovine serum under 5 % CO2 at 37\u00b0C ."
        }, 
        {
            "frame-id": "sent-PMC2644975-cmu-28", 
            "frame-type": "sentence", 
            "object-type": "frame", 
            "start-pos": {
                "object-type": "absolute-pos", 
                "offset": 28
            }, 
            "text": "MDCK II 3B5 cells overexpressing HA epitope-tagged wild type FAK , FRNK were the gifts from Dr. Hong-Chen Chen ( National Chung Hsing University , Taiwan ) ."
        }, 
        {
            "frame-id": "sent-PMC2644975-cmu-29", 
            "frame-type": "sentence", 
            "object-type": "frame", 
            "start-pos": {
                "object-type": "absolute-pos", 
                "offset": 29
            }, 
            "text": "To generate cells stably expressing wild type FAK or antisense FAK cDNA , cells were grown on 60 mm dishes and transfected essentially using LipofectAMINE according to the manufacturer 's protocol ."
        }, 
        {
            "frame-id": "sent-PMC2644975-cmu-30", 
            "frame-type": "sentence", 
            "object-type": "frame", 
            "start-pos": {
                "object-type": "absolute-pos", 
                "offset": 30
            }, 
            "text": "Clones were selected in hygromycin-containing medium and screened by immunoblotting with anti-HA or anti-FAK ."
        }, 
        {
            "frame-id": "sent-PMC2644975-cmu-31", 
            "frame-type": "sentence", 
            "object-type": "frame", 
            "start-pos": {
                "object-type": "absolute-pos", 
                "offset": 31
            }, 
            "text": "Materials"
        }, 
        {
            "frame-id": "sent-PMC2644975-cmu-32", 
            "frame-type": "sentence", 
            "object-type": "frame", 
            "start-pos": {
                "object-type": "absolute-pos", 
                "offset": 32
            }, 
            "text": "Fetal bovine serum and LipofectAMINE were purchased from Life Technologies , Inc. G418 sulfate and hygromycin were purchased from Calbiochem ( San Diego , CA ) ."
        }, 
        {
            "frame-id": "sent-PMC2644975-cmu-33", 
            "frame-type": "sentence", 
            "object-type": "frame", 
            "start-pos": {
                "object-type": "absolute-pos", 
                "offset": 33
            }, 
            "text": "Recombinant human HGF were purchased from Sigma ( St. Louis , MO ) ."
        }, 
        {
            "frame-id": "sent-PMC2644975-cmu-34", 
            "frame-type": "sentence", 
            "object-type": "frame", 
            "start-pos": {
                "object-type": "absolute-pos", 
                "offset": 34
            }, 
            "text": "Preparation of collagen gel"
        }, 
        {
            "frame-id": "sent-PMC2644975-cmu-35", 
            "frame-type": "sentence", 
            "object-type": "frame", 
            "start-pos": {
                "object-type": "absolute-pos", 
                "offset": 35
            }, 
            "text": "Type I collagen was prepared from rat tail tendons according to the established procedure [ 15 ] ."
        }, 
        {
            "frame-id": "sent-PMC2644975-cmu-36", 
            "frame-type": "sentence", 
            "object-type": "frame", 
            "start-pos": {
                "object-type": "absolute-pos", 
                "offset": 36
            }, 
            "text": "The collagen stock solution ( 1 % ) , was composed of 1 g ( dry weight ) of rat tail tendons dissolved in 100 ml 0.025 N acetic acid ."
        }, 
        {
            "frame-id": "sent-PMC2644975-cmu-37", 
            "frame-type": "sentence", 
            "object-type": "frame", 
            "start-pos": {
                "object-type": "absolute-pos", 
                "offset": 37
            }, 
            "text": "For the preparation of 0.1 % collagen gel , 1 vol of collagen stock was mixed with 5.7\u00d7 DMEM ( 1 vol ) , 2.5 % NaHCO3 ( 0.5 vol ) , 0.1 M HEPES ( 1 vol ) , 0.17 M CaCl2 ( 0.03 vol ) , 1N NaOH ( 0.03 vol ) , and 1\u00d7 culture medium ( 6.34 vol ) under chilled conditions ."
        }, 
        {
            "frame-id": "sent-PMC2644975-cmu-38", 
            "frame-type": "sentence", 
            "object-type": "frame", 
            "start-pos": {
                "object-type": "absolute-pos", 
                "offset": 38
            }, 
            "text": "Tubulogenesis"
        }, 
        {
            "frame-id": "sent-PMC2644975-cmu-39", 
            "frame-type": "sentence", 
            "object-type": "frame", 
            "start-pos": {
                "object-type": "absolute-pos", 
                "offset": 39
            }, 
            "text": "For tubulogenesis assays , MDCK cells were suspended at a concentration of 2 \u00d7 104 cells/ml in cold collagen solution as described above ."
        }, 
        {
            "frame-id": "sent-PMC2644975-cmu-40", 
            "frame-type": "sentence", 
            "object-type": "frame", 
            "start-pos": {
                "object-type": "absolute-pos", 
                "offset": 40
            }, 
            "text": "An aliquot ( 1 ml ) of cell suspension was dispensed into a well of 6-well plate and allowed to gel for about 20 min at 37\u00b0C before adding 1 ml of medium containing 5 % serum with or without HGF ."
        }, 
        {
            "frame-id": "sent-PMC2644975-cmu-41", 
            "frame-type": "sentence", 
            "object-type": "frame", 
            "start-pos": {
                "object-type": "absolute-pos", 
                "offset": 41
            }, 
            "text": "The medium was changed daily ."
        }, 
        {
            "frame-id": "sent-PMC2644975-cmu-42", 
            "frame-type": "sentence", 
            "object-type": "frame", 
            "start-pos": {
                "object-type": "absolute-pos", 
                "offset": 42
            }, 
            "text": "After 5 days , the tubules were photographed using a phase contrast microscope ."
        }, 
        {
            "frame-id": "sent-PMC2644975-cmu-43", 
            "frame-type": "sentence", 
            "object-type": "frame", 
            "start-pos": {
                "object-type": "absolute-pos", 
                "offset": 43
            }, 
            "text": "Collection of cell lysate and Western blot"
        }, 
        {
            "frame-id": "sent-PMC2644975-cmu-44", 
            "frame-type": "sentence", 
            "object-type": "frame", 
            "start-pos": {
                "object-type": "absolute-pos", 
                "offset": 44
            }, 
            "text": "The cells were cultured on dish for 24 hrs ."
        }, 
        {
            "frame-id": "sent-PMC2644975-cmu-45", 
            "frame-type": "sentence", 
            "object-type": "frame", 
            "start-pos": {
                "object-type": "absolute-pos", 
                "offset": 45
            }, 
            "text": "Cell lysates were harvested in modified RIPA buffer ( 150 mM NaCl , 1 mM EGTA , 50 mM Tris pH 7.4 , 10 % glycerol , 1 % Triton X-100 , 1 % sodium deoxycholate , 0.1 % SDS , and Complete\u2122 ) and the lysates were analyzed by Western blot using antibodies against FAK , fibronectin , vinculin , talin , paxillin and Src ( Transduction Lab ) , phosphorylated Y397 , Y407 , Y577 , Y861 , Y925 ( Biosource ) , \u03b12 , \u03b13 , \u03b21 integrin ( Chemicon ) , HA ( Roche ) , p130cas , \u03b2-actin ( Sigma ) and visualized using enhanced chemiluminescence ( ECL ) system ( Amersham-Pharmacia ) ."
        }, 
        {
            "frame-id": "sent-PMC2644975-cmu-46", 
            "frame-type": "sentence", 
            "object-type": "frame", 
            "start-pos": {
                "object-type": "absolute-pos", 
                "offset": 46
            }, 
            "text": "Migration assay"
        }, 
        {
            "frame-id": "sent-PMC2644975-cmu-47", 
            "frame-type": "sentence", 
            "object-type": "frame", 
            "start-pos": {
                "object-type": "absolute-pos", 
                "offset": 47
            }, 
            "text": "Cells were collected by trypsinization and suspended in serum-free medium at 5 \u00d7 105 cells/ml ."
        }, 
        {
            "frame-id": "sent-PMC2644975-cmu-48", 
            "frame-type": "sentence", 
            "object-type": "frame", 
            "start-pos": {
                "object-type": "absolute-pos", 
                "offset": 48
            }, 
            "text": "Migration assays were carried out in a Neuro Probe 48-well chemotaxis chamber ( Cabin John , MD ) ."
        }, 
        {
            "frame-id": "sent-PMC2644975-cmu-49", 
            "frame-type": "sentence", 
            "object-type": "frame", 
            "start-pos": {
                "object-type": "absolute-pos", 
                "offset": 49
            }, 
            "text": "The medium containing collagen ( 10 \u03bcg/ml ) was added to the lower chamber ."
        }, 
        {
            "frame-id": "sent-PMC2644975-cmu-50", 
            "frame-type": "sentence", 
            "object-type": "frame", 
            "start-pos": {
                "object-type": "absolute-pos", 
                "offset": 50
            }, 
            "text": "The lower and upper chambers were separated by a polycarbonate membrane ( 8 \u03bcm pore size , Poretics , Livermore , CA ) ."
        }, 
        {
            "frame-id": "sent-PMC2644975-cmu-51", 
            "frame-type": "sentence", 
            "object-type": "frame", 
            "start-pos": {
                "object-type": "absolute-pos", 
                "offset": 51
            }, 
            "text": "Cells were allowed to migrate for 6 hrs at 37\u00b0C in a humidified atmosphere containing 5 % CO2 ."
        }, 
        {
            "frame-id": "sent-PMC2644975-cmu-52", 
            "frame-type": "sentence", 
            "object-type": "frame", 
            "start-pos": {
                "object-type": "absolute-pos", 
                "offset": 52
            }, 
            "text": "The membrane was fixed in methanol for 10 min and stained with modified Giemsa stain ( Sigma ) for 1 hr ."
        }, 
        {
            "frame-id": "sent-PMC2644975-cmu-53", 
            "frame-type": "sentence", 
            "object-type": "frame", 
            "start-pos": {
                "object-type": "absolute-pos", 
                "offset": 53
            }, 
            "text": "Cells on the upper side of the membrane were removed by cotton swabs ."
        }, 
        {
            "frame-id": "sent-PMC2644975-cmu-54", 
            "frame-type": "sentence", 
            "object-type": "frame", 
            "start-pos": {
                "object-type": "absolute-pos", 
                "offset": 54
            }, 
            "text": "Cells on the lower side of the membrane were counted using a light microscope at 200\u00d7 magnification ."
        }, 
        {
            "frame-id": "sent-PMC2644975-cmu-55", 
            "frame-type": "sentence", 
            "object-type": "frame", 
            "start-pos": {
                "object-type": "absolute-pos", 
                "offset": 55
            }, 
            "text": "Plasmid construction"
        }, 
        {
            "frame-id": "sent-PMC2644975-cmu-56", 
            "frame-type": "sentence", 
            "object-type": "frame", 
            "start-pos": {
                "object-type": "absolute-pos", 
                "offset": 56
            }, 
            "text": "Total RNA was isolated from cultured MDCK cells by the standard guanidium isothiocyanate extraction method ."
        }, 
        {
            "frame-id": "sent-PMC2644975-cmu-57", 
            "frame-type": "sentence", 
            "object-type": "frame", 
            "start-pos": {
                "object-type": "absolute-pos", 
                "offset": 57
            }, 
            "text": "Reverse transcription ( RT ) and polymerase chain reaction ( PCR ) were performed ."
        }, 
        {
            "frame-id": "sent-PMC2644975-cmu-58", 
            "frame-type": "sentence", 
            "object-type": "frame", 
            "start-pos": {
                "object-type": "absolute-pos", 
                "offset": 58
            }, 
            "text": "Primers used to amplify a 712 bp segment of canine FAK cDNA were as follows : forward primer 5'-TACCTACCGAGGTCTCAGTTAG-3 ' ( nucleotides 1305 to 1326 in human FAK cDNA ) and reverse primer 5'-GCGCTGATCTTCTTCCATTTCC-3 ' ( nucleotides 1995 to 2016 in human FAK cDNA ) ."
        }, 
        {
            "frame-id": "sent-PMC2644975-cmu-59", 
            "frame-type": "sentence", 
            "object-type": "frame", 
            "start-pos": {
                "object-type": "absolute-pos", 
                "offset": 59
            }, 
            "text": "This segment is conserved in human , rat , mouse , and chicken FAK ."
        }, 
        {
            "frame-id": "sent-PMC2644975-cmu-60", 
            "frame-type": "sentence", 
            "object-type": "frame", 
            "start-pos": {
                "object-type": "absolute-pos", 
                "offset": 60
            }, 
            "text": "The 712 bp PCR product was further mixed with XhoI cutting sequence , purified from 1 % agarose , cleaved with XhoI endonuclease , and ligated into pMSCVhyg to create pMSCVFAKhyg , which was finally transfected into E. coli ."
        }, 
        {
            "frame-id": "sent-PMC2644975-cmu-61", 
            "frame-type": "sentence", 
            "object-type": "frame", 
            "start-pos": {
                "object-type": "absolute-pos", 
                "offset": 61
            }, 
            "text": "The canine FAK sequence is approximately 89 % homologous with the human FAK cDNA ."
        }, 
        {
            "frame-id": "sent-PMC2644975-cmu-62", 
            "frame-type": "sentence", 
            "object-type": "frame", 
            "start-pos": {
                "object-type": "absolute-pos", 
                "offset": 62
            }, 
            "text": "Fibronectin assembly assay"
        }, 
        {
            "frame-id": "sent-PMC2644975-cmu-63", 
            "frame-type": "sentence", 
            "object-type": "frame", 
            "start-pos": {
                "object-type": "absolute-pos", 
                "offset": 63
            }, 
            "text": "The method to determine the fibronectin matrix assembly [ 16 ] was modified ."
        }, 
        {
            "frame-id": "sent-PMC2644975-cmu-64", 
            "frame-type": "sentence", 
            "object-type": "frame", 
            "start-pos": {
                "object-type": "absolute-pos", 
                "offset": 64
            }, 
            "text": "To detect the amount of assembled fibronectin in cells cultured on dish , MDCK cells were cultured in the culture medium for 24 hrs then rinsed twice with ice cold PBS ."
        }, 
        {
            "frame-id": "sent-PMC2644975-cmu-65", 
            "frame-type": "sentence", 
            "object-type": "frame", 
            "start-pos": {
                "object-type": "absolute-pos", 
                "offset": 65
            }, 
            "text": "Cells were lysed in DOC lysis buffer ( 2 % sodium deoxycholate , 20 mM Tris-Cl , pH 8.8 , 2 mM phenylmethysulfonyl fluoride , 2 mM EDTA , 2 mM iodoacetic acid , and 2 mM N-ethylmaleimide ) and cell lysate was harvested using a cell scraper ( Nunc ) ."
        }, 
        {
            "frame-id": "sent-PMC2644975-cmu-66", 
            "frame-type": "sentence", 
            "object-type": "frame", 
            "start-pos": {
                "object-type": "absolute-pos", 
                "offset": 66
            }, 
            "text": "To detect the amount of assembled fibronectin MDCK cells were cultured in 0.1 % collagen gel for 6 days ."
        }, 
        {
            "frame-id": "sent-PMC2644975-cmu-67", 
            "frame-type": "sentence", 
            "object-type": "frame", 
            "start-pos": {
                "object-type": "absolute-pos", 
                "offset": 67
            }, 
            "text": "Collagen gel was digested by 0.2 % collagenase under 37\u00b0C for 10 min ."
        }, 
        {
            "frame-id": "sent-PMC2644975-cmu-68", 
            "frame-type": "sentence", 
            "object-type": "frame", 
            "start-pos": {
                "object-type": "absolute-pos", 
                "offset": 68
            }, 
            "text": "Cells were collected by centrifugation at 1200 rpm and then lysed in the DOC lysis buffer ."
        }, 
        {
            "frame-id": "sent-PMC2644975-cmu-69", 
            "frame-type": "sentence", 
            "object-type": "frame", 
            "start-pos": {
                "object-type": "absolute-pos", 
                "offset": 69
            }, 
            "text": "Lysates were centrifuge for 15 min at 13,000 rpm in 4\u00b0C to separate DOC-insoluble matrix ."
        }, 
        {
            "frame-id": "sent-PMC2644975-cmu-70", 
            "frame-type": "sentence", 
            "object-type": "frame", 
            "start-pos": {
                "object-type": "absolute-pos", 
                "offset": 70
            }, 
            "text": "The DOC-insoluble fibronectin was then dissolved in SDS-containing buffer ( 1 % SDS , 20 mM Tris-Cl , pH 8.8 , 2 mM PMSF , 2 mM EDTA , 2 mM iodoacetic acid , 2 mM N-ethylmaleimide ) and analyzed by Western blot to detect fibronectin ."
        }, 
        {
            "frame-id": "sent-PMC2644975-cmu-71", 
            "frame-type": "sentence", 
            "object-type": "frame", 
            "start-pos": {
                "object-type": "absolute-pos", 
                "offset": 71
            }, 
            "text": "Results"
        }, 
        {
            "frame-id": "sent-PMC2644975-cmu-72", 
            "frame-type": "sentence", 
            "object-type": "frame", 
            "start-pos": {
                "object-type": "absolute-pos", 
                "offset": 72
            }, 
            "text": "MDCK cells form two different phenotypes when cultured in 0.3 % type I collagen gel ."
        }, 
        {
            "frame-id": "sent-PMC2644975-cmu-73", 
            "frame-type": "sentence", 
            "object-type": "frame", 
            "start-pos": {
                "object-type": "absolute-pos", 
                "offset": 73
            }, 
            "text": "Most of these cells develop into polarized cysts with an obvious central cavity , while the others form cell aggregates [ 3 ] ."
        }, 
        {
            "frame-id": "sent-PMC2644975-cmu-74", 
            "frame-type": "sentence", 
            "object-type": "frame", 
            "start-pos": {
                "object-type": "absolute-pos", 
                "offset": 74
            }, 
            "text": "In the present study , we successfully isolated MDCK subclones that consistently developed either cysts ( cyst clones \u2013 CA4 , CA6 ) or cell aggregates ( mass clones \u2013 M610 , M611 , M612 ) in 0.3 % collagen gel for at least five passages ."
        }, 
        {
            "frame-id": "sent-PMC2644975-cmu-75", 
            "frame-type": "sentence", 
            "object-type": "frame", 
            "start-pos": {
                "object-type": "absolute-pos", 
                "offset": 75
            }, 
            "text": "When these clones were cultured in 0.1 % collagen gel for 6 days , cyst clones continued to display cystic morphogenesis , whereas mass clones developed into tubular structures ( Fig ."
        }, 
        {
            "frame-id": "sent-PMC2644975-cmu-76", 
            "frame-type": "sentence", 
            "object-type": "frame", 
            "start-pos": {
                "object-type": "absolute-pos", 
                "offset": 76
            }, 
            "text": "1 ) ."
        }, 
        {
            "frame-id": "sent-PMC2644975-cmu-77", 
            "frame-type": "sentence", 
            "object-type": "frame", 
            "start-pos": {
                "object-type": "absolute-pos", 
                "offset": 77
            }, 
            "text": "Although cyst clones and mass clones exhibited different morphogenesis in 0.1 % collagen gel , they showed similar growth capability ( Fig ."
        }, 
        {
            "frame-id": "sent-PMC2644975-cmu-78", 
            "frame-type": "sentence", 
            "object-type": "frame", 
            "start-pos": {
                "object-type": "absolute-pos", 
                "offset": 78
            }, 
            "text": "2a ) ."
        }, 
        {
            "frame-id": "sent-PMC2644975-cmu-79", 
            "frame-type": "sentence", 
            "object-type": "frame", 
            "start-pos": {
                "object-type": "absolute-pos", 
                "offset": 79
            }, 
            "text": "A notable difference in the morphology between cyst clones and mass clones was observed when the cells were cultured on the culture dish ."
        }, 
        {
            "frame-id": "sent-PMC2644975-cmu-80", 
            "frame-type": "sentence", 
            "object-type": "frame", 
            "start-pos": {
                "object-type": "absolute-pos", 
                "offset": 80
            }, 
            "text": "Cyst clones revealed a well-developed association between neighboring cells and formed aggregated islands ."
        }, 
        {
            "frame-id": "sent-PMC2644975-cmu-81", 
            "frame-type": "sentence", 
            "object-type": "frame", 
            "start-pos": {
                "object-type": "absolute-pos", 
                "offset": 81
            }, 
            "text": "In contrast , mass clones showed more scattered morphology when cultured on the dish ( Fig ."
        }, 
        {
            "frame-id": "sent-PMC2644975-cmu-82", 
            "frame-type": "sentence", 
            "object-type": "frame", 
            "start-pos": {
                "object-type": "absolute-pos", 
                "offset": 82
            }, 
            "text": "2b ) ."
        }, 
        {
            "frame-id": "sent-PMC2644975-cmu-83", 
            "frame-type": "sentence", 
            "object-type": "frame", 
            "start-pos": {
                "object-type": "absolute-pos", 
                "offset": 83
            }, 
            "text": "The scattered morphology indicates that mass clones might have greater motility than cyst clones ."
        }, 
        {
            "frame-id": "sent-PMC2644975-cmu-84", 
            "frame-type": "sentence", 
            "object-type": "frame", 
            "start-pos": {
                "object-type": "absolute-pos", 
                "offset": 84
            }, 
            "text": "To test this hypothesis , we used Boyden chamber transwell assay to analyze the migration ability of these two clones ."
        }, 
        {
            "frame-id": "sent-PMC2644975-cmu-85", 
            "frame-type": "sentence", 
            "object-type": "frame", 
            "start-pos": {
                "object-type": "absolute-pos", 
                "offset": 85
            }, 
            "text": "Under collagen stimulation , mass clones showed higher migration ability than cyst clones ( Fig ."
        }, 
        {
            "frame-id": "sent-PMC2644975-cmu-86", 
            "frame-type": "sentence", 
            "object-type": "frame", 
            "start-pos": {
                "object-type": "absolute-pos", 
                "offset": 86
            }, 
            "text": "2c ) ."
        }, 
        {
            "frame-id": "sent-PMC2644975-cmu-87", 
            "frame-type": "sentence", 
            "object-type": "frame", 
            "start-pos": {
                "object-type": "absolute-pos", 
                "offset": 87
            }, 
            "text": "Since migration ability is highly regulated by focal adhesion related proteins , we reasoned that the expression of these proteins may be involved in regulating cell morphogenesis ."
        }, 
        {
            "frame-id": "sent-PMC2644975-cmu-88", 
            "frame-type": "sentence", 
            "object-type": "frame", 
            "start-pos": {
                "object-type": "absolute-pos", 
                "offset": 88
            }, 
            "text": "We analyzed some focal adhesion related proteins including extracellular matrix ( fibronectin ) , receptors for extracellular matrix ( \u03b12 , \u03b13 and \u03b21 integrins ) and focal adhesion complex proteins ( FAK , p130cas , talin , vinculin , paxillin , Src ) ."
        }, 
        {
            "frame-id": "sent-PMC2644975-cmu-89", 
            "frame-type": "sentence", 
            "object-type": "frame", 
            "start-pos": {
                "object-type": "absolute-pos", 
                "offset": 89
            }, 
            "text": "Among these proteins , none of them showed apparent differences between these two clones except for the expression levels of FAK , which was markedly higher in mass than cyst clones ( Fig ."
        }, 
        {
            "frame-id": "sent-PMC2644975-cmu-90", 
            "frame-type": "sentence", 
            "object-type": "frame", 
            "start-pos": {
                "object-type": "absolute-pos", 
                "offset": 90
            }, 
            "text": "3a ) ."
        }, 
        {
            "frame-id": "sent-PMC2644975-cmu-91", 
            "frame-type": "sentence", 
            "object-type": "frame", 
            "start-pos": {
                "object-type": "absolute-pos", 
                "offset": 91
            }, 
            "text": "We furthered detected the phosphorylation level of different tyrosine phosphorylation sites on FAK in CA6 and M610 cells ."
        }, 
        {
            "frame-id": "sent-PMC2644975-cmu-92", 
            "frame-type": "sentence", 
            "object-type": "frame", 
            "start-pos": {
                "object-type": "absolute-pos", 
                "offset": 92
            }, 
            "text": "As shown in Fig ."
        }, 
        {
            "frame-id": "sent-PMC2644975-cmu-93", 
            "frame-type": "sentence", 
            "object-type": "frame", 
            "start-pos": {
                "object-type": "absolute-pos", 
                "offset": 93
            }, 
            "text": "3b , M610 cells showed higher phosphorylation level in all FAK tyrosine phosphorylation sites compared to CA6 cells ."
        }, 
        {
            "frame-id": "sent-PMC2644975-cmu-94", 
            "frame-type": "sentence", 
            "object-type": "frame", 
            "start-pos": {
                "object-type": "absolute-pos", 
                "offset": 94
            }, 
            "text": "These data suggest that FAK may be involved in regulating tubule formation ."
        }, 
        {
            "frame-id": "sent-PMC2644975-cmu-95", 
            "frame-type": "sentence", 
            "object-type": "frame", 
            "start-pos": {
                "object-type": "absolute-pos", 
                "offset": 95
            }, 
            "text": "We further investigated whether FAK expression and phosphorylation level is higher in mass than in cyst clones when cultured in 0.1 % collagen gel ."
        }, 
        {
            "frame-id": "sent-PMC2644975-cmu-96", 
            "frame-type": "sentence", 
            "object-type": "frame", 
            "start-pos": {
                "object-type": "absolute-pos", 
                "offset": 96
            }, 
            "text": "Cyst and mass clones were cultured in 0.1 % collagen gel for 6 days and FAK expression and phosphorylation levels were examined ."
        }, 
        {
            "frame-id": "sent-PMC2644975-cmu-97", 
            "frame-type": "sentence", 
            "object-type": "frame", 
            "start-pos": {
                "object-type": "absolute-pos", 
                "offset": 97
            }, 
            "text": "When cells were cultured in 0.1 % collagen gel , mass clones showed consistently higher FAK levels than cyst clones within 6 days ( Fig ."
        }, 
        {
            "frame-id": "sent-PMC2644975-cmu-98", 
            "frame-type": "sentence", 
            "object-type": "frame", 
            "start-pos": {
                "object-type": "absolute-pos", 
                "offset": 98
            }, 
            "text": "4a ) ."
        }, 
        {
            "frame-id": "sent-PMC2644975-cmu-99", 
            "frame-type": "sentence", 
            "object-type": "frame", 
            "start-pos": {
                "object-type": "absolute-pos", 
                "offset": 99
            }, 
            "text": "Furthermore , M610 cells showed higher phosphorylation levels in all FAK tyrosine phosphorylation sites compared to CA6 cells when cultured in 0.1 % collagen gel for 6 days ( Fig ."
        }, 
        {
            "frame-id": "sent-PMC2644975-cmu-100", 
            "frame-type": "sentence", 
            "object-type": "frame", 
            "start-pos": {
                "object-type": "absolute-pos", 
                "offset": 100
            }, 
            "text": "4b ) ."
        }, 
        {
            "frame-id": "sent-PMC2644975-cmu-101", 
            "frame-type": "sentence", 
            "object-type": "frame", 
            "start-pos": {
                "object-type": "absolute-pos", 
                "offset": 101
            }, 
            "text": "In order to define the role of FAK in regulating tubule formation , we established several FAK transfectants in cyst and mass clones ."
        }, 
        {
            "frame-id": "sent-PMC2644975-cmu-102", 
            "frame-type": "sentence", 
            "object-type": "frame", 
            "start-pos": {
                "object-type": "absolute-pos", 
                "offset": 102
            }, 
            "text": "To elevate the FAK expression level , wild type FAK was overexpressed in CA6 cells ."
        }, 
        {
            "frame-id": "sent-PMC2644975-cmu-103", 
            "frame-type": "sentence", 
            "object-type": "frame", 
            "start-pos": {
                "object-type": "absolute-pos", 
                "offset": 103
            }, 
            "text": "In addition , antisense cDNA was used to decrease the FAK expression level in M610 cells ."
        }, 
        {
            "frame-id": "sent-PMC2644975-cmu-104", 
            "frame-type": "sentence", 
            "object-type": "frame", 
            "start-pos": {
                "object-type": "absolute-pos", 
                "offset": 104
            }, 
            "text": "Elevation of FAK in CA6 cells increased FAK Y397 phosphorylation level ."
        }, 
        {
            "frame-id": "sent-PMC2644975-cmu-105", 
            "frame-type": "sentence", 
            "object-type": "frame", 
            "start-pos": {
                "object-type": "absolute-pos", 
                "offset": 105
            }, 
            "text": "Meanwhile , reduction of FAK expression in M610 cells also diminished the FAK Y397 phosphorylation level ( Fig ."
        }, 
        {
            "frame-id": "sent-PMC2644975-cmu-106", 
            "frame-type": "sentence", 
            "object-type": "frame", 
            "start-pos": {
                "object-type": "absolute-pos", 
                "offset": 106
            }, 
            "text": "5a ) ."
        }, 
        {
            "frame-id": "sent-PMC2644975-cmu-107", 
            "frame-type": "sentence", 
            "object-type": "frame", 
            "start-pos": {
                "object-type": "absolute-pos", 
                "offset": 107
            }, 
            "text": "We further observed the morphology of those FAK transfectants when cultured on dish ."
        }, 
        {
            "frame-id": "sent-PMC2644975-cmu-108", 
            "frame-type": "sentence", 
            "object-type": "frame", 
            "start-pos": {
                "object-type": "absolute-pos", 
                "offset": 108
            }, 
            "text": "FAK-overexpressed CA6 cells ( CF5 ) formed aggregated islands similar to CA6 and control cells ( CV ) ."
        }, 
        {
            "frame-id": "sent-PMC2644975-cmu-109", 
            "frame-type": "sentence", 
            "object-type": "frame", 
            "start-pos": {
                "object-type": "absolute-pos", 
                "offset": 109
            }, 
            "text": "However , when antisense FAK-overexpressed M610 cells ( MF-9 , MF-13 ) were cultured on dish , they showed markedly reduced scattered morphology and elevated cell-to-cell association compared to M610 and control cells ( MV ) ( Fig ."
        }, 
        {
            "frame-id": "sent-PMC2644975-cmu-110", 
            "frame-type": "sentence", 
            "object-type": "frame", 
            "start-pos": {
                "object-type": "absolute-pos", 
                "offset": 110
            }, 
            "text": "5b ) ."
        }, 
        {
            "frame-id": "sent-PMC2644975-cmu-111", 
            "frame-type": "sentence", 
            "object-type": "frame", 
            "start-pos": {
                "object-type": "absolute-pos", 
                "offset": 111
            }, 
            "text": "To measure whether cell motility was altered by different FAK expression , migration capability of different FAK transfectants was analyzed by Boyden chamber with collagen as a chemoattractant ."
        }, 
        {
            "frame-id": "sent-PMC2644975-cmu-112", 
            "frame-type": "sentence", 
            "object-type": "frame", 
            "start-pos": {
                "object-type": "absolute-pos", 
                "offset": 112
            }, 
            "text": "Increasing the expression level of FAK in CA6 cells did not elevate migration ability significantly ; however decreasing the expression level of FAK in M610 cells reduced the migration ability in a dose-dependent manner ( Fig ."
        }, 
        {
            "frame-id": "sent-PMC2644975-cmu-113", 
            "frame-type": "sentence", 
            "object-type": "frame", 
            "start-pos": {
                "object-type": "absolute-pos", 
                "offset": 113
            }, 
            "text": "5c ) ."
        }, 
        {
            "frame-id": "sent-PMC2644975-cmu-114", 
            "frame-type": "sentence", 
            "object-type": "frame", 
            "start-pos": {
                "object-type": "absolute-pos", 
                "offset": 114
            }, 
            "text": "To determine whether FAK was involved in regulating tubule formation , all the FAK transfectants were cultured in 0.1 % collagen gel for 6 days ."
        }, 
        {
            "frame-id": "sent-PMC2644975-cmu-115", 
            "frame-type": "sentence", 
            "object-type": "frame", 
            "start-pos": {
                "object-type": "absolute-pos", 
                "offset": 115
            }, 
            "text": "FAK-overexpressed CA6 cells ( CF5 ) continued to form cysts ."
        }, 
        {
            "frame-id": "sent-PMC2644975-cmu-116", 
            "frame-type": "sentence", 
            "object-type": "frame", 
            "start-pos": {
                "object-type": "absolute-pos", 
                "offset": 116
            }, 
            "text": "The number and size of cysts were similar in CA6 cells and FAK-overexpressed CA6 cells ( data not shown ) ."
        }, 
        {
            "frame-id": "sent-PMC2644975-cmu-117", 
            "frame-type": "sentence", 
            "object-type": "frame", 
            "start-pos": {
                "object-type": "absolute-pos", 
                "offset": 117
            }, 
            "text": "In contrast , antisense FAK-overexpressed M610 cells ( MF-9 , MF-13 ) did not develop into tube-like structures , but instead formed small cell masses ."
        }, 
        {
            "frame-id": "sent-PMC2644975-cmu-118", 
            "frame-type": "sentence", 
            "object-type": "frame", 
            "start-pos": {
                "object-type": "absolute-pos", 
                "offset": 118
            }, 
            "text": "In addition , decreasing the expression level of FAK in M610 cells reduced the tubule formation in a dose-dependent fashion ( Fig ."
        }, 
        {
            "frame-id": "sent-PMC2644975-cmu-119", 
            "frame-type": "sentence", 
            "object-type": "frame", 
            "start-pos": {
                "object-type": "absolute-pos", 
                "offset": 119
            }, 
            "text": "6a ) ."
        }, 
        {
            "frame-id": "sent-PMC2644975-cmu-120", 
            "frame-type": "sentence", 
            "object-type": "frame", 
            "start-pos": {
                "object-type": "absolute-pos", 
                "offset": 120
            }, 
            "text": "We next investigated whether FAK phosphorylation level was linked to tubule formation ."
        }, 
        {
            "frame-id": "sent-PMC2644975-cmu-121", 
            "frame-type": "sentence", 
            "object-type": "frame", 
            "start-pos": {
                "object-type": "absolute-pos", 
                "offset": 121
            }, 
            "text": "FAK transfectants were cultured in 0.1 % collagen gel for 6 days and FAK phosphorylation levels were examined ."
        }, 
        {
            "frame-id": "sent-PMC2644975-cmu-122", 
            "frame-type": "sentence", 
            "object-type": "frame", 
            "start-pos": {
                "object-type": "absolute-pos", 
                "offset": 122
            }, 
            "text": "As shown in Fig ."
        }, 
        {
            "frame-id": "sent-PMC2644975-cmu-123", 
            "frame-type": "sentence", 
            "object-type": "frame", 
            "start-pos": {
                "object-type": "absolute-pos", 
                "offset": 123
            }, 
            "text": "6b , overexpression of FAK in CA6 cells did not augment FAKY397 phosphorylation ."
        }, 
        {
            "frame-id": "sent-PMC2644975-cmu-124", 
            "frame-type": "sentence", 
            "object-type": "frame", 
            "start-pos": {
                "object-type": "absolute-pos", 
                "offset": 124
            }, 
            "text": "However , a decrease of FAK in M610 cells reduced FAKY397 phosphorylation ."
        }, 
        {
            "frame-id": "sent-PMC2644975-cmu-125", 
            "frame-type": "sentence", 
            "object-type": "frame", 
            "start-pos": {
                "object-type": "absolute-pos", 
                "offset": 125
            }, 
            "text": "Taken together , our data indicate that FAK is required , but not sufficient for tubulogenesis ."
        }, 
        {
            "frame-id": "sent-PMC2644975-cmu-126", 
            "frame-type": "sentence", 
            "object-type": "frame", 
            "start-pos": {
                "object-type": "absolute-pos", 
                "offset": 126
            }, 
            "text": "Our previous study demonstrated that deposition of extracellular fibronectin is crucial for tubulogenesis [ 8 ] ."
        }, 
        {
            "frame-id": "sent-PMC2644975-cmu-127", 
            "frame-type": "sentence", 
            "object-type": "frame", 
            "start-pos": {
                "object-type": "absolute-pos", 
                "offset": 127
            }, 
            "text": "To identify whether FAK-overexpressed CA6 cells fail to form tubules due to an inadequate fibronectin assembly , we analyzed the potential of fibronectin assembly in FAK transfectants cultured on dish for 24 hrs or in 0.1 % collagen gel for 6 days ."
        }, 
        {
            "frame-id": "sent-PMC2644975-cmu-128", 
            "frame-type": "sentence", 
            "object-type": "frame", 
            "start-pos": {
                "object-type": "absolute-pos", 
                "offset": 128
            }, 
            "text": "The results showed that overexpression of FAK in CA6 cells did not affect the amount of assembled fibronectin ."
        }, 
        {
            "frame-id": "sent-PMC2644975-cmu-129", 
            "frame-type": "sentence", 
            "object-type": "frame", 
            "start-pos": {
                "object-type": "absolute-pos", 
                "offset": 129
            }, 
            "text": "In contrast , a decrease of FAK in M610 cells was accompanied by a reduction of fibronectin assembly ( Fig ."
        }, 
        {
            "frame-id": "sent-PMC2644975-cmu-130", 
            "frame-type": "sentence", 
            "object-type": "frame", 
            "start-pos": {
                "object-type": "absolute-pos", 
                "offset": 130
            }, 
            "text": "6c ) ."
        }, 
        {
            "frame-id": "sent-PMC2644975-cmu-131", 
            "frame-type": "sentence", 
            "object-type": "frame", 
            "start-pos": {
                "object-type": "absolute-pos", 
                "offset": 131
            }, 
            "text": "Thus , a decrease of FAK in M610 cells leads to down-regulation of tubule formation , which can not be attributed to the reduction of fibronectin assembly ."
        }, 
        {
            "frame-id": "sent-PMC2644975-cmu-132", 
            "frame-type": "sentence", 
            "object-type": "frame", 
            "start-pos": {
                "object-type": "absolute-pos", 
                "offset": 132
            }, 
            "text": "On the other hand , overexpression of wild type FAK in CA6 cells did not trigger tubulogenesis , which may be due to insufficient fibronectin assembly ."
        }, 
        {
            "frame-id": "sent-PMC2644975-cmu-133", 
            "frame-type": "sentence", 
            "object-type": "frame", 
            "start-pos": {
                "object-type": "absolute-pos", 
                "offset": 133
            }, 
            "text": "To further investigate whether FAK is also involved in HGF-dependent tubulogenesis , 3B5 cells , a subclone of MDCK cells , harboring wild type FAK or dominant negative FRNK ( FAK-related non-kinase ) were employed ."
        }, 
        {
            "frame-id": "sent-PMC2644975-cmu-134", 
            "frame-type": "sentence", 
            "object-type": "frame", 
            "start-pos": {
                "object-type": "absolute-pos", 
                "offset": 134
            }, 
            "text": "Cells were cultured in 0.3 % collagen gel with different dosage regimen of HGF stimulation ."
        }, 
        {
            "frame-id": "sent-PMC2644975-cmu-135", 
            "frame-type": "sentence", 
            "object-type": "frame", 
            "start-pos": {
                "object-type": "absolute-pos", 
                "offset": 135
            }, 
            "text": "FAK-overexpressed cells were more sensitive to HGF stimulation in forming branching tubules , whereas FRNK-overexpressed cells did not survive ( Fig ."
        }, 
        {
            "frame-id": "sent-PMC2644975-cmu-136", 
            "frame-type": "sentence", 
            "object-type": "frame", 
            "start-pos": {
                "object-type": "absolute-pos", 
                "offset": 136
            }, 
            "text": "7 ) ."
        }, 
        {
            "frame-id": "sent-PMC2644975-cmu-137", 
            "frame-type": "sentence", 
            "object-type": "frame", 
            "start-pos": {
                "object-type": "absolute-pos", 
                "offset": 137
            }, 
            "text": "Taken together , our data show that FAK plays an important role in regulating branching tubulogenesis in both HGF-dependent and HGF-independent models ."
        }, 
        {
            "frame-id": "sent-PMC2644975-cmu-138", 
            "frame-type": "sentence", 
            "object-type": "frame", 
            "start-pos": {
                "object-type": "absolute-pos", 
                "offset": 138
            }, 
            "text": "Discussion"
        }, 
        {
            "frame-id": "sent-PMC2644975-cmu-139", 
            "frame-type": "sentence", 
            "object-type": "frame", 
            "start-pos": {
                "object-type": "absolute-pos", 
                "offset": 139
            }, 
            "text": "In this study , we provide evidence that FAK is a key element in renal tubulogenesis ."
        }, 
        {
            "frame-id": "sent-PMC2644975-cmu-140", 
            "frame-type": "sentence", 
            "object-type": "frame", 
            "start-pos": {
                "object-type": "absolute-pos", 
                "offset": 140
            }, 
            "text": "First , we isolated two different clones from MDCK cells , which proved to be a successful , HGF-independent model for tubule morphogenesis ."
        }, 
        {
            "frame-id": "sent-PMC2644975-cmu-141", 
            "frame-type": "sentence", 
            "object-type": "frame", 
            "start-pos": {
                "object-type": "absolute-pos", 
                "offset": 141
            }, 
            "text": "We showed that mass clones forming tubule structures exhibited higher expression of FAK protein compared to cyst clones forming cystic morphogenesis in 0.1 % collagen gel ."
        }, 
        {
            "frame-id": "sent-PMC2644975-cmu-142", 
            "frame-type": "sentence", 
            "object-type": "frame", 
            "start-pos": {
                "object-type": "absolute-pos", 
                "offset": 142
            }, 
            "text": "Furthermore , the elevated FAK expression level in cyst clones can not promote tubule formation ."
        }, 
        {
            "frame-id": "sent-PMC2644975-cmu-143", 
            "frame-type": "sentence", 
            "object-type": "frame", 
            "start-pos": {
                "object-type": "absolute-pos", 
                "offset": 143
            }, 
            "text": "However , a decrease of FAK expression level in mass clones dramatically reduced branching tubule formation ."
        }, 
        {
            "frame-id": "sent-PMC2644975-cmu-144", 
            "frame-type": "sentence", 
            "object-type": "frame", 
            "start-pos": {
                "object-type": "absolute-pos", 
                "offset": 144
            }, 
            "text": "Finally , we also demonstrated that FAK facilitates HGF-induced branching tubulogenesis since cells harboring wild type FAK sensitized the dose of HGF stimulation ."
        }, 
        {
            "frame-id": "sent-PMC2644975-cmu-145", 
            "frame-type": "sentence", 
            "object-type": "frame", 
            "start-pos": {
                "object-type": "absolute-pos", 
                "offset": 145
            }, 
            "text": "These results indicate that FAK is involved in the regulation of both the HGF-dependent and HGF-independent branching morphogenesis ."
        }, 
        {
            "frame-id": "sent-PMC2644975-cmu-146", 
            "frame-type": "sentence", 
            "object-type": "frame", 
            "start-pos": {
                "object-type": "absolute-pos", 
                "offset": 146
            }, 
            "text": "The effects of FAK in kidney development in vivo have not been studied before , because knockout FAK in mice leads to embryonic lethal at day 8.5 [ 17 ] ."
        }, 
        {
            "frame-id": "sent-PMC2644975-cmu-147", 
            "frame-type": "sentence", 
            "object-type": "frame", 
            "start-pos": {
                "object-type": "absolute-pos", 
                "offset": 147
            }, 
            "text": "However , observations from FAK-/- mice showed that FAK is an important regulator in vascular morphogenesis since FAK-deficient endothelial cell failed to organize into vascular networks [ 18,19 ] ."
        }, 
        {
            "frame-id": "sent-PMC2644975-cmu-148", 
            "frame-type": "sentence", 
            "object-type": "frame", 
            "start-pos": {
                "object-type": "absolute-pos", 
                "offset": 148
            }, 
            "text": "Indeed , FAK has been shown to be required in blood vessel morphogenesis [ 20 ] ."
        }, 
        {
            "frame-id": "sent-PMC2644975-cmu-149", 
            "frame-type": "sentence", 
            "object-type": "frame", 
            "start-pos": {
                "object-type": "absolute-pos", 
                "offset": 149
            }, 
            "text": "Furthermore , conditional FAK knockouts in endothelial cells led to defective angiogenesis [ 21 ] ."
        }, 
        {
            "frame-id": "sent-PMC2644975-cmu-150", 
            "frame-type": "sentence", 
            "object-type": "frame", 
            "start-pos": {
                "object-type": "absolute-pos", 
                "offset": 150
            }, 
            "text": "Therefore , it is likely that conditional FAK knockouts in early ureteric bud may result in the failure of renal tubulogenesis in vivo ."
        }, 
        {
            "frame-id": "sent-PMC2644975-cmu-151", 
            "frame-type": "sentence", 
            "object-type": "frame", 
            "start-pos": {
                "object-type": "absolute-pos", 
                "offset": 151
            }, 
            "text": "Branching morphogenesis is a multi-step process that requires sequential cell adhesion to extracellular matrix , cell spreading , cell proliferation , and cell migration to ultimately form multicellular tube-like structures [ 22 ] ."
        }, 
        {
            "frame-id": "sent-PMC2644975-cmu-152", 
            "frame-type": "sentence", 
            "object-type": "frame", 
            "start-pos": {
                "object-type": "absolute-pos", 
                "offset": 152
            }, 
            "text": "In the current study , we showed that decrease of FAK expression in M610 cells inhibited branching morphogenesis that was accompanied by the reduction of FAK phosphorylation and cell motility ."
        }, 
        {
            "frame-id": "sent-PMC2644975-cmu-153", 
            "frame-type": "sentence", 
            "object-type": "frame", 
            "start-pos": {
                "object-type": "absolute-pos", 
                "offset": 153
            }, 
            "text": "However , overexpression of FAK in CA6 cells failed to elevate migration capacity , tubule formation and phosphorylation of FAK Y397 in collagen gel ."
        }, 
        {
            "frame-id": "sent-PMC2644975-cmu-154", 
            "frame-type": "sentence", 
            "object-type": "frame", 
            "start-pos": {
                "object-type": "absolute-pos", 
                "offset": 154
            }, 
            "text": "Since there was a high agreement between the phosphorylation level of FAK Y397 and tubule formation , it is likely that FAK 397 phosphorylation may also play an important role in renal morphogenesis in MDCK cells ."
        }, 
        {
            "frame-id": "sent-PMC2644975-cmu-155", 
            "frame-type": "sentence", 
            "object-type": "frame", 
            "start-pos": {
                "object-type": "absolute-pos", 
                "offset": 155
            }, 
            "text": "Our previous study showed that MDCK cells cultured in collagen gel exhibited deposition of fibronectin underlying the epithelium , which may prevent apoptosis and therefore can possibly facilitate cyst or tubule growth of MDCK cells [ 7,8 ] ."
        }, 
        {
            "frame-id": "sent-PMC2644975-cmu-156", 
            "frame-type": "sentence", 
            "object-type": "frame", 
            "start-pos": {
                "object-type": "absolute-pos", 
                "offset": 156
            }, 
            "text": "Recently , FAK was reported to promote organization of fibronectin matrix in endothelial cells [ 23 ] ."
        }, 
        {
            "frame-id": "sent-PMC2644975-cmu-157", 
            "frame-type": "sentence", 
            "object-type": "frame", 
            "start-pos": {
                "object-type": "absolute-pos", 
                "offset": 157
            }, 
            "text": "Likewise , FAK may also regulate fibronectin assembly in MDCK cells ."
        }, 
        {
            "frame-id": "sent-PMC2644975-cmu-158", 
            "frame-type": "sentence", 
            "object-type": "frame", 
            "start-pos": {
                "object-type": "absolute-pos", 
                "offset": 158
            }, 
            "text": "We reason that the decrease of FAK expression in M610 cells results in poor fibronectin deposition and hence leads to inhibition of branching tubulogenesis ."
        }, 
        {
            "frame-id": "sent-PMC2644975-cmu-159", 
            "frame-type": "sentence", 
            "object-type": "frame", 
            "start-pos": {
                "object-type": "absolute-pos", 
                "offset": 159
            }, 
            "text": "Moreover , it has been reported that FAKY397 phosphorylation is highly regulated by substratum stiffness [ 24 ] ."
        }, 
        {
            "frame-id": "sent-PMC2644975-cmu-160", 
            "frame-type": "sentence", 
            "object-type": "frame", 
            "start-pos": {
                "object-type": "absolute-pos", 
                "offset": 160
            }, 
            "text": "Well-assembled fibronectin around the cell may serve as a stiff substrate to further promote FAKY397 phosphorylation ."
        }, 
        {
            "frame-id": "sent-PMC2644975-cmu-161", 
            "frame-type": "sentence", 
            "object-type": "frame", 
            "start-pos": {
                "object-type": "absolute-pos", 
                "offset": 161
            }, 
            "text": "Thus , mass clones are likely to possess higher potential to assemble fibronectin and to induce greater FAK phosphorylation ."
        }, 
        {
            "frame-id": "sent-PMC2644975-cmu-162", 
            "frame-type": "sentence", 
            "object-type": "frame", 
            "start-pos": {
                "object-type": "absolute-pos", 
                "offset": 162
            }, 
            "text": "Finally , there may be a positive feedback loop in regulating FAK phosphorylation and fibronectin assembly during renal tubulogenesis ."
        }, 
        {
            "frame-id": "sent-PMC2644975-cmu-163", 
            "frame-type": "sentence", 
            "object-type": "frame", 
            "start-pos": {
                "object-type": "absolute-pos", 
                "offset": 163
            }, 
            "text": "To summarize , we have shown that FAK is critical for renal branching tubulogenesis through regulation of cell migration and fibronectin assembly ."
        }, 
        {
            "frame-id": "sent-PMC2644975-cmu-164", 
            "frame-type": "sentence", 
            "object-type": "frame", 
            "start-pos": {
                "object-type": "absolute-pos", 
                "offset": 164
            }, 
            "text": "Our studies revealed FAK is involved in renal tubulogenesis , which may be also involved in other tissue morphogenesis such as mammary gland , pancreas or lung ."
        }, 
        {
            "frame-id": "sent-PMC2644975-cmu-165", 
            "frame-type": "sentence", 
            "object-type": "frame", 
            "start-pos": {
                "object-type": "absolute-pos", 
                "offset": 165
            }, 
            "text": "Competing interests"
        }, 
        {
            "frame-id": "sent-PMC2644975-cmu-166", 
            "frame-type": "sentence", 
            "object-type": "frame", 
            "start-pos": {
                "object-type": "absolute-pos", 
                "offset": 166
            }, 
            "text": "The authors declare that they have no competing interests ."
        }, 
        {
            "frame-id": "sent-PMC2644975-cmu-167", 
            "frame-type": "sentence", 
            "object-type": "frame", 
            "start-pos": {
                "object-type": "absolute-pos", 
                "offset": 167
            }, 
            "text": "Authors ' contributions"
        }, 
        {
            "frame-id": "sent-PMC2644975-cmu-168", 
            "frame-type": "sentence", 
            "object-type": "frame", 
            "start-pos": {
                "object-type": "absolute-pos", 
                "offset": 168
            }, 
            "text": "WCW participated in the design and performed statistical analysis of the results and drafted the manuscript ."
        }, 
        {
            "frame-id": "sent-PMC2644975-cmu-169", 
            "frame-type": "sentence", 
            "object-type": "frame", 
            "start-pos": {
                "object-type": "absolute-pos", 
                "offset": 169
            }, 
            "text": "AKK carried out part of the experimentation ."
        }, 
        {
            "frame-id": "sent-PMC2644975-cmu-170", 
            "frame-type": "sentence", 
            "object-type": "frame", 
            "start-pos": {
                "object-type": "absolute-pos", 
                "offset": 170
            }, 
            "text": "MJT conceived of the study and participated in its design and coordination of the study ."
        }, 
        {
            "frame-id": "sent-PMC2644975-cmu-171", 
            "frame-type": "sentence", 
            "object-type": "frame", 
            "start-pos": {
                "object-type": "absolute-pos", 
                "offset": 171
            }, 
            "text": "All authors read and approved the final manuscript ."
        }
    ], 
    "object-meta": {
        "component": "Nicolas-NXML-Parser", 
        "component-type": "machine", 
        "doc-id": "PMC2644975", 
        "object-type": "meta-info", 
        "organization": "CMU"
    }, 
    "object-type": "frame-collection"
}
