{
    "frames": [
        {
            "end-pos": {
                "context-end": "counteraction/1", 
                "object-type": "relative-pos", 
                "offset": 117, 
                "reference": "sent-PMC2546361-medscan-9"
            }, 
            "frame-id": "ment-PMC2546361-cmu-junsys-16", 
            "frame-type": "entity-mention", 
            "object-meta": {
                "component": "Jun-System", 
                "object-type": "meta-info", 
                "organization": "CMU"
            }, 
            "object-type": "frame", 
            "sentence": "sent-PMC2546361-medscan-9", 
            "start-pos": {
                "context-start": "counteraction/1", 
                "object-type": "relative-pos", 
                "offset": 104, 
                "reference": "sent-PMC2546361-medscan-9"
            }, 
            "text": "counteraction", 
            "xrefs": []
        }, 
        {
            "end-pos": {
                "context-end": "stability/1", 
                "object-type": "relative-pos", 
                "offset": 294, 
                "reference": "sent-PMC2546361-medscan-10"
            }, 
            "frame-id": "ment-PMC2546361-cmu-junsys-21", 
            "frame-type": "entity-mention", 
            "object-meta": {
                "component": "Jun-System", 
                "object-type": "meta-info", 
                "organization": "CMU"
            }, 
            "object-type": "frame", 
            "sentence": "sent-PMC2546361-medscan-10", 
            "start-pos": {
                "context-start": "stability/1", 
                "object-type": "relative-pos", 
                "offset": 285, 
                "reference": "sent-PMC2546361-medscan-10"
            }, 
            "text": "stability", 
            "xrefs": []
        }, 
        {
            "end-pos": {
                "context-end": "which/1", 
                "object-type": "relative-pos", 
                "offset": 300, 
                "reference": "sent-PMC2546361-medscan-10"
            }, 
            "frame-id": "ment-PMC2546361-cmu-junsys-22", 
            "frame-type": "entity-mention", 
            "object-meta": {
                "component": "Jun-System", 
                "object-type": "meta-info", 
                "organization": "CMU"
            }, 
            "object-type": "frame", 
            "sentence": "sent-PMC2546361-medscan-10", 
            "start-pos": {
                "context-start": "which/1", 
                "object-type": "relative-pos", 
                "offset": 295, 
                "reference": "sent-PMC2546361-medscan-10"
            }, 
            "text": "which", 
            "xrefs": []
        }, 
        {
            "end-pos": {
                "context-end": "392/1", 
                "object-type": "relative-pos", 
                "offset": 111, 
                "reference": "sent-PMC2546361-medscan-68"
            }, 
            "frame-id": "ment-PMC2546361-cmu-junsys-61", 
            "frame-type": "entity-mention", 
            "object-meta": {
                "component": "Jun-System", 
                "object-type": "meta-info", 
                "organization": "CMU"
            }, 
            "object-type": "frame", 
            "sentence": "sent-PMC2546361-medscan-68", 
            "start-pos": {
                "context-start": "392/1", 
                "object-type": "relative-pos", 
                "offset": 108, 
                "reference": "sent-PMC2546361-medscan-68"
            }, 
            "text": "392", 
            "xrefs": []
        }, 
        {
            "end-pos": {
                "context-end": "controls/1", 
                "object-type": "relative-pos", 
                "offset": 134, 
                "reference": "sent-PMC2546361-medscan-73"
            }, 
            "frame-id": "ment-PMC2546361-cmu-junsys-71", 
            "frame-type": "entity-mention", 
            "object-meta": {
                "component": "Jun-System", 
                "object-type": "meta-info", 
                "organization": "CMU"
            }, 
            "object-type": "frame", 
            "sentence": "sent-PMC2546361-medscan-73", 
            "start-pos": {
                "context-start": "controls/1", 
                "object-type": "relative-pos", 
                "offset": 126, 
                "reference": "sent-PMC2546361-medscan-73"
            }, 
            "text": "controls", 
            "xrefs": []
        }, 
        {
            "end-pos": {
                "context-end": "sites/1", 
                "object-type": "relative-pos", 
                "offset": 60, 
                "reference": "sent-PMC2546361-medscan-75"
            }, 
            "frame-id": "ment-PMC2546361-cmu-junsys-73", 
            "frame-type": "entity-mention", 
            "object-meta": {
                "component": "Jun-System", 
                "object-type": "meta-info", 
                "organization": "CMU"
            }, 
            "object-type": "frame", 
            "sentence": "sent-PMC2546361-medscan-75", 
            "start-pos": {
                "context-start": "sites/1", 
                "object-type": "relative-pos", 
                "offset": 55, 
                "reference": "sent-PMC2546361-medscan-75"
            }, 
            "text": "sites", 
            "xrefs": []
        }, 
        {
            "end-pos": {
                "context-end": "proteins/1", 
                "object-type": "relative-pos", 
                "offset": 152, 
                "reference": "sent-PMC2546361-medscan-85"
            }, 
            "frame-id": "ment-PMC2546361-cmu-junsys-88", 
            "frame-type": "entity-mention", 
            "object-meta": {
                "component": "Jun-System", 
                "object-type": "meta-info", 
                "organization": "CMU"
            }, 
            "object-type": "frame", 
            "sentence": "sent-PMC2546361-medscan-85", 
            "start-pos": {
                "context-start": "proteins/1", 
                "object-type": "relative-pos", 
                "offset": 144, 
                "reference": "sent-PMC2546361-medscan-85"
            }, 
            "text": "proteins", 
            "xrefs": []
        }, 
        {
            "end-pos": {
                "context-end": "which/1", 
                "object-type": "relative-pos", 
                "offset": 159, 
                "reference": "sent-PMC2546361-medscan-85"
            }, 
            "frame-id": "ment-PMC2546361-cmu-junsys-89", 
            "frame-type": "entity-mention", 
            "object-meta": {
                "component": "Jun-System", 
                "object-type": "meta-info", 
                "organization": "CMU"
            }, 
            "object-type": "frame", 
            "sentence": "sent-PMC2546361-medscan-85", 
            "start-pos": {
                "context-start": "which/1", 
                "object-type": "relative-pos", 
                "offset": 154, 
                "reference": "sent-PMC2546361-medscan-85"
            }, 
            "text": "which", 
            "xrefs": []
        }, 
        {
            "end-pos": {
                "context-end": "term/1", 
                "object-type": "relative-pos", 
                "offset": 67, 
                "reference": "sent-PMC2546361-medscan-97"
            }, 
            "frame-id": "ment-PMC2546361-cmu-junsys-98", 
            "frame-type": "entity-mention", 
            "object-meta": {
                "component": "Jun-System", 
                "object-type": "meta-info", 
                "organization": "CMU"
            }, 
            "object-type": "frame", 
            "sentence": "sent-PMC2546361-medscan-97", 
            "start-pos": {
                "context-start": "term/1", 
                "object-type": "relative-pos", 
                "offset": 63, 
                "reference": "sent-PMC2546361-medscan-97"
            }, 
            "text": "term", 
            "xrefs": []
        }, 
        {
            "end-pos": {
                "context-end": "which/1", 
                "object-type": "relative-pos", 
                "offset": 120, 
                "reference": "sent-PMC2546361-medscan-106"
            }, 
            "frame-id": "ment-PMC2546361-cmu-junsys-118", 
            "frame-type": "entity-mention", 
            "object-meta": {
                "component": "Jun-System", 
                "object-type": "meta-info", 
                "organization": "CMU"
            }, 
            "object-type": "frame", 
            "sentence": "sent-PMC2546361-medscan-106", 
            "start-pos": {
                "context-start": "which/1", 
                "object-type": "relative-pos", 
                "offset": 115, 
                "reference": "sent-PMC2546361-medscan-106"
            }, 
            "text": "which", 
            "xrefs": []
        }, 
        {
            "end-pos": {
                "context-end": "protein/1", 
                "object-type": "relative-pos", 
                "offset": 77, 
                "reference": "sent-PMC2546361-medscan-115"
            }, 
            "frame-id": "ment-PMC2546361-cmu-junsys-131", 
            "frame-type": "entity-mention", 
            "object-meta": {
                "component": "Jun-System", 
                "object-type": "meta-info", 
                "organization": "CMU"
            }, 
            "object-type": "frame", 
            "sentence": "sent-PMC2546361-medscan-115", 
            "start-pos": {
                "context-start": "protein/1", 
                "object-type": "relative-pos", 
                "offset": 70, 
                "reference": "sent-PMC2546361-medscan-115"
            }, 
            "text": "protein", 
            "xrefs": []
        }, 
        {
            "end-pos": {
                "context-end": "which/1", 
                "object-type": "relative-pos", 
                "offset": 67, 
                "reference": "sent-PMC2546361-medscan-118"
            }, 
            "frame-id": "ment-PMC2546361-cmu-junsys-135", 
            "frame-type": "entity-mention", 
            "object-meta": {
                "component": "Jun-System", 
                "object-type": "meta-info", 
                "organization": "CMU"
            }, 
            "object-type": "frame", 
            "sentence": "sent-PMC2546361-medscan-118", 
            "start-pos": {
                "context-start": "which/1", 
                "object-type": "relative-pos", 
                "offset": 62, 
                "reference": "sent-PMC2546361-medscan-118"
            }, 
            "text": "which", 
            "xrefs": []
        }, 
        {
            "end-pos": {
                "context-end": "p53/1", 
                "object-type": "relative-pos", 
                "offset": 43, 
                "reference": "sent-PMC2546361-medscan-117"
            }, 
            "frame-id": "ment-PMC2546361-cmu-junsys-139", 
            "frame-type": "entity-mention", 
            "object-meta": {
                "component": "Jun-System", 
                "object-type": "meta-info", 
                "organization": "CMU"
            }, 
            "object-type": "frame", 
            "sentence": "sent-PMC2546361-medscan-117", 
            "start-pos": {
                "context-start": "p53/1", 
                "object-type": "relative-pos", 
                "offset": 40, 
                "reference": "sent-PMC2546361-medscan-117"
            }, 
            "text": "p53", 
            "xrefs": []
        }, 
        {
            "end-pos": {
                "context-end": "arrest/1", 
                "object-type": "relative-pos", 
                "offset": 70, 
                "reference": "sent-PMC2546361-medscan-120"
            }, 
            "frame-id": "ment-PMC2546361-cmu-junsys-140", 
            "frame-type": "entity-mention", 
            "object-meta": {
                "component": "Jun-System", 
                "object-type": "meta-info", 
                "organization": "CMU"
            }, 
            "object-type": "frame", 
            "sentence": "sent-PMC2546361-medscan-120", 
            "start-pos": {
                "context-start": "arrest/1", 
                "object-type": "relative-pos", 
                "offset": 64, 
                "reference": "sent-PMC2546361-medscan-120"
            }, 
            "text": "arrest", 
            "xrefs": []
        }, 
        {
            "end-pos": {
                "context-end": "which/1", 
                "object-type": "relative-pos", 
                "offset": 67, 
                "reference": "sent-PMC2546361-medscan-118"
            }, 
            "frame-id": "ment-PMC2546361-cmu-junsys-144", 
            "frame-type": "entity-mention", 
            "object-meta": {
                "component": "Jun-System", 
                "object-type": "meta-info", 
                "organization": "CMU"
            }, 
            "object-type": "frame", 
            "sentence": "sent-PMC2546361-medscan-118", 
            "start-pos": {
                "context-start": "which/1", 
                "object-type": "relative-pos", 
                "offset": 62, 
                "reference": "sent-PMC2546361-medscan-118"
            }, 
            "text": "which", 
            "xrefs": []
        }, 
        {
            "end-pos": {
                "context-end": "arrest/1", 
                "object-type": "relative-pos", 
                "offset": 70, 
                "reference": "sent-PMC2546361-medscan-120"
            }, 
            "frame-id": "ment-PMC2546361-cmu-junsys-149", 
            "frame-type": "entity-mention", 
            "object-meta": {
                "component": "Jun-System", 
                "object-type": "meta-info", 
                "organization": "CMU"
            }, 
            "object-type": "frame", 
            "sentence": "sent-PMC2546361-medscan-120", 
            "start-pos": {
                "context-start": "arrest/1", 
                "object-type": "relative-pos", 
                "offset": 64, 
                "reference": "sent-PMC2546361-medscan-120"
            }, 
            "text": "arrest", 
            "xrefs": []
        }, 
        {
            "end-pos": {
                "context-end": "virus/1", 
                "object-type": "relative-pos", 
                "offset": 22, 
                "reference": "sent-PMC2546361-medscan-123"
            }, 
            "frame-id": "ment-PMC2546361-cmu-junsys-155", 
            "frame-type": "entity-mention", 
            "object-meta": {
                "component": "Jun-System", 
                "object-type": "meta-info", 
                "organization": "CMU"
            }, 
            "object-type": "frame", 
            "sentence": "sent-PMC2546361-medscan-123", 
            "start-pos": {
                "context-start": "virus/1", 
                "object-type": "relative-pos", 
                "offset": 17, 
                "reference": "sent-PMC2546361-medscan-123"
            }, 
            "text": "virus", 
            "xrefs": []
        }, 
        {
            "end-pos": {
                "context-end": "kinase/1", 
                "object-type": "relative-pos", 
                "offset": 97, 
                "reference": "sent-PMC2546361-medscan-124"
            }, 
            "frame-id": "ment-PMC2546361-cmu-junsys-159", 
            "frame-type": "entity-mention", 
            "object-meta": {
                "component": "Jun-System", 
                "object-type": "meta-info", 
                "organization": "CMU"
            }, 
            "object-type": "frame", 
            "sentence": "sent-PMC2546361-medscan-124", 
            "start-pos": {
                "context-start": "kinase/1", 
                "object-type": "relative-pos", 
                "offset": 91, 
                "reference": "sent-PMC2546361-medscan-124"
            }, 
            "text": "kinase", 
            "xrefs": []
        }, 
        {
            "end-pos": {
                "context-end": "others/1", 
                "object-type": "relative-pos", 
                "offset": 44, 
                "reference": "sent-PMC2546361-medscan-125"
            }, 
            "frame-id": "ment-PMC2546361-cmu-junsys-160", 
            "frame-type": "entity-mention", 
            "object-meta": {
                "component": "Jun-System", 
                "object-type": "meta-info", 
                "organization": "CMU"
            }, 
            "object-type": "frame", 
            "sentence": "sent-PMC2546361-medscan-125", 
            "start-pos": {
                "context-start": "others/1", 
                "object-type": "relative-pos", 
                "offset": 38, 
                "reference": "sent-PMC2546361-medscan-125"
            }, 
            "text": "others", 
            "xrefs": []
        }, 
        {
            "end-pos": {
                "context-end": "who/1", 
                "object-type": "relative-pos", 
                "offset": 49, 
                "reference": "sent-PMC2546361-medscan-125"
            }, 
            "frame-id": "ment-PMC2546361-cmu-junsys-161", 
            "frame-type": "entity-mention", 
            "object-meta": {
                "component": "Jun-System", 
                "object-type": "meta-info", 
                "organization": "CMU"
            }, 
            "object-type": "frame", 
            "sentence": "sent-PMC2546361-medscan-125", 
            "start-pos": {
                "context-start": "who/1", 
                "object-type": "relative-pos", 
                "offset": 46, 
                "reference": "sent-PMC2546361-medscan-125"
            }, 
            "text": "who", 
            "xrefs": []
        }, 
        {
            "end-pos": {
                "context-end": "authors/1", 
                "object-type": "relative-pos", 
                "offset": 29, 
                "reference": "sent-PMC2546361-medscan-129"
            }, 
            "frame-id": "ment-PMC2546361-cmu-junsys-166", 
            "frame-type": "entity-mention", 
            "object-meta": {
                "component": "Jun-System", 
                "object-type": "meta-info", 
                "organization": "CMU"
            }, 
            "object-type": "frame", 
            "sentence": "sent-PMC2546361-medscan-129", 
            "start-pos": {
                "context-start": "authors/1", 
                "object-type": "relative-pos", 
                "offset": 22, 
                "reference": "sent-PMC2546361-medscan-129"
            }, 
            "text": "authors", 
            "xrefs": []
        }, 
        {
            "end-pos": {
                "context-end": "who/1", 
                "object-type": "relative-pos", 
                "offset": 34, 
                "reference": "sent-PMC2546361-medscan-129"
            }, 
            "frame-id": "ment-PMC2546361-cmu-junsys-167", 
            "frame-type": "entity-mention", 
            "object-meta": {
                "component": "Jun-System", 
                "object-type": "meta-info", 
                "organization": "CMU"
            }, 
            "object-type": "frame", 
            "sentence": "sent-PMC2546361-medscan-129", 
            "start-pos": {
                "context-start": "who/1", 
                "object-type": "relative-pos", 
                "offset": 31, 
                "reference": "sent-PMC2546361-medscan-129"
            }, 
            "text": "who", 
            "xrefs": []
        }, 
        {
            "end-pos": {
                "context-end": "infection/1", 
                "object-type": "relative-pos", 
                "offset": 142, 
                "reference": "sent-PMC2546361-medscan-131"
            }, 
            "frame-id": "ment-PMC2546361-cmu-junsys-169", 
            "frame-type": "entity-mention", 
            "object-meta": {
                "component": "Jun-System", 
                "object-type": "meta-info", 
                "organization": "CMU"
            }, 
            "object-type": "frame", 
            "sentence": "sent-PMC2546361-medscan-131", 
            "start-pos": {
                "context-start": "infection/1", 
                "object-type": "relative-pos", 
                "offset": 133, 
                "reference": "sent-PMC2546361-medscan-131"
            }, 
            "text": "infection", 
            "xrefs": []
        }, 
        {
            "end-pos": {
                "context-end": "which/1", 
                "object-type": "relative-pos", 
                "offset": 149, 
                "reference": "sent-PMC2546361-medscan-131"
            }, 
            "frame-id": "ment-PMC2546361-cmu-junsys-170", 
            "frame-type": "entity-mention", 
            "object-meta": {
                "component": "Jun-System", 
                "object-type": "meta-info", 
                "organization": "CMU"
            }, 
            "object-type": "frame", 
            "sentence": "sent-PMC2546361-medscan-131", 
            "start-pos": {
                "context-start": "which/1", 
                "object-type": "relative-pos", 
                "offset": 144, 
                "reference": "sent-PMC2546361-medscan-131"
            }, 
            "text": "which", 
            "xrefs": []
        }, 
        {
            "end-pos": {
                "context-end": "GFP-18E6/1", 
                "object-type": "relative-pos", 
                "offset": 18, 
                "reference": "sent-PMC2546361-medscan-133"
            }, 
            "frame-id": "ment-PMC2546361-cmu-junsys-172", 
            "frame-type": "entity-mention", 
            "object-meta": {
                "component": "Jun-System", 
                "object-type": "meta-info", 
                "organization": "CMU"
            }, 
            "object-type": "frame", 
            "sentence": "sent-PMC2546361-medscan-133", 
            "start-pos": {
                "context-start": "GFP-18E6/1", 
                "object-type": "relative-pos", 
                "offset": 10, 
                "reference": "sent-PMC2546361-medscan-133"
            }, 
            "text": "GFP-18E6", 
            "xrefs": []
        }, 
        {
            "end-pos": {
                "context-end": "pathway/1", 
                "object-type": "relative-pos", 
                "offset": 191, 
                "reference": "sent-PMC2546361-medscan-133"
            }, 
            "frame-id": "ment-PMC2546361-cmu-junsys-177", 
            "frame-type": "entity-mention", 
            "object-meta": {
                "component": "Jun-System", 
                "object-type": "meta-info", 
                "organization": "CMU"
            }, 
            "object-type": "frame", 
            "sentence": "sent-PMC2546361-medscan-133", 
            "start-pos": {
                "context-start": "pathway/1", 
                "object-type": "relative-pos", 
                "offset": 184, 
                "reference": "sent-PMC2546361-medscan-133"
            }, 
            "text": "pathway", 
            "xrefs": []
        }, 
        {
            "arguments": [
                {
                    "arg": "ment-PMC2546361-cmu-medscan-10", 
                    "object-type": "argument", 
                    "type": "arg1"
                }
            ], 
            "context": "Phosphorylation of p53", 
            "end-pos": {
                "context-end": "Phosphorylation/1", 
                "object-type": "relative-pos", 
                "offset": 15, 
                "reference": "sent-PMC2546361-medscan-6"
            }, 
            "frame-id": "eve-PMC2546361-cmu-junsys-178", 
            "frame-type": "event-mention", 
            "object-meta": {
                "component": "Jun-System", 
                "object-type": "meta-info", 
                "organization": "CMU"
            }, 
            "object-type": "frame", 
            "sentence": "sent-PMC2546361-medscan-6", 
            "start-pos": {
                "context-start": "Phosphorylation/1", 
                "object-type": "relative-pos", 
                "offset": 0, 
                "reference": "sent-PMC2546361-medscan-6"
            }, 
            "text": "Phosphorylation", 
            "type": "phosphorylation"
        }, 
        {
            "arguments": [
                {
                    "arg": "ment-PMC2546361-cmu-medscan-15", 
                    "object-type": "argument", 
                    "type": "arg1"
                }
            ], 
            "context": "phosphorylation of p53", 
            "end-pos": {
                "context-end": "phosphorylation/1", 
                "object-type": "relative-pos", 
                "offset": 92, 
                "reference": "sent-PMC2546361-medscan-9"
            }, 
            "frame-id": "eve-PMC2546361-cmu-junsys-179", 
            "frame-type": "event-mention", 
            "object-meta": {
                "component": "Jun-System", 
                "object-type": "meta-info", 
                "organization": "CMU"
            }, 
            "object-type": "frame", 
            "sentence": "sent-PMC2546361-medscan-9", 
            "start-pos": {
                "context-start": "phosphorylation/1", 
                "object-type": "relative-pos", 
                "offset": 77, 
                "reference": "sent-PMC2546361-medscan-9"
            }, 
            "text": "phosphorylation", 
            "type": "phosphorylation"
        }, 
        {
            "arguments": [
                {
                    "arg": "ment-PMC2546361-cmu-junsys-16", 
                    "object-type": "argument", 
                    "type": "arg1"
                }
            ], 
            "context": "counteraction p53 activation", 
            "end-pos": {
                "object-type": "relative-pos", 
                "offset": -1, 
                "reference": "NOT LINKED"
            }, 
            "frame-id": "eve-PMC2546361-cmu-junsys-180", 
            "frame-type": "event-mention", 
            "object-meta": {
                "component": "Jun-System", 
                "object-type": "meta-info", 
                "organization": "CMU"
            }, 
            "object-type": "frame", 
            "sentence": "NOT LINKED", 
            "start-pos": {
                "object-type": "relative-pos", 
                "offset": -1, 
                "reference": "NOT LINKED"
            }, 
            "text": "activation", 
            "type": "activate"
        }, 
        {
            "arguments": [
                {
                    "arg": "ment-PMC2546361-cmu-medscan-19", 
                    "object-type": "argument", 
                    "type": "arg1"
                }
            ], 
            "context": "phosphorylation of p53", 
            "end-pos": {
                "context-end": "phosphorylation/1", 
                "object-type": "relative-pos", 
                "offset": 244, 
                "reference": "sent-PMC2546361-medscan-10"
            }, 
            "frame-id": "eve-PMC2546361-cmu-junsys-181", 
            "frame-type": "event-mention", 
            "object-meta": {
                "component": "Jun-System", 
                "object-type": "meta-info", 
                "organization": "CMU"
            }, 
            "object-type": "frame", 
            "sentence": "sent-PMC2546361-medscan-10", 
            "start-pos": {
                "context-start": "phosphorylation/1", 
                "object-type": "relative-pos", 
                "offset": 229, 
                "reference": "sent-PMC2546361-medscan-10"
            }, 
            "text": "phosphorylation", 
            "type": "phosphorylation"
        }, 
        {
            "arguments": [
                {
                    "arg": "ment-PMC2546361-cmu-junsys-61", 
                    "object-type": "argument", 
                    "type": "arg0"
                }
            ], 
            "context": "induce p53 phosphorylation at three sites: Ser15//15, Ser20//20, and Ser392//392", 
            "end-pos": {
                "object-type": "relative-pos", 
                "offset": -1, 
                "reference": "sent-PMC2546361-medscan-68"
            }, 
            "frame-id": "eve-PMC2546361-cmu-junsys-182", 
            "frame-type": "event-mention", 
            "object-meta": {
                "component": "Jun-System", 
                "object-type": "meta-info", 
                "organization": "CMU"
            }, 
            "object-type": "frame", 
            "sentence": "sent-PMC2546361-medscan-68", 
            "start-pos": {
                "object-type": "relative-pos", 
                "offset": -1, 
                "reference": "sent-PMC2546361-medscan-68"
            }, 
            "text": "induce", 
            "type": "induce"
        }, 
        {
            "arguments": [
                {
                    "arg": "ment-PMC2546361-cmu-medscan-60", 
                    "object-type": "argument", 
                    "type": "arg1"
                }
            ], 
            "context": "p53 phosphorylation", 
            "end-pos": {
                "object-type": "relative-pos", 
                "offset": -1, 
                "reference": "NOT LINKED"
            }, 
            "frame-id": "eve-PMC2546361-cmu-junsys-183", 
            "frame-type": "event-mention", 
            "object-meta": {
                "component": "Jun-System", 
                "object-type": "meta-info", 
                "organization": "CMU"
            }, 
            "object-type": "frame", 
            "sentence": "NOT LINKED", 
            "start-pos": {
                "object-type": "relative-pos", 
                "offset": -1, 
                "reference": "NOT LINKED"
            }, 
            "text": "phosphorylation", 
            "type": "phosphorylation"
        }, 
        {
            "arguments": [
                {
                    "arg": "ment-PMC2546361-cmu-medscan-68", 
                    "object-type": "argument", 
                    "type": "arg1"
                }
            ], 
            "context": "ATM activation", 
            "end-pos": {
                "context-end": "activation/1", 
                "object-type": "relative-pos", 
                "offset": 218, 
                "reference": "sent-PMC2546361-medscan-71"
            }, 
            "frame-id": "eve-PMC2546361-cmu-junsys-184", 
            "frame-type": "event-mention", 
            "object-meta": {
                "component": "Jun-System", 
                "object-type": "meta-info", 
                "organization": "CMU"
            }, 
            "object-type": "frame", 
            "sentence": "sent-PMC2546361-medscan-71", 
            "start-pos": {
                "context-start": "activation/1", 
                "object-type": "relative-pos", 
                "offset": 208, 
                "reference": "sent-PMC2546361-medscan-71"
            }, 
            "text": "activation", 
            "type": "activate"
        }, 
        {
            "arguments": [
                {
                    "arg": "ment-PMC2546361-cmu-medscan-70", 
                    "object-type": "argument", 
                    "type": "arg1"
                }
            ], 
            "context": "activation of ATM", 
            "end-pos": {
                "context-end": "activation/1", 
                "object-type": "relative-pos", 
                "offset": 47, 
                "reference": "sent-PMC2546361-medscan-73"
            }, 
            "frame-id": "eve-PMC2546361-cmu-junsys-185", 
            "frame-type": "event-mention", 
            "object-meta": {
                "component": "Jun-System", 
                "object-type": "meta-info", 
                "organization": "CMU"
            }, 
            "object-type": "frame", 
            "sentence": "sent-PMC2546361-medscan-73", 
            "start-pos": {
                "context-start": "activation/1", 
                "object-type": "relative-pos", 
                "offset": 37, 
                "reference": "sent-PMC2546361-medscan-73"
            }, 
            "text": "activation", 
            "type": "activate"
        }, 
        {
            "arguments": [
                {
                    "arg": "ment-PMC2546361-cmu-junsys-71", 
                    "object-type": "argument", 
                    "type": "arg1"
                }
            ], 
            "context": "activation of downstream checkpoint controls", 
            "end-pos": {
                "context-end": "activation/2", 
                "object-type": "relative-pos", 
                "offset": 100, 
                "reference": "sent-PMC2546361-medscan-73"
            }, 
            "frame-id": "eve-PMC2546361-cmu-junsys-186", 
            "frame-type": "event-mention", 
            "object-meta": {
                "component": "Jun-System", 
                "object-type": "meta-info", 
                "organization": "CMU"
            }, 
            "object-type": "frame", 
            "sentence": "sent-PMC2546361-medscan-73", 
            "start-pos": {
                "context-start": "activation/2", 
                "object-type": "relative-pos", 
                "offset": 90, 
                "reference": "sent-PMC2546361-medscan-73"
            }, 
            "text": "activation", 
            "type": "activate"
        }, 
        {
            "arguments": [], 
            "context": "promotes multiple sites phosphorylation", 
            "end-pos": {
                "context-end": "promotes/1", 
                "object-type": "relative-pos", 
                "offset": 35, 
                "reference": "sent-PMC2546361-medscan-74"
            }, 
            "frame-id": "eve-PMC2546361-cmu-junsys-187", 
            "frame-type": "event-mention", 
            "object-meta": {
                "component": "Jun-System", 
                "object-type": "meta-info", 
                "organization": "CMU"
            }, 
            "object-type": "frame", 
            "sentence": "sent-PMC2546361-medscan-74", 
            "start-pos": {
                "context-start": "promotes/1", 
                "object-type": "relative-pos", 
                "offset": 27, 
                "reference": "sent-PMC2546361-medscan-74"
            }, 
            "text": "promotes", 
            "type": "promote"
        }, 
        {
            "arguments": [
                {
                    "arg": "ment-PMC2546361-cmu-medscan-74", 
                    "object-type": "argument", 
                    "type": "arg1"
                }
            ], 
            "context": "phosphorylation of p53", 
            "end-pos": {
                "context-end": "phosphorylation/1", 
                "object-type": "relative-pos", 
                "offset": 66, 
                "reference": "sent-PMC2546361-medscan-74"
            }, 
            "frame-id": "eve-PMC2546361-cmu-junsys-188", 
            "frame-type": "event-mention", 
            "object-meta": {
                "component": "Jun-System", 
                "object-type": "meta-info", 
                "organization": "CMU"
            }, 
            "object-type": "frame", 
            "sentence": "sent-PMC2546361-medscan-74", 
            "start-pos": {
                "context-start": "phosphorylation/1", 
                "object-type": "relative-pos", 
                "offset": 51, 
                "reference": "sent-PMC2546361-medscan-74"
            }, 
            "text": "phosphorylation", 
            "type": "phosphorylation"
        }, 
        {
            "arguments": [
                {
                    "arg": "ment-PMC2546361-cmu-medscan-99", 
                    "object-type": "argument", 
                    "type": "arg1"
                }
            ], 
            "context": "activation of p53", 
            "end-pos": {
                "context-end": "activation/1", 
                "object-type": "relative-pos", 
                "offset": 18, 
                "reference": "sent-PMC2546361-medscan-98"
            }, 
            "frame-id": "eve-PMC2546361-cmu-junsys-189", 
            "frame-type": "event-mention", 
            "object-meta": {
                "component": "Jun-System", 
                "object-type": "meta-info", 
                "organization": "CMU"
            }, 
            "object-type": "frame", 
            "sentence": "sent-PMC2546361-medscan-98", 
            "start-pos": {
                "context-start": "activation/1", 
                "object-type": "relative-pos", 
                "offset": 8, 
                "reference": "sent-PMC2546361-medscan-98"
            }, 
            "text": "activation", 
            "type": "activate"
        }, 
        {
            "arguments": [
                {
                    "arg": "ment-PMC2546361-cmu-medscan-100", 
                    "object-type": "argument", 
                    "type": "arg1"
                }
            ], 
            "context": "activation of p53", 
            "end-pos": {
                "context-end": "activation/1", 
                "object-type": "relative-pos", 
                "offset": 18, 
                "reference": "sent-PMC2546361-medscan-98"
            }, 
            "frame-id": "eve-PMC2546361-cmu-junsys-190", 
            "frame-type": "event-mention", 
            "object-meta": {
                "component": "Jun-System", 
                "object-type": "meta-info", 
                "organization": "CMU"
            }, 
            "object-type": "frame", 
            "sentence": "sent-PMC2546361-medscan-98", 
            "start-pos": {
                "context-start": "activation/1", 
                "object-type": "relative-pos", 
                "offset": 8, 
                "reference": "sent-PMC2546361-medscan-98"
            }, 
            "text": "activation", 
            "type": "activate"
        }, 
        {
            "arguments": [
                {
                    "arg": "ment-PMC2546361-cmu-junsys-131", 
                    "object-type": "argument", 
                    "type": "arg1"
                }
            ], 
            "context": "activation of the p53 protein", 
            "end-pos": {
                "object-type": "relative-pos", 
                "offset": -1, 
                "reference": "NOT LINKED"
            }, 
            "frame-id": "eve-PMC2546361-cmu-junsys-191", 
            "frame-type": "event-mention", 
            "object-meta": {
                "component": "Jun-System", 
                "object-type": "meta-info", 
                "organization": "CMU"
            }, 
            "object-type": "frame", 
            "sentence": "NOT LINKED", 
            "start-pos": {
                "object-type": "relative-pos", 
                "offset": -1, 
                "reference": "NOT LINKED"
            }, 
            "text": "activation", 
            "type": "activate"
        }, 
        {
            "arguments": [
                {
                    "arg": "ment-PMC2546361-cmu-junsys-135", 
                    "object-type": "argument", 
                    "type": "arg0"
                }, 
                {
                    "arg": "ment-PMC2546361-cmu-medscan-136", 
                    "object-type": "argument", 
                    "type": "arg1"
                }
            ], 
            "context": "which ultimately induces the irreversible cell cycle arrest and apoptosis", 
            "end-pos": {
                "context-end": "induces/1", 
                "object-type": "relative-pos", 
                "offset": 138, 
                "reference": "sent-PMC2546361-medscan-116"
            }, 
            "frame-id": "eve-PMC2546361-cmu-junsys-192", 
            "frame-type": "event-mention", 
            "object-meta": {
                "component": "Jun-System", 
                "object-type": "meta-info", 
                "organization": "CMU"
            }, 
            "object-type": "frame", 
            "sentence": "sent-PMC2546361-medscan-116", 
            "start-pos": {
                "context-start": "induces/1", 
                "object-type": "relative-pos", 
                "offset": 131, 
                "reference": "sent-PMC2546361-medscan-116"
            }, 
            "text": "induces", 
            "type": "induce"
        }, 
        {
            "arguments": [
                {
                    "arg": "ment-PMC2546361-cmu-junsys-139", 
                    "object-type": "argument", 
                    "type": "arg0"
                }, 
                {
                    "arg": "ment-PMC2546361-cmu-junsys-140", 
                    "object-type": "argument", 
                    "type": "arg1"
                }
            ], 
            "context": "p53 could induce cell cycle arrest", 
            "end-pos": {
                "context-end": "induce/1", 
                "object-type": "relative-pos", 
                "offset": 56, 
                "reference": "sent-PMC2546361-medscan-117"
            }, 
            "frame-id": "eve-PMC2546361-cmu-junsys-193", 
            "frame-type": "event-mention", 
            "object-meta": {
                "component": "Jun-System", 
                "object-type": "meta-info", 
                "organization": "CMU"
            }, 
            "object-type": "frame", 
            "sentence": "sent-PMC2546361-medscan-117", 
            "start-pos": {
                "context-start": "induce/1", 
                "object-type": "relative-pos", 
                "offset": 50, 
                "reference": "sent-PMC2546361-medscan-117"
            }, 
            "text": "induce", 
            "type": "induce"
        }, 
        {
            "arguments": [
                {
                    "arg": "ment-PMC2546361-cmu-junsys-144", 
                    "object-type": "argument", 
                    "type": "arg0"
                }, 
                {
                    "arg": "ment-PMC2546361-cmu-medscan-145", 
                    "object-type": "argument", 
                    "type": "arg1"
                }
            ], 
            "context": "which in turn inhibited apoptosis", 
            "end-pos": {
                "context-end": "inhibited/1", 
                "object-type": "relative-pos", 
                "offset": 85, 
                "reference": "sent-PMC2546361-medscan-118"
            }, 
            "frame-id": "eve-PMC2546361-cmu-junsys-194", 
            "frame-type": "event-mention", 
            "object-meta": {
                "component": "Jun-System", 
                "object-type": "meta-info", 
                "organization": "CMU"
            }, 
            "object-type": "frame", 
            "sentence": "sent-PMC2546361-medscan-118", 
            "start-pos": {
                "context-start": "inhibited/1", 
                "object-type": "relative-pos", 
                "offset": 76, 
                "reference": "sent-PMC2546361-medscan-118"
            }, 
            "text": "inhibited", 
            "type": "inhibit"
        }, 
        {
            "arguments": [
                {
                    "arg": "ment-PMC2546361-cmu-medscan-147", 
                    "object-type": "argument", 
                    "type": "arg1"
                }
            ], 
            "context": "phosphorylation of p53", 
            "end-pos": {
                "context-end": "phosphorylation/1", 
                "object-type": "relative-pos", 
                "offset": 19, 
                "reference": "sent-PMC2546361-medscan-120"
            }, 
            "frame-id": "eve-PMC2546361-cmu-junsys-195", 
            "frame-type": "event-mention", 
            "object-meta": {
                "component": "Jun-System", 
                "object-type": "meta-info", 
                "organization": "CMU"
            }, 
            "object-type": "frame", 
            "sentence": "sent-PMC2546361-medscan-120", 
            "start-pos": {
                "context-start": "phosphorylation/1", 
                "object-type": "relative-pos", 
                "offset": 4, 
                "reference": "sent-PMC2546361-medscan-120"
            }, 
            "text": "phosphorylation", 
            "type": "phosphorylation"
        }, 
        {
            "arguments": [
                {
                    "arg": "eve-PMC2546361-cmu-junsys-195", 
                    "object-type": "argument", 
                    "type": "arg0"
                }, 
                {
                    "arg": "ment-PMC2546361-cmu-junsys-149", 
                    "object-type": "argument", 
                    "type": "arg1"
                }
            ], 
            "context": "phosphorylation of p53 could induce apoptosis or cell cycle arrest", 
            "end-pos": {
                "context-end": "induce/1", 
                "object-type": "relative-pos", 
                "offset": 39, 
                "reference": "sent-PMC2546361-medscan-120"
            }, 
            "frame-id": "eve-PMC2546361-cmu-junsys-196", 
            "frame-type": "event-mention", 
            "object-meta": {
                "component": "Jun-System", 
                "object-type": "meta-info", 
                "organization": "CMU"
            }, 
            "object-type": "frame", 
            "sentence": "sent-PMC2546361-medscan-120", 
            "start-pos": {
                "context-start": "induce/1", 
                "object-type": "relative-pos", 
                "offset": 33, 
                "reference": "sent-PMC2546361-medscan-120"
            }, 
            "text": "induce", 
            "type": "induce"
        }, 
        {
            "arguments": [], 
            "context": "Regulation of p53 phosphorylation", 
            "end-pos": {
                "context-end": "Regulation/1", 
                "object-type": "relative-pos", 
                "offset": 10, 
                "reference": "sent-PMC2546361-medscan-121"
            }, 
            "frame-id": "eve-PMC2546361-cmu-junsys-197", 
            "frame-type": "event-mention", 
            "object-meta": {
                "component": "Jun-System", 
                "object-type": "meta-info", 
                "organization": "CMU"
            }, 
            "object-type": "frame", 
            "sentence": "sent-PMC2546361-medscan-121", 
            "start-pos": {
                "context-start": "Regulation/1", 
                "object-type": "relative-pos", 
                "offset": 0, 
                "reference": "sent-PMC2546361-medscan-121"
            }, 
            "text": "Regulation", 
            "type": "regulate"
        }, 
        {
            "arguments": [
                {
                    "arg": "ment-PMC2546361-cmu-medscan-150", 
                    "object-type": "argument", 
                    "type": "arg1"
                }
            ], 
            "context": "p53 phosphorylation", 
            "end-pos": {
                "context-end": "phosphorylation/1", 
                "object-type": "relative-pos", 
                "offset": 33, 
                "reference": "sent-PMC2546361-medscan-121"
            }, 
            "frame-id": "eve-PMC2546361-cmu-junsys-198", 
            "frame-type": "event-mention", 
            "object-meta": {
                "component": "Jun-System", 
                "object-type": "meta-info", 
                "organization": "CMU"
            }, 
            "object-type": "frame", 
            "sentence": "sent-PMC2546361-medscan-121", 
            "start-pos": {
                "context-start": "phosphorylation/1", 
                "object-type": "relative-pos", 
                "offset": 18, 
                "reference": "sent-PMC2546361-medscan-121"
            }, 
            "text": "phosphorylation", 
            "type": "phosphorylation"
        }, 
        {
            "arguments": [
                {
                    "arg": "ment-PMC2546361-cmu-junsys-155", 
                    "object-type": "argument", 
                    "type": "arg0"
                }, 
                {
                    "arg": "ment-PMC2546361-cmu-medscan-156", 
                    "object-type": "argument", 
                    "type": "arg1"
                }
            ], 
            "context": "virus can activate p53", 
            "end-pos": {
                "object-type": "relative-pos", 
                "offset": -1, 
                "reference": "NOT LINKED"
            }, 
            "frame-id": "eve-PMC2546361-cmu-junsys-199", 
            "frame-type": "event-mention", 
            "object-meta": {
                "component": "Jun-System", 
                "object-type": "meta-info", 
                "organization": "CMU"
            }, 
            "object-type": "frame", 
            "sentence": "NOT LINKED", 
            "start-pos": {
                "object-type": "relative-pos", 
                "offset": -1, 
                "reference": "NOT LINKED"
            }, 
            "text": "activate", 
            "type": "activate"
        }, 
        {
            "arguments": [
                {
                    "arg": "ment-PMC2546361-cmu-junsys-159", 
                    "object-type": "argument", 
                    "type": "arg1"
                }
            ], 
            "context": "activation of MAPK kinase", 
            "end-pos": {
                "context-end": "activation/1", 
                "object-type": "relative-pos", 
                "offset": 117, 
                "reference": "sent-PMC2546361-medscan-124"
            }, 
            "frame-id": "eve-PMC2546361-cmu-junsys-200", 
            "frame-type": "event-mention", 
            "object-meta": {
                "component": "Jun-System", 
                "object-type": "meta-info", 
                "organization": "CMU"
            }, 
            "object-type": "frame", 
            "sentence": "sent-PMC2546361-medscan-124", 
            "start-pos": {
                "context-start": "activation/1", 
                "object-type": "relative-pos", 
                "offset": 107, 
                "reference": "sent-PMC2546361-medscan-124"
            }, 
            "text": "activation", 
            "type": "activate"
        }, 
        {
            "arguments": [
                {
                    "arg": "ment-PMC2546361-cmu-junsys-172", 
                    "object-type": "argument", 
                    "type": "arg0"
                }
            ], 
            "context": "GFP-18E6 could transiently induce p53 phosphorylation", 
            "end-pos": {
                "context-end": "induce/1", 
                "object-type": "relative-pos", 
                "offset": 43, 
                "reference": "sent-PMC2546361-medscan-133"
            }, 
            "frame-id": "eve-PMC2546361-cmu-junsys-201", 
            "frame-type": "event-mention", 
            "object-meta": {
                "component": "Jun-System", 
                "object-type": "meta-info", 
                "organization": "CMU"
            }, 
            "object-type": "frame", 
            "sentence": "sent-PMC2546361-medscan-133", 
            "start-pos": {
                "context-start": "induce/1", 
                "object-type": "relative-pos", 
                "offset": 37, 
                "reference": "sent-PMC2546361-medscan-133"
            }, 
            "text": "induce", 
            "type": "induce"
        }, 
        {
            "arguments": [
                {
                    "arg": "ment-PMC2546361-cmu-medscan-173", 
                    "object-type": "argument", 
                    "type": "arg1"
                }
            ], 
            "context": "p53 phosphorylation", 
            "end-pos": {
                "object-type": "relative-pos", 
                "offset": -1, 
                "reference": "NOT LINKED"
            }, 
            "frame-id": "eve-PMC2546361-cmu-junsys-202", 
            "frame-type": "event-mention", 
            "object-meta": {
                "component": "Jun-System", 
                "object-type": "meta-info", 
                "organization": "CMU"
            }, 
            "object-type": "frame", 
            "sentence": "NOT LINKED", 
            "start-pos": {
                "object-type": "relative-pos", 
                "offset": -1, 
                "reference": "NOT LINKED"
            }, 
            "text": "phosphorylation", 
            "type": "phosphorylation"
        }, 
        {
            "arguments": [
                {
                    "arg": "ment-PMC2546361-cmu-junsys-177", 
                    "object-type": "argument", 
                    "type": "arg1"
                }
            ], 
            "context": "activation of ATM and/or Chk2 pathway", 
            "end-pos": {
                "context-end": "activation/1", 
                "object-type": "relative-pos", 
                "offset": 164, 
                "reference": "sent-PMC2546361-medscan-133"
            }, 
            "frame-id": "eve-PMC2546361-cmu-junsys-203", 
            "frame-type": "event-mention", 
            "object-meta": {
                "component": "Jun-System", 
                "object-type": "meta-info", 
                "organization": "CMU"
            }, 
            "object-type": "frame", 
            "sentence": "sent-PMC2546361-medscan-133", 
            "start-pos": {
                "context-start": "activation/1", 
                "object-type": "relative-pos", 
                "offset": 154, 
                "reference": "sent-PMC2546361-medscan-133"
            }, 
            "text": "activation", 
            "type": "activate"
        }, 
        {
            "frame-id": "ent-PMC2546361-cmu-junsys-205", 
            "frame-type": "entity", 
            "members": [
                "ment-PMC2546361-cmu-junsys-21", 
                "ment-PMC2546361-cmu-junsys-22"
            ], 
            "object-meta": {
                "component": "Jun-System", 
                "object-type": "meta-info", 
                "organization": "CMU"
            }, 
            "object-type": "frame"
        }, 
        {
            "frame-id": "ent-PMC2546361-cmu-junsys-206", 
            "frame-type": "entity", 
            "members": [
                "ment-PMC2546361-cmu-junsys-88", 
                "ment-PMC2546361-cmu-junsys-89"
            ], 
            "object-meta": {
                "component": "Jun-System", 
                "object-type": "meta-info", 
                "organization": "CMU"
            }, 
            "object-type": "frame"
        }, 
        {
            "frame-id": "ent-PMC2546361-cmu-junsys-207", 
            "frame-type": "entity", 
            "members": [
                "ment-PMC2546361-cmu-medscan-117", 
                "ment-PMC2546361-cmu-junsys-118"
            ], 
            "object-meta": {
                "component": "Jun-System", 
                "object-type": "meta-info", 
                "organization": "CMU"
            }, 
            "object-type": "frame"
        }, 
        {
            "frame-id": "ent-PMC2546361-cmu-junsys-208", 
            "frame-type": "entity", 
            "members": [
                "ment-PMC2546361-cmu-medscan-134", 
                "ment-PMC2546361-cmu-junsys-135"
            ], 
            "object-meta": {
                "component": "Jun-System", 
                "object-type": "meta-info", 
                "organization": "CMU"
            }, 
            "object-type": "frame"
        }, 
        {
            "frame-id": "ent-PMC2546361-cmu-junsys-209", 
            "frame-type": "entity", 
            "members": [
                "ment-PMC2546361-cmu-medscan-143", 
                "ment-PMC2546361-cmu-junsys-144"
            ], 
            "object-meta": {
                "component": "Jun-System", 
                "object-type": "meta-info", 
                "organization": "CMU"
            }, 
            "object-type": "frame"
        }, 
        {
            "frame-id": "ent-PMC2546361-cmu-junsys-210", 
            "frame-type": "entity", 
            "members": [
                "ment-PMC2546361-cmu-junsys-160", 
                "ment-PMC2546361-cmu-junsys-161"
            ], 
            "object-meta": {
                "component": "Jun-System", 
                "object-type": "meta-info", 
                "organization": "CMU"
            }, 
            "object-type": "frame"
        }, 
        {
            "frame-id": "ent-PMC2546361-cmu-junsys-211", 
            "frame-type": "entity", 
            "members": [
                "ment-PMC2546361-cmu-junsys-166", 
                "ment-PMC2546361-cmu-junsys-167"
            ], 
            "object-meta": {
                "component": "Jun-System", 
                "object-type": "meta-info", 
                "organization": "CMU"
            }, 
            "object-type": "frame"
        }, 
        {
            "frame-id": "ent-PMC2546361-cmu-junsys-212", 
            "frame-type": "entity", 
            "members": [
                "ment-PMC2546361-cmu-junsys-169", 
                "ment-PMC2546361-cmu-junsys-170"
            ], 
            "object-meta": {
                "component": "Jun-System", 
                "object-type": "meta-info", 
                "organization": "CMU"
            }, 
            "object-type": "frame"
        }
    ], 
    "object-meta": {
        "component": "Jun-System", 
        "component-type": "machine", 
        "doc-id": "PMC2546361", 
        "object-type": "meta-info", 
        "organization": "CMU"
    }, 
    "object-type": "frame-collection"
}
