{
  "evidence": ["As shown in , either ligation of CD28 or transduction with active Ras resulted in a similar prolongation of the IL-2 mRNA half-life.","As shown in , introduction of active Ras indeed prevented anergy induction as reflected by preserved IL-2 production (A) and ERK phosphorylation (B) upon restimulation.","Both CD28-crosslinking and transduction with active Ras significantly and comparably augmented T cell receptor-induced IL-2 promoter activity .","IL-2 production mediated by active Ras","Ras could restore IL-2","Ras mimicked the ability of CD28 to augment IL-2","Ras resulted in a similar prolongation of the IL-2","Ras signaling augmented T cell receptor-induced steady state IL-2","Ras signaling induced IL-2","Ras significantly and comparably augmented T cell receptor-induced IL-2","Therefore, the costimulation of IL-2 production mediated by active Ras occurs by a mechanism that mimics the mechanism of CD28-mediated costimulation, increasing both IL-2 transcription and mRNA stability.","Thus, expression of active Ras mimicked the ability of CD28 to augment IL-2 production, prevent anergy induction, potentiate T cell survival, and augment cellular metabolism.  GLOSSARY{4999999={CellProcess=4003409 CellType=10000184}}","While this might not fully recapitulate the mechanisms of IL-2 production induced by T cell receptor stimulation in conjunction with CD28 costimulation, it does allow determination of which signaling pathways downstream of active Ras may be critical for its ability to influence IL-2 production."],
  "extracted_information": {
    "interaction_type": "increases_activity",
    "negative_information": false,
    "participant_a": {
      "entity_text": "Ras",
      "entity_type": "protein_family",
      "identifier": "Uniprot:A0PDV5",
      "in_model": false
    },
    "participant_b": {
      "entity_text": "IL-2",
      "entity_type": "protein",
      "identifier": "Uniprot:P60568",
      "in_model": true
    }
  },
  "fries_provenance": [
    {
      "component": "MedScan",
      "frame-file": "PMC3176298.cmu.medscan",
      "frame-id": "relm-PMC3176298-cmu-medscan-769",
      "sentence": "As shown in , introduction of active Ras indeed prevented anergy induction as reflected by preserved IL-2 production (A) and ERK phosphorylation (B) upon restimulation.",
      "text": "Ras could restore IL-2"
    },
    {
      "component": "MedScan",
      "frame-file": "PMC3176298.cmu.medscan",
      "frame-id": "relm-PMC3176298-cmu-medscan-776",
      "sentence": "Thus, expression of active Ras mimicked the ability of CD28 to augment IL-2 production, prevent anergy induction, potentiate T cell survival, and augment cellular metabolism.  GLOSSARY{4999999={CellProcess=4003409 CellType=10000184}}",
      "text": "Ras mimicked the ability of CD28 to augment IL-2"
    },
    {
      "component": "MedScan",
      "frame-file": "PMC3176298.cmu.medscan",
      "frame-id": "relm-PMC3176298-cmu-medscan-781",
      "sentence": "Both CD28-crosslinking and transduction with active Ras significantly and comparably augmented T cell receptor-induced IL-2 promoter activity .",
      "text": "Ras signaling augmented T cell receptor-induced steady state IL-2"
    },
    {
      "component": "MedScan",
      "frame-file": "PMC3176298.cmu.medscan",
      "frame-id": "relm-PMC3176298-cmu-medscan-782",
      "sentence": "Both CD28-crosslinking and transduction with active Ras significantly and comparably augmented T cell receptor-induced IL-2 promoter activity .",
      "text": "Ras signaling augmented T cell receptor-induced steady state IL-2"
    },
    {
      "component": "MedScan",
      "frame-file": "PMC3176298.cmu.medscan",
      "frame-id": "relm-PMC3176298-cmu-medscan-786",
      "sentence": "As shown in , either ligation of CD28 or transduction with active Ras resulted in a similar prolongation of the IL-2 mRNA half-life.",
      "text": "Ras significantly and comparably augmented T cell receptor-induced IL-2"
    },
    {
      "component": "MedScan",
      "frame-file": "PMC3176298.cmu.medscan",
      "frame-id": "relm-PMC3176298-cmu-medscan-789",
      "sentence": "Therefore, the costimulation of IL-2 production mediated by active Ras occurs by a mechanism that mimics the mechanism of CD28-mediated costimulation, increasing both IL-2 transcription and mRNA stability.",
      "text": "Ras resulted in a similar prolongation of the IL-2"
    },
    {
      "component": "MedScan",
      "frame-file": "PMC3176298.cmu.medscan",
      "frame-id": "relm-PMC3176298-cmu-medscan-790",
      "sentence": "Therefore, the costimulation of IL-2 production mediated by active Ras occurs by a mechanism that mimics the mechanism of CD28-mediated costimulation, increasing both IL-2 transcription and mRNA stability.",
      "text": "IL-2 production mediated by active Ras"
    },
    {
      "component": "MedScan",
      "frame-file": "PMC3176298.cmu.medscan",
      "frame-id": "relm-PMC3176298-cmu-medscan-793",
      "sentence": "While this might not fully recapitulate the mechanisms of IL-2 production induced by T cell receptor stimulation in conjunction with CD28 costimulation, it does allow determination of which signaling pathways downstream of active Ras may be critical for its ability to influence IL-2 production.",
      "text": "Ras signaling induced IL-2"
    }
  ],
  "model_relation": "extension",
  "pmc_id": "PMC3176298",
  "reader_type": "machine",
  "reading_complete": "2015-07-02T21:30:59Z",
  "reading_started": "2015-07-02T21:30:54Z",
  "submitter": "FRIES"
}
