{
  "evidence": ["ezrin promotes angio/lymphangiogenic activity by regulating Stat3","Figure 5 Ezrin knockdown blocks Stat3","Our results suggest that ezrin promotes angio/lymphangiogenic activity by regulating Stat3 activation and expression of VEGF-A/-C and interleukin-6 (IL-6).","Representative western blots display pY705-Stat3, Stat3, and survivin (panel A) and VEGF-A/-C (panel B) levels in MDA-MB-231, MDASrc, and MDASrc shEZR lysates. \\u03b3-tubulin expression was used as loading control."],
  "extracted_information": {
    "interaction_type": "increases",
    "negative_information": false,
    "participant_a": {
      "entity_text": "ezrin",
      "entity_type": "protein",
      "identifier": "Uniprot:P15311",
      "in_model": false
    },
    "participant_b": {
      "entity_text": "Stat3",
      "entity_type": "protein",
      "identifier": "Uniprot:P40763",
      "in_model": true
    }
  },
  "fries_provenance": [
    {
      "cmu-sentence-epistemic-status": "implication",
      "cmu-sentence-epistemic-value": 0.6,
      "component": "MedScan",
      "frame-file": "PMC4303119.cmu.medscan",
      "frame-id": "relm-PMC4303119-cmu-medscan-486",
      "passage-id": "pass-PMC4303119-UAZ-r1-20",
      "passage-number": 20,
      "passage-section-id": "Sec1",
      "passage-section-name": "introduction",
      "sentence": "Our results suggest that ezrin promotes angio/lymphangiogenic activity by regulating Stat3 activation and expression of VEGF-A/-C and interleukin-6 (IL-6).",
      "text": "ezrin promotes angio/lymphangiogenic activity by regulating Stat3",
      "uaz-sentence": "Our results suggest that ezrin promotes angio and lymphangiogenic activity by regulating Stat3 activation and expression of VEGF-A / - C and interleukin-6 ( IL-6 ) .",
      "uaz-sentence-start": 1121
    },
    {
      "cmu-sentence-epistemic-status": "implication",
      "cmu-sentence-epistemic-value": 0.6,
      "component": "MedScan",
      "frame-file": "PMC4303119.cmu.medscan",
      "frame-id": "relm-PMC4303119-cmu-medscan-490",
      "passage-id": "pass-PMC4303119-UAZ-r1-76",
      "passage-number": 76,
      "passage-section-id": "Sec17",
      "passage-section-name": "N/A",
      "sentence": "Representative western blots display pY705-Stat3, Stat3, and survivin (panel A) and VEGF-A/-C (panel B) levels in MDA-MB-231, MDASrc, and MDASrc shEZR lysates. \\u03b3-tubulin expression was used as loading control.",
      "text": "Figure 5 Ezrin knockdown blocks Stat3",
      "uaz-sentence": "Representative western blots display pY705-Stat3 , Stat3 , and survivin ( panel A ) and VEGF-A / - C ( panel B ) levels in MDA231 , MDASrc , and MDASrc shEZR lysates .",
      "uaz-sentence-start": 1163
    }
  ],
  "model_relation": "extension",
  "pmc_id": "PMC4303119",
  "reader_type": "machine",
  "reading_complete": "2015-06-16T00:00:38Z",
  "reading_started": "2015-06-16T00:00:33Z",
  "submitter": "FRIES"
}
