{
  "evidence": ["Exogenous expression of DPYSL3 in Panc-1 cells promoted formation of larger focal adhesions (arrow heads) as compared with the vector control, supporting the notion that DPYSL3 is the regulatory molecule of cellular adhesion. (C and D) Acquisition of a motile phenotype in DPYSL3-expressing PANC-1 cells was clearly demonstrated by results of a motility assay (C) as well as those of a matrigel invasion assay (D).","focal adhesion as compared with the vector control, supporting the notion that DPYSL3","focal adhesions (arrow heads) as compared with the vector control, supporting the notion that DPYSL3","Since focal adhesion is known to regulate cell migration, we next investigated the role of DPYSL3 in pancreatic cancer cell migration and found acquisition of the enhanced motile phenotype in DPYSL3-introduced PANC-1 cells in vitro, as shown by a motility assay  as well as a matrigel invasion assay ."],
  "extracted_information": {
    "interaction_type": "increases",
    "negative_information": false,
    "participant_a": {
      "entity_text": "DPYSL3",
      "entity_type": "protein",
      "identifier": "Uniprot:Q14195",
      "in_model": false
    },
    "participant_b": {
      "entity_text": "focal adhesion",
      "entity_type": "complex",
      "identifier": "GO:0005925",
      "in_model": true
    }
  },
  "fries_provenance": [
    {
      "cmu-sentence-epistemic-status": "implication",
      "cmu-sentence-epistemic-value": 0.6,
      "component": "MedScan",
      "frame-file": "PMC3855176.cmu.medscan",
      "frame-id": "relm-PMC3855176-cmu-medscan-451",
      "passage-id": "pass-PMC3855176-UAZ-r1-31",
      "passage-number": 31,
      "passage-section-id": "s2.3",
      "passage-section-name": "N/A",
      "sentence": "Since focal adhesion is known to regulate cell migration, we next investigated the role of DPYSL3 in pancreatic cancer cell migration and found acquisition of the enhanced motile phenotype in DPYSL3-introduced PANC-1 cells in vitro, as shown by a motility assay  as well as a matrigel invasion assay .",
      "text": "focal adhesion as compared with the vector control, supporting the notion that DPYSL3",
      "uaz-sentence": "Since focal adhesion is known to regulate cell migration , we next investigated the role of DPYSL3 in pancreatic cancer cell migration and found acquisition of the enhanced motile phenotype in DPYSL3 introduced PANC-1 cells in vitro , as shown by a motility assay             as well as a matrigel invasion assay            .",
      "uaz-sentence-start": 783
    },
    {
      "component": "MedScan",
      "frame-file": "PMC3855176.cmu.medscan",
      "frame-id": "relm-PMC3855176-cmu-medscan-455",
      "sentence": "Exogenous expression of DPYSL3 in Panc-1 cells promoted formation of larger focal adhesions (arrow heads) as compared with the vector control, supporting the notion that DPYSL3 is the regulatory molecule of cellular adhesion. (C and D) Acquisition of a motile phenotype in DPYSL3-expressing PANC-1 cells was clearly demonstrated by results of a motility assay (C) as well as those of a matrigel invasion assay (D).",
      "text": "focal adhesions (arrow heads) as compared with the vector control, supporting the notion that DPYSL3"
    }
  ],
  "model_relation": "extension",
  "pmc_id": "PMC3855176",
  "reader_type": "machine",
  "reading_complete": "2015-06-15T23:36:16Z",
  "reading_started": "2015-06-15T23:36:11Z",
  "submitter": "FRIES"
}
