{
    "frames": [
        {
            "frame-id": "sent-PMC2360050-cmu-0", 
            "frame-type": "sentence", 
            "object-type": "frame", 
            "start-pos": {
                "object-type": "absolute-pos", 
                "offset": 0
            }, 
            "text": "XML Paper ( id '2360050 ' ) : 'Cyclooxygenase-2 inhibition : effects on tumour growth , cell cycling and lymphangiogenesis in a xenograft model of breast cancer '"
        }, 
        {
            "frame-id": "sent-PMC2360050-cmu-1", 
            "frame-type": "sentence", 
            "object-type": "frame", 
            "start-pos": {
                "object-type": "absolute-pos", 
                "offset": 1
            }, 
            "text": "Cyclooxygenase-2 ( COX-2 ) is overexpressed in approximately 70 % of cases of in situ and 60 % of invasive breast cancer ( Boland et al , 2004 ) ."
        }, 
        {
            "frame-id": "sent-PMC2360050-cmu-2", 
            "frame-type": "sentence", 
            "object-type": "frame", 
            "start-pos": {
                "object-type": "absolute-pos", 
                "offset": 2
            }, 
            "text": "The COX genes encode for enzymes that catalyse the rate-limiting step of conversion from arachidonic acid to prostaglandins ."
        }, 
        {
            "frame-id": "sent-PMC2360050-cmu-3", 
            "frame-type": "sentence", 
            "object-type": "frame", 
            "start-pos": {
                "object-type": "absolute-pos", 
                "offset": 3
            }, 
            "text": "Two main isoforms , COX-1 and COX-2 , were first demonstrated in the early 1990s ( Fu et al , 1990 ; Xie et al , 1991 ) ."
        }, 
        {
            "frame-id": "sent-PMC2360050-cmu-4", 
            "frame-type": "sentence", 
            "object-type": "frame", 
            "start-pos": {
                "object-type": "absolute-pos", 
                "offset": 4
            }, 
            "text": "Cyclooxygenase-1 is constitutively expressed in most tissues , and is responsible for physiological housekeeping functions such as gastric cytoprotection , regulation of renal blood flow and platelet aggregation ( Smith et al , 2000 ) ."
        }, 
        {
            "frame-id": "sent-PMC2360050-cmu-5", 
            "frame-type": "sentence", 
            "object-type": "frame", 
            "start-pos": {
                "object-type": "absolute-pos", 
                "offset": 5
            }, 
            "text": "Cyclooxygenase-2 is an inducible isoform , and is expressed by cells involved in the inflammatory process ( Subbaramaiah et al , 1996 ; Smith et al , 2000 ) ( i.e ."
        }, 
        {
            "frame-id": "sent-PMC2360050-cmu-6", 
            "frame-type": "sentence", 
            "object-type": "frame", 
            "start-pos": {
                "object-type": "absolute-pos", 
                "offset": 6
            }, 
            "text": "macrophages , monocytes , synoviocytes ) and also in a wide variety of solid epithelial tumours ( Gasparini et al , 2003 ) ."
        }, 
        {
            "frame-id": "sent-PMC2360050-cmu-7", 
            "frame-type": "sentence", 
            "object-type": "frame", 
            "start-pos": {
                "object-type": "absolute-pos", 
                "offset": 7
            }, 
            "text": "The increased expression of COX-2 in tumourigenesis is secondary to multiple activations and as a response to growth factors and oncogenes , including those in the EGFR/HER2/RAS/MAP kinase pathway ."
        }, 
        {
            "frame-id": "sent-PMC2360050-cmu-8", 
            "frame-type": "sentence", 
            "object-type": "frame", 
            "start-pos": {
                "object-type": "absolute-pos", 
                "offset": 8
            }, 
            "text": "This latter pathway is of particular interest in breast cancer as HER2 is often upregulated in both invasive and in situ disease and is associated with poor prognosis tumours ( Slamon et al , 1987 ; Sposto and Silverstein , 2002 ) ."
        }, 
        {
            "frame-id": "sent-PMC2360050-cmu-9", 
            "frame-type": "sentence", 
            "object-type": "frame", 
            "start-pos": {
                "object-type": "absolute-pos", 
                "offset": 9
            }, 
            "text": "Conversely , COX-2 is rarely expressed in normal tissue ( unless in proximity to an area of neoplasia or inflammation ) ."
        }, 
        {
            "frame-id": "sent-PMC2360050-cmu-10", 
            "frame-type": "sentence", 
            "object-type": "frame", 
            "start-pos": {
                "object-type": "absolute-pos", 
                "offset": 10
            }, 
            "text": "When COX-2 is expressed in normal tissue , it has been found in a subpopulation of normal breast cells with silenced p16ink4a ( which have been postulated as precursors of breast cancer ) ( Crawford et al , 2004 ) ."
        }, 
        {
            "frame-id": "sent-PMC2360050-cmu-11", 
            "frame-type": "sentence", 
            "object-type": "frame", 
            "start-pos": {
                "object-type": "absolute-pos", 
                "offset": 11
            }, 
            "text": "Studies of transgenic mice engineered to overexpress COX-2 have shown that these mice form mammary tumours earlier and more often than wild-type mice , their mammary glands contain fewer apoptotic cells and show reduced expression of the proapoptotic proteins BAX and BCl-x ( L ) ( Liu et al , 2001 ) ."
        }, 
        {
            "frame-id": "sent-PMC2360050-cmu-12", 
            "frame-type": "sentence", 
            "object-type": "frame", 
            "start-pos": {
                "object-type": "absolute-pos", 
                "offset": 12
            }, 
            "text": "Elevated COX-2 expression leads to increased tumour recurrence and decreased survival in invasive breast cancer ( Crawford et al , 2004 ) ."
        }, 
        {
            "frame-id": "sent-PMC2360050-cmu-13", 
            "frame-type": "sentence", 
            "object-type": "frame", 
            "start-pos": {
                "object-type": "absolute-pos", 
                "offset": 13
            }, 
            "text": "The recent publication of the Women 's Health Initiative results ( Harris et al , 2003 ) suggest that the regular use of nonsteroidal anti-inflammatory drugs ( NSAIDs ) has a significant chemo-preventative effect against developing breast cancer , with a 28 % reduction ( relative risk 0.72 , 95 % CI 0.56\u20130.91 ) with regular NSAID use for 10 years or more ."
        }, 
        {
            "frame-id": "sent-PMC2360050-cmu-14", 
            "frame-type": "sentence", 
            "object-type": "frame", 
            "start-pos": {
                "object-type": "absolute-pos", 
                "offset": 14
            }, 
            "text": "Previous studies have shown significant decreases in various solid tumour growths following the administration of COX-2 inhibitors ( Connolly et al , 2002 ; Howe et al , 2002 ) , although there is still a need to clarify the mechanism of action in breast cancer and identify surrogate markers of effect ."
        }, 
        {
            "frame-id": "sent-PMC2360050-cmu-15", 
            "frame-type": "sentence", 
            "object-type": "frame", 
            "start-pos": {
                "object-type": "absolute-pos", 
                "offset": 15
            }, 
            "text": "The aims of this study were to use a xenograft model of breast cancer to confirm the effect of COX-2 inhibition on tumour growth in vivo , and to subsequently determine the mechanism of action , by studying expression of markers of cell proliferation ( Ki67 and p21cip1 ) , apoptosis ( TUNEL ) and AKT activation ."
        }, 
        {
            "frame-id": "sent-PMC2360050-cmu-16", 
            "frame-type": "sentence", 
            "object-type": "frame", 
            "start-pos": {
                "object-type": "absolute-pos", 
                "offset": 16
            }, 
            "text": "We also aimed to determine whether Celecoxib perturbed the production of the new lymphatic vessels ( lymphangiogenesis ) ."
        }, 
        {
            "frame-id": "sent-PMC2360050-cmu-17", 
            "frame-type": "sentence", 
            "object-type": "frame", 
            "start-pos": {
                "object-type": "absolute-pos", 
                "offset": 17
            }, 
            "text": "It has recently been demonstrated that expression of the lymphangiogenic factor VEGF-C is significantly elevated in cells overexpressing COX-2 ( Su et al , 2004 ) ."
        }, 
        {
            "frame-id": "sent-PMC2360050-cmu-18", 
            "frame-type": "sentence", 
            "object-type": "frame", 
            "start-pos": {
                "object-type": "absolute-pos", 
                "offset": 18
            }, 
            "text": "The production of new lymphatic vessels by the tumour is a key step in the promotion of cancer metastasis and COX-2 inhibitors have been shown to have antimetastatic activity in a metastatic mouse model ( Roche-Nagle et al , 2004 ) ."
        }, 
        {
            "frame-id": "sent-PMC2360050-cmu-19", 
            "frame-type": "sentence", 
            "object-type": "frame", 
            "start-pos": {
                "object-type": "absolute-pos", 
                "offset": 19
            }, 
            "text": "In addition , markers of tumour endothelial cell formation have been shown to correlate with prognosis in breast cancer ( Davies et al , 2004 ) ."
        }, 
        {
            "frame-id": "sent-PMC2360050-cmu-20", 
            "frame-type": "sentence", 
            "object-type": "frame", 
            "start-pos": {
                "object-type": "absolute-pos", 
                "offset": 20
            }, 
            "text": "In this paper , we used podoplanin , a marker of lymphatic endothelial cells to demonstrate changes in lymphangiogenesis following treatment with Celecoxib in our xenograft model ."
        }, 
        {
            "frame-id": "sent-PMC2360050-cmu-21", 
            "frame-type": "sentence", 
            "object-type": "frame", 
            "start-pos": {
                "object-type": "absolute-pos", 
                "offset": 21
            }, 
            "text": "MATERIALS AND METHODS"
        }, 
        {
            "frame-id": "sent-PMC2360050-cmu-22", 
            "frame-type": "sentence", 
            "object-type": "frame", 
            "start-pos": {
                "object-type": "absolute-pos", 
                "offset": 22
            }, 
            "text": "Tumour cell lines"
        }, 
        {
            "frame-id": "sent-PMC2360050-cmu-23", 
            "frame-type": "sentence", 
            "object-type": "frame", 
            "start-pos": {
                "object-type": "absolute-pos", 
                "offset": 23
            }, 
            "text": "One oestrogen receptor ( ER ) -positive and one ER-negative breast cancer cell line were chosen for study ."
        }, 
        {
            "frame-id": "sent-PMC2360050-cmu-24", 
            "frame-type": "sentence", 
            "object-type": "frame", 
            "start-pos": {
                "object-type": "absolute-pos", 
                "offset": 24
            }, 
            "text": "MCF7/HER2-18 , is an ER-positive MCF7 cell line which had been stably transfected with HER2 ( EGFR negative /HER2 positive/ER positive ) , a gift from Professor CC Benz , University of California San Francisco , and MDAMB231 is an ER-negative breast cancer cell line which is EGFR positive /HER2 negative ."
        }, 
        {
            "frame-id": "sent-PMC2360050-cmu-25", 
            "frame-type": "sentence", 
            "object-type": "frame", 
            "start-pos": {
                "object-type": "absolute-pos", 
                "offset": 25
            }, 
            "text": "All cells were routinely maintained in Dulbecco 's Modified Eagle Medium with 10 % foetal calf serum , 2 mM glutamine , 100 U penicillin and 100 \u03bcg streptomycin per 500 ml ."
        }, 
        {
            "frame-id": "sent-PMC2360050-cmu-26", 
            "frame-type": "sentence", 
            "object-type": "frame", 
            "start-pos": {
                "object-type": "absolute-pos", 
                "offset": 26
            }, 
            "text": "The cells were incubated at 37\u00b0C in a humidified environment and passaged at near confluence ."
        }, 
        {
            "frame-id": "sent-PMC2360050-cmu-27", 
            "frame-type": "sentence", 
            "object-type": "frame", 
            "start-pos": {
                "object-type": "absolute-pos", 
                "offset": 27
            }, 
            "text": "Nude mouse xenograft model"
        }, 
        {
            "frame-id": "sent-PMC2360050-cmu-28", 
            "frame-type": "sentence", 
            "object-type": "frame", 
            "start-pos": {
                "object-type": "absolute-pos", 
                "offset": 28
            }, 
            "text": "The experimental design followed a well-established female nude mouse model from our department ( Gandhi et al , 2000 ; Chan et al , 2002 ) ."
        }, 
        {
            "frame-id": "sent-PMC2360050-cmu-29", 
            "frame-type": "sentence", 
            "object-type": "frame", 
            "start-pos": {
                "object-type": "absolute-pos", 
                "offset": 29
            }, 
            "text": "Following ethical approval , 2\u20134 million cells were injected into each flank of female BLAB/c nu/nu mice , aged 6\u20138 weeks , and allowed to form tumours ."
        }, 
        {
            "frame-id": "sent-PMC2360050-cmu-30", 
            "frame-type": "sentence", 
            "object-type": "frame", 
            "start-pos": {
                "object-type": "absolute-pos", 
                "offset": 30
            }, 
            "text": "The tumours were measured with callipers twice weekly ( length \u00d7 width ) and the mice weighed ."
        }, 
        {
            "frame-id": "sent-PMC2360050-cmu-31", 
            "frame-type": "sentence", 
            "object-type": "frame", 
            "start-pos": {
                "object-type": "absolute-pos", 
                "offset": 31
            }, 
            "text": "The mice had free access to feed , water and bedding at all time , and were housed with a 12 h light/dark cycle in filter top cages , maximum six mice per cage ."
        }, 
        {
            "frame-id": "sent-PMC2360050-cmu-32", 
            "frame-type": "sentence", 
            "object-type": "frame", 
            "start-pos": {
                "object-type": "absolute-pos", 
                "offset": 32
            }, 
            "text": "Tumour volumes ( mm3 ) were calculated by the formula length \u00d7 length \u00d7 ( width/2 ) ."
        }, 
        {
            "frame-id": "sent-PMC2360050-cmu-33", 
            "frame-type": "sentence", 
            "object-type": "frame", 
            "start-pos": {
                "object-type": "absolute-pos", 
                "offset": 33
            }, 
            "text": "When > 75 % of the tumours were palpable the mice were randomised to receive either chow containing 0.15 % Celecoxib ( Celecoxib donated from Pfizer/chow constituted at Purina Mills , USA ) or control chow ."
        }, 
        {
            "frame-id": "sent-PMC2360050-cmu-34", 
            "frame-type": "sentence", 
            "object-type": "frame", 
            "start-pos": {
                "object-type": "absolute-pos", 
                "offset": 34
            }, 
            "text": "The tumours continued to be measured and the mice weighed twice weekly ."
        }, 
        {
            "frame-id": "sent-PMC2360050-cmu-35", 
            "frame-type": "sentence", 
            "object-type": "frame", 
            "start-pos": {
                "object-type": "absolute-pos", 
                "offset": 35
            }, 
            "text": "When tumours in either group reached 1 cm3 , the experiment was ended in accordance with UK Home Office guidelines and the tumours were harvested ."
        }, 
        {
            "frame-id": "sent-PMC2360050-cmu-36", 
            "frame-type": "sentence", 
            "object-type": "frame", 
            "start-pos": {
                "object-type": "absolute-pos", 
                "offset": 36
            }, 
            "text": "The tumours were then split , with half fixed in 4 % formalin and embedded in paraffin blocks for immunohistochemistry ( IHC ) , and the remainder snap frozen in liquid nitrogen ."
        }, 
        {
            "frame-id": "sent-PMC2360050-cmu-37", 
            "frame-type": "sentence", 
            "object-type": "frame", 
            "start-pos": {
                "object-type": "absolute-pos", 
                "offset": 37
            }, 
            "text": "Immunohistochemistry"
        }, 
        {
            "frame-id": "sent-PMC2360050-cmu-38", 
            "frame-type": "sentence", 
            "object-type": "frame", 
            "start-pos": {
                "object-type": "absolute-pos", 
                "offset": 38
            }, 
            "text": "Three micron sections of the paraffin blocks were cut onto APES-coated slides ."
        }, 
        {
            "frame-id": "sent-PMC2360050-cmu-39", 
            "frame-type": "sentence", 
            "object-type": "frame", 
            "start-pos": {
                "object-type": "absolute-pos", 
                "offset": 39
            }, 
            "text": "The slides were dewaxed in xylene and rehydrated through graded alcohols to PBS ."
        }, 
        {
            "frame-id": "sent-PMC2360050-cmu-40", 
            "frame-type": "sentence", 
            "object-type": "frame", 
            "start-pos": {
                "object-type": "absolute-pos", 
                "offset": 40
            }, 
            "text": "Staining for COX-2 and Ki67 ( Boland et al , 2004 ) was as described previously ."
        }, 
        {
            "frame-id": "sent-PMC2360050-cmu-41", 
            "frame-type": "sentence", 
            "object-type": "frame", 
            "start-pos": {
                "object-type": "absolute-pos", 
                "offset": 41
            }, 
            "text": "All incubations were carried out at room temperature unless otherwise stated ."
        }, 
        {
            "frame-id": "sent-PMC2360050-cmu-42", 
            "frame-type": "sentence", 
            "object-type": "frame", 
            "start-pos": {
                "object-type": "absolute-pos", 
                "offset": 42
            }, 
            "text": "For p21 , pAktser473 and podoplanin , endogenous peroxidase activity was blocked by immersing slides in 0.2 % H2O2 in methanol for 10 min ."
        }, 
        {
            "frame-id": "sent-PMC2360050-cmu-43", 
            "frame-type": "sentence", 
            "object-type": "frame", 
            "start-pos": {
                "object-type": "absolute-pos", 
                "offset": 43
            }, 
            "text": "At TUNEL staining , sections were treated with proteinase K for 15 min before quenching endogenous peroxidase activity ."
        }, 
        {
            "frame-id": "sent-PMC2360050-cmu-44", 
            "frame-type": "sentence", 
            "object-type": "frame", 
            "start-pos": {
                "object-type": "absolute-pos", 
                "offset": 44
            }, 
            "text": "Antigen retrieval was performed by immersing slides in citrate buffer ( pH 6 ) , in a pressure cooker for p21 ( 120 s ) , pAktser473 ( 100 s ) and podoplanin ( 120 s ) ."
        }, 
        {
            "frame-id": "sent-PMC2360050-cmu-45", 
            "frame-type": "sentence", 
            "object-type": "frame", 
            "start-pos": {
                "object-type": "absolute-pos", 
                "offset": 45
            }, 
            "text": "TUNEL"
        }, 
        {
            "frame-id": "sent-PMC2360050-cmu-46", 
            "frame-type": "sentence", 
            "object-type": "frame", 
            "start-pos": {
                "object-type": "absolute-pos", 
                "offset": 46
            }, 
            "text": "Sections were incubated in equilibration buffer ( Apoptag Kit , Intergen , Norcross , GA , USA ) for 1 h. Then working strength TdT enzyme was applied to the sections , which were incubated for 1 h at 37\u00b0C ."
        }, 
        {
            "frame-id": "sent-PMC2360050-cmu-47", 
            "frame-type": "sentence", 
            "object-type": "frame", 
            "start-pos": {
                "object-type": "absolute-pos", 
                "offset": 47
            }, 
            "text": "Immersing the sections in working strength stop buffer for 10 min halted the reaction ."
        }, 
        {
            "frame-id": "sent-PMC2360050-cmu-48", 
            "frame-type": "sentence", 
            "object-type": "frame", 
            "start-pos": {
                "object-type": "absolute-pos", 
                "offset": 48
            }, 
            "text": "Following washing in PBS , the sections were incubated with anti-digoxigenin conjugate for 30 min ."
        }, 
        {
            "frame-id": "sent-PMC2360050-cmu-49", 
            "frame-type": "sentence", 
            "object-type": "frame", 
            "start-pos": {
                "object-type": "absolute-pos", 
                "offset": 49
            }, 
            "text": "p21cip1"
        }, 
        {
            "frame-id": "sent-PMC2360050-cmu-50", 
            "frame-type": "sentence", 
            "object-type": "frame", 
            "start-pos": {
                "object-type": "absolute-pos", 
                "offset": 50
            }, 
            "text": "Sections were incubated with the Mouse-on-Mouse ( MOM ) kit blocking solution with avidin for 1 h. Following washing in PBS , the sections were incubated for 5 min with the working solution of MOM dilutent for 5 min , and then incubated with the primary mouse anti-p21 antibody ( DAKO M7202 mouse monoclonal ) 1 : 25 made up in MOM dilutent with biotin for 60 min ."
        }, 
        {
            "frame-id": "sent-PMC2360050-cmu-51", 
            "frame-type": "sentence", 
            "object-type": "frame", 
            "start-pos": {
                "object-type": "absolute-pos", 
                "offset": 51
            }, 
            "text": "Following washing in PBS , sections were incubated with working MOM kit biotinylated anti-mouse IgG for 30 min ."
        }, 
        {
            "frame-id": "sent-PMC2360050-cmu-52", 
            "frame-type": "sentence", 
            "object-type": "frame", 
            "start-pos": {
                "object-type": "absolute-pos", 
                "offset": 52
            }, 
            "text": "Phosphorylated Aktser473"
        }, 
        {
            "frame-id": "sent-PMC2360050-cmu-53", 
            "frame-type": "sentence", 
            "object-type": "frame", 
            "start-pos": {
                "object-type": "absolute-pos", 
                "offset": 53
            }, 
            "text": "Nonspecific binding was blocked with 10 % normal goat serum in PBS with avidin for 15 min ."
        }, 
        {
            "frame-id": "sent-PMC2360050-cmu-54", 
            "frame-type": "sentence", 
            "object-type": "frame", 
            "start-pos": {
                "object-type": "absolute-pos", 
                "offset": 54
            }, 
            "text": "The sections were then incubated with the primary phosphor-AKT/PKBser473 antibody ( rabbit polyclonal , Cell Signalling Technology , Danvers , MA , USA , # 9277 ) 1 : 30 in 10 % normal goat serum with biotin for 2 h , then with the biotinylated goat anti-rabbit secondary 1 : 200 ( Vector BA1000 ) in 10 % normal goat serum for 1 h ."
        }, 
        {
            "frame-id": "sent-PMC2360050-cmu-55", 
            "frame-type": "sentence", 
            "object-type": "frame", 
            "start-pos": {
                "object-type": "absolute-pos", 
                "offset": 55
            }, 
            "text": "Podoplanin"
        }, 
        {
            "frame-id": "sent-PMC2360050-cmu-56", 
            "frame-type": "sentence", 
            "object-type": "frame", 
            "start-pos": {
                "object-type": "absolute-pos", 
                "offset": 56
            }, 
            "text": "Nonspecific binding was blocked by incubating slides in 10 % normal rabbit serum in PBS with avidin for 30 min , the slides were then incubated with the primary monoclonal antibody to podoplanin ( ab11936 , AbCam ) 1 : 500 made up in 10 % normal rabbit in PBS with biotin for 2 h. After washing in PBS , the biotinylated rabbit anti-hamster secondary was added ( 1 : 500 ab6782 AbCam ) for 1 h ."
        }, 
        {
            "frame-id": "sent-PMC2360050-cmu-57", 
            "frame-type": "sentence", 
            "object-type": "frame", 
            "start-pos": {
                "object-type": "absolute-pos", 
                "offset": 57
            }, 
            "text": "For p21 , pAktser473 , and podoplanin , following the secondary antibody , sections were incubated with Vectastain Elite ABC reagent ( Vector , Peterborough , UK ) for 30 min ."
        }, 
        {
            "frame-id": "sent-PMC2360050-cmu-58", 
            "frame-type": "sentence", 
            "object-type": "frame", 
            "start-pos": {
                "object-type": "absolute-pos", 
                "offset": 58
            }, 
            "text": "All stainings were visualised with DAB , counter-stained with haematoxylin , slides then dehydrated , cleared and mounted ."
        }, 
        {
            "frame-id": "sent-PMC2360050-cmu-59", 
            "frame-type": "sentence", 
            "object-type": "frame", 
            "start-pos": {
                "object-type": "absolute-pos", 
                "offset": 59
            }, 
            "text": "IHC scoring"
        }, 
        {
            "frame-id": "sent-PMC2360050-cmu-60", 
            "frame-type": "sentence", 
            "object-type": "frame", 
            "start-pos": {
                "object-type": "absolute-pos", 
                "offset": 60
            }, 
            "text": "All scorings were carried out blind to the treatment group ."
        }, 
        {
            "frame-id": "sent-PMC2360050-cmu-61", 
            "frame-type": "sentence", 
            "object-type": "frame", 
            "start-pos": {
                "object-type": "absolute-pos", 
                "offset": 61
            }, 
            "text": "For Ki67 , p21cip1 and pAktser473 , the percentage of positive nuclei out of at least 1000 counted , was determined over representative tumour areas ."
        }, 
        {
            "frame-id": "sent-PMC2360050-cmu-62", 
            "frame-type": "sentence", 
            "object-type": "frame", 
            "start-pos": {
                "object-type": "absolute-pos", 
                "offset": 62
            }, 
            "text": "At least 3000 cells were counted when determining the TUNEL score , as there were few apoptotic cells in each specimen ."
        }, 
        {
            "frame-id": "sent-PMC2360050-cmu-63", 
            "frame-type": "sentence", 
            "object-type": "frame", 
            "start-pos": {
                "object-type": "absolute-pos", 
                "offset": 63
            }, 
            "text": "Reproducibility and accuracy of the scoring was ensured by repeat scoring and multiple observer scoring of the initial samples ."
        }, 
        {
            "frame-id": "sent-PMC2360050-cmu-64", 
            "frame-type": "sentence", 
            "object-type": "frame", 
            "start-pos": {
                "object-type": "absolute-pos", 
                "offset": 64
            }, 
            "text": "For pAktser473 the cytoplasmic staining intensities were scored on a rating 0\u20133+ ."
        }, 
        {
            "frame-id": "sent-PMC2360050-cmu-65", 
            "frame-type": "sentence", 
            "object-type": "frame", 
            "start-pos": {
                "object-type": "absolute-pos", 
                "offset": 65
            }, 
            "text": "The COX-2 cytoplasmic staining was scored on both the percentage of positive cells and the staining intensity for the MCF7/HER2-18 ."
        }, 
        {
            "frame-id": "sent-PMC2360050-cmu-66", 
            "frame-type": "sentence", 
            "object-type": "frame", 
            "start-pos": {
                "object-type": "absolute-pos", 
                "offset": 66
            }, 
            "text": "The grading of intensity for each section was determined following reference to sections taken to be representative for each grade of intensity ; 0=no staining , 1=mild staining , 2=moderate staining , 3=strong , 4=very strong ."
        }, 
        {
            "frame-id": "sent-PMC2360050-cmu-67", 
            "frame-type": "sentence", 
            "object-type": "frame", 
            "start-pos": {
                "object-type": "absolute-pos", 
                "offset": 67
            }, 
            "text": "At least 1000 cells were also counted for each section , and the percentage of positively staining cells determined , and assigned a numerical score ; 1=no staining , 2= < 10 % , 3=11\u201350 % , 4\u2a7e50 % ."
        }, 
        {
            "frame-id": "sent-PMC2360050-cmu-68", 
            "frame-type": "sentence", 
            "object-type": "frame", 
            "start-pos": {
                "object-type": "absolute-pos", 
                "offset": 68
            }, 
            "text": "It was considered inappropriate to use the intensity score for the MDAMB231 cells , as COX-2 expression was localised to cytoplasmic vesicles , and there was no discernable difference in intensity ."
        }, 
        {
            "frame-id": "sent-PMC2360050-cmu-69", 
            "frame-type": "sentence", 
            "object-type": "frame", 
            "start-pos": {
                "object-type": "absolute-pos", 
                "offset": 69
            }, 
            "text": "Scoring was therefore calculated from the proportion of cells containing cytoplasmic vesicles ."
        }, 
        {
            "frame-id": "sent-PMC2360050-cmu-70", 
            "frame-type": "sentence", 
            "object-type": "frame", 
            "start-pos": {
                "object-type": "absolute-pos", 
                "offset": 70
            }, 
            "text": "All scorings were carried out using a light microscope , grid graticule and cell counter at \u00d7 400 magnification ."
        }, 
        {
            "frame-id": "sent-PMC2360050-cmu-71", 
            "frame-type": "sentence", 
            "object-type": "frame", 
            "start-pos": {
                "object-type": "absolute-pos", 
                "offset": 71
            }, 
            "text": "For podoplanin , vessel density was calculated using a Chalkley point graticule ."
        }, 
        {
            "frame-id": "sent-PMC2360050-cmu-72", 
            "frame-type": "sentence", 
            "object-type": "frame", 
            "start-pos": {
                "object-type": "absolute-pos", 
                "offset": 72
            }, 
            "text": "Scoring was taken as the median number of vessels crossing the points , from six separate fields of high vessel density , at \u00d7 400 magnification ."
        }, 
        {
            "frame-id": "sent-PMC2360050-cmu-73", 
            "frame-type": "sentence", 
            "object-type": "frame", 
            "start-pos": {
                "object-type": "absolute-pos", 
                "offset": 73
            }, 
            "text": "Western blotting"
        }, 
        {
            "frame-id": "sent-PMC2360050-cmu-74", 
            "frame-type": "sentence", 
            "object-type": "frame", 
            "start-pos": {
                "object-type": "absolute-pos", 
                "offset": 74
            }, 
            "text": "Snap frozen tumour samples were utilised for Western blotting ."
        }, 
        {
            "frame-id": "sent-PMC2360050-cmu-75", 
            "frame-type": "sentence", 
            "object-type": "frame", 
            "start-pos": {
                "object-type": "absolute-pos", 
                "offset": 75
            }, 
            "text": "Crushing the tissue samples in liquid nitrogen created tumour powder ."
        }, 
        {
            "frame-id": "sent-PMC2360050-cmu-76", 
            "frame-type": "sentence", 
            "object-type": "frame", 
            "start-pos": {
                "object-type": "absolute-pos", 
                "offset": 76
            }, 
            "text": "Lysis buffer was then added to create cell lysates , which were left on ice for 40 min before centrifugation ( at 13 000 r.p.m ."
        }, 
        {
            "frame-id": "sent-PMC2360050-cmu-77", 
            "frame-type": "sentence", 
            "object-type": "frame", 
            "start-pos": {
                "object-type": "absolute-pos", 
                "offset": 77
            }, 
            "text": "for 10 min at 4\u00b0C ) and protein estimation ( using the Biorad protein assay solution and a GeneQuant pro machine ) ."
        }, 
        {
            "frame-id": "sent-PMC2360050-cmu-78", 
            "frame-type": "sentence", 
            "object-type": "frame", 
            "start-pos": {
                "object-type": "absolute-pos", 
                "offset": 78
            }, 
            "text": "Following the addition of sample buffer to the lysates , 50 \u03bcg of protein was resolved onto SDS gel and transferred to Hybond membranes using a TRIS/glycine/SDS electrode tank buffer , run overnight ."
        }, 
        {
            "frame-id": "sent-PMC2360050-cmu-79", 
            "frame-type": "sentence", 
            "object-type": "frame", 
            "start-pos": {
                "object-type": "absolute-pos", 
                "offset": 79
            }, 
            "text": "Membranes were blocked with 5 % skimmed milk\u2013TBS-Tween for 1 h and then probed with the primary antibodies ; pPKB/pAKTser473 ( 1 : 1000 # 9271 Cell Signaling Technology ) and then total PKB/AKT ( 1 : 1000 # 9272 Cell Signaling Technology ) as a loading control ."
        }, 
        {
            "frame-id": "sent-PMC2360050-cmu-80", 
            "frame-type": "sentence", 
            "object-type": "frame", 
            "start-pos": {
                "object-type": "absolute-pos", 
                "offset": 80
            }, 
            "text": "After washing in TBS-Tween , the membranes were incubated with a donkey anti-rabbit HRP-linked secondary antibody ( 1 : 1000 Amersham Biosciences NA934V , Piscataway , NJ , USA ) for 1 h. Following thorough washing in TBS-Tween for 6 \u00d7 10 min , the level of specific protein was visualised by chemiluminescence ( Supersignal West Dura extended duration substrate ; Pierce Biotechnology , Rockford , IL , USA ) ."
        }, 
        {
            "frame-id": "sent-PMC2360050-cmu-81", 
            "frame-type": "sentence", 
            "object-type": "frame", 
            "start-pos": {
                "object-type": "absolute-pos", 
                "offset": 81
            }, 
            "text": "Both total PKB/AKT and pPKB/AKTser473 bring up single bands of 60 kDa ."
        }, 
        {
            "frame-id": "sent-PMC2360050-cmu-82", 
            "frame-type": "sentence", 
            "object-type": "frame", 
            "start-pos": {
                "object-type": "absolute-pos", 
                "offset": 82
            }, 
            "text": "Quantification of protein levels was estimated at subsequent densitometry using GeneTools from Syngene version 3.05 ."
        }, 
        {
            "frame-id": "sent-PMC2360050-cmu-83", 
            "frame-type": "sentence", 
            "object-type": "frame", 
            "start-pos": {
                "object-type": "absolute-pos", 
                "offset": 83
            }, 
            "text": "Q-RT-PCR"
        }, 
        {
            "frame-id": "sent-PMC2360050-cmu-84", 
            "frame-type": "sentence", 
            "object-type": "frame", 
            "start-pos": {
                "object-type": "absolute-pos", 
                "offset": 84
            }, 
            "text": "The assessment of lymphangiogenesis ( podoplanin ) and angiogenesis ( CD31 ) was determined by quantitative PCR utilising snap-frozen tumour samples , which were stored in liquid nitrogen until use ."
        }, 
        {
            "frame-id": "sent-PMC2360050-cmu-85", 
            "frame-type": "sentence", 
            "object-type": "frame", 
            "start-pos": {
                "object-type": "absolute-pos", 
                "offset": 85
            }, 
            "text": "Samples were homogenised to extract RNA using RNA-Zol reagent ( Abgene homogenisation kit , Epsom , UK ) as per manufacturer 's instructions ."
        }, 
        {
            "frame-id": "sent-PMC2360050-cmu-86", 
            "frame-type": "sentence", 
            "object-type": "frame", 
            "start-pos": {
                "object-type": "absolute-pos", 
                "offset": 86
            }, 
            "text": "cDNA was subsequently generated from 1 \u03bcg of RNA using the Enhanced Avian Reverse Transcriptase kit ( Abgene , UK ) ."
        }, 
        {
            "frame-id": "sent-PMC2360050-cmu-87", 
            "frame-type": "sentence", 
            "object-type": "frame", 
            "start-pos": {
                "object-type": "absolute-pos", 
                "offset": 87
            }, 
            "text": "Levels of podoplanin and CD31 transcripts were estimated using the Ampliflour Uni Primer detection kit ( Intergen , UK ) and 2 \u00d7 Q-PCR master mix according to manufacturers instructions ."
        }, 
        {
            "frame-id": "sent-PMC2360050-cmu-88", 
            "frame-type": "sentence", 
            "object-type": "frame", 
            "start-pos": {
                "object-type": "absolute-pos", 
                "offset": 88
            }, 
            "text": "Quantification was carried out using the iCycler iQ\u2122 ( Bio-Rad , Hemel Hempstead , UK ) ."
        }, 
        {
            "frame-id": "sent-PMC2360050-cmu-89", 
            "frame-type": "sentence", 
            "object-type": "frame", 
            "start-pos": {
                "object-type": "absolute-pos", 
                "offset": 89
            }, 
            "text": "Detection of the fluorescence was carried out during the annealing step ."
        }, 
        {
            "frame-id": "sent-PMC2360050-cmu-90", 
            "frame-type": "sentence", 
            "object-type": "frame", 
            "start-pos": {
                "object-type": "absolute-pos", 
                "offset": 90
            }, 
            "text": "Copy numbers for podoplanin and CD31 expression in the samples were determined from in-house standard curves ."
        }, 
        {
            "frame-id": "sent-PMC2360050-cmu-91", 
            "frame-type": "sentence", 
            "object-type": "frame", 
            "start-pos": {
                "object-type": "absolute-pos", 
                "offset": 91
            }, 
            "text": "Statistical analysis"
        }, 
        {
            "frame-id": "sent-PMC2360050-cmu-92", 
            "frame-type": "sentence", 
            "object-type": "frame", 
            "start-pos": {
                "object-type": "absolute-pos", 
                "offset": 92
            }, 
            "text": "Statistical analysis was performed using the Stats Direct statistical software package and the Mann\u2013Whitney U test for continuous variables ."
        }, 
        {
            "frame-id": "sent-PMC2360050-cmu-93", 
            "frame-type": "sentence", 
            "object-type": "frame", 
            "start-pos": {
                "object-type": "absolute-pos", 
                "offset": 93
            }, 
            "text": "All tests were two-tailed with a 5 % significance level used throughout ."
        }, 
        {
            "frame-id": "sent-PMC2360050-cmu-94", 
            "frame-type": "sentence", 
            "object-type": "frame", 
            "start-pos": {
                "object-type": "absolute-pos", 
                "offset": 94
            }, 
            "text": "RESULTS"
        }, 
        {
            "frame-id": "sent-PMC2360050-cmu-95", 
            "frame-type": "sentence", 
            "object-type": "frame", 
            "start-pos": {
                "object-type": "absolute-pos", 
                "offset": 95
            }, 
            "text": "Tumour growth"
        }, 
        {
            "frame-id": "sent-PMC2360050-cmu-96", 
            "frame-type": "sentence", 
            "object-type": "frame", 
            "start-pos": {
                "object-type": "absolute-pos", 
                "offset": 96
            }, 
            "text": "There was decreased tumour growth following Celecoxib treatment in both the MCF7/HER2-18 ( P=0 ."
        }, 
        {
            "frame-id": "sent-PMC2360050-cmu-97", 
            "frame-type": "sentence", 
            "object-type": "frame", 
            "start-pos": {
                "object-type": "absolute-pos", 
                "offset": 97
            }, 
            "text": "029 ) and MDAMB231 breast cancer cell lines ( P=0.0003 ) ( Table 1 ) ."
        }, 
        {
            "frame-id": "sent-PMC2360050-cmu-98", 
            "frame-type": "sentence", 
            "object-type": "frame", 
            "start-pos": {
                "object-type": "absolute-pos", 
                "offset": 98
            }, 
            "text": "These results represent the median values from a total of 43 controls and 41 treated tumours in the MCF7/HER2-18 cell line and 19 controls and 20 treated tumours in the MDAMB231 cell line ."
        }, 
        {
            "frame-id": "sent-PMC2360050-cmu-99", 
            "frame-type": "sentence", 
            "object-type": "frame", 
            "start-pos": {
                "object-type": "absolute-pos", 
                "offset": 99
            }, 
            "text": "The median tumour growth inhibition ( TGI ) was calculated by comparing the median control growth to the individual treated tumour growth as shown by the equation:"
        }, 
        {
            "frame-id": "sent-PMC2360050-cmu-100", 
            "frame-type": "sentence", 
            "object-type": "frame", 
            "start-pos": {
                "object-type": "absolute-pos", 
                "offset": 100
            }, 
            "text": "The median TGI was 58.7 % in the MCF7/HER2-18 tumours and 46.3 % in the MDAMB231 tumours ( Table 1 ) ."
        }, 
        {
            "frame-id": "sent-PMC2360050-cmu-101", 
            "frame-type": "sentence", 
            "object-type": "frame", 
            "start-pos": {
                "object-type": "absolute-pos", 
                "offset": 101
            }, 
            "text": "No differences in weight between control and treated mice were seen ."
        }, 
        {
            "frame-id": "sent-PMC2360050-cmu-102", 
            "frame-type": "sentence", 
            "object-type": "frame", 
            "start-pos": {
                "object-type": "absolute-pos", 
                "offset": 102
            }, 
            "text": "Celecoxib does not perturb cell proliferation"
        }, 
        {
            "frame-id": "sent-PMC2360050-cmu-103", 
            "frame-type": "sentence", 
            "object-type": "frame", 
            "start-pos": {
                "object-type": "absolute-pos", 
                "offset": 103
            }, 
            "text": "The differences in tumour growth were not a product of alterations in cell proliferation as there was no change in the median number of proliferating cells in the cell lines between the control and the treated samples as assessed by Ki67 ( Table 1 ) ."
        }, 
        {
            "frame-id": "sent-PMC2360050-cmu-104", 
            "frame-type": "sentence", 
            "object-type": "frame", 
            "start-pos": {
                "object-type": "absolute-pos", 
                "offset": 104
            }, 
            "text": "Also , the p21cip1 pathway was not perturbed by the administration of Celecoxib , as there were no significant changes in the median number of cells in each cell line expressing p21cip1 ( Table 1 ) ."
        }, 
        {
            "frame-id": "sent-PMC2360050-cmu-105", 
            "frame-type": "sentence", 
            "object-type": "frame", 
            "start-pos": {
                "object-type": "absolute-pos", 
                "offset": 105
            }, 
            "text": "Apoptosis significantly increased following Celecoxib treatment"
        }, 
        {
            "frame-id": "sent-PMC2360050-cmu-106", 
            "frame-type": "sentence", 
            "object-type": "frame", 
            "start-pos": {
                "object-type": "absolute-pos", 
                "offset": 106
            }, 
            "text": "There was a significant increase in cell apoptosis in the ER-positive MCF7/HER2-18 cell line following treatment with Celecoxib ( median control TUNEL staining 0.52 % ( IQR 0.46\u20130.68 ) , median treated TUNEL staining 0.77 ( IQR 0.46\u20130.68 ) ( Table 1 ) ) ."
        }, 
        {
            "frame-id": "sent-PMC2360050-cmu-107", 
            "frame-type": "sentence", 
            "object-type": "frame", 
            "start-pos": {
                "object-type": "absolute-pos", 
                "offset": 107
            }, 
            "text": "There was also an increase in apoptosis in the MDAMB231 cell line that did not reach statistical significance ."
        }, 
        {
            "frame-id": "sent-PMC2360050-cmu-108", 
            "frame-type": "sentence", 
            "object-type": "frame", 
            "start-pos": {
                "object-type": "absolute-pos", 
                "offset": 108
            }, 
            "text": "Celecoxib inactivates Akt"
        }, 
        {
            "frame-id": "sent-PMC2360050-cmu-109", 
            "frame-type": "sentence", 
            "object-type": "frame", 
            "start-pos": {
                "object-type": "absolute-pos", 
                "offset": 109
            }, 
            "text": "Akt ( PKB ) is a member of the serine/threonine kinases , which in its activated state , is antiapoptotic ."
        }, 
        {
            "frame-id": "sent-PMC2360050-cmu-110", 
            "frame-type": "sentence", 
            "object-type": "frame", 
            "start-pos": {
                "object-type": "absolute-pos", 
                "offset": 110
            }, 
            "text": "Phosphorylation of Akt at the ser473 site was significantly decreased in the MCF7/HER2-18 cell line following treatment with Celecoxib , this was shown at both Western blotting ( Figure 1A ) and IHC ( Figures 2A and B ) ."
        }, 
        {
            "frame-id": "sent-PMC2360050-cmu-111", 
            "frame-type": "sentence", 
            "object-type": "frame", 
            "start-pos": {
                "object-type": "absolute-pos", 
                "offset": 111
            }, 
            "text": "In the control samples , pAktser473 was found to be in both the cytoplasmic and nuclear areas of the cell , and was distributed throughout the specimen ."
        }, 
        {
            "frame-id": "sent-PMC2360050-cmu-112", 
            "frame-type": "sentence", 
            "object-type": "frame", 
            "start-pos": {
                "object-type": "absolute-pos", 
                "offset": 112
            }, 
            "text": "Celecoxib decreased both the nuclear and cytoplasmic components of pAktser473 ( Figures 2A and B ) ."
        }, 
        {
            "frame-id": "sent-PMC2360050-cmu-113", 
            "frame-type": "sentence", 
            "object-type": "frame", 
            "start-pos": {
                "object-type": "absolute-pos", 
                "offset": 113
            }, 
            "text": "The median number of nuclei that stained positive for pAKTser473 dropped from 57.3 % ( IQR 54.1\u201361.1 ) in the MCF7/HER2-18 controls to 35.7 % ( IQR 24.4\u201347.6 % ) ; P=0.0001 ."
        }, 
        {
            "frame-id": "sent-PMC2360050-cmu-114", 
            "frame-type": "sentence", 
            "object-type": "frame", 
            "start-pos": {
                "object-type": "absolute-pos", 
                "offset": 114
            }, 
            "text": "In the ER-negative MDAMB-231 cell line , no changes in pAktser473 were seen at either Western blotting ( Figure 1B ) or IHC ( Figure 2C ) , but as can be seen from the IHC sections , the distribution of pAktser473 in the MDAMB231 cell line differed from the MCF7/HER2-18 cell line in that there was very low levels of nuclear pAktser473 ( Figure 2C ) ."
        }, 
        {
            "frame-id": "sent-PMC2360050-cmu-115", 
            "frame-type": "sentence", 
            "object-type": "frame", 
            "start-pos": {
                "object-type": "absolute-pos", 
                "offset": 115
            }, 
            "text": "It therefore appears that the subcellular location of pAktser473 is an important determinant of Celecoxib signalling effect ."
        }, 
        {
            "frame-id": "sent-PMC2360050-cmu-116", 
            "frame-type": "sentence", 
            "object-type": "frame", 
            "start-pos": {
                "object-type": "absolute-pos", 
                "offset": 116
            }, 
            "text": "COX-2 protein expression"
        }, 
        {
            "frame-id": "sent-PMC2360050-cmu-117", 
            "frame-type": "sentence", 
            "object-type": "frame", 
            "start-pos": {
                "object-type": "absolute-pos", 
                "offset": 117
            }, 
            "text": "The pattern of COX-2 expression varied between the cell lines ."
        }, 
        {
            "frame-id": "sent-PMC2360050-cmu-118", 
            "frame-type": "sentence", 
            "object-type": "frame", 
            "start-pos": {
                "object-type": "absolute-pos", 
                "offset": 118
            }, 
            "text": "The MCF7/HER2-18 cell line showed homogeneous cytoplasmic staining across the majority of cells ."
        }, 
        {
            "frame-id": "sent-PMC2360050-cmu-119", 
            "frame-type": "sentence", 
            "object-type": "frame", 
            "start-pos": {
                "object-type": "absolute-pos", 
                "offset": 119
            }, 
            "text": "Celecoxib treatment decreased both the median number of positive cells ( median control 65.3 % ( IQR 60.3\u201377.4 ) , median treated 22.5 ( IQR 1.1\u201360.3 ) ) and median staining intensity ( Table 1 ) , reflecting a significantly reduced median immunoscore ( Figure 3 ) of 3 in the treated group , compared to 6 in the control group ( P=0.0001 ) ."
        }, 
        {
            "frame-id": "sent-PMC2360050-cmu-120", 
            "frame-type": "sentence", 
            "object-type": "frame", 
            "start-pos": {
                "object-type": "absolute-pos", 
                "offset": 120
            }, 
            "text": "However , the MDAMB231 cell line showed staining that was confined to cytoplasmic vesicles , and therefore staining intensity could not be determined and the scoring was based solely on the number of cells that contained the vesicles ."
        }, 
        {
            "frame-id": "sent-PMC2360050-cmu-121", 
            "frame-type": "sentence", 
            "object-type": "frame", 
            "start-pos": {
                "object-type": "absolute-pos", 
                "offset": 121
            }, 
            "text": "Tumours that had been exposed to Celecoxib again showed a significantly decreased staining for COX-2 protein expression ( median control 26.6 % ( IQR 12.0\u201332.4 ) , treated 9.4 % ( IQR 3.9\u201318.1 ) ( Table 1 ) ) ."
        }, 
        {
            "frame-id": "sent-PMC2360050-cmu-122", 
            "frame-type": "sentence", 
            "object-type": "frame", 
            "start-pos": {
                "object-type": "absolute-pos", 
                "offset": 122
            }, 
            "text": "In the ER-positive MCF7/HER2-18 tumours , the percentage of cells that expressed COX-2 in the cytoplasm was significantly correlated to growth ; correlation co-efficient 0.4 ( P=0.02 ) ."
        }, 
        {
            "frame-id": "sent-PMC2360050-cmu-123", 
            "frame-type": "sentence", 
            "object-type": "frame", 
            "start-pos": {
                "object-type": "absolute-pos", 
                "offset": 123
            }, 
            "text": "Lymphangiogenesis"
        }, 
        {
            "frame-id": "sent-PMC2360050-cmu-124", 
            "frame-type": "sentence", 
            "object-type": "frame", 
            "start-pos": {
                "object-type": "absolute-pos", 
                "offset": 124
            }, 
            "text": "Q-PCR showed a significant decrease in median podoplanin RNA from the control to the treated tumours ."
        }, 
        {
            "frame-id": "sent-PMC2360050-cmu-125", 
            "frame-type": "sentence", 
            "object-type": "frame", 
            "start-pos": {
                "object-type": "absolute-pos", 
                "offset": 125
            }, 
            "text": "This was seen in both the MCF7/HER2-18 and the MDAMB231 cell lines ."
        }, 
        {
            "frame-id": "sent-PMC2360050-cmu-126", 
            "frame-type": "sentence", 
            "object-type": "frame", 
            "start-pos": {
                "object-type": "absolute-pos", 
                "offset": 126
            }, 
            "text": "The median number of RNA copies per \u03bcl was 66.61 ( IQR 27.87\u2013330.50 ) in the MCF7/HER2-18 control and fell to 2.94 copies ( IQR 0.27\u201318.50 ) in the treated tumours ( P=0.05 ) ( Table 2 ) ."
        }, 
        {
            "frame-id": "sent-PMC2360050-cmu-127", 
            "frame-type": "sentence", 
            "object-type": "frame", 
            "start-pos": {
                "object-type": "absolute-pos", 
                "offset": 127
            }, 
            "text": "In the MDAMB231 tumours the median number of RNA copies per \u03bcl was 160.65 in the control tumours ( 2.14\u2013174.75 ) and 0.05 ( IQR 0.00\u20132.99 ) in the treated group ( P=0.015 ) ."
        }, 
        {
            "frame-id": "sent-PMC2360050-cmu-128", 
            "frame-type": "sentence", 
            "object-type": "frame", 
            "start-pos": {
                "object-type": "absolute-pos", 
                "offset": 128
            }, 
            "text": "CD31 , a marker of angiogenesis also showed reduced numbers of RNA following Celecoxib treatment ( Table 2 ) ."
        }, 
        {
            "frame-id": "sent-PMC2360050-cmu-129", 
            "frame-type": "sentence", 
            "object-type": "frame", 
            "start-pos": {
                "object-type": "absolute-pos", 
                "offset": 129
            }, 
            "text": "Our findings were confirmed at the protein level following immunohistochemical staining for podoplanin ( Figures 2D\u2013G ) ."
        }, 
        {
            "frame-id": "sent-PMC2360050-cmu-130", 
            "frame-type": "sentence", 
            "object-type": "frame", 
            "start-pos": {
                "object-type": "absolute-pos", 
                "offset": 130
            }, 
            "text": "At IHC the median number of Chalkley counts in the MCF7/HER2-18 cell line fell from 12 ( IQR 9\u201414 ) in the control tumours to 9 ( IQR 6\u201310 ) in the treated samples ( P=0.0001 ) , and from 7 ( IQR 5\u201319 ) in the MDAMB231 tumours , to 4 ( IQR 3\u20136 ) in the treated samples ( P=0.0001 ) ( Table 2 ) ."
        }, 
        {
            "frame-id": "sent-PMC2360050-cmu-131", 
            "frame-type": "sentence", 
            "object-type": "frame", 
            "start-pos": {
                "object-type": "absolute-pos", 
                "offset": 131
            }, 
            "text": "At IHC it could clearly be seen that the majority of lymphatics were in clusters around the periphery of the tissue ; therefore , Western blots for podoplanin were not performed ."
        }, 
        {
            "frame-id": "sent-PMC2360050-cmu-132", 
            "frame-type": "sentence", 
            "object-type": "frame", 
            "start-pos": {
                "object-type": "absolute-pos", 
                "offset": 132
            }, 
            "text": "DISCUSSION"
        }, 
        {
            "frame-id": "sent-PMC2360050-cmu-133", 
            "frame-type": "sentence", 
            "object-type": "frame", 
            "start-pos": {
                "object-type": "absolute-pos", 
                "offset": 133
            }, 
            "text": "COX-2 inhibition decreases tumour growth"
        }, 
        {
            "frame-id": "sent-PMC2360050-cmu-134", 
            "frame-type": "sentence", 
            "object-type": "frame", 
            "start-pos": {
                "object-type": "absolute-pos", 
                "offset": 134
            }, 
            "text": "High rates of tumour growth and metastasis lead to death from breast cancer ."
        }, 
        {
            "frame-id": "sent-PMC2360050-cmu-135", 
            "frame-type": "sentence", 
            "object-type": "frame", 
            "start-pos": {
                "object-type": "absolute-pos", 
                "offset": 135
            }, 
            "text": "In the nude mice , median tumour growth was inhibited by 58.7 % in the ER-positive MCF7/HER2-18 tumours and by 46.3 % in the ER-negative MDAMB231 tumours , following treatment with Celecoxib ."
        }, 
        {
            "frame-id": "sent-PMC2360050-cmu-136", 
            "frame-type": "sentence", 
            "object-type": "frame", 
            "start-pos": {
                "object-type": "absolute-pos", 
                "offset": 136
            }, 
            "text": "Oestrogen receptor-negative tumours are unresponsive to hormonal manipulation , by way of aromatase inhibitors and tamoxifen , and conventional treatment options are therefore limited ."
        }, 
        {
            "frame-id": "sent-PMC2360050-cmu-137", 
            "frame-type": "sentence", 
            "object-type": "frame", 
            "start-pos": {
                "object-type": "absolute-pos", 
                "offset": 137
            }, 
            "text": "Perturbing the COX-2 signalling pathway may prove to be an important novel therapeutic strategy in both ER-positive and ER-negative tumours reducing the rate of tumour growth ."
        }, 
        {
            "frame-id": "sent-PMC2360050-cmu-138", 
            "frame-type": "sentence", 
            "object-type": "frame", 
            "start-pos": {
                "object-type": "absolute-pos", 
                "offset": 138
            }, 
            "text": "Celecoxib increases apoptosis via inactivation of Akt"
        }, 
        {
            "frame-id": "sent-PMC2360050-cmu-139", 
            "frame-type": "sentence", 
            "object-type": "frame", 
            "start-pos": {
                "object-type": "absolute-pos", 
                "offset": 139
            }, 
            "text": "The mechanism of action of Celecoxib in inhibiting tumour growth was by increasing apoptosis ."
        }, 
        {
            "frame-id": "sent-PMC2360050-cmu-140", 
            "frame-type": "sentence", 
            "object-type": "frame", 
            "start-pos": {
                "object-type": "absolute-pos", 
                "offset": 140
            }, 
            "text": "In the MCF7/HER2-18 cell line , the median number of cells showing apoptosis increased by 40 % from the control to the treated tumours ."
        }, 
        {
            "frame-id": "sent-PMC2360050-cmu-141", 
            "frame-type": "sentence", 
            "object-type": "frame", 
            "start-pos": {
                "object-type": "absolute-pos", 
                "offset": 141
            }, 
            "text": "The fine balance between apoptosis and proliferation is crucial for regulating growth ; therefore , even the small numerical changes in apoptosis translate to a large percentage difference , and a significant effect on growth ."
        }, 
        {
            "frame-id": "sent-PMC2360050-cmu-142", 
            "frame-type": "sentence", 
            "object-type": "frame", 
            "start-pos": {
                "object-type": "absolute-pos", 
                "offset": 142
            }, 
            "text": "There were no discernable changes in cell proliferation ."
        }, 
        {
            "frame-id": "sent-PMC2360050-cmu-143", 
            "frame-type": "sentence", 
            "object-type": "frame", 
            "start-pos": {
                "object-type": "absolute-pos", 
                "offset": 143
            }, 
            "text": "This has important implications for current and future trials utilising Celecoxib in breast cancer , as apoptosis , not proliferation should be used as the primary endpoint ."
        }, 
        {
            "frame-id": "sent-PMC2360050-cmu-144", 
            "frame-type": "sentence", 
            "object-type": "frame", 
            "start-pos": {
                "object-type": "absolute-pos", 
                "offset": 144
            }, 
            "text": "Mechanistically , the increase in apoptosis was mediated by inactivation of Akt in the MCF7/HER2-18 cell line ."
        }, 
        {
            "frame-id": "sent-PMC2360050-cmu-145", 
            "frame-type": "sentence", 
            "object-type": "frame", 
            "start-pos": {
                "object-type": "absolute-pos", 
                "offset": 145
            }, 
            "text": "The decrease in pAktser473 that we demonstrated was predominantly nuclear with a median decease of nuclear expression from 57 to 36 % ."
        }, 
        {
            "frame-id": "sent-PMC2360050-cmu-146", 
            "frame-type": "sentence", 
            "object-type": "frame", 
            "start-pos": {
                "object-type": "absolute-pos", 
                "offset": 146
            }, 
            "text": "Akt ( also known as PKB ) is a serine threonine kinase that acts downstream of PI3 kinase in the prosurvival pathway ."
        }, 
        {
            "frame-id": "sent-PMC2360050-cmu-147", 
            "frame-type": "sentence", 
            "object-type": "frame", 
            "start-pos": {
                "object-type": "absolute-pos", 
                "offset": 147
            }, 
            "text": "It is thought that activation follows recruitment to the plasma membrane and phosphorylation of both its serine and threonine residues ."
        }, 
        {
            "frame-id": "sent-PMC2360050-cmu-148", 
            "frame-type": "sentence", 
            "object-type": "frame", 
            "start-pos": {
                "object-type": "absolute-pos", 
                "offset": 148
            }, 
            "text": "It has been demonstrated that within 30 min of activation , Akt detaches from the cytoplasm and relocates to the nucleus ."
        }, 
        {
            "frame-id": "sent-PMC2360050-cmu-149", 
            "frame-type": "sentence", 
            "object-type": "frame", 
            "start-pos": {
                "object-type": "absolute-pos", 
                "offset": 149
            }, 
            "text": "In the nucleus there is modulation of the phosphorylation of a variety of transcription factors ( Andjelkovic et al , 1997 ) , including phosphorylation of FKHR1 ( Rena et al , 1999 ) and the forkhead transcription factor AFX ( Kops et al , 1999 ) promoting their cytoplasmic retention \u2013 distancing them from their nuclear targets ."
        }, 
        {
            "frame-id": "sent-PMC2360050-cmu-150", 
            "frame-type": "sentence", 
            "object-type": "frame", 
            "start-pos": {
                "object-type": "absolute-pos", 
                "offset": 150
            }, 
            "text": "It has previously been shown that the growth factors PDGF and IGF-1 both cause an increase in the amounts of intra nuclear Akt ( Borgatti et al , 2000 ) ."
        }, 
        {
            "frame-id": "sent-PMC2360050-cmu-151", 
            "frame-type": "sentence", 
            "object-type": "frame", 
            "start-pos": {
                "object-type": "absolute-pos", 
                "offset": 151
            }, 
            "text": "There is still , however , some debate as to whether activation occurs solely in the cytoplasm with subsequent translocation to the nucleus , or whether there is a nuclear component to the event itself ( Borgatti et al , 2000 ) ."
        }, 
        {
            "frame-id": "sent-PMC2360050-cmu-152", 
            "frame-type": "sentence", 
            "object-type": "frame", 
            "start-pos": {
                "object-type": "absolute-pos", 
                "offset": 152
            }, 
            "text": "The subcellular localisation of pAkt is therefore important for its signalling effect which in the MCF7/HER2-18 cell line was both cytoplamic and nuclear , but predominantly cytoplasmic in the MDAMB231 's ."
        }, 
        {
            "frame-id": "sent-PMC2360050-cmu-153", 
            "frame-type": "sentence", 
            "object-type": "frame", 
            "start-pos": {
                "object-type": "absolute-pos", 
                "offset": 153
            }, 
            "text": "This lack of nuclear activated Akt could explain why there was no decrease in phosphorylation seen in the MDAMB231 tumours ( and a less substantial increase in apoptosis ) ."
        }, 
        {
            "frame-id": "sent-PMC2360050-cmu-154", 
            "frame-type": "sentence", 
            "object-type": "frame", 
            "start-pos": {
                "object-type": "absolute-pos", 
                "offset": 154
            }, 
            "text": "Reduced Akt activation following Celecoxib treatment has also been seen in prostate ( Hsu et al , 2000 ) and hepatocellular ( Leng et al , 2003 ) cancer cells ."
        }, 
        {
            "frame-id": "sent-PMC2360050-cmu-155", 
            "frame-type": "sentence", 
            "object-type": "frame", 
            "start-pos": {
                "object-type": "absolute-pos", 
                "offset": 155
            }, 
            "text": "The importance of Akt inactivation in increasing apoptosis was confirmed in PC-3 prostate cancer cells that were engineered to constitutively overexpress Akt which showed reduced apoptosis following Celecoxib treatment compared to cells without constitutively active Akt ( Hsu et al , 2000 ) ."
        }, 
        {
            "frame-id": "sent-PMC2360050-cmu-156", 
            "frame-type": "sentence", 
            "object-type": "frame", 
            "start-pos": {
                "object-type": "absolute-pos", 
                "offset": 156
            }, 
            "text": "Celecoxib reduces lymphatic vessel formation"
        }, 
        {
            "frame-id": "sent-PMC2360050-cmu-157", 
            "frame-type": "sentence", 
            "object-type": "frame", 
            "start-pos": {
                "object-type": "absolute-pos", 
                "offset": 157
            }, 
            "text": "Celecoxib reduced levels of the lymphatic endothelial cell marker , podoplanin RNA by 87 % in the MCF7/HER2-18 and 99.9 % in the MDAMB231 tumours ."
        }, 
        {
            "frame-id": "sent-PMC2360050-cmu-158", 
            "frame-type": "sentence", 
            "object-type": "frame", 
            "start-pos": {
                "object-type": "absolute-pos", 
                "offset": 158
            }, 
            "text": "The control samples showed variable levels of podoplanin RNA ( as seen by the interquartile range values ) , showing that lymphatic response is specific to the individual tumour/host ."
        }, 
        {
            "frame-id": "sent-PMC2360050-cmu-159", 
            "frame-type": "sentence", 
            "object-type": "frame", 
            "start-pos": {
                "object-type": "absolute-pos", 
                "offset": 159
            }, 
            "text": "Following Celecoxib treatment this range was much less variable , with in some cases a complete lack of expression of podoplanin RNA ."
        }, 
        {
            "frame-id": "sent-PMC2360050-cmu-160", 
            "frame-type": "sentence", 
            "object-type": "frame", 
            "start-pos": {
                "object-type": "absolute-pos", 
                "offset": 160
            }, 
            "text": "The decrease in expression was also seen at a protein level following Chalkley vessel counts ; where the lymphatic vessels were predominantly clustered around the tumour periphery ."
        }, 
        {
            "frame-id": "sent-PMC2360050-cmu-161", 
            "frame-type": "sentence", 
            "object-type": "frame", 
            "start-pos": {
                "object-type": "absolute-pos", 
                "offset": 161
            }, 
            "text": "In addition , there was a reduction in the median number of RNA copies of CD31 ( an angiogenic marker ) by 84 % in the MCF7/HER2-18 and 91 % in the MDAMB231 tumours ."
        }, 
        {
            "frame-id": "sent-PMC2360050-cmu-162", 
            "frame-type": "sentence", 
            "object-type": "frame", 
            "start-pos": {
                "object-type": "absolute-pos", 
                "offset": 162
            }, 
            "text": "The antiangiogenic properties of the COX-2 inhibitors have already been demonstrated ( Masferrer et al , 2000 ) ."
        }, 
        {
            "frame-id": "sent-PMC2360050-cmu-163", 
            "frame-type": "sentence", 
            "object-type": "frame", 
            "start-pos": {
                "object-type": "absolute-pos", 
                "offset": 163
            }, 
            "text": "As CD31 and podoplanin RNA were both greatly reduced in the MDAMB231 tumours , this may account for the fact that there was decrease in growth of the MDAMB231 tumours following Celecoxib , even though the increase in apoptosis failed to reach statistical significance ."
        }, 
        {
            "frame-id": "sent-PMC2360050-cmu-164", 
            "frame-type": "sentence", 
            "object-type": "frame", 
            "start-pos": {
                "object-type": "absolute-pos", 
                "offset": 164
            }, 
            "text": "Review of the IHC sample sections showed large areas of central necrosis in the MDAMB231-treated tumours , which again would be consistent with an insufficient blood supply in these Celecoxib-treated tumours ."
        }, 
        {
            "frame-id": "sent-PMC2360050-cmu-165", 
            "frame-type": "sentence", 
            "object-type": "frame", 
            "start-pos": {
                "object-type": "absolute-pos", 
                "offset": 165
            }, 
            "text": "In breast cancer the primary mode of metastasis is via the lymphatics and COX-2 expression correlates with lymph node metastasis in breast cancer ( Ranger et al , 2004 ) ."
        }, 
        {
            "frame-id": "sent-PMC2360050-cmu-166", 
            "frame-type": "sentence", 
            "object-type": "frame", 
            "start-pos": {
                "object-type": "absolute-pos", 
                "offset": 166
            }, 
            "text": "Taken altogether the cumulating data regarding COX-2 inhibition and lymphangiogenesis indicate that there is interesting potential of COX-2 inhibitors being used as antimetastatic agents ."
        }, 
        {
            "frame-id": "sent-PMC2360050-cmu-167", 
            "frame-type": "sentence", 
            "object-type": "frame", 
            "start-pos": {
                "object-type": "absolute-pos", 
                "offset": 167
            }, 
            "text": "Celecoxib decreases COX-2 protein expression"
        }, 
        {
            "frame-id": "sent-PMC2360050-cmu-168", 
            "frame-type": "sentence", 
            "object-type": "frame", 
            "start-pos": {
                "object-type": "absolute-pos", 
                "offset": 168
            }, 
            "text": "Celecoxib treatment decreased the levels of COX-2 protein expression in both cell lines ."
        }, 
        {
            "frame-id": "sent-PMC2360050-cmu-169", 
            "frame-type": "sentence", 
            "object-type": "frame", 
            "start-pos": {
                "object-type": "absolute-pos", 
                "offset": 169
            }, 
            "text": "Therefore , Celecoxib is not simply blocking the effect of COX-2 , but is also perturbing COX-2 protein production ; a finding noted in previous studies ( Cheng et al , 2002 ; Agarwal et al , 2003 ) ."
        }, 
        {
            "frame-id": "sent-PMC2360050-cmu-170", 
            "frame-type": "sentence", 
            "object-type": "frame", 
            "start-pos": {
                "object-type": "absolute-pos", 
                "offset": 170
            }, 
            "text": "In COX-2 expressing HT29 colon cancer cell lines , COX-2 inhibition with another selective COX-2 inhibitor SC236 ( a structural analogue of Celecoxib ) showed that at high levels of inhibitor ( concentrations greater than 75 \u03bcm ) , COX-2 enzyme activity was completely inactivated ."
        }, 
        {
            "frame-id": "sent-PMC2360050-cmu-171", 
            "frame-type": "sentence", 
            "object-type": "frame", 
            "start-pos": {
                "object-type": "absolute-pos", 
                "offset": 171
            }, 
            "text": "Decreased levels of COX-2 protein expression and increases in apoptosis were seen ."
        }, 
        {
            "frame-id": "sent-PMC2360050-cmu-172", 
            "frame-type": "sentence", 
            "object-type": "frame", 
            "start-pos": {
                "object-type": "absolute-pos", 
                "offset": 172
            }, 
            "text": "Whereas Sulindac sulphide ( an inhibitor of COX-1 and COX-2 ) did not promote any changes in apoptosis and also showed no decrease in COX-2 protein expression ) ( Agarwal et al , 2003 ) ."
        }, 
        {
            "frame-id": "sent-PMC2360050-cmu-173", 
            "frame-type": "sentence", 
            "object-type": "frame", 
            "start-pos": {
                "object-type": "absolute-pos", 
                "offset": 173
            }, 
            "text": "The antiapoptotic effects of COX-2 were better correlated to decreases in COX-2 protein expression than inhibition of enzymatic activity ( Agarwal et al , 2003 ) ."
        }, 
        {
            "frame-id": "sent-PMC2360050-cmu-174", 
            "frame-type": "sentence", 
            "object-type": "frame", 
            "start-pos": {
                "object-type": "absolute-pos", 
                "offset": 174
            }, 
            "text": "It has been suggested that the prostaglandin products of COX-2 , mainly PgE2 , positively feed back to produce enhanced COX-2 protein expression ( Faour et al , 2001 ) ."
        }, 
        {
            "frame-id": "sent-PMC2360050-cmu-175", 
            "frame-type": "sentence", 
            "object-type": "frame", 
            "start-pos": {
                "object-type": "absolute-pos", 
                "offset": 175
            }, 
            "text": "Therefore blocking COX-2 , and hence prostaglandin production , would decrease this positive feedback loop ."
        }, 
        {
            "frame-id": "sent-PMC2360050-cmu-176", 
            "frame-type": "sentence", 
            "object-type": "frame", 
            "start-pos": {
                "object-type": "absolute-pos", 
                "offset": 176
            }, 
            "text": "NF\u03baB also regulates the COX-2 gene ."
        }, 
        {
            "frame-id": "sent-PMC2360050-cmu-177", 
            "frame-type": "sentence", 
            "object-type": "frame", 
            "start-pos": {
                "object-type": "absolute-pos", 
                "offset": 177
            }, 
            "text": "Celecoxib abrogates TNF-induced activation of NF\u03baB with inhibition of Akt ( Shishodia et al , 2004 ) , and therefore another possible explanation for the decrease in COX-2 protein levels seen could be that there is inhibition of NF\u03baB-induced promoter activity of the COX-2 gene , with subsequent decreases in COX-2 protein expression ."
        }, 
        {
            "frame-id": "sent-PMC2360050-cmu-178", 
            "frame-type": "sentence", 
            "object-type": "frame", 
            "start-pos": {
                "object-type": "absolute-pos", 
                "offset": 178
            }, 
            "text": "COX-2 independent mechanisms of Celecoxib action"
        }, 
        {
            "frame-id": "sent-PMC2360050-cmu-179", 
            "frame-type": "sentence", 
            "object-type": "frame", 
            "start-pos": {
                "object-type": "absolute-pos", 
                "offset": 179
            }, 
            "text": "In the ER-positive MCF7/HER2-18 treated tumours , the percentage of residual COX-2 expression significantly correlated with tumour growth , but in the ER-negative MDAMB231-treated tumours , there was no correlation between residual COX-2 expression and growth ."
        }, 
        {
            "frame-id": "sent-PMC2360050-cmu-180", 
            "frame-type": "sentence", 
            "object-type": "frame", 
            "start-pos": {
                "object-type": "absolute-pos", 
                "offset": 180
            }, 
            "text": "This raises the possibility of COX-2 independent effects of Celecoxib in these ER-negative tumours ."
        }, 
        {
            "frame-id": "sent-PMC2360050-cmu-181", 
            "frame-type": "sentence", 
            "object-type": "frame", 
            "start-pos": {
                "object-type": "absolute-pos", 
                "offset": 181
            }, 
            "text": "Further work needs to be carried out to explore the possible COX-2 independent effects of these inhibitors and possible different modes of action in ER-positive vs ER-negative cases ."
        }, 
        {
            "frame-id": "sent-PMC2360050-cmu-182", 
            "frame-type": "sentence", 
            "object-type": "frame", 
            "start-pos": {
                "object-type": "absolute-pos", 
                "offset": 182
            }, 
            "text": "New generation products , which are structurally similar to the COX-2 inhibitors , but lack COX-2 inhibiting effects , are currently under development ."
        }, 
        {
            "frame-id": "sent-PMC2360050-cmu-183", 
            "frame-type": "sentence", 
            "object-type": "frame", 
            "start-pos": {
                "object-type": "absolute-pos", 
                "offset": 183
            }, 
            "text": "Future direction"
        }, 
        {
            "frame-id": "sent-PMC2360050-cmu-184", 
            "frame-type": "sentence", 
            "object-type": "frame", 
            "start-pos": {
                "object-type": "absolute-pos", 
                "offset": 184
            }, 
            "text": "We have shown that Celecoxib significantly decreases breast tumour growth in this nude mouse model and clinical studies are underway to investigate the effect in patient populations ."
        }, 
        {
            "frame-id": "sent-PMC2360050-cmu-185", 
            "frame-type": "sentence", 
            "object-type": "frame", 
            "start-pos": {
                "object-type": "absolute-pos", 
                "offset": 185
            }, 
            "text": "Cyclooxygenase-2 inhibitors are showing great promise for their potential therapeutic benefit in a range of cancers ; however there has been recent concern over potential cardiotoxicity ."
        }, 
        {
            "frame-id": "sent-PMC2360050-cmu-186", 
            "frame-type": "sentence", 
            "object-type": "frame", 
            "start-pos": {
                "object-type": "absolute-pos", 
                "offset": 186
            }, 
            "text": "This was due to an increased risk of cardiovascular events following treatment with another COX-2 inhibitor Rofecoxib ( Vioxx\u00ae \u2013 now withdrawn ) that was highlighted following the publication of the APPROVe trial ( Bombardier et al , 2000 ; Bresalier et al , 2005 ) ."
        }, 
        {
            "frame-id": "sent-PMC2360050-cmu-187", 
            "frame-type": "sentence", 
            "object-type": "frame", 
            "start-pos": {
                "object-type": "absolute-pos", 
                "offset": 187
            }, 
            "text": "In 2005 the New England Journal of Medicine published a review of Celecoxib cardiac safety which raised concerns over prolonged high-dose COX-2 inhibition ( Solomon et al , 2005 ) ."
        }, 
        {
            "frame-id": "sent-PMC2360050-cmu-188", 
            "frame-type": "sentence", 
            "object-type": "frame", 
            "start-pos": {
                "object-type": "absolute-pos", 
                "offset": 188
            }, 
            "text": "A review of the data by Kimmel et al ( 2005 ) stated that patients who had been taking Rofecoxib had a three times greater risk of developing a myocardial infarction than patients taking Celecoxib , but the overall safety of Celecoxib is still under debate ."
        }, 
        {
            "frame-id": "sent-PMC2360050-cmu-189", 
            "frame-type": "sentence", 
            "object-type": "frame", 
            "start-pos": {
                "object-type": "absolute-pos", 
                "offset": 189
            }, 
            "text": "As Celecoxib has now been shown to significantly decrease tumour growth , there is an urgency to develop new inhibitors that do not have the potential cardiotoxicity ."
        }, 
        {
            "frame-id": "sent-PMC2360050-cmu-190", 
            "frame-type": "sentence", 
            "object-type": "frame", 
            "start-pos": {
                "object-type": "absolute-pos", 
                "offset": 190
            }, 
            "text": "We must maintain the momentum for further investigation of this class of drug , and its descendents , in relationship to their chemotherapeutic potential and mechanisms of action ."
        }, 
        {
            "frame-id": "sent-PMC2360050-cmu-191", 
            "frame-type": "sentence", 
            "object-type": "frame", 
            "start-pos": {
                "object-type": "absolute-pos", 
                "offset": 191
            }, 
            "text": "In summary , Celecoxib significantly decreased ER-positive and ER-negative breast tumour growth in our nude mouse xenograft model ."
        }, 
        {
            "frame-id": "sent-PMC2360050-cmu-192", 
            "frame-type": "sentence", 
            "object-type": "frame", 
            "start-pos": {
                "object-type": "absolute-pos", 
                "offset": 192
            }, 
            "text": "The mechanism of action was via inactivation of AKT permitting increased cell death in the ER-positive tumours ."
        }, 
        {
            "frame-id": "sent-PMC2360050-cmu-193", 
            "frame-type": "sentence", 
            "object-type": "frame", 
            "start-pos": {
                "object-type": "absolute-pos", 
                "offset": 193
            }, 
            "text": "The primary mode of breast tumour spread is via the lymphatics ."
        }, 
        {
            "frame-id": "sent-PMC2360050-cmu-194", 
            "frame-type": "sentence", 
            "object-type": "frame", 
            "start-pos": {
                "object-type": "absolute-pos", 
                "offset": 194
            }, 
            "text": "Increasing evidence suggests that COX-2 has an important role in lymphangiogenesis and we have shown that COX-2 inhibition decreases new lymphatic vessel formation with the potential decrease in metastatic spread of both ER-positive and ER-negative breast tumours ."
        }
    ], 
    "object-meta": {
        "component": "Nicolas-NXML-Parser", 
        "component-type": "machine", 
        "doc-id": "PMC2360050", 
        "object-type": "meta-info", 
        "organization": "CMU"
    }, 
    "object-type": "frame-collection"
}
