{
    "frames": [
        {
            "cell-type": [
                "-independent transcriptional activity U-2 OS human osteosarcoma cells"
            ], 
            "frame-id": "imp-PMC212280-cmu-pradsys-267", 
            "frame-type": "implication", 
            "implication-type": "binds", 
            "object-meta": {
                "object-type": "meta-info", 
                "organization": "CMU"
            }, 
            "object-type": "frame", 
            "process": [
                "transfected"
            ], 
            "sentence": "sent-PMC212280-cmu-21"
        }, 
        {
            "binds-constituent1": [
                "unstimulated U-2 OS cells"
            ], 
            "frame-id": "imp-PMC212280-cmu-pradsys-268", 
            "frame-type": "implication", 
            "implication-type": "binds", 
            "object-meta": {
                "object-type": "meta-info", 
                "organization": "CMU"
            }, 
            "object-type": "frame", 
            "sentence": "sent-PMC212280-cmu-23"
        }, 
        {
            "frame-id": "imp-PMC212280-cmu-pradsys-269", 
            "frame-type": "implication", 
            "implication-type": "binds", 
            "object-meta": {
                "object-type": "meta-info", 
                "organization": "CMU"
            }, 
            "object-type": "frame", 
            "sentence": "sent-PMC212280-cmu-27", 
            "transfection-molecule": [
                "PFT-\u03b1 ( Fig"
            ]
        }, 
        {
            "assay-molecule": [
                "PFT-\u03b1"
            ], 
            "frame-id": "imp-PMC212280-cmu-pradsys-270", 
            "frame-type": "implication", 
            "implication-type": "binds", 
            "incubation-reagent": [
                "an expression plasmid encoding the tumour suppressor p14ARF"
            ], 
            "object-meta": {
                "object-type": "meta-info", 
                "organization": "CMU"
            }, 
            "object-type": "frame", 
            "sentence": "sent-PMC212280-cmu-30"
        }, 
        {
            "binds-constituent1": [
                "repressed p53-induced endogenous p21 expression"
            ], 
            "frame-id": "imp-PMC212280-cmu-pradsys-271", 
            "frame-type": "implication", 
            "implication-type": "binds", 
            "object-meta": {
                "object-type": "meta-info", 
                "organization": "CMU"
            }, 
            "object-type": "frame", 
            "sentence": "sent-PMC212280-cmu-31"
        }, 
        {
            "assay-molecule": [
                "endogenous I\u03baB-\u03b1 protein"
            ], 
            "frame-id": "imp-PMC212280-cmu-pradsys-272", 
            "frame-type": "implication", 
            "implication-type": "binds", 
            "m-val": [
                "no effect"
            ], 
            "object-meta": {
                "object-type": "meta-info", 
                "organization": "CMU"
            }, 
            "object-type": "frame", 
            "sentence": "sent-PMC212280-cmu-33"
        }, 
        {
            "assay-molecule": [
                "RelA"
            ], 
            "binds-constituent2": [
                "the Cyclin D1"
            ], 
            "frame-id": "imp-PMC212280-cmu-pradsys-273", 
            "frame-type": "implication", 
            "implication-type": "binds", 
            "object-meta": {
                "object-type": "meta-info", 
                "organization": "CMU"
            }, 
            "object-type": "frame", 
            "sentence": "sent-PMC212280-cmu-36"
        }, 
        {
            "binds-constituent1": [
                "PFT-\u03b1"
            ], 
            "frame-id": "imp-PMC212280-cmu-pradsys-274", 
            "frame-type": "implication", 
            "implication-type": "binds", 
            "object-meta": {
                "object-type": "meta-info", 
                "organization": "CMU"
            }, 
            "object-type": "frame", 
            "sentence": "sent-PMC212280-cmu-37"
        }, 
        {
            "binds-constituent1": [
                "PFT-\u03b1"
            ], 
            "binds-controller": [
                "vitro transcription assay ( L.M"
            ], 
            "cell-type": [
                "PFT-\u03b1 treated cells"
            ], 
            "frame-id": "imp-PMC212280-cmu-pradsys-275", 
            "frame-type": "implication", 
            "implication-type": "binds", 
            "m-val": [
                "no effect"
            ], 
            "object-meta": {
                "object-type": "meta-info", 
                "organization": "CMU"
            }, 
            "object-type": "frame", 
            "sentence": "sent-PMC212280-cmu-38"
        }, 
        {
            "frame-id": "imp-PMC212280-cmu-pradsys-276", 
            "frame-type": "implication", 
            "implication-type": "binds", 
            "m-val": [
                "no effect"
            ], 
            "object-meta": {
                "object-type": "meta-info", 
                "organization": "CMU"
            }, 
            "object-type": "frame", 
            "sentence": "sent-PMC212280-cmu-41"
        }, 
        {
            "binds-constituent1": [
                "PFT-\u03b1"
            ], 
            "frame-id": "imp-PMC212280-cmu-pradsys-277", 
            "frame-type": "implication", 
            "implication-type": "binds", 
            "object-meta": {
                "object-type": "meta-info", 
                "organization": "CMU"
            }, 
            "object-type": "frame", 
            "sentence": "sent-PMC212280-cmu-42", 
            "transfection-molecule": [
                "Renilla luciferase"
            ]
        }, 
        {
            "frame-id": "imp-PMC212280-cmu-pradsys-278", 
            "frame-type": "implication", 
            "implication-type": "binds", 
            "object-meta": {
                "object-type": "meta-info", 
                "organization": "CMU"
            }, 
            "object-type": "frame", 
            "process": [
                "transfected"
            ], 
            "sentence": "sent-PMC212280-cmu-44"
        }, 
        {
            "frame-id": "imp-PMC212280-cmu-pradsys-279", 
            "frame-type": "implication", 
            "implication-type": "binds", 
            "m-val": [
                "no effect"
            ], 
            "object-meta": {
                "object-type": "meta-info", 
                "organization": "CMU"
            }, 
            "object-type": "frame", 
            "sentence": "sent-PMC212280-cmu-45"
        }, 
        {
            "binds-constituent1": [
                "PFT-\u03b1"
            ], 
            "frame-id": "imp-PMC212280-cmu-pradsys-280", 
            "frame-type": "implication", 
            "implication-type": "binds", 
            "object-meta": {
                "object-type": "meta-info", 
                "organization": "CMU"
            }, 
            "object-type": "frame", 
            "sentence": "sent-PMC212280-cmu-49"
        }, 
        {
            "binds-constituent1": [
                "PFT-\u03b1"
            ], 
            "cell-type": [
                "human foreskin fibroblast ( HFF ) cells transiently"
            ], 
            "frame-id": "imp-PMC212280-cmu-pradsys-281", 
            "frame-type": "implication", 
            "implication-type": "binds", 
            "object-meta": {
                "object-type": "meta-info", 
                "organization": "CMU"
            }, 
            "object-type": "frame", 
            "process": [
                "transfected"
            ], 
            "sentence": "sent-PMC212280-cmu-51"
        }, 
        {
            "cell-type": [
                "living cells"
            ], 
            "frame-id": "imp-PMC212280-cmu-pradsys-282", 
            "frame-type": "implication", 
            "implication-type": "binds", 
            "object-meta": {
                "object-type": "meta-info", 
                "organization": "CMU"
            }, 
            "object-type": "frame", 
            "process": [
                "transfected"
            ], 
            "sentence": "sent-PMC212280-cmu-53"
        }, 
        {
            "binds-constituent2": [
                "PFT-\u03b1"
            ], 
            "frame-id": "imp-PMC212280-cmu-pradsys-283", 
            "frame-type": "implication", 
            "implication-type": "binds", 
            "object-meta": {
                "object-type": "meta-info", 
                "organization": "CMU"
            }, 
            "object-type": "frame", 
            "sentence": "sent-PMC212280-cmu-55"
        }, 
        {
            "binds-constituent1": [
                "PFT-\u03b1"
            ], 
            "frame-id": "imp-PMC212280-cmu-pradsys-284", 
            "frame-type": "implication", 
            "implication-type": "binds", 
            "object-meta": {
                "object-type": "meta-info", 
                "organization": "CMU"
            }, 
            "object-type": "frame", 
            "sentence": "sent-PMC212280-cmu-57"
        }
    ], 
    "object-meta": {
        "component": "Pradeep-System", 
        "component-type": "machine", 
        "doc-id": "PMC212280", 
        "object-type": "meta-info", 
        "organization": "CMU"
    }, 
    "object-type": "frame-collection"
}
