{
  "evidence": ["PGE2 up regulated the expression of IL-23R and IL-1R on differentiating naive T cells and , in combination with Th17 driving cytokines , enhanced STAT3 phosphorylation and induced a qualitative and quantitative shift in function and phenotype toward a strong proinflammatory and pathogenic Th17 cell .","PGE2 up-regulated the expression of IL-23R and IL-1R on differentiating naive T cells and, in combination with Th17-driving cytokines, enhanced STAT3 phosphorylation"],
  "extracted_information": {
    "interaction_type": "adds_modification",
    "negative_information": false,
    "modifications": [
      {
        "modification_type": "phosphorylation"
      }
    ],
    "participant_a": {
      "entity_text": "PGE2",
      "entity_type": "chemical",
      "identifier": "CHEBI:15551",
      "in_model": false
    },
    "participant_b": {
      "entity_text": "STAT3",
      "entity_type": "protein",
      "identifier": "Uniprot:P40763",
      "in_model": true
    }
  },
  "fries_provenance": [
    {
      "component": "REACH",
      "frame-file": "PMC2699124.uaz.events",
      "frame-id": "evem-PMC2699124-UAZ-r1-54-5-114",
      "passage-id": "pass-PMC2699124-UAZ-r1-54",
      "passage-number": 54,
      "passage-section-id": "N/A",
      "passage-section-name": "discussion",
      "sentence": "PGE2 up regulated the expression of IL-23R and IL-1R on differentiating naive T cells and , in combination with Th17 driving cytokines , enhanced STAT3 phosphorylation and induced a qualitative and quantitative shift in function and phenotype toward a strong proinflammatory and pathogenic Th17 cell .",
      "text": "PGE2 up-regulated the expression of IL-23R and IL-1R on differentiating naive T cells and, in combination with Th17-driving cytokines, enhanced STAT3 phosphorylation",
      "uaz-sentence": "PGE2 up regulated the expression of IL-23R and IL-1R on differentiating naive T cells and , in combination with Th17 driving cytokines , enhanced STAT3 phosphorylation and induced a qualitative and quantitative shift in function and phenotype toward a strong proinflammatory and pathogenic Th17 cell .",
      "uaz-sentence-start": 1001
    }
  ],
  "model_relation": "extension",
  "pmc_id": "PMC2699124",
  "reader_type": "machine",
  "reading_complete": "2015-06-15T20:46:31Z",
  "reading_started": "2015-06-15T20:46:26Z",
  "submitter": "FRIES"
}
