{
  "evidence": ["STAT2 and IRF9 together with Y701F-STAT1 readily increased those three ISGs            , but not the transiently induced ISGs MYD88, IFI16, and IRF1","While IFNbeta does not increase the expression of IFI27 , OAS2 , and MX1 in these cells                          , high expression of STAT2 and IRF9 together with Y701F-STAT1 readily increased those three ISGs            , but not the transiently induced ISGs MYD88 , IFI16 , and IRF1            ."],
  "extracted_information": {
    "interaction_type": "increases_activity",
    "negative_information": true,
    "participant_a": {
      "entity_text": "STAT2",
      "entity_type": "protein",
      "identifier": "Uniprot:P52630",
      "in_model": true
    },
    "participant_b": {
      "entity_text": "IRF1",
      "entity_type": "protein",
      "identifier": "Uniprot:P10914",
      "in_model": true
    }
  },
  "fries_provenance": [
    {
      "component": "REACH",
      "frame-file": "PMC3801437.uaz.events",
      "frame-id": "evem-PMC3801437-UAZ-r1-17-10-26",
      "passage-id": "pass-PMC3801437-UAZ-r1-17",
      "passage-number": 17,
      "passage-section-id": "N/A",
      "passage-section-name": "N/A",
      "sentence": "While IFNbeta does not increase the expression of IFI27 , OAS2 , and MX1 in these cells                          , high expression of STAT2 and IRF9 together with Y701F-STAT1 readily increased those three ISGs            , but not the transiently induced ISGs MYD88 , IFI16 , and IRF1            .",
      "text": "STAT2 and IRF9 together with Y701F-STAT1 readily increased those three ISGs            , but not the transiently induced ISGs MYD88, IFI16, and IRF1",
      "uaz-sentence": "While IFNbeta does not increase the expression of IFI27 , OAS2 , and MX1 in these cells                          , high expression of STAT2 and IRF9 together with Y701F-STAT1 readily increased those three ISGs            , but not the transiently induced ISGs MYD88 , IFI16 , and IRF1            .",
      "uaz-sentence-start": 2397
    }
  ],
  "model_relation": "extension",
  "pmc_id": "PMC3801437",
  "reader_type": "machine",
  "reading_complete": "2015-06-15T23:31:08Z",
  "reading_started": "2015-06-15T23:31:03Z",
  "submitter": "FRIES"
}
