{
    "frames": [
        {
            "frame-id": "smap-PMC2786891-cmu-1", 
            "frame-type": "sentence-map", 
            "list1-meta": {
                "component": "nxml2fries", 
                "object-type": "meta-info", 
                "organization": "UAZ"
            }, 
            "list2-meta": {
                "component": "Nicolas-NXML-Parser", 
                "object-type": "meta-info", 
                "organization": "CMU"
            }, 
            "map": [
                {
                    "from": "sent-PMC2786891-UAZ-r1-18-5", 
                    "object-type": "map-range", 
                    "to": "sent-PMC2786891-cmu-15"
                }, 
                {
                    "from": "sent-PMC2786891-UAZ-r1-24-5", 
                    "object-type": "map-range", 
                    "to": "sent-PMC2786891-cmu-25"
                }, 
                {
                    "from": "sent-PMC2786891-UAZ-r1-84-5", 
                    "object-type": "map-range", 
                    "to": "sent-PMC2786891-cmu-123"
                }, 
                {
                    "from": "sent-PMC2786891-UAZ-r1-18-0", 
                    "object-type": "map-range", 
                    "to": "sent-PMC2786891-cmu-10"
                }, 
                {
                    "from": "sent-PMC2786891-UAZ-r1-70-0", 
                    "object-type": "map-range", 
                    "to": "sent-PMC2786891-cmu-97"
                }, 
                {
                    "from": "sent-PMC2786891-UAZ-r1-41-0", 
                    "object-type": "map-range", 
                    "to": "sent-PMC2786891-cmu-67"
                }, 
                {
                    "from": "sent-PMC2786891-UAZ-r1-84-3", 
                    "object-type": "map-range", 
                    "to": "sent-PMC2786891-cmu-121"
                }, 
                {
                    "from": "sent-PMC2786891-UAZ-r1-86-7", 
                    "object-type": "map-range", 
                    "to": "sent-PMC2786891-cmu-134"
                }, 
                {
                    "from": "sent-PMC2786891-UAZ-r1-18-3", 
                    "object-type": "map-range", 
                    "to": "sent-PMC2786891-cmu-13"
                }, 
                {
                    "from": "sent-PMC2786891-UAZ-r1-17-3", 
                    "object-type": "map-range", 
                    "to": "sent-PMC2786891-cmu-9"
                }, 
                {
                    "from": "sent-PMC2786891-UAZ-r1-86-9", 
                    "object-type": "map-range", 
                    "to": "sent-PMC2786891-cmu-136"
                }, 
                {
                    "from": "sent-PMC2786891-UAZ-r1-37-12", 
                    "object-type": "map-range", 
                    "to": "sent-PMC2786891-cmu-63"
                }, 
                {
                    "from": "sent-PMC2786891-UAZ-r1-86-0", 
                    "object-type": "map-range", 
                    "to": "sent-PMC2786891-cmu-127"
                }, 
                {
                    "from": "sent-PMC2786891-UAZ-r1-17-0", 
                    "object-type": "map-range", 
                    "to": "sent-PMC2786891-cmu-6"
                }, 
                {
                    "from": "sent-PMC2786891-UAZ-r1-86-6", 
                    "object-type": "map-range", 
                    "to": "sent-PMC2786891-cmu-133"
                }, 
                {
                    "from": "sent-PMC2786891-UAZ-r1-30-9", 
                    "object-type": "map-range", 
                    "to": "sent-PMC2786891-cmu-41"
                }, 
                {
                    "from": "sent-PMC2786891-UAZ-r1-83-0", 
                    "object-type": "map-range", 
                    "to": "sent-PMC2786891-cmu-113"
                }, 
                {
                    "from": "sent-PMC2786891-UAZ-r1-37-4", 
                    "object-type": "map-range", 
                    "to": "sent-PMC2786891-cmu-55"
                }, 
                {
                    "from": "sent-PMC2786891-UAZ-r1-86-8", 
                    "object-type": "map-range", 
                    "to": "sent-PMC2786891-cmu-135"
                }, 
                {
                    "from": "sent-PMC2786891-UAZ-r1-33-4", 
                    "object-type": "map-range", 
                    "to": "sent-PMC2786891-cmu-47"
                }, 
                {
                    "from": "sent-PMC2786891-UAZ-r1-24-3", 
                    "object-type": "map-range", 
                    "to": "sent-PMC2786891-cmu-23"
                }, 
                {
                    "from": "sent-PMC2786891-UAZ-r1-37-13", 
                    "object-type": "map-range", 
                    "to": "sent-PMC2786891-cmu-64"
                }, 
                {
                    "from": "sent-PMC2786891-UAZ-r1-18-2", 
                    "object-type": "map-range", 
                    "to": "sent-PMC2786891-cmu-12"
                }, 
                {
                    "from": "sent-PMC2786891-UAZ-r1-86-5", 
                    "object-type": "map-range", 
                    "to": "sent-PMC2786891-cmu-132"
                }, 
                {
                    "from": "sent-PMC2786891-UAZ-r1-46-4", 
                    "object-type": "map-range", 
                    "to": "sent-PMC2786891-cmu-80"
                }, 
                {
                    "from": "sent-PMC2786891-UAZ-r1-46-0", 
                    "object-type": "map-range", 
                    "to": "sent-PMC2786891-cmu-76"
                }, 
                {
                    "from": "sent-PMC2786891-UAZ-r1-30-0", 
                    "object-type": "map-range", 
                    "to": "sent-PMC2786891-cmu-32"
                }, 
                {
                    "from": "sent-PMC2786891-UAZ-r1-40-0", 
                    "object-type": "map-range", 
                    "to": "sent-PMC2786891-cmu-66"
                }, 
                {
                    "from": "sent-PMC2786891-UAZ-r1-76-0", 
                    "object-type": "map-range", 
                    "to": "sent-PMC2786891-cmu-104"
                }, 
                {
                    "from": "sent-PMC2786891-UAZ-r1-71-4", 
                    "object-type": "map-range", 
                    "to": "sent-PMC2786891-cmu-102"
                }, 
                {
                    "from": "sent-PMC2786891-UAZ-r1-61-1", 
                    "object-type": "map-range", 
                    "to": "sent-PMC2786891-cmu-90"
                }, 
                {
                    "from": "sent-PMC2786891-UAZ-r1-46-3", 
                    "object-type": "map-range", 
                    "to": "sent-PMC2786891-cmu-79"
                }, 
                {
                    "from": "sent-PMC2786891-UAZ-r1-18-4", 
                    "object-type": "map-range", 
                    "to": "sent-PMC2786891-cmu-14"
                }, 
                {
                    "from": "sent-PMC2786891-UAZ-r1-81-2", 
                    "object-type": "map-range", 
                    "to": "sent-PMC2786891-cmu-109"
                }, 
                {
                    "from": "sent-PMC2786891-UAZ-r1-83-1", 
                    "object-type": "map-range", 
                    "to": "sent-PMC2786891-cmu-114"
                }, 
                {
                    "from": "sent-PMC2786891-UAZ-r1-85-1", 
                    "object-type": "map-range", 
                    "to": "sent-PMC2786891-cmu-125"
                }, 
                {
                    "from": "sent-PMC2786891-UAZ-r1-85-2", 
                    "object-type": "map-range", 
                    "to": "sent-PMC2786891-cmu-126"
                }, 
                {
                    "from": "sent-PMC2786891-UAZ-r1-75-0", 
                    "object-type": "map-range", 
                    "to": "sent-PMC2786891-cmu-103"
                }, 
                {
                    "from": "sent-PMC2786891-UAZ-r1-61-3", 
                    "object-type": "map-range", 
                    "to": "sent-PMC2786891-cmu-92"
                }, 
                {
                    "from": "sent-PMC2786891-UAZ-r1-41-5", 
                    "object-type": "map-range", 
                    "to": "sent-PMC2786891-cmu-72"
                }, 
                {
                    "from": "sent-PMC2786891-UAZ-r1-24-0", 
                    "object-type": "map-range", 
                    "to": "sent-PMC2786891-cmu-20"
                }, 
                {
                    "from": "sent-PMC2786891-UAZ-r1-71-2", 
                    "object-type": "map-range", 
                    "to": "sent-PMC2786891-cmu-100"
                }, 
                {
                    "from": "sent-PMC2786891-UAZ-r1-82-1", 
                    "object-type": "map-range", 
                    "to": "sent-PMC2786891-cmu-112"
                }, 
                {
                    "from": "sent-PMC2786891-UAZ-r1-54-0", 
                    "object-type": "map-range", 
                    "to": "sent-PMC2786891-cmu-85"
                }, 
                {
                    "from": "sent-PMC2786891-UAZ-r1-24-1", 
                    "object-type": "map-range", 
                    "to": "sent-PMC2786891-cmu-21"
                }, 
                {
                    "from": "sent-PMC2786891-UAZ-r1-37-0", 
                    "object-type": "map-range", 
                    "to": "sent-PMC2786891-cmu-51"
                }, 
                {
                    "from": "sent-PMC2786891-UAZ-r1-84-0", 
                    "object-type": "map-range", 
                    "to": "sent-PMC2786891-cmu-118"
                }, 
                {
                    "from": "sent-PMC2786891-UAZ-r1-54-1", 
                    "object-type": "map-range", 
                    "to": "sent-PMC2786891-cmu-86"
                }, 
                {
                    "from": "sent-PMC2786891-UAZ-r1-16-1", 
                    "object-type": "map-range", 
                    "to": "sent-PMC2786891-cmu-3"
                }, 
                {
                    "from": "sent-PMC2786891-UAZ-r1-61-4", 
                    "object-type": "map-range", 
                    "to": "sent-PMC2786891-cmu-93"
                }, 
                {
                    "from": "sent-PMC2786891-UAZ-r1-76-1", 
                    "object-type": "map-range", 
                    "to": "sent-PMC2786891-cmu-105"
                }, 
                {
                    "from": "sent-PMC2786891-UAZ-r1-87-1", 
                    "object-type": "map-range", 
                    "to": "sent-PMC2786891-cmu-138"
                }, 
                {
                    "from": "sent-PMC2786891-UAZ-r1-86-3", 
                    "object-type": "map-range", 
                    "to": "sent-PMC2786891-cmu-130"
                }, 
                {
                    "from": "sent-PMC2786891-UAZ-r1-7-0", 
                    "object-type": "map-range", 
                    "to": "sent-PMC2786891-cmu-75"
                }, 
                {
                    "from": "sent-PMC2786891-UAZ-r1-37-10", 
                    "object-type": "map-range", 
                    "to": "sent-PMC2786891-cmu-61"
                }, 
                {
                    "from": "sent-PMC2786891-UAZ-r1-81-1", 
                    "object-type": "map-range", 
                    "to": "sent-PMC2786891-cmu-108"
                }, 
                {
                    "from": "sent-PMC2786891-UAZ-r1-85-0", 
                    "object-type": "map-range", 
                    "to": "sent-PMC2786891-cmu-124"
                }, 
                {
                    "from": "sent-PMC2786891-UAZ-r1-86-1", 
                    "object-type": "map-range", 
                    "to": "sent-PMC2786891-cmu-128"
                }, 
                {
                    "from": "sent-PMC2786891-UAZ-r1-30-7", 
                    "object-type": "map-range", 
                    "to": "sent-PMC2786891-cmu-39"
                }, 
                {
                    "from": "sent-PMC2786891-UAZ-r1-18-1", 
                    "object-type": "map-range", 
                    "to": "sent-PMC2786891-cmu-11"
                }, 
                {
                    "from": "sent-PMC2786891-UAZ-r1-71-1", 
                    "object-type": "map-range", 
                    "to": "sent-PMC2786891-cmu-99"
                }, 
                {
                    "from": "sent-PMC2786891-UAZ-r1-66-0", 
                    "object-type": "map-range", 
                    "to": "sent-PMC2786891-cmu-95"
                }, 
                {
                    "from": "sent-PMC2786891-UAZ-r1-61-0", 
                    "object-type": "map-range", 
                    "to": "sent-PMC2786891-cmu-89"
                }, 
                {
                    "from": "sent-PMC2786891-UAZ-r1-18-6", 
                    "object-type": "map-range", 
                    "to": "sent-PMC2786891-cmu-16"
                }, 
                {
                    "from": "sent-PMC2786891-UAZ-r1-41-2", 
                    "object-type": "map-range", 
                    "to": "sent-PMC2786891-cmu-69"
                }, 
                {
                    "from": "sent-PMC2786891-UAZ-r1-41-3", 
                    "object-type": "map-range", 
                    "to": "sent-PMC2786891-cmu-70"
                }, 
                {
                    "from": "sent-PMC2786891-UAZ-r1-1-4", 
                    "object-type": "map-range", 
                    "to": "sent-PMC2786891-cmu-2"
                }, 
                {
                    "from": "sent-PMC2786891-UAZ-r1-17-2", 
                    "object-type": "map-range", 
                    "to": "sent-PMC2786891-cmu-8"
                }, 
                {
                    "from": "sent-PMC2786891-UAZ-r1-33-6", 
                    "object-type": "map-range", 
                    "to": "sent-PMC2786891-cmu-49"
                }, 
                {
                    "from": "sent-PMC2786891-UAZ-r1-30-8", 
                    "object-type": "map-range", 
                    "to": "sent-PMC2786891-cmu-40"
                }, 
                {
                    "from": "sent-PMC2786891-UAZ-r1-37-3", 
                    "object-type": "map-range", 
                    "to": "sent-PMC2786891-cmu-54"
                }, 
                {
                    "from": "sent-PMC2786891-UAZ-r1-30-4", 
                    "object-type": "map-range", 
                    "to": "sent-PMC2786891-cmu-36"
                }, 
                {
                    "from": "sent-PMC2786891-UAZ-r1-37-6", 
                    "object-type": "map-range", 
                    "to": "sent-PMC2786891-cmu-57"
                }, 
                {
                    "from": "sent-PMC2786891-UAZ-r1-24-4", 
                    "object-type": "map-range", 
                    "to": "sent-PMC2786891-cmu-24"
                }, 
                {
                    "from": "sent-PMC2786891-UAZ-r1-37-11", 
                    "object-type": "map-range", 
                    "to": "sent-PMC2786891-cmu-62"
                }, 
                {
                    "from": "sent-PMC2786891-UAZ-r1-84-4", 
                    "object-type": "map-range", 
                    "to": "sent-PMC2786891-cmu-122"
                }, 
                {
                    "from": "sent-PMC2786891-UAZ-r1-49-0", 
                    "object-type": "map-range", 
                    "to": "sent-PMC2786891-cmu-83"
                }, 
                {
                    "from": "sent-PMC2786891-UAZ-r1-41-6", 
                    "object-type": "map-range", 
                    "to": "sent-PMC2786891-cmu-65"
                }, 
                {
                    "from": "sent-PMC2786891-UAZ-r1-24-2", 
                    "object-type": "map-range", 
                    "to": "sent-PMC2786891-cmu-22"
                }, 
                {
                    "from": "sent-PMC2786891-UAZ-r1-86-4", 
                    "object-type": "map-range", 
                    "to": "sent-PMC2786891-cmu-131"
                }, 
                {
                    "from": "sent-PMC2786891-UAZ-r1-37-2", 
                    "object-type": "map-range", 
                    "to": "sent-PMC2786891-cmu-53"
                }, 
                {
                    "from": "sent-PMC2786891-UAZ-r1-30-5", 
                    "object-type": "map-range", 
                    "to": "sent-PMC2786891-cmu-37"
                }, 
                {
                    "from": "sent-PMC2786891-UAZ-r1-27-3", 
                    "object-type": "map-range", 
                    "to": "sent-PMC2786891-cmu-30"
                }, 
                {
                    "from": "sent-PMC2786891-UAZ-r1-54-2", 
                    "object-type": "map-range", 
                    "to": "sent-PMC2786891-cmu-87"
                }, 
                {
                    "from": "sent-PMC2786891-UAZ-r1-41-4", 
                    "object-type": "map-range", 
                    "to": "sent-PMC2786891-cmu-71"
                }, 
                {
                    "from": "sent-PMC2786891-UAZ-r1-83-4", 
                    "object-type": "map-range", 
                    "to": "sent-PMC2786891-cmu-117"
                }, 
                {
                    "from": "sent-PMC2786891-UAZ-r1-83-3", 
                    "object-type": "map-range", 
                    "to": "sent-PMC2786891-cmu-116"
                }, 
                {
                    "from": "sent-PMC2786891-UAZ-r1-81-0", 
                    "object-type": "map-range", 
                    "to": "sent-PMC2786891-cmu-107"
                }, 
                {
                    "from": "sent-PMC2786891-UAZ-r1-30-2", 
                    "object-type": "map-range", 
                    "to": "sent-PMC2786891-cmu-34"
                }, 
                {
                    "from": "sent-PMC2786891-UAZ-r1-86-2", 
                    "object-type": "map-range", 
                    "to": "sent-PMC2786891-cmu-129"
                }, 
                {
                    "from": "sent-PMC2786891-UAZ-r1-61-2", 
                    "object-type": "map-range", 
                    "to": "sent-PMC2786891-cmu-91"
                }, 
                {
                    "from": "sent-PMC2786891-UAZ-r1-46-5", 
                    "object-type": "map-range", 
                    "to": "sent-PMC2786891-cmu-81"
                }, 
                {
                    "from": "sent-PMC2786891-UAZ-r1-30-1", 
                    "object-type": "map-range", 
                    "to": "sent-PMC2786891-cmu-33"
                }, 
                {
                    "from": "sent-PMC2786891-UAZ-r1-66-1", 
                    "object-type": "map-range", 
                    "to": "sent-PMC2786891-cmu-96"
                }, 
                {
                    "from": "sent-PMC2786891-UAZ-r1-87-3", 
                    "object-type": "map-range", 
                    "to": "sent-PMC2786891-cmu-140"
                }, 
                {
                    "from": "sent-PMC2786891-UAZ-r1-37-5", 
                    "object-type": "map-range", 
                    "to": "sent-PMC2786891-cmu-56"
                }, 
                {
                    "from": "sent-PMC2786891-UAZ-r1-87-2", 
                    "object-type": "map-range", 
                    "to": "sent-PMC2786891-cmu-139"
                }, 
                {
                    "from": "sent-PMC2786891-UAZ-r1-23-0", 
                    "object-type": "map-range", 
                    "to": "sent-PMC2786891-cmu-19"
                }, 
                {
                    "from": "sent-PMC2786891-UAZ-r1-33-1", 
                    "object-type": "map-range", 
                    "to": "sent-PMC2786891-cmu-44"
                }, 
                {
                    "from": "sent-PMC2786891-UAZ-r1-84-1", 
                    "object-type": "map-range", 
                    "to": "sent-PMC2786891-cmu-119"
                }, 
                {
                    "from": "sent-PMC2786891-UAZ-r1-82-0", 
                    "object-type": "map-range", 
                    "to": "sent-PMC2786891-cmu-111"
                }, 
                {
                    "from": "sent-PMC2786891-UAZ-r1-19-0", 
                    "object-type": "map-range", 
                    "to": "sent-PMC2786891-cmu-17"
                }, 
                {
                    "from": "sent-PMC2786891-UAZ-r1-41-1", 
                    "object-type": "map-range", 
                    "to": "sent-PMC2786891-cmu-68"
                }, 
                {
                    "from": "sent-PMC2786891-UAZ-r1-81-3", 
                    "object-type": "map-range", 
                    "to": "sent-PMC2786891-cmu-110"
                }, 
                {
                    "from": "sent-PMC2786891-UAZ-r1-16-3", 
                    "object-type": "map-range", 
                    "to": "sent-PMC2786891-cmu-5"
                }, 
                {
                    "from": "sent-PMC2786891-UAZ-r1-27-2", 
                    "object-type": "map-range", 
                    "to": "sent-PMC2786891-cmu-29"
                }, 
                {
                    "from": "sent-PMC2786891-UAZ-r1-37-1", 
                    "object-type": "map-range", 
                    "to": "sent-PMC2786891-cmu-52"
                }, 
                {
                    "from": "sent-PMC2786891-UAZ-r1-71-0", 
                    "object-type": "map-range", 
                    "to": "sent-PMC2786891-cmu-98"
                }, 
                {
                    "from": "sent-PMC2786891-UAZ-r1-33-5", 
                    "object-type": "map-range", 
                    "to": "sent-PMC2786891-cmu-48"
                }, 
                {
                    "from": "sent-PMC2786891-UAZ-r1-46-1", 
                    "object-type": "map-range", 
                    "to": "sent-PMC2786891-cmu-77"
                }, 
                {
                    "from": "sent-PMC2786891-UAZ-r1-65-0", 
                    "object-type": "map-range", 
                    "to": "sent-PMC2786891-cmu-94"
                }, 
                {
                    "from": "sent-PMC2786891-UAZ-r1-87-0", 
                    "object-type": "map-range", 
                    "to": "sent-PMC2786891-cmu-137"
                }, 
                {
                    "from": "sent-PMC2786891-UAZ-r1-27-0", 
                    "object-type": "map-range", 
                    "to": "sent-PMC2786891-cmu-27"
                }, 
                {
                    "from": "sent-PMC2786891-UAZ-r1-30-3", 
                    "object-type": "map-range", 
                    "to": "sent-PMC2786891-cmu-35"
                }, 
                {
                    "from": "sent-PMC2786891-UAZ-r1-71-3", 
                    "object-type": "map-range", 
                    "to": "sent-PMC2786891-cmu-101"
                }, 
                {
                    "from": "sent-PMC2786891-UAZ-r1-84-2", 
                    "object-type": "map-range", 
                    "to": "sent-PMC2786891-cmu-120"
                }, 
                {
                    "from": "sent-PMC2786891-UAZ-r1-41-6", 
                    "object-type": "map-range", 
                    "to": "sent-PMC2786891-cmu-73"
                }, 
                {
                    "from": "sent-PMC2786891-UAZ-r1-37-7", 
                    "object-type": "map-range", 
                    "to": "sent-PMC2786891-cmu-58"
                }, 
                {
                    "from": "sent-PMC2786891-UAZ-r1-46-2", 
                    "object-type": "map-range", 
                    "to": "sent-PMC2786891-cmu-78"
                }, 
                {
                    "from": "sent-PMC2786891-UAZ-r1-33-2", 
                    "object-type": "map-range", 
                    "to": "sent-PMC2786891-cmu-45"
                }, 
                {
                    "from": "sent-PMC2786891-UAZ-r1-83-2", 
                    "object-type": "map-range", 
                    "to": "sent-PMC2786891-cmu-115"
                }, 
                {
                    "from": "sent-PMC2786891-UAZ-r1-37-9", 
                    "object-type": "map-range", 
                    "to": "sent-PMC2786891-cmu-60"
                }, 
                {
                    "from": "sent-PMC2786891-UAZ-r1-37-8", 
                    "object-type": "map-range", 
                    "to": "sent-PMC2786891-cmu-59"
                }, 
                {
                    "from": "sent-PMC2786891-UAZ-r1-33-3", 
                    "object-type": "map-range", 
                    "to": "sent-PMC2786891-cmu-46"
                }, 
                {
                    "from": "sent-PMC2786891-UAZ-r1-17-1", 
                    "object-type": "map-range", 
                    "to": "sent-PMC2786891-cmu-7"
                }, 
                {
                    "from": "sent-PMC2786891-UAZ-r1-27-1", 
                    "object-type": "map-range", 
                    "to": "sent-PMC2786891-cmu-28"
                }
            ], 
            "object-meta": {
                "component": "Pradeep-Matcher", 
                "object-type": "meta-info", 
                "organization": "CMU"
            }, 
            "object-type": "frame"
        }, 
        {
            "frame-id": "smap-PMC2786891-cmu-2", 
            "frame-type": "sentence-map", 
            "list1-meta": {
                "component": "MedScan", 
                "object-type": "meta-info", 
                "organization": "CMU"
            }, 
            "list2-meta": {
                "component": "Nicolas-NXML-Parser", 
                "object-type": "meta-info", 
                "organization": "CMU"
            }, 
            "map": [
                {
                    "from": "sent-PMC2786891-medscan-13", 
                    "object-type": "map-range", 
                    "to": "sent-PMC2786891-cmu-15"
                }, 
                {
                    "from": "sent-PMC2786891-medscan-21", 
                    "object-type": "map-range", 
                    "to": "sent-PMC2786891-cmu-25"
                }, 
                {
                    "from": "sent-PMC2786891-medscan-141", 
                    "object-type": "map-range", 
                    "to": "sent-PMC2786891-cmu-123"
                }, 
                {
                    "from": "sent-PMC2786891-medscan-57", 
                    "object-type": "map-range", 
                    "to": "sent-PMC2786891-cmu-67"
                }, 
                {
                    "from": "sent-PMC2786891-medscan-139", 
                    "object-type": "map-range", 
                    "to": "sent-PMC2786891-cmu-121"
                }, 
                {
                    "from": "sent-PMC2786891-medscan-152", 
                    "object-type": "map-range", 
                    "to": "sent-PMC2786891-cmu-134"
                }, 
                {
                    "from": "sent-PMC2786891-medscan-7", 
                    "object-type": "map-range", 
                    "to": "sent-PMC2786891-cmu-9"
                }, 
                {
                    "from": "sent-PMC2786891-medscan-154", 
                    "object-type": "map-range", 
                    "to": "sent-PMC2786891-cmu-136"
                }, 
                {
                    "from": "sent-PMC2786891-medscan-54", 
                    "object-type": "map-range", 
                    "to": "sent-PMC2786891-cmu-63"
                }, 
                {
                    "from": "sent-PMC2786891-medscan-145", 
                    "object-type": "map-range", 
                    "to": "sent-PMC2786891-cmu-127"
                }, 
                {
                    "from": "sent-PMC2786891-medscan-4", 
                    "object-type": "map-range", 
                    "to": "sent-PMC2786891-cmu-6"
                }, 
                {
                    "from": "sent-PMC2786891-medscan-151", 
                    "object-type": "map-range", 
                    "to": "sent-PMC2786891-cmu-133"
                }, 
                {
                    "from": "sent-PMC2786891-medscan-35", 
                    "object-type": "map-range", 
                    "to": "sent-PMC2786891-cmu-41"
                }, 
                {
                    "from": "sent-PMC2786891-medscan-131", 
                    "object-type": "map-range", 
                    "to": "sent-PMC2786891-cmu-113"
                }, 
                {
                    "from": "sent-PMC2786891-medscan-47", 
                    "object-type": "map-range", 
                    "to": "sent-PMC2786891-cmu-55"
                }, 
                {
                    "from": "sent-PMC2786891-medscan-153", 
                    "object-type": "map-range", 
                    "to": "sent-PMC2786891-cmu-135"
                }, 
                {
                    "from": "sent-PMC2786891-medscan-40", 
                    "object-type": "map-range", 
                    "to": "sent-PMC2786891-cmu-47"
                }, 
                {
                    "from": "sent-PMC2786891-medscan-19", 
                    "object-type": "map-range", 
                    "to": "sent-PMC2786891-cmu-23"
                }, 
                {
                    "from": "sent-PMC2786891-medscan-55", 
                    "object-type": "map-range", 
                    "to": "sent-PMC2786891-cmu-64"
                }, 
                {
                    "from": "sent-PMC2786891-medscan-10", 
                    "object-type": "map-range", 
                    "to": "sent-PMC2786891-cmu-12"
                }, 
                {
                    "from": "sent-PMC2786891-medscan-150", 
                    "object-type": "map-range", 
                    "to": "sent-PMC2786891-cmu-132"
                }, 
                {
                    "from": "sent-PMC2786891-medscan-68", 
                    "object-type": "map-range", 
                    "to": "sent-PMC2786891-cmu-80"
                }, 
                {
                    "from": "sent-PMC2786891-medscan-64", 
                    "object-type": "map-range", 
                    "to": "sent-PMC2786891-cmu-76"
                }, 
                {
                    "from": "sent-PMC2786891-medscan-26", 
                    "object-type": "map-range", 
                    "to": "sent-PMC2786891-cmu-32"
                }, 
                {
                    "from": "sent-PMC2786891-medscan-112", 
                    "object-type": "map-range", 
                    "to": "sent-PMC2786891-cmu-102"
                }, 
                {
                    "from": "sent-PMC2786891-medscan-90", 
                    "object-type": "map-range", 
                    "to": "sent-PMC2786891-cmu-90"
                }, 
                {
                    "from": "sent-PMC2786891-medscan-67", 
                    "object-type": "map-range", 
                    "to": "sent-PMC2786891-cmu-79"
                }, 
                {
                    "from": "sent-PMC2786891-medscan-12", 
                    "object-type": "map-range", 
                    "to": "sent-PMC2786891-cmu-14"
                }, 
                {
                    "from": "sent-PMC2786891-medscan-127", 
                    "object-type": "map-range", 
                    "to": "sent-PMC2786891-cmu-109"
                }, 
                {
                    "from": "sent-PMC2786891-medscan-132", 
                    "object-type": "map-range", 
                    "to": "sent-PMC2786891-cmu-114"
                }, 
                {
                    "from": "sent-PMC2786891-medscan-143", 
                    "object-type": "map-range", 
                    "to": "sent-PMC2786891-cmu-125"
                }, 
                {
                    "from": "sent-PMC2786891-medscan-144", 
                    "object-type": "map-range", 
                    "to": "sent-PMC2786891-cmu-126"
                }, 
                {
                    "from": "sent-PMC2786891-medscan-92", 
                    "object-type": "map-range", 
                    "to": "sent-PMC2786891-cmu-92"
                }, 
                {
                    "from": "sent-PMC2786891-medscan-62", 
                    "object-type": "map-range", 
                    "to": "sent-PMC2786891-cmu-72"
                }, 
                {
                    "from": "sent-PMC2786891-medscan-110", 
                    "object-type": "map-range", 
                    "to": "sent-PMC2786891-cmu-100"
                }, 
                {
                    "from": "sent-PMC2786891-medscan-130", 
                    "object-type": "map-range", 
                    "to": "sent-PMC2786891-cmu-112"
                }, 
                {
                    "from": "sent-PMC2786891-medscan-75", 
                    "object-type": "map-range", 
                    "to": "sent-PMC2786891-cmu-85"
                }, 
                {
                    "from": "sent-PMC2786891-medscan-17", 
                    "object-type": "map-range", 
                    "to": "sent-PMC2786891-cmu-21"
                }, 
                {
                    "from": "sent-PMC2786891-medscan-43", 
                    "object-type": "map-range", 
                    "to": "sent-PMC2786891-cmu-51"
                }, 
                {
                    "from": "sent-PMC2786891-medscan-136", 
                    "object-type": "map-range", 
                    "to": "sent-PMC2786891-cmu-118"
                }, 
                {
                    "from": "sent-PMC2786891-medscan-76", 
                    "object-type": "map-range", 
                    "to": "sent-PMC2786891-cmu-86"
                }, 
                {
                    "from": "sent-PMC2786891-medscan-1", 
                    "object-type": "map-range", 
                    "to": "sent-PMC2786891-cmu-3"
                }, 
                {
                    "from": "sent-PMC2786891-medscan-93", 
                    "object-type": "map-range", 
                    "to": "sent-PMC2786891-cmu-93"
                }, 
                {
                    "from": "sent-PMC2786891-medscan-120", 
                    "object-type": "map-range", 
                    "to": "sent-PMC2786891-cmu-105"
                }, 
                {
                    "from": "sent-PMC2786891-medscan-156", 
                    "object-type": "map-range", 
                    "to": "sent-PMC2786891-cmu-138"
                }, 
                {
                    "from": "sent-PMC2786891-medscan-148", 
                    "object-type": "map-range", 
                    "to": "sent-PMC2786891-cmu-130"
                }, 
                {
                    "from": "sent-PMC2786891-medscan-52", 
                    "object-type": "map-range", 
                    "to": "sent-PMC2786891-cmu-61"
                }, 
                {
                    "from": "sent-PMC2786891-medscan-126", 
                    "object-type": "map-range", 
                    "to": "sent-PMC2786891-cmu-108"
                }, 
                {
                    "from": "sent-PMC2786891-medscan-142", 
                    "object-type": "map-range", 
                    "to": "sent-PMC2786891-cmu-124"
                }, 
                {
                    "from": "sent-PMC2786891-medscan-146", 
                    "object-type": "map-range", 
                    "to": "sent-PMC2786891-cmu-128"
                }, 
                {
                    "from": "sent-PMC2786891-medscan-33", 
                    "object-type": "map-range", 
                    "to": "sent-PMC2786891-cmu-39"
                }, 
                {
                    "from": "sent-PMC2786891-medscan-9", 
                    "object-type": "map-range", 
                    "to": "sent-PMC2786891-cmu-11"
                }, 
                {
                    "from": "sent-PMC2786891-medscan-98", 
                    "object-type": "map-range", 
                    "to": "sent-PMC2786891-cmu-95"
                }, 
                {
                    "from": "sent-PMC2786891-medscan-98", 
                    "object-type": "map-range", 
                    "to": "sent-PMC2786891-cmu-95"
                }, 
                {
                    "from": "sent-PMC2786891-medscan-89", 
                    "object-type": "map-range", 
                    "to": "sent-PMC2786891-cmu-89"
                }, 
                {
                    "from": "sent-PMC2786891-medscan-14", 
                    "object-type": "map-range", 
                    "to": "sent-PMC2786891-cmu-16"
                }, 
                {
                    "from": "sent-PMC2786891-medscan-59", 
                    "object-type": "map-range", 
                    "to": "sent-PMC2786891-cmu-69"
                }, 
                {
                    "from": "sent-PMC2786891-medscan-60", 
                    "object-type": "map-range", 
                    "to": "sent-PMC2786891-cmu-70"
                }, 
                {
                    "from": "sent-PMC2786891-medscan-0", 
                    "object-type": "map-range", 
                    "to": "sent-PMC2786891-cmu-2"
                }, 
                {
                    "from": "sent-PMC2786891-medscan-42", 
                    "object-type": "map-range", 
                    "to": "sent-PMC2786891-cmu-49"
                }, 
                {
                    "from": "sent-PMC2786891-medscan-34", 
                    "object-type": "map-range", 
                    "to": "sent-PMC2786891-cmu-40"
                }, 
                {
                    "from": "sent-PMC2786891-medscan-46", 
                    "object-type": "map-range", 
                    "to": "sent-PMC2786891-cmu-54"
                }, 
                {
                    "from": "sent-PMC2786891-medscan-30", 
                    "object-type": "map-range", 
                    "to": "sent-PMC2786891-cmu-36"
                }, 
                {
                    "from": "sent-PMC2786891-medscan-49", 
                    "object-type": "map-range", 
                    "to": "sent-PMC2786891-cmu-57"
                }, 
                {
                    "from": "sent-PMC2786891-medscan-20", 
                    "object-type": "map-range", 
                    "to": "sent-PMC2786891-cmu-24"
                }, 
                {
                    "from": "sent-PMC2786891-medscan-53", 
                    "object-type": "map-range", 
                    "to": "sent-PMC2786891-cmu-62"
                }, 
                {
                    "from": "sent-PMC2786891-medscan-140", 
                    "object-type": "map-range", 
                    "to": "sent-PMC2786891-cmu-122"
                }, 
                {
                    "from": "sent-PMC2786891-medscan-72", 
                    "object-type": "map-range", 
                    "to": "sent-PMC2786891-cmu-83"
                }, 
                {
                    "from": "sent-PMC2786891-medscan-56", 
                    "object-type": "map-range", 
                    "to": "sent-PMC2786891-cmu-65"
                }, 
                {
                    "from": "sent-PMC2786891-medscan-18", 
                    "object-type": "map-range", 
                    "to": "sent-PMC2786891-cmu-22"
                }, 
                {
                    "from": "sent-PMC2786891-medscan-149", 
                    "object-type": "map-range", 
                    "to": "sent-PMC2786891-cmu-131"
                }, 
                {
                    "from": "sent-PMC2786891-medscan-45", 
                    "object-type": "map-range", 
                    "to": "sent-PMC2786891-cmu-53"
                }, 
                {
                    "from": "sent-PMC2786891-medscan-31", 
                    "object-type": "map-range", 
                    "to": "sent-PMC2786891-cmu-37"
                }, 
                {
                    "from": "sent-PMC2786891-medscan-25", 
                    "object-type": "map-range", 
                    "to": "sent-PMC2786891-cmu-30"
                }, 
                {
                    "from": "sent-PMC2786891-medscan-77", 
                    "object-type": "map-range", 
                    "to": "sent-PMC2786891-cmu-87"
                }, 
                {
                    "from": "sent-PMC2786891-medscan-61", 
                    "object-type": "map-range", 
                    "to": "sent-PMC2786891-cmu-71"
                }, 
                {
                    "from": "sent-PMC2786891-medscan-135", 
                    "object-type": "map-range", 
                    "to": "sent-PMC2786891-cmu-117"
                }, 
                {
                    "from": "sent-PMC2786891-medscan-134", 
                    "object-type": "map-range", 
                    "to": "sent-PMC2786891-cmu-116"
                }, 
                {
                    "from": "sent-PMC2786891-medscan-125", 
                    "object-type": "map-range", 
                    "to": "sent-PMC2786891-cmu-107"
                }, 
                {
                    "from": "sent-PMC2786891-medscan-28", 
                    "object-type": "map-range", 
                    "to": "sent-PMC2786891-cmu-34"
                }, 
                {
                    "from": "sent-PMC2786891-medscan-147", 
                    "object-type": "map-range", 
                    "to": "sent-PMC2786891-cmu-129"
                }, 
                {
                    "from": "sent-PMC2786891-medscan-91", 
                    "object-type": "map-range", 
                    "to": "sent-PMC2786891-cmu-91"
                }, 
                {
                    "from": "sent-PMC2786891-medscan-69", 
                    "object-type": "map-range", 
                    "to": "sent-PMC2786891-cmu-81"
                }, 
                {
                    "from": "sent-PMC2786891-medscan-27", 
                    "object-type": "map-range", 
                    "to": "sent-PMC2786891-cmu-33"
                }, 
                {
                    "from": "sent-PMC2786891-medscan-102", 
                    "object-type": "map-range", 
                    "to": "sent-PMC2786891-cmu-96"
                }, 
                {
                    "from": "sent-PMC2786891-medscan-158", 
                    "object-type": "map-range", 
                    "to": "sent-PMC2786891-cmu-140"
                }, 
                {
                    "from": "sent-PMC2786891-medscan-48", 
                    "object-type": "map-range", 
                    "to": "sent-PMC2786891-cmu-56"
                }, 
                {
                    "from": "sent-PMC2786891-medscan-157", 
                    "object-type": "map-range", 
                    "to": "sent-PMC2786891-cmu-139"
                }, 
                {
                    "from": "sent-PMC2786891-medscan-37", 
                    "object-type": "map-range", 
                    "to": "sent-PMC2786891-cmu-44"
                }, 
                {
                    "from": "sent-PMC2786891-medscan-137", 
                    "object-type": "map-range", 
                    "to": "sent-PMC2786891-cmu-119"
                }, 
                {
                    "from": "sent-PMC2786891-medscan-129", 
                    "object-type": "map-range", 
                    "to": "sent-PMC2786891-cmu-111"
                }, 
                {
                    "from": "sent-PMC2786891-medscan-2", 
                    "object-type": "map-range", 
                    "to": "sent-PMC2786891-cmu-4"
                }, 
                {
                    "from": "sent-PMC2786891-medscan-15", 
                    "object-type": "map-range", 
                    "to": "sent-PMC2786891-cmu-17"
                }, 
                {
                    "from": "sent-PMC2786891-medscan-58", 
                    "object-type": "map-range", 
                    "to": "sent-PMC2786891-cmu-68"
                }, 
                {
                    "from": "sent-PMC2786891-medscan-128", 
                    "object-type": "map-range", 
                    "to": "sent-PMC2786891-cmu-110"
                }, 
                {
                    "from": "sent-PMC2786891-medscan-3", 
                    "object-type": "map-range", 
                    "to": "sent-PMC2786891-cmu-5"
                }, 
                {
                    "from": "sent-PMC2786891-medscan-24", 
                    "object-type": "map-range", 
                    "to": "sent-PMC2786891-cmu-29"
                }, 
                {
                    "from": "sent-PMC2786891-medscan-114", 
                    "object-type": "map-range", 
                    "to": "sent-PMC2786891-cmu-98"
                }, 
                {
                    "from": "sent-PMC2786891-medscan-114", 
                    "object-type": "map-range", 
                    "to": "sent-PMC2786891-cmu-98"
                }, 
                {
                    "from": "sent-PMC2786891-medscan-41", 
                    "object-type": "map-range", 
                    "to": "sent-PMC2786891-cmu-48"
                }, 
                {
                    "from": "sent-PMC2786891-medscan-155", 
                    "object-type": "map-range", 
                    "to": "sent-PMC2786891-cmu-137"
                }, 
                {
                    "from": "sent-PMC2786891-medscan-29", 
                    "object-type": "map-range", 
                    "to": "sent-PMC2786891-cmu-35"
                }, 
                {
                    "from": "sent-PMC2786891-medscan-111", 
                    "object-type": "map-range", 
                    "to": "sent-PMC2786891-cmu-101"
                }, 
                {
                    "from": "sent-PMC2786891-medscan-63", 
                    "object-type": "map-range", 
                    "to": "sent-PMC2786891-cmu-73"
                }, 
                {
                    "from": "sent-PMC2786891-medscan-66", 
                    "object-type": "map-range", 
                    "to": "sent-PMC2786891-cmu-78"
                }, 
                {
                    "from": "sent-PMC2786891-medscan-38", 
                    "object-type": "map-range", 
                    "to": "sent-PMC2786891-cmu-45"
                }, 
                {
                    "from": "sent-PMC2786891-medscan-51", 
                    "object-type": "map-range", 
                    "to": "sent-PMC2786891-cmu-60"
                }, 
                {
                    "from": "sent-PMC2786891-medscan-50", 
                    "object-type": "map-range", 
                    "to": "sent-PMC2786891-cmu-59"
                }, 
                {
                    "from": "sent-PMC2786891-medscan-39", 
                    "object-type": "map-range", 
                    "to": "sent-PMC2786891-cmu-46"
                }, 
                {
                    "from": "sent-PMC2786891-medscan-5", 
                    "object-type": "map-range", 
                    "to": "sent-PMC2786891-cmu-7"
                }, 
                {
                    "from": "sent-PMC2786891-medscan-32", 
                    "object-type": "map-range", 
                    "to": "sent-PMC2786891-cmu-38"
                }, 
                {
                    "from": "sent-PMC2786891-medscan-23", 
                    "object-type": "map-range", 
                    "to": "sent-PMC2786891-cmu-28"
                }
            ], 
            "object-meta": {
                "component": "Pradeep-Matcher", 
                "object-type": "meta-info", 
                "organization": "CMU"
            }, 
            "object-type": "frame"
        }
    ], 
    "object-meta": {
        "component": "Pradeep-Matcher", 
        "component-type": "machine", 
        "doc-id": "PMC2786891", 
        "object-type": "meta-info", 
        "organization": "CMU"
    }, 
    "object-type": "frame-collection"
}
