{
    "frames": [
        {
            "frame-id": "smap-PMC3566099-cmu-1", 
            "frame-type": "sentence-map", 
            "list1-meta": {
                "component": "nxml2fries", 
                "object-type": "meta-info", 
                "organization": "UAZ"
            }, 
            "list2-meta": {
                "component": "Nicolas-NXML-Parser", 
                "object-type": "meta-info", 
                "organization": "CMU"
            }, 
            "map": [
                {
                    "from": "sent-PMC3566099-UAZ-r1-87-4", 
                    "object-type": "map-range", 
                    "to": "sent-PMC3566099-cmu-154"
                }, 
                {
                    "from": "sent-PMC3566099-UAZ-r1-42-0", 
                    "object-type": "map-range", 
                    "to": "sent-PMC3566099-cmu-83"
                }, 
                {
                    "from": "sent-PMC3566099-UAZ-r1-23-3", 
                    "object-type": "map-range", 
                    "to": "sent-PMC3566099-cmu-42"
                }, 
                {
                    "from": "sent-PMC3566099-UAZ-r1-64-3", 
                    "object-type": "map-range", 
                    "to": "sent-PMC3566099-cmu-114"
                }, 
                {
                    "from": "sent-PMC3566099-UAZ-r1-86-1", 
                    "object-type": "map-range", 
                    "to": "sent-PMC3566099-cmu-147"
                }, 
                {
                    "from": "sent-PMC3566099-UAZ-r1-32-3", 
                    "object-type": "map-range", 
                    "to": "sent-PMC3566099-cmu-57"
                }, 
                {
                    "from": "sent-PMC3566099-UAZ-r1-98-0", 
                    "object-type": "map-range", 
                    "to": "sent-PMC3566099-cmu-67"
                }, 
                {
                    "from": "sent-PMC3566099-UAZ-r1-56-0", 
                    "object-type": "map-range", 
                    "to": "sent-PMC3566099-cmu-98"
                }, 
                {
                    "from": "sent-PMC3566099-UAZ-r1-7-3", 
                    "object-type": "map-range", 
                    "to": "sent-PMC3566099-cmu-5"
                }, 
                {
                    "from": "sent-PMC3566099-UAZ-r1-45-3", 
                    "object-type": "map-range", 
                    "to": "sent-PMC3566099-cmu-90"
                }, 
                {
                    "from": "sent-PMC3566099-UAZ-r1-41-9", 
                    "object-type": "map-range", 
                    "to": "sent-PMC3566099-cmu-81"
                }, 
                {
                    "from": "sent-PMC3566099-UAZ-r1-41-4", 
                    "object-type": "map-range", 
                    "to": "sent-PMC3566099-cmu-77"
                }, 
                {
                    "from": "sent-PMC3566099-UAZ-r1-90-0", 
                    "object-type": "map-range", 
                    "to": "sent-PMC3566099-cmu-156"
                }, 
                {
                    "from": "sent-PMC3566099-UAZ-r1-41-7", 
                    "object-type": "map-range", 
                    "to": "sent-PMC3566099-cmu-79"
                }, 
                {
                    "from": "sent-PMC3566099-UAZ-r1-34-1", 
                    "object-type": "map-range", 
                    "to": "sent-PMC3566099-cmu-63"
                }, 
                {
                    "from": "sent-PMC3566099-UAZ-r1-41-8", 
                    "object-type": "map-range", 
                    "to": "sent-PMC3566099-cmu-80"
                }, 
                {
                    "from": "sent-PMC3566099-UAZ-r1-82-4", 
                    "object-type": "map-range", 
                    "to": "sent-PMC3566099-cmu-131"
                }, 
                {
                    "from": "sent-PMC3566099-UAZ-r1-17-2", 
                    "object-type": "map-range", 
                    "to": "sent-PMC3566099-cmu-33"
                }, 
                {
                    "from": "sent-PMC3566099-UAZ-r1-23-0", 
                    "object-type": "map-range", 
                    "to": "sent-PMC3566099-cmu-39"
                }, 
                {
                    "from": "sent-PMC3566099-UAZ-r1-41-10", 
                    "object-type": "map-range", 
                    "to": "sent-PMC3566099-cmu-82"
                }, 
                {
                    "from": "sent-PMC3566099-UAZ-r1-7-2", 
                    "object-type": "map-range", 
                    "to": "sent-PMC3566099-cmu-4"
                }, 
                {
                    "from": "sent-PMC3566099-UAZ-r1-10-2", 
                    "object-type": "map-range", 
                    "to": "sent-PMC3566099-cmu-22"
                }, 
                {
                    "from": "sent-PMC3566099-UAZ-r1-32-2", 
                    "object-type": "map-range", 
                    "to": "sent-PMC3566099-cmu-56"
                }, 
                {
                    "from": "sent-PMC3566099-UAZ-r1-7-1", 
                    "object-type": "map-range", 
                    "to": "sent-PMC3566099-cmu-3"
                }, 
                {
                    "from": "sent-PMC3566099-UAZ-r1-85-2", 
                    "object-type": "map-range", 
                    "to": "sent-PMC3566099-cmu-144"
                }, 
                {
                    "from": "sent-PMC3566099-UAZ-r1-85-0", 
                    "object-type": "map-range", 
                    "to": "sent-PMC3566099-cmu-142"
                }, 
                {
                    "from": "sent-PMC3566099-UAZ-r1-32-0", 
                    "object-type": "map-range", 
                    "to": "sent-PMC3566099-cmu-54"
                }, 
                {
                    "from": "sent-PMC3566099-UAZ-r1-41-1", 
                    "object-type": "map-range", 
                    "to": "sent-PMC3566099-cmu-74"
                }, 
                {
                    "from": "sent-PMC3566099-UAZ-r1-23-1", 
                    "object-type": "map-range", 
                    "to": "sent-PMC3566099-cmu-40"
                }, 
                {
                    "from": "sent-PMC3566099-UAZ-r1-72-0", 
                    "object-type": "map-range", 
                    "to": "sent-PMC3566099-cmu-117"
                }, 
                {
                    "from": "sent-PMC3566099-UAZ-r1-64-2", 
                    "object-type": "map-range", 
                    "to": "sent-PMC3566099-cmu-113"
                }, 
                {
                    "from": "sent-PMC3566099-UAZ-r1-26-1", 
                    "object-type": "map-range", 
                    "to": "sent-PMC3566099-cmu-45"
                }, 
                {
                    "from": "sent-PMC3566099-UAZ-r1-41-0", 
                    "object-type": "map-range", 
                    "to": "sent-PMC3566099-cmu-73"
                }, 
                {
                    "from": "sent-PMC3566099-UAZ-r1-23-2", 
                    "object-type": "map-range", 
                    "to": "sent-PMC3566099-cmu-41"
                }, 
                {
                    "from": "sent-PMC3566099-UAZ-r1-41-3", 
                    "object-type": "map-range", 
                    "to": "sent-PMC3566099-cmu-76"
                }, 
                {
                    "from": "sent-PMC3566099-UAZ-r1-11-0", 
                    "object-type": "map-range", 
                    "to": "sent-PMC3566099-cmu-25"
                }, 
                {
                    "from": "sent-PMC3566099-UAZ-r1-20-2", 
                    "object-type": "map-range", 
                    "to": "sent-PMC3566099-cmu-37"
                }, 
                {
                    "from": "sent-PMC3566099-UAZ-r1-29-1", 
                    "object-type": "map-range", 
                    "to": "sent-PMC3566099-cmu-48"
                }, 
                {
                    "from": "sent-PMC3566099-UAZ-r1-8-6", 
                    "object-type": "map-range", 
                    "to": "sent-PMC3566099-cmu-12"
                }, 
                {
                    "from": "sent-PMC3566099-UAZ-r1-45-2", 
                    "object-type": "map-range", 
                    "to": "sent-PMC3566099-cmu-89"
                }, 
                {
                    "from": "sent-PMC3566099-UAZ-r1-16-2", 
                    "object-type": "map-range", 
                    "to": "sent-PMC3566099-cmu-30"
                }, 
                {
                    "from": "sent-PMC3566099-UAZ-r1-33-1", 
                    "object-type": "map-range", 
                    "to": "sent-PMC3566099-cmu-60"
                }, 
                {
                    "from": "sent-PMC3566099-UAZ-r1-20-0", 
                    "object-type": "map-range", 
                    "to": "sent-PMC3566099-cmu-35"
                }, 
                {
                    "from": "sent-PMC3566099-UAZ-r1-29-5", 
                    "object-type": "map-range", 
                    "to": "sent-PMC3566099-cmu-52"
                }, 
                {
                    "from": "sent-PMC3566099-UAZ-r1-7-0", 
                    "object-type": "map-range", 
                    "to": "sent-PMC3566099-cmu-2"
                }, 
                {
                    "from": "sent-PMC3566099-UAZ-r1-33-2", 
                    "object-type": "map-range", 
                    "to": "sent-PMC3566099-cmu-61"
                }, 
                {
                    "from": "sent-PMC3566099-UAZ-r1-8-1", 
                    "object-type": "map-range", 
                    "to": "sent-PMC3566099-cmu-7"
                }, 
                {
                    "from": "sent-PMC3566099-UAZ-r1-38-4", 
                    "object-type": "map-range", 
                    "to": "sent-PMC3566099-cmu-69"
                }, 
                {
                    "from": "sent-PMC3566099-UAZ-r1-85-3", 
                    "object-type": "map-range", 
                    "to": "sent-PMC3566099-cmu-145"
                }, 
                {
                    "from": "sent-PMC3566099-UAZ-r1-38-6", 
                    "object-type": "map-range", 
                    "to": "sent-PMC3566099-cmu-71"
                }, 
                {
                    "from": "sent-PMC3566099-UAZ-r1-86-0", 
                    "object-type": "map-range", 
                    "to": "sent-PMC3566099-cmu-146"
                }, 
                {
                    "from": "sent-PMC3566099-UAZ-r1-29-4", 
                    "object-type": "map-range", 
                    "to": "sent-PMC3566099-cmu-51"
                }, 
                {
                    "from": "sent-PMC3566099-UAZ-r1-82-0", 
                    "object-type": "map-range", 
                    "to": "sent-PMC3566099-cmu-127"
                }, 
                {
                    "from": "sent-PMC3566099-UAZ-r1-10-1", 
                    "object-type": "map-range", 
                    "to": "sent-PMC3566099-cmu-21"
                }, 
                {
                    "from": "sent-PMC3566099-UAZ-r1-20-1", 
                    "object-type": "map-range", 
                    "to": "sent-PMC3566099-cmu-36"
                }, 
                {
                    "from": "sent-PMC3566099-UAZ-r1-29-0", 
                    "object-type": "map-range", 
                    "to": "sent-PMC3566099-cmu-47"
                }, 
                {
                    "from": "sent-PMC3566099-UAZ-r1-29-2", 
                    "object-type": "map-range", 
                    "to": "sent-PMC3566099-cmu-49"
                }, 
                {
                    "from": "sent-PMC3566099-UAZ-r1-86-2", 
                    "object-type": "map-range", 
                    "to": "sent-PMC3566099-cmu-148"
                }, 
                {
                    "from": "sent-PMC3566099-UAZ-r1-9-4", 
                    "object-type": "map-range", 
                    "to": "sent-PMC3566099-cmu-17"
                }, 
                {
                    "from": "sent-PMC3566099-UAZ-r1-9-6", 
                    "object-type": "map-range", 
                    "to": "sent-PMC3566099-cmu-19"
                }, 
                {
                    "from": "sent-PMC3566099-UAZ-r1-84-3", 
                    "object-type": "map-range", 
                    "to": "sent-PMC3566099-cmu-140"
                }, 
                {
                    "from": "sent-PMC3566099-UAZ-r1-45-1", 
                    "object-type": "map-range", 
                    "to": "sent-PMC3566099-cmu-88"
                }, 
                {
                    "from": "sent-PMC3566099-UAZ-r1-87-0", 
                    "object-type": "map-range", 
                    "to": "sent-PMC3566099-cmu-150"
                }, 
                {
                    "from": "sent-PMC3566099-UAZ-r1-38-3", 
                    "object-type": "map-range", 
                    "to": "sent-PMC3566099-cmu-68"
                }, 
                {
                    "from": "sent-PMC3566099-UAZ-r1-10-3", 
                    "object-type": "map-range", 
                    "to": "sent-PMC3566099-cmu-23"
                }, 
                {
                    "from": "sent-PMC3566099-UAZ-r1-45-0", 
                    "object-type": "map-range", 
                    "to": "sent-PMC3566099-cmu-87"
                }, 
                {
                    "from": "sent-PMC3566099-UAZ-r1-85-1", 
                    "object-type": "map-range", 
                    "to": "sent-PMC3566099-cmu-143"
                }, 
                {
                    "from": "sent-PMC3566099-UAZ-r1-78-1", 
                    "object-type": "map-range", 
                    "to": "sent-PMC3566099-cmu-123"
                }, 
                {
                    "from": "sent-PMC3566099-UAZ-r1-86-3", 
                    "object-type": "map-range", 
                    "to": "sent-PMC3566099-cmu-149"
                }, 
                {
                    "from": "sent-PMC3566099-UAZ-r1-90-1", 
                    "object-type": "map-range", 
                    "to": "sent-PMC3566099-cmu-157"
                }, 
                {
                    "from": "sent-PMC3566099-UAZ-r1-41-6", 
                    "object-type": "map-range", 
                    "to": "sent-PMC3566099-cmu-78"
                }, 
                {
                    "from": "sent-PMC3566099-UAZ-r1-8-0", 
                    "object-type": "map-range", 
                    "to": "sent-PMC3566099-cmu-6"
                }, 
                {
                    "from": "sent-PMC3566099-UAZ-r1-9-1", 
                    "object-type": "map-range", 
                    "to": "sent-PMC3566099-cmu-14"
                }, 
                {
                    "from": "sent-PMC3566099-UAZ-r1-82-1", 
                    "object-type": "map-range", 
                    "to": "sent-PMC3566099-cmu-128"
                }, 
                {
                    "from": "sent-PMC3566099-UAZ-r1-64-0", 
                    "object-type": "map-range", 
                    "to": "sent-PMC3566099-cmu-108"
                }, 
                {
                    "from": "sent-PMC3566099-UAZ-r1-76-0", 
                    "object-type": "map-range", 
                    "to": "sent-PMC3566099-cmu-124"
                }, 
                {
                    "from": "sent-PMC3566099-UAZ-r1-42-2", 
                    "object-type": "map-range", 
                    "to": "sent-PMC3566099-cmu-85"
                }, 
                {
                    "from": "sent-PMC3566099-UAZ-r1-56-3", 
                    "object-type": "map-range", 
                    "to": "sent-PMC3566099-cmu-104"
                }, 
                {
                    "from": "sent-PMC3566099-UAZ-r1-17-0", 
                    "object-type": "map-range", 
                    "to": "sent-PMC3566099-cmu-31"
                }, 
                {
                    "from": "sent-PMC3566099-UAZ-r1-26-0", 
                    "object-type": "map-range", 
                    "to": "sent-PMC3566099-cmu-44"
                }, 
                {
                    "from": "sent-PMC3566099-UAZ-r1-19-0", 
                    "object-type": "map-range", 
                    "to": "sent-PMC3566099-cmu-34"
                }, 
                {
                    "from": "sent-PMC3566099-UAZ-r1-16-1", 
                    "object-type": "map-range", 
                    "to": "sent-PMC3566099-cmu-29"
                }, 
                {
                    "from": "sent-PMC3566099-UAZ-r1-82-3", 
                    "object-type": "map-range", 
                    "to": "sent-PMC3566099-cmu-130"
                }, 
                {
                    "from": "sent-PMC3566099-UAZ-r1-83-4", 
                    "object-type": "map-range", 
                    "to": "sent-PMC3566099-cmu-136"
                }, 
                {
                    "from": "sent-PMC3566099-UAZ-r1-38-1", 
                    "object-type": "map-range", 
                    "to": "sent-PMC3566099-cmu-66"
                }, 
                {
                    "from": "sent-PMC3566099-UAZ-r1-56-0", 
                    "object-type": "map-range", 
                    "to": "sent-PMC3566099-cmu-102"
                }, 
                {
                    "from": "sent-PMC3566099-UAZ-r1-8-3", 
                    "object-type": "map-range", 
                    "to": "sent-PMC3566099-cmu-9"
                }, 
                {
                    "from": "sent-PMC3566099-UAZ-r1-29-3", 
                    "object-type": "map-range", 
                    "to": "sent-PMC3566099-cmu-50"
                }, 
                {
                    "from": "sent-PMC3566099-UAZ-r1-83-2", 
                    "object-type": "map-range", 
                    "to": "sent-PMC3566099-cmu-134"
                }, 
                {
                    "from": "sent-PMC3566099-UAZ-r1-10-4", 
                    "object-type": "map-range", 
                    "to": "sent-PMC3566099-cmu-24"
                }, 
                {
                    "from": "sent-PMC3566099-UAZ-r1-50-0", 
                    "object-type": "map-range", 
                    "to": "sent-PMC3566099-cmu-93"
                }, 
                {
                    "from": "sent-PMC3566099-UAZ-r1-16-0", 
                    "object-type": "map-range", 
                    "to": "sent-PMC3566099-cmu-28"
                }, 
                {
                    "from": "sent-PMC3566099-UAZ-r1-41-2", 
                    "object-type": "map-range", 
                    "to": "sent-PMC3566099-cmu-75"
                }, 
                {
                    "from": "sent-PMC3566099-UAZ-r1-10-0", 
                    "object-type": "map-range", 
                    "to": "sent-PMC3566099-cmu-20"
                }, 
                {
                    "from": "sent-PMC3566099-UAZ-r1-9-0", 
                    "object-type": "map-range", 
                    "to": "sent-PMC3566099-cmu-13"
                }, 
                {
                    "from": "sent-PMC3566099-UAZ-r1-17-1", 
                    "object-type": "map-range", 
                    "to": "sent-PMC3566099-cmu-32"
                }, 
                {
                    "from": "sent-PMC3566099-UAZ-r1-49-0", 
                    "object-type": "map-range", 
                    "to": "sent-PMC3566099-cmu-92"
                }, 
                {
                    "from": "sent-PMC3566099-UAZ-r1-90-2", 
                    "object-type": "map-range", 
                    "to": "sent-PMC3566099-cmu-158"
                }, 
                {
                    "from": "sent-PMC3566099-UAZ-r1-33-0", 
                    "object-type": "map-range", 
                    "to": "sent-PMC3566099-cmu-59"
                }, 
                {
                    "from": "sent-PMC3566099-UAZ-r1-87-3", 
                    "object-type": "map-range", 
                    "to": "sent-PMC3566099-cmu-153"
                }, 
                {
                    "from": "sent-PMC3566099-UAZ-r1-8-2", 
                    "object-type": "map-range", 
                    "to": "sent-PMC3566099-cmu-8"
                }, 
                {
                    "from": "sent-PMC3566099-UAZ-r1-79-1", 
                    "object-type": "map-range", 
                    "to": "sent-PMC3566099-cmu-125"
                }, 
                {
                    "from": "sent-PMC3566099-UAZ-r1-32-1", 
                    "object-type": "map-range", 
                    "to": "sent-PMC3566099-cmu-55"
                }
            ], 
            "object-meta": {
                "component": "Pradeep-Matcher", 
                "object-type": "meta-info", 
                "organization": "CMU"
            }, 
            "object-type": "frame"
        }, 
        {
            "frame-id": "smap-PMC3566099-cmu-2", 
            "frame-type": "sentence-map", 
            "list1-meta": {
                "component": "MedScan", 
                "object-type": "meta-info", 
                "organization": "CMU"
            }, 
            "list2-meta": {
                "component": "Nicolas-NXML-Parser", 
                "object-type": "meta-info", 
                "organization": "CMU"
            }, 
            "map": [
                {
                    "from": "sent-PMC3566099-medscan-121", 
                    "object-type": "map-range", 
                    "to": "sent-PMC3566099-cmu-154"
                }, 
                {
                    "from": "sent-PMC3566099-medscan-69", 
                    "object-type": "map-range", 
                    "to": "sent-PMC3566099-cmu-83"
                }, 
                {
                    "from": "sent-PMC3566099-medscan-33", 
                    "object-type": "map-range", 
                    "to": "sent-PMC3566099-cmu-42"
                }, 
                {
                    "from": "sent-PMC3566099-medscan-14", 
                    "object-type": "map-range", 
                    "to": "sent-PMC3566099-cmu-18"
                }, 
                {
                    "from": "sent-PMC3566099-medscan-86", 
                    "object-type": "map-range", 
                    "to": "sent-PMC3566099-cmu-114"
                }, 
                {
                    "from": "sent-PMC3566099-medscan-115", 
                    "object-type": "map-range", 
                    "to": "sent-PMC3566099-cmu-147"
                }, 
                {
                    "from": "sent-PMC3566099-medscan-45", 
                    "object-type": "map-range", 
                    "to": "sent-PMC3566099-cmu-57"
                }, 
                {
                    "from": "sent-PMC3566099-medscan-79", 
                    "object-type": "map-range", 
                    "to": "sent-PMC3566099-cmu-98"
                }, 
                {
                    "from": "sent-PMC3566099-medscan-79", 
                    "object-type": "map-range", 
                    "to": "sent-PMC3566099-cmu-98"
                }, 
                {
                    "from": "sent-PMC3566099-medscan-3", 
                    "object-type": "map-range", 
                    "to": "sent-PMC3566099-cmu-5"
                }, 
                {
                    "from": "sent-PMC3566099-medscan-75", 
                    "object-type": "map-range", 
                    "to": "sent-PMC3566099-cmu-90"
                }, 
                {
                    "from": "sent-PMC3566099-medscan-67", 
                    "object-type": "map-range", 
                    "to": "sent-PMC3566099-cmu-81"
                }, 
                {
                    "from": "sent-PMC3566099-medscan-62", 
                    "object-type": "map-range", 
                    "to": "sent-PMC3566099-cmu-77"
                }, 
                {
                    "from": "sent-PMC3566099-medscan-122", 
                    "object-type": "map-range", 
                    "to": "sent-PMC3566099-cmu-156"
                }, 
                {
                    "from": "sent-PMC3566099-medscan-95", 
                    "object-type": "map-range", 
                    "to": "sent-PMC3566099-cmu-121"
                }, 
                {
                    "from": "sent-PMC3566099-medscan-65", 
                    "object-type": "map-range", 
                    "to": "sent-PMC3566099-cmu-79"
                }, 
                {
                    "from": "sent-PMC3566099-medscan-89", 
                    "object-type": "map-range", 
                    "to": "sent-PMC3566099-cmu-119"
                }, 
                {
                    "from": "sent-PMC3566099-medscan-50", 
                    "object-type": "map-range", 
                    "to": "sent-PMC3566099-cmu-63"
                }, 
                {
                    "from": "sent-PMC3566099-medscan-66", 
                    "object-type": "map-range", 
                    "to": "sent-PMC3566099-cmu-80"
                }, 
                {
                    "from": "sent-PMC3566099-medscan-26", 
                    "object-type": "map-range", 
                    "to": "sent-PMC3566099-cmu-33"
                }, 
                {
                    "from": "sent-PMC3566099-medscan-30", 
                    "object-type": "map-range", 
                    "to": "sent-PMC3566099-cmu-39"
                }, 
                {
                    "from": "sent-PMC3566099-medscan-68", 
                    "object-type": "map-range", 
                    "to": "sent-PMC3566099-cmu-82"
                }, 
                {
                    "from": "sent-PMC3566099-medscan-2", 
                    "object-type": "map-range", 
                    "to": "sent-PMC3566099-cmu-4"
                }, 
                {
                    "from": "sent-PMC3566099-medscan-18", 
                    "object-type": "map-range", 
                    "to": "sent-PMC3566099-cmu-22"
                }, 
                {
                    "from": "sent-PMC3566099-medscan-44", 
                    "object-type": "map-range", 
                    "to": "sent-PMC3566099-cmu-56"
                }, 
                {
                    "from": "sent-PMC3566099-medscan-112", 
                    "object-type": "map-range", 
                    "to": "sent-PMC3566099-cmu-144"
                }, 
                {
                    "from": "sent-PMC3566099-medscan-110", 
                    "object-type": "map-range", 
                    "to": "sent-PMC3566099-cmu-142"
                }, 
                {
                    "from": "sent-PMC3566099-medscan-42", 
                    "object-type": "map-range", 
                    "to": "sent-PMC3566099-cmu-54"
                }, 
                {
                    "from": "sent-PMC3566099-medscan-59", 
                    "object-type": "map-range", 
                    "to": "sent-PMC3566099-cmu-74"
                }, 
                {
                    "from": "sent-PMC3566099-medscan-84", 
                    "object-type": "map-range", 
                    "to": "sent-PMC3566099-cmu-112"
                }, 
                {
                    "from": "sent-PMC3566099-medscan-31", 
                    "object-type": "map-range", 
                    "to": "sent-PMC3566099-cmu-40"
                }, 
                {
                    "from": "sent-PMC3566099-medscan-85", 
                    "object-type": "map-range", 
                    "to": "sent-PMC3566099-cmu-113"
                }, 
                {
                    "from": "sent-PMC3566099-medscan-35", 
                    "object-type": "map-range", 
                    "to": "sent-PMC3566099-cmu-45"
                }, 
                {
                    "from": "sent-PMC3566099-medscan-58", 
                    "object-type": "map-range", 
                    "to": "sent-PMC3566099-cmu-73"
                }, 
                {
                    "from": "sent-PMC3566099-medscan-32", 
                    "object-type": "map-range", 
                    "to": "sent-PMC3566099-cmu-41"
                }, 
                {
                    "from": "sent-PMC3566099-medscan-61", 
                    "object-type": "map-range", 
                    "to": "sent-PMC3566099-cmu-76"
                }, 
                {
                    "from": "sent-PMC3566099-medscan-21", 
                    "object-type": "map-range", 
                    "to": "sent-PMC3566099-cmu-25"
                }, 
                {
                    "from": "sent-PMC3566099-medscan-29", 
                    "object-type": "map-range", 
                    "to": "sent-PMC3566099-cmu-37"
                }, 
                {
                    "from": "sent-PMC3566099-medscan-56", 
                    "object-type": "map-range", 
                    "to": "sent-PMC3566099-cmu-70"
                }, 
                {
                    "from": "sent-PMC3566099-medscan-37", 
                    "object-type": "map-range", 
                    "to": "sent-PMC3566099-cmu-48"
                }, 
                {
                    "from": "sent-PMC3566099-medscan-9", 
                    "object-type": "map-range", 
                    "to": "sent-PMC3566099-cmu-12"
                }, 
                {
                    "from": "sent-PMC3566099-medscan-74", 
                    "object-type": "map-range", 
                    "to": "sent-PMC3566099-cmu-89"
                }, 
                {
                    "from": "sent-PMC3566099-medscan-47", 
                    "object-type": "map-range", 
                    "to": "sent-PMC3566099-cmu-60"
                }, 
                {
                    "from": "sent-PMC3566099-medscan-27", 
                    "object-type": "map-range", 
                    "to": "sent-PMC3566099-cmu-35"
                }, 
                {
                    "from": "sent-PMC3566099-medscan-41", 
                    "object-type": "map-range", 
                    "to": "sent-PMC3566099-cmu-52"
                }, 
                {
                    "from": "sent-PMC3566099-medscan-48", 
                    "object-type": "map-range", 
                    "to": "sent-PMC3566099-cmu-61"
                }, 
                {
                    "from": "sent-PMC3566099-medscan-5", 
                    "object-type": "map-range", 
                    "to": "sent-PMC3566099-cmu-7"
                }, 
                {
                    "from": "sent-PMC3566099-medscan-101", 
                    "object-type": "map-range", 
                    "to": "sent-PMC3566099-cmu-129"
                }, 
                {
                    "from": "sent-PMC3566099-medscan-55", 
                    "object-type": "map-range", 
                    "to": "sent-PMC3566099-cmu-69"
                }, 
                {
                    "from": "sent-PMC3566099-medscan-113", 
                    "object-type": "map-range", 
                    "to": "sent-PMC3566099-cmu-145"
                }, 
                {
                    "from": "sent-PMC3566099-medscan-57", 
                    "object-type": "map-range", 
                    "to": "sent-PMC3566099-cmu-71"
                }, 
                {
                    "from": "sent-PMC3566099-medscan-114", 
                    "object-type": "map-range", 
                    "to": "sent-PMC3566099-cmu-146"
                }, 
                {
                    "from": "sent-PMC3566099-medscan-40", 
                    "object-type": "map-range", 
                    "to": "sent-PMC3566099-cmu-51"
                }, 
                {
                    "from": "sent-PMC3566099-medscan-99", 
                    "object-type": "map-range", 
                    "to": "sent-PMC3566099-cmu-127"
                }, 
                {
                    "from": "sent-PMC3566099-medscan-17", 
                    "object-type": "map-range", 
                    "to": "sent-PMC3566099-cmu-21"
                }, 
                {
                    "from": "sent-PMC3566099-medscan-28", 
                    "object-type": "map-range", 
                    "to": "sent-PMC3566099-cmu-36"
                }, 
                {
                    "from": "sent-PMC3566099-medscan-49", 
                    "object-type": "map-range", 
                    "to": "sent-PMC3566099-cmu-62"
                }, 
                {
                    "from": "sent-PMC3566099-medscan-36", 
                    "object-type": "map-range", 
                    "to": "sent-PMC3566099-cmu-47"
                }, 
                {
                    "from": "sent-PMC3566099-medscan-38", 
                    "object-type": "map-range", 
                    "to": "sent-PMC3566099-cmu-49"
                }, 
                {
                    "from": "sent-PMC3566099-medscan-116", 
                    "object-type": "map-range", 
                    "to": "sent-PMC3566099-cmu-148"
                }, 
                {
                    "from": "sent-PMC3566099-medscan-13", 
                    "object-type": "map-range", 
                    "to": "sent-PMC3566099-cmu-17"
                }, 
                {
                    "from": "sent-PMC3566099-medscan-104", 
                    "object-type": "map-range", 
                    "to": "sent-PMC3566099-cmu-132"
                }, 
                {
                    "from": "sent-PMC3566099-medscan-15", 
                    "object-type": "map-range", 
                    "to": "sent-PMC3566099-cmu-19"
                }, 
                {
                    "from": "sent-PMC3566099-medscan-109", 
                    "object-type": "map-range", 
                    "to": "sent-PMC3566099-cmu-140"
                }, 
                {
                    "from": "sent-PMC3566099-medscan-73", 
                    "object-type": "map-range", 
                    "to": "sent-PMC3566099-cmu-88"
                }, 
                {
                    "from": "sent-PMC3566099-medscan-118", 
                    "object-type": "map-range", 
                    "to": "sent-PMC3566099-cmu-150"
                }, 
                {
                    "from": "sent-PMC3566099-medscan-54", 
                    "object-type": "map-range", 
                    "to": "sent-PMC3566099-cmu-68"
                }, 
                {
                    "from": "sent-PMC3566099-medscan-19", 
                    "object-type": "map-range", 
                    "to": "sent-PMC3566099-cmu-23"
                }, 
                {
                    "from": "sent-PMC3566099-medscan-72", 
                    "object-type": "map-range", 
                    "to": "sent-PMC3566099-cmu-87"
                }, 
                {
                    "from": "sent-PMC3566099-medscan-111", 
                    "object-type": "map-range", 
                    "to": "sent-PMC3566099-cmu-143"
                }, 
                {
                    "from": "sent-PMC3566099-medscan-96", 
                    "object-type": "map-range", 
                    "to": "sent-PMC3566099-cmu-123"
                }, 
                {
                    "from": "sent-PMC3566099-medscan-117", 
                    "object-type": "map-range", 
                    "to": "sent-PMC3566099-cmu-149"
                }, 
                {
                    "from": "sent-PMC3566099-medscan-123", 
                    "object-type": "map-range", 
                    "to": "sent-PMC3566099-cmu-157"
                }, 
                {
                    "from": "sent-PMC3566099-medscan-64", 
                    "object-type": "map-range", 
                    "to": "sent-PMC3566099-cmu-78"
                }, 
                {
                    "from": "sent-PMC3566099-medscan-12", 
                    "object-type": "map-range", 
                    "to": "sent-PMC3566099-cmu-16"
                }, 
                {
                    "from": "sent-PMC3566099-medscan-11", 
                    "object-type": "map-range", 
                    "to": "sent-PMC3566099-cmu-14"
                }, 
                {
                    "from": "sent-PMC3566099-medscan-100", 
                    "object-type": "map-range", 
                    "to": "sent-PMC3566099-cmu-128"
                }, 
                {
                    "from": "sent-PMC3566099-medscan-83", 
                    "object-type": "map-range", 
                    "to": "sent-PMC3566099-cmu-108"
                }, 
                {
                    "from": "sent-PMC3566099-medscan-97", 
                    "object-type": "map-range", 
                    "to": "sent-PMC3566099-cmu-124"
                }, 
                {
                    "from": "sent-PMC3566099-medscan-71", 
                    "object-type": "map-range", 
                    "to": "sent-PMC3566099-cmu-85"
                }, 
                {
                    "from": "sent-PMC3566099-medscan-51", 
                    "object-type": "map-range", 
                    "to": "sent-PMC3566099-cmu-65"
                }, 
                {
                    "from": "sent-PMC3566099-medscan-80", 
                    "object-type": "map-range", 
                    "to": "sent-PMC3566099-cmu-104"
                }, 
                {
                    "from": "sent-PMC3566099-medscan-24", 
                    "object-type": "map-range", 
                    "to": "sent-PMC3566099-cmu-31"
                }, 
                {
                    "from": "sent-PMC3566099-medscan-34", 
                    "object-type": "map-range", 
                    "to": "sent-PMC3566099-cmu-44"
                }, 
                {
                    "from": "sent-PMC3566099-medscan-23", 
                    "object-type": "map-range", 
                    "to": "sent-PMC3566099-cmu-29"
                }, 
                {
                    "from": "sent-PMC3566099-medscan-106", 
                    "object-type": "map-range", 
                    "to": "sent-PMC3566099-cmu-136"
                }, 
                {
                    "from": "sent-PMC3566099-medscan-79", 
                    "object-type": "map-range", 
                    "to": "sent-PMC3566099-cmu-102"
                }, 
                {
                    "from": "sent-PMC3566099-medscan-79", 
                    "object-type": "map-range", 
                    "to": "sent-PMC3566099-cmu-102"
                }, 
                {
                    "from": "sent-PMC3566099-medscan-7", 
                    "object-type": "map-range", 
                    "to": "sent-PMC3566099-cmu-9"
                }, 
                {
                    "from": "sent-PMC3566099-medscan-39", 
                    "object-type": "map-range", 
                    "to": "sent-PMC3566099-cmu-50"
                }, 
                {
                    "from": "sent-PMC3566099-medscan-105", 
                    "object-type": "map-range", 
                    "to": "sent-PMC3566099-cmu-134"
                }, 
                {
                    "from": "sent-PMC3566099-medscan-76", 
                    "object-type": "map-range", 
                    "to": "sent-PMC3566099-cmu-93"
                }, 
                {
                    "from": "sent-PMC3566099-medscan-70", 
                    "object-type": "map-range", 
                    "to": "sent-PMC3566099-cmu-84"
                }, 
                {
                    "from": "sent-PMC3566099-medscan-22", 
                    "object-type": "map-range", 
                    "to": "sent-PMC3566099-cmu-28"
                }, 
                {
                    "from": "sent-PMC3566099-medscan-60", 
                    "object-type": "map-range", 
                    "to": "sent-PMC3566099-cmu-75"
                }, 
                {
                    "from": "sent-PMC3566099-medscan-16", 
                    "object-type": "map-range", 
                    "to": "sent-PMC3566099-cmu-20"
                }, 
                {
                    "from": "sent-PMC3566099-medscan-10", 
                    "object-type": "map-range", 
                    "to": "sent-PMC3566099-cmu-13"
                }, 
                {
                    "from": "sent-PMC3566099-medscan-25", 
                    "object-type": "map-range", 
                    "to": "sent-PMC3566099-cmu-32"
                }, 
                {
                    "from": "sent-PMC3566099-medscan-124", 
                    "object-type": "map-range", 
                    "to": "sent-PMC3566099-cmu-158"
                }, 
                {
                    "from": "sent-PMC3566099-medscan-46", 
                    "object-type": "map-range", 
                    "to": "sent-PMC3566099-cmu-59"
                }, 
                {
                    "from": "sent-PMC3566099-medscan-120", 
                    "object-type": "map-range", 
                    "to": "sent-PMC3566099-cmu-153"
                }, 
                {
                    "from": "sent-PMC3566099-medscan-6", 
                    "object-type": "map-range", 
                    "to": "sent-PMC3566099-cmu-8"
                }, 
                {
                    "from": "sent-PMC3566099-medscan-98", 
                    "object-type": "map-range", 
                    "to": "sent-PMC3566099-cmu-125"
                }, 
                {
                    "from": "sent-PMC3566099-medscan-43", 
                    "object-type": "map-range", 
                    "to": "sent-PMC3566099-cmu-55"
                }
            ], 
            "object-meta": {
                "component": "Pradeep-Matcher", 
                "object-type": "meta-info", 
                "organization": "CMU"
            }, 
            "object-type": "frame"
        }
    ], 
    "object-meta": {
        "component": "Pradeep-Matcher", 
        "component-type": "machine", 
        "doc-id": "PMC3566099", 
        "object-type": "meta-info", 
        "organization": "CMU"
    }, 
    "object-type": "frame-collection"
}
