{
  "evidence": ["AhR small interfering RNA abrogated heterocyclic amine-induced phosphorylation of C/EBP-\\u03b2 ( , lanes 7 and 8), and the down-regulation of C/EBP-\\u03b2","Moreover, AhR small interfering RNA abrogated heterocyclic amine-induced phosphorylation of C/EBP-\\u03b2 ( , lanes 7 and 8), and the down-regulation of C/EBP-\\u03b2 small interfering RNA attenuated heterocyclic amine-induced L1//1-RTP ( , lanes 11 and 12 and )."],
  "extracted_information": {
    "interaction_type": "decreases",
    "negative_information": false,
    "participant_a": {
      "entity_text": "AhR",
      "entity_type": "protein",
      "identifier": "Uniprot:P35869",
      "in_model": true
    },
    "participant_b": {
      "entity_text": "C/EBP-\\u03b2",
      "entity_type": "protein",
      "identifier": "Uniprot:Q9BSC0",
      "in_model": true
    }
  },
  "fries_provenance": [
    {
      "component": "MedScan",
      "frame-file": "PMC3795476.cmu.medscan",
      "frame-id": "relm-PMC3795476-cmu-medscan-344",
      "sentence": "Moreover, AhR small interfering RNA abrogated heterocyclic amine-induced phosphorylation of C/EBP-\\u03b2 ( , lanes 7 and 8), and the down-regulation of C/EBP-\\u03b2 small interfering RNA attenuated heterocyclic amine-induced L1//1-RTP ( , lanes 11 and 12 and ).",
      "text": "AhR small interfering RNA abrogated heterocyclic amine-induced phosphorylation of C/EBP-\\u03b2 ( , lanes 7 and 8), and the down-regulation of C/EBP-\\u03b2"
    }
  ],
  "model_relation": "extension",
  "pmc_id": "PMC3795476",
  "reader_type": "machine",
  "reading_complete": "2015-06-15T23:30:46Z",
  "reading_started": "2015-06-15T23:30:41Z",
  "submitter": "FRIES"
}
