{
  "evidence": ["( a ) Estrogen receptor ( ER ) - positive human breast cancer cell lines ( MCF7 and T47D ) and ER negative lines ( MDA-MB-231 and MDA-MB-468 ) were treated with 17beta-estradiol ( E2 ) or all-trans retinoic acid ( RA ) alone or in combination ( E2 and RA ) prior to etoposide induced DNA damage .","ER)-positive human breast cancer cell lines (MCF7 and T47D) and ER-negative lines (MDA-MB-231 and MDA-MB-468) were treated with 17beta-estradiol (E2) or all-trans retinoic acid (RA) alone or in combination (E2/RA) prior to etoposide induced DNA damage","ER-negative lines (MDA-MB-231 and MDA-MB-468) were treated with 17beta-estradiol (E2) or all-trans retinoic acid (RA) alone or in combination (E2/RA) prior to etoposide induced DNA damage"],
  "extracted_information": {
    "interaction_type": "increases_activity",
    "negative_information": false,
    "participant_a": {
      "entity_text": "ER",
      "entity_type": "protein",
      "identifier": "Uniprot:P03372",
      "in_model": true
    },
    "participant_b": {
      "entity_text": "damage",
      "entity_type": "protein",
      "identifier": "Uniprot:Q9HCI5",
      "in_model": false
    }
  },
  "fries_provenance": [
    {
      "component": "REACH",
      "frame-file": "PMC1413977.uaz.events",
      "frame-id": "evem-PMC1413977-UAZ-r1-197-1-26",
      "passage-id": "pass-PMC1413977-UAZ-r1-197",
      "passage-number": 197,
      "passage-section-id": "fig-1",
      "passage-section-name": "fig-1",
      "sentence": "( a ) Estrogen receptor ( ER ) - positive human breast cancer cell lines ( MCF7 and T47D ) and ER negative lines ( MDA-MB-231 and MDA-MB-468 ) were treated with 17beta-estradiol ( E2 ) or all-trans retinoic acid ( RA ) alone or in combination ( E2 and RA ) prior to etoposide induced DNA damage .",
      "text": "ER)-positive human breast cancer cell lines (MCF7 and T47D) and ER-negative lines (MDA-MB-231 and MDA-MB-468) were treated with 17beta-estradiol (E2) or all-trans retinoic acid (RA) alone or in combination (E2/RA) prior to etoposide induced DNA damage",
      "uaz-sentence": "( a ) Estrogen receptor ( ER ) - positive human breast cancer cell lines ( MCF7 and T47D ) and ER negative lines ( MDA-MB-231 and MDA-MB-468 ) were treated with 17beta-estradiol ( E2 ) or all-trans retinoic acid ( RA ) alone or in combination ( E2 and RA ) prior to etoposide induced DNA damage .",
      "uaz-sentence-start": 93
    },
    {
      "component": "REACH",
      "frame-file": "PMC1413977.uaz.events",
      "frame-id": "evem-PMC1413977-UAZ-r1-197-1-27",
      "passage-id": "pass-PMC1413977-UAZ-r1-197",
      "passage-number": 197,
      "passage-section-id": "fig-1",
      "passage-section-name": "fig-1",
      "sentence": "( a ) Estrogen receptor ( ER ) - positive human breast cancer cell lines ( MCF7 and T47D ) and ER negative lines ( MDA-MB-231 and MDA-MB-468 ) were treated with 17beta-estradiol ( E2 ) or all-trans retinoic acid ( RA ) alone or in combination ( E2 and RA ) prior to etoposide induced DNA damage .",
      "text": "ER-negative lines (MDA-MB-231 and MDA-MB-468) were treated with 17beta-estradiol (E2) or all-trans retinoic acid (RA) alone or in combination (E2/RA) prior to etoposide induced DNA damage",
      "uaz-sentence": "( a ) Estrogen receptor ( ER ) - positive human breast cancer cell lines ( MCF7 and T47D ) and ER negative lines ( MDA-MB-231 and MDA-MB-468 ) were treated with 17beta-estradiol ( E2 ) or all-trans retinoic acid ( RA ) alone or in combination ( E2 and RA ) prior to etoposide induced DNA damage .",
      "uaz-sentence-start": 93
    }
  ],
  "model_relation": "extension",
  "pmc_id": "PMC1413977",
  "reader_type": "machine",
  "reading_complete": "2015-06-15T18:50:44Z",
  "reading_started": "2015-06-15T18:50:39Z",
  "submitter": "FRIES"
}
