{
  "evidence": ["For the experiments in this study we decided to use 100 nm , because at this concentration mTORC1 is efficiently blocked and rapamycin mediates its well-known cell cycle effects with only minor effects on Akt phosphorylation            .","rapamycin mediates its"],
  "extracted_information": {
    "interaction_type": "increases_activity",
    "negative_information": false,
    "participant_a": {
      "entity_text": "rapamycin",
      "entity_type": "chemical",
      "identifier": "CHEBI:9168",
      "in_model": false
    },
    "participant_b": {
      "entity_text": "mTORC1",
      "entity_type": "protein",
      "identifier": "GO:0031931",
      "in_model": true
    }
  },
  "fries_provenance": [
    {
      "cmu-sentence-epistemic-status": "belief",
      "cmu-sentence-epistemic-value": 0.9,
      "component": "REACH",
      "frame-file": "PMC2722991.uaz.events",
      "frame-id": "evem-PMC2722991-UAZ-r1-15-3-17",
      "passage-id": "pass-PMC2722991-UAZ-r1-15",
      "passage-number": 15,
      "passage-section-id": "s2a",
      "passage-section-name": "N/A",
      "sentence": "For the experiments in this study we decided to use 100 nm , because at this concentration mTORC1 is efficiently blocked and rapamycin mediates its well-known cell cycle effects with only minor effects on Akt phosphorylation            .",
      "text": "rapamycin mediates its",
      "uaz-sentence": "For the experiments in this study we decided to use 100 nm , because at this concentration mTORC1 is efficiently blocked and rapamycin mediates its well-known cell cycle effects with only minor effects on Akt phosphorylation            .",
      "uaz-sentence-start": 517
    }
  ],
  "model_relation": "extension",
  "pmc_id": "PMC2722991",
  "reader_type": "machine",
  "reading_complete": "2015-06-15T20:50:55Z",
  "reading_started": "2015-06-15T20:50:50Z",
  "submitter": "FRIES"
}
