{
  "evidence": ["( e ) Enhanced beta-catenin and LEF-induced activation of the cyclin D1 promoter in PS1 deficient cells .","-1745 CD1Luc reporter ( wild-type cyclin D1 promoter ) , which was induced ~ 10-fold by beta-catenin                       , was significantly repressed by PS1 .","Accordingly , based on the recent finding that cyclin D1 transcription is activated by beta-catenin and LEF , we predicted comparable alterations in cyclin D1 transcription in primary fibroblasts from early passages .","beta-catenin/LEF-induced activation of the cyclin","cyclin D1 promoter), which was induced ~10-fold by beta-catenin","cyclin D1 transcription is activated by beta-catenin"],
  "extracted_information": {
    "interaction_type": "increases_activity",
    "negative_information": false,
    "participant_a": {
      "entity_text": "beta-catenin",
      "entity_type": "protein",
      "identifier": "Uniprot:P35222",
      "in_model": true
    },
    "participant_b": {
      "entity_text": "cyclin",
      "entity_type": "protein",
      "identifier": "Uniprot:P12004",
      "in_model": false
    }
  },
  "fries_provenance": [
    {
      "component": "REACH",
      "frame-file": "PMC2195782.uaz.events",
      "frame-id": "evem-PMC2195782-UAZ-r1-209-14-68",
      "passage-id": "pass-PMC2195782-UAZ-r1-209",
      "passage-number": 209,
      "passage-section-id": "fig-1",
      "passage-section-name": "fig-1",
      "sentence": "( e ) Enhanced beta-catenin and LEF-induced activation of the cyclin D1 promoter in PS1 deficient cells .",
      "text": "beta-catenin/LEF-induced activation of the cyclin",
      "uaz-sentence": "( e ) Enhanced beta-catenin and LEF-induced activation of the cyclin D1 promoter in PS1 deficient cells .",
      "uaz-sentence-start": 1444
    },
    {
      "cmu-sentence-epistemic-status": "hypothesis",
      "cmu-sentence-epistemic-value": 0.3,
      "component": "REACH",
      "frame-file": "PMC2195782.uaz.events",
      "frame-id": "evem-PMC2195782-UAZ-r1-46-1-28",
      "passage-id": "pass-PMC2195782-UAZ-r1-46",
      "passage-number": 46,
      "passage-section-id": "N/A",
      "passage-section-name": "N/A",
      "sentence": "Accordingly , based on the recent finding that cyclin D1 transcription is activated by beta-catenin and LEF , we predicted comparable alterations in cyclin D1 transcription in primary fibroblasts from early passages .",
      "text": "cyclin D1 transcription is activated by beta-catenin",
      "uaz-event-epistemic-status": "hypothesis",
      "uaz-sentence": "Accordingly , based on the recent finding that cyclin D1 transcription is activated by beta-catenin and LEF , we predicted comparable alterations in cyclin D1 transcription in primary fibroblasts from early passages .",
      "uaz-sentence-start": 232
    },
    {
      "component": "REACH",
      "frame-file": "PMC2195782.uaz.events",
      "frame-id": "evem-PMC2195782-UAZ-r1-49-4-38",
      "passage-id": "pass-PMC2195782-UAZ-r1-49",
      "passage-number": 49,
      "passage-section-id": "N/A",
      "passage-section-name": "N/A",
      "sentence": "-1745 CD1Luc reporter ( wild-type cyclin D1 promoter ) , which was induced ~ 10-fold by beta-catenin                       , was significantly repressed by PS1 .",
      "text": "cyclin D1 promoter), which was induced ~10-fold by beta-catenin",
      "uaz-sentence": "-1745 CD1Luc reporter ( wild-type cyclin D1 promoter ) , which was induced ~ 10-fold by beta-catenin                       , was significantly repressed by PS1 .",
      "uaz-sentence-start": 832
    }
  ],
  "model_relation": "extension",
  "pmc_id": "PMC2195782",
  "reader_type": "machine",
  "reading_complete": "2015-06-15T20:04:14Z",
  "reading_started": "2015-06-15T20:04:09Z",
  "submitter": "FRIES"
}
