{
    "frames": [
        {
            "frame-id": "smap-PMC4002979-cmu-1", 
            "frame-type": "sentence-map", 
            "list1-meta": {
                "component": "nxml2fries", 
                "object-type": "meta-info", 
                "organization": "UAZ"
            }, 
            "list2-meta": {
                "component": "Nicolas-NXML-Parser", 
                "object-type": "meta-info", 
                "organization": "CMU"
            }, 
            "map": [
                {
                    "from": "sent-PMC4002979-UAZ-r1-66-1", 
                    "object-type": "map-range", 
                    "to": "sent-PMC4002979-cmu-182"
                }, 
                {
                    "from": "sent-PMC4002979-UAZ-r1-32-8", 
                    "object-type": "map-range", 
                    "to": "sent-PMC4002979-cmu-64"
                }, 
                {
                    "from": "sent-PMC4002979-UAZ-r1-69-0", 
                    "object-type": "map-range", 
                    "to": "sent-PMC4002979-cmu-184"
                }, 
                {
                    "from": "sent-PMC4002979-UAZ-r1-64-2", 
                    "object-type": "map-range", 
                    "to": "sent-PMC4002979-cmu-162"
                }, 
                {
                    "from": "sent-PMC4002979-UAZ-r1-17-8", 
                    "object-type": "map-range", 
                    "to": "sent-PMC4002979-cmu-10"
                }, 
                {
                    "from": "sent-PMC4002979-UAZ-r1-32-5", 
                    "object-type": "map-range", 
                    "to": "sent-PMC4002979-cmu-62"
                }, 
                {
                    "from": "sent-PMC4002979-UAZ-r1-19-4", 
                    "object-type": "map-range", 
                    "to": "sent-PMC4002979-cmu-25"
                }, 
                {
                    "from": "sent-PMC4002979-UAZ-r1-41-0", 
                    "object-type": "map-range", 
                    "to": "sent-PMC4002979-cmu-84"
                }, 
                {
                    "from": "sent-PMC4002979-UAZ-r1-37-0", 
                    "object-type": "map-range", 
                    "to": "sent-PMC4002979-cmu-77"
                }, 
                {
                    "from": "sent-PMC4002979-UAZ-r1-65-8", 
                    "object-type": "map-range", 
                    "to": "sent-PMC4002979-cmu-173"
                }, 
                {
                    "from": "sent-PMC4002979-UAZ-r1-18-2", 
                    "object-type": "map-range", 
                    "to": "sent-PMC4002979-cmu-14"
                }, 
                {
                    "from": "sent-PMC4002979-UAZ-r1-25-9", 
                    "object-type": "map-range", 
                    "to": "sent-PMC4002979-cmu-42"
                }, 
                {
                    "from": "sent-PMC4002979-UAZ-r1-55-7", 
                    "object-type": "map-range", 
                    "to": "sent-PMC4002979-cmu-127"
                }, 
                {
                    "from": "sent-PMC4002979-UAZ-r1-63-7", 
                    "object-type": "map-range", 
                    "to": "sent-PMC4002979-cmu-157"
                }, 
                {
                    "from": "sent-PMC4002979-UAZ-r1-26-5", 
                    "object-type": "map-range", 
                    "to": "sent-PMC4002979-cmu-48"
                }, 
                {
                    "from": "sent-PMC4002979-UAZ-r1-63-9", 
                    "object-type": "map-range", 
                    "to": "sent-PMC4002979-cmu-159"
                }, 
                {
                    "from": "sent-PMC4002979-UAZ-r1-25-8", 
                    "object-type": "map-range", 
                    "to": "sent-PMC4002979-cmu-41"
                }, 
                {
                    "from": "sent-PMC4002979-UAZ-r1-46-5", 
                    "object-type": "map-range", 
                    "to": "sent-PMC4002979-cmu-94"
                }, 
                {
                    "from": "sent-PMC4002979-UAZ-r1-65-9", 
                    "object-type": "map-range", 
                    "to": "sent-PMC4002979-cmu-174"
                }, 
                {
                    "from": "sent-PMC4002979-UAZ-r1-18-0", 
                    "object-type": "map-range", 
                    "to": "sent-PMC4002979-cmu-12"
                }, 
                {
                    "from": "sent-PMC4002979-UAZ-r1-65-12", 
                    "object-type": "map-range", 
                    "to": "sent-PMC4002979-cmu-177"
                }, 
                {
                    "from": "sent-PMC4002979-UAZ-r1-19-0", 
                    "object-type": "map-range", 
                    "to": "sent-PMC4002979-cmu-21"
                }, 
                {
                    "from": "sent-PMC4002979-UAZ-r1-34-0", 
                    "object-type": "map-range", 
                    "to": "sent-PMC4002979-cmu-69"
                }, 
                {
                    "from": "sent-PMC4002979-UAZ-r1-35-7", 
                    "object-type": "map-range", 
                    "to": "sent-PMC4002979-cmu-75"
                }, 
                {
                    "from": "sent-PMC4002979-UAZ-r1-28-0", 
                    "object-type": "map-range", 
                    "to": "sent-PMC4002979-cmu-49"
                }, 
                {
                    "from": "sent-PMC4002979-UAZ-r1-62-9", 
                    "object-type": "map-range", 
                    "to": "sent-PMC4002979-cmu-147"
                }, 
                {
                    "from": "sent-PMC4002979-UAZ-r1-26-2", 
                    "object-type": "map-range", 
                    "to": "sent-PMC4002979-cmu-45"
                }, 
                {
                    "from": "sent-PMC4002979-UAZ-r1-46-9", 
                    "object-type": "map-range", 
                    "to": "sent-PMC4002979-cmu-98"
                }, 
                {
                    "from": "sent-PMC4002979-UAZ-r1-46-14", 
                    "object-type": "map-range", 
                    "to": "sent-PMC4002979-cmu-103"
                }, 
                {
                    "from": "sent-PMC4002979-UAZ-r1-32-2", 
                    "object-type": "map-range", 
                    "to": "sent-PMC4002979-cmu-59"
                }, 
                {
                    "from": "sent-PMC4002979-UAZ-r1-63-0", 
                    "object-type": "map-range", 
                    "to": "sent-PMC4002979-cmu-150"
                }, 
                {
                    "from": "sent-PMC4002979-UAZ-r1-62-2", 
                    "object-type": "map-range", 
                    "to": "sent-PMC4002979-cmu-140"
                }, 
                {
                    "from": "sent-PMC4002979-UAZ-r1-65-0", 
                    "object-type": "map-range", 
                    "to": "sent-PMC4002979-cmu-165"
                }, 
                {
                    "from": "sent-PMC4002979-UAZ-r1-25-6", 
                    "object-type": "map-range", 
                    "to": "sent-PMC4002979-cmu-39"
                }, 
                {
                    "from": "sent-PMC4002979-UAZ-r1-18-1", 
                    "object-type": "map-range", 
                    "to": "sent-PMC4002979-cmu-13"
                }, 
                {
                    "from": "sent-PMC4002979-UAZ-r1-18-7", 
                    "object-type": "map-range", 
                    "to": "sent-PMC4002979-cmu-19"
                }, 
                {
                    "from": "sent-PMC4002979-UAZ-r1-35-2", 
                    "object-type": "map-range", 
                    "to": "sent-PMC4002979-cmu-72"
                }, 
                {
                    "from": "sent-PMC4002979-UAZ-r1-26-3", 
                    "object-type": "map-range", 
                    "to": "sent-PMC4002979-cmu-46"
                }, 
                {
                    "from": "sent-PMC4002979-UAZ-r1-17-0", 
                    "object-type": "map-range", 
                    "to": "sent-PMC4002979-cmu-2"
                }, 
                {
                    "from": "sent-PMC4002979-UAZ-r1-46-12", 
                    "object-type": "map-range", 
                    "to": "sent-PMC4002979-cmu-101"
                }, 
                {
                    "from": "sent-PMC4002979-UAZ-r1-48-0", 
                    "object-type": "map-range", 
                    "to": "sent-PMC4002979-cmu-107"
                }, 
                {
                    "from": "sent-PMC4002979-UAZ-r1-18-5", 
                    "object-type": "map-range", 
                    "to": "sent-PMC4002979-cmu-17"
                }, 
                {
                    "from": "sent-PMC4002979-UAZ-r1-62-8", 
                    "object-type": "map-range", 
                    "to": "sent-PMC4002979-cmu-146"
                }, 
                {
                    "from": "sent-PMC4002979-UAZ-r1-65-15", 
                    "object-type": "map-range", 
                    "to": "sent-PMC4002979-cmu-180"
                }, 
                {
                    "from": "sent-PMC4002979-UAZ-r1-52-3", 
                    "object-type": "map-range", 
                    "to": "sent-PMC4002979-cmu-125"
                }, 
                {
                    "from": "sent-PMC4002979-UAZ-r1-62-0", 
                    "object-type": "map-range", 
                    "to": "sent-PMC4002979-cmu-138"
                }, 
                {
                    "from": "sent-PMC4002979-UAZ-r1-18-6", 
                    "object-type": "map-range", 
                    "to": "sent-PMC4002979-cmu-18"
                }, 
                {
                    "from": "sent-PMC4002979-UAZ-r1-32-0", 
                    "object-type": "map-range", 
                    "to": "sent-PMC4002979-cmu-57"
                }, 
                {
                    "from": "sent-PMC4002979-UAZ-r1-61-4", 
                    "object-type": "map-range", 
                    "to": "sent-PMC4002979-cmu-136"
                }, 
                {
                    "from": "sent-PMC4002979-UAZ-r1-65-11", 
                    "object-type": "map-range", 
                    "to": "sent-PMC4002979-cmu-176"
                }, 
                {
                    "from": "sent-PMC4002979-UAZ-r1-17-2", 
                    "object-type": "map-range", 
                    "to": "sent-PMC4002979-cmu-4"
                }, 
                {
                    "from": "sent-PMC4002979-UAZ-r1-65-13", 
                    "object-type": "map-range", 
                    "to": "sent-PMC4002979-cmu-178"
                }, 
                {
                    "from": "sent-PMC4002979-UAZ-r1-19-5", 
                    "object-type": "map-range", 
                    "to": "sent-PMC4002979-cmu-26"
                }, 
                {
                    "from": "sent-PMC4002979-UAZ-r1-41-1", 
                    "object-type": "map-range", 
                    "to": "sent-PMC4002979-cmu-85"
                }, 
                {
                    "from": "sent-PMC4002979-UAZ-r1-61-1", 
                    "object-type": "map-range", 
                    "to": "sent-PMC4002979-cmu-133"
                }, 
                {
                    "from": "sent-PMC4002979-UAZ-r1-46-3", 
                    "object-type": "map-range", 
                    "to": "sent-PMC4002979-cmu-92"
                }, 
                {
                    "from": "sent-PMC4002979-UAZ-r1-19-7", 
                    "object-type": "map-range", 
                    "to": "sent-PMC4002979-cmu-28"
                }, 
                {
                    "from": "sent-PMC4002979-UAZ-r1-38-2", 
                    "object-type": "map-range", 
                    "to": "sent-PMC4002979-cmu-80"
                }, 
                {
                    "from": "sent-PMC4002979-UAZ-r1-20-0", 
                    "object-type": "map-range", 
                    "to": "sent-PMC4002979-cmu-31"
                }, 
                {
                    "from": "sent-PMC4002979-UAZ-r1-46-7", 
                    "object-type": "map-range", 
                    "to": "sent-PMC4002979-cmu-96"
                }, 
                {
                    "from": "sent-PMC4002979-UAZ-r1-52-1", 
                    "object-type": "map-range", 
                    "to": "sent-PMC4002979-cmu-113"
                }, 
                {
                    "from": "sent-PMC4002979-UAZ-r1-25-2", 
                    "object-type": "map-range", 
                    "to": "sent-PMC4002979-cmu-36"
                }, 
                {
                    "from": "sent-PMC4002979-UAZ-r1-14-0", 
                    "object-type": "map-range", 
                    "to": "sent-PMC4002979-cmu-118"
                }, 
                {
                    "from": "sent-PMC4002979-UAZ-r1-52-3", 
                    "object-type": "map-range", 
                    "to": "sent-PMC4002979-cmu-115"
                }, 
                {
                    "from": "sent-PMC4002979-UAZ-r1-25-5", 
                    "object-type": "map-range", 
                    "to": "sent-PMC4002979-cmu-38"
                }, 
                {
                    "from": "sent-PMC4002979-UAZ-r1-35-5", 
                    "object-type": "map-range", 
                    "to": "sent-PMC4002979-cmu-74"
                }, 
                {
                    "from": "sent-PMC4002979-UAZ-r1-29-4", 
                    "object-type": "map-range", 
                    "to": "sent-PMC4002979-cmu-54"
                }, 
                {
                    "from": "sent-PMC4002979-UAZ-r1-52-0", 
                    "object-type": "map-range", 
                    "to": "sent-PMC4002979-cmu-112"
                }, 
                {
                    "from": "sent-PMC4002979-UAZ-r1-26-0", 
                    "object-type": "map-range", 
                    "to": "sent-PMC4002979-cmu-43"
                }, 
                {
                    "from": "sent-PMC4002979-UAZ-r1-63-5", 
                    "object-type": "map-range", 
                    "to": "sent-PMC4002979-cmu-155"
                }, 
                {
                    "from": "sent-PMC4002979-UAZ-r1-19-8", 
                    "object-type": "map-range", 
                    "to": "sent-PMC4002979-cmu-29"
                }, 
                {
                    "from": "sent-PMC4002979-UAZ-r1-61-0", 
                    "object-type": "map-range", 
                    "to": "sent-PMC4002979-cmu-132"
                }, 
                {
                    "from": "sent-PMC4002979-UAZ-r1-65-5", 
                    "object-type": "map-range", 
                    "to": "sent-PMC4002979-cmu-170"
                }, 
                {
                    "from": "sent-PMC4002979-UAZ-r1-29-2", 
                    "object-type": "map-range", 
                    "to": "sent-PMC4002979-cmu-52"
                }, 
                {
                    "from": "sent-PMC4002979-UAZ-r1-62-1", 
                    "object-type": "map-range", 
                    "to": "sent-PMC4002979-cmu-139"
                }, 
                {
                    "from": "sent-PMC4002979-UAZ-r1-55-3", 
                    "object-type": "map-range", 
                    "to": "sent-PMC4002979-cmu-123"
                }, 
                {
                    "from": "sent-PMC4002979-UAZ-r1-62-5", 
                    "object-type": "map-range", 
                    "to": "sent-PMC4002979-cmu-143"
                }, 
                {
                    "from": "sent-PMC4002979-UAZ-r1-61-3", 
                    "object-type": "map-range", 
                    "to": "sent-PMC4002979-cmu-135"
                }, 
                {
                    "from": "sent-PMC4002979-UAZ-r1-64-3", 
                    "object-type": "map-range", 
                    "to": "sent-PMC4002979-cmu-163"
                }, 
                {
                    "from": "sent-PMC4002979-UAZ-r1-63-1", 
                    "object-type": "map-range", 
                    "to": "sent-PMC4002979-cmu-151"
                }, 
                {
                    "from": "sent-PMC4002979-UAZ-r1-38-0", 
                    "object-type": "map-range", 
                    "to": "sent-PMC4002979-cmu-78"
                }, 
                {
                    "from": "sent-PMC4002979-UAZ-r1-62-3", 
                    "object-type": "map-range", 
                    "to": "sent-PMC4002979-cmu-141"
                }, 
                {
                    "from": "sent-PMC4002979-UAZ-r1-64-4", 
                    "object-type": "map-range", 
                    "to": "sent-PMC4002979-cmu-164"
                }, 
                {
                    "from": "sent-PMC4002979-UAZ-r1-26-1", 
                    "object-type": "map-range", 
                    "to": "sent-PMC4002979-cmu-44"
                }, 
                {
                    "from": "sent-PMC4002979-UAZ-r1-41-2", 
                    "object-type": "map-range", 
                    "to": "sent-PMC4002979-cmu-86"
                }, 
                {
                    "from": "sent-PMC4002979-UAZ-r1-38-3", 
                    "object-type": "map-range", 
                    "to": "sent-PMC4002979-cmu-81"
                }, 
                {
                    "from": "sent-PMC4002979-UAZ-r1-45-0", 
                    "object-type": "map-range", 
                    "to": "sent-PMC4002979-cmu-111"
                }, 
                {
                    "from": "sent-PMC4002979-UAZ-r1-63-2", 
                    "object-type": "map-range", 
                    "to": "sent-PMC4002979-cmu-152"
                }, 
                {
                    "from": "sent-PMC4002979-UAZ-r1-32-1", 
                    "object-type": "map-range", 
                    "to": "sent-PMC4002979-cmu-58"
                }, 
                {
                    "from": "sent-PMC4002979-UAZ-r1-46-6", 
                    "object-type": "map-range", 
                    "to": "sent-PMC4002979-cmu-95"
                }, 
                {
                    "from": "sent-PMC4002979-UAZ-r1-25-0", 
                    "object-type": "map-range", 
                    "to": "sent-PMC4002979-cmu-34"
                }, 
                {
                    "from": "sent-PMC4002979-UAZ-r1-61-2", 
                    "object-type": "map-range", 
                    "to": "sent-PMC4002979-cmu-134"
                }, 
                {
                    "from": "sent-PMC4002979-UAZ-r1-32-12", 
                    "object-type": "map-range", 
                    "to": "sent-PMC4002979-cmu-68"
                }, 
                {
                    "from": "sent-PMC4002979-UAZ-r1-63-4", 
                    "object-type": "map-range", 
                    "to": "sent-PMC4002979-cmu-154"
                }, 
                {
                    "from": "sent-PMC4002979-UAZ-r1-29-3", 
                    "object-type": "map-range", 
                    "to": "sent-PMC4002979-cmu-53"
                }, 
                {
                    "from": "sent-PMC4002979-UAZ-r1-19-2", 
                    "object-type": "map-range", 
                    "to": "sent-PMC4002979-cmu-23"
                }, 
                {
                    "from": "sent-PMC4002979-UAZ-r1-35-1", 
                    "object-type": "map-range", 
                    "to": "sent-PMC4002979-cmu-71"
                }, 
                {
                    "from": "sent-PMC4002979-UAZ-r1-17-1", 
                    "object-type": "map-range", 
                    "to": "sent-PMC4002979-cmu-3"
                }, 
                {
                    "from": "sent-PMC4002979-UAZ-r1-29-5", 
                    "object-type": "map-range", 
                    "to": "sent-PMC4002979-cmu-55"
                }, 
                {
                    "from": "sent-PMC4002979-UAZ-r1-65-1", 
                    "object-type": "map-range", 
                    "to": "sent-PMC4002979-cmu-166"
                }, 
                {
                    "from": "sent-PMC4002979-UAZ-r1-52-5", 
                    "object-type": "map-range", 
                    "to": "sent-PMC4002979-cmu-117"
                }, 
                {
                    "from": "sent-PMC4002979-UAZ-r1-62-7", 
                    "object-type": "map-range", 
                    "to": "sent-PMC4002979-cmu-145"
                }, 
                {
                    "from": "sent-PMC4002979-UAZ-r1-19-3", 
                    "object-type": "map-range", 
                    "to": "sent-PMC4002979-cmu-24"
                }, 
                {
                    "from": "sent-PMC4002979-UAZ-r1-55-4", 
                    "object-type": "map-range", 
                    "to": "sent-PMC4002979-cmu-124"
                }, 
                {
                    "from": "sent-PMC4002979-UAZ-r1-19-6", 
                    "object-type": "map-range", 
                    "to": "sent-PMC4002979-cmu-27"
                }, 
                {
                    "from": "sent-PMC4002979-UAZ-r1-49-2", 
                    "object-type": "map-range", 
                    "to": "sent-PMC4002979-cmu-110"
                }, 
                {
                    "from": "sent-PMC4002979-UAZ-r1-46-16", 
                    "object-type": "map-range", 
                    "to": "sent-PMC4002979-cmu-105"
                }, 
                {
                    "from": "sent-PMC4002979-UAZ-r1-32-3", 
                    "object-type": "map-range", 
                    "to": "sent-PMC4002979-cmu-60"
                }, 
                {
                    "from": "sent-PMC4002979-UAZ-r1-17-4", 
                    "object-type": "map-range", 
                    "to": "sent-PMC4002979-cmu-6"
                }, 
                {
                    "from": "sent-PMC4002979-UAZ-r1-29-0", 
                    "object-type": "map-range", 
                    "to": "sent-PMC4002979-cmu-50"
                }, 
                {
                    "from": "sent-PMC4002979-UAZ-r1-26-4", 
                    "object-type": "map-range", 
                    "to": "sent-PMC4002979-cmu-47"
                }, 
                {
                    "from": "sent-PMC4002979-UAZ-r1-62-6", 
                    "object-type": "map-range", 
                    "to": "sent-PMC4002979-cmu-144"
                }, 
                {
                    "from": "sent-PMC4002979-UAZ-r1-29-1", 
                    "object-type": "map-range", 
                    "to": "sent-PMC4002979-cmu-51"
                }, 
                {
                    "from": "sent-PMC4002979-UAZ-r1-64-0", 
                    "object-type": "map-range", 
                    "to": "sent-PMC4002979-cmu-160"
                }, 
                {
                    "from": "sent-PMC4002979-UAZ-r1-65-4", 
                    "object-type": "map-range", 
                    "to": "sent-PMC4002979-cmu-169"
                }, 
                {
                    "from": "sent-PMC4002979-UAZ-r1-18-4", 
                    "object-type": "map-range", 
                    "to": "sent-PMC4002979-cmu-16"
                }, 
                {
                    "from": "sent-PMC4002979-UAZ-r1-61-5", 
                    "object-type": "map-range", 
                    "to": "sent-PMC4002979-cmu-137"
                }, 
                {
                    "from": "sent-PMC4002979-UAZ-r1-35-8", 
                    "object-type": "map-range", 
                    "to": "sent-PMC4002979-cmu-76"
                }, 
                {
                    "from": "sent-PMC4002979-UAZ-r1-66-0", 
                    "object-type": "map-range", 
                    "to": "sent-PMC4002979-cmu-181"
                }, 
                {
                    "from": "sent-PMC4002979-UAZ-r1-63-6", 
                    "object-type": "map-range", 
                    "to": "sent-PMC4002979-cmu-156"
                }, 
                {
                    "from": "sent-PMC4002979-UAZ-r1-19-9", 
                    "object-type": "map-range", 
                    "to": "sent-PMC4002979-cmu-30"
                }, 
                {
                    "from": "sent-PMC4002979-UAZ-r1-17-3", 
                    "object-type": "map-range", 
                    "to": "sent-PMC4002979-cmu-5"
                }, 
                {
                    "from": "sent-PMC4002979-UAZ-r1-25-7", 
                    "object-type": "map-range", 
                    "to": "sent-PMC4002979-cmu-40"
                }, 
                {
                    "from": "sent-PMC4002979-UAZ-r1-182-8", 
                    "object-type": "map-range", 
                    "to": "sent-PMC4002979-cmu-102"
                }, 
                {
                    "from": "sent-PMC4002979-UAZ-r1-46-17", 
                    "object-type": "map-range", 
                    "to": "sent-PMC4002979-cmu-106"
                }, 
                {
                    "from": "sent-PMC4002979-UAZ-r1-65-6", 
                    "object-type": "map-range", 
                    "to": "sent-PMC4002979-cmu-171"
                }, 
                {
                    "from": "sent-PMC4002979-UAZ-r1-52-4", 
                    "object-type": "map-range", 
                    "to": "sent-PMC4002979-cmu-116"
                }, 
                {
                    "from": "sent-PMC4002979-UAZ-r1-52-2", 
                    "object-type": "map-range", 
                    "to": "sent-PMC4002979-cmu-114"
                }, 
                {
                    "from": "sent-PMC4002979-UAZ-r1-52-4", 
                    "object-type": "map-range", 
                    "to": "sent-PMC4002979-cmu-126"
                }, 
                {
                    "from": "sent-PMC4002979-UAZ-r1-38-4", 
                    "object-type": "map-range", 
                    "to": "sent-PMC4002979-cmu-82"
                }, 
                {
                    "from": "sent-PMC4002979-UAZ-r1-38-1", 
                    "object-type": "map-range", 
                    "to": "sent-PMC4002979-cmu-79"
                }, 
                {
                    "from": "sent-PMC4002979-UAZ-r1-46-9", 
                    "object-type": "map-range", 
                    "to": "sent-PMC4002979-cmu-167"
                }, 
                {
                    "from": "sent-PMC4002979-UAZ-r1-65-10", 
                    "object-type": "map-range", 
                    "to": "sent-PMC4002979-cmu-175"
                }, 
                {
                    "from": "sent-PMC4002979-UAZ-r1-65-3", 
                    "object-type": "map-range", 
                    "to": "sent-PMC4002979-cmu-168"
                }, 
                {
                    "from": "sent-PMC4002979-UAZ-r1-46-15", 
                    "object-type": "map-range", 
                    "to": "sent-PMC4002979-cmu-104"
                }, 
                {
                    "from": "sent-PMC4002979-UAZ-r1-62-11", 
                    "object-type": "map-range", 
                    "to": "sent-PMC4002979-cmu-149"
                }, 
                {
                    "from": "sent-PMC4002979-UAZ-r1-45-0", 
                    "object-type": "map-range", 
                    "to": "sent-PMC4002979-cmu-89"
                }, 
                {
                    "from": "sent-PMC4002979-UAZ-r1-35-3", 
                    "object-type": "map-range", 
                    "to": "sent-PMC4002979-cmu-73"
                }, 
                {
                    "from": "sent-PMC4002979-UAZ-r1-46-0", 
                    "object-type": "map-range", 
                    "to": "sent-PMC4002979-cmu-90"
                }, 
                {
                    "from": "sent-PMC4002979-UAZ-r1-18-8", 
                    "object-type": "map-range", 
                    "to": "sent-PMC4002979-cmu-20"
                }, 
                {
                    "from": "sent-PMC4002979-UAZ-r1-32-4", 
                    "object-type": "map-range", 
                    "to": "sent-PMC4002979-cmu-61"
                }, 
                {
                    "from": "sent-PMC4002979-UAZ-r1-41-3", 
                    "object-type": "map-range", 
                    "to": "sent-PMC4002979-cmu-87"
                }, 
                {
                    "from": "sent-PMC4002979-UAZ-r1-63-8", 
                    "object-type": "map-range", 
                    "to": "sent-PMC4002979-cmu-158"
                }, 
                {
                    "from": "sent-PMC4002979-UAZ-r1-62-10", 
                    "object-type": "map-range", 
                    "to": "sent-PMC4002979-cmu-148"
                }, 
                {
                    "from": "sent-PMC4002979-UAZ-r1-64-1", 
                    "object-type": "map-range", 
                    "to": "sent-PMC4002979-cmu-161"
                }, 
                {
                    "from": "sent-PMC4002979-UAZ-r1-46-11", 
                    "object-type": "map-range", 
                    "to": "sent-PMC4002979-cmu-100"
                }, 
                {
                    "from": "sent-PMC4002979-UAZ-r1-32-9", 
                    "object-type": "map-range", 
                    "to": "sent-PMC4002979-cmu-65"
                }, 
                {
                    "from": "sent-PMC4002979-UAZ-r1-18-3", 
                    "object-type": "map-range", 
                    "to": "sent-PMC4002979-cmu-15"
                }, 
                {
                    "from": "sent-PMC4002979-UAZ-r1-35-0", 
                    "object-type": "map-range", 
                    "to": "sent-PMC4002979-cmu-70"
                }, 
                {
                    "from": "sent-PMC4002979-UAZ-r1-32-7", 
                    "object-type": "map-range", 
                    "to": "sent-PMC4002979-cmu-63"
                }, 
                {
                    "from": "sent-PMC4002979-UAZ-r1-19-1", 
                    "object-type": "map-range", 
                    "to": "sent-PMC4002979-cmu-22"
                }, 
                {
                    "from": "sent-PMC4002979-UAZ-r1-49-1", 
                    "object-type": "map-range", 
                    "to": "sent-PMC4002979-cmu-109"
                }, 
                {
                    "from": "sent-PMC4002979-UAZ-r1-17-6", 
                    "object-type": "map-range", 
                    "to": "sent-PMC4002979-cmu-8"
                }, 
                {
                    "from": "sent-PMC4002979-UAZ-r1-25-1", 
                    "object-type": "map-range", 
                    "to": "sent-PMC4002979-cmu-35"
                }, 
                {
                    "from": "sent-PMC4002979-UAZ-r1-32-11", 
                    "object-type": "map-range", 
                    "to": "sent-PMC4002979-cmu-67"
                }, 
                {
                    "from": "sent-PMC4002979-UAZ-r1-62-4", 
                    "object-type": "map-range", 
                    "to": "sent-PMC4002979-cmu-142"
                }, 
                {
                    "from": "sent-PMC4002979-UAZ-r1-63-3", 
                    "object-type": "map-range", 
                    "to": "sent-PMC4002979-cmu-153"
                }, 
                {
                    "from": "sent-PMC4002979-UAZ-r1-17-5", 
                    "object-type": "map-range", 
                    "to": "sent-PMC4002979-cmu-7"
                }, 
                {
                    "from": "sent-PMC4002979-UAZ-r1-65-7", 
                    "object-type": "map-range", 
                    "to": "sent-PMC4002979-cmu-172"
                }, 
                {
                    "from": "sent-PMC4002979-UAZ-r1-65-14", 
                    "object-type": "map-range", 
                    "to": "sent-PMC4002979-cmu-179"
                }, 
                {
                    "from": "sent-PMC4002979-UAZ-r1-17-7", 
                    "object-type": "map-range", 
                    "to": "sent-PMC4002979-cmu-9"
                }, 
                {
                    "from": "sent-PMC4002979-UAZ-r1-32-10", 
                    "object-type": "map-range", 
                    "to": "sent-PMC4002979-cmu-66"
                }, 
                {
                    "from": "sent-PMC4002979-UAZ-r1-55-2", 
                    "object-type": "map-range", 
                    "to": "sent-PMC4002979-cmu-122"
                }
            ], 
            "object-meta": {
                "component": "Pradeep-Matcher", 
                "object-type": "meta-info", 
                "organization": "CMU"
            }, 
            "object-type": "frame"
        }, 
        {
            "frame-id": "smap-PMC4002979-cmu-2", 
            "frame-type": "sentence-map", 
            "list1-meta": {
                "component": "MedScan", 
                "object-type": "meta-info", 
                "organization": "CMU"
            }, 
            "list2-meta": {
                "component": "Nicolas-NXML-Parser", 
                "object-type": "meta-info", 
                "organization": "CMU"
            }, 
            "map": [
                {
                    "from": "sent-PMC4002979-medscan-171", 
                    "object-type": "map-range", 
                    "to": "sent-PMC4002979-cmu-182"
                }, 
                {
                    "from": "sent-PMC4002979-medscan-85", 
                    "object-type": "map-range", 
                    "to": "sent-PMC4002979-cmu-91"
                }, 
                {
                    "from": "sent-PMC4002979-medscan-60", 
                    "object-type": "map-range", 
                    "to": "sent-PMC4002979-cmu-64"
                }, 
                {
                    "from": "sent-PMC4002979-medscan-172", 
                    "object-type": "map-range", 
                    "to": "sent-PMC4002979-cmu-184"
                }, 
                {
                    "from": "sent-PMC4002979-medscan-8", 
                    "object-type": "map-range", 
                    "to": "sent-PMC4002979-cmu-10"
                }, 
                {
                    "from": "sent-PMC4002979-medscan-57", 
                    "object-type": "map-range", 
                    "to": "sent-PMC4002979-cmu-62"
                }, 
                {
                    "from": "sent-PMC4002979-medscan-23", 
                    "object-type": "map-range", 
                    "to": "sent-PMC4002979-cmu-25"
                }, 
                {
                    "from": "sent-PMC4002979-medscan-79", 
                    "object-type": "map-range", 
                    "to": "sent-PMC4002979-cmu-84"
                }, 
                {
                    "from": "sent-PMC4002979-medscan-162", 
                    "object-type": "map-range", 
                    "to": "sent-PMC4002979-cmu-173"
                }, 
                {
                    "from": "sent-PMC4002979-medscan-118", 
                    "object-type": "map-range", 
                    "to": "sent-PMC4002979-cmu-127"
                }, 
                {
                    "from": "sent-PMC4002979-medscan-146", 
                    "object-type": "map-range", 
                    "to": "sent-PMC4002979-cmu-157"
                }, 
                {
                    "from": "sent-PMC4002979-medscan-44", 
                    "object-type": "map-range", 
                    "to": "sent-PMC4002979-cmu-48"
                }, 
                {
                    "from": "sent-PMC4002979-medscan-148", 
                    "object-type": "map-range", 
                    "to": "sent-PMC4002979-cmu-159"
                }, 
                {
                    "from": "sent-PMC4002979-medscan-37", 
                    "object-type": "map-range", 
                    "to": "sent-PMC4002979-cmu-41"
                }, 
                {
                    "from": "sent-PMC4002979-medscan-88", 
                    "object-type": "map-range", 
                    "to": "sent-PMC4002979-cmu-94"
                }, 
                {
                    "from": "sent-PMC4002979-medscan-163", 
                    "object-type": "map-range", 
                    "to": "sent-PMC4002979-cmu-174"
                }, 
                {
                    "from": "sent-PMC4002979-medscan-166", 
                    "object-type": "map-range", 
                    "to": "sent-PMC4002979-cmu-177"
                }, 
                {
                    "from": "sent-PMC4002979-medscan-19", 
                    "object-type": "map-range", 
                    "to": "sent-PMC4002979-cmu-21"
                }, 
                {
                    "from": "sent-PMC4002979-medscan-72", 
                    "object-type": "map-range", 
                    "to": "sent-PMC4002979-cmu-75"
                }, 
                {
                    "from": "sent-PMC4002979-medscan-136", 
                    "object-type": "map-range", 
                    "to": "sent-PMC4002979-cmu-147"
                }, 
                {
                    "from": "sent-PMC4002979-medscan-41", 
                    "object-type": "map-range", 
                    "to": "sent-PMC4002979-cmu-45"
                }, 
                {
                    "from": "sent-PMC4002979-medscan-92", 
                    "object-type": "map-range", 
                    "to": "sent-PMC4002979-cmu-98"
                }, 
                {
                    "from": "sent-PMC4002979-medscan-97", 
                    "object-type": "map-range", 
                    "to": "sent-PMC4002979-cmu-103"
                }, 
                {
                    "from": "sent-PMC4002979-medscan-54", 
                    "object-type": "map-range", 
                    "to": "sent-PMC4002979-cmu-59"
                }, 
                {
                    "from": "sent-PMC4002979-medscan-119", 
                    "object-type": "map-range", 
                    "to": "sent-PMC4002979-cmu-129"
                }, 
                {
                    "from": "sent-PMC4002979-medscan-154", 
                    "object-type": "map-range", 
                    "to": "sent-PMC4002979-cmu-165"
                }, 
                {
                    "from": "sent-PMC4002979-medscan-35", 
                    "object-type": "map-range", 
                    "to": "sent-PMC4002979-cmu-39"
                }, 
                {
                    "from": "sent-PMC4002979-medscan-17", 
                    "object-type": "map-range", 
                    "to": "sent-PMC4002979-cmu-19"
                }, 
                {
                    "from": "sent-PMC4002979-medscan-42", 
                    "object-type": "map-range", 
                    "to": "sent-PMC4002979-cmu-46"
                }, 
                {
                    "from": "sent-PMC4002979-medscan-0", 
                    "object-type": "map-range", 
                    "to": "sent-PMC4002979-cmu-2"
                }, 
                {
                    "from": "sent-PMC4002979-medscan-95", 
                    "object-type": "map-range", 
                    "to": "sent-PMC4002979-cmu-101"
                }, 
                {
                    "from": "sent-PMC4002979-medscan-15", 
                    "object-type": "map-range", 
                    "to": "sent-PMC4002979-cmu-17"
                }, 
                {
                    "from": "sent-PMC4002979-medscan-135", 
                    "object-type": "map-range", 
                    "to": "sent-PMC4002979-cmu-146"
                }, 
                {
                    "from": "sent-PMC4002979-medscan-34", 
                    "object-type": "map-range", 
                    "to": "sent-PMC4002979-cmu-37"
                }, 
                {
                    "from": "sent-PMC4002979-medscan-107", 
                    "object-type": "map-range", 
                    "to": "sent-PMC4002979-cmu-125"
                }, 
                {
                    "from": "sent-PMC4002979-medscan-107", 
                    "object-type": "map-range", 
                    "to": "sent-PMC4002979-cmu-125"
                }, 
                {
                    "from": "sent-PMC4002979-medscan-127", 
                    "object-type": "map-range", 
                    "to": "sent-PMC4002979-cmu-138"
                }, 
                {
                    "from": "sent-PMC4002979-medscan-16", 
                    "object-type": "map-range", 
                    "to": "sent-PMC4002979-cmu-18"
                }, 
                {
                    "from": "sent-PMC4002979-medscan-125", 
                    "object-type": "map-range", 
                    "to": "sent-PMC4002979-cmu-136"
                }, 
                {
                    "from": "sent-PMC4002979-medscan-2", 
                    "object-type": "map-range", 
                    "to": "sent-PMC4002979-cmu-4"
                }, 
                {
                    "from": "sent-PMC4002979-medscan-167", 
                    "object-type": "map-range", 
                    "to": "sent-PMC4002979-cmu-178"
                }, 
                {
                    "from": "sent-PMC4002979-medscan-24", 
                    "object-type": "map-range", 
                    "to": "sent-PMC4002979-cmu-26"
                }, 
                {
                    "from": "sent-PMC4002979-medscan-80", 
                    "object-type": "map-range", 
                    "to": "sent-PMC4002979-cmu-85"
                }, 
                {
                    "from": "sent-PMC4002979-medscan-122", 
                    "object-type": "map-range", 
                    "to": "sent-PMC4002979-cmu-133"
                }, 
                {
                    "from": "sent-PMC4002979-medscan-86", 
                    "object-type": "map-range", 
                    "to": "sent-PMC4002979-cmu-92"
                }, 
                {
                    "from": "sent-PMC4002979-medscan-26", 
                    "object-type": "map-range", 
                    "to": "sent-PMC4002979-cmu-28"
                }, 
                {
                    "from": "sent-PMC4002979-medscan-76", 
                    "object-type": "map-range", 
                    "to": "sent-PMC4002979-cmu-80"
                }, 
                {
                    "from": "sent-PMC4002979-medscan-29", 
                    "object-type": "map-range", 
                    "to": "sent-PMC4002979-cmu-31"
                }, 
                {
                    "from": "sent-PMC4002979-medscan-90", 
                    "object-type": "map-range", 
                    "to": "sent-PMC4002979-cmu-96"
                }, 
                {
                    "from": "sent-PMC4002979-medscan-105", 
                    "object-type": "map-range", 
                    "to": "sent-PMC4002979-cmu-113"
                }, 
                {
                    "from": "sent-PMC4002979-medscan-32", 
                    "object-type": "map-range", 
                    "to": "sent-PMC4002979-cmu-36"
                }, 
                {
                    "from": "sent-PMC4002979-medscan-107", 
                    "object-type": "map-range", 
                    "to": "sent-PMC4002979-cmu-115"
                }, 
                {
                    "from": "sent-PMC4002979-medscan-107", 
                    "object-type": "map-range", 
                    "to": "sent-PMC4002979-cmu-115"
                }, 
                {
                    "from": "sent-PMC4002979-medscan-70", 
                    "object-type": "map-range", 
                    "to": "sent-PMC4002979-cmu-74"
                }, 
                {
                    "from": "sent-PMC4002979-medscan-104", 
                    "object-type": "map-range", 
                    "to": "sent-PMC4002979-cmu-112"
                }, 
                {
                    "from": "sent-PMC4002979-medscan-144", 
                    "object-type": "map-range", 
                    "to": "sent-PMC4002979-cmu-155"
                }, 
                {
                    "from": "sent-PMC4002979-medscan-27", 
                    "object-type": "map-range", 
                    "to": "sent-PMC4002979-cmu-29"
                }, 
                {
                    "from": "sent-PMC4002979-medscan-111", 
                    "object-type": "map-range", 
                    "to": "sent-PMC4002979-cmu-120"
                }, 
                {
                    "from": "sent-PMC4002979-medscan-121", 
                    "object-type": "map-range", 
                    "to": "sent-PMC4002979-cmu-132"
                }, 
                {
                    "from": "sent-PMC4002979-medscan-159", 
                    "object-type": "map-range", 
                    "to": "sent-PMC4002979-cmu-170"
                }, 
                {
                    "from": "sent-PMC4002979-medscan-47", 
                    "object-type": "map-range", 
                    "to": "sent-PMC4002979-cmu-52"
                }, 
                {
                    "from": "sent-PMC4002979-medscan-128", 
                    "object-type": "map-range", 
                    "to": "sent-PMC4002979-cmu-139"
                }, 
                {
                    "from": "sent-PMC4002979-medscan-132", 
                    "object-type": "map-range", 
                    "to": "sent-PMC4002979-cmu-143"
                }, 
                {
                    "from": "sent-PMC4002979-medscan-124", 
                    "object-type": "map-range", 
                    "to": "sent-PMC4002979-cmu-135"
                }, 
                {
                    "from": "sent-PMC4002979-medscan-152", 
                    "object-type": "map-range", 
                    "to": "sent-PMC4002979-cmu-163"
                }, 
                {
                    "from": "sent-PMC4002979-medscan-140", 
                    "object-type": "map-range", 
                    "to": "sent-PMC4002979-cmu-151"
                }, 
                {
                    "from": "sent-PMC4002979-medscan-74", 
                    "object-type": "map-range", 
                    "to": "sent-PMC4002979-cmu-78"
                }, 
                {
                    "from": "sent-PMC4002979-medscan-130", 
                    "object-type": "map-range", 
                    "to": "sent-PMC4002979-cmu-141"
                }, 
                {
                    "from": "sent-PMC4002979-medscan-153", 
                    "object-type": "map-range", 
                    "to": "sent-PMC4002979-cmu-164"
                }, 
                {
                    "from": "sent-PMC4002979-medscan-40", 
                    "object-type": "map-range", 
                    "to": "sent-PMC4002979-cmu-44"
                }, 
                {
                    "from": "sent-PMC4002979-medscan-81", 
                    "object-type": "map-range", 
                    "to": "sent-PMC4002979-cmu-86"
                }, 
                {
                    "from": "sent-PMC4002979-medscan-77", 
                    "object-type": "map-range", 
                    "to": "sent-PMC4002979-cmu-81"
                }, 
                {
                    "from": "sent-PMC4002979-medscan-112", 
                    "object-type": "map-range", 
                    "to": "sent-PMC4002979-cmu-121"
                }, 
                {
                    "from": "sent-PMC4002979-medscan-141", 
                    "object-type": "map-range", 
                    "to": "sent-PMC4002979-cmu-152"
                }, 
                {
                    "from": "sent-PMC4002979-medscan-53", 
                    "object-type": "map-range", 
                    "to": "sent-PMC4002979-cmu-58"
                }, 
                {
                    "from": "sent-PMC4002979-medscan-30", 
                    "object-type": "map-range", 
                    "to": "sent-PMC4002979-cmu-34"
                }, 
                {
                    "from": "sent-PMC4002979-medscan-123", 
                    "object-type": "map-range", 
                    "to": "sent-PMC4002979-cmu-134"
                }, 
                {
                    "from": "sent-PMC4002979-medscan-64", 
                    "object-type": "map-range", 
                    "to": "sent-PMC4002979-cmu-68"
                }, 
                {
                    "from": "sent-PMC4002979-medscan-143", 
                    "object-type": "map-range", 
                    "to": "sent-PMC4002979-cmu-154"
                }, 
                {
                    "from": "sent-PMC4002979-medscan-48", 
                    "object-type": "map-range", 
                    "to": "sent-PMC4002979-cmu-53"
                }, 
                {
                    "from": "sent-PMC4002979-medscan-109", 
                    "object-type": "map-range", 
                    "to": "sent-PMC4002979-cmu-117"
                }, 
                {
                    "from": "sent-PMC4002979-medscan-134", 
                    "object-type": "map-range", 
                    "to": "sent-PMC4002979-cmu-145"
                }, 
                {
                    "from": "sent-PMC4002979-medscan-22", 
                    "object-type": "map-range", 
                    "to": "sent-PMC4002979-cmu-24"
                }, 
                {
                    "from": "sent-PMC4002979-medscan-25", 
                    "object-type": "map-range", 
                    "to": "sent-PMC4002979-cmu-27"
                }, 
                {
                    "from": "sent-PMC4002979-medscan-103", 
                    "object-type": "map-range", 
                    "to": "sent-PMC4002979-cmu-110"
                }, 
                {
                    "from": "sent-PMC4002979-medscan-99", 
                    "object-type": "map-range", 
                    "to": "sent-PMC4002979-cmu-105"
                }, 
                {
                    "from": "sent-PMC4002979-medscan-120", 
                    "object-type": "map-range", 
                    "to": "sent-PMC4002979-cmu-130"
                }, 
                {
                    "from": "sent-PMC4002979-medscan-55", 
                    "object-type": "map-range", 
                    "to": "sent-PMC4002979-cmu-60"
                }, 
                {
                    "from": "sent-PMC4002979-medscan-4", 
                    "object-type": "map-range", 
                    "to": "sent-PMC4002979-cmu-6"
                }, 
                {
                    "from": "sent-PMC4002979-medscan-45", 
                    "object-type": "map-range", 
                    "to": "sent-PMC4002979-cmu-50"
                }, 
                {
                    "from": "sent-PMC4002979-medscan-43", 
                    "object-type": "map-range", 
                    "to": "sent-PMC4002979-cmu-47"
                }, 
                {
                    "from": "sent-PMC4002979-medscan-87", 
                    "object-type": "map-range", 
                    "to": "sent-PMC4002979-cmu-93"
                }, 
                {
                    "from": "sent-PMC4002979-medscan-133", 
                    "object-type": "map-range", 
                    "to": "sent-PMC4002979-cmu-144"
                }, 
                {
                    "from": "sent-PMC4002979-medscan-149", 
                    "object-type": "map-range", 
                    "to": "sent-PMC4002979-cmu-160"
                }, 
                {
                    "from": "sent-PMC4002979-medscan-158", 
                    "object-type": "map-range", 
                    "to": "sent-PMC4002979-cmu-169"
                }, 
                {
                    "from": "sent-PMC4002979-medscan-14", 
                    "object-type": "map-range", 
                    "to": "sent-PMC4002979-cmu-16"
                }, 
                {
                    "from": "sent-PMC4002979-medscan-126", 
                    "object-type": "map-range", 
                    "to": "sent-PMC4002979-cmu-137"
                }, 
                {
                    "from": "sent-PMC4002979-medscan-73", 
                    "object-type": "map-range", 
                    "to": "sent-PMC4002979-cmu-76"
                }, 
                {
                    "from": "sent-PMC4002979-medscan-170", 
                    "object-type": "map-range", 
                    "to": "sent-PMC4002979-cmu-181"
                }, 
                {
                    "from": "sent-PMC4002979-medscan-145", 
                    "object-type": "map-range", 
                    "to": "sent-PMC4002979-cmu-156"
                }, 
                {
                    "from": "sent-PMC4002979-medscan-28", 
                    "object-type": "map-range", 
                    "to": "sent-PMC4002979-cmu-30"
                }, 
                {
                    "from": "sent-PMC4002979-medscan-3", 
                    "object-type": "map-range", 
                    "to": "sent-PMC4002979-cmu-5"
                }, 
                {
                    "from": "sent-PMC4002979-medscan-36", 
                    "object-type": "map-range", 
                    "to": "sent-PMC4002979-cmu-40"
                }, 
                {
                    "from": "sent-PMC4002979-medscan-96", 
                    "object-type": "map-range", 
                    "to": "sent-PMC4002979-cmu-102"
                }, 
                {
                    "from": "sent-PMC4002979-medscan-108", 
                    "object-type": "map-range", 
                    "to": "sent-PMC4002979-cmu-126"
                }, 
                {
                    "from": "sent-PMC4002979-medscan-108", 
                    "object-type": "map-range", 
                    "to": "sent-PMC4002979-cmu-126"
                }, 
                {
                    "from": "sent-PMC4002979-medscan-108", 
                    "object-type": "map-range", 
                    "to": "sent-PMC4002979-cmu-126"
                }, 
                {
                    "from": "sent-PMC4002979-medscan-78", 
                    "object-type": "map-range", 
                    "to": "sent-PMC4002979-cmu-82"
                }, 
                {
                    "from": "sent-PMC4002979-medscan-92", 
                    "object-type": "map-range", 
                    "to": "sent-PMC4002979-cmu-167"
                }, 
                {
                    "from": "sent-PMC4002979-medscan-92", 
                    "object-type": "map-range", 
                    "to": "sent-PMC4002979-cmu-167"
                }, 
                {
                    "from": "sent-PMC4002979-medscan-157", 
                    "object-type": "map-range", 
                    "to": "sent-PMC4002979-cmu-168"
                }, 
                {
                    "from": "sent-PMC4002979-medscan-138", 
                    "object-type": "map-range", 
                    "to": "sent-PMC4002979-cmu-149"
                }, 
                {
                    "from": "sent-PMC4002979-medscan-68", 
                    "object-type": "map-range", 
                    "to": "sent-PMC4002979-cmu-73"
                }, 
                {
                    "from": "sent-PMC4002979-medscan-9", 
                    "object-type": "map-range", 
                    "to": "sent-PMC4002979-cmu-11"
                }, 
                {
                    "from": "sent-PMC4002979-medscan-18", 
                    "object-type": "map-range", 
                    "to": "sent-PMC4002979-cmu-20"
                }, 
                {
                    "from": "sent-PMC4002979-medscan-56", 
                    "object-type": "map-range", 
                    "to": "sent-PMC4002979-cmu-61"
                }, 
                {
                    "from": "sent-PMC4002979-medscan-82", 
                    "object-type": "map-range", 
                    "to": "sent-PMC4002979-cmu-87"
                }, 
                {
                    "from": "sent-PMC4002979-medscan-147", 
                    "object-type": "map-range", 
                    "to": "sent-PMC4002979-cmu-158"
                }, 
                {
                    "from": "sent-PMC4002979-medscan-137", 
                    "object-type": "map-range", 
                    "to": "sent-PMC4002979-cmu-148"
                }, 
                {
                    "from": "sent-PMC4002979-medscan-150", 
                    "object-type": "map-range", 
                    "to": "sent-PMC4002979-cmu-161"
                }, 
                {
                    "from": "sent-PMC4002979-medscan-94", 
                    "object-type": "map-range", 
                    "to": "sent-PMC4002979-cmu-100"
                }, 
                {
                    "from": "sent-PMC4002979-medscan-65", 
                    "object-type": "map-range", 
                    "to": "sent-PMC4002979-cmu-70"
                }, 
                {
                    "from": "sent-PMC4002979-medscan-65", 
                    "object-type": "map-range", 
                    "to": "sent-PMC4002979-cmu-70"
                }, 
                {
                    "from": "sent-PMC4002979-medscan-59", 
                    "object-type": "map-range", 
                    "to": "sent-PMC4002979-cmu-63"
                }, 
                {
                    "from": "sent-PMC4002979-medscan-20", 
                    "object-type": "map-range", 
                    "to": "sent-PMC4002979-cmu-22"
                }, 
                {
                    "from": "sent-PMC4002979-medscan-102", 
                    "object-type": "map-range", 
                    "to": "sent-PMC4002979-cmu-109"
                }, 
                {
                    "from": "sent-PMC4002979-medscan-31", 
                    "object-type": "map-range", 
                    "to": "sent-PMC4002979-cmu-35"
                }, 
                {
                    "from": "sent-PMC4002979-medscan-63", 
                    "object-type": "map-range", 
                    "to": "sent-PMC4002979-cmu-67"
                }, 
                {
                    "from": "sent-PMC4002979-medscan-131", 
                    "object-type": "map-range", 
                    "to": "sent-PMC4002979-cmu-142"
                }, 
                {
                    "from": "sent-PMC4002979-medscan-5", 
                    "object-type": "map-range", 
                    "to": "sent-PMC4002979-cmu-7"
                }, 
                {
                    "from": "sent-PMC4002979-medscan-161", 
                    "object-type": "map-range", 
                    "to": "sent-PMC4002979-cmu-172"
                }, 
                {
                    "from": "sent-PMC4002979-medscan-168", 
                    "object-type": "map-range", 
                    "to": "sent-PMC4002979-cmu-179"
                }, 
                {
                    "from": "sent-PMC4002979-medscan-7", 
                    "object-type": "map-range", 
                    "to": "sent-PMC4002979-cmu-9"
                }, 
                {
                    "from": "sent-PMC4002979-medscan-62", 
                    "object-type": "map-range", 
                    "to": "sent-PMC4002979-cmu-66"
                }, 
                {
                    "from": "sent-PMC4002979-medscan-113", 
                    "object-type": "map-range", 
                    "to": "sent-PMC4002979-cmu-122"
                }
            ], 
            "object-meta": {
                "component": "Pradeep-Matcher", 
                "object-type": "meta-info", 
                "organization": "CMU"
            }, 
            "object-type": "frame"
        }
    ], 
    "object-meta": {
        "component": "Pradeep-Matcher", 
        "component-type": "machine", 
        "doc-id": "PMC4002979", 
        "object-type": "meta-info", 
        "organization": "CMU"
    }, 
    "object-type": "frame-collection"
}
