{
    "frames": [
        {
            "frame-id": "sent-PMC2965105-cmu-0", 
            "frame-type": "sentence", 
            "object-type": "frame", 
            "start-pos": {
                "object-type": "absolute-pos", 
                "offset": 0
            }, 
            "text": "XML Paper ( id '2965105 ' ) : 'The Roles of BDNF , pCREB and Wnt3a in the Latent Period Preceding Activation of Progenitor Cell Mitosis in The Adult Dentate Gyrus by Fluoxetine '"
        }, 
        {
            "frame-id": "sent-PMC2965105-cmu-1", 
            "frame-type": "sentence", 
            "object-type": "frame", 
            "start-pos": {
                "object-type": "absolute-pos", 
                "offset": 1
            }, 
            "text": "Introduction"
        }, 
        {
            "frame-id": "sent-PMC2965105-cmu-2", 
            "frame-type": "sentence", 
            "object-type": "frame", 
            "start-pos": {
                "object-type": "absolute-pos", 
                "offset": 2
            }, 
            "text": "The realisation that neurogenesis continues in the dentate gyrus into adult life has aroused considerable interest for several reasons ."
        }, 
        {
            "frame-id": "sent-PMC2965105-cmu-3", 
            "frame-type": "sentence", 
            "object-type": "frame", 
            "start-pos": {
                "object-type": "absolute-pos", 
                "offset": 3
            }, 
            "text": "The functional significance of a generative and restorative process , more typical of the developing brain , in this region of the adult remains enigmatic ."
        }, 
        {
            "frame-id": "sent-PMC2965105-cmu-4", 
            "frame-type": "sentence", 
            "object-type": "frame", 
            "start-pos": {
                "object-type": "absolute-pos", 
                "offset": 4
            }, 
            "text": "It has also raised hopes that a similar process might be inducible in other areas following damage or malfunction ."
        }, 
        {
            "frame-id": "sent-PMC2965105-cmu-5", 
            "frame-type": "sentence", 
            "object-type": "frame", 
            "start-pos": {
                "object-type": "absolute-pos", 
                "offset": 5
            }, 
            "text": "A number of attempts , some more convincing than others , have been made to show that inhibiting neurogenesis - a procedure which has technical problems related to its specificity - reduces mnemonic abilities [ 1 ] , [ 2 ] , [ 3 ] , [ 4 ] though precisely why this should require newly-formed neurons is still debated [ 5 ] , [ 6 ] ."
        }, 
        {
            "frame-id": "sent-PMC2965105-cmu-6", 
            "frame-type": "sentence", 
            "object-type": "frame", 
            "start-pos": {
                "object-type": "absolute-pos", 
                "offset": 6
            }, 
            "text": "There is the suggestion that the onset of depression in humans , or its response to treatment with antidepressants , may be related in some way to altered neurogenesis in the dentate gyrus [ 7 ] , [ 8 ] , [ 9 ] ."
        }, 
        {
            "frame-id": "sent-PMC2965105-cmu-7", 
            "frame-type": "sentence", 
            "object-type": "frame", 
            "start-pos": {
                "object-type": "absolute-pos", 
                "offset": 7
            }, 
            "text": "Direct evidence for this hypothesis is still scanty and conflicting [ 10 ] , [ 11 ] ."
        }, 
        {
            "frame-id": "sent-PMC2965105-cmu-8", 
            "frame-type": "sentence", 
            "object-type": "frame", 
            "start-pos": {
                "object-type": "absolute-pos", 
                "offset": 8
            }, 
            "text": "However , there is no doubt that some drugs used as anti-depressants \u2013 such as fluoxetine - stimulate neurogenesis , particularly the mitotic rate of the progenitor cells ."
        }, 
        {
            "frame-id": "sent-PMC2965105-cmu-9", 
            "frame-type": "sentence", 
            "object-type": "frame", 
            "start-pos": {
                "object-type": "absolute-pos", 
                "offset": 9
            }, 
            "text": "Chronic , but not acute , treatment of rats with fluoxetine , a typical SSRI ( Selective Serotonin Reuptake Inhibitor ) , stimulates the proliferative rate of the progenitor cells lining the internal layer of the dentate gyrus [ 12 ] ."
        }, 
        {
            "frame-id": "sent-PMC2965105-cmu-10", 
            "frame-type": "sentence", 
            "object-type": "frame", 
            "start-pos": {
                "object-type": "absolute-pos", 
                "offset": 10
            }, 
            "text": "This takes around 14 days , which is intriguing since the pharmacological action of this drug begins within hours ."
        }, 
        {
            "frame-id": "sent-PMC2965105-cmu-11", 
            "frame-type": "sentence", 
            "object-type": "frame", 
            "start-pos": {
                "object-type": "absolute-pos", 
                "offset": 11
            }, 
            "text": "These finding suggests that there are downstream actions upon which the proliferativc action of these drugs depends ."
        }, 
        {
            "frame-id": "sent-PMC2965105-cmu-12", 
            "frame-type": "sentence", 
            "object-type": "frame", 
            "start-pos": {
                "object-type": "absolute-pos", 
                "offset": 12
            }, 
            "text": "This latent period recalls the similar one preceding therapeutic effects in patients treated for depression ."
        }, 
        {
            "frame-id": "sent-PMC2965105-cmu-13", 
            "frame-type": "sentence", 
            "object-type": "frame", 
            "start-pos": {
                "object-type": "absolute-pos", 
                "offset": 13
            }, 
            "text": "Santarelli and colleagues reported that suppression of neurogenesis either by radiation or 5HT1A receptor knockout prevented the ameliorating actions of fluoxetine on novelty suppressed feeding [ 13 ] ."
        }, 
        {
            "frame-id": "sent-PMC2965105-cmu-14", 
            "frame-type": "sentence", 
            "object-type": "frame", 
            "start-pos": {
                "object-type": "absolute-pos", 
                "offset": 14
            }, 
            "text": "Although this was hailed as support for a link between hippocampal neurogenesis and depression , the behavioural test had more to do with anxiety than depression , and a further study ( from the same group ) using a different test ( forced swim ) and a different strain of mouse failed to replicate it [ 14 ] ."
        }, 
        {
            "frame-id": "sent-PMC2965105-cmu-15", 
            "frame-type": "sentence", 
            "object-type": "frame", 
            "start-pos": {
                "object-type": "absolute-pos", 
                "offset": 15
            }, 
            "text": "Nevertheless , the necessity for prolonged treatment with drugs such as fluoxetine for both behavioural and cytological actions remains to be explained ."
        }, 
        {
            "frame-id": "sent-PMC2965105-cmu-16", 
            "frame-type": "sentence", 
            "object-type": "frame", 
            "start-pos": {
                "object-type": "absolute-pos", 
                "offset": 16
            }, 
            "text": "BDNF ( Brain-Derived Neurotrophic Factor ) is involved in activity dependent neuroplasticity , survival and differentiation in both the periphery and CNS ."
        }, 
        {
            "frame-id": "sent-PMC2965105-cmu-17", 
            "frame-type": "sentence", 
            "object-type": "frame", 
            "start-pos": {
                "object-type": "absolute-pos", 
                "offset": 17
            }, 
            "text": "The BDNF-responsive TrkB ( Tropomyosin-associated kinase ) receptors upregulate or downregulate many second messengers that lead to the phosphorylation of transcriptional factors such as CREB ( c-AMP response element-binding ) ."
        }, 
        {
            "frame-id": "sent-PMC2965105-cmu-18", 
            "frame-type": "sentence", 
            "object-type": "frame", 
            "start-pos": {
                "object-type": "absolute-pos", 
                "offset": 18
            }, 
            "text": "Chronic antidepressant treatment stimulates pCREB though there have been conflicting reports [ 15 ] , [ 16 ] , [ 17 ] ."
        }, 
        {
            "frame-id": "sent-PMC2965105-cmu-19", 
            "frame-type": "sentence", 
            "object-type": "frame", 
            "start-pos": {
                "object-type": "absolute-pos", 
                "offset": 19
            }, 
            "text": "Previous studies have also shown that there are increased levels of BDNF protein and mRNA in rat treated with antidepressants [ 16 ] , [ 18 ] , [ 19 ] ."
        }, 
        {
            "frame-id": "sent-PMC2965105-cmu-20", 
            "frame-type": "sentence", 
            "object-type": "frame", 
            "start-pos": {
                "object-type": "absolute-pos", 
                "offset": 20
            }, 
            "text": "Transgenic mice with reduced BDNF levels or impaired TrkB signalling in the brain have provided evidence that TrkB activation is required for the behavioural actions typically induced by antidepressants [ 20 ] ."
        }, 
        {
            "frame-id": "sent-PMC2965105-cmu-21", 
            "frame-type": "sentence", 
            "object-type": "frame", 
            "start-pos": {
                "object-type": "absolute-pos", 
                "offset": 21
            }, 
            "text": "Wnt signalling has been implicated in both embryonic and adult neurogenesis [ 21 ] , [ 22 ] , but whether it is involved in the action of fluoxetine on adult neurogenesis is not known ."
        }, 
        {
            "frame-id": "sent-PMC2965105-cmu-22", 
            "frame-type": "sentence", 
            "object-type": "frame", 
            "start-pos": {
                "object-type": "absolute-pos", 
                "offset": 22
            }, 
            "text": "We have addressed the question of the importance of TrkB receptor activation on antidepressant effect on cell mitosis and on the latent period preceding activation of progenitor cell mitosis ."
        }, 
        {
            "frame-id": "sent-PMC2965105-cmu-23", 
            "frame-type": "sentence", 
            "object-type": "frame", 
            "start-pos": {
                "object-type": "absolute-pos", 
                "offset": 23
            }, 
            "text": "The first experiment determines whether intracerebroventricular ( icv ) infusion of the Trk antagonist K252a , can block the action of fluoxetine ( 10 mg/kg/day ) on progenitor cell mitosis , and the effect it has on the expression of pCREB and Wnt3a in the granular neurons in the dentate gyrus ."
        }, 
        {
            "frame-id": "sent-PMC2965105-cmu-24", 
            "frame-type": "sentence", 
            "object-type": "frame", 
            "start-pos": {
                "object-type": "absolute-pos", 
                "offset": 24
            }, 
            "text": "The second explores whether rats treated with the same dose of fluoxetine for 7 days show any change in progenitor proliferation , or expression of pCREB or Wnt3a , compared to those treated for 14 days ."
        }, 
        {
            "frame-id": "sent-PMC2965105-cmu-25", 
            "frame-type": "sentence", 
            "object-type": "frame", 
            "start-pos": {
                "object-type": "absolute-pos", 
                "offset": 25
            }, 
            "text": "Then the role of the Trk receptors in the latent period required for fluoxetine to act was investigated by giving K252a for either the first or second 7 days of the 14 day treatment period ."
        }, 
        {
            "frame-id": "sent-PMC2965105-cmu-26", 
            "frame-type": "sentence", 
            "object-type": "frame", 
            "start-pos": {
                "object-type": "absolute-pos", 
                "offset": 26
            }, 
            "text": "Materials and Methods"
        }, 
        {
            "frame-id": "sent-PMC2965105-cmu-27", 
            "frame-type": "sentence", 
            "object-type": "frame", 
            "start-pos": {
                "object-type": "absolute-pos", 
                "offset": 27
            }, 
            "text": "Animals"
        }, 
        {
            "frame-id": "sent-PMC2965105-cmu-28", 
            "frame-type": "sentence", 
            "object-type": "frame", 
            "start-pos": {
                "object-type": "absolute-pos", 
                "offset": 28
            }, 
            "text": "All procedures were carried out under Home Office ( UK ) licence ."
        }, 
        {
            "frame-id": "sent-PMC2965105-cmu-29", 
            "frame-type": "sentence", 
            "object-type": "frame", 
            "start-pos": {
                "object-type": "absolute-pos", 
                "offset": 29
            }, 
            "text": "Male Sprague-Dawley rats 8 weeks old ( Harlan , Oxon , UK ) were used , weighing 200\u2013250 grams at the start of the experiment ."
        }, 
        {
            "frame-id": "sent-PMC2965105-cmu-30", 
            "frame-type": "sentence", 
            "object-type": "frame", 
            "start-pos": {
                "object-type": "absolute-pos", 
                "offset": 30
            }, 
            "text": "Rats were housed individually in a controlled environment ."
        }, 
        {
            "frame-id": "sent-PMC2965105-cmu-31", 
            "frame-type": "sentence", 
            "object-type": "frame", 
            "start-pos": {
                "object-type": "absolute-pos", 
                "offset": 31
            }, 
            "text": "Ambient temperature was maintained at 21\u00b0C and humidity at 55 % with ad libitum access to food and tap water ."
        }, 
        {
            "frame-id": "sent-PMC2965105-cmu-32", 
            "frame-type": "sentence", 
            "object-type": "frame", 
            "start-pos": {
                "object-type": "absolute-pos", 
                "offset": 32
            }, 
            "text": "Animals were kept in a reversed 12-h light:12-h dark cycle , ( lights off at 10.00 h ) ."
        }, 
        {
            "frame-id": "sent-PMC2965105-cmu-33", 
            "frame-type": "sentence", 
            "object-type": "frame", 
            "start-pos": {
                "object-type": "absolute-pos", 
                "offset": 33
            }, 
            "text": "Cannula placement"
        }, 
        {
            "frame-id": "sent-PMC2965105-cmu-34", 
            "frame-type": "sentence", 
            "object-type": "frame", 
            "start-pos": {
                "object-type": "absolute-pos", 
                "offset": 34
            }, 
            "text": "Animals were anesthetised with isofluorane , oxygen and NO and placed securely into a stereotaxic frame ( David Kopf instruments , Tujunga , CA , USA ) ."
        }, 
        {
            "frame-id": "sent-PMC2965105-cmu-35", 
            "frame-type": "sentence", 
            "object-type": "frame", 
            "start-pos": {
                "object-type": "absolute-pos", 
                "offset": 35
            }, 
            "text": "A cannula ( length 5 mm , outside diameter 0.36 mm ; ( Charles River , Margate , UK ) was implanted into the right lateral ventrical ."
        }, 
        {
            "frame-id": "sent-PMC2965105-cmu-36", 
            "frame-type": "sentence", 
            "object-type": "frame", 
            "start-pos": {
                "object-type": "absolute-pos", 
                "offset": 36
            }, 
            "text": "Coordinates were 1 mm posterior and 1.5 mm lateral from bregma , \u22123.3 mm from the cortex [ 23 ] .The cannula were fixed in place by dental cement attached to three stainless steel screws inserted into the skull ."
        }, 
        {
            "frame-id": "sent-PMC2965105-cmu-37", 
            "frame-type": "sentence", 
            "object-type": "frame", 
            "start-pos": {
                "object-type": "absolute-pos", 
                "offset": 37
            }, 
            "text": "They were connected to an Alzet osmotic minipumps ( model 1002 ; volume 100 \u00b5l , flow rate 0.25 \u00b5l/h ; ( Charles River , Margate , UK ) via medical grade vinyl tubing ( 8 cm length , except in Experiment 2 ) ."
        }, 
        {
            "frame-id": "sent-PMC2965105-cmu-38", 
            "frame-type": "sentence", 
            "object-type": "frame", 
            "start-pos": {
                "object-type": "absolute-pos", 
                "offset": 38
            }, 
            "text": "All pumps were implanted subcutaneously in the posterior upper thorax ."
        }, 
        {
            "frame-id": "sent-PMC2965105-cmu-39", 
            "frame-type": "sentence", 
            "object-type": "frame", 
            "start-pos": {
                "object-type": "absolute-pos", 
                "offset": 39
            }, 
            "text": "The pumps and the tubing had been filled the day before surgery with either K252a ( Merck Chemicals , Boulevard Industrial Park , Nottingham ) ( 59.05 ng/day ) [ 24 ] .or saline and incubated at 37\u00b0C overnight in a sterile saline solution to prime them before implantation ."
        }, 
        {
            "frame-id": "sent-PMC2965105-cmu-40", 
            "frame-type": "sentence", 
            "object-type": "frame", 
            "start-pos": {
                "object-type": "absolute-pos", 
                "offset": 40
            }, 
            "text": "The position of each cannula was assessed post-mortem by examining its track on sections stained with cresyl violet ( Sigma , UK ) ."
        }, 
        {
            "frame-id": "sent-PMC2965105-cmu-41", 
            "frame-type": "sentence", 
            "object-type": "frame", 
            "start-pos": {
                "object-type": "absolute-pos", 
                "offset": 41
            }, 
            "text": "Experimental groups"
        }, 
        {
            "frame-id": "sent-PMC2965105-cmu-42", 
            "frame-type": "sentence", 
            "object-type": "frame", 
            "start-pos": {
                "object-type": "absolute-pos", 
                "offset": 42
            }, 
            "text": "Experiment 1 : The effect of K252a on the response to fluoxetine"
        }, 
        {
            "frame-id": "sent-PMC2965105-cmu-43", 
            "frame-type": "sentence", 
            "object-type": "frame", 
            "start-pos": {
                "object-type": "absolute-pos", 
                "offset": 43
            }, 
            "text": "There were four groups ( n = 6 per group ) ."
        }, 
        {
            "frame-id": "sent-PMC2965105-cmu-44", 
            "frame-type": "sentence", 
            "object-type": "frame", 
            "start-pos": {
                "object-type": "absolute-pos", 
                "offset": 44
            }, 
            "text": "All were implanted with Alzet osmotic mini pumps subcutaneously ( model 2ML2 ; volume 2 ml , flow rate 5 \u00b5l/h ; Charles River , Margate , UK ) ."
        }, 
        {
            "frame-id": "sent-PMC2965105-cmu-45", 
            "frame-type": "sentence", 
            "object-type": "frame", 
            "start-pos": {
                "object-type": "absolute-pos", 
                "offset": 45
            }, 
            "text": "In two groups , the pumps delivered fluoxetine ( 10 mg/kg/day dissolved in saline ) for 14 days ; in the other two , saline alone ."
        }, 
        {
            "frame-id": "sent-PMC2965105-cmu-46", 
            "frame-type": "sentence", 
            "object-type": "frame", 
            "start-pos": {
                "object-type": "absolute-pos", 
                "offset": 46
            }, 
            "text": "All were also implanted with an icv cannula ( right lateral ventricle ) connected to a smaller subcutaneous mini-pump ( model1002 ) ( see above ) ."
        }, 
        {
            "frame-id": "sent-PMC2965105-cmu-47", 
            "frame-type": "sentence", 
            "object-type": "frame", 
            "start-pos": {
                "object-type": "absolute-pos", 
                "offset": 47
            }, 
            "text": "One each of the fluoxetine and saline-treated groups received icv K252a 59.05 ng/day [ 24 ] for 14 days ; the others , saline ."
        }, 
        {
            "frame-id": "sent-PMC2965105-cmu-48", 
            "frame-type": "sentence", 
            "object-type": "frame", 
            "start-pos": {
                "object-type": "absolute-pos", 
                "offset": 48
            }, 
            "text": "The position of each cannula was assessed post-mortem by examining its track on sections stained with cresyl violet ( Sigma , UK ) ."
        }, 
        {
            "frame-id": "sent-PMC2965105-cmu-49", 
            "frame-type": "sentence", 
            "object-type": "frame", 
            "start-pos": {
                "object-type": "absolute-pos", 
                "offset": 49
            }, 
            "text": "All animals were killed on day 15 , the brains removed and snap-frozen and placed in \u221270\u00b0C until they were sectioned later ."
        }, 
        {
            "frame-id": "sent-PMC2965105-cmu-50", 
            "frame-type": "sentence", 
            "object-type": "frame", 
            "start-pos": {
                "object-type": "absolute-pos", 
                "offset": 50
            }, 
            "text": "Sections were stained for Ki-67 , BDNF and TrkB mRNA by in situ hybridisation , and immunofluorescent for pCREB and Wnt3a proteins ."
        }, 
        {
            "frame-id": "sent-PMC2965105-cmu-51", 
            "frame-type": "sentence", 
            "object-type": "frame", 
            "start-pos": {
                "object-type": "absolute-pos", 
                "offset": 51
            }, 
            "text": "Experiment 2 ."
        }, 
        {
            "frame-id": "sent-PMC2965105-cmu-52", 
            "frame-type": "sentence", 
            "object-type": "frame", 
            "start-pos": {
                "object-type": "absolute-pos", 
                "offset": 52
            }, 
            "text": "Blockade of Trk receptors during the initial or later stage of the response to fluoxetine"
        }, 
        {
            "frame-id": "sent-PMC2965105-cmu-53", 
            "frame-type": "sentence", 
            "object-type": "frame", 
            "start-pos": {
                "object-type": "absolute-pos", 
                "offset": 53
            }, 
            "text": "Two experiments were carried out ."
        }, 
        {
            "frame-id": "sent-PMC2965105-cmu-54", 
            "frame-type": "sentence", 
            "object-type": "frame", 
            "start-pos": {
                "object-type": "absolute-pos", 
                "offset": 54
            }, 
            "text": "In the first , rats ( n = 5 per group ) were treated either with fluoxetine ( 10 mg/kg/day ) or saline delivered from osmotic minipumps subcutaneously and killed after either 7 or 14 days ."
        }, 
        {
            "frame-id": "sent-PMC2965105-cmu-55", 
            "frame-type": "sentence", 
            "object-type": "frame", 
            "start-pos": {
                "object-type": "absolute-pos", 
                "offset": 55
            }, 
            "text": "Brains were examined for Ki67 , pCREB , BDNF and Wnt3a ."
        }, 
        {
            "frame-id": "sent-PMC2965105-cmu-56", 
            "frame-type": "sentence", 
            "object-type": "frame", 
            "start-pos": {
                "object-type": "absolute-pos", 
                "offset": 56
            }, 
            "text": "In the second , there were four groups ( n = 6 per group ) ."
        }, 
        {
            "frame-id": "sent-PMC2965105-cmu-57", 
            "frame-type": "sentence", 
            "object-type": "frame", 
            "start-pos": {
                "object-type": "absolute-pos", 
                "offset": 57
            }, 
            "text": "All animals received 10 mg/kg/day fluoxetine for 14 days delivered from osmotic minipumps subcutaneously , as above ."
        }, 
        {
            "frame-id": "sent-PMC2965105-cmu-58", 
            "frame-type": "sentence", 
            "object-type": "frame", 
            "start-pos": {
                "object-type": "absolute-pos", 
                "offset": 58
            }, 
            "text": "All were also implanted with a second osmotic minipump , connect to an icv cannula ( as above ) ."
        }, 
        {
            "frame-id": "sent-PMC2965105-cmu-59", 
            "frame-type": "sentence", 
            "object-type": "frame", 
            "start-pos": {
                "object-type": "absolute-pos", 
                "offset": 59
            }, 
            "text": "Through this cannula they received the following treatments : ( i ) saline 14 days ( ii ) K252a for 14 days ( as above ) ( iii ) K252a for the first 7 days , saline for the second 7 days ( iv ) saline for the first 7 days , K252a for the second 7 days ."
        }, 
        {
            "frame-id": "sent-PMC2965105-cmu-60", 
            "frame-type": "sentence", 
            "object-type": "frame", 
            "start-pos": {
                "object-type": "absolute-pos", 
                "offset": 60
            }, 
            "text": "The osmotic minipumps were attached to the tube 11.3 cm long and a volume of 3.74 ml/cm ( ID 0.69 mm ) ."
        }, 
        {
            "frame-id": "sent-PMC2965105-cmu-61", 
            "frame-type": "sentence", 
            "object-type": "frame", 
            "start-pos": {
                "object-type": "absolute-pos", 
                "offset": 61
            }, 
            "text": "Since flow is 6 ml/day , the tube will empty by day 7 ."
        }, 
        {
            "frame-id": "sent-PMC2965105-cmu-62", 
            "frame-type": "sentence", 
            "object-type": "frame", 
            "start-pos": {
                "object-type": "absolute-pos", 
                "offset": 62
            }, 
            "text": "This was checked in vitro at 37\u00b0C ."
        }, 
        {
            "frame-id": "sent-PMC2965105-cmu-63", 
            "frame-type": "sentence", 
            "object-type": "frame", 
            "start-pos": {
                "object-type": "absolute-pos", 
                "offset": 63
            }, 
            "text": "In group ( ii ) both tubing and pump were filled with K252a ; in group ( iii ) the tubing contained K252a , and the pump saline only ; this was reversed in group ( iv ) ."
        }, 
        {
            "frame-id": "sent-PMC2965105-cmu-64", 
            "frame-type": "sentence", 
            "object-type": "frame", 
            "start-pos": {
                "object-type": "absolute-pos", 
                "offset": 64
            }, 
            "text": "All animals were killed on day 15 and the brains were snap frozen and placed in \u221270\u00b0C until they were sectioned ( as above ) ."
        }, 
        {
            "frame-id": "sent-PMC2965105-cmu-65", 
            "frame-type": "sentence", 
            "object-type": "frame", 
            "start-pos": {
                "object-type": "absolute-pos", 
                "offset": 65
            }, 
            "text": "Sections were stained for Ki-67 ."
        }, 
        {
            "frame-id": "sent-PMC2965105-cmu-66", 
            "frame-type": "sentence", 
            "object-type": "frame", 
            "start-pos": {
                "object-type": "absolute-pos", 
                "offset": 66
            }, 
            "text": "Brain sections"
        }, 
        {
            "frame-id": "sent-PMC2965105-cmu-67", 
            "frame-type": "sentence", 
            "object-type": "frame", 
            "start-pos": {
                "object-type": "absolute-pos", 
                "offset": 67
            }, 
            "text": "Brains were sectioned in the coronal plane at 20 \u00b5m ."
        }, 
        {
            "frame-id": "sent-PMC2965105-cmu-68", 
            "frame-type": "sentence", 
            "object-type": "frame", 
            "start-pos": {
                "object-type": "absolute-pos", 
                "offset": 68
            }, 
            "text": "The brain from each rat was sampled from \u22122.80 to \u22124.52 behind bregma ."
        }, 
        {
            "frame-id": "sent-PMC2965105-cmu-69", 
            "frame-type": "sentence", 
            "object-type": "frame", 
            "start-pos": {
                "object-type": "absolute-pos", 
                "offset": 69
            }, 
            "text": "Sections were cut at \u221220\u00b0C using a Bright cryostat , and every sixth section was mounted on a polylysine-coated microscopic slide , six to a slide ."
        }, 
        {
            "frame-id": "sent-PMC2965105-cmu-70", 
            "frame-type": "sentence", 
            "object-type": "frame", 
            "start-pos": {
                "object-type": "absolute-pos", 
                "offset": 70
            }, 
            "text": "The slides were left in a fume hood to dry overnight , then stored at \u221270\u00b0C ."
        }, 
        {
            "frame-id": "sent-PMC2965105-cmu-71", 
            "frame-type": "sentence", 
            "object-type": "frame", 
            "start-pos": {
                "object-type": "absolute-pos", 
                "offset": 71
            }, 
            "text": "For each rat twelve sections through the dorsal hippocampus were analyzed 120 \u00b5m apart ( ie one in six sections ) for Ki-67 staining ."
        }, 
        {
            "frame-id": "sent-PMC2965105-cmu-72", 
            "frame-type": "sentence", 
            "object-type": "frame", 
            "start-pos": {
                "object-type": "absolute-pos", 
                "offset": 72
            }, 
            "text": "Immunohistochemistry"
        }, 
        {
            "frame-id": "sent-PMC2965105-cmu-73", 
            "frame-type": "sentence", 
            "object-type": "frame", 
            "start-pos": {
                "object-type": "absolute-pos", 
                "offset": 73
            }, 
            "text": "Ki67"
        }, 
        {
            "frame-id": "sent-PMC2965105-cmu-74", 
            "frame-type": "sentence", 
            "object-type": "frame", 
            "start-pos": {
                "object-type": "absolute-pos", 
                "offset": 74
            }, 
            "text": "Sections were incubated in 0.01 M citric acid for 40 min at 98\u00b0C ."
        }, 
        {
            "frame-id": "sent-PMC2965105-cmu-75", 
            "frame-type": "sentence", 
            "object-type": "frame", 
            "start-pos": {
                "object-type": "absolute-pos", 
                "offset": 75
            }, 
            "text": "They were cooled and washed twice \u00d75 min in KPBS ."
        }, 
        {
            "frame-id": "sent-PMC2965105-cmu-76", 
            "frame-type": "sentence", 
            "object-type": "frame", 
            "start-pos": {
                "object-type": "absolute-pos", 
                "offset": 76
            }, 
            "text": "Endogenous peroxidase activity was quenched with 3 % H2O2 solution for 10 min followed two 5 min washes with KPBS ."
        }, 
        {
            "frame-id": "sent-PMC2965105-cmu-77", 
            "frame-type": "sentence", 
            "object-type": "frame", 
            "start-pos": {
                "object-type": "absolute-pos", 
                "offset": 77
            }, 
            "text": "They were incubated with primary antibody ( 1\u2236100 mouse monoclonal IgG anti-human Ki-67 ; Novocastra , Newcastle Upon Tyne , UK ) and 1 % horse serum in a humidified chamber at room temperature overnight ."
        }, 
        {
            "frame-id": "sent-PMC2965105-cmu-78", 
            "frame-type": "sentence", 
            "object-type": "frame", 
            "start-pos": {
                "object-type": "absolute-pos", 
                "offset": 78
            }, 
            "text": "The next day , after twice \u00d75 min washes with KPBS , they were incubated with secondary antibody ( 1\u2236200 biotinylated mouse IgG ; Vector laboratories Ltd , Peterborough UK ) for 1 hour at room temperature ."
        }, 
        {
            "frame-id": "sent-PMC2965105-cmu-79", 
            "frame-type": "sentence", 
            "object-type": "frame", 
            "start-pos": {
                "object-type": "absolute-pos", 
                "offset": 79
            }, 
            "text": "After twice \u00d75 min washes with KPBS , they were incubated with Avidin-Biotin-Peroxidase reagent ( Vector laboratories Ltd , Peterborough UK ) for a further hour , followed by twice \u00d75 min washes with KPBS ."
        }, 
        {
            "frame-id": "sent-PMC2965105-cmu-80", 
            "frame-type": "sentence", 
            "object-type": "frame", 
            "start-pos": {
                "object-type": "absolute-pos", 
                "offset": 80
            }, 
            "text": "The staining was visualized using DAB tablets ( 3,3-diaminobenzidin ) ( Sigma , Dorset , UK ) for 5 min ."
        }, 
        {
            "frame-id": "sent-PMC2965105-cmu-81", 
            "frame-type": "sentence", 
            "object-type": "frame", 
            "start-pos": {
                "object-type": "absolute-pos", 
                "offset": 81
            }, 
            "text": "Slides were then counterstained with 10 % crystal violet solution followed by dehydration through ethanol and Histoclear ."
        }, 
        {
            "frame-id": "sent-PMC2965105-cmu-82", 
            "frame-type": "sentence", 
            "object-type": "frame", 
            "start-pos": {
                "object-type": "absolute-pos", 
                "offset": 82
            }, 
            "text": "They were cover-slipped with DPX for light microscopy at \u00d740 magnification ."
        }, 
        {
            "frame-id": "sent-PMC2965105-cmu-83", 
            "frame-type": "sentence", 
            "object-type": "frame", 
            "start-pos": {
                "object-type": "absolute-pos", 
                "offset": 83
            }, 
            "text": "pCREB and Wnt3a"
        }, 
        {
            "frame-id": "sent-PMC2965105-cmu-84", 
            "frame-type": "sentence", 
            "object-type": "frame", 
            "start-pos": {
                "object-type": "absolute-pos", 
                "offset": 84
            }, 
            "text": "Three sections from each animal ( 1 in 12 ; between bregma \u22123.14 mm and \u22123.30 mm ) were incubated in rabbit anti pCREB ( Cell Signaling , Hitchen , UK ; 1\u223625 in 0.5 % Triton with 1 % goat serum ) overnight in a humidified chamber at room temperature ."
        }, 
        {
            "frame-id": "sent-PMC2965105-cmu-85", 
            "frame-type": "sentence", 
            "object-type": "frame", 
            "start-pos": {
                "object-type": "absolute-pos", 
                "offset": 85
            }, 
            "text": "After two washes with KPBS , the sections were incubated in Alexa Fluor 568 ( Invitrogen , Paisley UK ) goat anti rabbit ( 1\u2236200 in 0.5 % Triton ) for one hour , washed twice with KPBS , and cover slipped ."
        }, 
        {
            "frame-id": "sent-PMC2965105-cmu-86", 
            "frame-type": "sentence", 
            "object-type": "frame", 
            "start-pos": {
                "object-type": "absolute-pos", 
                "offset": 86
            }, 
            "text": "For single staining with Wnt3a , sections were incubated in rabbit anti Wnt3a ( Abcam , Science Park , Cambridge UK ; 5 ug/ml in 0.5 % Triton with 1 % goat serum ) overnight in a humidified chamber at room temperature ."
        }, 
        {
            "frame-id": "sent-PMC2965105-cmu-87", 
            "frame-type": "sentence", 
            "object-type": "frame", 
            "start-pos": {
                "object-type": "absolute-pos", 
                "offset": 87
            }, 
            "text": "The following day , after two washes with KPBS , they were incubated in Alexa Fluor 568 goat anti rabbit ( 1\u2236200 in 0.5 % Triton ) for one hour , and washed twice with KPBS and covered slipped ."
        }, 
        {
            "frame-id": "sent-PMC2965105-cmu-88", 
            "frame-type": "sentence", 
            "object-type": "frame", 
            "start-pos": {
                "object-type": "absolute-pos", 
                "offset": 88
            }, 
            "text": "BDNF mRNA in situ hydridisation"
        }, 
        {
            "frame-id": "sent-PMC2965105-cmu-89", 
            "frame-type": "sentence", 
            "object-type": "frame", 
            "start-pos": {
                "object-type": "absolute-pos", 
                "offset": 89
            }, 
            "text": "Sections were allowed to air dry at room temperature and were then fixed with 4 % paraformaldehyde ( Sigma , Dorset , UK ) for 5 min , washed in PBS and then dehydrated in 70 % ethanol and 95 % ethanol for 5 min before final storage in fresh 95 % ethanol ."
        }, 
        {
            "frame-id": "sent-PMC2965105-cmu-90", 
            "frame-type": "sentence", 
            "object-type": "frame", 
            "start-pos": {
                "object-type": "absolute-pos", 
                "offset": 90
            }, 
            "text": "In situ hybridization was carried out under RNAase-free conditions ."
        }, 
        {
            "frame-id": "sent-PMC2965105-cmu-91", 
            "frame-type": "sentence", 
            "object-type": "frame", 
            "start-pos": {
                "object-type": "absolute-pos", 
                "offset": 91
            }, 
            "text": "The synthetic antisense oligonucleotide probe was confirmed by BLAST searches ."
        }, 
        {
            "frame-id": "sent-PMC2965105-cmu-92", 
            "frame-type": "sentence", 
            "object-type": "frame", 
            "start-pos": {
                "object-type": "absolute-pos", 
                "offset": 92
            }, 
            "text": "A 48 base and a 45 base oligonucleotide complementary to exonic mRNA encoding BDNF mRNA [ 25 ] ."
        }, 
        {
            "frame-id": "sent-PMC2965105-cmu-93", 
            "frame-type": "sentence", 
            "object-type": "frame", 
            "start-pos": {
                "object-type": "absolute-pos", 
                "offset": 93
            }, 
            "text": "5\u2032 agt tcc agt gcc ttt tgt cat gcc cct gca gct tcc ttc gtg taa ccc \u20323 was used ."
        }, 
        {
            "frame-id": "sent-PMC2965105-cmu-94", 
            "frame-type": "sentence", 
            "object-type": "frame", 
            "start-pos": {
                "object-type": "absolute-pos", 
                "offset": 94
            }, 
            "text": "All probes were end-labelled with 35S-ATP as follows : 2 \u00b5l of purified oligonucleotide ( 5 ng/\u00b5l ) was added to 1.25 \u00b5l Buffer and 1.25 \u00b5l cobalt chloride ( New England , Biosystem , UK ) ."
        }, 
        {
            "frame-id": "sent-PMC2965105-cmu-95", 
            "frame-type": "sentence", 
            "object-type": "frame", 
            "start-pos": {
                "object-type": "absolute-pos", 
                "offset": 95
            }, 
            "text": "DEPC ( Diethyl pyrocarbonate Sigma , Dorset , UK ) -treated water ( 6.5 \u00b5l ) was added , followed by 1 \u00b5l terminal 35S deoxyadenosine 5\u2032 ( \u03b1-thio ) triphosphate ( 10 mCi/ml ) ( Amersham , Buckinghamshire , UK ) and 0.5 \u00b5l ( 15\u201320 U ) terminal deoxynucleotide transferase enzyme ( New England , Biosystem UK ) ."
        }, 
        {
            "frame-id": "sent-PMC2965105-cmu-96", 
            "frame-type": "sentence", 
            "object-type": "frame", 
            "start-pos": {
                "object-type": "absolute-pos", 
                "offset": 96
            }, 
            "text": "Probes were incubated at 37\u00b0C for 1 h before 40 \u00b5l of DEPC was added to terminate the reaction ."
        }, 
        {
            "frame-id": "sent-PMC2965105-cmu-97", 
            "frame-type": "sentence", 
            "object-type": "frame", 
            "start-pos": {
                "object-type": "absolute-pos", 
                "offset": 97
            }, 
            "text": "Purification of labelled probe from unincorporated nucleotides was accomplished by centrifugation through a G-50 Sephadex micro-column ( Amersham , UK ) ."
        }, 
        {
            "frame-id": "sent-PMC2965105-cmu-98", 
            "frame-type": "sentence", 
            "object-type": "frame", 
            "start-pos": {
                "object-type": "absolute-pos", 
                "offset": 98
            }, 
            "text": "Probes were evaluated for incorporation of radiolabel by scintillation counting ."
        }, 
        {
            "frame-id": "sent-PMC2965105-cmu-99", 
            "frame-type": "sentence", 
            "object-type": "frame", 
            "start-pos": {
                "object-type": "absolute-pos", 
                "offset": 99
            }, 
            "text": "All hybridizations were carried out at 2500\u20135000 cpm/\u00b5l in hybridization buffer ( 50 % deionized formamide , 4\u00d7 SSC , 5\u00d7 Denhardt's,100 \u00b5g/ml polyadenylic ( potassium salt ) acid , 200 \u00b5g/ml salmon sperm DNA , 120 \u00b5g/ml heparin ( BDH , Leicestershire , UK ) , 25 mM sodium phosphate pH 7.0,1 mM sodium pyrophosphate , 10 % ( w/v ) dextran sulphate in DEPC\u2013treated water ( all Sigma Dorset , UK ) ."
        }, 
        {
            "frame-id": "sent-PMC2965105-cmu-100", 
            "frame-type": "sentence", 
            "object-type": "frame", 
            "start-pos": {
                "object-type": "absolute-pos", 
                "offset": 100
            }, 
            "text": "Sections were covered with parafilm and hybridized overnight at 44\u00b0C in a humid atmosphere ."
        }, 
        {
            "frame-id": "sent-PMC2965105-cmu-101", 
            "frame-type": "sentence", 
            "object-type": "frame", 
            "start-pos": {
                "object-type": "absolute-pos", 
                "offset": 101
            }, 
            "text": "Excess unbound probe was removed using the following washes : 1\u00d7 SSC ( saline sodium citrate , Sigma , UK ) at room temperature , 2\u00d730 min at 55\u00b0C with 1\u00d7 SSC and then rinsed at room temperature for 2 min , each in 1\u00d7 SSC , 0.1\u00d7 SSC , 18 \u03a9 water , 50 % , 70 % , and 95 % ethanol ( BDH ."
        }, 
        {
            "frame-id": "sent-PMC2965105-cmu-102", 
            "frame-type": "sentence", 
            "object-type": "frame", 
            "start-pos": {
                "object-type": "absolute-pos", 
                "offset": 102
            }, 
            "text": "Leicestershire , UK ) ."
        }, 
        {
            "frame-id": "sent-PMC2965105-cmu-103", 
            "frame-type": "sentence", 
            "object-type": "frame", 
            "start-pos": {
                "object-type": "absolute-pos", 
                "offset": 103
            }, 
            "text": "Sections were exposed to autoradiographic X-ray film ( Amersham , Buckinghamshire , UK ) for 14 days ."
        }, 
        {
            "frame-id": "sent-PMC2965105-cmu-104", 
            "frame-type": "sentence", 
            "object-type": "frame", 
            "start-pos": {
                "object-type": "absolute-pos", 
                "offset": 104
            }, 
            "text": "Sense probes were run as negative controls ."
        }, 
        {
            "frame-id": "sent-PMC2965105-cmu-105", 
            "frame-type": "sentence", 
            "object-type": "frame", 
            "start-pos": {
                "object-type": "absolute-pos", 
                "offset": 105
            }, 
            "text": "Quantification"
        }, 
        {
            "frame-id": "sent-PMC2965105-cmu-106", 
            "frame-type": "sentence", 
            "object-type": "frame", 
            "start-pos": {
                "object-type": "absolute-pos", 
                "offset": 106
            }, 
            "text": "Proliferating cells ( Ki67 )"
        }, 
        {
            "frame-id": "sent-PMC2965105-cmu-107", 
            "frame-type": "sentence", 
            "object-type": "frame", 
            "start-pos": {
                "object-type": "absolute-pos", 
                "offset": 107
            }, 
            "text": "All slides were randomised and coded prior to quantitative analysis ."
        }, 
        {
            "frame-id": "sent-PMC2965105-cmu-108", 
            "frame-type": "sentence", 
            "object-type": "frame", 
            "start-pos": {
                "object-type": "absolute-pos", 
                "offset": 108
            }, 
            "text": "Labelled cells were counted using a 40X objective ; only cells on the internal border of the subgranular zone of the dentate gyrus were included ."
        }, 
        {
            "frame-id": "sent-PMC2965105-cmu-109", 
            "frame-type": "sentence", 
            "object-type": "frame", 
            "start-pos": {
                "object-type": "absolute-pos", 
                "offset": 109
            }, 
            "text": "The data shown are the mean number of Ki67-labelled cells per section from 12 sections per animal ."
        }, 
        {
            "frame-id": "sent-PMC2965105-cmu-110", 
            "frame-type": "sentence", 
            "object-type": "frame", 
            "start-pos": {
                "object-type": "absolute-pos", 
                "offset": 110
            }, 
            "text": "BDNF mRNA expression"
        }, 
        {
            "frame-id": "sent-PMC2965105-cmu-111", 
            "frame-type": "sentence", 
            "object-type": "frame", 
            "start-pos": {
                "object-type": "absolute-pos", 
                "offset": 111
            }, 
            "text": "Sections and C14 labeled standards of known radioactivity ( Amersham , Buckinghamshire , UK ) were placed in X-ray cassettes and exposed to autoradiographic film ."
        }, 
        {
            "frame-id": "sent-PMC2965105-cmu-112", 
            "frame-type": "sentence", 
            "object-type": "frame", 
            "start-pos": {
                "object-type": "absolute-pos", 
                "offset": 112
            }, 
            "text": "The optical density ( OD ) of the autoradiographic images was measured using a computerized PC-based image analysis system ( NIH Image ) ."
        }, 
        {
            "frame-id": "sent-PMC2965105-cmu-113", 
            "frame-type": "sentence", 
            "object-type": "frame", 
            "start-pos": {
                "object-type": "absolute-pos", 
                "offset": 113
            }, 
            "text": "ODs from the dentate gyrus from three consecutive sections per rat were obtained and averaged ."
        }, 
        {
            "frame-id": "sent-PMC2965105-cmu-114", 
            "frame-type": "sentence", 
            "object-type": "frame", 
            "start-pos": {
                "object-type": "absolute-pos", 
                "offset": 114
            }, 
            "text": "The mean value for each rat was entered into the equation derived from the C14 standards and the final value were used to calculate group means ."
        }, 
        {
            "frame-id": "sent-PMC2965105-cmu-115", 
            "frame-type": "sentence", 
            "object-type": "frame", 
            "start-pos": {
                "object-type": "absolute-pos", 
                "offset": 115
            }, 
            "text": "Sections from all groups were processed at the same time to avoid intrinsic variations between different in situ hybridizations ."
        }, 
        {
            "frame-id": "sent-PMC2965105-cmu-116", 
            "frame-type": "sentence", 
            "object-type": "frame", 
            "start-pos": {
                "object-type": "absolute-pos", 
                "offset": 116
            }, 
            "text": "Statistical analysis"
        }, 
        {
            "frame-id": "sent-PMC2965105-cmu-117", 
            "frame-type": "sentence", 
            "object-type": "frame", 
            "start-pos": {
                "object-type": "absolute-pos", 
                "offset": 117
            }, 
            "text": "Between-group one/two-way analysis of variance ( ANOVA ) and Bonferroni 's post hoc test were used when applicable ."
        }, 
        {
            "frame-id": "sent-PMC2965105-cmu-118", 
            "frame-type": "sentence", 
            "object-type": "frame", 
            "start-pos": {
                "object-type": "absolute-pos", 
                "offset": 118
            }, 
            "text": "Log transformation was used to ensure homogeneity of variance before ANOVA when appropriate ."
        }, 
        {
            "frame-id": "sent-PMC2965105-cmu-119", 
            "frame-type": "sentence", 
            "object-type": "frame", 
            "start-pos": {
                "object-type": "absolute-pos", 
                "offset": 119
            }, 
            "text": "Results were considered statistically significant if p < 0.05 ."
        }, 
        {
            "frame-id": "sent-PMC2965105-cmu-120", 
            "frame-type": "sentence", 
            "object-type": "frame", 
            "start-pos": {
                "object-type": "absolute-pos", 
                "offset": 120
            }, 
            "text": "Results"
        }, 
        {
            "frame-id": "sent-PMC2965105-cmu-121", 
            "frame-type": "sentence", 
            "object-type": "frame", 
            "start-pos": {
                "object-type": "absolute-pos", 
                "offset": 121
            }, 
            "text": "Experiment 1 : Effect of K252a on the response of progenitor cells to fluoxetine"
        }, 
        {
            "frame-id": "sent-PMC2965105-cmu-122", 
            "frame-type": "sentence", 
            "object-type": "frame", 
            "start-pos": {
                "object-type": "absolute-pos", 
                "offset": 122
            }, 
            "text": "In this experiment , we tested whether blockade of the Trk receptor by icv K252a would prevent the stimulating action of fluoxetine on mitosis in the neurogenic area of the dentate gyrus ."
        }, 
        {
            "frame-id": "sent-PMC2965105-cmu-123", 
            "frame-type": "sentence", 
            "object-type": "frame", 
            "start-pos": {
                "object-type": "absolute-pos", 
                "offset": 123
            }, 
            "text": "Ki-67"
        }, 
        {
            "frame-id": "sent-PMC2965105-cmu-124", 
            "frame-type": "sentence", 
            "object-type": "frame", 
            "start-pos": {
                "object-type": "absolute-pos", 
                "offset": 124
            }, 
            "text": "Ki67 positive cells were found in the SGZ of all animals including controls , confirming the presence of a basal level of progenitor cell mitosis in this region ."
        }, 
        {
            "frame-id": "sent-PMC2965105-cmu-125", 
            "frame-type": "sentence", 
            "object-type": "frame", 
            "start-pos": {
                "object-type": "absolute-pos", 
                "offset": 125
            }, 
            "text": "There was a significant interaction between fluoxetine and K252a treatments ( Two-way ANOVA , F ( 1,20 ) = 36.7 , p < 0.001 ) ."
        }, 
        {
            "frame-id": "sent-PMC2965105-cmu-126", 
            "frame-type": "sentence", 
            "object-type": "frame", 
            "start-pos": {
                "object-type": "absolute-pos", 
                "offset": 126
            }, 
            "text": "Icv K252a alone had no effect on the number of proliferating cells ( Bonferroni , p > 0.05 ) ."
        }, 
        {
            "frame-id": "sent-PMC2965105-cmu-127", 
            "frame-type": "sentence", 
            "object-type": "frame", 
            "start-pos": {
                "object-type": "absolute-pos", 
                "offset": 127
            }, 
            "text": "10 mg/kg/day fluoxetine increased the number of proliferating cells by 88 % ( p < 0.001 ) ( Figure 1A ) ."
        }, 
        {
            "frame-id": "sent-PMC2965105-cmu-128", 
            "frame-type": "sentence", 
            "object-type": "frame", 
            "start-pos": {
                "object-type": "absolute-pos", 
                "offset": 128
            }, 
            "text": "This effect was completely blocked by K252a ( p > 0.05 ) ."
        }, 
        {
            "frame-id": "sent-PMC2965105-cmu-129", 
            "frame-type": "sentence", 
            "object-type": "frame", 
            "start-pos": {
                "object-type": "absolute-pos", 
                "offset": 129
            }, 
            "text": "The number of Ki67-labelled cells in this group was not significantly different from the controls group ( p > 0.05 ) , but was significantly less than after fluoxetine treatment alone ( p < 0.005 ) ( Figure 1A ) ."
        }, 
        {
            "frame-id": "sent-PMC2965105-cmu-130", 
            "frame-type": "sentence", 
            "object-type": "frame", 
            "start-pos": {
                "object-type": "absolute-pos", 
                "offset": 130
            }, 
            "text": "BDNF mRNA"
        }, 
        {
            "frame-id": "sent-PMC2965105-cmu-131", 
            "frame-type": "sentence", 
            "object-type": "frame", 
            "start-pos": {
                "object-type": "absolute-pos", 
                "offset": 131
            }, 
            "text": "K252a alone had no effect ( F = 0.28 ; p : ns ) ."
        }, 
        {
            "frame-id": "sent-PMC2965105-cmu-132", 
            "frame-type": "sentence", 
            "object-type": "frame", 
            "start-pos": {
                "object-type": "absolute-pos", 
                "offset": 132
            }, 
            "text": "Fluoxetine increased levels , as expected ( F = 34.6. p < 0.0001 ) , but this was not prevented by simultaneous infusion of K252a ; there was thus no significant interaction between K252a and fluoxetine ( F = 2.4 , p : ns ) ( Figure 1B ) ."
        }, 
        {
            "frame-id": "sent-PMC2965105-cmu-133", 
            "frame-type": "sentence", 
            "object-type": "frame", 
            "start-pos": {
                "object-type": "absolute-pos", 
                "offset": 133
            }, 
            "text": "pCREB"
        }, 
        {
            "frame-id": "sent-PMC2965105-cmu-134", 
            "frame-type": "sentence", 
            "object-type": "frame", 
            "start-pos": {
                "object-type": "absolute-pos", 
                "offset": 134
            }, 
            "text": "Saline-treated animals showed little expression of pCREB protein in the dentate gyrus ."
        }, 
        {
            "frame-id": "sent-PMC2965105-cmu-135", 
            "frame-type": "sentence", 
            "object-type": "frame", 
            "start-pos": {
                "object-type": "absolute-pos", 
                "offset": 135
            }, 
            "text": "This was markedly stimulated by fluoxetine treatment ."
        }, 
        {
            "frame-id": "sent-PMC2965105-cmu-136", 
            "frame-type": "sentence", 
            "object-type": "frame", 
            "start-pos": {
                "object-type": "absolute-pos", 
                "offset": 136
            }, 
            "text": "K252a-treated animals showed a similar picture to the saline-treated group ( Figure 1C ) ."
        }, 
        {
            "frame-id": "sent-PMC2965105-cmu-137", 
            "frame-type": "sentence", 
            "object-type": "frame", 
            "start-pos": {
                "object-type": "absolute-pos", 
                "offset": 137
            }, 
            "text": "Adding K252a to fluoxetine resulted in reduced pCREB expression which now resembled animals treated with saline ."
        }, 
        {
            "frame-id": "sent-PMC2965105-cmu-138", 
            "frame-type": "sentence", 
            "object-type": "frame", 
            "start-pos": {
                "object-type": "absolute-pos", 
                "offset": 138
            }, 
            "text": "Wnt3a"
        }, 
        {
            "frame-id": "sent-PMC2965105-cmu-139", 
            "frame-type": "sentence", 
            "object-type": "frame", 
            "start-pos": {
                "object-type": "absolute-pos", 
                "offset": 139
            }, 
            "text": "Saline-treated animals showed little expression of Wnt3a protein in the dentate gyrus ( Figure 1D ) ."
        }, 
        {
            "frame-id": "sent-PMC2965105-cmu-140", 
            "frame-type": "sentence", 
            "object-type": "frame", 
            "start-pos": {
                "object-type": "absolute-pos", 
                "offset": 140
            }, 
            "text": "This was markedly stimulated by fluoxetine treatment ."
        }, 
        {
            "frame-id": "sent-PMC2965105-cmu-141", 
            "frame-type": "sentence", 
            "object-type": "frame", 
            "start-pos": {
                "object-type": "absolute-pos", 
                "offset": 141
            }, 
            "text": "K252a-treated animals showed a similar picture to the saline-treated group ."
        }, 
        {
            "frame-id": "sent-PMC2965105-cmu-142", 
            "frame-type": "sentence", 
            "object-type": "frame", 
            "start-pos": {
                "object-type": "absolute-pos", 
                "offset": 142
            }, 
            "text": "However , adding K252a to fluoxetine did not prevent the latter 's stimulating effect on Wnt3a expression ( Figure 1D ) ."
        }, 
        {
            "frame-id": "sent-PMC2965105-cmu-143", 
            "frame-type": "sentence", 
            "object-type": "frame", 
            "start-pos": {
                "object-type": "absolute-pos", 
                "offset": 143
            }, 
            "text": "In summary : this experiment showed that icv K252a prevented the stimulating effect of fluoxetine on progenitor mitosis in the dentate gyrus , but did not prevent increased BDNF mRNA ."
        }, 
        {
            "frame-id": "sent-PMC2965105-cmu-144", 
            "frame-type": "sentence", 
            "object-type": "frame", 
            "start-pos": {
                "object-type": "absolute-pos", 
                "offset": 144
            }, 
            "text": "There was a selective action of K252a on inhibiting the effect of fluoxetine on pCREB but not Wnt3a ."
        }, 
        {
            "frame-id": "sent-PMC2965105-cmu-145", 
            "frame-type": "sentence", 
            "object-type": "frame", 
            "start-pos": {
                "object-type": "absolute-pos", 
                "offset": 145
            }, 
            "text": "Experiment 2 : Effect of treatment with K252a for either the first or second 7 days of a 14 day fluoxetine treatment"
        }, 
        {
            "frame-id": "sent-PMC2965105-cmu-146", 
            "frame-type": "sentence", 
            "object-type": "frame", 
            "start-pos": {
                "object-type": "absolute-pos", 
                "offset": 146
            }, 
            "text": "Since fluoxetine treatment is required for at least 14 days to increase progenitor cell mitosis rates , we asked whether activation of Trk receptors was required for the whole of this period ."
        }, 
        {
            "frame-id": "sent-PMC2965105-cmu-147", 
            "frame-type": "sentence", 
            "object-type": "frame", 
            "start-pos": {
                "object-type": "absolute-pos", 
                "offset": 147
            }, 
            "text": "Ki-67"
        }, 
        {
            "frame-id": "sent-PMC2965105-cmu-148", 
            "frame-type": "sentence", 
            "object-type": "frame", 
            "start-pos": {
                "object-type": "absolute-pos", 
                "offset": 148
            }, 
            "text": "The number of Ki-67 cells increased significantly as expected after 14 days of fluoxetine treatment ( Figure 2A ) ."
        }, 
        {
            "frame-id": "sent-PMC2965105-cmu-149", 
            "frame-type": "sentence", 
            "object-type": "frame", 
            "start-pos": {
                "object-type": "absolute-pos", 
                "offset": 149
            }, 
            "text": "However , at 7 days there was no difference between fluoxetine and control groups ( two-way ANOVA : fluoxetine \u00d7 time F = 14.0 , p = 0.002 ) ."
        }, 
        {
            "frame-id": "sent-PMC2965105-cmu-150", 
            "frame-type": "sentence", 
            "object-type": "frame", 
            "start-pos": {
                "object-type": "absolute-pos", 
                "offset": 150
            }, 
            "text": "BDNF"
        }, 
        {
            "frame-id": "sent-PMC2965105-cmu-151", 
            "frame-type": "sentence", 
            "object-type": "frame", 
            "start-pos": {
                "object-type": "absolute-pos", 
                "offset": 151
            }, 
            "text": "BDNF mRNA expression showed a similar pattern ."
        }, 
        {
            "frame-id": "sent-PMC2965105-cmu-152", 
            "frame-type": "sentence", 
            "object-type": "frame", 
            "start-pos": {
                "object-type": "absolute-pos", 
                "offset": 152
            }, 
            "text": "Expression increased after 14 days in the fluoxetine-treated group , but not 7 days , ( F = 150 , p < 0.001 ) ( Figure 2B ) ."
        }, 
        {
            "frame-id": "sent-PMC2965105-cmu-153", 
            "frame-type": "sentence", 
            "object-type": "frame", 
            "start-pos": {
                "object-type": "absolute-pos", 
                "offset": 153
            }, 
            "text": "Pairwise comparisons showed that BDNF levels at 7 days were no different between the fluoxetine-treated and control groups ( Bonferroni , p > 0.05 ) but that fluoxetine treatments at 7 and 14 days were significantly different from each other ( p < 0.001 ) ( Figure 2E , F ) ."
        }, 
        {
            "frame-id": "sent-PMC2965105-cmu-154", 
            "frame-type": "sentence", 
            "object-type": "frame", 
            "start-pos": {
                "object-type": "absolute-pos", 
                "offset": 154
            }, 
            "text": "pCREB and Wnt3a"
        }, 
        {
            "frame-id": "sent-PMC2965105-cmu-155", 
            "frame-type": "sentence", 
            "object-type": "frame", 
            "start-pos": {
                "object-type": "absolute-pos", 
                "offset": 155
            }, 
            "text": "There was also no observable change in either pCREB or Wnt3a at 7 days , but by 14 days the expression of both was clearly increased ( Figure 2C , D ) ."
        }, 
        {
            "frame-id": "sent-PMC2965105-cmu-156", 
            "frame-type": "sentence", 
            "object-type": "frame", 
            "start-pos": {
                "object-type": "absolute-pos", 
                "offset": 156
            }, 
            "text": "Ki-67"
        }, 
        {
            "frame-id": "sent-PMC2965105-cmu-157", 
            "frame-type": "sentence", 
            "object-type": "frame", 
            "start-pos": {
                "object-type": "absolute-pos", 
                "offset": 157
            }, 
            "text": "In the second part of this experiment , as expected from Experiment 1 , icv K252a for 14 days reduced Ki67 positive cells expression in 14-day fluoxetine -treated rats compared to those receiving fluoxetine and icv saline ( One-way ANOVA : F ( 3,15 ) = 63.8 , p < 0.001 ."
        }, 
        {
            "frame-id": "sent-PMC2965105-cmu-158", 
            "frame-type": "sentence", 
            "object-type": "frame", 
            "start-pos": {
                "object-type": "absolute-pos", 
                "offset": 158
            }, 
            "text": "Pairwise comparison : ( Bonferroni ) p < 0.001 ) ."
        }, 
        {
            "frame-id": "sent-PMC2965105-cmu-159", 
            "frame-type": "sentence", 
            "object-type": "frame", 
            "start-pos": {
                "object-type": "absolute-pos", 
                "offset": 159
            }, 
            "text": "However , K252a infusions for either the first or second 7 days also reduced the effect of 14 days fluoxetine treatment , and there was no difference between the two 7-day treatment periods ( Bonferroni , p > 0.05 ) There was also no difference between either 7-day and 14 day K252a treatment ( Bonferroni , p > 0.05 ) ( Figure 3A ) ."
        }, 
        {
            "frame-id": "sent-PMC2965105-cmu-160", 
            "frame-type": "sentence", 
            "object-type": "frame", 
            "start-pos": {
                "object-type": "absolute-pos", 
                "offset": 160
            }, 
            "text": "As in Experiment 1 , pCREB expression was inhibited by 14 days K252a treatment ( not shown in Figure 3 , since there was effectively no signal in the K252a treated animals ) but Wnt3a expression was not altered , even though Ki67 expression was reduced ( Figure 3B ) ."
        }, 
        {
            "frame-id": "sent-PMC2965105-cmu-161", 
            "frame-type": "sentence", 
            "object-type": "frame", 
            "start-pos": {
                "object-type": "absolute-pos", 
                "offset": 161
            }, 
            "text": "In summary"
        }, 
        {
            "frame-id": "sent-PMC2965105-cmu-162", 
            "frame-type": "sentence", 
            "object-type": "frame", 
            "start-pos": {
                "object-type": "absolute-pos", 
                "offset": 162
            }, 
            "text": "The first part of this experiment showed that 7 days treatment with fluoxetine had no effect on Ki67 labelled cells , or on the expression of either pCREB or Wnt3a ."
        }, 
        {
            "frame-id": "sent-PMC2965105-cmu-163", 
            "frame-type": "sentence", 
            "object-type": "frame", 
            "start-pos": {
                "object-type": "absolute-pos", 
                "offset": 163
            }, 
            "text": "However , all three were accentuated after 14 days treatment ."
        }, 
        {
            "frame-id": "sent-PMC2965105-cmu-164", 
            "frame-type": "sentence", 
            "object-type": "frame", 
            "start-pos": {
                "object-type": "absolute-pos", 
                "offset": 164
            }, 
            "text": "The second part showed that blocking Trk receptors with icv K252a for either the first of second 7 day period of a 14 day fluoxetine infusion prevented the expected increase in progenitor cell mitosis ."
        }, 
        {
            "frame-id": "sent-PMC2965105-cmu-165", 
            "frame-type": "sentence", 
            "object-type": "frame", 
            "start-pos": {
                "object-type": "absolute-pos", 
                "offset": 165
            }, 
            "text": "As in experiment 1 , pCREB was reduced in fluoxetine and K252a-treated animals , but increased expression of Wnt3a still occurred in fluoxetine-treated animals given K252a ."
        }, 
        {
            "frame-id": "sent-PMC2965105-cmu-166", 
            "frame-type": "sentence", 
            "object-type": "frame", 
            "start-pos": {
                "object-type": "absolute-pos", 
                "offset": 166
            }, 
            "text": "Table 1 summarises the results of these two experiments on the expression of Ki67 , pCREB and Wnt3a in the dentate gyrus ."
        }, 
        {
            "frame-id": "sent-PMC2965105-cmu-167", 
            "frame-type": "sentence", 
            "object-type": "frame", 
            "start-pos": {
                "object-type": "absolute-pos", 
                "offset": 167
            }, 
            "text": "Discussion"
        }, 
        {
            "frame-id": "sent-PMC2965105-cmu-168", 
            "frame-type": "sentence", 
            "object-type": "frame", 
            "start-pos": {
                "object-type": "absolute-pos", 
                "offset": 168
            }, 
            "text": "These experiments further define the role of BDNF in the regulation of the mitosis rates of progenitor cells in the dentate gyrus by serotonin-acting drugs such as fluoxetine ."
        }, 
        {
            "frame-id": "sent-PMC2965105-cmu-169", 
            "frame-type": "sentence", 
            "object-type": "frame", 
            "start-pos": {
                "object-type": "absolute-pos", 
                "offset": 169
            }, 
            "text": "Progenitor mitosis rates are the essential first step in the overall control of neurogenesis in the adult hippocampus , since they determine its early stages ."
        }, 
        {
            "frame-id": "sent-PMC2965105-cmu-170", 
            "frame-type": "sentence", 
            "object-type": "frame", 
            "start-pos": {
                "object-type": "absolute-pos", 
                "offset": 170
            }, 
            "text": "Other factors then regulate the differentiation , survival and connectivity of newly-formed neurons [ 26 ] ."
        }, 
        {
            "frame-id": "sent-PMC2965105-cmu-171", 
            "frame-type": "sentence", 
            "object-type": "frame", 
            "start-pos": {
                "object-type": "absolute-pos", 
                "offset": 171
            }, 
            "text": "Labelling cells with Ki67 is now well established as a reliable indicator of progenitor cell mitosis in the dentate gyrus , and is highly correlated with BrdU uptake [ 27 ] ."
        }, 
        {
            "frame-id": "sent-PMC2965105-cmu-172", 
            "frame-type": "sentence", 
            "object-type": "frame", 
            "start-pos": {
                "object-type": "absolute-pos", 
                "offset": 172
            }, 
            "text": "The first experiment reported here established that blockade of Trk receptors by the drug K252a was able to prevent entirely the stimulating action of fluoxetine on mitosis of the progenitor cells ."
        }, 
        {
            "frame-id": "sent-PMC2965105-cmu-173", 
            "frame-type": "sentence", 
            "object-type": "frame", 
            "start-pos": {
                "object-type": "absolute-pos", 
                "offset": 173
            }, 
            "text": "The K252 family of alkaloid toxins are protein kinase inhibitors , and K252a has a long history of being used to antagonise Trk receptors , with particular affinity for TrkB [ 28 ] , [ 29 ] , [ 30 ] ."
        }, 
        {
            "frame-id": "sent-PMC2965105-cmu-174", 
            "frame-type": "sentence", 
            "object-type": "frame", 
            "start-pos": {
                "object-type": "absolute-pos", 
                "offset": 174
            }, 
            "text": "Icv K252a has already been shown to prevent some actions of BDNF on serotonin release after SSRI administration [ 31 ] , but there has been no report on its ability to inhibit SSRI-induced progenitor cell mitosis ."
        }, 
        {
            "frame-id": "sent-PMC2965105-cmu-175", 
            "frame-type": "sentence", 
            "object-type": "frame", 
            "start-pos": {
                "object-type": "absolute-pos", 
                "offset": 175
            }, 
            "text": "Although we can not be entirely certain that our results reflect specific blockade of TrkB , the accumulative evidence points strongly in this direction ."
        }, 
        {
            "frame-id": "sent-PMC2965105-cmu-176", 
            "frame-type": "sentence", 
            "object-type": "frame", 
            "start-pos": {
                "object-type": "absolute-pos", 
                "offset": 176
            }, 
            "text": "K252a did not prevent the fluoxetine-induced increase in BDNF mRNA expression , suggesting that this is upstream of the action of TrkB receptors , as might be expected ."
        }, 
        {
            "frame-id": "sent-PMC2965105-cmu-177", 
            "frame-type": "sentence", 
            "object-type": "frame", 
            "start-pos": {
                "object-type": "absolute-pos", 
                "offset": 177
            }, 
            "text": "However , the results on pCREB were clear-cut : fluoxetine increased its expression and thiswas prevented by K252a ."
        }, 
        {
            "frame-id": "sent-PMC2965105-cmu-178", 
            "frame-type": "sentence", 
            "object-type": "frame", 
            "start-pos": {
                "object-type": "absolute-pos", 
                "offset": 178
            }, 
            "text": "Since increased pCREB may be an essential step in the up-regulation of progenitor mitosis [ 32 ] , it is interesting that this occurred not just in the cells adjacent to the neurogenetic niche in the inner layer , but throughout the dentate gyrus ."
        }, 
        {
            "frame-id": "sent-PMC2965105-cmu-179", 
            "frame-type": "sentence", 
            "object-type": "frame", 
            "start-pos": {
                "object-type": "absolute-pos", 
                "offset": 179
            }, 
            "text": "This suggests that the function of CREB in the dentate gyrus may be more complex than was originally thought , and that cells other than those in the neighbourhood niche may also contribute to the control of neurogenesis [ 7 ] ."
        }, 
        {
            "frame-id": "sent-PMC2965105-cmu-180", 
            "frame-type": "sentence", 
            "object-type": "frame", 
            "start-pos": {
                "object-type": "absolute-pos", 
                "offset": 180
            }, 
            "text": "In contrast , the expression of Wnt3a , also known to be closely involved in neurogenesis [ 3 ] , [ 22 ] , [ 33 ] , [ 34 ] was , as expected , increased by fluoxetine , but this was not prevented by K252a ."
        }, 
        {
            "frame-id": "sent-PMC2965105-cmu-181", 
            "frame-type": "sentence", 
            "object-type": "frame", 
            "start-pos": {
                "object-type": "absolute-pos", 
                "offset": 181
            }, 
            "text": "This experiment therefore shows that functional activity of Trk , and hence \u2013 it may be presumed \u2013 BDNF is essential for the stimulating action of fluoxetine on progenitor cell mitosis ."
        }, 
        {
            "frame-id": "sent-PMC2965105-cmu-182", 
            "frame-type": "sentence", 
            "object-type": "frame", 
            "start-pos": {
                "object-type": "absolute-pos", 
                "offset": 182
            }, 
            "text": "This agrees with results on BDNF-knockout mice , in which SSRIs and similar drugs have reduced actions [ 35 ] , [ 36 ] ."
        }, 
        {
            "frame-id": "sent-PMC2965105-cmu-183", 
            "frame-type": "sentence", 
            "object-type": "frame", 
            "start-pos": {
                "object-type": "absolute-pos", 
                "offset": 183
            }, 
            "text": "However , these studies were limited to heterozygous knock-outs only , since homozygous ones do not survive ."
        }, 
        {
            "frame-id": "sent-PMC2965105-cmu-184", 
            "frame-type": "sentence", 
            "object-type": "frame", 
            "start-pos": {
                "object-type": "absolute-pos", 
                "offset": 184
            }, 
            "text": "It is interesting that K252a by itself did not decrease progenitor mitosis below baseline : this may reflect the fact that its blockade of TrkB may have been incomplete , or that BDNF is required only for above-basal proliferation rates ."
        }, 
        {
            "frame-id": "sent-PMC2965105-cmu-185", 
            "frame-type": "sentence", 
            "object-type": "frame", 
            "start-pos": {
                "object-type": "absolute-pos", 
                "offset": 185
            }, 
            "text": "K252a also blocked the fluoxetine-induced expression of pCREB , supporting the role for this compound in the control of neurogenesis ."
        }, 
        {
            "frame-id": "sent-PMC2965105-cmu-186", 
            "frame-type": "sentence", 
            "object-type": "frame", 
            "start-pos": {
                "object-type": "absolute-pos", 
                "offset": 186
            }, 
            "text": "However , it did not prevent increased Wnt3a expression , suggesting that the latter is not a sufficient event for increased progenitor cell mitosis ."
        }, 
        {
            "frame-id": "sent-PMC2965105-cmu-187", 
            "frame-type": "sentence", 
            "object-type": "frame", 
            "start-pos": {
                "object-type": "absolute-pos", 
                "offset": 187
            }, 
            "text": "The second experiment began by confirming , under our conditions , that a 7-day treatment with fluoxetine had no discernible effect on progenitor mitosis , or pCREB and Wnt3a expression , whereas after 14 days all three were stimulated ."
        }, 
        {
            "frame-id": "sent-PMC2965105-cmu-188", 
            "frame-type": "sentence", 
            "object-type": "frame", 
            "start-pos": {
                "object-type": "absolute-pos", 
                "offset": 188
            }, 
            "text": "We use osmotic minipumps to deliver fluoxetine , since we ( and some others ) find that parenteral injections are not effective [ 37 ] , [ 38 ] ."
        }, 
        {
            "frame-id": "sent-PMC2965105-cmu-189", 
            "frame-type": "sentence", 
            "object-type": "frame", 
            "start-pos": {
                "object-type": "absolute-pos", 
                "offset": 189
            }, 
            "text": "The striking result , however , was that blocking TrkB for either the first or the second 7 days of a 14 day treatment with fluoxetine prevented increased progenitor mitosis ."
        }, 
        {
            "frame-id": "sent-PMC2965105-cmu-190", 
            "frame-type": "sentence", 
            "object-type": "frame", 
            "start-pos": {
                "object-type": "absolute-pos", 
                "offset": 190
            }, 
            "text": "It is during the second period that BDNF mRNA expression is increased , so it might seem logical that blockade only during this time would prevent the BDNF-dependent action of fluoxetine ."
        }, 
        {
            "frame-id": "sent-PMC2965105-cmu-191", 
            "frame-type": "sentence", 
            "object-type": "frame", 
            "start-pos": {
                "object-type": "absolute-pos", 
                "offset": 191
            }, 
            "text": "Had this occurred it would have implied that the latent period preceding the onset of fluoxetine 's action was due to some event upstream of the action of BDNF ."
        }, 
        {
            "frame-id": "sent-PMC2965105-cmu-192", 
            "frame-type": "sentence", 
            "object-type": "frame", 
            "start-pos": {
                "object-type": "absolute-pos", 
                "offset": 192
            }, 
            "text": "But this was not the case ."
        }, 
        {
            "frame-id": "sent-PMC2965105-cmu-193", 
            "frame-type": "sentence", 
            "object-type": "frame", 
            "start-pos": {
                "object-type": "absolute-pos", 
                "offset": 193
            }, 
            "text": "It seems clear that BDNF is required throughout the latent period , though future experiments might explore this more precisely , using more frequent sampling points ."
        }, 
        {
            "frame-id": "sent-PMC2965105-cmu-194", 
            "frame-type": "sentence", 
            "object-type": "frame", 
            "start-pos": {
                "object-type": "absolute-pos", 
                "offset": 194
            }, 
            "text": "Despite the fact that BDNF mRNA was increased only after 14 days of fluoxetine treatment , blocking its action at a time when there was no discernible change in BDNF mRNA prevented not only the expected increase in progenitor mitosis , but also that in pCREB , presumably a more proximal regulator of neurogenesis ."
        }, 
        {
            "frame-id": "sent-PMC2965105-cmu-195", 
            "frame-type": "sentence", 
            "object-type": "frame", 
            "start-pos": {
                "object-type": "absolute-pos", 
                "offset": 195
            }, 
            "text": "The conclusion must be that BDNF may be active throughout the latent period ."
        }, 
        {
            "frame-id": "sent-PMC2965105-cmu-196", 
            "frame-type": "sentence", 
            "object-type": "frame", 
            "start-pos": {
                "object-type": "absolute-pos", 
                "offset": 196
            }, 
            "text": "However , we have shown previously that icv infusions of BDNF are effective after 7 days [ 39 ] , so the latent period is not due to a delayed response to BDNF ."
        }, 
        {
            "frame-id": "sent-PMC2965105-cmu-197", 
            "frame-type": "sentence", 
            "object-type": "frame", 
            "start-pos": {
                "object-type": "absolute-pos", 
                "offset": 197
            }, 
            "text": "Our experiments do not yet allow us to offer a precise explanation of these results , but there may be two processes ."
        }, 
        {
            "frame-id": "sent-PMC2965105-cmu-198", 
            "frame-type": "sentence", 
            "object-type": "frame", 
            "start-pos": {
                "object-type": "absolute-pos", 
                "offset": 198
            }, 
            "text": "The first , dependent on \u2018basal\u2019 BDNF , may represent one that , in some way , allows increased BDNF to occur at some time after 7 days from initiation ."
        }, 
        {
            "frame-id": "sent-PMC2965105-cmu-199", 
            "frame-type": "sentence", 
            "object-type": "frame", 
            "start-pos": {
                "object-type": "absolute-pos", 
                "offset": 199
            }, 
            "text": "The second part of this process may depend on heightened BDNF production , and it is this that results in increased pCREB expression , and thus enhanced progenitor mitosis ."
        }, 
        {
            "frame-id": "sent-PMC2965105-cmu-200", 
            "frame-type": "sentence", 
            "object-type": "frame", 
            "start-pos": {
                "object-type": "absolute-pos", 
                "offset": 200
            }, 
            "text": "Some part of this whole process is highly sensitive both to the absolute levels of corticoids as well as their circadian pattern [ 26 ] , [ 39 ] , [ 40 ] , [ 41 ] , [ 42 ] ."
        }, 
        {
            "frame-id": "sent-PMC2965105-cmu-201", 
            "frame-type": "sentence", 
            "object-type": "frame", 
            "start-pos": {
                "object-type": "absolute-pos", 
                "offset": 201
            }, 
            "text": "Our results suggest that the expression of pCREB is downstream of the action of BDNF , since it was prevented by K252a ."
        }, 
        {
            "frame-id": "sent-PMC2965105-cmu-202", 
            "frame-type": "sentence", 
            "object-type": "frame", 
            "start-pos": {
                "object-type": "absolute-pos", 
                "offset": 202
            }, 
            "text": "Since CREB has a range of intracellular actions , these may not all link with Wnt3a ."
        }, 
        {
            "frame-id": "sent-PMC2965105-cmu-203", 
            "frame-type": "sentence", 
            "object-type": "frame", 
            "start-pos": {
                "object-type": "absolute-pos", 
                "offset": 203
            }, 
            "text": "Wnt3a has been implicated in the ability of human neural progenitors to form neurospheres in culture [ 33 ] and in the process of adult neurogenesis , though its exact role is still unclear [ 43 ] , [ 44 ] ."
        }, 
        {
            "frame-id": "sent-PMC2965105-cmu-204", 
            "frame-type": "sentence", 
            "object-type": "frame", 
            "start-pos": {
                "object-type": "absolute-pos", 
                "offset": 204
            }, 
            "text": "Our results suggest that factors additional to Wnt3a ( maybe other members of the Wnt family ) may be needed to increase progenitor cell mitosis rates ."
        }, 
        {
            "frame-id": "sent-PMC2965105-cmu-205", 
            "frame-type": "sentence", 
            "object-type": "frame", 
            "start-pos": {
                "object-type": "absolute-pos", 
                "offset": 205
            }, 
            "text": "Table 1 shows that , whilst we find a consistent association between pCREB and increased mitosis , this was not true for Wnt3a ."
        }, 
        {
            "frame-id": "sent-PMC2965105-cmu-206", 
            "frame-type": "sentence", 
            "object-type": "frame", 
            "start-pos": {
                "object-type": "absolute-pos", 
                "offset": 206
            }, 
            "text": "However , increased Wnt3a may be an essential ingredient of the stimulatory process , since we never observed one without the other , and inhibition of Wnt signalling reduces adult neurogenesis in the dentate gyrus [ 3 ] ."
        }, 
        {
            "frame-id": "sent-PMC2965105-cmu-207", 
            "frame-type": "sentence", 
            "object-type": "frame", 
            "start-pos": {
                "object-type": "absolute-pos", 
                "offset": 207
            }, 
            "text": "Our results further suggest that the stimulating action of fluoxetine on Wnt3a may not be dependent on BDNF ( or Trk receptors : we have not investigated the lower-affinity p75 receptor ) , so there may be other pathways linking the action of this drug to neurogenesis in the dentate gyrus ."
        }, 
        {
            "frame-id": "sent-PMC2965105-cmu-208", 
            "frame-type": "sentence", 
            "object-type": "frame", 
            "start-pos": {
                "object-type": "absolute-pos", 
                "offset": 208
            }, 
            "text": "The ability of fluoxetine to increase Wnt3a is consistent with this drug 's reported induction of neural plasticity [ 45 ] , [ 46 ] , [ 47 ] ."
        }, 
        {
            "frame-id": "sent-PMC2965105-cmu-209", 
            "frame-type": "sentence", 
            "object-type": "frame", 
            "start-pos": {
                "object-type": "absolute-pos", 
                "offset": 209
            }, 
            "text": "This may well contribute to its efficacy as an anti-depressant ."
        }, 
        {
            "frame-id": "sent-PMC2965105-cmu-210", 
            "frame-type": "sentence", 
            "object-type": "frame", 
            "start-pos": {
                "object-type": "absolute-pos", 
                "offset": 210
            }, 
            "text": "The experiments reported here emphasise the central role of BDNF in the regulation of mitosis of the progenitor cells in the dentate gyrus of the adult rat , and its contribution in the latent period preceding the effect of fluoxetine on this process ."
        }, 
        {
            "frame-id": "sent-PMC2965105-cmu-211", 
            "frame-type": "sentence", 
            "object-type": "frame", 
            "start-pos": {
                "object-type": "absolute-pos", 
                "offset": 211
            }, 
            "text": "The role of BDNF in the expression of pCREB and Wnt3a may be distinct ."
        }, 
        {
            "frame-id": "sent-PMC2965105-cmu-212", 
            "frame-type": "sentence", 
            "object-type": "frame", 
            "start-pos": {
                "object-type": "absolute-pos", 
                "offset": 212
            }, 
            "text": "Our results further suggest that the control of the neurogenetic niche may be widespread throughout the dentate gyrus , though the identity of the cells that produce BDNF is still obscure ."
        }, 
        {
            "frame-id": "sent-PMC2965105-cmu-213", 
            "frame-type": "sentence", 
            "object-type": "frame", 
            "start-pos": {
                "object-type": "absolute-pos", 
                "offset": 213
            }, 
            "text": "They do not add directly to the evidence linking adult neurogenesis with depression , but strengthen understanding of the role of BDNF and its receptor in the action of anti-depressants such as fluoxetine ."
        }
    ], 
    "object-meta": {
        "component": "Nicolas-NXML-Parser", 
        "component-type": "machine", 
        "doc-id": "PMC2965105", 
        "object-type": "meta-info", 
        "organization": "CMU"
    }, 
    "object-type": "frame-collection"
}
