{
  "evidence": ["D , Native N-CoR conformation is rescued by genistein but not by AEBSF .","genistein caused a significant increase in the level of nuclear N-CoR","N-CoR conformation is rescued by genistein","While genistein caused a significant increase in the level of nuclear N-CoR, no such increment was observed after AEBSF treatment ."],
  "extracted_information": {
    "interaction_type": "increases_activity",
    "negative_information": false,
    "participant_a": {
      "entity_text": "genistein",
      "entity_type": "chemical",
      "identifier": "CHEBI:74224",
      "in_model": true
    },
    "participant_b": {
      "entity_text": "N-CoR",
      "entity_type": "protein",
      "identifier": "Uniprot:O75376",
      "in_model": false
    }
  },
  "fries_provenance": [
    {
      "component": "REACH",
      "frame-file": "PMC3733915.uaz.events",
      "frame-id": "evem-PMC3733915-UAZ-r1-52-5-15",
      "passage-id": "pass-PMC3733915-UAZ-r1-52",
      "passage-number": 52,
      "passage-section-id": "fig-1",
      "passage-section-name": "fig-1",
      "sentence": "D , Native N-CoR conformation is rescued by genistein but not by AEBSF .",
      "text": "N-CoR conformation is rescued by genistein",
      "uaz-sentence": "D , Native N-CoR conformation is rescued by genistein but not by AEBSF .",
      "uaz-sentence-start": 562
    },
    {
      "cmu-sentence-epistemic-status": "implication",
      "cmu-sentence-epistemic-value": 0.6,
      "component": "MedScan",
      "frame-file": "PMC3733915.cmu.medscan",
      "frame-id": "relm-PMC3733915-cmu-medscan-539",
      "passage-id": "pass-PMC3733915-UAZ-r1-53",
      "passage-number": 53,
      "passage-section-id": "s3a",
      "passage-section-name": "N/A",
      "sentence": "While genistein caused a significant increase in the level of nuclear N-CoR, no such increment was observed after AEBSF treatment .",
      "text": "genistein caused a significant increase in the level of nuclear N-CoR",
      "uaz-sentence": "While genistein caused a significant increase in the level of nuclear N-CoR , no such increment was observed after AEBSF treatment          .",
      "uaz-sentence-start": 1481
    },
    {
      "cmu-sentence-epistemic-status": "implication",
      "cmu-sentence-epistemic-value": 0.6,
      "component": "MedScan",
      "frame-file": "PMC3733915.cmu.medscan",
      "frame-id": "relm-PMC3733915-cmu-medscan-540",
      "passage-id": "pass-PMC3733915-UAZ-r1-53",
      "passage-number": 53,
      "passage-section-id": "s3a",
      "passage-section-name": "N/A",
      "sentence": "While genistein caused a significant increase in the level of nuclear N-CoR, no such increment was observed after AEBSF treatment .",
      "text": "genistein caused a significant increase in the level of nuclear N-CoR",
      "uaz-sentence": "While genistein caused a significant increase in the level of nuclear N-CoR , no such increment was observed after AEBSF treatment          .",
      "uaz-sentence-start": 1481
    }
  ],
  "model_relation": "extension",
  "pmc_id": "PMC3733915",
  "reader_type": "machine",
  "reading_complete": "2015-06-15T23:24:17Z",
  "reading_started": "2015-06-15T23:24:12Z",
  "submitter": "FRIES"
}
