{
  "evidence": ["beta-catenin is phosphorylated by GSK-3beta at multiple serine and threonine residues","In the absence of Wnt ligands , cytoplasmic levels of beta-catenin are regulated by the destruction complex that contains axin , APC , and glycogen synthase kinase-3beta ( GSK-3beta ) , where beta-catenin is phosphorylated by GSK-3beta at multiple serine and threonine residues in its N terminus ."],
  "extracted_information": {
    "interaction_type": "adds_modification",
    "negative_information": false,
    "modifications": [
      {
        "modification_type": "phosphorylation"
      },
      {
        "modification_type": "phosphorylation"
      }
    ],
    "participant_a": {
      "entity_text": "GSK-3beta",
      "entity_type": "protein",
      "identifier": "Uniprot:P49841",
      "in_model": false
    },
    "participant_b": {
      "entity_text": "beta-catenin",
      "entity_type": "protein",
      "identifier": "Uniprot:P35222",
      "in_model": true
    }
  },
  "fries_provenance": [
    {
      "cmu-sentence-epistemic-status": "implication",
      "cmu-sentence-epistemic-value": 0.6,
      "component": "REACH",
      "frame-file": "PMC3309901.uaz.events",
      "frame-id": "evem-PMC3309901-UAZ-r1-61-1-82",
      "passage-id": "pass-PMC3309901-UAZ-r1-61",
      "passage-number": 61,
      "passage-section-id": "s2h",
      "passage-section-name": "N/A",
      "sentence": "In the absence of Wnt ligands , cytoplasmic levels of beta-catenin are regulated by the destruction complex that contains axin , APC , and glycogen synthase kinase-3beta ( GSK-3beta ) , where beta-catenin is phosphorylated by GSK-3beta at multiple serine and threonine residues in its N terminus .",
      "text": "beta-catenin is phosphorylated by GSK-3beta at multiple serine and threonine residues",
      "uaz-sentence": "In the absence of Wnt ligands , cytoplasmic levels of beta-catenin are regulated by the destruction complex that contains axin , APC , and glycogen synthase kinase-3beta ( GSK-3beta ) , where beta-catenin is phosphorylated by GSK-3beta at multiple serine and threonine residues in its N terminus .",
      "uaz-sentence-start": 128
    }
  ],
  "model_relation": "extension",
  "pmc_id": "PMC3309901",
  "reader_type": "machine",
  "reading_complete": "2015-06-15T22:41:58Z",
  "reading_started": "2015-06-15T22:41:53Z",
  "submitter": "FRIES"
}
