{
  "evidence": ["DACT1 affects \\u03b2-catenin","DACT1 binds to and inhibits glycogen synthase kinase-3\\u03b2, which results in the release of \\u03b2-catenin","DACT1 did interact with \\u03b2-catenin","DACT1 interacted with \\u03b2-catenin","DACT1-induced effects on GSK-3\\u03b2 and directly interacts with \\u03b2-catenin","However, the mechanisms by which DACT1 regulates this multiprotein complex and \\u03b2-catenin are unclear.","These consistent results indicated that DACT1 interferes with the glycogen synthase kinase-3\\u03b2-dependent phosphorylation of \\u03b2-catenin by the destruction complex, and DACT1 affects \\u03b2-catenin stability by interacting with \\u03b2-catenin. \\u03b2-catenin is known to accumulate in the nucleus and its levels are speculated to increase at the membrane lamellipodia, membrane adherens junctions and membrane ruffles , in response to Wnt signaling or the drug-mediated inhibition of glycogen synthase kinase-3\\u03b2 activity.","This would lead to the activation of downstream \\u03b2-catenin/TCF-regulated target genes, and at the membrane, regulation of the adhesion or migration properties of the cell.","We have also demonstrated DACT1 inhibits the activity of GSK-3\\u03b2 via increasing the level of phosphorylated GSK-3\\u03b2 at Ser9//9, which alters the subcellular location of \\u03b2-catenin.","We then examined the colocalization of DACT1 with glycogen synthase kinase-3\\u03b2, and DACT1 with \\u03b2-catenin in wild type HT29 cells (without adenomatous polyposis coli or \\u03b2-catenin mutations) ."],
  "extracted_information": {
    "interaction_type": "binds",
    "negative_information": false,
    "participant_a": {
      "entity_text": "\\u03b2-catenin",
      "entity_type": "protein",
      "identifier": "Uniprot:E9PDF9",
      "in_model": true
    },
    "participant_b": {
      "entity_text": "DACT1",
      "entity_type": "protein",
      "identifier": "Uniprot:Q9NYF0",
      "in_model": false
    }
  },
  "fries_provenance": [
    {
      "cmu-sentence-epistemic-status": "implication",
      "cmu-sentence-epistemic-value": 0.6,
      "component": "MedScan",
      "frame-file": "PMC3309901.cmu.medscan",
      "frame-id": "relm-PMC3309901-cmu-medscan-903",
      "passage-id": "pass-PMC3309901-UAZ-r1-9",
      "passage-number": 9,
      "passage-section-id": "s1",
      "passage-section-name": "N/A",
      "sentence": "We have also demonstrated DACT1 inhibits the activity of GSK-3\\u03b2 via increasing the level of phosphorylated GSK-3\\u03b2 at Ser9//9, which alters the subcellular location of \\u03b2-catenin.",
      "text": "DACT1-induced effects on GSK-3\\u03b2 and directly interacts with \\u03b2-catenin",
      "uaz-sentence": "We have also demonstrated DACT1 inhibits the activity of GSK-3beta via increasing the level of phosphorylated GSK-3beta at Ser9 , which alters the subcellular location of beta-catenin .",
      "uaz-sentence-start": 1080
    },
    {
      "cmu-sentence-epistemic-status": "implication",
      "cmu-sentence-epistemic-value": 0.6,
      "component": "MedScan",
      "frame-file": "PMC3309901.cmu.medscan",
      "frame-id": "relm-PMC3309901-cmu-medscan-917",
      "passage-id": "pass-PMC3309901-UAZ-r1-65",
      "passage-number": 65,
      "passage-section-id": "s2h",
      "passage-section-name": "N/A",
      "sentence": "We then examined the colocalization of DACT1 with glycogen synthase kinase-3\\u03b2, and DACT1 with \\u03b2-catenin in wild type HT29 cells (without adenomatous polyposis coli or \\u03b2-catenin mutations) .",
      "text": "DACT1 did interact with \\u03b2-catenin",
      "uaz-sentence": "We then examined the colocalization of DACT1 with GSK-3beta , and DACT1 with beta-catenin in wild type HT29 cells ( without APC or beta catenin mutations )              .",
      "uaz-sentence-start": 487
    },
    {
      "cmu-sentence-epistemic-status": "implication",
      "cmu-sentence-epistemic-value": 0.6,
      "component": "MedScan",
      "frame-file": "PMC3309901.cmu.medscan",
      "frame-id": "relm-PMC3309901-cmu-medscan-920",
      "passage-id": "pass-PMC3309901-UAZ-r1-65",
      "passage-number": 65,
      "passage-section-id": "s2h",
      "passage-section-name": "N/A",
      "sentence": "These consistent results indicated that DACT1 interferes with the glycogen synthase kinase-3\\u03b2-dependent phosphorylation of \\u03b2-catenin by the destruction complex, and DACT1 affects \\u03b2-catenin stability by interacting with \\u03b2-catenin. \\u03b2-catenin is known to accumulate in the nucleus and its levels are speculated to increase at the membrane lamellipodia, membrane adherens junctions and membrane ruffles , in response to Wnt signaling or the drug-mediated inhibition of glycogen synthase kinase-3\\u03b2 activity.",
      "text": "DACT1 affects \\u03b2-catenin",
      "uaz-sentence": "These consistent results indicated that DACT1 interferes with the GSK-3beta-dependent phosphorylation of beta-catenin by the destruction complex , and DACT1 affects beta-catenin stability by interacting with beta-catenin .",
      "uaz-sentence-start": 655
    },
    {
      "cmu-sentence-epistemic-status": "implication",
      "cmu-sentence-epistemic-value": 0.6,
      "component": "MedScan",
      "frame-file": "PMC3309901.cmu.medscan",
      "frame-id": "relm-PMC3309901-cmu-medscan-939",
      "passage-id": "pass-PMC3309901-UAZ-r1-83",
      "passage-number": 83,
      "passage-section-id": "s3c",
      "passage-section-name": "N/A",
      "sentence": "However, the mechanisms by which DACT1 regulates this multiprotein complex and \\u03b2-catenin are unclear.",
      "text": "DACT1 interacted with \\u03b2-catenin",
      "uaz-sentence": "However , the mechanisms by which DACT1 regulates this multiprotein complex and beta-catenin are unclear .",
      "uaz-sentence-start": 1092
    },
    {
      "cmu-sentence-epistemic-status": "implication",
      "cmu-sentence-epistemic-value": 0.6,
      "component": "MedScan",
      "frame-file": "PMC3309901.cmu.medscan",
      "frame-id": "relm-PMC3309901-cmu-medscan-953",
      "passage-id": "pass-PMC3309901-UAZ-r1-93",
      "passage-number": 93,
      "passage-section-id": "s3f",
      "passage-section-name": "N/A",
      "sentence": "This would lead to the activation of downstream \\u03b2-catenin/TCF-regulated target genes, and at the membrane, regulation of the adhesion or migration properties of the cell.",
      "text": "DACT1 binds to and inhibits glycogen synthase kinase-3\\u03b2, which results in the release of \\u03b2-catenin",
      "uaz-sentence": "This would lead to the activation of downstream beta-catenin and TCF-regulated target genes , and at the membrane , regulation of the adhesion or migration properties of the cell .",
      "uaz-sentence-start": 751
    }
  ],
  "model_relation": "extension",
  "pmc_id": "PMC3309901",
  "reader_type": "machine",
  "reading_complete": "2015-06-15T22:41:58Z",
  "reading_started": "2015-06-15T22:41:53Z",
  "submitter": "FRIES"
}
