{
  "evidence": ["\\u03b2-catenin is phosphorylated by glycogen synthase kinase-3\\u03b2","In the absence of Wnt ligands, cytoplasmic levels of \\u03b2-catenin are regulated by the destruction complex that contains axin, adenomatous polyposis coli, and glycogen synthase kinase-3\\u03b2 , where \\u03b2-catenin is phosphorylated by glycogen synthase kinase-3\\u03b2 at multiple serine and threonine residues in its N terminus."],
  "extracted_information": {
    "interaction_type": "adds_modification",
    "negative_information": false,
    "modifications": [
      {
        "modification_type": "phosphorylation"
      }
    ],
    "participant_a": {
      "entity_text": "glycogen synthase kinase-3\\u03b2",
      "entity_type": "protein",
      "identifier": "Uniprot:P49841",
      "in_model": false
    },
    "participant_b": {
      "entity_text": "\\u03b2-catenin",
      "entity_type": "protein",
      "identifier": "Uniprot:E9PDF9",
      "in_model": true
    }
  },
  "fries_provenance": [
    {
      "cmu-sentence-epistemic-status": "implication",
      "cmu-sentence-epistemic-value": 0.6,
      "component": "MedScan",
      "frame-file": "PMC3309901.cmu.medscan",
      "frame-id": "relm-PMC3309901-cmu-medscan-914",
      "passage-id": "pass-PMC3309901-UAZ-r1-61",
      "passage-number": 61,
      "passage-section-id": "s2h",
      "passage-section-name": "N/A",
      "sentence": "In the absence of Wnt ligands, cytoplasmic levels of \\u03b2-catenin are regulated by the destruction complex that contains axin, adenomatous polyposis coli, and glycogen synthase kinase-3\\u03b2 , where \\u03b2-catenin is phosphorylated by glycogen synthase kinase-3\\u03b2 at multiple serine and threonine residues in its N terminus.",
      "text": "\\u03b2-catenin is phosphorylated by glycogen synthase kinase-3\\u03b2",
      "uaz-sentence": "In the absence of Wnt ligands , cytoplasmic levels of beta-catenin are regulated by the destruction complex that contains axin , APC , and glycogen synthase kinase-3beta ( GSK-3beta ) , where beta-catenin is phosphorylated by GSK-3beta at multiple serine and threonine residues in its N terminus .",
      "uaz-sentence-start": 128
    }
  ],
  "model_relation": "extension",
  "pmc_id": "PMC3309901",
  "reader_type": "machine",
  "reading_complete": "2015-06-15T22:41:58Z",
  "reading_started": "2015-06-15T22:41:53Z",
  "submitter": "FRIES"
}
