{
  "frames":[
    {
      "frame-id":"evem-PMC2173856-UAZ-r1-2-4-1",
      "text":"MAG activates small GTPase RhoA",
      "arguments":[
        {
          "text":"RhoA",
          "argument-type":"entity",
          "object-type":"argument",
          "index":0,
          "argument-label":"controlled",
          "arg":"ment-PMC2173856-UAZ-r1-2-4-14"
        },
        {
          "text":"MAG",
          "argument-type":"entity",
          "object-type":"argument",
          "index":0,
          "argument-label":"controller",
          "arg":"ment-PMC2173856-UAZ-r1-2-4-13"
        }
      ],
      "type":"activation",
      "frame-type":"event-mention",
      "subtype":"positive-activation",
      "end-pos":{
        "reference":"pass-PMC2173856-UAZ-r1-2",
        "offset":516,
        "object-type":"relative-pos"
      },
      "object-type":"frame",
      "start-pos":{
        "reference":"pass-PMC2173856-UAZ-r1-2",
        "offset":485,
        "object-type":"relative-pos"
      },
      "sentence":"sent-PMC2173856-UAZ-r1-2-4",
      "found-by":"Positive_activation_syntax_1_verb",
      "object-meta":{
        "component":"REACH",
        "object-type":"meta-info"
      },
      "verbose-text":"MAG activates small GTPase RhoA , leading to retarded outgrowth when p75NTR is present ."
    },
    {
      "text":"Ganglioside GT1b, which is one of the binding partners of MAG, specifically associates with p75NTR",
      "frame-id":"evem-PMC2173856-UAZ-r1-2-6-2",
      "arguments":[
        {
          "text":"Ganglioside GT1b",
          "argument-type":"entity",
          "object-type":"argument",
          "index":0,
          "argument-label":"theme",
          "arg":"ment-PMC2173856-UAZ-r1-2-6-18"
        },
        {
          "text":"p75NTR",
          "argument-type":"entity",
          "object-type":"argument",
          "index":1,
          "argument-label":"theme",
          "arg":"ment-PMC2173856-UAZ-r1-2-6-20"
        }
      ],
      "type":"complex-assembly",
      "frame-type":"event-mention",
      "end-pos":{
        "reference":"pass-PMC2173856-UAZ-r1-2",
        "offset":731,
        "object-type":"relative-pos"
      },
      "object-type":"frame",
      "start-pos":{
        "reference":"pass-PMC2173856-UAZ-r1-2",
        "offset":633,
        "object-type":"relative-pos"
      },
      "found-by":"binding1b",
      "sentence":"sent-PMC2173856-UAZ-r1-2-6",
      "verbose-text":"Ganglioside GT1b , which is one of the binding partners of MAG , specifically associates with p75NTR .",
      "object-meta":{
        "component":"REACH",
        "object-type":"meta-info"
      }
    },
    {
      "text":"p75NTR and MAG binding",
      "frame-id":"evem-PMC2173856-UAZ-r1-2-5-3",
      "arguments":[
        {
          "text":"p75NTR",
          "argument-type":"entity",
          "object-type":"argument",
          "index":0,
          "argument-label":"theme",
          "arg":"ment-PMC2173856-UAZ-r1-2-5-16"
        },
        {
          "text":"MAG",
          "argument-type":"entity",
          "object-type":"argument",
          "index":1,
          "argument-label":"theme",
          "arg":"ment-PMC2173856-UAZ-r1-2-5-17"
        }
      ],
      "type":"complex-assembly",
      "frame-type":"event-mention",
      "end-pos":{
        "reference":"pass-PMC2173856-UAZ-r1-2",
        "offset":612,
        "object-type":"relative-pos"
      },
      "object-type":"frame",
      "start-pos":{
        "reference":"pass-PMC2173856-UAZ-r1-2",
        "offset":590,
        "object-type":"relative-pos"
      },
      "found-by":"binding7a",
      "sentence":"sent-PMC2173856-UAZ-r1-2-5",
      "verbose-text":"Colocalization of p75NTR and MAG binding is seen in neurons .",
      "object-meta":{
        "component":"REACH",
        "object-type":"meta-info"
      }
    },
    {
      "text":"neurotrophin binding to p75NTR",
      "frame-id":"evem-PMC2173856-UAZ-r1-6-4-4",
      "arguments":[
        {
          "text":"neurotrophin",
          "argument-type":"entity",
          "object-type":"argument",
          "index":0,
          "argument-label":"theme",
          "arg":"ment-PMC2173856-UAZ-r1-6-4-29"
        },
        {
          "text":"p75NTR",
          "argument-type":"entity",
          "object-type":"argument",
          "index":1,
          "argument-label":"theme",
          "arg":"ment-PMC2173856-UAZ-r1-6-4-30"
        }
      ],
      "type":"complex-assembly",
      "frame-type":"event-mention",
      "end-pos":{
        "reference":"pass-PMC2173856-UAZ-r1-6",
        "offset":723,
        "object-type":"relative-pos"
      },
      "object-type":"frame",
      "start-pos":{
        "reference":"pass-PMC2173856-UAZ-r1-6",
        "offset":693,
        "object-type":"relative-pos"
      },
      "found-by":"binding7a",
      "sentence":"sent-PMC2173856-UAZ-r1-6-4",
      "verbose-text":"It was shown recently that the neurotrophin binding to p75NTR promoted axonal outgrowth of neurons and inactivated small GTPase RhoA                         .",
      "object-meta":{
        "component":"REACH",
        "object-type":"meta-info"
      }
    },
    {
      "frame-id":"evem-PMC2173856-UAZ-r1-19-2-5",
      "text":"ribosylates RhoA",
      "arguments":[
        {
          "text":"RhoA",
          "argument-type":"entity",
          "object-type":"argument",
          "index":0,
          "argument-label":"theme",
          "arg":"ment-PMC2173856-UAZ-r1-19-2-104"
        }
      ],
      "type":"protein-modification",
      "frame-type":"event-mention",
      "subtype":"ribosylation",
      "end-pos":{
        "reference":"pass-PMC2173856-UAZ-r1-19",
        "offset":444,
        "object-type":"relative-pos"
      },
      "object-type":"frame",
      "start-pos":{
        "reference":"pass-PMC2173856-UAZ-r1-19",
        "offset":428,
        "object-type":"relative-pos"
      },
      "sentence":"sent-PMC2173856-UAZ-r1-19-2",
      "found-by":"Ribosylation_syntax_1_verb",
      "object-meta":{
        "component":"REACH",
        "object-type":"meta-info"
      },
      "verbose-text":"Thus , to examine if activation of RhoA is necessary for modification of neurite outgrowth by MAG in our system , we employed the exoenzyme C3 transferase from Clostridium botulinum , which ADP ribosylates RhoA ."
    },
    {
      "frame-id":"evem-PMC2173856-UAZ-r1-21-0-6",
      "text":"MAG activates RhoA",
      "arguments":[
        {
          "text":"RhoA",
          "argument-type":"entity",
          "object-type":"argument",
          "index":0,
          "argument-label":"controlled",
          "arg":"ment-PMC2173856-UAZ-r1-21-0-114"
        },
        {
          "text":"MAG",
          "argument-type":"entity",
          "object-type":"argument",
          "index":0,
          "argument-label":"controller",
          "arg":"ment-PMC2173856-UAZ-r1-21-0-113"
        }
      ],
      "type":"activation",
      "frame-type":"event-mention",
      "subtype":"positive-activation",
      "end-pos":{
        "reference":"pass-PMC2173856-UAZ-r1-21",
        "offset":18,
        "object-type":"relative-pos"
      },
      "object-type":"frame",
      "start-pos":{
        "reference":"pass-PMC2173856-UAZ-r1-21",
        "offset":0,
        "object-type":"relative-pos"
      },
      "sentence":"sent-PMC2173856-UAZ-r1-21-0",
      "found-by":"Positive_activation_syntax_1_verb",
      "object-meta":{
        "component":"REACH",
        "object-type":"meta-info"
      },
      "verbose-text":"MAG activates RhoA through a p75NTR dependent mechanism ."
    },
    {
      "frame-id":"evem-PMC2173856-UAZ-r1-23-6-7",
      "text":"MAG activates RhoA",
      "arguments":[
        {
          "text":"RhoA",
          "argument-type":"entity",
          "object-type":"argument",
          "index":0,
          "argument-label":"controlled",
          "arg":"ment-PMC2173856-UAZ-r1-23-6-163"
        },
        {
          "text":"MAG",
          "argument-type":"entity",
          "object-type":"argument",
          "index":0,
          "argument-label":"controller",
          "arg":"ment-PMC2173856-UAZ-r1-23-6-162"
        }
      ],
      "type":"activation",
      "frame-type":"event-mention",
      "subtype":"positive-activation",
      "end-pos":{
        "reference":"pass-PMC2173856-UAZ-r1-23",
        "offset":981,
        "object-type":"relative-pos"
      },
      "object-type":"frame",
      "start-pos":{
        "reference":"pass-PMC2173856-UAZ-r1-23",
        "offset":963,
        "object-type":"relative-pos"
      },
      "sentence":"sent-PMC2173856-UAZ-r1-23-6",
      "found-by":"Positive_activation_syntax_1_verb",
      "object-meta":{
        "component":"REACH",
        "object-type":"meta-info"
      },
      "verbose-text":"These data demonstrate that MAG activates RhoA by a p75NTR dependent mechanism , thus inhibiting neurite outgrowth of postnatal cerebellar granule neurons ."
    },
    {
      "frame-id":"evem-PMC2173856-UAZ-r1-23-6-8",
      "text":"MAG activates RhoA by a p75NTR",
      "arguments":[
        {
          "text":"MAG",
          "argument-type":"entity",
          "object-type":"argument",
          "index":0,
          "argument-label":"controlled",
          "arg":"ment-PMC2173856-UAZ-r1-23-6-162"
        },
        {
          "text":"p75NTR",
          "argument-type":"entity",
          "object-type":"argument",
          "index":0,
          "argument-label":"controller",
          "arg":"ment-PMC2173856-UAZ-r1-23-6-164"
        }
      ],
      "type":"activation",
      "frame-type":"event-mention",
      "subtype":"positive-activation",
      "end-pos":{
        "reference":"pass-PMC2173856-UAZ-r1-23",
        "offset":993,
        "object-type":"relative-pos"
      },
      "object-type":"frame",
      "start-pos":{
        "reference":"pass-PMC2173856-UAZ-r1-23",
        "offset":963,
        "object-type":"relative-pos"
      },
      "sentence":"sent-PMC2173856-UAZ-r1-23-6",
      "found-by":"Positive_activation_syntax_2_verb",
      "object-meta":{
        "component":"REACH",
        "object-type":"meta-info"
      },
      "verbose-text":"These data demonstrate that MAG activates RhoA by a p75NTR dependent mechanism , thus inhibiting neurite outgrowth of postnatal cerebellar granule neurons ."
    },
    {
      "frame-id":"evem-PMC2173856-UAZ-r1-23-2-9",
      "text":"MAG-Fc activates RhoA",
      "arguments":[
        {
          "text":"RhoA",
          "argument-type":"entity",
          "object-type":"argument",
          "index":0,
          "argument-label":"controlled",
          "arg":"ment-PMC2173856-UAZ-r1-23-2-150"
        },
        {
          "text":"MAG-Fc",
          "argument-type":"entity",
          "object-type":"argument",
          "index":0,
          "argument-label":"controller",
          "arg":"ment-PMC2173856-UAZ-r1-23-2-149"
        }
      ],
      "type":"activation",
      "frame-type":"event-mention",
      "subtype":"positive-activation",
      "end-pos":{
        "reference":"pass-PMC2173856-UAZ-r1-23",
        "offset":422,
        "object-type":"relative-pos"
      },
      "object-type":"frame",
      "start-pos":{
        "reference":"pass-PMC2173856-UAZ-r1-23",
        "offset":401,
        "object-type":"relative-pos"
      },
      "sentence":"sent-PMC2173856-UAZ-r1-23-2",
      "found-by":"Positive_activation_syntax_1_verb",
      "object-meta":{
        "component":"REACH",
        "object-type":"meta-info"
      },
      "verbose-text":"Consistent with the observation in transfected 293 cells , MAG-Fc activates RhoA in cerebellar granule neurons from wild-type mice ( P9 ) , which express abundant p75NTR           ."
    },
    {
      "frame-id":"evem-PMC2173856-UAZ-r1-23-5-10",
      "text":"Activation of RhoA by MAG",
      "arguments":[
        {
          "text":"RhoA",
          "argument-type":"entity",
          "object-type":"argument",
          "index":0,
          "argument-label":"controlled",
          "arg":"ment-PMC2173856-UAZ-r1-23-5-159"
        },
        {
          "text":"MAG",
          "argument-type":"entity",
          "object-type":"argument",
          "index":0,
          "argument-label":"controller",
          "arg":"ment-PMC2173856-UAZ-r1-23-5-160"
        }
      ],
      "type":"activation",
      "frame-type":"event-mention",
      "subtype":"positive-activation",
      "end-pos":{
        "reference":"pass-PMC2173856-UAZ-r1-23",
        "offset":849,
        "object-type":"relative-pos"
      },
      "object-type":"frame",
      "start-pos":{
        "reference":"pass-PMC2173856-UAZ-r1-23",
        "offset":824,
        "object-type":"relative-pos"
      },
      "sentence":"sent-PMC2173856-UAZ-r1-23-5",
      "found-by":"Positive_activation_token_2_noun",
      "object-meta":{
        "component":"REACH",
        "object-type":"meta-info"
      },
      "verbose-text":"Activation of RhoA by MAG was lost in the neurons from mice carrying a mutation in the p75NTR gene           ."
    },
    {
      "frame-id":"evem-PMC2173856-UAZ-r1-26-1-11",
      "text":"p75NTR activated RhoA",
      "arguments":[
        {
          "text":"RhoA",
          "argument-type":"entity",
          "object-type":"argument",
          "index":0,
          "argument-label":"controlled",
          "arg":"ment-PMC2173856-UAZ-r1-26-1-182"
        },
        {
          "text":"p75NTR",
          "argument-type":"entity",
          "object-type":"argument",
          "index":0,
          "argument-label":"controller",
          "arg":"ment-PMC2173856-UAZ-r1-26-1-181"
        }
      ],
      "type":"activation",
      "frame-type":"event-mention",
      "subtype":"positive-activation",
      "end-pos":{
        "reference":"pass-PMC2173856-UAZ-r1-26",
        "offset":227,
        "object-type":"relative-pos"
      },
      "object-type":"frame",
      "start-pos":{
        "reference":"pass-PMC2173856-UAZ-r1-26",
        "offset":206,
        "object-type":"relative-pos"
      },
      "sentence":"sent-PMC2173856-UAZ-r1-26-1",
      "found-by":"Positive_activation_syntax_1_verb",
      "object-meta":{
        "component":"REACH",
        "object-type":"meta-info"
      },
      "verbose-text":"In transfected cells , overexpression of p75NTR activated RhoA in a neurotrophin independent manner ."
    },
    {
      "text":"p75NTR and MAG binding",
      "frame-id":"evem-PMC2173856-UAZ-r1-28-0-12",
      "arguments":[
        {
          "text":"p75NTR",
          "argument-type":"entity",
          "object-type":"argument",
          "index":0,
          "argument-label":"theme",
          "arg":"ment-PMC2173856-UAZ-r1-28-0-191"
        },
        {
          "text":"MAG",
          "argument-type":"entity",
          "object-type":"argument",
          "index":1,
          "argument-label":"theme",
          "arg":"ment-PMC2173856-UAZ-r1-28-0-192"
        }
      ],
      "type":"complex-assembly",
      "frame-type":"event-mention",
      "end-pos":{
        "reference":"pass-PMC2173856-UAZ-r1-28",
        "offset":40,
        "object-type":"relative-pos"
      },
      "object-type":"frame",
      "start-pos":{
        "reference":"pass-PMC2173856-UAZ-r1-28",
        "offset":18,
        "object-type":"relative-pos"
      },
      "found-by":"binding7a",
      "sentence":"sent-PMC2173856-UAZ-r1-28-0",
      "verbose-text":"Colocalization of p75NTR and MAG binding",
      "object-meta":{
        "component":"REACH",
        "object-type":"meta-info"
      }
    },
    {
      "text":"p75NTR and MAG binding",
      "frame-id":"evem-PMC2173856-UAZ-r1-29-4-13",
      "arguments":[
        {
          "text":"p75NTR",
          "argument-type":"entity",
          "object-type":"argument",
          "index":0,
          "argument-label":"theme",
          "arg":"ment-PMC2173856-UAZ-r1-29-4-203"
        },
        {
          "text":"MAG",
          "argument-type":"entity",
          "object-type":"argument",
          "index":1,
          "argument-label":"theme",
          "arg":"ment-PMC2173856-UAZ-r1-29-4-204"
        }
      ],
      "type":"complex-assembly",
      "frame-type":"event-mention",
      "end-pos":{
        "reference":"pass-PMC2173856-UAZ-r1-29",
        "offset":540,
        "object-type":"relative-pos"
      },
      "object-type":"frame",
      "start-pos":{
        "reference":"pass-PMC2173856-UAZ-r1-29",
        "offset":518,
        "object-type":"relative-pos"
      },
      "found-by":"binding7a",
      "sentence":"sent-PMC2173856-UAZ-r1-29-4",
      "verbose-text":"To test this hypothesis , the localization of p75NTR and MAG binding was assessed on the subcellular level .",
      "object-meta":{
        "component":"REACH",
        "object-type":"meta-info"
      }
    },
    {
      "text":"binding of MAG-Fc to adult DRG",
      "frame-id":"evem-PMC2173856-UAZ-r1-29-6-14",
      "arguments":[
        {
          "text":"MAG-Fc",
          "argument-type":"entity",
          "object-type":"argument",
          "index":0,
          "argument-label":"theme",
          "arg":"ment-PMC2173856-UAZ-r1-29-6-207"
        },
        {
          "text":"DRG",
          "argument-type":"entity",
          "object-type":"argument",
          "index":1,
          "argument-label":"theme",
          "arg":"ment-PMC2173856-UAZ-r1-29-6-208"
        }
      ],
      "type":"complex-assembly",
      "frame-type":"event-mention",
      "end-pos":{
        "reference":"pass-PMC2173856-UAZ-r1-29",
        "offset":712,
        "object-type":"relative-pos"
      },
      "object-type":"frame",
      "start-pos":{
        "reference":"pass-PMC2173856-UAZ-r1-29",
        "offset":682,
        "object-type":"relative-pos"
      },
      "found-by":"binding3",
      "sentence":"sent-PMC2173856-UAZ-r1-29-6",
      "verbose-text":"shows binding of MAG-Fc to adult DRG neurons using confocal laser microscopy .",
      "object-meta":{
        "component":"REACH",
        "object-type":"meta-info"
      }
    },
    {
      "text":"p75NTR and MAG binding",
      "frame-id":"evem-PMC2173856-UAZ-r1-29-13-15",
      "arguments":[
        {
          "text":"p75NTR",
          "argument-type":"entity",
          "object-type":"argument",
          "index":0,
          "argument-label":"theme",
          "arg":"ment-PMC2173856-UAZ-r1-29-13-218"
        },
        {
          "text":"MAG",
          "argument-type":"entity",
          "object-type":"argument",
          "index":1,
          "argument-label":"theme",
          "arg":"ment-PMC2173856-UAZ-r1-29-13-219"
        }
      ],
      "type":"complex-assembly",
      "frame-type":"event-mention",
      "end-pos":{
        "reference":"pass-PMC2173856-UAZ-r1-29",
        "offset":1410,
        "object-type":"relative-pos"
      },
      "object-type":"frame",
      "start-pos":{
        "reference":"pass-PMC2173856-UAZ-r1-29",
        "offset":1388,
        "object-type":"relative-pos"
      },
      "found-by":"binding7a",
      "sentence":"sent-PMC2173856-UAZ-r1-29-13",
      "verbose-text":"These data demonstrate that the p75NTR and MAG binding colocalize .",
      "object-meta":{
        "component":"REACH",
        "object-type":"meta-info"
      }
    },
    {
      "text":"Binding of MAG-Fc to DRG",
      "frame-id":"evem-PMC2173856-UAZ-r1-31-6-16",
      "arguments":[
        {
          "text":"MAG-Fc",
          "argument-type":"entity",
          "object-type":"argument",
          "index":0,
          "argument-label":"theme",
          "arg":"ment-PMC2173856-UAZ-r1-31-6-232"
        },
        {
          "text":"DRG",
          "argument-type":"entity",
          "object-type":"argument",
          "index":1,
          "argument-label":"theme",
          "arg":"ment-PMC2173856-UAZ-r1-31-6-233"
        }
      ],
      "type":"complex-assembly",
      "frame-type":"event-mention",
      "end-pos":{
        "reference":"pass-PMC2173856-UAZ-r1-31",
        "offset":588,
        "object-type":"relative-pos"
      },
      "object-type":"frame",
      "start-pos":{
        "reference":"pass-PMC2173856-UAZ-r1-31",
        "offset":564,
        "object-type":"relative-pos"
      },
      "found-by":"binding3",
      "sentence":"sent-PMC2173856-UAZ-r1-31-6",
      "verbose-text":"( B ) Binding of MAG-Fc to DRG neurons from mice carrying a mutation in the p75NTR gene .",
      "object-meta":{
        "component":"REACH",
        "object-type":"meta-info"
      }
    },
    {
      "text":"p75NTR and MAG binding",
      "frame-id":"evem-PMC2173856-UAZ-r1-31-0-17",
      "arguments":[
        {
          "text":"p75NTR",
          "argument-type":"entity",
          "object-type":"argument",
          "index":0,
          "argument-label":"theme",
          "arg":"ment-PMC2173856-UAZ-r1-31-0-220"
        },
        {
          "text":"MAG",
          "argument-type":"entity",
          "object-type":"argument",
          "index":1,
          "argument-label":"theme",
          "arg":"ment-PMC2173856-UAZ-r1-31-0-221"
        }
      ],
      "type":"complex-assembly",
      "frame-type":"event-mention",
      "end-pos":{
        "reference":"pass-PMC2173856-UAZ-r1-31",
        "offset":40,
        "object-type":"relative-pos"
      },
      "object-type":"frame",
      "start-pos":{
        "reference":"pass-PMC2173856-UAZ-r1-31",
        "offset":18,
        "object-type":"relative-pos"
      },
      "found-by":"binding7a",
      "sentence":"sent-PMC2173856-UAZ-r1-31-0",
      "verbose-text":"Colocalization of p75NTR and MAG binding .",
      "object-meta":{
        "component":"REACH",
        "object-type":"meta-info"
      }
    },
    {
      "is-hypothesis":true,
      "frame-id":"evem-PMC2173856-UAZ-r1-34-2-18",
      "text":"interaction of MAG with p75NTR",
      "arguments":[
        {
          "text":"MAG",
          "argument-type":"entity",
          "object-type":"argument",
          "index":0,
          "argument-label":"theme",
          "arg":"ment-PMC2173856-UAZ-r1-34-2-241"
        },
        {
          "text":"p75NTR",
          "argument-type":"entity",
          "object-type":"argument",
          "index":1,
          "argument-label":"theme",
          "arg":"ment-PMC2173856-UAZ-r1-34-2-242"
        }
      ],
      "type":"complex-assembly",
      "frame-type":"event-mention",
      "end-pos":{
        "reference":"pass-PMC2173856-UAZ-r1-34",
        "offset":419,
        "object-type":"relative-pos"
      },
      "object-type":"frame",
      "start-pos":{
        "reference":"pass-PMC2173856-UAZ-r1-34",
        "offset":389,
        "object-type":"relative-pos"
      },
      "sentence":"sent-PMC2173856-UAZ-r1-34-2",
      "found-by":"binding9",
      "object-meta":{
        "component":"REACH",
        "object-type":"meta-info"
      },
      "verbose-text":"However , since MAG-Fc did not precipitate recombinant p75NTR protein in our preliminary experiments ( unpublished data ) these data suggest indirect interaction of MAG with p75NTR ."
    },
    {
      "text":"interaction of p75NTR with GT1b",
      "frame-id":"evem-PMC2173856-UAZ-r1-37-17-19",
      "arguments":[
        {
          "text":"p75NTR",
          "argument-type":"entity",
          "object-type":"argument",
          "index":0,
          "argument-label":"theme",
          "arg":"ment-PMC2173856-UAZ-r1-37-17-316"
        },
        {
          "text":"GT1b",
          "argument-type":"entity",
          "object-type":"argument",
          "index":1,
          "argument-label":"theme",
          "arg":"ment-PMC2173856-UAZ-r1-37-17-317"
        }
      ],
      "type":"complex-assembly",
      "frame-type":"event-mention",
      "end-pos":{
        "reference":"pass-PMC2173856-UAZ-r1-37",
        "offset":2207,
        "object-type":"relative-pos"
      },
      "object-type":"frame",
      "start-pos":{
        "reference":"pass-PMC2173856-UAZ-r1-37",
        "offset":2176,
        "object-type":"relative-pos"
      },
      "found-by":"binding9",
      "sentence":"sent-PMC2173856-UAZ-r1-37-17",
      "verbose-text":"Finally , we assessed interaction of p75NTR with GT1b using transfected 293 cells , which express abundant GT1b on the cell surface ( unpublished data ) .",
      "object-meta":{
        "component":"REACH",
        "object-type":"meta-info"
      }
    },
    {
      "text":"GT1b binds to p75NTR",
      "frame-id":"evem-PMC2173856-UAZ-r1-37-10-20",
      "arguments":[
        {
          "text":"GT1b",
          "argument-type":"entity",
          "object-type":"argument",
          "index":0,
          "argument-label":"theme",
          "arg":"ment-PMC2173856-UAZ-r1-37-10-300"
        },
        {
          "text":"p75NTR",
          "argument-type":"entity",
          "object-type":"argument",
          "index":1,
          "argument-label":"theme",
          "arg":"ment-PMC2173856-UAZ-r1-37-10-301"
        }
      ],
      "type":"complex-assembly",
      "frame-type":"event-mention",
      "end-pos":{
        "reference":"pass-PMC2173856-UAZ-r1-37",
        "offset":1379,
        "object-type":"relative-pos"
      },
      "object-type":"frame",
      "start-pos":{
        "reference":"pass-PMC2173856-UAZ-r1-37",
        "offset":1359,
        "object-type":"relative-pos"
      },
      "found-by":"binding1b",
      "sentence":"sent-PMC2173856-UAZ-r1-37-10",
      "verbose-text":"Thus , GT1b binds to p75NTR in a manner that is SDS resistant .",
      "object-meta":{
        "component":"REACH",
        "object-type":"meta-info"
      }
    },
    {
      "text":"interaction of p75NTR with GT1b",
      "frame-id":"evem-PMC2173856-UAZ-r1-37-12-21",
      "arguments":[
        {
          "text":"p75NTR",
          "argument-type":"entity",
          "object-type":"argument",
          "index":0,
          "argument-label":"theme",
          "arg":"ment-PMC2173856-UAZ-r1-37-12-309"
        },
        {
          "text":"GT1b",
          "argument-type":"entity",
          "object-type":"argument",
          "index":1,
          "argument-label":"theme",
          "arg":"ment-PMC2173856-UAZ-r1-37-12-310"
        }
      ],
      "type":"complex-assembly",
      "frame-type":"event-mention",
      "end-pos":{
        "reference":"pass-PMC2173856-UAZ-r1-37",
        "offset":1666,
        "object-type":"relative-pos"
      },
      "object-type":"frame",
      "start-pos":{
        "reference":"pass-PMC2173856-UAZ-r1-37",
        "offset":1635,
        "object-type":"relative-pos"
      },
      "found-by":"binding9",
      "sentence":"sent-PMC2173856-UAZ-r1-37-12",
      "verbose-text":"Also , no interaction of p75NTR with GM1 was found           , demonstrating specific interaction of p75NTR with GT1b .",
      "object-meta":{
        "component":"REACH",
        "object-type":"meta-info"
      }
    },
    {
      "text":"interaction of p75NTR with GD1a",
      "frame-id":"evem-PMC2173856-UAZ-r1-37-11-22",
      "arguments":[
        {
          "text":"p75NTR",
          "argument-type":"entity",
          "object-type":"argument",
          "index":0,
          "argument-label":"theme",
          "arg":"ment-PMC2173856-UAZ-r1-37-11-305"
        },
        {
          "text":"GD1a",
          "argument-type":"entity",
          "object-type":"argument",
          "index":1,
          "argument-label":"theme",
          "arg":"ment-PMC2173856-UAZ-r1-37-11-306"
        }
      ],
      "type":"complex-assembly",
      "frame-type":"event-mention",
      "end-pos":{
        "reference":"pass-PMC2173856-UAZ-r1-37",
        "offset":1537,
        "object-type":"relative-pos"
      },
      "object-type":"frame",
      "start-pos":{
        "reference":"pass-PMC2173856-UAZ-r1-37",
        "offset":1506,
        "object-type":"relative-pos"
      },
      "found-by":"binding9",
      "sentence":"sent-PMC2173856-UAZ-r1-37-11",
      "verbose-text":"Though GD1a was also shown to associate with MAG                      , we did not see any interaction of p75NTR with GD1a           .",
      "object-meta":{
        "component":"REACH",
        "object-type":"meta-info"
      }
    },
    {
      "frame-id":"evem-PMC2173856-UAZ-r1-40-2-23",
      "text":"MAG elicits the opposite effect via p75NTR on neurons by activating RhoA",
      "arguments":[
        {
          "text":"RhoA",
          "argument-type":"entity",
          "object-type":"argument",
          "index":0,
          "argument-label":"controlled",
          "arg":"ment-PMC2173856-UAZ-r1-40-2-337"
        },
        {
          "text":"MAG",
          "argument-type":"entity",
          "object-type":"argument",
          "index":0,
          "argument-label":"controller",
          "arg":"ment-PMC2173856-UAZ-r1-40-2-335"
        }
      ],
      "type":"activation",
      "frame-type":"event-mention",
      "subtype":"positive-activation",
      "end-pos":{
        "reference":"pass-PMC2173856-UAZ-r1-40",
        "offset":583,
        "object-type":"relative-pos"
      },
      "object-type":"frame",
      "start-pos":{
        "reference":"pass-PMC2173856-UAZ-r1-40",
        "offset":511,
        "object-type":"relative-pos"
      },
      "sentence":"sent-PMC2173856-UAZ-r1-40-2",
      "found-by":"Positive_activation_syntax_1_verb",
      "object-meta":{
        "component":"REACH",
        "object-type":"meta-info"
      },
      "verbose-text":"More interestingly , neurotrophins binding to p75NTR promote axonal outgrowth of neurons presumably by inhibiting RhoA activity                         , but MAG elicits the opposite effect via p75NTR on neurons by activating RhoA ."
    },
    {
      "frame-id":"evem-PMC2173856-UAZ-r1-19-2-24",
      "text":"ADP ribosylates RhoA",
      "arguments":[
        {
          "text":"ribosylates RhoA",
          "argument-type":"event",
          "object-type":"argument",
          "index":0,
          "argument-label":"controlled",
          "arg":"evem-PMC2173856-UAZ-r1-19-2-5"
        },
        {
          "text":"ADP",
          "argument-type":"entity",
          "object-type":"argument",
          "index":0,
          "argument-label":"controller",
          "arg":"ment-PMC2173856-UAZ-r1-19-2-103"
        }
      ],
      "type":"regulation",
      "frame-type":"event-mention",
      "subtype":"positive-regulation",
      "end-pos":{
        "reference":"pass-PMC2173856-UAZ-r1-19",
        "offset":444,
        "object-type":"relative-pos"
      },
      "object-type":"frame",
      "start-pos":{
        "reference":"pass-PMC2173856-UAZ-r1-19",
        "offset":424,
        "object-type":"relative-pos"
      },
      "sentence":"sent-PMC2173856-UAZ-r1-19-2",
      "found-by":"Ribosylation_syntax_1_verb",
      "object-meta":{
        "component":"REACH",
        "object-type":"meta-info"
      },
      "verbose-text":"Thus , to examine if activation of RhoA is necessary for modification of neurite outgrowth by MAG in our system , we employed the exoenzyme C3 transferase from Clostridium botulinum , which ADP ribosylates RhoA ."
    }
  ],
  "object-type":"frame-collection",
  "object-meta":{
    "processing-end":"2015-06-14T20:56:58Z",
    "doc-id":"PMC2173856",
    "component-type":"machine",
    "component":"REACH",
    "processing-start":"2015-06-14T20:55:49Z",
    "object-type":"meta-info",
    "organization":"UAZ"
  }
}
