{
    "frames": [
        {
            "frame-id": "sent-PMC2173856-cmu-0", 
            "frame-type": "sentence", 
            "object-type": "frame", 
            "start-pos": {
                "object-type": "absolute-pos", 
                "offset": 0
            }, 
            "text": "XML Paper ( id '2173856 ' ) : 'The p75 receptor transduces the signal from myelin-associated glycoprotein to Rho '"
        }, 
        {
            "frame-id": "sent-PMC2173856-cmu-1", 
            "frame-type": "sentence", 
            "object-type": "frame", 
            "start-pos": {
                "object-type": "absolute-pos", 
                "offset": 1
            }, 
            "text": "Introduction"
        }, 
        {
            "frame-id": "sent-PMC2173856-cmu-2", 
            "frame-type": "sentence", 
            "object-type": "frame", 
            "start-pos": {
                "object-type": "absolute-pos", 
                "offset": 2
            }, 
            "text": "The neurotrophin receptor p75 ( p75NTR ) * is a membrane glycoprotein that binds to all neurotrophins identified so far ."
        }, 
        {
            "frame-id": "sent-PMC2173856-cmu-3", 
            "frame-type": "sentence", 
            "object-type": "frame", 
            "start-pos": {
                "object-type": "absolute-pos", 
                "offset": 3
            }, 
            "text": "Motor neurons in the spinal cord , most sympathetic and sensory neurons in the peripheral nervous system , and cerebellar Purkinje cells and retinal ganglion cells all express p75NTR at high levels during the outgrowth of axons ( Buck et al. , 1987 ; Ernfors et al. , 1988 ; Yan and Johnson , 1988 ; Large et al. , 1989 ; von Bartheld et al. , 1991 ) ."
        }, 
        {
            "frame-id": "sent-PMC2173856-cmu-4", 
            "frame-type": "sentence", 
            "object-type": "frame", 
            "start-pos": {
                "object-type": "absolute-pos", 
                "offset": 4
            }, 
            "text": "In dendrite-bearing neurons , p75NTR is also expressed during the time of dendritic arborization ."
        }, 
        {
            "frame-id": "sent-PMC2173856-cmu-5", 
            "frame-type": "sentence", 
            "object-type": "frame", 
            "start-pos": {
                "object-type": "absolute-pos", 
                "offset": 5
            }, 
            "text": "Some neurons markedly up-regulate p75NTR after lesion or seizure ( Ernfors et al. , 1989 ; Roux et al. , 1999 ) ."
        }, 
        {
            "frame-id": "sent-PMC2173856-cmu-6", 
            "frame-type": "sentence", 
            "object-type": "frame", 
            "start-pos": {
                "object-type": "absolute-pos", 
                "offset": 6
            }, 
            "text": "It was shown recently that the neurotrophin binding to p75NTR promoted axonal outgrowth of neurons and inactivated small GTPase RhoA ( Yamashita et al. , 1999 ) ."
        }, 
        {
            "frame-id": "sent-PMC2173856-cmu-7", 
            "frame-type": "sentence", 
            "object-type": "frame", 
            "start-pos": {
                "object-type": "absolute-pos", 
                "offset": 7
            }, 
            "text": "The link between p75NTR and RhoA seems to be functionally relevant , since the modulation of neurite outgrowth in p75NTR-expressing neurons by neurotrophins mimics the results obtained after RhoA inactivation ."
        }, 
        {
            "frame-id": "sent-PMC2173856-cmu-8", 
            "frame-type": "sentence", 
            "object-type": "frame", 
            "start-pos": {
                "object-type": "absolute-pos", 
                "offset": 8
            }, 
            "text": "Myelin-associated glycoprotein ( MAG ) is a well-characterized component of both the central nervous system and the peripheral nervous system myelin and is a potent inhibitor of axonal regeneration ( McKerracher et al. , 1994 ; Mukhopadhyay et al. , 1994 ) ."
        }, 
        {
            "frame-id": "sent-PMC2173856-cmu-9", 
            "frame-type": "sentence", 
            "object-type": "frame", 
            "start-pos": {
                "object-type": "absolute-pos", 
                "offset": 9
            }, 
            "text": "It inhibits axonal outgrowth from adult dorsal root ganglion ( DRG ) and in postnatal ages of cerebellar , retinal , spinal , hippocampal , and superior cervical ganglion neurons ."
        }, 
        {
            "frame-id": "sent-PMC2173856-cmu-10", 
            "frame-type": "sentence", 
            "object-type": "frame", 
            "start-pos": {
                "object-type": "absolute-pos", 
                "offset": 10
            }, 
            "text": "Although the molecular mechanism of action of MAG on neurons or the receptor that transmits the signals remained to be established , neurite growth inhibition by MAG is blocked if neurons are exposed to neurotrophins before encountering the inhibitor ( Cai et al. , 1999 ) ."
        }, 
        {
            "frame-id": "sent-PMC2173856-cmu-11", 
            "frame-type": "sentence", 
            "object-type": "frame", 
            "start-pos": {
                "object-type": "absolute-pos", 
                "offset": 11
            }, 
            "text": "We attempted to ask if p75NTR had some roles in transducing the inhibitory signals of MAG in neurons ."
        }, 
        {
            "frame-id": "sent-PMC2173856-cmu-12", 
            "frame-type": "sentence", 
            "object-type": "frame", 
            "start-pos": {
                "object-type": "absolute-pos", 
                "offset": 12
            }, 
            "text": "The results we obtained were surprising , since p75NTR itself turned out to be a signal transducing element for MAG and neurotrophins ."
        }, 
        {
            "frame-id": "sent-PMC2173856-cmu-13", 
            "frame-type": "sentence", 
            "object-type": "frame", 
            "start-pos": {
                "object-type": "absolute-pos", 
                "offset": 13
            }, 
            "text": "Association of p75NTR with ganglioside GT1b is also shown to provide a possible link between MAG and p75NTR ."
        }, 
        {
            "frame-id": "sent-PMC2173856-cmu-14", 
            "frame-type": "sentence", 
            "object-type": "frame", 
            "start-pos": {
                "object-type": "absolute-pos", 
                "offset": 14
            }, 
            "text": "Results and discussion"
        }, 
        {
            "frame-id": "sent-PMC2173856-cmu-15", 
            "frame-type": "sentence", 
            "object-type": "frame", 
            "start-pos": {
                "object-type": "absolute-pos", 
                "offset": 15
            }, 
            "text": "Inhibition of neurite outgrowth is dependent on p75NTR"
        }, 
        {
            "frame-id": "sent-PMC2173856-cmu-16", 
            "frame-type": "sentence", 
            "object-type": "frame", 
            "start-pos": {
                "object-type": "absolute-pos", 
                "offset": 16
            }, 
            "text": "We first asked if p75NTR was associated with the effects of MAG on neurons ."
        }, 
        {
            "frame-id": "sent-PMC2173856-cmu-17", 
            "frame-type": "sentence", 
            "object-type": "frame", 
            "start-pos": {
                "object-type": "absolute-pos", 
                "offset": 17
            }, 
            "text": "Neurite outgrowth of adult DRG neurons from mice carrying a mutation in the p75NTR gene ( Lee et al. , 1992 ) or wild-type mice was examined ."
        }, 
        {
            "frame-id": "sent-PMC2173856-cmu-18", 
            "frame-type": "sentence", 
            "object-type": "frame", 
            "start-pos": {
                "object-type": "absolute-pos", 
                "offset": 18
            }, 
            "text": "A soluble chimeric form of MAG , consisting of the extracellular domain of MAG fused to the Fc region of human IgG ( MAG\u2013Fc ) , was used ."
        }, 
        {
            "frame-id": "sent-PMC2173856-cmu-19", 
            "frame-type": "sentence", 
            "object-type": "frame", 
            "start-pos": {
                "object-type": "absolute-pos", 
                "offset": 19
            }, 
            "text": "It was shown that soluble MAG , released in abundance from myelin and found in vivo , and MAG\u2013Fc could potently inhibit axonal growth ( Tang et al. , 1997a , b ) ."
        }, 
        {
            "frame-id": "sent-PMC2173856-cmu-20", 
            "frame-type": "sentence", 
            "object-type": "frame", 
            "start-pos": {
                "object-type": "absolute-pos", 
                "offset": 20
            }, 
            "text": "We compared the neurite length between MAG-treated and MAG-untreated neurons ."
        }, 
        {
            "frame-id": "sent-PMC2173856-cmu-21", 
            "frame-type": "sentence", 
            "object-type": "frame", 
            "start-pos": {
                "object-type": "absolute-pos", 
                "offset": 21
            }, 
            "text": "MAG\u2013Fc at the concentration of 25 \u03bcg/ml inhibited neurite outgrowth of DRG neurons from adult wild-type mice ( Fig ."
        }, 
        {
            "frame-id": "sent-PMC2173856-cmu-22", 
            "frame-type": "sentence", 
            "object-type": "frame", 
            "start-pos": {
                "object-type": "absolute-pos", 
                "offset": 22
            }, 
            "text": "1 , A and B ) ."
        }, 
        {
            "frame-id": "sent-PMC2173856-cmu-23", 
            "frame-type": "sentence", 
            "object-type": "frame", 
            "start-pos": {
                "object-type": "absolute-pos", 
                "offset": 23
            }, 
            "text": "Fc had no effect on the neurons ( unpublished data ) ."
        }, 
        {
            "frame-id": "sent-PMC2173856-cmu-24", 
            "frame-type": "sentence", 
            "object-type": "frame", 
            "start-pos": {
                "object-type": "absolute-pos", 
                "offset": 24
            }, 
            "text": "Interestingly , the inhibitory effect of MAG could not be observed in DRG neurons from adult mice carrying a mutation in the p75NTR gene ."
        }, 
        {
            "frame-id": "sent-PMC2173856-cmu-25", 
            "frame-type": "sentence", 
            "object-type": "frame", 
            "start-pos": {
                "object-type": "absolute-pos", 
                "offset": 25
            }, 
            "text": "Exactly the same results were obtained whether total process outgrowth or length of the longest neurite was measured ( unpublished data ) ."
        }, 
        {
            "frame-id": "sent-PMC2173856-cmu-26", 
            "frame-type": "sentence", 
            "object-type": "frame", 
            "start-pos": {
                "object-type": "absolute-pos", 
                "offset": 26
            }, 
            "text": "Similar experiments with postnatal cerebellar neurons were performed ."
        }, 
        {
            "frame-id": "sent-PMC2173856-cmu-27", 
            "frame-type": "sentence", 
            "object-type": "frame", 
            "start-pos": {
                "object-type": "absolute-pos", 
                "offset": 27
            }, 
            "text": "At a concentration of 25 \u03bcg/ml of MAG\u2013Fc , neurite growth was significantly inhibited when cerebellar neurons from P9 wild-type mice were used ( Fig ."
        }, 
        {
            "frame-id": "sent-PMC2173856-cmu-28", 
            "frame-type": "sentence", 
            "object-type": "frame", 
            "start-pos": {
                "object-type": "absolute-pos", 
                "offset": 28
            }, 
            "text": "1 C ) ."
        }, 
        {
            "frame-id": "sent-PMC2173856-cmu-29", 
            "frame-type": "sentence", 
            "object-type": "frame", 
            "start-pos": {
                "object-type": "absolute-pos", 
                "offset": 29
            }, 
            "text": "Again , no inhibition by MAG was observed in the neurons from P9 mice carrying a mutation in the p75NTR gene ."
        }, 
        {
            "frame-id": "sent-PMC2173856-cmu-30", 
            "frame-type": "sentence", 
            "object-type": "frame", 
            "start-pos": {
                "object-type": "absolute-pos", 
                "offset": 30
            }, 
            "text": "These results suggest that MAG inhibits neurite outgrowth by a p75NTR-dependent mechanism ."
        }, 
        {
            "frame-id": "sent-PMC2173856-cmu-31", 
            "frame-type": "sentence", 
            "object-type": "frame", 
            "start-pos": {
                "object-type": "absolute-pos", 
                "offset": 31
            }, 
            "text": "p75NTR has been shown to be required for the inhibition of axonal growth and target innervation of peripheral neurons in vivo and in vitro ( Kimpinski et al. , 1999 ; Kohn et al. , 1999 ) and for suppression of hyperinnervation of cholinergic neurons in vivo ( Yeo et al ."
        }, 
        {
            "frame-id": "sent-PMC2173856-cmu-32", 
            "frame-type": "sentence", 
            "object-type": "frame", 
            "start-pos": {
                "object-type": "absolute-pos", 
                "offset": 32
            }, 
            "text": "1997 ) ."
        }, 
        {
            "frame-id": "sent-PMC2173856-cmu-33", 
            "frame-type": "sentence", 
            "object-type": "frame", 
            "start-pos": {
                "object-type": "absolute-pos", 
                "offset": 33
            }, 
            "text": "It was reported recently that the growth of sympathetic axons within the myelinated portions of the cerebellum was greater in NGF transgenic mice lacking expression of p75NTR compared with those expressing p75NTR in vivo ( Walsh et al. , 1999 ) ."
        }, 
        {
            "frame-id": "sent-PMC2173856-cmu-34", 
            "frame-type": "sentence", 
            "object-type": "frame", 
            "start-pos": {
                "object-type": "absolute-pos", 
                "offset": 34
            }, 
            "text": "It may be a relevant finding supporting our data , since neurons carrying a mutation in the p75NTR gene are suggested to be refractory to inhibitory factors ."
        }, 
        {
            "frame-id": "sent-PMC2173856-cmu-35", 
            "frame-type": "sentence", 
            "object-type": "frame", 
            "start-pos": {
                "object-type": "absolute-pos", 
                "offset": 35
            }, 
            "text": "Signaling mechanisms of MAG on the neurons"
        }, 
        {
            "frame-id": "sent-PMC2173856-cmu-36", 
            "frame-type": "sentence", 
            "object-type": "frame", 
            "start-pos": {
                "object-type": "absolute-pos", 
                "offset": 36
            }, 
            "text": "Some neurons extend neurites rapidly when RhoA is inactivated , and neurite retraction occurs when RhoA is active ( Davies , 2000 ) ."
        }, 
        {
            "frame-id": "sent-PMC2173856-cmu-37", 
            "frame-type": "sentence", 
            "object-type": "frame", 
            "start-pos": {
                "object-type": "absolute-pos", 
                "offset": 37
            }, 
            "text": "Previous study shows that inactivation of RhoA promoted axonal regeneration in vivo ( Lehmann et al. , 1999 ) ."
        }, 
        {
            "frame-id": "sent-PMC2173856-cmu-38", 
            "frame-type": "sentence", 
            "object-type": "frame", 
            "start-pos": {
                "object-type": "absolute-pos", 
                "offset": 38
            }, 
            "text": "Thus , to examine if activation of RhoA is necessary for modification of neurite outgrowth by MAG in our system , we employed the exoenzyme C3 transferase from Clostridium botulinum , which ADP ribosylates RhoA ."
        }, 
        {
            "frame-id": "sent-PMC2173856-cmu-39", 
            "frame-type": "sentence", 
            "object-type": "frame", 
            "start-pos": {
                "object-type": "absolute-pos", 
                "offset": 39
            }, 
            "text": "The recombinant C3 transferase was introduced into the cytoplasm of DRG neurons by trituration ."
        }, 
        {
            "frame-id": "sent-PMC2173856-cmu-40", 
            "frame-type": "sentence", 
            "object-type": "frame", 
            "start-pos": {
                "object-type": "absolute-pos", 
                "offset": 40
            }, 
            "text": "The C3 transferase completely abolished the effect of MAG on DRG neurons from wild-type mice ( Fig ."
        }, 
        {
            "frame-id": "sent-PMC2173856-cmu-41", 
            "frame-type": "sentence", 
            "object-type": "frame", 
            "start-pos": {
                "object-type": "absolute-pos", 
                "offset": 41
            }, 
            "text": "2 A ) ."
        }, 
        {
            "frame-id": "sent-PMC2173856-cmu-42", 
            "frame-type": "sentence", 
            "object-type": "frame", 
            "start-pos": {
                "object-type": "absolute-pos", 
                "offset": 42
            }, 
            "text": "These data are consistent with the previous report , suggesting RhoA is on the pathway of MAG signaling ( Lehmann et al. , 1999 ) ."
        }, 
        {
            "frame-id": "sent-PMC2173856-cmu-43", 
            "frame-type": "sentence", 
            "object-type": "frame", 
            "start-pos": {
                "object-type": "absolute-pos", 
                "offset": 43
            }, 
            "text": "The next hypothesis tested was that MAG regulates RhoA activity by a p75NTR-dependent mechanism ."
        }, 
        {
            "frame-id": "sent-PMC2173856-cmu-44", 
            "frame-type": "sentence", 
            "object-type": "frame", 
            "start-pos": {
                "object-type": "absolute-pos", 
                "offset": 44
            }, 
            "text": "293 cells , which express no p75NTR endogenously , were used as binding of MAG\u2013Fc to the cell surface was diffusely observed ( Fig ."
        }, 
        {
            "frame-id": "sent-PMC2173856-cmu-45", 
            "frame-type": "sentence", 
            "object-type": "frame", 
            "start-pos": {
                "object-type": "absolute-pos", 
                "offset": 45
            }, 
            "text": "2 B ) ."
        }, 
        {
            "frame-id": "sent-PMC2173856-cmu-46", 
            "frame-type": "sentence", 
            "object-type": "frame", 
            "start-pos": {
                "object-type": "absolute-pos", 
                "offset": 46
            }, 
            "text": "Using the RhoA-binding domain of the effector protein Rhotekin ( Ren et al. , 1999 ) , the GTP-bound form of RhoA can be affinity precipitated ."
        }, 
        {
            "frame-id": "sent-PMC2173856-cmu-47", 
            "frame-type": "sentence", 
            "object-type": "frame", 
            "start-pos": {
                "object-type": "absolute-pos", 
                "offset": 47
            }, 
            "text": "The direct measurement of RhoA activity in the cells can be done using this method ."
        }, 
        {
            "frame-id": "sent-PMC2173856-cmu-48", 
            "frame-type": "sentence", 
            "object-type": "frame", 
            "start-pos": {
                "object-type": "absolute-pos", 
                "offset": 48
            }, 
            "text": "The assay revealed that within 30 min after the addition of soluble MAG ( 25 \u03bcg/ml ) extracts of 293 cells transfected with p75NTR and RhoA contained dramatically increased amounts of GTP\u2013RhoA compared with the control ( Fig ."
        }, 
        {
            "frame-id": "sent-PMC2173856-cmu-49", 
            "frame-type": "sentence", 
            "object-type": "frame", 
            "start-pos": {
                "object-type": "absolute-pos", 
                "offset": 49
            }, 
            "text": "2 C ) , though no change in the activity was observed by the addition of Fc ( unpublished data ) ."
        }, 
        {
            "frame-id": "sent-PMC2173856-cmu-50", 
            "frame-type": "sentence", 
            "object-type": "frame", 
            "start-pos": {
                "object-type": "absolute-pos", 
                "offset": 50
            }, 
            "text": "However , no increase in GTP\u2013RhoA content was observed in the cells untransfected with p75NTR by the addition of MAG\u2013Fc ( Fig ."
        }, 
        {
            "frame-id": "sent-PMC2173856-cmu-51", 
            "frame-type": "sentence", 
            "object-type": "frame", 
            "start-pos": {
                "object-type": "absolute-pos", 
                "offset": 51
            }, 
            "text": "2 C ) ."
        }, 
        {
            "frame-id": "sent-PMC2173856-cmu-52", 
            "frame-type": "sentence", 
            "object-type": "frame", 
            "start-pos": {
                "object-type": "absolute-pos", 
                "offset": 52
            }, 
            "text": "Regulation of RhoA activity when the proteins are artificially expressed may be difficult to detect in natural cells ."
        }, 
        {
            "frame-id": "sent-PMC2173856-cmu-53", 
            "frame-type": "sentence", 
            "object-type": "frame", 
            "start-pos": {
                "object-type": "absolute-pos", 
                "offset": 53
            }, 
            "text": "Therefore , to see if RhoA activity is regulated by MAG in the cells expressing endogenous p75NTR postnatal cerebellar granule neurons were used , since these neurons also are sensitive to MAG with regard to neurite outgrowth ."
        }, 
        {
            "frame-id": "sent-PMC2173856-cmu-54", 
            "frame-type": "sentence", 
            "object-type": "frame", 
            "start-pos": {
                "object-type": "absolute-pos", 
                "offset": 54
            }, 
            "text": "Consistent with the observation in transfected 293 cells , MAG\u2013Fc activates RhoA in cerebellar granule neurons from wild-type mice ( P9 ) , which express abundant p75NTR ( Fig ."
        }, 
        {
            "frame-id": "sent-PMC2173856-cmu-55", 
            "frame-type": "sentence", 
            "object-type": "frame", 
            "start-pos": {
                "object-type": "absolute-pos", 
                "offset": 55
            }, 
            "text": "3 A ) ."
        }, 
        {
            "frame-id": "sent-PMC2173856-cmu-56", 
            "frame-type": "sentence", 
            "object-type": "frame", 
            "start-pos": {
                "object-type": "absolute-pos", 
                "offset": 56
            }, 
            "text": "This rapid activation was in contrast with the effect of NGF on the neurons , which is also mediated by p75NTR , since they do n't express trkA ( Fig ."
        }, 
        {
            "frame-id": "sent-PMC2173856-cmu-57", 
            "frame-type": "sentence", 
            "object-type": "frame", 
            "start-pos": {
                "object-type": "absolute-pos", 
                "offset": 57
            }, 
            "text": "3 B ) ."
        }, 
        {
            "frame-id": "sent-PMC2173856-cmu-58", 
            "frame-type": "sentence", 
            "object-type": "frame", 
            "start-pos": {
                "object-type": "absolute-pos", 
                "offset": 58
            }, 
            "text": "RhoA activity ( Fig ."
        }, 
        {
            "frame-id": "sent-PMC2173856-cmu-59", 
            "frame-type": "sentence", 
            "object-type": "frame", 
            "start-pos": {
                "object-type": "absolute-pos", 
                "offset": 59
            }, 
            "text": "3 C ) and the effect of MAG on neurite outgrowth ( unpublished data ) seem to be saturated by MAG at the concentration of 25 \u03bcg/ml ."
        }, 
        {
            "frame-id": "sent-PMC2173856-cmu-60", 
            "frame-type": "sentence", 
            "object-type": "frame", 
            "start-pos": {
                "object-type": "absolute-pos", 
                "offset": 60
            }, 
            "text": "Activation of RhoA by MAG was lost in the neurons from mice carrying a mutation in the p75NTR gene ( Fig ."
        }, 
        {
            "frame-id": "sent-PMC2173856-cmu-61", 
            "frame-type": "sentence", 
            "object-type": "frame", 
            "start-pos": {
                "object-type": "absolute-pos", 
                "offset": 61
            }, 
            "text": "3 D ) ."
        }, 
        {
            "frame-id": "sent-PMC2173856-cmu-62", 
            "frame-type": "sentence", 
            "object-type": "frame", 
            "start-pos": {
                "object-type": "absolute-pos", 
                "offset": 62
            }, 
            "text": "These data demonstrate that MAG activates RhoA by a p75NTR-dependent mechanism , thus inhibiting neurite outgrowth of postnatal cerebellar granule neurons ."
        }, 
        {
            "frame-id": "sent-PMC2173856-cmu-63", 
            "frame-type": "sentence", 
            "object-type": "frame", 
            "start-pos": {
                "object-type": "absolute-pos", 
                "offset": 63
            }, 
            "text": "Only the wild type of RhoA , which is predominantly in a GDP-bound form , but not the constitutive active form of RhoA , interacts with p75NTR ( Yamashita et al. , 1999 ) ."
        }, 
        {
            "frame-id": "sent-PMC2173856-cmu-64", 
            "frame-type": "sentence", 
            "object-type": "frame", 
            "start-pos": {
                "object-type": "absolute-pos", 
                "offset": 64
            }, 
            "text": "In transfected cells , overexpression of p75NTR activated RhoA in a neurotrophin-independent manner ."
        }, 
        {
            "frame-id": "sent-PMC2173856-cmu-65", 
            "frame-type": "sentence", 
            "object-type": "frame", 
            "start-pos": {
                "object-type": "absolute-pos", 
                "offset": 65
            }, 
            "text": "Therefore , the GDP-bound form of RhoA may interact with the p75NTR helical domain to be activated after exposure to MAG ."
        }, 
        {
            "frame-id": "sent-PMC2173856-cmu-66", 
            "frame-type": "sentence", 
            "object-type": "frame", 
            "start-pos": {
                "object-type": "absolute-pos", 
                "offset": 66
            }, 
            "text": "More detailed structure-function analyses of p75NTR should help to elucidate the precise mechanism of regulation of RhoA activity by p75NTR ."
        }, 
        {
            "frame-id": "sent-PMC2173856-cmu-67", 
            "frame-type": "sentence", 
            "object-type": "frame", 
            "start-pos": {
                "object-type": "absolute-pos", 
                "offset": 67
            }, 
            "text": "Colocalization of p75NTR and MAG binding"
        }, 
        {
            "frame-id": "sent-PMC2173856-cmu-68", 
            "frame-type": "sentence", 
            "object-type": "frame", 
            "start-pos": {
                "object-type": "absolute-pos", 
                "offset": 68
            }, 
            "text": "MAG binds to neurons in a sialic acid\u2013dependent manner , but MAG 's sialic acid binding site is distinct from its neurite inhibitory activity ."
        }, 
        {
            "frame-id": "sent-PMC2173856-cmu-69", 
            "frame-type": "sentence", 
            "object-type": "frame", 
            "start-pos": {
                "object-type": "absolute-pos", 
                "offset": 69
            }, 
            "text": "The sialic acid\u2013dependent binding to MAG is not sufficient or necessary for MAG 's inhibitory effect ( Tang et al. , 1997a ) ."
        }, 
        {
            "frame-id": "sent-PMC2173856-cmu-70", 
            "frame-type": "sentence", 
            "object-type": "frame", 
            "start-pos": {
                "object-type": "absolute-pos", 
                "offset": 70
            }, 
            "text": "Therefore , it is possible that the binding partner and the signal transducing element for MAG may form a receptor complex ."
        }, 
        {
            "frame-id": "sent-PMC2173856-cmu-71", 
            "frame-type": "sentence", 
            "object-type": "frame", 
            "start-pos": {
                "object-type": "absolute-pos", 
                "offset": 71
            }, 
            "text": "We assumed that the binding partner for MAG and p75NTR might interact in a cis manner ."
        }, 
        {
            "frame-id": "sent-PMC2173856-cmu-72", 
            "frame-type": "sentence", 
            "object-type": "frame", 
            "start-pos": {
                "object-type": "absolute-pos", 
                "offset": 72
            }, 
            "text": "To test this hypothesis , the localization of p75NTR and MAG binding was assessed on the subcellular level ."
        }, 
        {
            "frame-id": "sent-PMC2173856-cmu-73", 
            "frame-type": "sentence", 
            "object-type": "frame", 
            "start-pos": {
                "object-type": "absolute-pos", 
                "offset": 73
            }, 
            "text": "Binding of MAG\u2013Fc was visualized by incubation with a fluorescent-tagged anti\u2013human IgG ."
        }, 
        {
            "frame-id": "sent-PMC2173856-cmu-74", 
            "frame-type": "sentence", 
            "object-type": "frame", 
            "start-pos": {
                "object-type": "absolute-pos", 
                "offset": 74
            }, 
            "text": "Fig ."
        }, 
        {
            "frame-id": "sent-PMC2173856-cmu-75", 
            "frame-type": "sentence", 
            "object-type": "frame", 
            "start-pos": {
                "object-type": "absolute-pos", 
                "offset": 75
            }, 
            "text": "4 shows binding of MAG\u2013Fc to adult DRG neurons using confocal laser microscopy ."
        }, 
        {
            "frame-id": "sent-PMC2173856-cmu-76", 
            "frame-type": "sentence", 
            "object-type": "frame", 
            "start-pos": {
                "object-type": "absolute-pos", 
                "offset": 76
            }, 
            "text": "MAG\u2013Fc binding appears punctate ."
        }, 
        {
            "frame-id": "sent-PMC2173856-cmu-77", 
            "frame-type": "sentence", 
            "object-type": "frame", 
            "start-pos": {
                "object-type": "absolute-pos", 
                "offset": 77
            }, 
            "text": "The same cells were stained with an anti-p75NTR antibody , and the distribution was assessed ."
        }, 
        {
            "frame-id": "sent-PMC2173856-cmu-78", 
            "frame-type": "sentence", 
            "object-type": "frame", 
            "start-pos": {
                "object-type": "absolute-pos", 
                "offset": 78
            }, 
            "text": "p75NTR expression on the cell body was rather diffuse but that on the neurites showed fine speckled staining ( Fig ."
        }, 
        {
            "frame-id": "sent-PMC2173856-cmu-79", 
            "frame-type": "sentence", 
            "object-type": "frame", 
            "start-pos": {
                "object-type": "absolute-pos", 
                "offset": 79
            }, 
            "text": "4 A , top ) ."
        }, 
        {
            "frame-id": "sent-PMC2173856-cmu-80", 
            "frame-type": "sentence", 
            "object-type": "frame", 
            "start-pos": {
                "object-type": "absolute-pos", 
                "offset": 80
            }, 
            "text": "The vast majority of puncta for p75NTR immunoreactivity was colocalized with MAG binding ."
        }, 
        {
            "frame-id": "sent-PMC2173856-cmu-81", 
            "frame-type": "sentence", 
            "object-type": "frame", 
            "start-pos": {
                "object-type": "absolute-pos", 
                "offset": 81
            }, 
            "text": "At high magnification , the colocalization was evident by the similar distribution of hot spots on the neuritic plasma membrane ( Fig ."
        }, 
        {
            "frame-id": "sent-PMC2173856-cmu-82", 
            "frame-type": "sentence", 
            "object-type": "frame", 
            "start-pos": {
                "object-type": "absolute-pos", 
                "offset": 82
            }, 
            "text": "4 A , bottom ) ."
        }, 
        {
            "frame-id": "sent-PMC2173856-cmu-83", 
            "frame-type": "sentence", 
            "object-type": "frame", 
            "start-pos": {
                "object-type": "absolute-pos", 
                "offset": 83
            }, 
            "text": "Binding of MAG\u2013Fc was still observed in DRG neurons from mice carrying a mutation in the p75NTR gene ( Fig ."
        }, 
        {
            "frame-id": "sent-PMC2173856-cmu-84", 
            "frame-type": "sentence", 
            "object-type": "frame", 
            "start-pos": {
                "object-type": "absolute-pos", 
                "offset": 84
            }, 
            "text": "4 B ) ."
        }, 
        {
            "frame-id": "sent-PMC2173856-cmu-85", 
            "frame-type": "sentence", 
            "object-type": "frame", 
            "start-pos": {
                "object-type": "absolute-pos", 
                "offset": 85
            }, 
            "text": "These data demonstrate that the p75NTR and MAG binding colocalize ."
        }, 
        {
            "frame-id": "sent-PMC2173856-cmu-86", 
            "frame-type": "sentence", 
            "object-type": "frame", 
            "start-pos": {
                "object-type": "absolute-pos", 
                "offset": 86
            }, 
            "text": "p75NTR binds to ganglioside GT1b"
        }, 
        {
            "frame-id": "sent-PMC2173856-cmu-87", 
            "frame-type": "sentence", 
            "object-type": "frame", 
            "start-pos": {
                "object-type": "absolute-pos", 
                "offset": 87
            }, 
            "text": "We next examined interaction of endogenous p75NTR and MAG using lysates prepared from postnatal cerebellum from mice ."
        }, 
        {
            "frame-id": "sent-PMC2173856-cmu-88", 
            "frame-type": "sentence", 
            "object-type": "frame", 
            "start-pos": {
                "object-type": "absolute-pos", 
                "offset": 88
            }, 
            "text": "In the MAG\u2013Fc precipitates , the anti-p75NTR antibody revealed the presence of a protein corresponding to p75NTR ( Fig ."
        }, 
        {
            "frame-id": "sent-PMC2173856-cmu-89", 
            "frame-type": "sentence", 
            "object-type": "frame", 
            "start-pos": {
                "object-type": "absolute-pos", 
                "offset": 89
            }, 
            "text": "5 A ) ."
        }, 
        {
            "frame-id": "sent-PMC2173856-cmu-90", 
            "frame-type": "sentence", 
            "object-type": "frame", 
            "start-pos": {
                "object-type": "absolute-pos", 
                "offset": 90
            }, 
            "text": "However , since MAG\u2013Fc did not precipitate recombinant p75NTR protein in our preliminary experiments ( unpublished data ) these data suggest indirect interaction of MAG with p75NTR ."
        }, 
        {
            "frame-id": "sent-PMC2173856-cmu-91", 
            "frame-type": "sentence", 
            "object-type": "frame", 
            "start-pos": {
                "object-type": "absolute-pos", 
                "offset": 91
            }, 
            "text": "Thus , p75NTR may not be the binding partner but it may be signal-transducing element ."
        }, 
        {
            "frame-id": "sent-PMC2173856-cmu-92", 
            "frame-type": "sentence", 
            "object-type": "frame", 
            "start-pos": {
                "object-type": "absolute-pos", 
                "offset": 92
            }, 
            "text": "MAG binds to specific sialylated glycans and gangliosides present on the cell surface of neurons ."
        }, 
        {
            "frame-id": "sent-PMC2173856-cmu-93", 
            "frame-type": "sentence", 
            "object-type": "frame", 
            "start-pos": {
                "object-type": "absolute-pos", 
                "offset": 93
            }, 
            "text": "The ability of MAG to bind specific gangliosides bearing terminal \u03b1-2\u20133\u2013linked sialic acid has been well documented ( Yang et al. , 1996 ) ."
        }, 
        {
            "frame-id": "sent-PMC2173856-cmu-94", 
            "frame-type": "sentence", 
            "object-type": "frame", 
            "start-pos": {
                "object-type": "absolute-pos", 
                "offset": 94
            }, 
            "text": "MAG was shown to bind GT1b and GD1a and the \u03b1-series gangliosides , and antibody cross-linking of cell surface GT1b , but not GD1a , mimics the effect of MAG ( Vinson et al. , 2001 ) ."
        }, 
        {
            "frame-id": "sent-PMC2173856-cmu-95", 
            "frame-type": "sentence", 
            "object-type": "frame", 
            "start-pos": {
                "object-type": "absolute-pos", 
                "offset": 95
            }, 
            "text": "The pathological features of the nervous system of the complex ganglioside knockout mice closely resemble those reported in mice with a disrupted gene for MAG ( Sheikh et al. , 1999 ) ."
        }, 
        {
            "frame-id": "sent-PMC2173856-cmu-96", 
            "frame-type": "sentence", 
            "object-type": "frame", 
            "start-pos": {
                "object-type": "absolute-pos", 
                "offset": 96
            }, 
            "text": "These data prompted us to examine association of p75NTR with these gangliosides , assuming that p75NTR and gangliosides form a receptor complex for MAG ."
        }, 
        {
            "frame-id": "sent-PMC2173856-cmu-97", 
            "frame-type": "sentence", 
            "object-type": "frame", 
            "start-pos": {
                "object-type": "absolute-pos", 
                "offset": 97
            }, 
            "text": "Recombinant p75NTR extracellular domain fused to Fc purified from Sf21 cells was used to precipitate gangliosides ."
        }, 
        {
            "frame-id": "sent-PMC2173856-cmu-98", 
            "frame-type": "sentence", 
            "object-type": "frame", 
            "start-pos": {
                "object-type": "absolute-pos", 
                "offset": 98
            }, 
            "text": "In the p75NTR precipitates , the anti-GT1b antibody revealed the presence of an \u223c100-kD band ( Fig ."
        }, 
        {
            "frame-id": "sent-PMC2173856-cmu-99", 
            "frame-type": "sentence", 
            "object-type": "frame", 
            "start-pos": {
                "object-type": "absolute-pos", 
                "offset": 99
            }, 
            "text": "5 B , left ) ."
        }, 
        {
            "frame-id": "sent-PMC2173856-cmu-100", 
            "frame-type": "sentence", 
            "object-type": "frame", 
            "start-pos": {
                "object-type": "absolute-pos", 
                "offset": 100
            }, 
            "text": "To confirm the positive band to be p75NTR , anti-GT1b antibody was stripped from the membrane , and the membrane was reprobed with the anti-p75NTR antibody ."
        }, 
        {
            "frame-id": "sent-PMC2173856-cmu-101", 
            "frame-type": "sentence", 
            "object-type": "frame", 
            "start-pos": {
                "object-type": "absolute-pos", 
                "offset": 101
            }, 
            "text": "The results showed the positive band to be p75NTR ( Fig ."
        }, 
        {
            "frame-id": "sent-PMC2173856-cmu-102", 
            "frame-type": "sentence", 
            "object-type": "frame", 
            "start-pos": {
                "object-type": "absolute-pos", 
                "offset": 102
            }, 
            "text": "5 B , right ) ."
        }, 
        {
            "frame-id": "sent-PMC2173856-cmu-103", 
            "frame-type": "sentence", 
            "object-type": "frame", 
            "start-pos": {
                "object-type": "absolute-pos", 
                "offset": 103
            }, 
            "text": "It is not a nonspecific interaction of GT1b , since association of extracellular domain of EGF receptor and GT1b was not observed ( unpublished data ) ."
        }, 
        {
            "frame-id": "sent-PMC2173856-cmu-104", 
            "frame-type": "sentence", 
            "object-type": "frame", 
            "start-pos": {
                "object-type": "absolute-pos", 
                "offset": 104
            }, 
            "text": "Thus , GT1b binds to p75NTR in a manner that is SDS resistant ."
        }, 
        {
            "frame-id": "sent-PMC2173856-cmu-105", 
            "frame-type": "sentence", 
            "object-type": "frame", 
            "start-pos": {
                "object-type": "absolute-pos", 
                "offset": 105
            }, 
            "text": "Though GD1a was also shown to associate with MAG ( Vinson et al. , 2001 ) , we did not see any interaction of p75NTR with GD1a ( Fig ."
        }, 
        {
            "frame-id": "sent-PMC2173856-cmu-106", 
            "frame-type": "sentence", 
            "object-type": "frame", 
            "start-pos": {
                "object-type": "absolute-pos", 
                "offset": 106
            }, 
            "text": "5 C ) ."
        }, 
        {
            "frame-id": "sent-PMC2173856-cmu-107", 
            "frame-type": "sentence", 
            "object-type": "frame", 
            "start-pos": {
                "object-type": "absolute-pos", 
                "offset": 107
            }, 
            "text": "Also , no interaction of p75NTR with GM1 was found ( Fig ."
        }, 
        {
            "frame-id": "sent-PMC2173856-cmu-108", 
            "frame-type": "sentence", 
            "object-type": "frame", 
            "start-pos": {
                "object-type": "absolute-pos", 
                "offset": 108
            }, 
            "text": "5 C ) , demonstrating specific interaction of p75NTR with GT1b ."
        }, 
        {
            "frame-id": "sent-PMC2173856-cmu-109", 
            "frame-type": "sentence", 
            "object-type": "frame", 
            "start-pos": {
                "object-type": "absolute-pos", 
                "offset": 109
            }, 
            "text": "Using an anti-GT1b antibody , we examined interaction of endogenous p75NTR and GT1b using lysates prepared from postnatal cerebellum from mice ."
        }, 
        {
            "frame-id": "sent-PMC2173856-cmu-110", 
            "frame-type": "sentence", 
            "object-type": "frame", 
            "start-pos": {
                "object-type": "absolute-pos", 
                "offset": 110
            }, 
            "text": "Immunocytochemistry using the antibody confirmed the expression of GT1b on the surface of these neurons ."
        }, 
        {
            "frame-id": "sent-PMC2173856-cmu-111", 
            "frame-type": "sentence", 
            "object-type": "frame", 
            "start-pos": {
                "object-type": "absolute-pos", 
                "offset": 111
            }, 
            "text": "In the GT1b immunoprecipitates , the anti- p75NTR antibody revealed the presence of a protein corresponding to p75NTR ( Fig ."
        }, 
        {
            "frame-id": "sent-PMC2173856-cmu-112", 
            "frame-type": "sentence", 
            "object-type": "frame", 
            "start-pos": {
                "object-type": "absolute-pos", 
                "offset": 112
            }, 
            "text": "5 D ) ."
        }, 
        {
            "frame-id": "sent-PMC2173856-cmu-113", 
            "frame-type": "sentence", 
            "object-type": "frame", 
            "start-pos": {
                "object-type": "absolute-pos", 
                "offset": 113
            }, 
            "text": "Preincubation of anti-GT1b antibody with synthetic GT1b abolished the detection of p75NTR ( unpublished data ) ."
        }, 
        {
            "frame-id": "sent-PMC2173856-cmu-114", 
            "frame-type": "sentence", 
            "object-type": "frame", 
            "start-pos": {
                "object-type": "absolute-pos", 
                "offset": 114
            }, 
            "text": "Finally , we assessed interaction of p75NTR with GT1b using transfected 293 cells , which express abundant GT1b on the cell surface ( unpublished data ) ."
        }, 
        {
            "frame-id": "sent-PMC2173856-cmu-115", 
            "frame-type": "sentence", 
            "object-type": "frame", 
            "start-pos": {
                "object-type": "absolute-pos", 
                "offset": 115
            }, 
            "text": "As expected , immunoprecipitated p75NTR was complexed with GT1b in a SDS-resistant manner ( Fig ."
        }, 
        {
            "frame-id": "sent-PMC2173856-cmu-116", 
            "frame-type": "sentence", 
            "object-type": "frame", 
            "start-pos": {
                "object-type": "absolute-pos", 
                "offset": 116
            }, 
            "text": "5 E ) ."
        }, 
        {
            "frame-id": "sent-PMC2173856-cmu-117", 
            "frame-type": "sentence", 
            "object-type": "frame", 
            "start-pos": {
                "object-type": "absolute-pos", 
                "offset": 117
            }, 
            "text": "These data suggest that GT1b and p75NTR form a receptor complex for MAG ."
        }, 
        {
            "frame-id": "sent-PMC2173856-cmu-118", 
            "frame-type": "sentence", 
            "object-type": "frame", 
            "start-pos": {
                "object-type": "absolute-pos", 
                "offset": 118
            }, 
            "text": "Dual signals elicited by p75NTR"
        }, 
        {
            "frame-id": "sent-PMC2173856-cmu-119", 
            "frame-type": "sentence", 
            "object-type": "frame", 
            "start-pos": {
                "object-type": "absolute-pos", 
                "offset": 119
            }, 
            "text": "p75NTR has been shown to bind more than just neurotrophins , such as CRNF ( Fainzilber et al. , 1996 ) or rabies virus glycoprotein ( Tuffereau et al. , 1998 ) , but it is not known if these ligands trigger any signals through p75NTR ."
        }, 
        {
            "frame-id": "sent-PMC2173856-cmu-120", 
            "frame-type": "sentence", 
            "object-type": "frame", 
            "start-pos": {
                "object-type": "absolute-pos", 
                "offset": 120
            }, 
            "text": "Thus , our findings demonstrating that p75NTR is a signal transducer not only for neurotrophins but also for MAG is intriguing ."
        }, 
        {
            "frame-id": "sent-PMC2173856-cmu-121", 
            "frame-type": "sentence", 
            "object-type": "frame", 
            "start-pos": {
                "object-type": "absolute-pos", 
                "offset": 121
            }, 
            "text": "More interestingly , neurotrophins binding to p75NTR promote axonal outgrowth of neurons presumably by inhibiting RhoA activity ( Yamashita et al. , 1999 ) , but MAG elicits the opposite effect via p75NTR on neurons by activating RhoA ."
        }, 
        {
            "frame-id": "sent-PMC2173856-cmu-122", 
            "frame-type": "sentence", 
            "object-type": "frame", 
            "start-pos": {
                "object-type": "absolute-pos", 
                "offset": 122
            }, 
            "text": "This implies that p75NTR has dual signals as a transducing element ."
        }, 
        {
            "frame-id": "sent-PMC2173856-cmu-123", 
            "frame-type": "sentence", 
            "object-type": "frame", 
            "start-pos": {
                "object-type": "absolute-pos", 
                "offset": 123
            }, 
            "text": "It is also important to note that essentially all adult neurons are sensitive to inhibition by MAG , whereas p75NTR has a restricted distribution ."
        }, 
        {
            "frame-id": "sent-PMC2173856-cmu-124", 
            "frame-type": "sentence", 
            "object-type": "frame", 
            "start-pos": {
                "object-type": "absolute-pos", 
                "offset": 124
            }, 
            "text": "The identification and characterization of MAG signals have shed light on a previously unrecognized mechanism by which neurons respond to extracellular inhibitory molecules ."
        }, 
        {
            "frame-id": "sent-PMC2173856-cmu-125", 
            "frame-type": "sentence", 
            "object-type": "frame", 
            "start-pos": {
                "object-type": "absolute-pos", 
                "offset": 125
            }, 
            "text": "Materials and methods"
        }, 
        {
            "frame-id": "sent-PMC2173856-cmu-126", 
            "frame-type": "sentence", 
            "object-type": "frame", 
            "start-pos": {
                "object-type": "absolute-pos", 
                "offset": 126
            }, 
            "text": "Animals"
        }, 
        {
            "frame-id": "sent-PMC2173856-cmu-127", 
            "frame-type": "sentence", 
            "object-type": "frame", 
            "start-pos": {
                "object-type": "absolute-pos", 
                "offset": 127
            }, 
            "text": "The strain of mice bearing a targeted disruption of the third exon of the p75NTR gene ( Lee et al. , 1992 ) that was originally obtained from Jackson ImmunoResearch Laboratories on a C57BL/6J background was used ."
        }, 
        {
            "frame-id": "sent-PMC2173856-cmu-128", 
            "frame-type": "sentence", 
            "object-type": "frame", 
            "start-pos": {
                "object-type": "absolute-pos", 
                "offset": 128
            }, 
            "text": "Neurite outgrowth assay"
        }, 
        {
            "frame-id": "sent-PMC2173856-cmu-129", 
            "frame-type": "sentence", 
            "object-type": "frame", 
            "start-pos": {
                "object-type": "absolute-pos", 
                "offset": 129
            }, 
            "text": "DRGs were removed from adult mice and dissociated into single cells by incubation with 0.025 % trypsin and 0.15 % collagenase type I ( Sigma-Aldrich ) for 30 min at 37\u00b0C ."
        }, 
        {
            "frame-id": "sent-PMC2173856-cmu-130", 
            "frame-type": "sentence", 
            "object-type": "frame", 
            "start-pos": {
                "object-type": "absolute-pos", 
                "offset": 130
            }, 
            "text": "For cerebellar neurons , the cerebella from two animals were combined in 5 ml of 0.025 % trypsin , triturated , and incubated for 10 min at 37\u00b0C ."
        }, 
        {
            "frame-id": "sent-PMC2173856-cmu-131", 
            "frame-type": "sentence", 
            "object-type": "frame", 
            "start-pos": {
                "object-type": "absolute-pos", 
                "offset": 131
            }, 
            "text": "DME containing 10 % FCS was added , and the cells were centrifuged at 800 rpm ."
        }, 
        {
            "frame-id": "sent-PMC2173856-cmu-132", 
            "frame-type": "sentence", 
            "object-type": "frame", 
            "start-pos": {
                "object-type": "absolute-pos", 
                "offset": 132
            }, 
            "text": "Neurons were plated in Sato medium ( Cai et al. , 1999 ) on poly-l-lysine\u2013coated chamber slides ."
        }, 
        {
            "frame-id": "sent-PMC2173856-cmu-133", 
            "frame-type": "sentence", 
            "object-type": "frame", 
            "start-pos": {
                "object-type": "absolute-pos", 
                "offset": 133
            }, 
            "text": "For outgrowth assays , plated cells were incubated for 24 h , fixed in 4 % ( wt/vol ) paraformaldehyde , and immunostained with a monoclonal antibody ( TuJ1 ) recognizing the neuron-specific \u03b2\u2013tubulin III protein ."
        }, 
        {
            "frame-id": "sent-PMC2173856-cmu-134", 
            "frame-type": "sentence", 
            "object-type": "frame", 
            "start-pos": {
                "object-type": "absolute-pos", 
                "offset": 134
            }, 
            "text": "Then , the length of the longest neurite or the total process outgrowth for each \u03b2\u2013tubulin III\u2013positive neuron was determined ."
        }, 
        {
            "frame-id": "sent-PMC2173856-cmu-135", 
            "frame-type": "sentence", 
            "object-type": "frame", 
            "start-pos": {
                "object-type": "absolute-pos", 
                "offset": 135
            }, 
            "text": "Where indicated , recombinant rat MAG\u2013Fc chimera ( R & D Systems ) was added to the medium after plating ."
        }, 
        {
            "frame-id": "sent-PMC2173856-cmu-136", 
            "frame-type": "sentence", 
            "object-type": "frame", 
            "start-pos": {
                "object-type": "absolute-pos", 
                "offset": 136
            }, 
            "text": "The recombinant C3 transferase was introduced into the cytoplasm of the neurons before plating by trituration as described previously ( Borasio et al. , 1989 ) ."
        }, 
        {
            "frame-id": "sent-PMC2173856-cmu-137", 
            "frame-type": "sentence", 
            "object-type": "frame", 
            "start-pos": {
                "object-type": "absolute-pos", 
                "offset": 137
            }, 
            "text": "Affinity precipitation of GTP\u2013RhoA"
        }, 
        {
            "frame-id": "sent-PMC2173856-cmu-138", 
            "frame-type": "sentence", 
            "object-type": "frame", 
            "start-pos": {
                "object-type": "absolute-pos", 
                "offset": 138
            }, 
            "text": "293 cells were transfected with pcDNA3 vectors containing wild-type NH2-terminally HA-tagged RhoA ( Yamashita et al. , 1999 ) and/or full-length human p75NTR by lipofection using Lipofectamine 2000 ( GIBCO BRL ) ."
        }, 
        {
            "frame-id": "sent-PMC2173856-cmu-139", 
            "frame-type": "sentence", 
            "object-type": "frame", 
            "start-pos": {
                "object-type": "absolute-pos", 
                "offset": 139
            }, 
            "text": "Cerebellar neurons from P9 mice were isolated as described previously ( Cai et al. , 1999 ) ."
        }, 
        {
            "frame-id": "sent-PMC2173856-cmu-140", 
            "frame-type": "sentence", 
            "object-type": "frame", 
            "start-pos": {
                "object-type": "absolute-pos", 
                "offset": 140
            }, 
            "text": "Cells were lysed in 50 mM Tris , pH 7.5 , 1 % Triton X-100 , 0.5 % sodium deoxycholate , 0.1 % SDS , 500 mM NaCl , and 10 mM MgCl2 with leupeptin and aprotinin each at 10 \u03bcg/ml ."
        }, 
        {
            "frame-id": "sent-PMC2173856-cmu-141", 
            "frame-type": "sentence", 
            "object-type": "frame", 
            "start-pos": {
                "object-type": "absolute-pos", 
                "offset": 141
            }, 
            "text": "Cell lysates were clarified by centrifugation at 13,000 g at 4\u00b0C for 10 min , and the supernatants were incubated with the 20 \u03bcg of GST-Rho binding domain of Rhotekin beads ( Upstate Biotechnology ) at 4\u00b0C for 45 min ."
        }, 
        {
            "frame-id": "sent-PMC2173856-cmu-142", 
            "frame-type": "sentence", 
            "object-type": "frame", 
            "start-pos": {
                "object-type": "absolute-pos", 
                "offset": 142
            }, 
            "text": "The beads were washed four times with washing buffer ( 50 mM Tris , pH 7.5 , containing 1 % Triton X-100 , 150 mM NaCl , 10 mM MgCl2,10 \u03bcg/ml each of leupeptin and aprotinin ) ."
        }, 
        {
            "frame-id": "sent-PMC2173856-cmu-143", 
            "frame-type": "sentence", 
            "object-type": "frame", 
            "start-pos": {
                "object-type": "absolute-pos", 
                "offset": 143
            }, 
            "text": "Bound Rho proteins were detected by Western blotting using a monoclonal antibody against RhoA ( Santa Cruz Biotechnology ) ."
        }, 
        {
            "frame-id": "sent-PMC2173856-cmu-144", 
            "frame-type": "sentence", 
            "object-type": "frame", 
            "start-pos": {
                "object-type": "absolute-pos", 
                "offset": 144
            }, 
            "text": "MAG\u2013Fc binding and immunocytochemistry"
        }, 
        {
            "frame-id": "sent-PMC2173856-cmu-145", 
            "frame-type": "sentence", 
            "object-type": "frame", 
            "start-pos": {
                "object-type": "absolute-pos", 
                "offset": 145
            }, 
            "text": "DRG neuron cultures were fixed in 1 % paraformaldehyde in PBS for 30 min ."
        }, 
        {
            "frame-id": "sent-PMC2173856-cmu-146", 
            "frame-type": "sentence", 
            "object-type": "frame", 
            "start-pos": {
                "object-type": "absolute-pos", 
                "offset": 146
            }, 
            "text": "They were then blocked in PBS containing 2 % FCS ."
        }, 
        {
            "frame-id": "sent-PMC2173856-cmu-147", 
            "frame-type": "sentence", 
            "object-type": "frame", 
            "start-pos": {
                "object-type": "absolute-pos", 
                "offset": 147
            }, 
            "text": "To localize the MAG binding molecule , MAG\u2013Fc ( 5 \u03bcg/ml ) and anti\u2013human IgG ( 1\u03bcg/ml ) were precomplexed for 30 min at room temperature before being added to the fixed and blocked DRG neurons ( Turnley and Bartlett , 1999 ) ."
        }, 
        {
            "frame-id": "sent-PMC2173856-cmu-148", 
            "frame-type": "sentence", 
            "object-type": "frame", 
            "start-pos": {
                "object-type": "absolute-pos", 
                "offset": 148
            }, 
            "text": "To identify p75NTR , cells were permeabilized with 0.2 % Triton X-100/PBS and then incubated overnight with polyclonal antibody to p75NTR ( Promega ) followed by an Alexa fluor\u2122 568\u2013labeled anti\u2013rabbit IgG ( Molecular Probes ) for 1 h. The specificity of the antibodies was assessed by Western blot analysis of cells expressing the proteins , and control experiments of immunocytochemistry were performed by leaving out the primary antibodies ."
        }, 
        {
            "frame-id": "sent-PMC2173856-cmu-149", 
            "frame-type": "sentence", 
            "object-type": "frame", 
            "start-pos": {
                "object-type": "absolute-pos", 
                "offset": 149
            }, 
            "text": "Coprecipitation of recombinant p75NTR and GT1b"
        }, 
        {
            "frame-id": "sent-PMC2173856-cmu-150", 
            "frame-type": "sentence", 
            "object-type": "frame", 
            "start-pos": {
                "object-type": "absolute-pos", 
                "offset": 150
            }, 
            "text": "Recombinant human p75\u2013Fc chimera ( 1 \u03bcg ; Genzyme-Techne ) and 1 \u03bcg of purified ganglioside GT1b ( > 98 % purity ; Seikagaku Co. ) were incubated in 200 \u03bcl 0.025 % Tween 20/PBS for 2 h , and p75NTR was precipitated using protein A sepharose ( Amersham Pharmacia Biotech ) ."
        }, 
        {
            "frame-id": "sent-PMC2173856-cmu-151", 
            "frame-type": "sentence", 
            "object-type": "frame", 
            "start-pos": {
                "object-type": "absolute-pos", 
                "offset": 151
            }, 
            "text": "The resultant precipitates were electrophoretically transferred to polyvinylidene difluoride membranes after SDS-PAGE with 7 % gels and were immunoblotted with anti-GT1b antibody ( IgM ; Seikagaku Co. ) or anti-p75NTR antibody ."
        }, 
        {
            "frame-id": "sent-PMC2173856-cmu-152", 
            "frame-type": "sentence", 
            "object-type": "frame", 
            "start-pos": {
                "object-type": "absolute-pos", 
                "offset": 152
            }, 
            "text": "Coimmunoprecipitation experiments"
        }, 
        {
            "frame-id": "sent-PMC2173856-cmu-153", 
            "frame-type": "sentence", 
            "object-type": "frame", 
            "start-pos": {
                "object-type": "absolute-pos", 
                "offset": 153
            }, 
            "text": "Cells were lysed on ice for 20 min with lysis buffer ( 10 mM Tris-HCl , pH 7.5 , 150 mM NaCl , 1 % Triton X-100 , 25 \u03bcg/ml leupeptin , and 25 \u03bcg/ml aprotinin ) ."
        }, 
        {
            "frame-id": "sent-PMC2173856-cmu-154", 
            "frame-type": "sentence", 
            "object-type": "frame", 
            "start-pos": {
                "object-type": "absolute-pos", 
                "offset": 154
            }, 
            "text": "The lysates were centrifuged at 13,000 g for 20 min , and the supernatants were collected ."
        }, 
        {
            "frame-id": "sent-PMC2173856-cmu-155", 
            "frame-type": "sentence", 
            "object-type": "frame", 
            "start-pos": {
                "object-type": "absolute-pos", 
                "offset": 155
            }, 
            "text": "They were then incubated with the anti-GT1b antibody or an anti-HA antibody ( for transfected HA-p75NTR ) overnight followed by incubation with the anti\u2013mouse IgM antibody ( for GT1b ) ."
        }, 
        {
            "frame-id": "sent-PMC2173856-cmu-156", 
            "frame-type": "sentence", 
            "object-type": "frame", 
            "start-pos": {
                "object-type": "absolute-pos", 
                "offset": 156
            }, 
            "text": "Immunocomplex or MAG\u2013Fc was collected with protein A sepharose ( Amersham Pharmacia Biotech ) ."
        }, 
        {
            "frame-id": "sent-PMC2173856-cmu-157", 
            "frame-type": "sentence", 
            "object-type": "frame", 
            "start-pos": {
                "object-type": "absolute-pos", 
                "offset": 157
            }, 
            "text": "The suspension was centrifuged at 1,000 g for 5 min ."
        }, 
        {
            "frame-id": "sent-PMC2173856-cmu-158", 
            "frame-type": "sentence", 
            "object-type": "frame", 
            "start-pos": {
                "object-type": "absolute-pos", 
                "offset": 158
            }, 
            "text": "The pellets were washed four times with lysis buffer and subjected to SDS-PAGE followed by immunoblot analysis ."
        }
    ], 
    "object-meta": {
        "component": "Nicolas-NXML-Parser", 
        "component-type": "machine", 
        "doc-id": "PMC2173856", 
        "object-type": "meta-info", 
        "organization": "CMU"
    }, 
    "object-type": "frame-collection"
}
