{
  "frames":[
    {
      "frame-id":"evem-PMC2847224-UAZ-r1-1-8-1",
      "text":"proteasome inhibitor MG132",
      "arguments":[
        {
          "text":"proteasome",
          "argument-type":"entity",
          "object-type":"argument",
          "index":0,
          "argument-label":"controlled",
          "arg":"ment-PMC2847224-UAZ-r1-1-8-26"
        },
        {
          "text":"MG132",
          "argument-type":"entity",
          "object-type":"argument",
          "index":0,
          "argument-label":"controller",
          "arg":"ment-PMC2847224-UAZ-r1-1-8-27"
        }
      ],
      "type":"activation",
      "frame-type":"event-mention",
      "subtype":"negative-activation",
      "end-pos":{
        "reference":"pass-PMC2847224-UAZ-r1-1",
        "offset":1117,
        "object-type":"relative-pos"
      },
      "object-type":"frame",
      "start-pos":{
        "reference":"pass-PMC2847224-UAZ-r1-1",
        "offset":1091,
        "object-type":"relative-pos"
      },
      "sentence":"sent-PMC2847224-UAZ-r1-1-8",
      "found-by":"Negative_activation_token_1_noun",
      "object-meta":{
        "component":"REACH",
        "object-type":"meta-info"
      },
      "verbose-text":"The proteasome inhibitor MG132 strongly stabilized SUMO-2-conjugated HIF-2alpha during hypoxia but did not affect the total level of HIF-2alpha ."
    },
    {
      "frame-id":"evem-PMC2847224-UAZ-r1-1-6-2",
      "text":"reduced the transcriptional activity of HIF-2alpha",
      "arguments":[
        {
          "text":"HIF-2alpha",
          "argument-type":"entity",
          "object-type":"argument",
          "index":0,
          "argument-label":"controlled",
          "arg":"ment-PMC2847224-UAZ-r1-1-6-22"
        },
        {
          "text":"HIF-2alpha",
          "argument-type":"entity",
          "object-type":"argument",
          "index":0,
          "argument-label":"controller",
          "arg":"ment-PMC2847224-UAZ-r1-1-6-22"
        }
      ],
      "type":"activation",
      "frame-type":"event-mention",
      "subtype":"negative-activation",
      "end-pos":{
        "reference":"pass-PMC2847224-UAZ-r1-1",
        "offset":1010,
        "object-type":"relative-pos"
      },
      "object-type":"frame",
      "start-pos":{
        "reference":"pass-PMC2847224-UAZ-r1-1",
        "offset":960,
        "object-type":"relative-pos"
      },
      "sentence":"sent-PMC2847224-UAZ-r1-1-6",
      "found-by":"Negative_activation_syntax_1_verb",
      "object-meta":{
        "component":"REACH",
        "object-type":"meta-info"
      },
      "verbose-text":"Functionally , sumoylation reduced the transcriptional activity of HIF-2alpha ."
    },
    {
      "frame-id":"evem-PMC2847224-UAZ-r1-1-6-3",
      "text":"sumoylation reduced the transcriptional activity of HIF-2alpha",
      "arguments":[
        {
          "text":"HIF-2alpha",
          "argument-type":"entity",
          "object-type":"argument",
          "index":0,
          "argument-label":"theme",
          "arg":"ment-PMC2847224-UAZ-r1-1-6-22"
        }
      ],
      "type":"protein-modification",
      "frame-type":"event-mention",
      "subtype":"sumoylation",
      "end-pos":{
        "reference":"pass-PMC2847224-UAZ-r1-1",
        "offset":1010,
        "object-type":"relative-pos"
      },
      "object-type":"frame",
      "start-pos":{
        "reference":"pass-PMC2847224-UAZ-r1-1",
        "offset":948,
        "object-type":"relative-pos"
      },
      "sentence":"sent-PMC2847224-UAZ-r1-1-6",
      "found-by":"Sumoylation_syntax_7_noun",
      "object-meta":{
        "component":"REACH",
        "object-type":"meta-info"
      },
      "verbose-text":"Functionally , sumoylation reduced the transcriptional activity of HIF-2alpha ."
    },
    {
      "frame-id":"evem-PMC2847224-UAZ-r1-7-5-4",
      "text":"ubiquitination and degradation of HIF-1alpha",
      "arguments":[
        {
          "text":"HIF-1alpha",
          "argument-type":"entity",
          "object-type":"argument",
          "index":0,
          "argument-label":"theme",
          "arg":"ment-PMC2847224-UAZ-r1-7-5-71"
        }
      ],
      "type":"protein-modification",
      "frame-type":"event-mention",
      "subtype":"ubiquitination",
      "end-pos":{
        "reference":"pass-PMC2847224-UAZ-r1-7",
        "offset":907,
        "object-type":"relative-pos"
      },
      "object-type":"frame",
      "start-pos":{
        "reference":"pass-PMC2847224-UAZ-r1-7",
        "offset":863,
        "object-type":"relative-pos"
      },
      "sentence":"sent-PMC2847224-UAZ-r1-7-5",
      "found-by":"Ubiquitination_syntax_1_noun",
      "object-meta":{
        "component":"REACH",
        "object-type":"meta-info"
      },
      "verbose-text":"Hydroxylation of the prolyl residues mediates binding of the von Hippel-Lindau ( VHL ) ubiquitin ligase complex responsible for ubiquitination and degradation of HIF-1alpha in a proteasome dependent manner      ."
    },
    {
      "frame-id":"evem-PMC2847224-UAZ-r1-7-4-5",
      "text":"oxygen-dependent degradation domain (ODD) of HIF-alpha",
      "arguments":[
        {
          "text":"HIF-alpha",
          "argument-type":"entity",
          "object-type":"argument",
          "index":0,
          "argument-label":"controlled",
          "arg":"ment-PMC2847224-UAZ-r1-7-4-64"
        },
        {
          "text":"oxygen",
          "argument-type":"entity",
          "object-type":"argument",
          "index":0,
          "argument-label":"controller",
          "arg":"ment-PMC2847224-UAZ-r1-7-4-62"
        }
      ],
      "type":"activation",
      "frame-type":"event-mention",
      "subtype":"negative-activation",
      "end-pos":{
        "reference":"pass-PMC2847224-UAZ-r1-7",
        "offset":650,
        "object-type":"relative-pos"
      },
      "object-type":"frame",
      "start-pos":{
        "reference":"pass-PMC2847224-UAZ-r1-7",
        "offset":596,
        "object-type":"relative-pos"
      },
      "sentence":"sent-PMC2847224-UAZ-r1-7-4",
      "found-by":"Negative_activation_syntax_5_noun",
      "object-meta":{
        "component":"REACH",
        "object-type":"meta-info"
      },
      "verbose-text":"During normoxia , two conserved proline residues in the oxygen dependent degradation domain ( ODD ) of HIF-alpha are hydroxylated by HIF specific prolyl hydroxylase-domain proteins ( PHD 1 , 2 and 3 ) ."
    },
    {
      "frame-id":"evem-PMC2847224-UAZ-r1-9-1-6",
      "text":"sumoylation of HIF-2alpha",
      "arguments":[
        {
          "text":"HIF-2alpha",
          "argument-type":"entity",
          "object-type":"argument",
          "index":0,
          "argument-label":"theme",
          "arg":"ment-PMC2847224-UAZ-r1-9-1-82"
        }
      ],
      "type":"protein-modification",
      "frame-type":"event-mention",
      "subtype":"sumoylation",
      "end-pos":{
        "reference":"pass-PMC2847224-UAZ-r1-9",
        "offset":203,
        "object-type":"relative-pos"
      },
      "object-type":"frame",
      "start-pos":{
        "reference":"pass-PMC2847224-UAZ-r1-9",
        "offset":178,
        "object-type":"relative-pos"
      },
      "sentence":"sent-PMC2847224-UAZ-r1-9-1",
      "found-by":"Sumoylation_syntax_1_noun",
      "object-meta":{
        "component":"REACH",
        "object-type":"meta-info"
      },
      "verbose-text":"We have investigated the sumoylation of HIF-2alpha , which contains two consensus sumoylation sites , LK394EE and LK497IE ."
    },
    {
      "frame-id":"evem-PMC2847224-UAZ-r1-46-10-7",
      "text":"HIF-2alpha sumoylation",
      "arguments":[
        {
          "text":"HIF-2alpha",
          "argument-type":"entity",
          "object-type":"argument",
          "index":0,
          "argument-label":"theme",
          "arg":"ment-PMC2847224-UAZ-r1-46-10-200"
        }
      ],
      "type":"protein-modification",
      "frame-type":"event-mention",
      "subtype":"sumoylation",
      "end-pos":{
        "reference":"pass-PMC2847224-UAZ-r1-46",
        "offset":893,
        "object-type":"relative-pos"
      },
      "object-type":"frame",
      "start-pos":{
        "reference":"pass-PMC2847224-UAZ-r1-46",
        "offset":871,
        "object-type":"relative-pos"
      },
      "sentence":"sent-PMC2847224-UAZ-r1-46-10",
      "found-by":"Sumoylation_token_3_noun",
      "object-meta":{
        "component":"REACH",
        "object-type":"meta-info"
      },
      "verbose-text":"Both potential HIF-2alpha sumoylation sites have equivalent sites in HIF-1alpha , a known SUMO substrate ."
    },
    {
      "frame-id":"evem-PMC2847224-UAZ-r1-48-4-8",
      "text":"HIF-2alpha sumoylation",
      "arguments":[
        {
          "text":"HIF-2alpha",
          "argument-type":"entity",
          "object-type":"argument",
          "index":0,
          "argument-label":"theme",
          "arg":"ment-PMC2847224-UAZ-r1-48-4-223"
        }
      ],
      "type":"protein-modification",
      "frame-type":"event-mention",
      "subtype":"sumoylation",
      "end-pos":{
        "reference":"pass-PMC2847224-UAZ-r1-48",
        "offset":325,
        "object-type":"relative-pos"
      },
      "object-type":"frame",
      "start-pos":{
        "reference":"pass-PMC2847224-UAZ-r1-48",
        "offset":303,
        "object-type":"relative-pos"
      },
      "sentence":"sent-PMC2847224-UAZ-r1-48-4",
      "found-by":"Sumoylation_token_3_noun",
      "object-meta":{
        "component":"REACH",
        "object-type":"meta-info"
      },
      "verbose-text":"Both potential HIF-2alpha sumoylation sites have equivalent sites in HIF-1alpha , a known SUMO substrate ."
    },
    {
      "frame-id":"evem-PMC2847224-UAZ-r1-51-0-9",
      "text":"HIF-2alpha is sumoylated on K394",
      "arguments":[
        {
          "text":"HIF-2alpha",
          "argument-type":"entity",
          "object-type":"argument",
          "index":0,
          "argument-label":"theme",
          "arg":"ment-PMC2847224-UAZ-r1-51-0-257"
        },
        {
          "text":"K394",
          "argument-type":"entity",
          "object-type":"argument",
          "index":0,
          "argument-label":"site",
          "arg":"ment-PMC2847224-UAZ-r1-51-0-258"
        }
      ],
      "type":"protein-modification",
      "frame-type":"event-mention",
      "subtype":"sumoylation",
      "end-pos":{
        "reference":"pass-PMC2847224-UAZ-r1-51",
        "offset":32,
        "object-type":"relative-pos"
      },
      "object-type":"frame",
      "start-pos":{
        "reference":"pass-PMC2847224-UAZ-r1-51",
        "offset":0,
        "object-type":"relative-pos"
      },
      "sentence":"sent-PMC2847224-UAZ-r1-51-0",
      "found-by":"Sumoylation_syntax_2_verb",
      "object-meta":{
        "component":"REACH",
        "object-type":"meta-info"
      },
      "verbose-text":"HIF-2alpha is sumoylated on K394"
    },
    {
      "frame-id":"evem-PMC2847224-UAZ-r1-52-4-10",
      "text":"sumoylation of FLAG-HIF-2alpha",
      "arguments":[
        {
          "text":"FLAG-HIF-2alpha",
          "argument-type":"entity",
          "object-type":"argument",
          "index":0,
          "argument-label":"theme",
          "arg":"ment-PMC2847224-UAZ-r1-52-4-266"
        }
      ],
      "type":"protein-modification",
      "frame-type":"event-mention",
      "subtype":"sumoylation",
      "end-pos":{
        "reference":"pass-PMC2847224-UAZ-r1-52",
        "offset":706,
        "object-type":"relative-pos"
      },
      "object-type":"frame",
      "start-pos":{
        "reference":"pass-PMC2847224-UAZ-r1-52",
        "offset":676,
        "object-type":"relative-pos"
      },
      "sentence":"sent-PMC2847224-UAZ-r1-52-4",
      "found-by":"Sumoylation_syntax_1_noun",
      "object-meta":{
        "component":"REACH",
        "object-type":"meta-info"
      },
      "verbose-text":"Disrupting the first consensus site by mutating K394 ( lane 4 ) strongly reduced sumoylation of FLAG-HIF-2alpha compared to wild-type ."
    },
    {
      "frame-id":"evem-PMC2847224-UAZ-r1-57-0-11",
      "text":"Sumoylation of HIF-2alpha",
      "arguments":[
        {
          "text":"HIF-2alpha",
          "argument-type":"entity",
          "object-type":"argument",
          "index":0,
          "argument-label":"theme",
          "arg":"ment-PMC2847224-UAZ-r1-57-0-303"
        }
      ],
      "type":"protein-modification",
      "frame-type":"event-mention",
      "subtype":"sumoylation",
      "end-pos":{
        "reference":"pass-PMC2847224-UAZ-r1-57",
        "offset":25,
        "object-type":"relative-pos"
      },
      "object-type":"frame",
      "start-pos":{
        "reference":"pass-PMC2847224-UAZ-r1-57",
        "offset":0,
        "object-type":"relative-pos"
      },
      "sentence":"sent-PMC2847224-UAZ-r1-57-0",
      "found-by":"Sumoylation_syntax_1_noun",
      "object-meta":{
        "component":"REACH",
        "object-type":"meta-info"
      },
      "verbose-text":"Sumoylation of HIF-2alpha leads to a reduction in transcriptional activity"
    },
    {
      "frame-id":"evem-PMC2847224-UAZ-r1-62-0-12",
      "text":"Sumoylation does not affect the subcellular localization of HIF-2alpha",
      "arguments":[
        {
          "text":"HIF-2alpha",
          "argument-type":"entity",
          "object-type":"argument",
          "index":0,
          "argument-label":"theme",
          "arg":"ment-PMC2847224-UAZ-r1-62-0-343"
        }
      ],
      "type":"protein-modification",
      "frame-type":"event-mention",
      "subtype":"sumoylation",
      "is-negated":true,
      "end-pos":{
        "reference":"pass-PMC2847224-UAZ-r1-62",
        "offset":70,
        "object-type":"relative-pos"
      },
      "object-type":"frame",
      "start-pos":{
        "reference":"pass-PMC2847224-UAZ-r1-62",
        "offset":0,
        "object-type":"relative-pos"
      },
      "sentence":"sent-PMC2847224-UAZ-r1-62-0",
      "found-by":"Sumoylation_syntax_7_noun",
      "object-meta":{
        "component":"REACH",
        "object-type":"meta-info"
      },
      "verbose-text":"Sumoylation does not affect the subcellular localization of HIF-2alpha"
    },
    {
      "frame-id":"evem-PMC2847224-UAZ-r1-63-6-13",
      "text":"Sumoylation does not affect the subcellular localization of FLAG-HIF-2alpha",
      "arguments":[
        {
          "text":"FLAG-HIF-2alpha",
          "argument-type":"entity",
          "object-type":"argument",
          "index":0,
          "argument-label":"theme",
          "arg":"ment-PMC2847224-UAZ-r1-63-6-355"
        }
      ],
      "type":"protein-modification",
      "frame-type":"event-mention",
      "subtype":"sumoylation",
      "is-negated":true,
      "end-pos":{
        "reference":"pass-PMC2847224-UAZ-r1-63",
        "offset":761,
        "object-type":"relative-pos"
      },
      "object-type":"frame",
      "start-pos":{
        "reference":"pass-PMC2847224-UAZ-r1-63",
        "offset":686,
        "object-type":"relative-pos"
      },
      "sentence":"sent-PMC2847224-UAZ-r1-63-6",
      "found-by":"Sumoylation_syntax_7_noun",
      "object-meta":{
        "component":"REACH",
        "object-type":"meta-info"
      },
      "verbose-text":"Sumoylation does not affect the subcellular localization of FLAG-HIF-2alpha ."
    },
    {
      "frame-id":"evem-PMC2847224-UAZ-r1-65-0-14",
      "text":"Sumoylation does not affect the subcellular localization of FLAG-HIF-2alpha",
      "arguments":[
        {
          "text":"FLAG-HIF-2alpha",
          "argument-type":"entity",
          "object-type":"argument",
          "index":0,
          "argument-label":"theme",
          "arg":"ment-PMC2847224-UAZ-r1-65-0-359"
        }
      ],
      "type":"protein-modification",
      "frame-type":"event-mention",
      "subtype":"sumoylation",
      "is-negated":true,
      "end-pos":{
        "reference":"pass-PMC2847224-UAZ-r1-65",
        "offset":75,
        "object-type":"relative-pos"
      },
      "object-type":"frame",
      "start-pos":{
        "reference":"pass-PMC2847224-UAZ-r1-65",
        "offset":0,
        "object-type":"relative-pos"
      },
      "sentence":"sent-PMC2847224-UAZ-r1-65-0",
      "found-by":"Sumoylation_syntax_7_noun",
      "object-meta":{
        "component":"REACH",
        "object-type":"meta-info"
      },
      "verbose-text":"Sumoylation does not affect the subcellular localization of FLAG-HIF-2alpha ."
    },
    {
      "frame-id":"evem-PMC2847224-UAZ-r1-67-0-15",
      "text":"SUMO-modified HIF-2alpha is degraded by the ubiquitin-proteasome",
      "arguments":[
        {
          "text":"SUMO",
          "argument-type":"entity",
          "object-type":"argument",
          "index":0,
          "argument-label":"controlled",
          "arg":"ment-PMC2847224-UAZ-r1-67-0-362"
        },
        {
          "text":"ubiquitin-proteasome",
          "argument-type":"entity",
          "object-type":"argument",
          "index":0,
          "argument-label":"controller",
          "arg":"ment-PMC2847224-UAZ-r1-67-0-364"
        }
      ],
      "type":"activation",
      "frame-type":"event-mention",
      "subtype":"negative-activation",
      "end-pos":{
        "reference":"pass-PMC2847224-UAZ-r1-67",
        "offset":64,
        "object-type":"relative-pos"
      },
      "object-type":"frame",
      "start-pos":{
        "reference":"pass-PMC2847224-UAZ-r1-67",
        "offset":0,
        "object-type":"relative-pos"
      },
      "sentence":"sent-PMC2847224-UAZ-r1-67-0",
      "found-by":"Negative_activation_syntax_2_verb",
      "object-meta":{
        "component":"REACH",
        "object-type":"meta-info"
      },
      "verbose-text":"SUMO modified HIF-2alpha is degraded by the ubiquitin-proteasome system"
    },
    {
      "frame-id":"evem-PMC2847224-UAZ-r1-68-1-16",
      "text":"ubiquitin-proteasome system specifically degraded the SUMO-2-conjugated forms of hnRNP M",
      "arguments":[
        {
          "text":"hnRNP M",
          "argument-type":"entity",
          "object-type":"argument",
          "index":0,
          "argument-label":"controlled",
          "arg":"ment-PMC2847224-UAZ-r1-68-1-369"
        },
        {
          "text":"ubiquitin-proteasome",
          "argument-type":"entity",
          "object-type":"argument",
          "index":0,
          "argument-label":"controller",
          "arg":"ment-PMC2847224-UAZ-r1-68-1-368"
        }
      ],
      "type":"activation",
      "frame-type":"event-mention",
      "subtype":"negative-activation",
      "end-pos":{
        "reference":"pass-PMC2847224-UAZ-r1-68",
        "offset":332,
        "object-type":"relative-pos"
      },
      "object-type":"frame",
      "start-pos":{
        "reference":"pass-PMC2847224-UAZ-r1-68",
        "offset":244,
        "object-type":"relative-pos"
      },
      "sentence":"sent-PMC2847224-UAZ-r1-68-1",
      "found-by":"Negative_activation_syntax_1_verb",
      "object-meta":{
        "component":"REACH",
        "object-type":"meta-info"
      },
      "verbose-text":"Moreover , we have identified a subset of SUMO-2 conjugates that are stabilized by proteasome-inhibition and verified that the ubiquitin-proteasome system specifically degraded the SUMO-2-conjugated forms of hnRNP M , MCM-7 and PIAS-1 without affecting the total pools of these proteins ."
    },
    {
      "frame-id":"evem-PMC2847224-UAZ-r1-68-1-17",
      "text":"ubiquitin-proteasome system specifically degraded the SUMO-2-conjugated forms of hnRNP M, MCM-7",
      "arguments":[
        {
          "text":"MCM-7",
          "argument-type":"entity",
          "object-type":"argument",
          "index":0,
          "argument-label":"controlled",
          "arg":"ment-PMC2847224-UAZ-r1-68-1-370"
        },
        {
          "text":"ubiquitin-proteasome",
          "argument-type":"entity",
          "object-type":"argument",
          "index":0,
          "argument-label":"controller",
          "arg":"ment-PMC2847224-UAZ-r1-68-1-368"
        }
      ],
      "type":"activation",
      "frame-type":"event-mention",
      "subtype":"negative-activation",
      "end-pos":{
        "reference":"pass-PMC2847224-UAZ-r1-68",
        "offset":339,
        "object-type":"relative-pos"
      },
      "object-type":"frame",
      "start-pos":{
        "reference":"pass-PMC2847224-UAZ-r1-68",
        "offset":244,
        "object-type":"relative-pos"
      },
      "sentence":"sent-PMC2847224-UAZ-r1-68-1",
      "found-by":"Negative_activation_syntax_1_verb",
      "object-meta":{
        "component":"REACH",
        "object-type":"meta-info"
      },
      "verbose-text":"Moreover , we have identified a subset of SUMO-2 conjugates that are stabilized by proteasome-inhibition and verified that the ubiquitin-proteasome system specifically degraded the SUMO-2-conjugated forms of hnRNP M , MCM-7 and PIAS-1 without affecting the total pools of these proteins ."
    },
    {
      "frame-id":"evem-PMC2847224-UAZ-r1-68-1-18",
      "text":"ubiquitin-proteasome system specifically degraded the SUMO-2-conjugated forms of hnRNP M, MCM-7 and PIAS-1",
      "arguments":[
        {
          "text":"PIAS-1",
          "argument-type":"entity",
          "object-type":"argument",
          "index":0,
          "argument-label":"controlled",
          "arg":"ment-PMC2847224-UAZ-r1-68-1-371"
        },
        {
          "text":"ubiquitin-proteasome",
          "argument-type":"entity",
          "object-type":"argument",
          "index":0,
          "argument-label":"controller",
          "arg":"ment-PMC2847224-UAZ-r1-68-1-368"
        }
      ],
      "type":"activation",
      "frame-type":"event-mention",
      "subtype":"negative-activation",
      "end-pos":{
        "reference":"pass-PMC2847224-UAZ-r1-68",
        "offset":350,
        "object-type":"relative-pos"
      },
      "object-type":"frame",
      "start-pos":{
        "reference":"pass-PMC2847224-UAZ-r1-68",
        "offset":244,
        "object-type":"relative-pos"
      },
      "sentence":"sent-PMC2847224-UAZ-r1-68-1",
      "found-by":"Negative_activation_syntax_1_verb",
      "object-meta":{
        "component":"REACH",
        "object-type":"meta-info"
      },
      "verbose-text":"Moreover , we have identified a subset of SUMO-2 conjugates that are stabilized by proteasome-inhibition and verified that the ubiquitin-proteasome system specifically degraded the SUMO-2-conjugated forms of hnRNP M , MCM-7 and PIAS-1 without affecting the total pools of these proteins ."
    },
    {
      "is-hypothesis":true,
      "frame-id":"evem-PMC2847224-UAZ-r1-68-0-19",
      "text":"proteasome inhibition strongly increases the total pool of SUMO-2",
      "arguments":[
        {
          "text":"SUMO-2",
          "argument-type":"entity",
          "object-type":"argument",
          "index":0,
          "argument-label":"controlled",
          "arg":"ment-PMC2847224-UAZ-r1-68-0-366"
        },
        {
          "text":"proteasome",
          "argument-type":"entity",
          "object-type":"argument",
          "index":0,
          "argument-label":"controller",
          "arg":"ment-PMC2847224-UAZ-r1-68-0-365"
        }
      ],
      "type":"activation",
      "frame-type":"event-mention",
      "subtype":"negative-activation",
      "end-pos":{
        "reference":"pass-PMC2847224-UAZ-r1-68",
        "offset":98,
        "object-type":"relative-pos"
      },
      "object-type":"frame",
      "start-pos":{
        "reference":"pass-PMC2847224-UAZ-r1-68",
        "offset":33,
        "object-type":"relative-pos"
      },
      "sentence":"sent-PMC2847224-UAZ-r1-68-0",
      "found-by":"Positive_activation_syntax_1_verb",
      "object-meta":{
        "component":"REACH",
        "object-type":"meta-info"
      },
      "verbose-text":"We have previously reported that proteasome inhibition strongly increases the total pool of SUMO-2 / 3 conjugates     ."
    },
    {
      "frame-id":"evem-PMC2847224-UAZ-r1-73-0-20",
      "text":"HIF-2alpha is sumoylated",
      "arguments":[
        {
          "text":"HIF-2alpha",
          "argument-type":"entity",
          "object-type":"argument",
          "index":0,
          "argument-label":"theme",
          "arg":"ment-PMC2847224-UAZ-r1-73-0-431"
        }
      ],
      "type":"protein-modification",
      "frame-type":"event-mention",
      "subtype":"sumoylation",
      "end-pos":{
        "reference":"pass-PMC2847224-UAZ-r1-73",
        "offset":35,
        "object-type":"relative-pos"
      },
      "object-type":"frame",
      "start-pos":{
        "reference":"pass-PMC2847224-UAZ-r1-73",
        "offset":11,
        "object-type":"relative-pos"
      },
      "sentence":"sent-PMC2847224-UAZ-r1-73-0",
      "found-by":"Sumoylation_syntax_2_verb",
      "object-meta":{
        "component":"REACH",
        "object-type":"meta-info"
      },
      "verbose-text":"Endogenous HIF-2alpha is sumoylated in cells"
    },
    {
      "frame-id":"evem-PMC2847224-UAZ-r1-82-6-21",
      "text":"sumoylated pool of HIF-2alpha",
      "arguments":[
        {
          "text":"HIF-2alpha",
          "argument-type":"entity",
          "object-type":"argument",
          "index":0,
          "argument-label":"theme",
          "arg":"ment-PMC2847224-UAZ-r1-82-6-563"
        }
      ],
      "type":"protein-modification",
      "frame-type":"event-mention",
      "subtype":"sumoylation",
      "end-pos":{
        "reference":"pass-PMC2847224-UAZ-r1-82",
        "offset":823,
        "object-type":"relative-pos"
      },
      "object-type":"frame",
      "start-pos":{
        "reference":"pass-PMC2847224-UAZ-r1-82",
        "offset":794,
        "object-type":"relative-pos"
      },
      "sentence":"sent-PMC2847224-UAZ-r1-82-6",
      "found-by":"Sumoylation_syntax_1_verb",
      "object-meta":{
        "component":"REACH",
        "object-type":"meta-info"
      },
      "verbose-text":"SENP1 knockdown did not affect the non sumoylated pool of HIF-2alpha but did decrease the total pool of HIF-1alpha , consistent with the results published by Cheng et al. ."
    },
    {
      "is-hypothesis":true,
      "frame-id":"evem-PMC2847224-UAZ-r1-82-0-22",
      "text":"sumoylation of HIF-1alpha",
      "arguments":[
        {
          "text":"HIF-1alpha",
          "argument-type":"entity",
          "object-type":"argument",
          "index":0,
          "argument-label":"theme",
          "arg":"ment-PMC2847224-UAZ-r1-82-0-539"
        }
      ],
      "type":"protein-modification",
      "frame-type":"event-mention",
      "subtype":"sumoylation",
      "end-pos":{
        "reference":"pass-PMC2847224-UAZ-r1-82",
        "offset":41,
        "object-type":"relative-pos"
      },
      "object-type":"frame",
      "start-pos":{
        "reference":"pass-PMC2847224-UAZ-r1-82",
        "offset":16,
        "object-type":"relative-pos"
      },
      "sentence":"sent-PMC2847224-UAZ-r1-82-0",
      "found-by":"Sumoylation_syntax_1_noun",
      "object-meta":{
        "component":"REACH",
        "object-type":"meta-info"
      },
      "verbose-text":"Previously , the sumoylation of HIF-1alpha was shown to be regulated via the SUMO protease SENP1      and via the SUMO E3 ligase RSUME     ."
    },
    {
      "frame-id":"evem-PMC2847224-UAZ-r1-82-6-23",
      "text":"SENP1 knockdown did not affect the non-sumoylated pool of HIF-2alpha but did decrease the total pool of HIF-1alpha",
      "arguments":[
        {
          "text":"HIF-1alpha",
          "argument-type":"entity",
          "object-type":"argument",
          "index":0,
          "argument-label":"controlled",
          "arg":"ment-PMC2847224-UAZ-r1-82-6-564"
        },
        {
          "text":"SENP1",
          "argument-type":"entity",
          "object-type":"argument",
          "index":0,
          "argument-label":"controller",
          "arg":"ment-PMC2847224-UAZ-r1-82-6-562"
        }
      ],
      "type":"activation",
      "frame-type":"event-mention",
      "subtype":"positive-activation",
      "is-negated":true,
      "end-pos":{
        "reference":"pass-PMC2847224-UAZ-r1-82",
        "offset":869,
        "object-type":"relative-pos"
      },
      "object-type":"frame",
      "start-pos":{
        "reference":"pass-PMC2847224-UAZ-r1-82",
        "offset":755,
        "object-type":"relative-pos"
      },
      "sentence":"sent-PMC2847224-UAZ-r1-82-6",
      "found-by":"Negative_activation_syntax_1_verb",
      "object-meta":{
        "component":"REACH",
        "object-type":"meta-info"
      },
      "verbose-text":"SENP1 knockdown did not affect the non sumoylated pool of HIF-2alpha but did decrease the total pool of HIF-1alpha , consistent with the results published by Cheng et al. ."
    },
    {
      "frame-id":"evem-PMC2847224-UAZ-r1-85-3-24",
      "text":"inhibited the transcriptional activity of HIF-2alpha",
      "arguments":[
        {
          "text":"HIF-2alpha",
          "argument-type":"entity",
          "object-type":"argument",
          "index":0,
          "argument-label":"controlled",
          "arg":"ment-PMC2847224-UAZ-r1-85-3-580"
        },
        {
          "text":"HIF-2alpha",
          "argument-type":"entity",
          "object-type":"argument",
          "index":0,
          "argument-label":"controller",
          "arg":"ment-PMC2847224-UAZ-r1-85-3-580"
        }
      ],
      "type":"activation",
      "frame-type":"event-mention",
      "subtype":"negative-activation",
      "end-pos":{
        "reference":"pass-PMC2847224-UAZ-r1-85",
        "offset":597,
        "object-type":"relative-pos"
      },
      "object-type":"frame",
      "start-pos":{
        "reference":"pass-PMC2847224-UAZ-r1-85",
        "offset":545,
        "object-type":"relative-pos"
      },
      "sentence":"sent-PMC2847224-UAZ-r1-85-3",
      "found-by":"Negative_activation_syntax_1_verb",
      "object-meta":{
        "component":"REACH",
        "object-type":"meta-info"
      },
      "verbose-text":"Functionally , sumoylation inhibited the transcriptional activity of HIF-2alpha ."
    },
    {
      "frame-id":"evem-PMC2847224-UAZ-r1-85-3-25",
      "text":"sumoylation inhibited the transcriptional activity of HIF-2alpha",
      "arguments":[
        {
          "text":"HIF-2alpha",
          "argument-type":"entity",
          "object-type":"argument",
          "index":0,
          "argument-label":"theme",
          "arg":"ment-PMC2847224-UAZ-r1-85-3-580"
        }
      ],
      "type":"protein-modification",
      "frame-type":"event-mention",
      "subtype":"sumoylation",
      "end-pos":{
        "reference":"pass-PMC2847224-UAZ-r1-85",
        "offset":597,
        "object-type":"relative-pos"
      },
      "object-type":"frame",
      "start-pos":{
        "reference":"pass-PMC2847224-UAZ-r1-85",
        "offset":533,
        "object-type":"relative-pos"
      },
      "sentence":"sent-PMC2847224-UAZ-r1-85-3",
      "found-by":"Sumoylation_syntax_7_noun",
      "object-meta":{
        "component":"REACH",
        "object-type":"meta-info"
      },
      "verbose-text":"Functionally , sumoylation inhibited the transcriptional activity of HIF-2alpha ."
    },
    {
      "frame-id":"evem-PMC2847224-UAZ-r1-86-2-26",
      "text":"SUMO-2 conjugation enabled the degradation of HIF-2alpha",
      "arguments":[
        {
          "text":"HIF-2alpha",
          "argument-type":"entity",
          "object-type":"argument",
          "index":0,
          "argument-label":"controlled",
          "arg":"ment-PMC2847224-UAZ-r1-86-2-583"
        },
        {
          "text":"SUMO-2",
          "argument-type":"entity",
          "object-type":"argument",
          "index":0,
          "argument-label":"controller",
          "arg":"ment-PMC2847224-UAZ-r1-86-2-582"
        }
      ],
      "type":"activation",
      "frame-type":"event-mention",
      "subtype":"negative-activation",
      "end-pos":{
        "reference":"pass-PMC2847224-UAZ-r1-86",
        "offset":288,
        "object-type":"relative-pos"
      },
      "object-type":"frame",
      "start-pos":{
        "reference":"pass-PMC2847224-UAZ-r1-86",
        "offset":232,
        "object-type":"relative-pos"
      },
      "sentence":"sent-PMC2847224-UAZ-r1-86-2",
      "found-by":"Positive_activation_syntax_1_verb",
      "object-meta":{
        "component":"REACH",
        "object-type":"meta-info"
      },
      "verbose-text":"Interestingly , SUMO-2 conjugation enabled the degradation of HIF-2alpha during hypoxia ."
    },
    {
      "frame-id":"evem-PMC2847224-UAZ-r1-86-10-27",
      "text":"VHL knockdown strongly increased the amount of SUMO-2-modified HIF-2alpha",
      "arguments":[
        {
          "text":"SUMO-2-modified HIF-2alpha",
          "argument-type":"entity",
          "object-type":"argument",
          "index":0,
          "argument-label":"controlled",
          "arg":"ment-PMC2847224-UAZ-r1-86-10-609"
        },
        {
          "text":"VHL",
          "argument-type":"entity",
          "object-type":"argument",
          "index":0,
          "argument-label":"controller",
          "arg":"ment-PMC2847224-UAZ-r1-86-10-608"
        }
      ],
      "type":"activation",
      "frame-type":"event-mention",
      "subtype":"negative-activation",
      "end-pos":{
        "reference":"pass-PMC2847224-UAZ-r1-86",
        "offset":1203,
        "object-type":"relative-pos"
      },
      "object-type":"frame",
      "start-pos":{
        "reference":"pass-PMC2847224-UAZ-r1-86",
        "offset":1130,
        "object-type":"relative-pos"
      },
      "sentence":"sent-PMC2847224-UAZ-r1-86-10",
      "found-by":"Positive_activation_syntax_1_verb",
      "object-meta":{
        "component":"REACH",
        "object-type":"meta-info"
      },
      "verbose-text":"Our results suggest that VHL also controls the stability of sumoylated HIF-2alpha during hypoxia since VHL knockdown strongly increased the amount of SUMO-2-modified HIF-2alpha ."
    },
    {
      "frame-id":"evem-PMC2847224-UAZ-r1-87-9-28",
      "text":"SENP1 increased the amount of HIF-2alpha-SUMO-2",
      "arguments":[
        {
          "text":"HIF-2alpha-SUMO-2",
          "argument-type":"entity",
          "object-type":"argument",
          "index":0,
          "argument-label":"controlled",
          "arg":"ment-PMC2847224-UAZ-r1-87-9-619"
        },
        {
          "text":"SENP1",
          "argument-type":"entity",
          "object-type":"argument",
          "index":0,
          "argument-label":"controller",
          "arg":"ment-PMC2847224-UAZ-r1-87-9-618"
        }
      ],
      "type":"activation",
      "frame-type":"event-mention",
      "subtype":"positive-activation",
      "end-pos":{
        "reference":"pass-PMC2847224-UAZ-r1-87",
        "offset":613,
        "object-type":"relative-pos"
      },
      "object-type":"frame",
      "start-pos":{
        "reference":"pass-PMC2847224-UAZ-r1-87",
        "offset":566,
        "object-type":"relative-pos"
      },
      "sentence":"sent-PMC2847224-UAZ-r1-87-9",
      "found-by":"Positive_activation_syntax_1_verb",
      "object-meta":{
        "component":"REACH",
        "object-type":"meta-info"
      },
      "verbose-text":"Knockdown of SENP1 increased the amount of HIF-2alpha-SUMO-2 conjugates , whereas knockdown of RSUME did not influence HIF-2alpha sumoylation ."
    },
    {
      "frame-id":"evem-PMC2847224-UAZ-r1-87-0-29",
      "text":"HIF-1alpha sumoylation",
      "arguments":[
        {
          "text":"HIF-1alpha",
          "argument-type":"entity",
          "object-type":"argument",
          "index":0,
          "argument-label":"theme",
          "arg":"ment-PMC2847224-UAZ-r1-87-0-610"
        }
      ],
      "type":"protein-modification",
      "frame-type":"event-mention",
      "subtype":"sumoylation",
      "end-pos":{
        "reference":"pass-PMC2847224-UAZ-r1-87",
        "offset":76,
        "object-type":"relative-pos"
      },
      "object-type":"frame",
      "start-pos":{
        "reference":"pass-PMC2847224-UAZ-r1-87",
        "offset":54,
        "object-type":"relative-pos"
      },
      "sentence":"sent-PMC2847224-UAZ-r1-87-0",
      "found-by":"Sumoylation_syntax_4_noun",
      "object-meta":{
        "component":"REACH",
        "object-type":"meta-info"
      },
      "verbose-text":"Different studies have reported conflicting roles for HIF-1alpha sumoylation             ."
    },
    {
      "frame-id":"evem-PMC2847224-UAZ-r1-87-9-30",
      "text":"HIF-2alpha sumoylation",
      "arguments":[
        {
          "text":"HIF-2alpha",
          "argument-type":"entity",
          "object-type":"argument",
          "index":0,
          "argument-label":"theme",
          "arg":"ment-PMC2847224-UAZ-r1-87-9-621"
        }
      ],
      "type":"protein-modification",
      "frame-type":"event-mention",
      "subtype":"sumoylation",
      "end-pos":{
        "reference":"pass-PMC2847224-UAZ-r1-87",
        "offset":693,
        "object-type":"relative-pos"
      },
      "object-type":"frame",
      "start-pos":{
        "reference":"pass-PMC2847224-UAZ-r1-87",
        "offset":671,
        "object-type":"relative-pos"
      },
      "sentence":"sent-PMC2847224-UAZ-r1-87-9",
      "found-by":"Sumoylation_syntax_4_noun",
      "object-meta":{
        "component":"REACH",
        "object-type":"meta-info"
      },
      "verbose-text":"Knockdown of SENP1 increased the amount of HIF-2alpha-SUMO-2 conjugates , whereas knockdown of RSUME did not influence HIF-2alpha sumoylation ."
    },
    {
      "frame-id":"evem-PMC2847224-UAZ-r1-88-1-31",
      "text":"TSA increased the activity of HIF-2alpha",
      "arguments":[
        {
          "text":"HIF-2alpha",
          "argument-type":"entity",
          "object-type":"argument",
          "index":0,
          "argument-label":"controlled",
          "arg":"ment-PMC2847224-UAZ-r1-88-1-628"
        },
        {
          "text":"TSA",
          "argument-type":"entity",
          "object-type":"argument",
          "index":0,
          "argument-label":"controller",
          "arg":"ment-PMC2847224-UAZ-r1-88-1-627"
        }
      ],
      "type":"activation",
      "frame-type":"event-mention",
      "subtype":"positive-activation",
      "end-pos":{
        "reference":"pass-PMC2847224-UAZ-r1-88",
        "offset":223,
        "object-type":"relative-pos"
      },
      "object-type":"frame",
      "start-pos":{
        "reference":"pass-PMC2847224-UAZ-r1-88",
        "offset":183,
        "object-type":"relative-pos"
      },
      "sentence":"sent-PMC2847224-UAZ-r1-88-1",
      "found-by":"Positive_activation_syntax_1_verb",
      "object-meta":{
        "component":"REACH",
        "object-type":"meta-info"
      },
      "verbose-text":"It appears that HDACs control HIF-2alpha since the HDAC-inhibitor TSA increased the activity of HIF-2alpha                          ."
    },
    {
      "frame-id":"evem-PMC2847224-UAZ-r1-88-2-32",
      "text":"HIF-2alpha sumoylation",
      "arguments":[
        {
          "text":"HIF-2alpha",
          "argument-type":"entity",
          "object-type":"argument",
          "index":0,
          "argument-label":"theme",
          "arg":"ment-PMC2847224-UAZ-r1-88-2-629"
        }
      ],
      "type":"protein-modification",
      "frame-type":"event-mention",
      "subtype":"sumoylation",
      "end-pos":{
        "reference":"pass-PMC2847224-UAZ-r1-88",
        "offset":308,
        "object-type":"relative-pos"
      },
      "object-type":"frame",
      "start-pos":{
        "reference":"pass-PMC2847224-UAZ-r1-88",
        "offset":286,
        "object-type":"relative-pos"
      },
      "sentence":"sent-PMC2847224-UAZ-r1-88-2",
      "found-by":"Sumoylation_syntax_4_noun",
      "object-meta":{
        "component":"REACH",
        "object-type":"meta-info"
      },
      "verbose-text":"However , this was not dependent on HIF-2alpha sumoylation since the E396A mutant was similarly affected by TSA ."
    },
    {
      "frame-id":"evem-PMC2847224-UAZ-r1-89-3-33",
      "text":"sumoylation site in HIF-1alpha and the K394",
      "arguments":[
        {
          "text":"HIF-1alpha",
          "argument-type":"entity",
          "object-type":"argument",
          "index":0,
          "argument-label":"theme",
          "arg":"ment-PMC2847224-UAZ-r1-89-3-635"
        },
        {
          "text":"K394",
          "argument-type":"entity",
          "object-type":"argument",
          "index":0,
          "argument-label":"site",
          "arg":"ment-PMC2847224-UAZ-r1-89-3-636"
        }
      ],
      "type":"protein-modification",
      "frame-type":"event-mention",
      "subtype":"sumoylation",
      "end-pos":{
        "reference":"pass-PMC2847224-UAZ-r1-89",
        "offset":509,
        "object-type":"relative-pos"
      },
      "object-type":"frame",
      "start-pos":{
        "reference":"pass-PMC2847224-UAZ-r1-89",
        "offset":466,
        "object-type":"relative-pos"
      },
      "sentence":"sent-PMC2847224-UAZ-r1-89-3",
      "found-by":"Sumoylation_syntax_5_noun",
      "object-meta":{
        "component":"REACH",
        "object-type":"meta-info"
      },
      "verbose-text":"Interestingly , the K391 sumoylation site in HIF-1alpha and the K394 sumoylation site in HIF-2alpha show a high degree of sequence similarity and both are used for SUMO conjugation ."
    },
    {
      "frame-id":"evem-PMC2847224-UAZ-r1-89-0-34",
      "text":"sumoylation of HIF-2alpha",
      "arguments":[
        {
          "text":"HIF-2alpha",
          "argument-type":"entity",
          "object-type":"argument",
          "index":0,
          "argument-label":"theme",
          "arg":"ment-PMC2847224-UAZ-r1-89-0-631"
        }
      ],
      "type":"protein-modification",
      "frame-type":"event-mention",
      "subtype":"sumoylation",
      "end-pos":{
        "reference":"pass-PMC2847224-UAZ-r1-89",
        "offset":126,
        "object-type":"relative-pos"
      },
      "object-type":"frame",
      "start-pos":{
        "reference":"pass-PMC2847224-UAZ-r1-89",
        "offset":101,
        "object-type":"relative-pos"
      },
      "sentence":"sent-PMC2847224-UAZ-r1-89-0",
      "found-by":"Sumoylation_syntax_1_noun",
      "object-meta":{
        "component":"REACH",
        "object-type":"meta-info"
      },
      "verbose-text":"In contrast to the K394R and E396A mutations , the K497R and E499A mutations did not appear to reduce sumoylation of HIF-2alpha ."
    },
    {
      "frame-id":"evem-PMC2847224-UAZ-r1-89-3-35",
      "text":"sumoylation site in HIF-2alpha",
      "arguments":[
        {
          "text":"HIF-2alpha",
          "argument-type":"entity",
          "object-type":"argument",
          "index":0,
          "argument-label":"theme",
          "arg":"ment-PMC2847224-UAZ-r1-89-3-637"
        }
      ],
      "type":"protein-modification",
      "frame-type":"event-mention",
      "subtype":"sumoylation",
      "end-pos":{
        "reference":"pass-PMC2847224-UAZ-r1-89",
        "offset":540,
        "object-type":"relative-pos"
      },
      "object-type":"frame",
      "start-pos":{
        "reference":"pass-PMC2847224-UAZ-r1-89",
        "offset":510,
        "object-type":"relative-pos"
      },
      "sentence":"sent-PMC2847224-UAZ-r1-89-3",
      "found-by":"Sumoylation_syntax_5_noun",
      "object-meta":{
        "component":"REACH",
        "object-type":"meta-info"
      },
      "verbose-text":"Interestingly , the K391 sumoylation site in HIF-1alpha and the K394 sumoylation site in HIF-2alpha show a high degree of sequence similarity and both are used for SUMO conjugation ."
    }
  ],
  "object-type":"frame-collection",
  "object-meta":{
    "processing-end":"2015-06-14T21:36:17Z",
    "doc-id":"PMC2847224",
    "component-type":"machine",
    "component":"REACH",
    "processing-start":"2015-06-14T21:34:48Z",
    "object-type":"meta-info",
    "organization":"UAZ"
  }
}
