{
    "frames": [
        {
            "frame-id": "smap-PMC3144586-cmu-1", 
            "frame-type": "sentence-map", 
            "list1-meta": {
                "component": "nxml2fries", 
                "object-type": "meta-info", 
                "organization": "UAZ"
            }, 
            "list2-meta": {
                "component": "Nicolas-NXML-Parser", 
                "object-type": "meta-info", 
                "organization": "CMU"
            }, 
            "map": [
                {
                    "from": "sent-PMC3144586-UAZ-r1-52-0", 
                    "object-type": "map-range", 
                    "to": "sent-PMC3144586-cmu-227"
                }, 
                {
                    "from": "sent-PMC3144586-UAZ-r1-25-14", 
                    "object-type": "map-range", 
                    "to": "sent-PMC3144586-cmu-120"
                }, 
                {
                    "from": "sent-PMC3144586-UAZ-r1-58-1", 
                    "object-type": "map-range", 
                    "to": "sent-PMC3144586-cmu-240"
                }, 
                {
                    "from": "sent-PMC3144586-UAZ-r1-32-5", 
                    "object-type": "map-range", 
                    "to": "sent-PMC3144586-cmu-155"
                }, 
                {
                    "from": "sent-PMC3144586-UAZ-r1-36-1", 
                    "object-type": "map-range", 
                    "to": "sent-PMC3144586-cmu-168"
                }, 
                {
                    "from": "sent-PMC3144586-UAZ-r1-74-2", 
                    "object-type": "map-range", 
                    "to": "sent-PMC3144586-cmu-303"
                }, 
                {
                    "from": "sent-PMC3144586-UAZ-r1-40-3", 
                    "object-type": "map-range", 
                    "to": "sent-PMC3144586-cmu-206"
                }, 
                {
                    "from": "sent-PMC3144586-UAZ-r1-37-4", 
                    "object-type": "map-range", 
                    "to": "sent-PMC3144586-cmu-181"
                }, 
                {
                    "from": "sent-PMC3144586-UAZ-r1-16-15", 
                    "object-type": "map-range", 
                    "to": "sent-PMC3144586-cmu-68"
                }, 
                {
                    "from": "sent-PMC3144586-UAZ-r1-26-0", 
                    "object-type": "map-range", 
                    "to": "sent-PMC3144586-cmu-122"
                }, 
                {
                    "from": "sent-PMC3144586-UAZ-r1-64-14", 
                    "object-type": "map-range", 
                    "to": "sent-PMC3144586-cmu-263"
                }, 
                {
                    "from": "sent-PMC3144586-UAZ-r1-32-3", 
                    "object-type": "map-range", 
                    "to": "sent-PMC3144586-cmu-151"
                }, 
                {
                    "from": "sent-PMC3144586-UAZ-r1-29-0", 
                    "object-type": "map-range", 
                    "to": "sent-PMC3144586-cmu-130"
                }, 
                {
                    "from": "sent-PMC3144586-UAZ-r1-35-4", 
                    "object-type": "map-range", 
                    "to": "sent-PMC3144586-cmu-161"
                }, 
                {
                    "from": "sent-PMC3144586-UAZ-r1-64-2", 
                    "object-type": "map-range", 
                    "to": "sent-PMC3144586-cmu-251"
                }, 
                {
                    "from": "sent-PMC3144586-UAZ-r1-16-0", 
                    "object-type": "map-range", 
                    "to": "sent-PMC3144586-cmu-49"
                }, 
                {
                    "from": "sent-PMC3144586-UAZ-r1-74-4", 
                    "object-type": "map-range", 
                    "to": "sent-PMC3144586-cmu-305"
                }, 
                {
                    "from": "sent-PMC3144586-UAZ-r1-64-13", 
                    "object-type": "map-range", 
                    "to": "sent-PMC3144586-cmu-262"
                }, 
                {
                    "from": "sent-PMC3144586-UAZ-r1-46-1", 
                    "object-type": "map-range", 
                    "to": "sent-PMC3144586-cmu-219"
                }, 
                {
                    "from": "sent-PMC3144586-UAZ-r1-26-6", 
                    "object-type": "map-range", 
                    "to": "sent-PMC3144586-cmu-128"
                }, 
                {
                    "from": "sent-PMC3144586-UAZ-r1-13-2", 
                    "object-type": "map-range", 
                    "to": "sent-PMC3144586-cmu-38"
                }, 
                {
                    "from": "sent-PMC3144586-UAZ-r1-74-0", 
                    "object-type": "map-range", 
                    "to": "sent-PMC3144586-cmu-301"
                }, 
                {
                    "from": "sent-PMC3144586-UAZ-r1-65-5", 
                    "object-type": "map-range", 
                    "to": "sent-PMC3144586-cmu-274"
                }, 
                {
                    "from": "sent-PMC3144586-UAZ-r1-32-2", 
                    "object-type": "map-range", 
                    "to": "sent-PMC3144586-cmu-149"
                }, 
                {
                    "from": "sent-PMC3144586-UAZ-r1-40-2", 
                    "object-type": "map-range", 
                    "to": "sent-PMC3144586-cmu-205"
                }, 
                {
                    "from": "sent-PMC3144586-UAZ-r1-22-1", 
                    "object-type": "map-range", 
                    "to": "sent-PMC3144586-cmu-86"
                }, 
                {
                    "from": "sent-PMC3144586-UAZ-r1-37-1", 
                    "object-type": "map-range", 
                    "to": "sent-PMC3144586-cmu-178"
                }, 
                {
                    "from": "sent-PMC3144586-UAZ-r1-45-1", 
                    "object-type": "map-range", 
                    "to": "sent-PMC3144586-cmu-211"
                }, 
                {
                    "from": "sent-PMC3144586-UAZ-r1-25-9", 
                    "object-type": "map-range", 
                    "to": "sent-PMC3144586-cmu-113"
                }, 
                {
                    "from": "sent-PMC3144586-UAZ-r1-38-5", 
                    "object-type": "map-range", 
                    "to": "sent-PMC3144586-cmu-192"
                }, 
                {
                    "from": "sent-PMC3144586-UAZ-r1-68-9", 
                    "object-type": "map-range", 
                    "to": "sent-PMC3144586-cmu-286"
                }, 
                {
                    "from": "sent-PMC3144586-UAZ-r1-44-0", 
                    "object-type": "map-range", 
                    "to": "sent-PMC3144586-cmu-209"
                }, 
                {
                    "from": "sent-PMC3144586-UAZ-r1-365-4", 
                    "object-type": "map-range", 
                    "to": "sent-PMC3144586-cmu-233"
                }, 
                {
                    "from": "sent-PMC3144586-UAZ-r1-32-1", 
                    "object-type": "map-range", 
                    "to": "sent-PMC3144586-cmu-147"
                }, 
                {
                    "from": "sent-PMC3144586-UAZ-r1-38-8", 
                    "object-type": "map-range", 
                    "to": "sent-PMC3144586-cmu-195"
                }, 
                {
                    "from": "sent-PMC3144586-UAZ-r1-22-10", 
                    "object-type": "map-range", 
                    "to": "sent-PMC3144586-cmu-99"
                }, 
                {
                    "from": "sent-PMC3144586-UAZ-r1-16-3", 
                    "object-type": "map-range", 
                    "to": "sent-PMC3144586-cmu-52"
                }, 
                {
                    "from": "sent-PMC3144586-UAZ-r1-13-5", 
                    "object-type": "map-range", 
                    "to": "sent-PMC3144586-cmu-41"
                }, 
                {
                    "from": "sent-PMC3144586-UAZ-r1-37-2", 
                    "object-type": "map-range", 
                    "to": "sent-PMC3144586-cmu-179"
                }, 
                {
                    "from": "sent-PMC3144586-UAZ-r1-29-6", 
                    "object-type": "map-range", 
                    "to": "sent-PMC3144586-cmu-138"
                }, 
                {
                    "from": "sent-PMC3144586-UAZ-r1-16-10", 
                    "object-type": "map-range", 
                    "to": "sent-PMC3144586-cmu-61"
                }, 
                {
                    "from": "sent-PMC3144586-UAZ-r1-46-0", 
                    "object-type": "map-range", 
                    "to": "sent-PMC3144586-cmu-218"
                }, 
                {
                    "from": "sent-PMC3144586-UAZ-r1-25-11", 
                    "object-type": "map-range", 
                    "to": "sent-PMC3144586-cmu-116"
                }, 
                {
                    "from": "sent-PMC3144586-UAZ-r1-32-4", 
                    "object-type": "map-range", 
                    "to": "sent-PMC3144586-cmu-153"
                }, 
                {
                    "from": "sent-PMC3144586-UAZ-r1-64-17", 
                    "object-type": "map-range", 
                    "to": "sent-PMC3144586-cmu-266"
                }, 
                {
                    "from": "sent-PMC3144586-UAZ-r1-28-0", 
                    "object-type": "map-range", 
                    "to": "sent-PMC3144586-cmu-129"
                }, 
                {
                    "from": "sent-PMC3144586-UAZ-r1-21-0", 
                    "object-type": "map-range", 
                    "to": "sent-PMC3144586-cmu-84"
                }, 
                {
                    "from": "sent-PMC3144586-UAZ-r1-36-6", 
                    "object-type": "map-range", 
                    "to": "sent-PMC3144586-cmu-173"
                }, 
                {
                    "from": "sent-PMC3144586-UAZ-r1-52-1", 
                    "object-type": "map-range", 
                    "to": "sent-PMC3144586-cmu-228"
                }, 
                {
                    "from": "sent-PMC3144586-UAZ-r1-22-0", 
                    "object-type": "map-range", 
                    "to": "sent-PMC3144586-cmu-85"
                }, 
                {
                    "from": "sent-PMC3144586-UAZ-r1-37-5", 
                    "object-type": "map-range", 
                    "to": "sent-PMC3144586-cmu-182"
                }, 
                {
                    "from": "sent-PMC3144586-UAZ-r1-65-2", 
                    "object-type": "map-range", 
                    "to": "sent-PMC3144586-cmu-271"
                }, 
                {
                    "from": "sent-PMC3144586-UAZ-r1-13-0", 
                    "object-type": "map-range", 
                    "to": "sent-PMC3144586-cmu-36"
                }, 
                {
                    "from": "sent-PMC3144586-UAZ-r1-19-3", 
                    "object-type": "map-range", 
                    "to": "sent-PMC3144586-cmu-74"
                }, 
                {
                    "from": "sent-PMC3144586-UAZ-r1-55-2", 
                    "object-type": "map-range", 
                    "to": "sent-PMC3144586-cmu-235"
                }, 
                {
                    "from": "sent-PMC3144586-UAZ-r1-25-11", 
                    "object-type": "map-range", 
                    "to": "sent-PMC3144586-cmu-167"
                }, 
                {
                    "from": "sent-PMC3144586-UAZ-r1-64-1", 
                    "object-type": "map-range", 
                    "to": "sent-PMC3144586-cmu-250"
                }, 
                {
                    "from": "sent-PMC3144586-UAZ-r1-22-8", 
                    "object-type": "map-range", 
                    "to": "sent-PMC3144586-cmu-95"
                }, 
                {
                    "from": "sent-PMC3144586-UAZ-r1-36-2", 
                    "object-type": "map-range", 
                    "to": "sent-PMC3144586-cmu-169"
                }, 
                {
                    "from": "sent-PMC3144586-UAZ-r1-16-4", 
                    "object-type": "map-range", 
                    "to": "sent-PMC3144586-cmu-53"
                }, 
                {
                    "from": "sent-PMC3144586-UAZ-r1-74-1", 
                    "object-type": "map-range", 
                    "to": "sent-PMC3144586-cmu-302"
                }, 
                {
                    "from": "sent-PMC3144586-UAZ-r1-64-5", 
                    "object-type": "map-range", 
                    "to": "sent-PMC3144586-cmu-254"
                }, 
                {
                    "from": "sent-PMC3144586-UAZ-r1-64-7", 
                    "object-type": "map-range", 
                    "to": "sent-PMC3144586-cmu-256"
                }, 
                {
                    "from": "sent-PMC3144586-UAZ-r1-64-12", 
                    "object-type": "map-range", 
                    "to": "sent-PMC3144586-cmu-261"
                }, 
                {
                    "from": "sent-PMC3144586-UAZ-r1-55-1", 
                    "object-type": "map-range", 
                    "to": "sent-PMC3144586-cmu-234"
                }, 
                {
                    "from": "sent-PMC3144586-UAZ-r1-35-3", 
                    "object-type": "map-range", 
                    "to": "sent-PMC3144586-cmu-160"
                }, 
                {
                    "from": "sent-PMC3144586-UAZ-r1-19-4", 
                    "object-type": "map-range", 
                    "to": "sent-PMC3144586-cmu-75"
                }, 
                {
                    "from": "sent-PMC3144586-UAZ-r1-19-5", 
                    "object-type": "map-range", 
                    "to": "sent-PMC3144586-cmu-77"
                }, 
                {
                    "from": "sent-PMC3144586-UAZ-r1-16-9", 
                    "object-type": "map-range", 
                    "to": "sent-PMC3144586-cmu-60"
                }, 
                {
                    "from": "sent-PMC3144586-UAZ-r1-68-4", 
                    "object-type": "map-range", 
                    "to": "sent-PMC3144586-cmu-280"
                }, 
                {
                    "from": "sent-PMC3144586-UAZ-r1-55-3", 
                    "object-type": "map-range", 
                    "to": "sent-PMC3144586-cmu-236"
                }, 
                {
                    "from": "sent-PMC3144586-UAZ-r1-45-4", 
                    "object-type": "map-range", 
                    "to": "sent-PMC3144586-cmu-215"
                }, 
                {
                    "from": "sent-PMC3144586-UAZ-r1-35-5", 
                    "object-type": "map-range", 
                    "to": "sent-PMC3144586-cmu-162"
                }, 
                {
                    "from": "sent-PMC3144586-UAZ-r1-37-8", 
                    "object-type": "map-range", 
                    "to": "sent-PMC3144586-cmu-185"
                }, 
                {
                    "from": "sent-PMC3144586-UAZ-r1-51-0", 
                    "object-type": "map-range", 
                    "to": "sent-PMC3144586-cmu-226"
                }, 
                {
                    "from": "sent-PMC3144586-UAZ-r1-13-9", 
                    "object-type": "map-range", 
                    "to": "sent-PMC3144586-cmu-45"
                }, 
                {
                    "from": "sent-PMC3144586-UAZ-r1-36-9", 
                    "object-type": "map-range", 
                    "to": "sent-PMC3144586-cmu-176"
                }, 
                {
                    "from": "sent-PMC3144586-UAZ-r1-16-5", 
                    "object-type": "map-range", 
                    "to": "sent-PMC3144586-cmu-5"
                }, 
                {
                    "from": "sent-PMC3144586-UAZ-r1-49-3", 
                    "object-type": "map-range", 
                    "to": "sent-PMC3144586-cmu-224"
                }, 
                {
                    "from": "sent-PMC3144586-UAZ-r1-35-2", 
                    "object-type": "map-range", 
                    "to": "sent-PMC3144586-cmu-159"
                }, 
                {
                    "from": "sent-PMC3144586-UAZ-r1-25-5", 
                    "object-type": "map-range", 
                    "to": "sent-PMC3144586-cmu-108"
                }, 
                {
                    "from": "sent-PMC3144586-UAZ-r1-29-4", 
                    "object-type": "map-range", 
                    "to": "sent-PMC3144586-cmu-134"
                }, 
                {
                    "from": "sent-PMC3144586-UAZ-r1-68-3", 
                    "object-type": "map-range", 
                    "to": "sent-PMC3144586-cmu-279"
                }, 
                {
                    "from": "sent-PMC3144586-UAZ-r1-64-3", 
                    "object-type": "map-range", 
                    "to": "sent-PMC3144586-cmu-252"
                }, 
                {
                    "from": "sent-PMC3144586-UAZ-r1-49-2", 
                    "object-type": "map-range", 
                    "to": "sent-PMC3144586-cmu-223"
                }, 
                {
                    "from": "sent-PMC3144586-UAZ-r1-19-0", 
                    "object-type": "map-range", 
                    "to": "sent-PMC3144586-cmu-71"
                }, 
                {
                    "from": "sent-PMC3144586-UAZ-r1-16-12", 
                    "object-type": "map-range", 
                    "to": "sent-PMC3144586-cmu-64"
                }, 
                {
                    "from": "sent-PMC3144586-UAZ-r1-39-4", 
                    "object-type": "map-range", 
                    "to": "sent-PMC3144586-cmu-201"
                }, 
                {
                    "from": "sent-PMC3144586-UAZ-r1-16-11", 
                    "object-type": "map-range", 
                    "to": "sent-PMC3144586-cmu-62"
                }, 
                {
                    "from": "sent-PMC3144586-UAZ-r1-22-9", 
                    "object-type": "map-range", 
                    "to": "sent-PMC3144586-cmu-97"
                }, 
                {
                    "from": "sent-PMC3144586-UAZ-r1-19-6", 
                    "object-type": "map-range", 
                    "to": "sent-PMC3144586-cmu-80"
                }, 
                {
                    "from": "sent-PMC3144586-UAZ-r1-40-1", 
                    "object-type": "map-range", 
                    "to": "sent-PMC3144586-cmu-204"
                }, 
                {
                    "from": "sent-PMC3144586-UAZ-r1-39-2", 
                    "object-type": "map-range", 
                    "to": "sent-PMC3144586-cmu-199"
                }, 
                {
                    "from": "sent-PMC3144586-UAZ-r1-16-6", 
                    "object-type": "map-range", 
                    "to": "sent-PMC3144586-cmu-55"
                }, 
                {
                    "from": "sent-PMC3144586-UAZ-r1-40-0", 
                    "object-type": "map-range", 
                    "to": "sent-PMC3144586-cmu-203"
                }, 
                {
                    "from": "sent-PMC3144586-UAZ-r1-36-8", 
                    "object-type": "map-range", 
                    "to": "sent-PMC3144586-cmu-175"
                }, 
                {
                    "from": "sent-PMC3144586-UAZ-r1-39-1", 
                    "object-type": "map-range", 
                    "to": "sent-PMC3144586-cmu-198"
                }, 
                {
                    "from": "sent-PMC3144586-UAZ-r1-29-3", 
                    "object-type": "map-range", 
                    "to": "sent-PMC3144586-cmu-133"
                }, 
                {
                    "from": "sent-PMC3144586-UAZ-r1-45-6", 
                    "object-type": "map-range", 
                    "to": "sent-PMC3144586-cmu-217"
                }, 
                {
                    "from": "sent-PMC3144586-UAZ-r1-39-5", 
                    "object-type": "map-range", 
                    "to": "sent-PMC3144586-cmu-202"
                }, 
                {
                    "from": "sent-PMC3144586-UAZ-r1-68-7", 
                    "object-type": "map-range", 
                    "to": "sent-PMC3144586-cmu-284"
                }, 
                {
                    "from": "sent-PMC3144586-UAZ-r1-61-3", 
                    "object-type": "map-range", 
                    "to": "sent-PMC3144586-cmu-247"
                }, 
                {
                    "from": "sent-PMC3144586-UAZ-r1-65-0", 
                    "object-type": "map-range", 
                    "to": "sent-PMC3144586-cmu-269"
                }, 
                {
                    "from": "sent-PMC3144586-UAZ-r1-22-6", 
                    "object-type": "map-range", 
                    "to": "sent-PMC3144586-cmu-93"
                }, 
                {
                    "from": "sent-PMC3144586-UAZ-r1-64-11", 
                    "object-type": "map-range", 
                    "to": "sent-PMC3144586-cmu-260"
                }, 
                {
                    "from": "sent-PMC3144586-UAZ-r1-64-10", 
                    "object-type": "map-range", 
                    "to": "sent-PMC3144586-cmu-259"
                }, 
                {
                    "from": "sent-PMC3144586-UAZ-r1-25-3", 
                    "object-type": "map-range", 
                    "to": "sent-PMC3144586-cmu-104"
                }, 
                {
                    "from": "sent-PMC3144586-UAZ-r1-45-0", 
                    "object-type": "map-range", 
                    "to": "sent-PMC3144586-cmu-210"
                }, 
                {
                    "from": "sent-PMC3144586-UAZ-r1-24-0", 
                    "object-type": "map-range", 
                    "to": "sent-PMC3144586-cmu-100"
                }, 
                {
                    "from": "sent-PMC3144586-UAZ-r1-35-6", 
                    "object-type": "map-range", 
                    "to": "sent-PMC3144586-cmu-163"
                }, 
                {
                    "from": "sent-PMC3144586-UAZ-r1-26-5", 
                    "object-type": "map-range", 
                    "to": "sent-PMC3144586-cmu-127"
                }, 
                {
                    "from": "sent-PMC3144586-UAZ-r1-16-5", 
                    "object-type": "map-range", 
                    "to": "sent-PMC3144586-cmu-54"
                }, 
                {
                    "from": "sent-PMC3144586-UAZ-r1-68-10", 
                    "object-type": "map-range", 
                    "to": "sent-PMC3144586-cmu-287"
                }, 
                {
                    "from": "sent-PMC3144586-UAZ-r1-38-4", 
                    "object-type": "map-range", 
                    "to": "sent-PMC3144586-cmu-191"
                }, 
                {
                    "from": "sent-PMC3144586-UAZ-r1-19-8", 
                    "object-type": "map-range", 
                    "to": "sent-PMC3144586-cmu-83"
                }, 
                {
                    "from": "sent-PMC3144586-UAZ-r1-16-7", 
                    "object-type": "map-range", 
                    "to": "sent-PMC3144586-cmu-57"
                }, 
                {
                    "from": "sent-PMC3144586-UAZ-r1-36-4", 
                    "object-type": "map-range", 
                    "to": "sent-PMC3144586-cmu-171"
                }, 
                {
                    "from": "sent-PMC3144586-UAZ-r1-22-3", 
                    "object-type": "map-range", 
                    "to": "sent-PMC3144586-cmu-89"
                }, 
                {
                    "from": "sent-PMC3144586-UAZ-r1-38-9", 
                    "object-type": "map-range", 
                    "to": "sent-PMC3144586-cmu-196"
                }, 
                {
                    "from": "sent-PMC3144586-UAZ-r1-52-2", 
                    "object-type": "map-range", 
                    "to": "sent-PMC3144586-cmu-229"
                }, 
                {
                    "from": "sent-PMC3144586-UAZ-r1-19-2", 
                    "object-type": "map-range", 
                    "to": "sent-PMC3144586-cmu-73"
                }, 
                {
                    "from": "sent-PMC3144586-UAZ-r1-52-4", 
                    "object-type": "map-range", 
                    "to": "sent-PMC3144586-cmu-231"
                }, 
                {
                    "from": "sent-PMC3144586-UAZ-r1-36-5", 
                    "object-type": "map-range", 
                    "to": "sent-PMC3144586-cmu-172"
                }, 
                {
                    "from": "sent-PMC3144586-UAZ-r1-16-13", 
                    "object-type": "map-range", 
                    "to": "sent-PMC3144586-cmu-66"
                }, 
                {
                    "from": "sent-PMC3144586-UAZ-r1-64-0", 
                    "object-type": "map-range", 
                    "to": "sent-PMC3144586-cmu-249"
                }, 
                {
                    "from": "sent-PMC3144586-UAZ-r1-65-3", 
                    "object-type": "map-range", 
                    "to": "sent-PMC3144586-cmu-272"
                }, 
                {
                    "from": "sent-PMC3144586-UAZ-r1-13-8", 
                    "object-type": "map-range", 
                    "to": "sent-PMC3144586-cmu-44"
                }, 
                {
                    "from": "sent-PMC3144586-UAZ-r1-36-7", 
                    "object-type": "map-range", 
                    "to": "sent-PMC3144586-cmu-174"
                }, 
                {
                    "from": "sent-PMC3144586-UAZ-r1-58-0", 
                    "object-type": "map-range", 
                    "to": "sent-PMC3144586-cmu-239"
                }, 
                {
                    "from": "sent-PMC3144586-UAZ-r1-57-0", 
                    "object-type": "map-range", 
                    "to": "sent-PMC3144586-cmu-238"
                }, 
                {
                    "from": "sent-PMC3144586-UAZ-r1-40-4", 
                    "object-type": "map-range", 
                    "to": "sent-PMC3144586-cmu-207"
                }, 
                {
                    "from": "sent-PMC3144586-UAZ-r1-32-0", 
                    "object-type": "map-range", 
                    "to": "sent-PMC3144586-cmu-146"
                }, 
                {
                    "from": "sent-PMC3144586-UAZ-r1-37-3", 
                    "object-type": "map-range", 
                    "to": "sent-PMC3144586-cmu-23"
                }, 
                {
                    "from": "sent-PMC3144586-UAZ-r1-13-7", 
                    "object-type": "map-range", 
                    "to": "sent-PMC3144586-cmu-43"
                }, 
                {
                    "from": "sent-PMC3144586-UAZ-r1-29-8", 
                    "object-type": "map-range", 
                    "to": "sent-PMC3144586-cmu-141"
                }, 
                {
                    "from": "sent-PMC3144586-UAZ-r1-68-0", 
                    "object-type": "map-range", 
                    "to": "sent-PMC3144586-cmu-276"
                }, 
                {
                    "from": "sent-PMC3144586-UAZ-r1-37-3", 
                    "object-type": "map-range", 
                    "to": "sent-PMC3144586-cmu-180"
                }, 
                {
                    "from": "sent-PMC3144586-UAZ-r1-25-2", 
                    "object-type": "map-range", 
                    "to": "sent-PMC3144586-cmu-103"
                }, 
                {
                    "from": "sent-PMC3144586-UAZ-r1-29-1", 
                    "object-type": "map-range", 
                    "to": "sent-PMC3144586-cmu-131"
                }, 
                {
                    "from": "sent-PMC3144586-UAZ-r1-74-3", 
                    "object-type": "map-range", 
                    "to": "sent-PMC3144586-cmu-304"
                }, 
                {
                    "from": "sent-PMC3144586-UAZ-r1-49-1", 
                    "object-type": "map-range", 
                    "to": "sent-PMC3144586-cmu-222"
                }, 
                {
                    "from": "sent-PMC3144586-UAZ-r1-25-13", 
                    "object-type": "map-range", 
                    "to": "sent-PMC3144586-cmu-118"
                }, 
                {
                    "from": "sent-PMC3144586-UAZ-r1-38-6", 
                    "object-type": "map-range", 
                    "to": "sent-PMC3144586-cmu-193"
                }, 
                {
                    "from": "sent-PMC3144586-UAZ-r1-13-6", 
                    "object-type": "map-range", 
                    "to": "sent-PMC3144586-cmu-42"
                }, 
                {
                    "from": "sent-PMC3144586-UAZ-r1-64-4", 
                    "object-type": "map-range", 
                    "to": "sent-PMC3144586-cmu-253"
                }, 
                {
                    "from": "sent-PMC3144586-UAZ-r1-64-6", 
                    "object-type": "map-range", 
                    "to": "sent-PMC3144586-cmu-255"
                }, 
                {
                    "from": "sent-PMC3144586-UAZ-r1-25-4", 
                    "object-type": "map-range", 
                    "to": "sent-PMC3144586-cmu-105"
                }, 
                {
                    "from": "sent-PMC3144586-UAZ-r1-16-8", 
                    "object-type": "map-range", 
                    "to": "sent-PMC3144586-cmu-58"
                }, 
                {
                    "from": "sent-PMC3144586-UAZ-r1-25-8", 
                    "object-type": "map-range", 
                    "to": "sent-PMC3144586-cmu-112"
                }, 
                {
                    "from": "sent-PMC3144586-UAZ-r1-39-0", 
                    "object-type": "map-range", 
                    "to": "sent-PMC3144586-cmu-197"
                }, 
                {
                    "from": "sent-PMC3144586-UAZ-r1-22-5", 
                    "object-type": "map-range", 
                    "to": "sent-PMC3144586-cmu-91"
                }, 
                {
                    "from": "sent-PMC3144586-UAZ-r1-35-1", 
                    "object-type": "map-range", 
                    "to": "sent-PMC3144586-cmu-158"
                }, 
                {
                    "from": "sent-PMC3144586-UAZ-r1-16-1", 
                    "object-type": "map-range", 
                    "to": "sent-PMC3144586-cmu-50"
                }, 
                {
                    "from": "sent-PMC3144586-UAZ-r1-68-6", 
                    "object-type": "map-range", 
                    "to": "sent-PMC3144586-cmu-283"
                }, 
                {
                    "from": "sent-PMC3144586-UAZ-r1-64-19", 
                    "object-type": "map-range", 
                    "to": "sent-PMC3144586-cmu-268"
                }, 
                {
                    "from": "sent-PMC3144586-UAZ-r1-37-6", 
                    "object-type": "map-range", 
                    "to": "sent-PMC3144586-cmu-183"
                }, 
                {
                    "from": "sent-PMC3144586-UAZ-r1-49-4", 
                    "object-type": "map-range", 
                    "to": "sent-PMC3144586-cmu-225"
                }, 
                {
                    "from": "sent-PMC3144586-UAZ-r1-58-2", 
                    "object-type": "map-range", 
                    "to": "sent-PMC3144586-cmu-241"
                }, 
                {
                    "from": "sent-PMC3144586-UAZ-r1-35-7", 
                    "object-type": "map-range", 
                    "to": "sent-PMC3144586-cmu-164"
                }, 
                {
                    "from": "sent-PMC3144586-UAZ-r1-25-10", 
                    "object-type": "map-range", 
                    "to": "sent-PMC3144586-cmu-115"
                }, 
                {
                    "from": "sent-PMC3144586-UAZ-r1-49-0", 
                    "object-type": "map-range", 
                    "to": "sent-PMC3144586-cmu-221"
                }, 
                {
                    "from": "sent-PMC3144586-UAZ-r1-26-2", 
                    "object-type": "map-range", 
                    "to": "sent-PMC3144586-cmu-124"
                }, 
                {
                    "from": "sent-PMC3144586-UAZ-r1-61-0", 
                    "object-type": "map-range", 
                    "to": "sent-PMC3144586-cmu-244"
                }, 
                {
                    "from": "sent-PMC3144586-UAZ-r1-37-9", 
                    "object-type": "map-range", 
                    "to": "sent-PMC3144586-cmu-186"
                }, 
                {
                    "from": "sent-PMC3144586-UAZ-r1-25-0", 
                    "object-type": "map-range", 
                    "to": "sent-PMC3144586-cmu-101"
                }, 
                {
                    "from": "sent-PMC3144586-UAZ-r1-64-9", 
                    "object-type": "map-range", 
                    "to": "sent-PMC3144586-cmu-258"
                }, 
                {
                    "from": "sent-PMC3144586-UAZ-r1-16-2", 
                    "object-type": "map-range", 
                    "to": "sent-PMC3144586-cmu-51"
                }, 
                {
                    "from": "sent-PMC3144586-UAZ-r1-64-18", 
                    "object-type": "map-range", 
                    "to": "sent-PMC3144586-cmu-267"
                }, 
                {
                    "from": "sent-PMC3144586-UAZ-r1-18-0", 
                    "object-type": "map-range", 
                    "to": "sent-PMC3144586-cmu-70"
                }, 
                {
                    "from": "sent-PMC3144586-UAZ-r1-55-4", 
                    "object-type": "map-range", 
                    "to": "sent-PMC3144586-cmu-237"
                }, 
                {
                    "from": "sent-PMC3144586-UAZ-r1-38-1", 
                    "object-type": "map-range", 
                    "to": "sent-PMC3144586-cmu-188"
                }, 
                {
                    "from": "sent-PMC3144586-UAZ-r1-22-4", 
                    "object-type": "map-range", 
                    "to": "sent-PMC3144586-cmu-90"
                }, 
                {
                    "from": "sent-PMC3144586-UAZ-r1-31-0", 
                    "object-type": "map-range", 
                    "to": "sent-PMC3144586-cmu-145"
                }, 
                {
                    "from": "sent-PMC3144586-UAZ-r1-68-8", 
                    "object-type": "map-range", 
                    "to": "sent-PMC3144586-cmu-285"
                }, 
                {
                    "from": "sent-PMC3144586-UAZ-r1-65-4", 
                    "object-type": "map-range", 
                    "to": "sent-PMC3144586-cmu-273"
                }, 
                {
                    "from": "sent-PMC3144586-UAZ-r1-36-3", 
                    "object-type": "map-range", 
                    "to": "sent-PMC3144586-cmu-170"
                }, 
                {
                    "from": "sent-PMC3144586-UAZ-r1-37-7", 
                    "object-type": "map-range", 
                    "to": "sent-PMC3144586-cmu-184"
                }, 
                {
                    "from": "sent-PMC3144586-UAZ-r1-58-3", 
                    "object-type": "map-range", 
                    "to": "sent-PMC3144586-cmu-242"
                }, 
                {
                    "from": "sent-PMC3144586-UAZ-r1-35-8", 
                    "object-type": "map-range", 
                    "to": "sent-PMC3144586-cmu-165"
                }, 
                {
                    "from": "sent-PMC3144586-UAZ-r1-64-8", 
                    "object-type": "map-range", 
                    "to": "sent-PMC3144586-cmu-257"
                }, 
                {
                    "from": "sent-PMC3144586-UAZ-r1-64-16", 
                    "object-type": "map-range", 
                    "to": "sent-PMC3144586-cmu-265"
                }, 
                {
                    "from": "sent-PMC3144586-UAZ-r1-13-3", 
                    "object-type": "map-range", 
                    "to": "sent-PMC3144586-cmu-39"
                }, 
                {
                    "from": "sent-PMC3144586-UAZ-r1-64-15", 
                    "object-type": "map-range", 
                    "to": "sent-PMC3144586-cmu-264"
                }, 
                {
                    "from": "sent-PMC3144586-UAZ-r1-25-1", 
                    "object-type": "map-range", 
                    "to": "sent-PMC3144586-cmu-102"
                }, 
                {
                    "from": "sent-PMC3144586-UAZ-r1-39-3", 
                    "object-type": "map-range", 
                    "to": "sent-PMC3144586-cmu-200"
                }, 
                {
                    "from": "sent-PMC3144586-UAZ-r1-37-0", 
                    "object-type": "map-range", 
                    "to": "sent-PMC3144586-cmu-177"
                }, 
                {
                    "from": "sent-PMC3144586-UAZ-r1-38-0", 
                    "object-type": "map-range", 
                    "to": "sent-PMC3144586-cmu-187"
                }, 
                {
                    "from": "sent-PMC3144586-UAZ-r1-38-7", 
                    "object-type": "map-range", 
                    "to": "sent-PMC3144586-cmu-194"
                }, 
                {
                    "from": "sent-PMC3144586-UAZ-r1-25-7", 
                    "object-type": "map-range", 
                    "to": "sent-PMC3144586-cmu-110"
                }, 
                {
                    "from": "sent-PMC3144586-UAZ-r1-15-0", 
                    "object-type": "map-range", 
                    "to": "sent-PMC3144586-cmu-48"
                }, 
                {
                    "from": "sent-PMC3144586-UAZ-r1-35-9", 
                    "object-type": "map-range", 
                    "to": "sent-PMC3144586-cmu-166"
                }, 
                {
                    "from": "sent-PMC3144586-UAZ-r1-38-3", 
                    "object-type": "map-range", 
                    "to": "sent-PMC3144586-cmu-190"
                }, 
                {
                    "from": "sent-PMC3144586-UAZ-r1-68-1", 
                    "object-type": "map-range", 
                    "to": "sent-PMC3144586-cmu-277"
                }, 
                {
                    "from": "sent-PMC3144586-UAZ-r1-35-0", 
                    "object-type": "map-range", 
                    "to": "sent-PMC3144586-cmu-157"
                }, 
                {
                    "from": "sent-PMC3144586-UAZ-r1-29-2", 
                    "object-type": "map-range", 
                    "to": "sent-PMC3144586-cmu-132"
                }, 
                {
                    "from": "sent-PMC3144586-UAZ-r1-16-14", 
                    "object-type": "map-range", 
                    "to": "sent-PMC3144586-cmu-67"
                }, 
                {
                    "from": "sent-PMC3144586-UAZ-r1-29-7", 
                    "object-type": "map-range", 
                    "to": "sent-PMC3144586-cmu-140"
                }, 
                {
                    "from": "sent-PMC3144586-UAZ-r1-22-2", 
                    "object-type": "map-range", 
                    "to": "sent-PMC3144586-cmu-88"
                }
            ], 
            "object-meta": {
                "component": "Pradeep-Matcher", 
                "object-type": "meta-info", 
                "organization": "CMU"
            }, 
            "object-type": "frame"
        }, 
        {
            "frame-id": "smap-PMC3144586-cmu-2", 
            "frame-type": "sentence-map", 
            "list1-meta": {
                "component": "MedScan", 
                "object-type": "meta-info", 
                "organization": "CMU"
            }, 
            "list2-meta": {
                "component": "Nicolas-NXML-Parser", 
                "object-type": "meta-info", 
                "organization": "CMU"
            }, 
            "map": [
                {
                    "from": "sent-PMC3144586-medscan-177", 
                    "object-type": "map-range", 
                    "to": "sent-PMC3144586-cmu-227"
                }, 
                {
                    "from": "sent-PMC3144586-medscan-87", 
                    "object-type": "map-range", 
                    "to": "sent-PMC3144586-cmu-120"
                }, 
                {
                    "from": "sent-PMC3144586-medscan-223", 
                    "object-type": "map-range", 
                    "to": "sent-PMC3144586-cmu-278"
                }, 
                {
                    "from": "sent-PMC3144586-medscan-111", 
                    "object-type": "map-range", 
                    "to": "sent-PMC3144586-cmu-155"
                }, 
                {
                    "from": "sent-PMC3144586-medscan-123", 
                    "object-type": "map-range", 
                    "to": "sent-PMC3144586-cmu-168"
                }, 
                {
                    "from": "sent-PMC3144586-medscan-238", 
                    "object-type": "map-range", 
                    "to": "sent-PMC3144586-cmu-303"
                }, 
                {
                    "from": "sent-PMC3144586-medscan-161", 
                    "object-type": "map-range", 
                    "to": "sent-PMC3144586-cmu-206"
                }, 
                {
                    "from": "sent-PMC3144586-medscan-23", 
                    "object-type": "map-range", 
                    "to": "sent-PMC3144586-cmu-28"
                }, 
                {
                    "from": "sent-PMC3144586-medscan-136", 
                    "object-type": "map-range", 
                    "to": "sent-PMC3144586-cmu-181"
                }, 
                {
                    "from": "sent-PMC3144586-medscan-55", 
                    "object-type": "map-range", 
                    "to": "sent-PMC3144586-cmu-68"
                }, 
                {
                    "from": "sent-PMC3144586-medscan-9", 
                    "object-type": "map-range", 
                    "to": "sent-PMC3144586-cmu-13"
                }, 
                {
                    "from": "sent-PMC3144586-medscan-88", 
                    "object-type": "map-range", 
                    "to": "sent-PMC3144586-cmu-122"
                }, 
                {
                    "from": "sent-PMC3144586-medscan-209", 
                    "object-type": "map-range", 
                    "to": "sent-PMC3144586-cmu-263"
                }, 
                {
                    "from": "sent-PMC3144586-medscan-109", 
                    "object-type": "map-range", 
                    "to": "sent-PMC3144586-cmu-151"
                }, 
                {
                    "from": "sent-PMC3144586-medscan-95", 
                    "object-type": "map-range", 
                    "to": "sent-PMC3144586-cmu-130"
                }, 
                {
                    "from": "sent-PMC3144586-medscan-116", 
                    "object-type": "map-range", 
                    "to": "sent-PMC3144586-cmu-161"
                }, 
                {
                    "from": "sent-PMC3144586-medscan-40", 
                    "object-type": "map-range", 
                    "to": "sent-PMC3144586-cmu-49"
                }, 
                {
                    "from": "sent-PMC3144586-medscan-208", 
                    "object-type": "map-range", 
                    "to": "sent-PMC3144586-cmu-262"
                }, 
                {
                    "from": "sent-PMC3144586-medscan-171", 
                    "object-type": "map-range", 
                    "to": "sent-PMC3144586-cmu-219"
                }, 
                {
                    "from": "sent-PMC3144586-medscan-94", 
                    "object-type": "map-range", 
                    "to": "sent-PMC3144586-cmu-128"
                }, 
                {
                    "from": "sent-PMC3144586-medscan-236", 
                    "object-type": "map-range", 
                    "to": "sent-PMC3144586-cmu-301"
                }, 
                {
                    "from": "sent-PMC3144586-medscan-220", 
                    "object-type": "map-range", 
                    "to": "sent-PMC3144586-cmu-274"
                }, 
                {
                    "from": "sent-PMC3144586-medscan-108", 
                    "object-type": "map-range", 
                    "to": "sent-PMC3144586-cmu-149"
                }, 
                {
                    "from": "sent-PMC3144586-medscan-160", 
                    "object-type": "map-range", 
                    "to": "sent-PMC3144586-cmu-205"
                }, 
                {
                    "from": "sent-PMC3144586-medscan-66", 
                    "object-type": "map-range", 
                    "to": "sent-PMC3144586-cmu-86"
                }, 
                {
                    "from": "sent-PMC3144586-medscan-7", 
                    "object-type": "map-range", 
                    "to": "sent-PMC3144586-cmu-11"
                }, 
                {
                    "from": "sent-PMC3144586-medscan-133", 
                    "object-type": "map-range", 
                    "to": "sent-PMC3144586-cmu-178"
                }, 
                {
                    "from": "sent-PMC3144586-medscan-164", 
                    "object-type": "map-range", 
                    "to": "sent-PMC3144586-cmu-211"
                }, 
                {
                    "from": "sent-PMC3144586-medscan-83", 
                    "object-type": "map-range", 
                    "to": "sent-PMC3144586-cmu-113"
                }, 
                {
                    "from": "sent-PMC3144586-medscan-147", 
                    "object-type": "map-range", 
                    "to": "sent-PMC3144586-cmu-192"
                }, 
                {
                    "from": "sent-PMC3144586-medscan-230", 
                    "object-type": "map-range", 
                    "to": "sent-PMC3144586-cmu-286"
                }, 
                {
                    "from": "sent-PMC3144586-medscan-182", 
                    "object-type": "map-range", 
                    "to": "sent-PMC3144586-cmu-233"
                }, 
                {
                    "from": "sent-PMC3144586-medscan-106", 
                    "object-type": "map-range", 
                    "to": "sent-PMC3144586-cmu-147"
                }, 
                {
                    "from": "sent-PMC3144586-medscan-150", 
                    "object-type": "map-range", 
                    "to": "sent-PMC3144586-cmu-195"
                }, 
                {
                    "from": "sent-PMC3144586-medscan-74", 
                    "object-type": "map-range", 
                    "to": "sent-PMC3144586-cmu-99"
                }, 
                {
                    "from": "sent-PMC3144586-medscan-43", 
                    "object-type": "map-range", 
                    "to": "sent-PMC3144586-cmu-52"
                }, 
                {
                    "from": "sent-PMC3144586-medscan-34", 
                    "object-type": "map-range", 
                    "to": "sent-PMC3144586-cmu-41"
                }, 
                {
                    "from": "sent-PMC3144586-medscan-134", 
                    "object-type": "map-range", 
                    "to": "sent-PMC3144586-cmu-179"
                }, 
                {
                    "from": "sent-PMC3144586-medscan-101", 
                    "object-type": "map-range", 
                    "to": "sent-PMC3144586-cmu-138"
                }, 
                {
                    "from": "sent-PMC3144586-medscan-122", 
                    "object-type": "map-range", 
                    "to": "sent-PMC3144586-cmu-116"
                }, 
                {
                    "from": "sent-PMC3144586-medscan-122", 
                    "object-type": "map-range", 
                    "to": "sent-PMC3144586-cmu-116"
                }, 
                {
                    "from": "sent-PMC3144586-medscan-110", 
                    "object-type": "map-range", 
                    "to": "sent-PMC3144586-cmu-153"
                }, 
                {
                    "from": "sent-PMC3144586-medscan-0", 
                    "object-type": "map-range", 
                    "to": "sent-PMC3144586-cmu-1"
                }, 
                {
                    "from": "sent-PMC3144586-medscan-212", 
                    "object-type": "map-range", 
                    "to": "sent-PMC3144586-cmu-266"
                }, 
                {
                    "from": "sent-PMC3144586-medscan-17", 
                    "object-type": "map-range", 
                    "to": "sent-PMC3144586-cmu-22"
                }, 
                {
                    "from": "sent-PMC3144586-medscan-128", 
                    "object-type": "map-range", 
                    "to": "sent-PMC3144586-cmu-173"
                }, 
                {
                    "from": "sent-PMC3144586-medscan-178", 
                    "object-type": "map-range", 
                    "to": "sent-PMC3144586-cmu-228"
                }, 
                {
                    "from": "sent-PMC3144586-medscan-65", 
                    "object-type": "map-range", 
                    "to": "sent-PMC3144586-cmu-85"
                }, 
                {
                    "from": "sent-PMC3144586-medscan-137", 
                    "object-type": "map-range", 
                    "to": "sent-PMC3144586-cmu-182"
                }, 
                {
                    "from": "sent-PMC3144586-medscan-217", 
                    "object-type": "map-range", 
                    "to": "sent-PMC3144586-cmu-271"
                }, 
                {
                    "from": "sent-PMC3144586-medscan-29", 
                    "object-type": "map-range", 
                    "to": "sent-PMC3144586-cmu-36"
                }, 
                {
                    "from": "sent-PMC3144586-medscan-59", 
                    "object-type": "map-range", 
                    "to": "sent-PMC3144586-cmu-74"
                }, 
                {
                    "from": "sent-PMC3144586-medscan-122", 
                    "object-type": "map-range", 
                    "to": "sent-PMC3144586-cmu-167"
                }, 
                {
                    "from": "sent-PMC3144586-medscan-122", 
                    "object-type": "map-range", 
                    "to": "sent-PMC3144586-cmu-167"
                }, 
                {
                    "from": "sent-PMC3144586-medscan-196", 
                    "object-type": "map-range", 
                    "to": "sent-PMC3144586-cmu-250"
                }, 
                {
                    "from": "sent-PMC3144586-medscan-21", 
                    "object-type": "map-range", 
                    "to": "sent-PMC3144586-cmu-26"
                }, 
                {
                    "from": "sent-PMC3144586-medscan-124", 
                    "object-type": "map-range", 
                    "to": "sent-PMC3144586-cmu-169"
                }, 
                {
                    "from": "sent-PMC3144586-medscan-44", 
                    "object-type": "map-range", 
                    "to": "sent-PMC3144586-cmu-53"
                }, 
                {
                    "from": "sent-PMC3144586-medscan-237", 
                    "object-type": "map-range", 
                    "to": "sent-PMC3144586-cmu-302"
                }, 
                {
                    "from": "sent-PMC3144586-medscan-200", 
                    "object-type": "map-range", 
                    "to": "sent-PMC3144586-cmu-254"
                }, 
                {
                    "from": "sent-PMC3144586-medscan-207", 
                    "object-type": "map-range", 
                    "to": "sent-PMC3144586-cmu-261"
                }, 
                {
                    "from": "sent-PMC3144586-medscan-183", 
                    "object-type": "map-range", 
                    "to": "sent-PMC3144586-cmu-234"
                }, 
                {
                    "from": "sent-PMC3144586-medscan-115", 
                    "object-type": "map-range", 
                    "to": "sent-PMC3144586-cmu-160"
                }, 
                {
                    "from": "sent-PMC3144586-medscan-60", 
                    "object-type": "map-range", 
                    "to": "sent-PMC3144586-cmu-75"
                }, 
                {
                    "from": "sent-PMC3144586-medscan-61", 
                    "object-type": "map-range", 
                    "to": "sent-PMC3144586-cmu-77"
                }, 
                {
                    "from": "sent-PMC3144586-medscan-6", 
                    "object-type": "map-range", 
                    "to": "sent-PMC3144586-cmu-10"
                }, 
                {
                    "from": "sent-PMC3144586-medscan-4", 
                    "object-type": "map-range", 
                    "to": "sent-PMC3144586-cmu-6"
                }, 
                {
                    "from": "sent-PMC3144586-medscan-49", 
                    "object-type": "map-range", 
                    "to": "sent-PMC3144586-cmu-60"
                }, 
                {
                    "from": "sent-PMC3144586-medscan-24", 
                    "object-type": "map-range", 
                    "to": "sent-PMC3144586-cmu-29"
                }, 
                {
                    "from": "sent-PMC3144586-medscan-13", 
                    "object-type": "map-range", 
                    "to": "sent-PMC3144586-cmu-18"
                }, 
                {
                    "from": "sent-PMC3144586-medscan-225", 
                    "object-type": "map-range", 
                    "to": "sent-PMC3144586-cmu-280"
                }, 
                {
                    "from": "sent-PMC3144586-medscan-185", 
                    "object-type": "map-range", 
                    "to": "sent-PMC3144586-cmu-236"
                }, 
                {
                    "from": "sent-PMC3144586-medscan-167", 
                    "object-type": "map-range", 
                    "to": "sent-PMC3144586-cmu-215"
                }, 
                {
                    "from": "sent-PMC3144586-medscan-117", 
                    "object-type": "map-range", 
                    "to": "sent-PMC3144586-cmu-162"
                }, 
                {
                    "from": "sent-PMC3144586-medscan-140", 
                    "object-type": "map-range", 
                    "to": "sent-PMC3144586-cmu-185"
                }, 
                {
                    "from": "sent-PMC3144586-medscan-38", 
                    "object-type": "map-range", 
                    "to": "sent-PMC3144586-cmu-45"
                }, 
                {
                    "from": "sent-PMC3144586-medscan-131", 
                    "object-type": "map-range", 
                    "to": "sent-PMC3144586-cmu-176"
                }, 
                {
                    "from": "sent-PMC3144586-medscan-3", 
                    "object-type": "map-range", 
                    "to": "sent-PMC3144586-cmu-5"
                }, 
                {
                    "from": "sent-PMC3144586-medscan-175", 
                    "object-type": "map-range", 
                    "to": "sent-PMC3144586-cmu-224"
                }, 
                {
                    "from": "sent-PMC3144586-medscan-104", 
                    "object-type": "map-range", 
                    "to": "sent-PMC3144586-cmu-143"
                }, 
                {
                    "from": "sent-PMC3144586-medscan-114", 
                    "object-type": "map-range", 
                    "to": "sent-PMC3144586-cmu-159"
                }, 
                {
                    "from": "sent-PMC3144586-medscan-80", 
                    "object-type": "map-range", 
                    "to": "sent-PMC3144586-cmu-108"
                }, 
                {
                    "from": "sent-PMC3144586-medscan-99", 
                    "object-type": "map-range", 
                    "to": "sent-PMC3144586-cmu-134"
                }, 
                {
                    "from": "sent-PMC3144586-medscan-224", 
                    "object-type": "map-range", 
                    "to": "sent-PMC3144586-cmu-279"
                }, 
                {
                    "from": "sent-PMC3144586-medscan-198", 
                    "object-type": "map-range", 
                    "to": "sent-PMC3144586-cmu-252"
                }, 
                {
                    "from": "sent-PMC3144586-medscan-174", 
                    "object-type": "map-range", 
                    "to": "sent-PMC3144586-cmu-223"
                }, 
                {
                    "from": "sent-PMC3144586-medscan-22", 
                    "object-type": "map-range", 
                    "to": "sent-PMC3144586-cmu-27"
                }, 
                {
                    "from": "sent-PMC3144586-medscan-56", 
                    "object-type": "map-range", 
                    "to": "sent-PMC3144586-cmu-71"
                }, 
                {
                    "from": "sent-PMC3144586-medscan-52", 
                    "object-type": "map-range", 
                    "to": "sent-PMC3144586-cmu-64"
                }, 
                {
                    "from": "sent-PMC3144586-medscan-156", 
                    "object-type": "map-range", 
                    "to": "sent-PMC3144586-cmu-201"
                }, 
                {
                    "from": "sent-PMC3144586-medscan-51", 
                    "object-type": "map-range", 
                    "to": "sent-PMC3144586-cmu-62"
                }, 
                {
                    "from": "sent-PMC3144586-medscan-62", 
                    "object-type": "map-range", 
                    "to": "sent-PMC3144586-cmu-80"
                }, 
                {
                    "from": "sent-PMC3144586-medscan-159", 
                    "object-type": "map-range", 
                    "to": "sent-PMC3144586-cmu-204"
                }, 
                {
                    "from": "sent-PMC3144586-medscan-193", 
                    "object-type": "map-range", 
                    "to": "sent-PMC3144586-cmu-246"
                }, 
                {
                    "from": "sent-PMC3144586-medscan-20", 
                    "object-type": "map-range", 
                    "to": "sent-PMC3144586-cmu-25"
                }, 
                {
                    "from": "sent-PMC3144586-medscan-154", 
                    "object-type": "map-range", 
                    "to": "sent-PMC3144586-cmu-199"
                }, 
                {
                    "from": "sent-PMC3144586-medscan-46", 
                    "object-type": "map-range", 
                    "to": "sent-PMC3144586-cmu-55"
                }, 
                {
                    "from": "sent-PMC3144586-medscan-158", 
                    "object-type": "map-range", 
                    "to": "sent-PMC3144586-cmu-203"
                }, 
                {
                    "from": "sent-PMC3144586-medscan-130", 
                    "object-type": "map-range", 
                    "to": "sent-PMC3144586-cmu-175"
                }, 
                {
                    "from": "sent-PMC3144586-medscan-153", 
                    "object-type": "map-range", 
                    "to": "sent-PMC3144586-cmu-198"
                }, 
                {
                    "from": "sent-PMC3144586-medscan-98", 
                    "object-type": "map-range", 
                    "to": "sent-PMC3144586-cmu-133"
                }, 
                {
                    "from": "sent-PMC3144586-medscan-28", 
                    "object-type": "map-range", 
                    "to": "sent-PMC3144586-cmu-33"
                }, 
                {
                    "from": "sent-PMC3144586-medscan-169", 
                    "object-type": "map-range", 
                    "to": "sent-PMC3144586-cmu-217"
                }, 
                {
                    "from": "sent-PMC3144586-medscan-157", 
                    "object-type": "map-range", 
                    "to": "sent-PMC3144586-cmu-202"
                }, 
                {
                    "from": "sent-PMC3144586-medscan-228", 
                    "object-type": "map-range", 
                    "to": "sent-PMC3144586-cmu-284"
                }, 
                {
                    "from": "sent-PMC3144586-medscan-194", 
                    "object-type": "map-range", 
                    "to": "sent-PMC3144586-cmu-247"
                }, 
                {
                    "from": "sent-PMC3144586-medscan-25", 
                    "object-type": "map-range", 
                    "to": "sent-PMC3144586-cmu-30"
                }, 
                {
                    "from": "sent-PMC3144586-medscan-215", 
                    "object-type": "map-range", 
                    "to": "sent-PMC3144586-cmu-269"
                }, 
                {
                    "from": "sent-PMC3144586-medscan-71", 
                    "object-type": "map-range", 
                    "to": "sent-PMC3144586-cmu-93"
                }, 
                {
                    "from": "sent-PMC3144586-medscan-206", 
                    "object-type": "map-range", 
                    "to": "sent-PMC3144586-cmu-260"
                }, 
                {
                    "from": "sent-PMC3144586-medscan-78", 
                    "object-type": "map-range", 
                    "to": "sent-PMC3144586-cmu-104"
                }, 
                {
                    "from": "sent-PMC3144586-medscan-118", 
                    "object-type": "map-range", 
                    "to": "sent-PMC3144586-cmu-163"
                }, 
                {
                    "from": "sent-PMC3144586-medscan-3", 
                    "object-type": "map-range", 
                    "to": "sent-PMC3144586-cmu-54"
                }, 
                {
                    "from": "sent-PMC3144586-medscan-3", 
                    "object-type": "map-range", 
                    "to": "sent-PMC3144586-cmu-54"
                }, 
                {
                    "from": "sent-PMC3144586-medscan-231", 
                    "object-type": "map-range", 
                    "to": "sent-PMC3144586-cmu-287"
                }, 
                {
                    "from": "sent-PMC3144586-medscan-146", 
                    "object-type": "map-range", 
                    "to": "sent-PMC3144586-cmu-191"
                }, 
                {
                    "from": "sent-PMC3144586-medscan-64", 
                    "object-type": "map-range", 
                    "to": "sent-PMC3144586-cmu-83"
                }, 
                {
                    "from": "sent-PMC3144586-medscan-47", 
                    "object-type": "map-range", 
                    "to": "sent-PMC3144586-cmu-57"
                }, 
                {
                    "from": "sent-PMC3144586-medscan-126", 
                    "object-type": "map-range", 
                    "to": "sent-PMC3144586-cmu-171"
                }, 
                {
                    "from": "sent-PMC3144586-medscan-68", 
                    "object-type": "map-range", 
                    "to": "sent-PMC3144586-cmu-89"
                }, 
                {
                    "from": "sent-PMC3144586-medscan-151", 
                    "object-type": "map-range", 
                    "to": "sent-PMC3144586-cmu-196"
                }, 
                {
                    "from": "sent-PMC3144586-medscan-179", 
                    "object-type": "map-range", 
                    "to": "sent-PMC3144586-cmu-229"
                }, 
                {
                    "from": "sent-PMC3144586-medscan-58", 
                    "object-type": "map-range", 
                    "to": "sent-PMC3144586-cmu-73"
                }, 
                {
                    "from": "sent-PMC3144586-medscan-181", 
                    "object-type": "map-range", 
                    "to": "sent-PMC3144586-cmu-231"
                }, 
                {
                    "from": "sent-PMC3144586-medscan-127", 
                    "object-type": "map-range", 
                    "to": "sent-PMC3144586-cmu-172"
                }, 
                {
                    "from": "sent-PMC3144586-medscan-195", 
                    "object-type": "map-range", 
                    "to": "sent-PMC3144586-cmu-249"
                }, 
                {
                    "from": "sent-PMC3144586-medscan-218", 
                    "object-type": "map-range", 
                    "to": "sent-PMC3144586-cmu-272"
                }, 
                {
                    "from": "sent-PMC3144586-medscan-37", 
                    "object-type": "map-range", 
                    "to": "sent-PMC3144586-cmu-44"
                }, 
                {
                    "from": "sent-PMC3144586-medscan-129", 
                    "object-type": "map-range", 
                    "to": "sent-PMC3144586-cmu-174"
                }, 
                {
                    "from": "sent-PMC3144586-medscan-5", 
                    "object-type": "map-range", 
                    "to": "sent-PMC3144586-cmu-8"
                }, 
                {
                    "from": "sent-PMC3144586-medscan-27", 
                    "object-type": "map-range", 
                    "to": "sent-PMC3144586-cmu-32"
                }, 
                {
                    "from": "sent-PMC3144586-medscan-162", 
                    "object-type": "map-range", 
                    "to": "sent-PMC3144586-cmu-207"
                }, 
                {
                    "from": "sent-PMC3144586-medscan-135", 
                    "object-type": "map-range", 
                    "to": "sent-PMC3144586-cmu-23"
                }, 
                {
                    "from": "sent-PMC3144586-medscan-135", 
                    "object-type": "map-range", 
                    "to": "sent-PMC3144586-cmu-23"
                }, 
                {
                    "from": "sent-PMC3144586-medscan-36", 
                    "object-type": "map-range", 
                    "to": "sent-PMC3144586-cmu-43"
                }, 
                {
                    "from": "sent-PMC3144586-medscan-12", 
                    "object-type": "map-range", 
                    "to": "sent-PMC3144586-cmu-17"
                }, 
                {
                    "from": "sent-PMC3144586-medscan-103", 
                    "object-type": "map-range", 
                    "to": "sent-PMC3144586-cmu-141"
                }, 
                {
                    "from": "sent-PMC3144586-medscan-135", 
                    "object-type": "map-range", 
                    "to": "sent-PMC3144586-cmu-180"
                }, 
                {
                    "from": "sent-PMC3144586-medscan-135", 
                    "object-type": "map-range", 
                    "to": "sent-PMC3144586-cmu-180"
                }, 
                {
                    "from": "sent-PMC3144586-medscan-77", 
                    "object-type": "map-range", 
                    "to": "sent-PMC3144586-cmu-103"
                }, 
                {
                    "from": "sent-PMC3144586-medscan-26", 
                    "object-type": "map-range", 
                    "to": "sent-PMC3144586-cmu-31"
                }, 
                {
                    "from": "sent-PMC3144586-medscan-19", 
                    "object-type": "map-range", 
                    "to": "sent-PMC3144586-cmu-24"
                }, 
                {
                    "from": "sent-PMC3144586-medscan-173", 
                    "object-type": "map-range", 
                    "to": "sent-PMC3144586-cmu-222"
                }, 
                {
                    "from": "sent-PMC3144586-medscan-86", 
                    "object-type": "map-range", 
                    "to": "sent-PMC3144586-cmu-118"
                }, 
                {
                    "from": "sent-PMC3144586-medscan-11", 
                    "object-type": "map-range", 
                    "to": "sent-PMC3144586-cmu-16"
                }, 
                {
                    "from": "sent-PMC3144586-medscan-148", 
                    "object-type": "map-range", 
                    "to": "sent-PMC3144586-cmu-193"
                }, 
                {
                    "from": "sent-PMC3144586-medscan-1", 
                    "object-type": "map-range", 
                    "to": "sent-PMC3144586-cmu-2"
                }, 
                {
                    "from": "sent-PMC3144586-medscan-35", 
                    "object-type": "map-range", 
                    "to": "sent-PMC3144586-cmu-42"
                }, 
                {
                    "from": "sent-PMC3144586-medscan-199", 
                    "object-type": "map-range", 
                    "to": "sent-PMC3144586-cmu-253"
                }, 
                {
                    "from": "sent-PMC3144586-medscan-201", 
                    "object-type": "map-range", 
                    "to": "sent-PMC3144586-cmu-255"
                }, 
                {
                    "from": "sent-PMC3144586-medscan-79", 
                    "object-type": "map-range", 
                    "to": "sent-PMC3144586-cmu-105"
                }, 
                {
                    "from": "sent-PMC3144586-medscan-48", 
                    "object-type": "map-range", 
                    "to": "sent-PMC3144586-cmu-58"
                }, 
                {
                    "from": "sent-PMC3144586-medscan-82", 
                    "object-type": "map-range", 
                    "to": "sent-PMC3144586-cmu-112"
                }, 
                {
                    "from": "sent-PMC3144586-medscan-152", 
                    "object-type": "map-range", 
                    "to": "sent-PMC3144586-cmu-197"
                }, 
                {
                    "from": "sent-PMC3144586-medscan-70", 
                    "object-type": "map-range", 
                    "to": "sent-PMC3144586-cmu-91"
                }, 
                {
                    "from": "sent-PMC3144586-medscan-113", 
                    "object-type": "map-range", 
                    "to": "sent-PMC3144586-cmu-158"
                }, 
                {
                    "from": "sent-PMC3144586-medscan-41", 
                    "object-type": "map-range", 
                    "to": "sent-PMC3144586-cmu-50"
                }, 
                {
                    "from": "sent-PMC3144586-medscan-227", 
                    "object-type": "map-range", 
                    "to": "sent-PMC3144586-cmu-283"
                }, 
                {
                    "from": "sent-PMC3144586-medscan-214", 
                    "object-type": "map-range", 
                    "to": "sent-PMC3144586-cmu-268"
                }, 
                {
                    "from": "sent-PMC3144586-medscan-138", 
                    "object-type": "map-range", 
                    "to": "sent-PMC3144586-cmu-183"
                }, 
                {
                    "from": "sent-PMC3144586-medscan-176", 
                    "object-type": "map-range", 
                    "to": "sent-PMC3144586-cmu-225"
                }, 
                {
                    "from": "sent-PMC3144586-medscan-119", 
                    "object-type": "map-range", 
                    "to": "sent-PMC3144586-cmu-164"
                }, 
                {
                    "from": "sent-PMC3144586-medscan-84", 
                    "object-type": "map-range", 
                    "to": "sent-PMC3144586-cmu-115"
                }, 
                {
                    "from": "sent-PMC3144586-medscan-172", 
                    "object-type": "map-range", 
                    "to": "sent-PMC3144586-cmu-221"
                }, 
                {
                    "from": "sent-PMC3144586-medscan-90", 
                    "object-type": "map-range", 
                    "to": "sent-PMC3144586-cmu-124"
                }, 
                {
                    "from": "sent-PMC3144586-medscan-191", 
                    "object-type": "map-range", 
                    "to": "sent-PMC3144586-cmu-244"
                }, 
                {
                    "from": "sent-PMC3144586-medscan-141", 
                    "object-type": "map-range", 
                    "to": "sent-PMC3144586-cmu-186"
                }, 
                {
                    "from": "sent-PMC3144586-medscan-75", 
                    "object-type": "map-range", 
                    "to": "sent-PMC3144586-cmu-101"
                }, 
                {
                    "from": "sent-PMC3144586-medscan-204", 
                    "object-type": "map-range", 
                    "to": "sent-PMC3144586-cmu-258"
                }, 
                {
                    "from": "sent-PMC3144586-medscan-42", 
                    "object-type": "map-range", 
                    "to": "sent-PMC3144586-cmu-51"
                }, 
                {
                    "from": "sent-PMC3144586-medscan-213", 
                    "object-type": "map-range", 
                    "to": "sent-PMC3144586-cmu-267"
                }, 
                {
                    "from": "sent-PMC3144586-medscan-186", 
                    "object-type": "map-range", 
                    "to": "sent-PMC3144586-cmu-237"
                }, 
                {
                    "from": "sent-PMC3144586-medscan-143", 
                    "object-type": "map-range", 
                    "to": "sent-PMC3144586-cmu-188"
                }, 
                {
                    "from": "sent-PMC3144586-medscan-69", 
                    "object-type": "map-range", 
                    "to": "sent-PMC3144586-cmu-90"
                }, 
                {
                    "from": "sent-PMC3144586-medscan-15", 
                    "object-type": "map-range", 
                    "to": "sent-PMC3144586-cmu-20"
                }, 
                {
                    "from": "sent-PMC3144586-medscan-229", 
                    "object-type": "map-range", 
                    "to": "sent-PMC3144586-cmu-285"
                }, 
                {
                    "from": "sent-PMC3144586-medscan-219", 
                    "object-type": "map-range", 
                    "to": "sent-PMC3144586-cmu-273"
                }, 
                {
                    "from": "sent-PMC3144586-medscan-125", 
                    "object-type": "map-range", 
                    "to": "sent-PMC3144586-cmu-170"
                }, 
                {
                    "from": "sent-PMC3144586-medscan-139", 
                    "object-type": "map-range", 
                    "to": "sent-PMC3144586-cmu-184"
                }, 
                {
                    "from": "sent-PMC3144586-medscan-190", 
                    "object-type": "map-range", 
                    "to": "sent-PMC3144586-cmu-242"
                }, 
                {
                    "from": "sent-PMC3144586-medscan-120", 
                    "object-type": "map-range", 
                    "to": "sent-PMC3144586-cmu-165"
                }, 
                {
                    "from": "sent-PMC3144586-medscan-203", 
                    "object-type": "map-range", 
                    "to": "sent-PMC3144586-cmu-257"
                }, 
                {
                    "from": "sent-PMC3144586-medscan-8", 
                    "object-type": "map-range", 
                    "to": "sent-PMC3144586-cmu-12"
                }, 
                {
                    "from": "sent-PMC3144586-medscan-211", 
                    "object-type": "map-range", 
                    "to": "sent-PMC3144586-cmu-265"
                }, 
                {
                    "from": "sent-PMC3144586-medscan-32", 
                    "object-type": "map-range", 
                    "to": "sent-PMC3144586-cmu-39"
                }, 
                {
                    "from": "sent-PMC3144586-medscan-210", 
                    "object-type": "map-range", 
                    "to": "sent-PMC3144586-cmu-264"
                }, 
                {
                    "from": "sent-PMC3144586-medscan-76", 
                    "object-type": "map-range", 
                    "to": "sent-PMC3144586-cmu-102"
                }, 
                {
                    "from": "sent-PMC3144586-medscan-155", 
                    "object-type": "map-range", 
                    "to": "sent-PMC3144586-cmu-200"
                }, 
                {
                    "from": "sent-PMC3144586-medscan-132", 
                    "object-type": "map-range", 
                    "to": "sent-PMC3144586-cmu-177"
                }, 
                {
                    "from": "sent-PMC3144586-medscan-10", 
                    "object-type": "map-range", 
                    "to": "sent-PMC3144586-cmu-14"
                }, 
                {
                    "from": "sent-PMC3144586-medscan-142", 
                    "object-type": "map-range", 
                    "to": "sent-PMC3144586-cmu-187"
                }, 
                {
                    "from": "sent-PMC3144586-medscan-149", 
                    "object-type": "map-range", 
                    "to": "sent-PMC3144586-cmu-194"
                }, 
                {
                    "from": "sent-PMC3144586-medscan-16", 
                    "object-type": "map-range", 
                    "to": "sent-PMC3144586-cmu-21"
                }, 
                {
                    "from": "sent-PMC3144586-medscan-81", 
                    "object-type": "map-range", 
                    "to": "sent-PMC3144586-cmu-110"
                }, 
                {
                    "from": "sent-PMC3144586-medscan-180", 
                    "object-type": "map-range", 
                    "to": "sent-PMC3144586-cmu-230"
                }, 
                {
                    "from": "sent-PMC3144586-medscan-14", 
                    "object-type": "map-range", 
                    "to": "sent-PMC3144586-cmu-19"
                }, 
                {
                    "from": "sent-PMC3144586-medscan-121", 
                    "object-type": "map-range", 
                    "to": "sent-PMC3144586-cmu-166"
                }, 
                {
                    "from": "sent-PMC3144586-medscan-145", 
                    "object-type": "map-range", 
                    "to": "sent-PMC3144586-cmu-190"
                }, 
                {
                    "from": "sent-PMC3144586-medscan-112", 
                    "object-type": "map-range", 
                    "to": "sent-PMC3144586-cmu-157"
                }, 
                {
                    "from": "sent-PMC3144586-medscan-97", 
                    "object-type": "map-range", 
                    "to": "sent-PMC3144586-cmu-132"
                }, 
                {
                    "from": "sent-PMC3144586-medscan-54", 
                    "object-type": "map-range", 
                    "to": "sent-PMC3144586-cmu-67"
                }, 
                {
                    "from": "sent-PMC3144586-medscan-102", 
                    "object-type": "map-range", 
                    "to": "sent-PMC3144586-cmu-140"
                }, 
                {
                    "from": "sent-PMC3144586-medscan-67", 
                    "object-type": "map-range", 
                    "to": "sent-PMC3144586-cmu-88"
                }
            ], 
            "object-meta": {
                "component": "Pradeep-Matcher", 
                "object-type": "meta-info", 
                "organization": "CMU"
            }, 
            "object-type": "frame"
        }
    ], 
    "object-meta": {
        "component": "Pradeep-Matcher", 
        "component-type": "machine", 
        "doc-id": "PMC3144586", 
        "object-type": "meta-info", 
        "organization": "CMU"
    }, 
    "object-type": "frame-collection"
}
