{
  "evidence": ["By selectively photobleaching the acceptor (YFP-Bcl-X l) on individual mitochondria and measuring a release of quenching of the donor (CFP-K-Ras), we detected fluorescence resonance energy transfer with an efficiency of 17% \\u00b1 8%, establishing a PKC-dependent molecular interaction between K-Ras and Bcl-X l on the surface of mitochondria.","K-Ras are modulated by PKC","Our data suggest that PKC regulates the subcellular localization of K-Ras via a farnesyl-electrostatic switch analogous to the myristoyl-electrostatic switch that regulates the localization of MARCKS.","PKC regulates the subcellular localization of K-Ras","PKC-dependent molecular interaction between K-Ras and Bcl-X l","To determine if PKC activation could affect the localization of K-Ras in a fashion analogous to MARCKS, we expressed K-Ras tagged with green fluorescent protein in a variety of cell types and observed its subcellular localization in living cells before and after stimulation of PKC."],
  "extracted_information": {
    "interaction_type": "increases",
    "negative_information": false,
    "participant_a": {
      "entity_text": "PKC",
      "entity_type": "protein_family",
      "identifier": "Uniprot:P13678",
      "in_model": false
    },
    "participant_b": {
      "entity_text": "K-Ras",
      "entity_type": "protein",
      "identifier": "Uniprot:P01116",
      "in_model": true
    }
  },
  "fries_provenance": [
    {
      "cmu-sentence-epistemic-status": "belief",
      "cmu-sentence-epistemic-value": 0.9,
      "component": "MedScan",
      "frame-file": "S1097276506000323.cmu.medscan",
      "frame-id": "relm-S1097276506000323-cmu-medscan-640",
      "sentence": "To determine if PKC activation could affect the localization of K-Ras in a fashion analogous to MARCKS, we expressed K-Ras tagged with green fluorescent protein in a variety of cell types and observed its subcellular localization in living cells before and after stimulation of PKC.",
      "text": "K-Ras are modulated by PKC"
    },
    {
      "cmu-sentence-epistemic-status": "implication",
      "cmu-sentence-epistemic-value": 0.6,
      "component": "MedScan",
      "frame-file": "S1097276506000323.cmu.medscan",
      "frame-id": "relm-S1097276506000323-cmu-medscan-656",
      "sentence": "Our data suggest that PKC regulates the subcellular localization of K-Ras via a farnesyl-electrostatic switch analogous to the myristoyl-electrostatic switch that regulates the localization of MARCKS.",
      "text": "PKC regulates the subcellular localization of K-Ras"
    },
    {
      "component": "MedScan",
      "frame-file": "S1097276506000323.cmu.medscan",
      "frame-id": "relm-S1097276506000323-cmu-medscan-678",
      "sentence": "By selectively photobleaching the acceptor (YFP-Bcl-X l) on individual mitochondria and measuring a release of quenching of the donor (CFP-K-Ras), we detected fluorescence resonance energy transfer with an efficiency of 17% \\u00b1 8%, establishing a PKC-dependent molecular interaction between K-Ras and Bcl-X l on the surface of mitochondria.",
      "text": "PKC-dependent molecular interaction between K-Ras and Bcl-X l"
    }
  ],
  "model_relation": "extension",
  "pmc_id": "S1097276506000323",
  "reader_type": "machine",
  "reading_complete": "2015-07-02T20:31:15Z",
  "reading_started": "2015-07-02T20:31:10Z",
  "submitter": "FRIES"
}
