{
    "frames": [
        {
            "frame-id": "smap-PMC3414710-cmu-1", 
            "frame-type": "sentence-map", 
            "list1-meta": {
                "component": "nxml2fries", 
                "object-type": "meta-info", 
                "organization": "UAZ"
            }, 
            "list2-meta": {
                "component": "Nicolas-NXML-Parser", 
                "object-type": "meta-info", 
                "organization": "CMU"
            }, 
            "map": [
                {
                    "from": "sent-PMC3414710-UAZ-r1-19-2", 
                    "object-type": "map-range", 
                    "to": "sent-PMC3414710-cmu-82"
                }, 
                {
                    "from": "sent-PMC3414710-UAZ-r1-82-7", 
                    "object-type": "map-range", 
                    "to": "sent-PMC3414710-cmu-374"
                }, 
                {
                    "from": "sent-PMC3414710-UAZ-r1-6-1", 
                    "object-type": "map-range", 
                    "to": "sent-PMC3414710-cmu-3"
                }, 
                {
                    "from": "sent-PMC3414710-UAZ-r1-83-2", 
                    "object-type": "map-range", 
                    "to": "sent-PMC3414710-cmu-377"
                }, 
                {
                    "from": "sent-PMC3414710-UAZ-r1-78-0", 
                    "object-type": "map-range", 
                    "to": "sent-PMC3414710-cmu-332"
                }, 
                {
                    "from": "sent-PMC3414710-UAZ-r1-12-2", 
                    "object-type": "map-range", 
                    "to": "sent-PMC3414710-cmu-48"
                }, 
                {
                    "from": "sent-PMC3414710-UAZ-r1-76-1", 
                    "object-type": "map-range", 
                    "to": "sent-PMC3414710-cmu-309"
                }, 
                {
                    "from": "sent-PMC3414710-UAZ-r1-79-2", 
                    "object-type": "map-range", 
                    "to": "sent-PMC3414710-cmu-339"
                }, 
                {
                    "from": "sent-PMC3414710-UAZ-r1-15-4", 
                    "object-type": "map-range", 
                    "to": "sent-PMC3414710-cmu-62"
                }, 
                {
                    "from": "sent-PMC3414710-UAZ-r1-83-0", 
                    "object-type": "map-range", 
                    "to": "sent-PMC3414710-cmu-279"
                }, 
                {
                    "from": "sent-PMC3414710-UAZ-r1-81-10", 
                    "object-type": "map-range", 
                    "to": "sent-PMC3414710-cmu-363"
                }, 
                {
                    "from": "sent-PMC3414710-UAZ-r1-15-7", 
                    "object-type": "map-range", 
                    "to": "sent-PMC3414710-cmu-66"
                }, 
                {
                    "from": "sent-PMC3414710-UAZ-r1-39-0", 
                    "object-type": "map-range", 
                    "to": "sent-PMC3414710-cmu-118"
                }, 
                {
                    "from": "sent-PMC3414710-UAZ-r1-6-11", 
                    "object-type": "map-range", 
                    "to": "sent-PMC3414710-cmu-13"
                }, 
                {
                    "from": "sent-PMC3414710-UAZ-r1-74-5", 
                    "object-type": "map-range", 
                    "to": "sent-PMC3414710-cmu-285"
                }, 
                {
                    "from": "sent-PMC3414710-UAZ-r1-19-3", 
                    "object-type": "map-range", 
                    "to": "sent-PMC3414710-cmu-83"
                }, 
                {
                    "from": "sent-PMC3414710-UAZ-r1-15-3", 
                    "object-type": "map-range", 
                    "to": "sent-PMC3414710-cmu-61"
                }, 
                {
                    "from": "sent-PMC3414710-UAZ-r1-46-1", 
                    "object-type": "map-range", 
                    "to": "sent-PMC3414710-cmu-197"
                }, 
                {
                    "from": "sent-PMC3414710-UAZ-r1-76-5", 
                    "object-type": "map-range", 
                    "to": "sent-PMC3414710-cmu-313"
                }, 
                {
                    "from": "sent-PMC3414710-UAZ-r1-70-3", 
                    "object-type": "map-range", 
                    "to": "sent-PMC3414710-cmu-274"
                }, 
                {
                    "from": "sent-PMC3414710-UAZ-r1-81-13", 
                    "object-type": "map-range", 
                    "to": "sent-PMC3414710-cmu-366"
                }, 
                {
                    "from": "sent-PMC3414710-UAZ-r1-82-1", 
                    "object-type": "map-range", 
                    "to": "sent-PMC3414710-cmu-368"
                }, 
                {
                    "from": "sent-PMC3414710-UAZ-r1-83-8", 
                    "object-type": "map-range", 
                    "to": "sent-PMC3414710-cmu-383"
                }, 
                {
                    "from": "sent-PMC3414710-UAZ-r1-26-3", 
                    "object-type": "map-range", 
                    "to": "sent-PMC3414710-cmu-105"
                }, 
                {
                    "from": "sent-PMC3414710-UAZ-r1-81-7", 
                    "object-type": "map-range", 
                    "to": "sent-PMC3414710-cmu-360"
                }, 
                {
                    "from": "sent-PMC3414710-UAZ-r1-70-2", 
                    "object-type": "map-range", 
                    "to": "sent-PMC3414710-cmu-273"
                }, 
                {
                    "from": "sent-PMC3414710-UAZ-r1-42-8", 
                    "object-type": "map-range", 
                    "to": "sent-PMC3414710-cmu-164"
                }, 
                {
                    "from": "sent-PMC3414710-UAZ-r1-15-15", 
                    "object-type": "map-range", 
                    "to": "sent-PMC3414710-cmu-74"
                }, 
                {
                    "from": "sent-PMC3414710-UAZ-r1-46-8", 
                    "object-type": "map-range", 
                    "to": "sent-PMC3414710-cmu-204"
                }, 
                {
                    "from": "sent-PMC3414710-UAZ-r1-77-8", 
                    "object-type": "map-range", 
                    "to": "sent-PMC3414710-cmu-326"
                }, 
                {
                    "from": "sent-PMC3414710-UAZ-r1-79-6", 
                    "object-type": "map-range", 
                    "to": "sent-PMC3414710-cmu-343"
                }, 
                {
                    "from": "sent-PMC3414710-UAZ-r1-6-19", 
                    "object-type": "map-range", 
                    "to": "sent-PMC3414710-cmu-21"
                }, 
                {
                    "from": "sent-PMC3414710-UAZ-r1-7-16", 
                    "object-type": "map-range", 
                    "to": "sent-PMC3414710-cmu-42"
                }, 
                {
                    "from": "sent-PMC3414710-UAZ-r1-83-0", 
                    "object-type": "map-range", 
                    "to": "sent-PMC3414710-cmu-375"
                }, 
                {
                    "from": "sent-PMC3414710-UAZ-r1-65-2", 
                    "object-type": "map-range", 
                    "to": "sent-PMC3414710-cmu-260"
                }, 
                {
                    "from": "sent-PMC3414710-UAZ-r1-15-10", 
                    "object-type": "map-range", 
                    "to": "sent-PMC3414710-cmu-69"
                }, 
                {
                    "from": "sent-PMC3414710-UAZ-r1-76-4", 
                    "object-type": "map-range", 
                    "to": "sent-PMC3414710-cmu-312"
                }, 
                {
                    "from": "sent-PMC3414710-UAZ-r1-42-7", 
                    "object-type": "map-range", 
                    "to": "sent-PMC3414710-cmu-156"
                }, 
                {
                    "from": "sent-PMC3414710-UAZ-r1-25-0", 
                    "object-type": "map-range", 
                    "to": "sent-PMC3414710-cmu-90"
                }, 
                {
                    "from": "sent-PMC3414710-UAZ-r1-79-1", 
                    "object-type": "map-range", 
                    "to": "sent-PMC3414710-cmu-338"
                }, 
                {
                    "from": "sent-PMC3414710-UAZ-r1-7-0", 
                    "object-type": "map-range", 
                    "to": "sent-PMC3414710-cmu-26"
                }, 
                {
                    "from": "sent-PMC3414710-UAZ-r1-15-12", 
                    "object-type": "map-range", 
                    "to": "sent-PMC3414710-cmu-71"
                }, 
                {
                    "from": "sent-PMC3414710-UAZ-r1-65-4", 
                    "object-type": "map-range", 
                    "to": "sent-PMC3414710-cmu-262"
                }, 
                {
                    "from": "sent-PMC3414710-UAZ-r1-29-3", 
                    "object-type": "map-range", 
                    "to": "sent-PMC3414710-cmu-114"
                }, 
                {
                    "from": "sent-PMC3414710-UAZ-r1-42-2", 
                    "object-type": "map-range", 
                    "to": "sent-PMC3414710-cmu-151"
                }, 
                {
                    "from": "sent-PMC3414710-UAZ-r1-22-1", 
                    "object-type": "map-range", 
                    "to": "sent-PMC3414710-cmu-86"
                }, 
                {
                    "from": "sent-PMC3414710-UAZ-r1-37-10", 
                    "object-type": "map-range", 
                    "to": "sent-PMC3414710-cmu-146"
                }, 
                {
                    "from": "sent-PMC3414710-UAZ-r1-42-31", 
                    "object-type": "map-range", 
                    "to": "sent-PMC3414710-cmu-211"
                }, 
                {
                    "from": "sent-PMC3414710-UAZ-r1-15-0", 
                    "object-type": "map-range", 
                    "to": "sent-PMC3414710-cmu-58"
                }, 
                {
                    "from": "sent-PMC3414710-UAZ-r1-25-11", 
                    "object-type": "map-range", 
                    "to": "sent-PMC3414710-cmu-101"
                }, 
                {
                    "from": "sent-PMC3414710-UAZ-r1-32-10", 
                    "object-type": "map-range", 
                    "to": "sent-PMC3414710-cmu-128"
                }, 
                {
                    "from": "sent-PMC3414710-UAZ-r1-74-21", 
                    "object-type": "map-range", 
                    "to": "sent-PMC3414710-cmu-302"
                }, 
                {
                    "from": "sent-PMC3414710-UAZ-r1-74-14", 
                    "object-type": "map-range", 
                    "to": "sent-PMC3414710-cmu-295"
                }, 
                {
                    "from": "sent-PMC3414710-UAZ-r1-76-0", 
                    "object-type": "map-range", 
                    "to": "sent-PMC3414710-cmu-308"
                }, 
                {
                    "from": "sent-PMC3414710-UAZ-r1-77-1", 
                    "object-type": "map-range", 
                    "to": "sent-PMC3414710-cmu-319"
                }, 
                {
                    "from": "sent-PMC3414710-UAZ-r1-68-1", 
                    "object-type": "map-range", 
                    "to": "sent-PMC3414710-cmu-267"
                }, 
                {
                    "from": "sent-PMC3414710-UAZ-r1-74-15", 
                    "object-type": "map-range", 
                    "to": "sent-PMC3414710-cmu-296"
                }, 
                {
                    "from": "sent-PMC3414710-UAZ-r1-78-1", 
                    "object-type": "map-range", 
                    "to": "sent-PMC3414710-cmu-333"
                }, 
                {
                    "from": "sent-PMC3414710-UAZ-r1-15-5", 
                    "object-type": "map-range", 
                    "to": "sent-PMC3414710-cmu-64"
                }, 
                {
                    "from": "sent-PMC3414710-UAZ-r1-84-13", 
                    "object-type": "map-range", 
                    "to": "sent-PMC3414710-cmu-398"
                }, 
                {
                    "from": "sent-PMC3414710-UAZ-r1-42-3", 
                    "object-type": "map-range", 
                    "to": "sent-PMC3414710-cmu-152"
                }, 
                {
                    "from": "sent-PMC3414710-UAZ-r1-81-1", 
                    "object-type": "map-range", 
                    "to": "sent-PMC3414710-cmu-354"
                }, 
                {
                    "from": "sent-PMC3414710-UAZ-r1-74-8", 
                    "object-type": "map-range", 
                    "to": "sent-PMC3414710-cmu-288"
                }, 
                {
                    "from": "sent-PMC3414710-UAZ-r1-56-2", 
                    "object-type": "map-range", 
                    "to": "sent-PMC3414710-cmu-239"
                }, 
                {
                    "from": "sent-PMC3414710-UAZ-r1-15-13", 
                    "object-type": "map-range", 
                    "to": "sent-PMC3414710-cmu-72"
                }, 
                {
                    "from": "sent-PMC3414710-UAZ-r1-32-3", 
                    "object-type": "map-range", 
                    "to": "sent-PMC3414710-cmu-121"
                }, 
                {
                    "from": "sent-PMC3414710-UAZ-r1-63-1", 
                    "object-type": "map-range", 
                    "to": "sent-PMC3414710-cmu-247"
                }, 
                {
                    "from": "sent-PMC3414710-UAZ-r1-84-5", 
                    "object-type": "map-range", 
                    "to": "sent-PMC3414710-cmu-391"
                }, 
                {
                    "from": "sent-PMC3414710-UAZ-r1-42-0", 
                    "object-type": "map-range", 
                    "to": "sent-PMC3414710-cmu-149"
                }, 
                {
                    "from": "sent-PMC3414710-UAZ-r1-26-6", 
                    "object-type": "map-range", 
                    "to": "sent-PMC3414710-cmu-108"
                }, 
                {
                    "from": "sent-PMC3414710-UAZ-r1-82-2", 
                    "object-type": "map-range", 
                    "to": "sent-PMC3414710-cmu-369"
                }, 
                {
                    "from": "sent-PMC3414710-UAZ-r1-12-1", 
                    "object-type": "map-range", 
                    "to": "sent-PMC3414710-cmu-47"
                }, 
                {
                    "from": "sent-PMC3414710-UAZ-r1-84-4", 
                    "object-type": "map-range", 
                    "to": "sent-PMC3414710-cmu-390"
                }, 
                {
                    "from": "sent-PMC3414710-UAZ-r1-7-14", 
                    "object-type": "map-range", 
                    "to": "sent-PMC3414710-cmu-40"
                }, 
                {
                    "from": "sent-PMC3414710-UAZ-r1-75-3", 
                    "object-type": "map-range", 
                    "to": "sent-PMC3414710-cmu-306"
                }, 
                {
                    "from": "sent-PMC3414710-UAZ-r1-29-2", 
                    "object-type": "map-range", 
                    "to": "sent-PMC3414710-cmu-113"
                }, 
                {
                    "from": "sent-PMC3414710-UAZ-r1-7-15", 
                    "object-type": "map-range", 
                    "to": "sent-PMC3414710-cmu-41"
                }, 
                {
                    "from": "sent-PMC3414710-UAZ-r1-78-4", 
                    "object-type": "map-range", 
                    "to": "sent-PMC3414710-cmu-336"
                }, 
                {
                    "from": "sent-PMC3414710-UAZ-r1-22-2", 
                    "object-type": "map-range", 
                    "to": "sent-PMC3414710-cmu-87"
                }, 
                {
                    "from": "sent-PMC3414710-UAZ-r1-44-7", 
                    "object-type": "map-range", 
                    "to": "sent-PMC3414710-cmu-195"
                }, 
                {
                    "from": "sent-PMC3414710-UAZ-r1-51-0", 
                    "object-type": "map-range", 
                    "to": "sent-PMC3414710-cmu-251"
                }, 
                {
                    "from": "sent-PMC3414710-UAZ-r1-63-2", 
                    "object-type": "map-range", 
                    "to": "sent-PMC3414710-cmu-248"
                }, 
                {
                    "from": "sent-PMC3414710-UAZ-r1-56-1", 
                    "object-type": "map-range", 
                    "to": "sent-PMC3414710-cmu-231"
                }, 
                {
                    "from": "sent-PMC3414710-UAZ-r1-73-1", 
                    "object-type": "map-range", 
                    "to": "sent-PMC3414710-cmu-277"
                }, 
                {
                    "from": "sent-PMC3414710-UAZ-r1-25-8", 
                    "object-type": "map-range", 
                    "to": "sent-PMC3414710-cmu-98"
                }, 
                {
                    "from": "sent-PMC3414710-UAZ-r1-32-6", 
                    "object-type": "map-range", 
                    "to": "sent-PMC3414710-cmu-244"
                }, 
                {
                    "from": "sent-PMC3414710-UAZ-r1-75-0", 
                    "object-type": "map-range", 
                    "to": "sent-PMC3414710-cmu-303"
                }, 
                {
                    "from": "sent-PMC3414710-UAZ-r1-26-4", 
                    "object-type": "map-range", 
                    "to": "sent-PMC3414710-cmu-106"
                }, 
                {
                    "from": "sent-PMC3414710-UAZ-r1-63-4", 
                    "object-type": "map-range", 
                    "to": "sent-PMC3414710-cmu-250"
                }, 
                {
                    "from": "sent-PMC3414710-UAZ-r1-68-4", 
                    "object-type": "map-range", 
                    "to": "sent-PMC3414710-cmu-270"
                }, 
                {
                    "from": "sent-PMC3414710-UAZ-r1-62-2", 
                    "object-type": "map-range", 
                    "to": "sent-PMC3414710-cmu-242"
                }, 
                {
                    "from": "sent-PMC3414710-UAZ-r1-74-6", 
                    "object-type": "map-range", 
                    "to": "sent-PMC3414710-cmu-286"
                }, 
                {
                    "from": "sent-PMC3414710-UAZ-r1-15-2", 
                    "object-type": "map-range", 
                    "to": "sent-PMC3414710-cmu-60"
                }, 
                {
                    "from": "sent-PMC3414710-UAZ-r1-32-2", 
                    "object-type": "map-range", 
                    "to": "sent-PMC3414710-cmu-120"
                }, 
                {
                    "from": "sent-PMC3414710-UAZ-r1-83-9", 
                    "object-type": "map-range", 
                    "to": "sent-PMC3414710-cmu-384"
                }, 
                {
                    "from": "sent-PMC3414710-UAZ-r1-80-4", 
                    "object-type": "map-range", 
                    "to": "sent-PMC3414710-cmu-348"
                }, 
                {
                    "from": "sent-PMC3414710-UAZ-r1-15-16", 
                    "object-type": "map-range", 
                    "to": "sent-PMC3414710-cmu-75"
                }, 
                {
                    "from": "sent-PMC3414710-UAZ-r1-80-0", 
                    "object-type": "map-range", 
                    "to": "sent-PMC3414710-cmu-344"
                }, 
                {
                    "from": "sent-PMC3414710-UAZ-r1-85-1", 
                    "object-type": "map-range", 
                    "to": "sent-PMC3414710-cmu-400"
                }, 
                {
                    "from": "sent-PMC3414710-UAZ-r1-83-4", 
                    "object-type": "map-range", 
                    "to": "sent-PMC3414710-cmu-379"
                }, 
                {
                    "from": "sent-PMC3414710-UAZ-r1-65-1", 
                    "object-type": "map-range", 
                    "to": "sent-PMC3414710-cmu-259"
                }, 
                {
                    "from": "sent-PMC3414710-UAZ-r1-74-7", 
                    "object-type": "map-range", 
                    "to": "sent-PMC3414710-cmu-287"
                }, 
                {
                    "from": "sent-PMC3414710-UAZ-r1-83-5", 
                    "object-type": "map-range", 
                    "to": "sent-PMC3414710-cmu-380"
                }, 
                {
                    "from": "sent-PMC3414710-UAZ-r1-37-1", 
                    "object-type": "map-range", 
                    "to": "sent-PMC3414710-cmu-137"
                }, 
                {
                    "from": "sent-PMC3414710-UAZ-r1-81-6", 
                    "object-type": "map-range", 
                    "to": "sent-PMC3414710-cmu-359"
                }, 
                {
                    "from": "sent-PMC3414710-UAZ-r1-83-3", 
                    "object-type": "map-range", 
                    "to": "sent-PMC3414710-cmu-378"
                }, 
                {
                    "from": "sent-PMC3414710-UAZ-r1-83-0", 
                    "object-type": "map-range", 
                    "to": "sent-PMC3414710-cmu-233"
                }, 
                {
                    "from": "sent-PMC3414710-UAZ-r1-46-3", 
                    "object-type": "map-range", 
                    "to": "sent-PMC3414710-cmu-207"
                }, 
                {
                    "from": "sent-PMC3414710-UAZ-r1-68-3", 
                    "object-type": "map-range", 
                    "to": "sent-PMC3414710-cmu-269"
                }, 
                {
                    "from": "sent-PMC3414710-UAZ-r1-74-20", 
                    "object-type": "map-range", 
                    "to": "sent-PMC3414710-cmu-301"
                }, 
                {
                    "from": "sent-PMC3414710-UAZ-r1-73-0", 
                    "object-type": "map-range", 
                    "to": "sent-PMC3414710-cmu-276"
                }, 
                {
                    "from": "sent-PMC3414710-UAZ-r1-7-10", 
                    "object-type": "map-range", 
                    "to": "sent-PMC3414710-cmu-36"
                }, 
                {
                    "from": "sent-PMC3414710-UAZ-r1-84-9", 
                    "object-type": "map-range", 
                    "to": "sent-PMC3414710-cmu-395"
                }, 
                {
                    "from": "sent-PMC3414710-UAZ-r1-80-3", 
                    "object-type": "map-range", 
                    "to": "sent-PMC3414710-cmu-347"
                }, 
                {
                    "from": "sent-PMC3414710-UAZ-r1-80-5", 
                    "object-type": "map-range", 
                    "to": "sent-PMC3414710-cmu-349"
                }, 
                {
                    "from": "sent-PMC3414710-UAZ-r1-12-5", 
                    "object-type": "map-range", 
                    "to": "sent-PMC3414710-cmu-51"
                }, 
                {
                    "from": "sent-PMC3414710-UAZ-r1-53-5", 
                    "object-type": "map-range", 
                    "to": "sent-PMC3414710-cmu-227"
                }, 
                {
                    "from": "sent-PMC3414710-UAZ-r1-51-0", 
                    "object-type": "map-range", 
                    "to": "sent-PMC3414710-cmu-77"
                }, 
                {
                    "from": "sent-PMC3414710-UAZ-r1-1-6", 
                    "object-type": "map-range", 
                    "to": "sent-PMC3414710-cmu-57"
                }, 
                {
                    "from": "sent-PMC3414710-UAZ-r1-12-8", 
                    "object-type": "map-range", 
                    "to": "sent-PMC3414710-cmu-54"
                }, 
                {
                    "from": "sent-PMC3414710-UAZ-r1-12-9", 
                    "object-type": "map-range", 
                    "to": "sent-PMC3414710-cmu-55"
                }, 
                {
                    "from": "sent-PMC3414710-UAZ-r1-74-11", 
                    "object-type": "map-range", 
                    "to": "sent-PMC3414710-cmu-292"
                }, 
                {
                    "from": "sent-PMC3414710-UAZ-r1-76-8", 
                    "object-type": "map-range", 
                    "to": "sent-PMC3414710-cmu-316"
                }, 
                {
                    "from": "sent-PMC3414710-UAZ-r1-51-0", 
                    "object-type": "map-range", 
                    "to": "sent-PMC3414710-cmu-213"
                }, 
                {
                    "from": "sent-PMC3414710-UAZ-r1-70-1", 
                    "object-type": "map-range", 
                    "to": "sent-PMC3414710-cmu-85"
                }, 
                {
                    "from": "sent-PMC3414710-UAZ-r1-32-7", 
                    "object-type": "map-range", 
                    "to": "sent-PMC3414710-cmu-125"
                }, 
                {
                    "from": "sent-PMC3414710-UAZ-r1-80-8", 
                    "object-type": "map-range", 
                    "to": "sent-PMC3414710-cmu-352"
                }, 
                {
                    "from": "sent-PMC3414710-UAZ-r1-85-3", 
                    "object-type": "map-range", 
                    "to": "sent-PMC3414710-cmu-402"
                }, 
                {
                    "from": "sent-PMC3414710-UAZ-r1-15-11", 
                    "object-type": "map-range", 
                    "to": "sent-PMC3414710-cmu-70"
                }, 
                {
                    "from": "sent-PMC3414710-UAZ-r1-78-2", 
                    "object-type": "map-range", 
                    "to": "sent-PMC3414710-cmu-334"
                }, 
                {
                    "from": "sent-PMC3414710-UAZ-r1-37-4", 
                    "object-type": "map-range", 
                    "to": "sent-PMC3414710-cmu-140"
                }, 
                {
                    "from": "sent-PMC3414710-UAZ-r1-53-3", 
                    "object-type": "map-range", 
                    "to": "sent-PMC3414710-cmu-241"
                }, 
                {
                    "from": "sent-PMC3414710-UAZ-r1-19-0", 
                    "object-type": "map-range", 
                    "to": "sent-PMC3414710-cmu-80"
                }, 
                {
                    "from": "sent-PMC3414710-UAZ-r1-85-2", 
                    "object-type": "map-range", 
                    "to": "sent-PMC3414710-cmu-401"
                }, 
                {
                    "from": "sent-PMC3414710-UAZ-r1-80-7", 
                    "object-type": "map-range", 
                    "to": "sent-PMC3414710-cmu-351"
                }, 
                {
                    "from": "sent-PMC3414710-UAZ-r1-85-0", 
                    "object-type": "map-range", 
                    "to": "sent-PMC3414710-cmu-399"
                }, 
                {
                    "from": "sent-PMC3414710-UAZ-r1-26-5", 
                    "object-type": "map-range", 
                    "to": "sent-PMC3414710-cmu-107"
                }, 
                {
                    "from": "sent-PMC3414710-UAZ-r1-83-0", 
                    "object-type": "map-range", 
                    "to": "sent-PMC3414710-cmu-237"
                }, 
                {
                    "from": "sent-PMC3414710-UAZ-r1-56-0", 
                    "object-type": "map-range", 
                    "to": "sent-PMC3414710-cmu-102"
                }, 
                {
                    "from": "sent-PMC3414710-UAZ-r1-80-6", 
                    "object-type": "map-range", 
                    "to": "sent-PMC3414710-cmu-350"
                }, 
                {
                    "from": "sent-PMC3414710-UAZ-r1-25-4", 
                    "object-type": "map-range", 
                    "to": "sent-PMC3414710-cmu-94"
                }, 
                {
                    "from": "sent-PMC3414710-UAZ-r1-53-3", 
                    "object-type": "map-range", 
                    "to": "sent-PMC3414710-cmu-225"
                }, 
                {
                    "from": "sent-PMC3414710-UAZ-r1-15-14", 
                    "object-type": "map-range", 
                    "to": "sent-PMC3414710-cmu-73"
                }, 
                {
                    "from": "sent-PMC3414710-UAZ-r1-84-0", 
                    "object-type": "map-range", 
                    "to": "sent-PMC3414710-cmu-386"
                }, 
                {
                    "from": "sent-PMC3414710-UAZ-r1-25-6", 
                    "object-type": "map-range", 
                    "to": "sent-PMC3414710-cmu-96"
                }, 
                {
                    "from": "sent-PMC3414710-UAZ-r1-50-0", 
                    "object-type": "map-range", 
                    "to": "sent-PMC3414710-cmu-212"
                }, 
                {
                    "from": "sent-PMC3414710-UAZ-r1-74-12", 
                    "object-type": "map-range", 
                    "to": "sent-PMC3414710-cmu-293"
                }, 
                {
                    "from": "sent-PMC3414710-UAZ-r1-77-0", 
                    "object-type": "map-range", 
                    "to": "sent-PMC3414710-cmu-318"
                }, 
                {
                    "from": "sent-PMC3414710-UAZ-r1-26-7", 
                    "object-type": "map-range", 
                    "to": "sent-PMC3414710-cmu-109"
                }, 
                {
                    "from": "sent-PMC3414710-UAZ-r1-6-4", 
                    "object-type": "map-range", 
                    "to": "sent-PMC3414710-cmu-6"
                }, 
                {
                    "from": "sent-PMC3414710-UAZ-r1-84-11", 
                    "object-type": "map-range", 
                    "to": "sent-PMC3414710-cmu-396"
                }, 
                {
                    "from": "sent-PMC3414710-UAZ-r1-82-3", 
                    "object-type": "map-range", 
                    "to": "sent-PMC3414710-cmu-370"
                }, 
                {
                    "from": "sent-PMC3414710-UAZ-r1-55-0", 
                    "object-type": "map-range", 
                    "to": "sent-PMC3414710-cmu-229"
                }, 
                {
                    "from": "sent-PMC3414710-UAZ-r1-12-7", 
                    "object-type": "map-range", 
                    "to": "sent-PMC3414710-cmu-53"
                }, 
                {
                    "from": "sent-PMC3414710-UAZ-r1-41-0", 
                    "object-type": "map-range", 
                    "to": "sent-PMC3414710-cmu-148"
                }, 
                {
                    "from": "sent-PMC3414710-UAZ-r1-44-6", 
                    "object-type": "map-range", 
                    "to": "sent-PMC3414710-cmu-210"
                }, 
                {
                    "from": "sent-PMC3414710-UAZ-r1-77-11", 
                    "object-type": "map-range", 
                    "to": "sent-PMC3414710-cmu-329"
                }, 
                {
                    "from": "sent-PMC3414710-UAZ-r1-42-6", 
                    "object-type": "map-range", 
                    "to": "sent-PMC3414710-cmu-155"
                }, 
                {
                    "from": "sent-PMC3414710-UAZ-r1-12-4", 
                    "object-type": "map-range", 
                    "to": "sent-PMC3414710-cmu-50"
                }, 
                {
                    "from": "sent-PMC3414710-UAZ-r1-77-2", 
                    "object-type": "map-range", 
                    "to": "sent-PMC3414710-cmu-320"
                }, 
                {
                    "from": "sent-PMC3414710-UAZ-r1-56-0", 
                    "object-type": "map-range", 
                    "to": "sent-PMC3414710-cmu-230"
                }, 
                {
                    "from": "sent-PMC3414710-UAZ-r1-32-1", 
                    "object-type": "map-range", 
                    "to": "sent-PMC3414710-cmu-119"
                }, 
                {
                    "from": "sent-PMC3414710-UAZ-r1-17-0", 
                    "object-type": "map-range", 
                    "to": "sent-PMC3414710-cmu-76"
                }, 
                {
                    "from": "sent-PMC3414710-UAZ-r1-26-1", 
                    "object-type": "map-range", 
                    "to": "sent-PMC3414710-cmu-103"
                }, 
                {
                    "from": "sent-PMC3414710-UAZ-r1-63-0", 
                    "object-type": "map-range", 
                    "to": "sent-PMC3414710-cmu-246"
                }, 
                {
                    "from": "sent-PMC3414710-UAZ-r1-76-3", 
                    "object-type": "map-range", 
                    "to": "sent-PMC3414710-cmu-311"
                }, 
                {
                    "from": "sent-PMC3414710-UAZ-r1-37-7", 
                    "object-type": "map-range", 
                    "to": "sent-PMC3414710-cmu-143"
                }, 
                {
                    "from": "sent-PMC3414710-UAZ-r1-37-9", 
                    "object-type": "map-range", 
                    "to": "sent-PMC3414710-cmu-145"
                }, 
                {
                    "from": "sent-PMC3414710-UAZ-r1-75-2", 
                    "object-type": "map-range", 
                    "to": "sent-PMC3414710-cmu-305"
                }, 
                {
                    "from": "sent-PMC3414710-UAZ-r1-77-5", 
                    "object-type": "map-range", 
                    "to": "sent-PMC3414710-cmu-323"
                }, 
                {
                    "from": "sent-PMC3414710-UAZ-r1-37-0", 
                    "object-type": "map-range", 
                    "to": "sent-PMC3414710-cmu-131"
                }, 
                {
                    "from": "sent-PMC3414710-UAZ-r1-70-1", 
                    "object-type": "map-range", 
                    "to": "sent-PMC3414710-cmu-261"
                }, 
                {
                    "from": "sent-PMC3414710-UAZ-r1-46-4", 
                    "object-type": "map-range", 
                    "to": "sent-PMC3414710-cmu-208"
                }, 
                {
                    "from": "sent-PMC3414710-UAZ-r1-68-0", 
                    "object-type": "map-range", 
                    "to": "sent-PMC3414710-cmu-266"
                }, 
                {
                    "from": "sent-PMC3414710-UAZ-r1-53-1", 
                    "object-type": "map-range", 
                    "to": "sent-PMC3414710-cmu-223"
                }, 
                {
                    "from": "sent-PMC3414710-UAZ-r1-83-1", 
                    "object-type": "map-range", 
                    "to": "sent-PMC3414710-cmu-376"
                }, 
                {
                    "from": "sent-PMC3414710-UAZ-r1-7-17", 
                    "object-type": "map-range", 
                    "to": "sent-PMC3414710-cmu-43"
                }, 
                {
                    "from": "sent-PMC3414710-UAZ-r1-7-5", 
                    "object-type": "map-range", 
                    "to": "sent-PMC3414710-cmu-31"
                }, 
                {
                    "from": "sent-PMC3414710-UAZ-r1-32-8", 
                    "object-type": "map-range", 
                    "to": "sent-PMC3414710-cmu-126"
                }, 
                {
                    "from": "sent-PMC3414710-UAZ-r1-26-2", 
                    "object-type": "map-range", 
                    "to": "sent-PMC3414710-cmu-104"
                }, 
                {
                    "from": "sent-PMC3414710-UAZ-r1-51-1", 
                    "object-type": "map-range", 
                    "to": "sent-PMC3414710-cmu-214"
                }, 
                {
                    "from": "sent-PMC3414710-UAZ-r1-37-3", 
                    "object-type": "map-range", 
                    "to": "sent-PMC3414710-cmu-139"
                }, 
                {
                    "from": "sent-PMC3414710-UAZ-r1-74-18", 
                    "object-type": "map-range", 
                    "to": "sent-PMC3414710-cmu-299"
                }, 
                {
                    "from": "sent-PMC3414710-UAZ-r1-79-0", 
                    "object-type": "map-range", 
                    "to": "sent-PMC3414710-cmu-337"
                }, 
                {
                    "from": "sent-PMC3414710-UAZ-r1-22-3", 
                    "object-type": "map-range", 
                    "to": "sent-PMC3414710-cmu-88"
                }, 
                {
                    "from": "sent-PMC3414710-UAZ-r1-32-5", 
                    "object-type": "map-range", 
                    "to": "sent-PMC3414710-cmu-123"
                }, 
                {
                    "from": "sent-PMC3414710-UAZ-r1-15-8", 
                    "object-type": "map-range", 
                    "to": "sent-PMC3414710-cmu-67"
                }, 
                {
                    "from": "sent-PMC3414710-UAZ-r1-63-3", 
                    "object-type": "map-range", 
                    "to": "sent-PMC3414710-cmu-249"
                }, 
                {
                    "from": "sent-PMC3414710-UAZ-r1-6-6", 
                    "object-type": "map-range", 
                    "to": "sent-PMC3414710-cmu-8"
                }, 
                {
                    "from": "sent-PMC3414710-UAZ-r1-70-1", 
                    "object-type": "map-range", 
                    "to": "sent-PMC3414710-cmu-272"
                }, 
                {
                    "from": "sent-PMC3414710-UAZ-r1-42-10", 
                    "object-type": "map-range", 
                    "to": "sent-PMC3414710-cmu-166"
                }, 
                {
                    "from": "sent-PMC3414710-UAZ-r1-46-7", 
                    "object-type": "map-range", 
                    "to": "sent-PMC3414710-cmu-203"
                }, 
                {
                    "from": "sent-PMC3414710-UAZ-r1-36-0", 
                    "object-type": "map-range", 
                    "to": "sent-PMC3414710-cmu-130"
                }, 
                {
                    "from": "sent-PMC3414710-UAZ-r1-25-5", 
                    "object-type": "map-range", 
                    "to": "sent-PMC3414710-cmu-95"
                }, 
                {
                    "from": "sent-PMC3414710-UAZ-r1-80-1", 
                    "object-type": "map-range", 
                    "to": "sent-PMC3414710-cmu-345"
                }, 
                {
                    "from": "sent-PMC3414710-UAZ-r1-73-2", 
                    "object-type": "map-range", 
                    "to": "sent-PMC3414710-cmu-278"
                }, 
                {
                    "from": "sent-PMC3414710-UAZ-r1-83-10", 
                    "object-type": "map-range", 
                    "to": "sent-PMC3414710-cmu-385"
                }, 
                {
                    "from": "sent-PMC3414710-UAZ-r1-15-6", 
                    "object-type": "map-range", 
                    "to": "sent-PMC3414710-cmu-65"
                }, 
                {
                    "from": "sent-PMC3414710-UAZ-r1-83-7", 
                    "object-type": "map-range", 
                    "to": "sent-PMC3414710-cmu-382"
                }, 
                {
                    "from": "sent-PMC3414710-UAZ-r1-25-7", 
                    "object-type": "map-range", 
                    "to": "sent-PMC3414710-cmu-97"
                }, 
                {
                    "from": "sent-PMC3414710-UAZ-r1-12-3", 
                    "object-type": "map-range", 
                    "to": "sent-PMC3414710-cmu-49"
                }, 
                {
                    "from": "sent-PMC3414710-UAZ-r1-12-6", 
                    "object-type": "map-range", 
                    "to": "sent-PMC3414710-cmu-52"
                }, 
                {
                    "from": "sent-PMC3414710-UAZ-r1-6-0", 
                    "object-type": "map-range", 
                    "to": "sent-PMC3414710-cmu-2"
                }, 
                {
                    "from": "sent-PMC3414710-UAZ-r1-7-7", 
                    "object-type": "map-range", 
                    "to": "sent-PMC3414710-cmu-33"
                }, 
                {
                    "from": "sent-PMC3414710-UAZ-r1-18-2", 
                    "object-type": "map-range", 
                    "to": "sent-PMC3414710-cmu-79"
                }, 
                {
                    "from": "sent-PMC3414710-UAZ-r1-12-0", 
                    "object-type": "map-range", 
                    "to": "sent-PMC3414710-cmu-46"
                }, 
                {
                    "from": "sent-PMC3414710-UAZ-r1-82-0", 
                    "object-type": "map-range", 
                    "to": "sent-PMC3414710-cmu-367"
                }, 
                {
                    "from": "sent-PMC3414710-UAZ-r1-81-5", 
                    "object-type": "map-range", 
                    "to": "sent-PMC3414710-cmu-358"
                }, 
                {
                    "from": "sent-PMC3414710-UAZ-r1-74-10", 
                    "object-type": "map-range", 
                    "to": "sent-PMC3414710-cmu-290"
                }, 
                {
                    "from": "sent-PMC3414710-UAZ-r1-12-10", 
                    "object-type": "map-range", 
                    "to": "sent-PMC3414710-cmu-56"
                }, 
                {
                    "from": "sent-PMC3414710-UAZ-r1-46-6", 
                    "object-type": "map-range", 
                    "to": "sent-PMC3414710-cmu-202"
                }, 
                {
                    "from": "sent-PMC3414710-UAZ-r1-29-1", 
                    "object-type": "map-range", 
                    "to": "sent-PMC3414710-cmu-112"
                }, 
                {
                    "from": "sent-PMC3414710-UAZ-r1-29-0", 
                    "object-type": "map-range", 
                    "to": "sent-PMC3414710-cmu-111"
                }, 
                {
                    "from": "sent-PMC3414710-UAZ-r1-37-2", 
                    "object-type": "map-range", 
                    "to": "sent-PMC3414710-cmu-138"
                }, 
                {
                    "from": "sent-PMC3414710-UAZ-r1-53-6", 
                    "object-type": "map-range", 
                    "to": "sent-PMC3414710-cmu-228"
                }, 
                {
                    "from": "sent-PMC3414710-UAZ-r1-37-6", 
                    "object-type": "map-range", 
                    "to": "sent-PMC3414710-cmu-142"
                }, 
                {
                    "from": "sent-PMC3414710-UAZ-r1-62-5", 
                    "object-type": "map-range", 
                    "to": "sent-PMC3414710-cmu-245"
                }, 
                {
                    "from": "sent-PMC3414710-UAZ-r1-79-5", 
                    "object-type": "map-range", 
                    "to": "sent-PMC3414710-cmu-342"
                }, 
                {
                    "from": "sent-PMC3414710-UAZ-r1-77-12", 
                    "object-type": "map-range", 
                    "to": "sent-PMC3414710-cmu-330"
                }, 
                {
                    "from": "sent-PMC3414710-UAZ-r1-37-8", 
                    "object-type": "map-range", 
                    "to": "sent-PMC3414710-cmu-144"
                }, 
                {
                    "from": "sent-PMC3414710-UAZ-r1-74-0", 
                    "object-type": "map-range", 
                    "to": "sent-PMC3414710-cmu-280"
                }
            ], 
            "object-meta": {
                "component": "Pradeep-Matcher", 
                "object-type": "meta-info", 
                "organization": "CMU"
            }, 
            "object-type": "frame"
        }, 
        {
            "frame-id": "smap-PMC3414710-cmu-2", 
            "frame-type": "sentence-map", 
            "list1-meta": {
                "component": "MedScan", 
                "object-type": "meta-info", 
                "organization": "CMU"
            }, 
            "list2-meta": {
                "component": "Nicolas-NXML-Parser", 
                "object-type": "meta-info", 
                "organization": "CMU"
            }, 
            "map": [
                {
                    "from": "sent-PMC3414710-medscan-47", 
                    "object-type": "map-range", 
                    "to": "sent-PMC3414710-cmu-82"
                }, 
                {
                    "from": "sent-PMC3414710-medscan-247", 
                    "object-type": "map-range", 
                    "to": "sent-PMC3414710-cmu-374"
                }, 
                {
                    "from": "sent-PMC3414710-medscan-1", 
                    "object-type": "map-range", 
                    "to": "sent-PMC3414710-cmu-3"
                }, 
                {
                    "from": "sent-PMC3414710-medscan-250", 
                    "object-type": "map-range", 
                    "to": "sent-PMC3414710-cmu-377"
                }, 
                {
                    "from": "sent-PMC3414710-medscan-218", 
                    "object-type": "map-range", 
                    "to": "sent-PMC3414710-cmu-332"
                }, 
                {
                    "from": "sent-PMC3414710-medscan-16", 
                    "object-type": "map-range", 
                    "to": "sent-PMC3414710-cmu-48"
                }, 
                {
                    "from": "sent-PMC3414710-medscan-204", 
                    "object-type": "map-range", 
                    "to": "sent-PMC3414710-cmu-309"
                }, 
                {
                    "from": "sent-PMC3414710-medscan-117", 
                    "object-type": "map-range", 
                    "to": "sent-PMC3414710-cmu-182"
                }, 
                {
                    "from": "sent-PMC3414710-medscan-224", 
                    "object-type": "map-range", 
                    "to": "sent-PMC3414710-cmu-339"
                }, 
                {
                    "from": "sent-PMC3414710-medscan-61", 
                    "object-type": "map-range", 
                    "to": "sent-PMC3414710-cmu-100"
                }, 
                {
                    "from": "sent-PMC3414710-medscan-31", 
                    "object-type": "map-range", 
                    "to": "sent-PMC3414710-cmu-62"
                }, 
                {
                    "from": "sent-PMC3414710-medscan-185", 
                    "object-type": "map-range", 
                    "to": "sent-PMC3414710-cmu-279"
                }, 
                {
                    "from": "sent-PMC3414710-medscan-241", 
                    "object-type": "map-range", 
                    "to": "sent-PMC3414710-cmu-363"
                }, 
                {
                    "from": "sent-PMC3414710-medscan-160", 
                    "object-type": "map-range", 
                    "to": "sent-PMC3414710-cmu-243"
                }, 
                {
                    "from": "sent-PMC3414710-medscan-34", 
                    "object-type": "map-range", 
                    "to": "sent-PMC3414710-cmu-66"
                }, 
                {
                    "from": "sent-PMC3414710-medscan-76", 
                    "object-type": "map-range", 
                    "to": "sent-PMC3414710-cmu-118"
                }, 
                {
                    "from": "sent-PMC3414710-medscan-4", 
                    "object-type": "map-range", 
                    "to": "sent-PMC3414710-cmu-13"
                }, 
                {
                    "from": "sent-PMC3414710-medscan-187", 
                    "object-type": "map-range", 
                    "to": "sent-PMC3414710-cmu-285"
                }, 
                {
                    "from": "sent-PMC3414710-medscan-48", 
                    "object-type": "map-range", 
                    "to": "sent-PMC3414710-cmu-83"
                }, 
                {
                    "from": "sent-PMC3414710-medscan-168", 
                    "object-type": "map-range", 
                    "to": "sent-PMC3414710-cmu-253"
                }, 
                {
                    "from": "sent-PMC3414710-medscan-137", 
                    "object-type": "map-range", 
                    "to": "sent-PMC3414710-cmu-209"
                }, 
                {
                    "from": "sent-PMC3414710-medscan-30", 
                    "object-type": "map-range", 
                    "to": "sent-PMC3414710-cmu-61"
                }, 
                {
                    "from": "sent-PMC3414710-medscan-127", 
                    "object-type": "map-range", 
                    "to": "sent-PMC3414710-cmu-197"
                }, 
                {
                    "from": "sent-PMC3414710-medscan-84", 
                    "object-type": "map-range", 
                    "to": "sent-PMC3414710-cmu-274"
                }, 
                {
                    "from": "sent-PMC3414710-medscan-84", 
                    "object-type": "map-range", 
                    "to": "sent-PMC3414710-cmu-274"
                }, 
                {
                    "from": "sent-PMC3414710-medscan-148", 
                    "object-type": "map-range", 
                    "to": "sent-PMC3414710-cmu-226"
                }, 
                {
                    "from": "sent-PMC3414710-medscan-242", 
                    "object-type": "map-range", 
                    "to": "sent-PMC3414710-cmu-366"
                }, 
                {
                    "from": "sent-PMC3414710-medscan-85", 
                    "object-type": "map-range", 
                    "to": "sent-PMC3414710-cmu-264"
                }, 
                {
                    "from": "sent-PMC3414710-medscan-85", 
                    "object-type": "map-range", 
                    "to": "sent-PMC3414710-cmu-264"
                }, 
                {
                    "from": "sent-PMC3414710-medscan-255", 
                    "object-type": "map-range", 
                    "to": "sent-PMC3414710-cmu-383"
                }, 
                {
                    "from": "sent-PMC3414710-medscan-66", 
                    "object-type": "map-range", 
                    "to": "sent-PMC3414710-cmu-105"
                }, 
                {
                    "from": "sent-PMC3414710-medscan-240", 
                    "object-type": "map-range", 
                    "to": "sent-PMC3414710-cmu-360"
                }, 
                {
                    "from": "sent-PMC3414710-medscan-181", 
                    "object-type": "map-range", 
                    "to": "sent-PMC3414710-cmu-273"
                }, 
                {
                    "from": "sent-PMC3414710-medscan-175", 
                    "object-type": "map-range", 
                    "to": "sent-PMC3414710-cmu-263"
                }, 
                {
                    "from": "sent-PMC3414710-medscan-109", 
                    "object-type": "map-range", 
                    "to": "sent-PMC3414710-cmu-164"
                }, 
                {
                    "from": "sent-PMC3414710-medscan-108", 
                    "object-type": "map-range", 
                    "to": "sent-PMC3414710-cmu-162"
                }, 
                {
                    "from": "sent-PMC3414710-medscan-42", 
                    "object-type": "map-range", 
                    "to": "sent-PMC3414710-cmu-74"
                }, 
                {
                    "from": "sent-PMC3414710-medscan-154", 
                    "object-type": "map-range", 
                    "to": "sent-PMC3414710-cmu-236"
                }, 
                {
                    "from": "sent-PMC3414710-medscan-133", 
                    "object-type": "map-range", 
                    "to": "sent-PMC3414710-cmu-204"
                }, 
                {
                    "from": "sent-PMC3414710-medscan-215", 
                    "object-type": "map-range", 
                    "to": "sent-PMC3414710-cmu-326"
                }, 
                {
                    "from": "sent-PMC3414710-medscan-227", 
                    "object-type": "map-range", 
                    "to": "sent-PMC3414710-cmu-343"
                }, 
                {
                    "from": "sent-PMC3414710-medscan-5", 
                    "object-type": "map-range", 
                    "to": "sent-PMC3414710-cmu-21"
                }, 
                {
                    "from": "sent-PMC3414710-medscan-12", 
                    "object-type": "map-range", 
                    "to": "sent-PMC3414710-cmu-42"
                }, 
                {
                    "from": "sent-PMC3414710-medscan-248", 
                    "object-type": "map-range", 
                    "to": "sent-PMC3414710-cmu-375"
                }, 
                {
                    "from": "sent-PMC3414710-medscan-37", 
                    "object-type": "map-range", 
                    "to": "sent-PMC3414710-cmu-69"
                }, 
                {
                    "from": "sent-PMC3414710-medscan-206", 
                    "object-type": "map-range", 
                    "to": "sent-PMC3414710-cmu-312"
                }, 
                {
                    "from": "sent-PMC3414710-medscan-104", 
                    "object-type": "map-range", 
                    "to": "sent-PMC3414710-cmu-156"
                }, 
                {
                    "from": "sent-PMC3414710-medscan-113", 
                    "object-type": "map-range", 
                    "to": "sent-PMC3414710-cmu-175"
                }, 
                {
                    "from": "sent-PMC3414710-medscan-54", 
                    "object-type": "map-range", 
                    "to": "sent-PMC3414710-cmu-90"
                }, 
                {
                    "from": "sent-PMC3414710-medscan-223", 
                    "object-type": "map-range", 
                    "to": "sent-PMC3414710-cmu-338"
                }, 
                {
                    "from": "sent-PMC3414710-medscan-170", 
                    "object-type": "map-range", 
                    "to": "sent-PMC3414710-cmu-256"
                }, 
                {
                    "from": "sent-PMC3414710-medscan-6", 
                    "object-type": "map-range", 
                    "to": "sent-PMC3414710-cmu-26"
                }, 
                {
                    "from": "sent-PMC3414710-medscan-39", 
                    "object-type": "map-range", 
                    "to": "sent-PMC3414710-cmu-71"
                }, 
                {
                    "from": "sent-PMC3414710-medscan-75", 
                    "object-type": "map-range", 
                    "to": "sent-PMC3414710-cmu-116"
                }, 
                {
                    "from": "sent-PMC3414710-medscan-174", 
                    "object-type": "map-range", 
                    "to": "sent-PMC3414710-cmu-262"
                }, 
                {
                    "from": "sent-PMC3414710-medscan-74", 
                    "object-type": "map-range", 
                    "to": "sent-PMC3414710-cmu-114"
                }, 
                {
                    "from": "sent-PMC3414710-medscan-101", 
                    "object-type": "map-range", 
                    "to": "sent-PMC3414710-cmu-151"
                }, 
                {
                    "from": "sent-PMC3414710-medscan-51", 
                    "object-type": "map-range", 
                    "to": "sent-PMC3414710-cmu-86"
                }, 
                {
                    "from": "sent-PMC3414710-medscan-98", 
                    "object-type": "map-range", 
                    "to": "sent-PMC3414710-cmu-146"
                }, 
                {
                    "from": "sent-PMC3414710-medscan-138", 
                    "object-type": "map-range", 
                    "to": "sent-PMC3414710-cmu-211"
                }, 
                {
                    "from": "sent-PMC3414710-medscan-25", 
                    "object-type": "map-range", 
                    "to": "sent-PMC3414710-cmu-58"
                }, 
                {
                    "from": "sent-PMC3414710-medscan-62", 
                    "object-type": "map-range", 
                    "to": "sent-PMC3414710-cmu-101"
                }, 
                {
                    "from": "sent-PMC3414710-medscan-171", 
                    "object-type": "map-range", 
                    "to": "sent-PMC3414710-cmu-257"
                }, 
                {
                    "from": "sent-PMC3414710-medscan-85", 
                    "object-type": "map-range", 
                    "to": "sent-PMC3414710-cmu-127"
                }, 
                {
                    "from": "sent-PMC3414710-medscan-85", 
                    "object-type": "map-range", 
                    "to": "sent-PMC3414710-cmu-127"
                }, 
                {
                    "from": "sent-PMC3414710-medscan-199", 
                    "object-type": "map-range", 
                    "to": "sent-PMC3414710-cmu-302"
                }, 
                {
                    "from": "sent-PMC3414710-medscan-194", 
                    "object-type": "map-range", 
                    "to": "sent-PMC3414710-cmu-295"
                }, 
                {
                    "from": "sent-PMC3414710-medscan-203", 
                    "object-type": "map-range", 
                    "to": "sent-PMC3414710-cmu-308"
                }, 
                {
                    "from": "sent-PMC3414710-medscan-210", 
                    "object-type": "map-range", 
                    "to": "sent-PMC3414710-cmu-319"
                }, 
                {
                    "from": "sent-PMC3414710-medscan-105", 
                    "object-type": "map-range", 
                    "to": "sent-PMC3414710-cmu-158"
                }, 
                {
                    "from": "sent-PMC3414710-medscan-195", 
                    "object-type": "map-range", 
                    "to": "sent-PMC3414710-cmu-296"
                }, 
                {
                    "from": "sent-PMC3414710-medscan-219", 
                    "object-type": "map-range", 
                    "to": "sent-PMC3414710-cmu-333"
                }, 
                {
                    "from": "sent-PMC3414710-medscan-32", 
                    "object-type": "map-range", 
                    "to": "sent-PMC3414710-cmu-64"
                }, 
                {
                    "from": "sent-PMC3414710-medscan-266", 
                    "object-type": "map-range", 
                    "to": "sent-PMC3414710-cmu-398"
                }, 
                {
                    "from": "sent-PMC3414710-medscan-102", 
                    "object-type": "map-range", 
                    "to": "sent-PMC3414710-cmu-152"
                }, 
                {
                    "from": "sent-PMC3414710-medscan-237", 
                    "object-type": "map-range", 
                    "to": "sent-PMC3414710-cmu-354"
                }, 
                {
                    "from": "sent-PMC3414710-medscan-190", 
                    "object-type": "map-range", 
                    "to": "sent-PMC3414710-cmu-288"
                }, 
                {
                    "from": "sent-PMC3414710-medscan-157", 
                    "object-type": "map-range", 
                    "to": "sent-PMC3414710-cmu-239"
                }, 
                {
                    "from": "sent-PMC3414710-medscan-40", 
                    "object-type": "map-range", 
                    "to": "sent-PMC3414710-cmu-72"
                }, 
                {
                    "from": "sent-PMC3414710-medscan-243", 
                    "object-type": "map-range", 
                    "to": "sent-PMC3414710-cmu-247"
                }, 
                {
                    "from": "sent-PMC3414710-medscan-243", 
                    "object-type": "map-range", 
                    "to": "sent-PMC3414710-cmu-247"
                }, 
                {
                    "from": "sent-PMC3414710-medscan-119", 
                    "object-type": "map-range", 
                    "to": "sent-PMC3414710-cmu-185"
                }, 
                {
                    "from": "sent-PMC3414710-medscan-262", 
                    "object-type": "map-range", 
                    "to": "sent-PMC3414710-cmu-391"
                }, 
                {
                    "from": "sent-PMC3414710-medscan-69", 
                    "object-type": "map-range", 
                    "to": "sent-PMC3414710-cmu-108"
                }, 
                {
                    "from": "sent-PMC3414710-medscan-245", 
                    "object-type": "map-range", 
                    "to": "sent-PMC3414710-cmu-369"
                }, 
                {
                    "from": "sent-PMC3414710-medscan-15", 
                    "object-type": "map-range", 
                    "to": "sent-PMC3414710-cmu-47"
                }, 
                {
                    "from": "sent-PMC3414710-medscan-261", 
                    "object-type": "map-range", 
                    "to": "sent-PMC3414710-cmu-390"
                }, 
                {
                    "from": "sent-PMC3414710-medscan-10", 
                    "object-type": "map-range", 
                    "to": "sent-PMC3414710-cmu-40"
                }, 
                {
                    "from": "sent-PMC3414710-medscan-202", 
                    "object-type": "map-range", 
                    "to": "sent-PMC3414710-cmu-306"
                }, 
                {
                    "from": "sent-PMC3414710-medscan-73", 
                    "object-type": "map-range", 
                    "to": "sent-PMC3414710-cmu-113"
                }, 
                {
                    "from": "sent-PMC3414710-medscan-11", 
                    "object-type": "map-range", 
                    "to": "sent-PMC3414710-cmu-41"
                }, 
                {
                    "from": "sent-PMC3414710-medscan-221", 
                    "object-type": "map-range", 
                    "to": "sent-PMC3414710-cmu-336"
                }, 
                {
                    "from": "sent-PMC3414710-medscan-52", 
                    "object-type": "map-range", 
                    "to": "sent-PMC3414710-cmu-87"
                }, 
                {
                    "from": "sent-PMC3414710-medscan-167", 
                    "object-type": "map-range", 
                    "to": "sent-PMC3414710-cmu-251"
                }, 
                {
                    "from": "sent-PMC3414710-medscan-167", 
                    "object-type": "map-range", 
                    "to": "sent-PMC3414710-cmu-251"
                }, 
                {
                    "from": "sent-PMC3414710-medscan-164", 
                    "object-type": "map-range", 
                    "to": "sent-PMC3414710-cmu-248"
                }, 
                {
                    "from": "sent-PMC3414710-medscan-151", 
                    "object-type": "map-range", 
                    "to": "sent-PMC3414710-cmu-231"
                }, 
                {
                    "from": "sent-PMC3414710-medscan-140", 
                    "object-type": "map-range", 
                    "to": "sent-PMC3414710-cmu-216"
                }, 
                {
                    "from": "sent-PMC3414710-medscan-183", 
                    "object-type": "map-range", 
                    "to": "sent-PMC3414710-cmu-277"
                }, 
                {
                    "from": "sent-PMC3414710-medscan-59", 
                    "object-type": "map-range", 
                    "to": "sent-PMC3414710-cmu-98"
                }, 
                {
                    "from": "sent-PMC3414710-medscan-161", 
                    "object-type": "map-range", 
                    "to": "sent-PMC3414710-cmu-244"
                }, 
                {
                    "from": "sent-PMC3414710-medscan-200", 
                    "object-type": "map-range", 
                    "to": "sent-PMC3414710-cmu-303"
                }, 
                {
                    "from": "sent-PMC3414710-medscan-114", 
                    "object-type": "map-range", 
                    "to": "sent-PMC3414710-cmu-176"
                }, 
                {
                    "from": "sent-PMC3414710-medscan-67", 
                    "object-type": "map-range", 
                    "to": "sent-PMC3414710-cmu-106"
                }, 
                {
                    "from": "sent-PMC3414710-medscan-166", 
                    "object-type": "map-range", 
                    "to": "sent-PMC3414710-cmu-250"
                }, 
                {
                    "from": "sent-PMC3414710-medscan-179", 
                    "object-type": "map-range", 
                    "to": "sent-PMC3414710-cmu-270"
                }, 
                {
                    "from": "sent-PMC3414710-medscan-159", 
                    "object-type": "map-range", 
                    "to": "sent-PMC3414710-cmu-242"
                }, 
                {
                    "from": "sent-PMC3414710-medscan-188", 
                    "object-type": "map-range", 
                    "to": "sent-PMC3414710-cmu-286"
                }, 
                {
                    "from": "sent-PMC3414710-medscan-27", 
                    "object-type": "map-range", 
                    "to": "sent-PMC3414710-cmu-60"
                }, 
                {
                    "from": "sent-PMC3414710-medscan-78", 
                    "object-type": "map-range", 
                    "to": "sent-PMC3414710-cmu-120"
                }, 
                {
                    "from": "sent-PMC3414710-medscan-256", 
                    "object-type": "map-range", 
                    "to": "sent-PMC3414710-cmu-384"
                }, 
                {
                    "from": "sent-PMC3414710-medscan-231", 
                    "object-type": "map-range", 
                    "to": "sent-PMC3414710-cmu-348"
                }, 
                {
                    "from": "sent-PMC3414710-medscan-43", 
                    "object-type": "map-range", 
                    "to": "sent-PMC3414710-cmu-75"
                }, 
                {
                    "from": "sent-PMC3414710-medscan-228", 
                    "object-type": "map-range", 
                    "to": "sent-PMC3414710-cmu-344"
                }, 
                {
                    "from": "sent-PMC3414710-medscan-268", 
                    "object-type": "map-range", 
                    "to": "sent-PMC3414710-cmu-400"
                }, 
                {
                    "from": "sent-PMC3414710-medscan-252", 
                    "object-type": "map-range", 
                    "to": "sent-PMC3414710-cmu-379"
                }, 
                {
                    "from": "sent-PMC3414710-medscan-172", 
                    "object-type": "map-range", 
                    "to": "sent-PMC3414710-cmu-259"
                }, 
                {
                    "from": "sent-PMC3414710-medscan-189", 
                    "object-type": "map-range", 
                    "to": "sent-PMC3414710-cmu-287"
                }, 
                {
                    "from": "sent-PMC3414710-medscan-253", 
                    "object-type": "map-range", 
                    "to": "sent-PMC3414710-cmu-380"
                }, 
                {
                    "from": "sent-PMC3414710-medscan-91", 
                    "object-type": "map-range", 
                    "to": "sent-PMC3414710-cmu-137"
                }, 
                {
                    "from": "sent-PMC3414710-medscan-239", 
                    "object-type": "map-range", 
                    "to": "sent-PMC3414710-cmu-359"
                }, 
                {
                    "from": "sent-PMC3414710-medscan-248", 
                    "object-type": "map-range", 
                    "to": "sent-PMC3414710-cmu-233"
                }, 
                {
                    "from": "sent-PMC3414710-medscan-248", 
                    "object-type": "map-range", 
                    "to": "sent-PMC3414710-cmu-233"
                }, 
                {
                    "from": "sent-PMC3414710-medscan-120", 
                    "object-type": "map-range", 
                    "to": "sent-PMC3414710-cmu-187"
                }, 
                {
                    "from": "sent-PMC3414710-medscan-135", 
                    "object-type": "map-range", 
                    "to": "sent-PMC3414710-cmu-207"
                }, 
                {
                    "from": "sent-PMC3414710-medscan-178", 
                    "object-type": "map-range", 
                    "to": "sent-PMC3414710-cmu-269"
                }, 
                {
                    "from": "sent-PMC3414710-medscan-198", 
                    "object-type": "map-range", 
                    "to": "sent-PMC3414710-cmu-301"
                }, 
                {
                    "from": "sent-PMC3414710-medscan-9", 
                    "object-type": "map-range", 
                    "to": "sent-PMC3414710-cmu-36"
                }, 
                {
                    "from": "sent-PMC3414710-medscan-264", 
                    "object-type": "map-range", 
                    "to": "sent-PMC3414710-cmu-395"
                }, 
                {
                    "from": "sent-PMC3414710-medscan-230", 
                    "object-type": "map-range", 
                    "to": "sent-PMC3414710-cmu-347"
                }, 
                {
                    "from": "sent-PMC3414710-medscan-232", 
                    "object-type": "map-range", 
                    "to": "sent-PMC3414710-cmu-349"
                }, 
                {
                    "from": "sent-PMC3414710-medscan-167", 
                    "object-type": "map-range", 
                    "to": "sent-PMC3414710-cmu-77"
                }, 
                {
                    "from": "sent-PMC3414710-medscan-167", 
                    "object-type": "map-range", 
                    "to": "sent-PMC3414710-cmu-77"
                }, 
                {
                    "from": "sent-PMC3414710-medscan-22", 
                    "object-type": "map-range", 
                    "to": "sent-PMC3414710-cmu-54"
                }, 
                {
                    "from": "sent-PMC3414710-medscan-23", 
                    "object-type": "map-range", 
                    "to": "sent-PMC3414710-cmu-55"
                }, 
                {
                    "from": "sent-PMC3414710-medscan-36", 
                    "object-type": "map-range", 
                    "to": "sent-PMC3414710-cmu-68"
                }, 
                {
                    "from": "sent-PMC3414710-medscan-192", 
                    "object-type": "map-range", 
                    "to": "sent-PMC3414710-cmu-292"
                }, 
                {
                    "from": "sent-PMC3414710-medscan-180", 
                    "object-type": "map-range", 
                    "to": "sent-PMC3414710-cmu-85"
                }, 
                {
                    "from": "sent-PMC3414710-medscan-180", 
                    "object-type": "map-range", 
                    "to": "sent-PMC3414710-cmu-85"
                }, 
                {
                    "from": "sent-PMC3414710-medscan-180", 
                    "object-type": "map-range", 
                    "to": "sent-PMC3414710-cmu-85"
                }, 
                {
                    "from": "sent-PMC3414710-medscan-83", 
                    "object-type": "map-range", 
                    "to": "sent-PMC3414710-cmu-125"
                }, 
                {
                    "from": "sent-PMC3414710-medscan-235", 
                    "object-type": "map-range", 
                    "to": "sent-PMC3414710-cmu-352"
                }, 
                {
                    "from": "sent-PMC3414710-medscan-270", 
                    "object-type": "map-range", 
                    "to": "sent-PMC3414710-cmu-402"
                }, 
                {
                    "from": "sent-PMC3414710-medscan-38", 
                    "object-type": "map-range", 
                    "to": "sent-PMC3414710-cmu-70"
                }, 
                {
                    "from": "sent-PMC3414710-medscan-220", 
                    "object-type": "map-range", 
                    "to": "sent-PMC3414710-cmu-334"
                }, 
                {
                    "from": "sent-PMC3414710-medscan-94", 
                    "object-type": "map-range", 
                    "to": "sent-PMC3414710-cmu-140"
                }, 
                {
                    "from": "sent-PMC3414710-medscan-158", 
                    "object-type": "map-range", 
                    "to": "sent-PMC3414710-cmu-241"
                }, 
                {
                    "from": "sent-PMC3414710-medscan-46", 
                    "object-type": "map-range", 
                    "to": "sent-PMC3414710-cmu-80"
                }, 
                {
                    "from": "sent-PMC3414710-medscan-269", 
                    "object-type": "map-range", 
                    "to": "sent-PMC3414710-cmu-401"
                }, 
                {
                    "from": "sent-PMC3414710-medscan-234", 
                    "object-type": "map-range", 
                    "to": "sent-PMC3414710-cmu-351"
                }, 
                {
                    "from": "sent-PMC3414710-medscan-267", 
                    "object-type": "map-range", 
                    "to": "sent-PMC3414710-cmu-399"
                }, 
                {
                    "from": "sent-PMC3414710-medscan-68", 
                    "object-type": "map-range", 
                    "to": "sent-PMC3414710-cmu-107"
                }, 
                {
                    "from": "sent-PMC3414710-medscan-155", 
                    "object-type": "map-range", 
                    "to": "sent-PMC3414710-cmu-237"
                }, 
                {
                    "from": "sent-PMC3414710-medscan-63", 
                    "object-type": "map-range", 
                    "to": "sent-PMC3414710-cmu-102"
                }, 
                {
                    "from": "sent-PMC3414710-medscan-233", 
                    "object-type": "map-range", 
                    "to": "sent-PMC3414710-cmu-350"
                }, 
                {
                    "from": "sent-PMC3414710-medscan-55", 
                    "object-type": "map-range", 
                    "to": "sent-PMC3414710-cmu-94"
                }, 
                {
                    "from": "sent-PMC3414710-medscan-147", 
                    "object-type": "map-range", 
                    "to": "sent-PMC3414710-cmu-225"
                }, 
                {
                    "from": "sent-PMC3414710-medscan-41", 
                    "object-type": "map-range", 
                    "to": "sent-PMC3414710-cmu-73"
                }, 
                {
                    "from": "sent-PMC3414710-medscan-131", 
                    "object-type": "map-range", 
                    "to": "sent-PMC3414710-cmu-201"
                }, 
                {
                    "from": "sent-PMC3414710-medscan-258", 
                    "object-type": "map-range", 
                    "to": "sent-PMC3414710-cmu-386"
                }, 
                {
                    "from": "sent-PMC3414710-medscan-112", 
                    "object-type": "map-range", 
                    "to": "sent-PMC3414710-cmu-173"
                }, 
                {
                    "from": "sent-PMC3414710-medscan-115", 
                    "object-type": "map-range", 
                    "to": "sent-PMC3414710-cmu-178"
                }, 
                {
                    "from": "sent-PMC3414710-medscan-57", 
                    "object-type": "map-range", 
                    "to": "sent-PMC3414710-cmu-96"
                }, 
                {
                    "from": "sent-PMC3414710-medscan-122", 
                    "object-type": "map-range", 
                    "to": "sent-PMC3414710-cmu-190"
                }, 
                {
                    "from": "sent-PMC3414710-medscan-193", 
                    "object-type": "map-range", 
                    "to": "sent-PMC3414710-cmu-293"
                }, 
                {
                    "from": "sent-PMC3414710-medscan-209", 
                    "object-type": "map-range", 
                    "to": "sent-PMC3414710-cmu-318"
                }, 
                {
                    "from": "sent-PMC3414710-medscan-70", 
                    "object-type": "map-range", 
                    "to": "sent-PMC3414710-cmu-109"
                }, 
                {
                    "from": "sent-PMC3414710-medscan-2", 
                    "object-type": "map-range", 
                    "to": "sent-PMC3414710-cmu-6"
                }, 
                {
                    "from": "sent-PMC3414710-medscan-265", 
                    "object-type": "map-range", 
                    "to": "sent-PMC3414710-cmu-396"
                }, 
                {
                    "from": "sent-PMC3414710-medscan-246", 
                    "object-type": "map-range", 
                    "to": "sent-PMC3414710-cmu-370"
                }, 
                {
                    "from": "sent-PMC3414710-medscan-153", 
                    "object-type": "map-range", 
                    "to": "sent-PMC3414710-cmu-234"
                }, 
                {
                    "from": "sent-PMC3414710-medscan-21", 
                    "object-type": "map-range", 
                    "to": "sent-PMC3414710-cmu-53"
                }, 
                {
                    "from": "sent-PMC3414710-medscan-141", 
                    "object-type": "map-range", 
                    "to": "sent-PMC3414710-cmu-217"
                }, 
                {
                    "from": "sent-PMC3414710-medscan-216", 
                    "object-type": "map-range", 
                    "to": "sent-PMC3414710-cmu-329"
                }, 
                {
                    "from": "sent-PMC3414710-medscan-18", 
                    "object-type": "map-range", 
                    "to": "sent-PMC3414710-cmu-50"
                }, 
                {
                    "from": "sent-PMC3414710-medscan-211", 
                    "object-type": "map-range", 
                    "to": "sent-PMC3414710-cmu-320"
                }, 
                {
                    "from": "sent-PMC3414710-medscan-63", 
                    "object-type": "map-range", 
                    "to": "sent-PMC3414710-cmu-230"
                }, 
                {
                    "from": "sent-PMC3414710-medscan-77", 
                    "object-type": "map-range", 
                    "to": "sent-PMC3414710-cmu-119"
                }, 
                {
                    "from": "sent-PMC3414710-medscan-64", 
                    "object-type": "map-range", 
                    "to": "sent-PMC3414710-cmu-103"
                }, 
                {
                    "from": "sent-PMC3414710-medscan-205", 
                    "object-type": "map-range", 
                    "to": "sent-PMC3414710-cmu-311"
                }, 
                {
                    "from": "sent-PMC3414710-medscan-96", 
                    "object-type": "map-range", 
                    "to": "sent-PMC3414710-cmu-143"
                }, 
                {
                    "from": "sent-PMC3414710-medscan-201", 
                    "object-type": "map-range", 
                    "to": "sent-PMC3414710-cmu-305"
                }, 
                {
                    "from": "sent-PMC3414710-medscan-213", 
                    "object-type": "map-range", 
                    "to": "sent-PMC3414710-cmu-323"
                }, 
                {
                    "from": "sent-PMC3414710-medscan-87", 
                    "object-type": "map-range", 
                    "to": "sent-PMC3414710-cmu-131"
                }, 
                {
                    "from": "sent-PMC3414710-medscan-173", 
                    "object-type": "map-range", 
                    "to": "sent-PMC3414710-cmu-261"
                }, 
                {
                    "from": "sent-PMC3414710-medscan-136", 
                    "object-type": "map-range", 
                    "to": "sent-PMC3414710-cmu-208"
                }, 
                {
                    "from": "sent-PMC3414710-medscan-118", 
                    "object-type": "map-range", 
                    "to": "sent-PMC3414710-cmu-184"
                }, 
                {
                    "from": "sent-PMC3414710-medscan-145", 
                    "object-type": "map-range", 
                    "to": "sent-PMC3414710-cmu-223"
                }, 
                {
                    "from": "sent-PMC3414710-medscan-90", 
                    "object-type": "map-range", 
                    "to": "sent-PMC3414710-cmu-136"
                }, 
                {
                    "from": "sent-PMC3414710-medscan-88", 
                    "object-type": "map-range", 
                    "to": "sent-PMC3414710-cmu-133"
                }, 
                {
                    "from": "sent-PMC3414710-medscan-89", 
                    "object-type": "map-range", 
                    "to": "sent-PMC3414710-cmu-135"
                }, 
                {
                    "from": "sent-PMC3414710-medscan-142", 
                    "object-type": "map-range", 
                    "to": "sent-PMC3414710-cmu-218"
                }, 
                {
                    "from": "sent-PMC3414710-medscan-249", 
                    "object-type": "map-range", 
                    "to": "sent-PMC3414710-cmu-376"
                }, 
                {
                    "from": "sent-PMC3414710-medscan-13", 
                    "object-type": "map-range", 
                    "to": "sent-PMC3414710-cmu-43"
                }, 
                {
                    "from": "sent-PMC3414710-medscan-7", 
                    "object-type": "map-range", 
                    "to": "sent-PMC3414710-cmu-31"
                }, 
                {
                    "from": "sent-PMC3414710-medscan-84", 
                    "object-type": "map-range", 
                    "to": "sent-PMC3414710-cmu-126"
                }, 
                {
                    "from": "sent-PMC3414710-medscan-65", 
                    "object-type": "map-range", 
                    "to": "sent-PMC3414710-cmu-104"
                }, 
                {
                    "from": "sent-PMC3414710-medscan-139", 
                    "object-type": "map-range", 
                    "to": "sent-PMC3414710-cmu-214"
                }, 
                {
                    "from": "sent-PMC3414710-medscan-93", 
                    "object-type": "map-range", 
                    "to": "sent-PMC3414710-cmu-139"
                }, 
                {
                    "from": "sent-PMC3414710-medscan-197", 
                    "object-type": "map-range", 
                    "to": "sent-PMC3414710-cmu-299"
                }, 
                {
                    "from": "sent-PMC3414710-medscan-106", 
                    "object-type": "map-range", 
                    "to": "sent-PMC3414710-cmu-159"
                }, 
                {
                    "from": "sent-PMC3414710-medscan-156", 
                    "object-type": "map-range", 
                    "to": "sent-PMC3414710-cmu-238"
                }, 
                {
                    "from": "sent-PMC3414710-medscan-169", 
                    "object-type": "map-range", 
                    "to": "sent-PMC3414710-cmu-254"
                }, 
                {
                    "from": "sent-PMC3414710-medscan-222", 
                    "object-type": "map-range", 
                    "to": "sent-PMC3414710-cmu-337"
                }, 
                {
                    "from": "sent-PMC3414710-medscan-53", 
                    "object-type": "map-range", 
                    "to": "sent-PMC3414710-cmu-88"
                }, 
                {
                    "from": "sent-PMC3414710-medscan-81", 
                    "object-type": "map-range", 
                    "to": "sent-PMC3414710-cmu-123"
                }, 
                {
                    "from": "sent-PMC3414710-medscan-35", 
                    "object-type": "map-range", 
                    "to": "sent-PMC3414710-cmu-67"
                }, 
                {
                    "from": "sent-PMC3414710-medscan-165", 
                    "object-type": "map-range", 
                    "to": "sent-PMC3414710-cmu-249"
                }, 
                {
                    "from": "sent-PMC3414710-medscan-111", 
                    "object-type": "map-range", 
                    "to": "sent-PMC3414710-cmu-168"
                }, 
                {
                    "from": "sent-PMC3414710-medscan-3", 
                    "object-type": "map-range", 
                    "to": "sent-PMC3414710-cmu-8"
                }, 
                {
                    "from": "sent-PMC3414710-medscan-180", 
                    "object-type": "map-range", 
                    "to": "sent-PMC3414710-cmu-272"
                }, 
                {
                    "from": "sent-PMC3414710-medscan-260", 
                    "object-type": "map-range", 
                    "to": "sent-PMC3414710-cmu-389"
                }, 
                {
                    "from": "sent-PMC3414710-medscan-110", 
                    "object-type": "map-range", 
                    "to": "sent-PMC3414710-cmu-166"
                }, 
                {
                    "from": "sent-PMC3414710-medscan-125", 
                    "object-type": "map-range", 
                    "to": "sent-PMC3414710-cmu-193"
                }, 
                {
                    "from": "sent-PMC3414710-medscan-56", 
                    "object-type": "map-range", 
                    "to": "sent-PMC3414710-cmu-95"
                }, 
                {
                    "from": "sent-PMC3414710-medscan-229", 
                    "object-type": "map-range", 
                    "to": "sent-PMC3414710-cmu-345"
                }, 
                {
                    "from": "sent-PMC3414710-medscan-184", 
                    "object-type": "map-range", 
                    "to": "sent-PMC3414710-cmu-278"
                }, 
                {
                    "from": "sent-PMC3414710-medscan-257", 
                    "object-type": "map-range", 
                    "to": "sent-PMC3414710-cmu-385"
                }, 
                {
                    "from": "sent-PMC3414710-medscan-33", 
                    "object-type": "map-range", 
                    "to": "sent-PMC3414710-cmu-65"
                }, 
                {
                    "from": "sent-PMC3414710-medscan-254", 
                    "object-type": "map-range", 
                    "to": "sent-PMC3414710-cmu-382"
                }, 
                {
                    "from": "sent-PMC3414710-medscan-58", 
                    "object-type": "map-range", 
                    "to": "sent-PMC3414710-cmu-97"
                }, 
                {
                    "from": "sent-PMC3414710-medscan-17", 
                    "object-type": "map-range", 
                    "to": "sent-PMC3414710-cmu-49"
                }, 
                {
                    "from": "sent-PMC3414710-medscan-20", 
                    "object-type": "map-range", 
                    "to": "sent-PMC3414710-cmu-52"
                }, 
                {
                    "from": "sent-PMC3414710-medscan-0", 
                    "object-type": "map-range", 
                    "to": "sent-PMC3414710-cmu-2"
                }, 
                {
                    "from": "sent-PMC3414710-medscan-8", 
                    "object-type": "map-range", 
                    "to": "sent-PMC3414710-cmu-33"
                }, 
                {
                    "from": "sent-PMC3414710-medscan-45", 
                    "object-type": "map-range", 
                    "to": "sent-PMC3414710-cmu-79"
                }, 
                {
                    "from": "sent-PMC3414710-medscan-14", 
                    "object-type": "map-range", 
                    "to": "sent-PMC3414710-cmu-46"
                }, 
                {
                    "from": "sent-PMC3414710-medscan-243", 
                    "object-type": "map-range", 
                    "to": "sent-PMC3414710-cmu-367"
                }, 
                {
                    "from": "sent-PMC3414710-medscan-238", 
                    "object-type": "map-range", 
                    "to": "sent-PMC3414710-cmu-358"
                }, 
                {
                    "from": "sent-PMC3414710-medscan-191", 
                    "object-type": "map-range", 
                    "to": "sent-PMC3414710-cmu-290"
                }, 
                {
                    "from": "sent-PMC3414710-medscan-134", 
                    "object-type": "map-range", 
                    "to": "sent-PMC3414710-cmu-206"
                }, 
                {
                    "from": "sent-PMC3414710-medscan-24", 
                    "object-type": "map-range", 
                    "to": "sent-PMC3414710-cmu-56"
                }, 
                {
                    "from": "sent-PMC3414710-medscan-132", 
                    "object-type": "map-range", 
                    "to": "sent-PMC3414710-cmu-202"
                }, 
                {
                    "from": "sent-PMC3414710-medscan-71", 
                    "object-type": "map-range", 
                    "to": "sent-PMC3414710-cmu-111"
                }, 
                {
                    "from": "sent-PMC3414710-medscan-92", 
                    "object-type": "map-range", 
                    "to": "sent-PMC3414710-cmu-138"
                }, 
                {
                    "from": "sent-PMC3414710-medscan-150", 
                    "object-type": "map-range", 
                    "to": "sent-PMC3414710-cmu-228"
                }, 
                {
                    "from": "sent-PMC3414710-medscan-95", 
                    "object-type": "map-range", 
                    "to": "sent-PMC3414710-cmu-142"
                }, 
                {
                    "from": "sent-PMC3414710-medscan-107", 
                    "object-type": "map-range", 
                    "to": "sent-PMC3414710-cmu-160"
                }, 
                {
                    "from": "sent-PMC3414710-medscan-60", 
                    "object-type": "map-range", 
                    "to": "sent-PMC3414710-cmu-99"
                }, 
                {
                    "from": "sent-PMC3414710-medscan-162", 
                    "object-type": "map-range", 
                    "to": "sent-PMC3414710-cmu-245"
                }, 
                {
                    "from": "sent-PMC3414710-medscan-226", 
                    "object-type": "map-range", 
                    "to": "sent-PMC3414710-cmu-342"
                }, 
                {
                    "from": "sent-PMC3414710-medscan-217", 
                    "object-type": "map-range", 
                    "to": "sent-PMC3414710-cmu-330"
                }, 
                {
                    "from": "sent-PMC3414710-medscan-97", 
                    "object-type": "map-range", 
                    "to": "sent-PMC3414710-cmu-144"
                }, 
                {
                    "from": "sent-PMC3414710-medscan-186", 
                    "object-type": "map-range", 
                    "to": "sent-PMC3414710-cmu-280"
                }
            ], 
            "object-meta": {
                "component": "Pradeep-Matcher", 
                "object-type": "meta-info", 
                "organization": "CMU"
            }, 
            "object-type": "frame"
        }
    ], 
    "object-meta": {
        "component": "Pradeep-Matcher", 
        "component-type": "machine", 
        "doc-id": "PMC3414710", 
        "object-type": "meta-info", 
        "organization": "CMU"
    }, 
    "object-type": "frame-collection"
}
