{
  "evidence": ["Coimmunoprecipitation assays indicated that both PLD1 and PLD2 associated with RET and PTC1 to a similar extent when the cell lysates were immunoprecipitated with antibodies against RET or Flag                                                                                                                                                                                                                                                  , suggesting that the interaction of PLD and RET and PTC takes place presumably through catalytic domain of RET .","PLD1 and PLD2 associated with RET"],
  "extracted_information": {
    "interaction_type": "binds",
    "negative_information": false,
    "participant_a": {
      "entity_text": "PLD1",
      "entity_type": "protein",
      "identifier": "Uniprot:Q13393",
      "in_model": true
    },
    "participant_b": {
      "entity_text": "RET",
      "entity_type": "protein",
      "identifier": "Uniprot:P07949",
      "in_model": true
    }
  },
  "fries_provenance": [
    {
      "cmu-sentence-epistemic-status": "implication",
      "cmu-sentence-epistemic-value": 0.6,
      "component": "REACH",
      "frame-file": "PMC2412888.uaz.events",
      "frame-id": "evem-PMC2412888-UAZ-r1-58-3-28",
      "passage-id": "pass-PMC2412888-UAZ-r1-58",
      "passage-number": 58,
      "passage-section-id": "N/A",
      "passage-section-name": "N/A",
      "sentence": "Coimmunoprecipitation assays indicated that both PLD1 and PLD2 associated with RET and PTC1 to a similar extent when the cell lysates were immunoprecipitated with antibodies against RET or Flag                                                                                                                                                                                                                                                  , suggesting that the interaction of PLD and RET and PTC takes place presumably through catalytic domain of RET .",
      "text": "PLD1 and PLD2 associated with RET",
      "uaz-event-epistemic-status": "hypothesis",
      "uaz-sentence": "Coimmunoprecipitation assays indicated that both PLD1 and PLD2 associated with RET and PTC1 to a similar extent when the cell lysates were immunoprecipitated with antibodies against RET or Flag                                                                                                                                                                                                                                                  , suggesting that the interaction of PLD and RET and PTC takes place presumably through catalytic domain of RET .",
      "uaz-sentence-start": 533
    }
  ],
  "model_relation": "extension",
  "pmc_id": "PMC2412888",
  "reader_type": "machine",
  "reading_complete": "2015-06-15T20:25:20Z",
  "reading_started": "2015-06-15T20:25:14Z",
  "submitter": "FRIES"
}
