{
    "frames": [
        {
            "frame-id": "imp-PMC3113797-cmu-pradsys-322", 
            "frame-type": "implication", 
            "implication-type": "binds", 
            "m-val": [
                "no clear sedative effects"
            ], 
            "object-meta": {
                "object-type": "meta-info", 
                "organization": "CMU"
            }, 
            "object-type": "frame", 
            "process": [
                "Intracerebroventricular ( ICV ) injection"
            ], 
            "sentence": "sent-PMC3113797-cmu-28"
        }, 
        {
            "binds-controller": [
                "the AMPK activator AICAR"
            ], 
            "frame-id": "imp-PMC3113797-cmu-pradsys-323", 
            "frame-type": "implication", 
            "implication-type": "binds", 
            "object-meta": {
                "object-type": "meta-info", 
                "organization": "CMU"
            }, 
            "object-type": "frame", 
            "sentence": "sent-PMC3113797-cmu-34"
        }, 
        {
            "frame-id": "imp-PMC3113797-cmu-pradsys-324", 
            "frame-type": "implication", 
            "implication-type": "binds", 
            "ip-molecule": [
                "an acute IP experiment"
            ], 
            "object-meta": {
                "object-type": "meta-info", 
                "organization": "CMU"
            }, 
            "object-type": "frame", 
            "sentence": "sent-PMC3113797-cmu-37"
        }, 
        {
            "binds-constituent1": [
                "subchronic olanzapine exposure"
            ], 
            "frame-id": "imp-PMC3113797-cmu-pradsys-325", 
            "frame-type": "implication", 
            "implication-type": "binds", 
            "object-meta": {
                "object-type": "meta-info", 
                "organization": "CMU"
            }, 
            "object-type": "frame", 
            "sentence": "sent-PMC3113797-cmu-43"
        }, 
        {
            "binds-constituent1": [
                "ANOVA"
            ], 
            "frame-id": "imp-PMC3113797-cmu-pradsys-326", 
            "frame-type": "implication", 
            "implication-type": "binds", 
            "object-meta": {
                "object-type": "meta-info", 
                "organization": "CMU"
            }, 
            "object-type": "frame", 
            "process": [
                "daily food intake"
            ], 
            "sentence": "sent-PMC3113797-cmu-44"
        }, 
        {
            "cell-type": [
                "six different time points"
            ], 
            "frame-id": "imp-PMC3113797-cmu-pradsys-327", 
            "frame-type": "implication", 
            "implication-type": "binds", 
            "object-meta": {
                "object-type": "meta-info", 
                "organization": "CMU"
            }, 
            "object-type": "frame", 
            "sentence": "sent-PMC3113797-cmu-45"
        }, 
        {
            "binds-site": [
                "the olanzapine ad libitum group from day 2"
            ], 
            "frame-id": "imp-PMC3113797-cmu-pradsys-328", 
            "frame-type": "implication", 
            "implication-type": "binds", 
            "object-meta": {
                "object-type": "meta-info", 
                "organization": "CMU"
            }, 
            "object-type": "frame", 
            "sentence": "sent-PMC3113797-cmu-46"
        }, 
        {
            "entity": [
                "treatment x time interaction [ F ( 10,82 ) = 2.52 ; p < 0.05 ] effect"
            ], 
            "frame-id": "imp-PMC3113797-cmu-pradsys-329", 
            "frame-type": "implication", 
            "implication-type": "binds", 
            "object-meta": {
                "object-type": "meta-info", 
                "organization": "CMU"
            }, 
            "object-type": "frame", 
            "sentence": "sent-PMC3113797-cmu-48"
        }, 
        {
            "frame-id": "imp-PMC3113797-cmu-pradsys-330", 
            "frame-type": "implication", 
            "implication-type": "binds", 
            "m-val": [
                "control rats , olanzapine exposure did not induce significant"
            ], 
            "object-meta": {
                "object-type": "meta-info", 
                "organization": "CMU"
            }, 
            "object-type": "frame", 
            "sentence": "sent-PMC3113797-cmu-52"
        }, 
        {
            "binds-site": [
                "the weight-promoting effect of olanzapine"
            ], 
            "frame-id": "imp-PMC3113797-cmu-pradsys-331", 
            "frame-type": "implication", 
            "implication-type": "binds", 
            "object-meta": {
                "object-type": "meta-info", 
                "organization": "CMU"
            }, 
            "object-type": "frame", 
            "sentence": "sent-PMC3113797-cmu-53"
        }, 
        {
            "binds-controller": [
                "Subchronic administration of olanzapine"
            ], 
            "frame-id": "imp-PMC3113797-cmu-pradsys-332", 
            "frame-type": "implication", 
            "implication-type": "binds", 
            "object-meta": {
                "object-type": "meta-info", 
                "organization": "CMU"
            }, 
            "object-type": "frame", 
            "sentence": "sent-PMC3113797-cmu-54"
        }, 
        {
            "frame-id": "imp-PMC3113797-cmu-pradsys-333", 
            "frame-type": "implication", 
            "implication-type": "binds", 
            "m-val": [
                "did not significantly alter serum levels"
            ], 
            "object-meta": {
                "object-type": "meta-info", 
                "organization": "CMU"
            }, 
            "object-type": "frame", 
            "sentence": "sent-PMC3113797-cmu-56"
        }, 
        {
            "binds-constituent1": [
                "mRNA", 
                "AgRP"
            ], 
            "frame-id": "imp-PMC3113797-cmu-pradsys-334", 
            "frame-type": "implication", 
            "implication-type": "binds", 
            "object-meta": {
                "object-type": "meta-info", 
                "organization": "CMU"
            }, 
            "object-type": "frame", 
            "sentence": "sent-PMC3113797-cmu-62"
        }, 
        {
            "entity": [
                "pAMPK levels"
            ], 
            "frame-id": "imp-PMC3113797-cmu-pradsys-335", 
            "frame-type": "implication", 
            "implication-type": "binds", 
            "object-meta": {
                "object-type": "meta-info", 
                "organization": "CMU"
            }, 
            "object-type": "frame", 
            "sentence": "sent-PMC3113797-cmu-63"
        }, 
        {
            "assay-molecule": [
                "NPY", 
                "AgRP", 
                "ARC", 
                "AgRP", 
                "POMC"
            ], 
            "frame-id": "imp-PMC3113797-cmu-pradsys-336", 
            "frame-type": "implication", 
            "implication-type": "binds", 
            "incubation-reagent": [
                "the anorexigenic POMC ( 71\u00b110 %"
            ], 
            "object-meta": {
                "object-type": "meta-info", 
                "organization": "CMU"
            }, 
            "object-type": "frame", 
            "sentence": "sent-PMC3113797-cmu-65", 
            "transfection-molecule": [
                "a marked increase in NPY ( 160\u00b112 % , P\u22640.01 )"
            ]
        }, 
        {
            "binds-constituent1": [
                "the anorexigenic neuropeptide precursor CART did"
            ], 
            "frame-id": "imp-PMC3113797-cmu-pradsys-337", 
            "frame-type": "implication", 
            "implication-type": "binds", 
            "object-meta": {
                "object-type": "meta-info", 
                "organization": "CMU"
            }, 
            "object-type": "frame", 
            "sentence": "sent-PMC3113797-cmu-67"
        }
    ], 
    "object-meta": {
        "component": "Pradeep-System", 
        "component-type": "machine", 
        "doc-id": "PMC3113797", 
        "object-type": "meta-info", 
        "organization": "CMU"
    }, 
    "object-type": "frame-collection"
}
