{
    "frames": [
        {
            "frame-id": "sent-PMC2405801-cmu-0", 
            "frame-type": "sentence", 
            "object-type": "frame", 
            "start-pos": {
                "object-type": "absolute-pos", 
                "offset": 0
            }, 
            "text": "XML Paper ( id '2405801 ' ) : 'Diesel exhaust increases EGFR and phosphorylated C-terminal Tyr 1173 in the bronchial epithelium '"
        }, 
        {
            "frame-id": "sent-PMC2405801-cmu-1", 
            "frame-type": "sentence", 
            "object-type": "frame", 
            "start-pos": {
                "object-type": "absolute-pos", 
                "offset": 1
            }, 
            "text": "Introduction"
        }, 
        {
            "frame-id": "sent-PMC2405801-cmu-2", 
            "frame-type": "sentence", 
            "object-type": "frame", 
            "start-pos": {
                "object-type": "absolute-pos", 
                "offset": 2
            }, 
            "text": "Numerous studies have reported an association between increased ambient levels of particulate matter ( PM ) pollution and increased respiratory and cardiovascular morbidity as well as mortality [ 1,2 ] ."
        }, 
        {
            "frame-id": "sent-PMC2405801-cmu-3", 
            "frame-type": "sentence", 
            "object-type": "frame", 
            "start-pos": {
                "object-type": "absolute-pos", 
                "offset": 3
            }, 
            "text": "Diesel engine exhaust ( DE ) is a major contributor to ambient PM pollution and diesel engines may produce ten times or more nanometer-sized particles ( nanoparticles ) compared to gasoline engines ."
        }, 
        {
            "frame-id": "sent-PMC2405801-cmu-4", 
            "frame-type": "sentence", 
            "object-type": "frame", 
            "start-pos": {
                "object-type": "absolute-pos", 
                "offset": 4
            }, 
            "text": "Diesel exhaust particles ( DEP ) have been shown to have substantial toxicological capacity , associated with particle size and surface chemistry characteristics , including metal and organic components with oxidative capability [ 3-6 ] ."
        }, 
        {
            "frame-id": "sent-PMC2405801-cmu-5", 
            "frame-type": "sentence", 
            "object-type": "frame", 
            "start-pos": {
                "object-type": "absolute-pos", 
                "offset": 5
            }, 
            "text": "Mechanistic aspects of DE exposure in humans have been addressed in a series of experimental studies [ 7-12 ] ."
        }, 
        {
            "frame-id": "sent-PMC2405801-cmu-6", 
            "frame-type": "sentence", 
            "object-type": "frame", 
            "start-pos": {
                "object-type": "absolute-pos", 
                "offset": 6
            }, 
            "text": "Changes in the production of IL-8 , IL-10 , IL-13 and Gro-\u03b1 in the bronchial epithelium as well as an upregulation in the expression of the vascular endothelial adhesion molecules ICAM-1 and VCAM-1 have been demonstrated ."
        }, 
        {
            "frame-id": "sent-PMC2405801-cmu-7", 
            "frame-type": "sentence", 
            "object-type": "frame", 
            "start-pos": {
                "object-type": "absolute-pos", 
                "offset": 7
            }, 
            "text": "These findings were accompanied by a pronounced inflammatory cell infiltration , including activated neutrophils , lymphocytes and mast cells in the bronchial mucosa [ 7,9-12 ] as well as generation of reactive oxygen species ( ROS ) and signs of oxidative stress [ 8 ] ."
        }, 
        {
            "frame-id": "sent-PMC2405801-cmu-8", 
            "frame-type": "sentence", 
            "object-type": "frame", 
            "start-pos": {
                "object-type": "absolute-pos", 
                "offset": 8
            }, 
            "text": "Of note , asthmatic subjects have an enhanced sensitivity to PM air pollution [ 1,13 ] while having an compromised oxidative defence capacity ."
        }, 
        {
            "frame-id": "sent-PMC2405801-cmu-9", 
            "frame-type": "sentence", 
            "object-type": "frame", 
            "start-pos": {
                "object-type": "absolute-pos", 
                "offset": 9
            }, 
            "text": "Asthmatics also have a different inflammatory response to DE than healthy subjects and develop increased bronchial hyperresponsiveness following challenge [ 12,14 ] ."
        }, 
        {
            "frame-id": "sent-PMC2405801-cmu-10", 
            "frame-type": "sentence", 
            "object-type": "frame", 
            "start-pos": {
                "object-type": "absolute-pos", 
                "offset": 10
            }, 
            "text": "Bronchial mucosal biopsies , sampled after air and DE exposures in healthy humans , have been instrumental in determining the epithelial expression of redox sensitive mitogen-activated protein kinases ( MAPKs ) and transcription factors involved in the regulation of airway inflammation ."
        }, 
        {
            "frame-id": "sent-PMC2405801-cmu-11", 
            "frame-type": "sentence", 
            "object-type": "frame", 
            "start-pos": {
                "object-type": "absolute-pos", 
                "offset": 11
            }, 
            "text": "Using this approach it was demonstrated that DE activates the p38 and JNK MAPK pathways and leads to increased expression of the NF\u03baB and AP-1 transcription factors , associated with findings of downstream cytokine production [ 9,11,15 ] ."
        }, 
        {
            "frame-id": "sent-PMC2405801-cmu-12", 
            "frame-type": "sentence", 
            "object-type": "frame", 
            "start-pos": {
                "object-type": "absolute-pos", 
                "offset": 12
            }, 
            "text": "Receptor tyrosine kinases ( RTKs ) , including epidermal growth factor receptor ( EGFR ) , are primary mediators of external stimuli and incoming signals ."
        }, 
        {
            "frame-id": "sent-PMC2405801-cmu-13", 
            "frame-type": "sentence", 
            "object-type": "frame", 
            "start-pos": {
                "object-type": "absolute-pos", 
                "offset": 13
            }, 
            "text": "EGFR has been demonstrated to play a key role in bronchial epithelial repair , remodelling and control of airway inflammation ."
        }, 
        {
            "frame-id": "sent-PMC2405801-cmu-14", 
            "frame-type": "sentence", 
            "object-type": "frame", 
            "start-pos": {
                "object-type": "absolute-pos", 
                "offset": 14
            }, 
            "text": "It achieves this by regulating a range of cellular processes including mitogenesis , apoptosis , migration , differentiation and proliferation , all of which are of important in many situations and conditions , including asthma ."
        }, 
        {
            "frame-id": "sent-PMC2405801-cmu-15", 
            "frame-type": "sentence", 
            "object-type": "frame", 
            "start-pos": {
                "object-type": "absolute-pos", 
                "offset": 15
            }, 
            "text": "Furthermore , EGFR activation by metals and hydrocarbons with oxidative capacity has been shown to activate downstream MAPkinases and transcription factors [ 16-18 ] ."
        }, 
        {
            "frame-id": "sent-PMC2405801-cmu-16", 
            "frame-type": "sentence", 
            "object-type": "frame", 
            "start-pos": {
                "object-type": "absolute-pos", 
                "offset": 16
            }, 
            "text": "In the present study , we therefore sought to investigate the hypothesis that the activation of transcription factors and MAP kinases and increased downstream production of cytokines observed in bronchial mucosal biopsies following DE challenge in human subjects was accompanied by activation of upstream pathways such as EGFR and phosphorylation or transphosphorylation of specific tyrosine residues of EGFR such as Tyr 845 , Tyr 992 , Tyr 1068 , Tyr 1110 and Tyr 1173 ."
        }, 
        {
            "frame-id": "sent-PMC2405801-cmu-17", 
            "frame-type": "sentence", 
            "object-type": "frame", 
            "start-pos": {
                "object-type": "absolute-pos", 
                "offset": 17
            }, 
            "text": "In addition , we investigated whether EGFR activation by diesel exposure could be mediated by Src activation and phosphorylation of Src Tyr 416 and leading to transactivation of EGFR at Tyr 845 and whether activation of EGFR would increase the downstream MEK-ERK pathway signalling , linked to proliferation and differentiation ."
        }, 
        {
            "frame-id": "sent-PMC2405801-cmu-18", 
            "frame-type": "sentence", 
            "object-type": "frame", 
            "start-pos": {
                "object-type": "absolute-pos", 
                "offset": 18
            }, 
            "text": "Results"
        }, 
        {
            "frame-id": "sent-PMC2405801-cmu-19", 
            "frame-type": "sentence", 
            "object-type": "frame", 
            "start-pos": {
                "object-type": "absolute-pos", 
                "offset": 19
            }, 
            "text": "The immunoreactivity for EGFR was evident on the basolateral border of the columnar cell ( figure 1A ) when subjects were exposed to air ."
        }, 
        {
            "frame-id": "sent-PMC2405801-cmu-20", 
            "frame-type": "sentence", 
            "object-type": "frame", 
            "start-pos": {
                "object-type": "absolute-pos", 
                "offset": 20
            }, 
            "text": "Following exposure to DE , expression could be observed throughout the epithelial layer ( figure 1B ) ."
        }, 
        {
            "frame-id": "sent-PMC2405801-cmu-21", 
            "frame-type": "sentence", 
            "object-type": "frame", 
            "start-pos": {
                "object-type": "absolute-pos", 
                "offset": 21
            }, 
            "text": "Immunostaining of phosphorylated Tyr 1173 was intracytoplasmatic in the baso-perinuclear region of the columnar cells and on the basolateral borders of the basal cells in the bronchial epithelium after exposure to both air and DE ( figure 1C and 1D respectively ) ."
        }, 
        {
            "frame-id": "sent-PMC2405801-cmu-22", 
            "frame-type": "sentence", 
            "object-type": "frame", 
            "start-pos": {
                "object-type": "absolute-pos", 
                "offset": 22
            }, 
            "text": "Short term exposure to diesel exhaust induced a significant increase in the expression of EGFR in the bronchial epithelium ; 0.69 % ( median ) of the total epithelial area compared to 0.24 % after air exposure ( p = 0.004 ) ."
        }, 
        {
            "frame-id": "sent-PMC2405801-cmu-23", 
            "frame-type": "sentence", 
            "object-type": "frame", 
            "start-pos": {
                "object-type": "absolute-pos", 
                "offset": 23
            }, 
            "text": "This change was accompanied by an increased phosphorylation of Tyr 1173 ; 3.2 % after diesel exhaust exposure vs. 2.2 % after air ( p = 0.02 ) ."
        }, 
        {
            "frame-id": "sent-PMC2405801-cmu-24", 
            "frame-type": "sentence", 
            "object-type": "frame", 
            "start-pos": {
                "object-type": "absolute-pos", 
                "offset": 24
            }, 
            "text": "The expression of other EGFR tyrosine residues such as Tyr 845 , Tyr 992 , Tyr 1068 and Tyr 1110 and Src related tyrosine ( Tyr416 ) and the ERK pathway ( MEK and ERK ) were not significantly altered after diesel exposure ( Table 1 )"
        }, 
        {
            "frame-id": "sent-PMC2405801-cmu-25", 
            "frame-type": "sentence", 
            "object-type": "frame", 
            "start-pos": {
                "object-type": "absolute-pos", 
                "offset": 25
            }, 
            "text": "Discussion"
        }, 
        {
            "frame-id": "sent-PMC2405801-cmu-26", 
            "frame-type": "sentence", 
            "object-type": "frame", 
            "start-pos": {
                "object-type": "absolute-pos", 
                "offset": 26
            }, 
            "text": "Diesel engine exhaust has been demonstrated to induce inflammation in the bronchial epithelium , which apart from its classical barrier function , increasingly has been demonstrated to carry important immune regulatory properties ."
        }, 
        {
            "frame-id": "sent-PMC2405801-cmu-27", 
            "frame-type": "sentence", 
            "object-type": "frame", 
            "start-pos": {
                "object-type": "absolute-pos", 
                "offset": 27
            }, 
            "text": "The EGFR has been shown to be of importance in these principal functions , as highlighted in respiratory diseases such as asthma , the most common condition recognised to be affected by particulate air pollution [ 19-22 ] ."
        }, 
        {
            "frame-id": "sent-PMC2405801-cmu-28", 
            "frame-type": "sentence", 
            "object-type": "frame", 
            "start-pos": {
                "object-type": "absolute-pos", 
                "offset": 28
            }, 
            "text": "In this first in vivo study examining the involvement of EGFR in the human airways responses to DE , analyses of bronchial mucosal biopsies demonstrated a significantly increased expression of EGFR in the bronchial epithelium six hours after challenge ."
        }, 
        {
            "frame-id": "sent-PMC2405801-cmu-29", 
            "frame-type": "sentence", 
            "object-type": "frame", 
            "start-pos": {
                "object-type": "absolute-pos", 
                "offset": 29
            }, 
            "text": "This was associated with a significantly increased phosphorylation of the Tyr 1173 auto-phosphorylation site on the EGFR C-terminal ."
        }, 
        {
            "frame-id": "sent-PMC2405801-cmu-30", 
            "frame-type": "sentence", 
            "object-type": "frame", 
            "start-pos": {
                "object-type": "absolute-pos", 
                "offset": 30
            }, 
            "text": "Src was not found to be involved in the EGFR activation as indicated by unchanged phosphorylation of Src Tyr 416 and EGFR Tyr 845 ."
        }, 
        {
            "frame-id": "sent-PMC2405801-cmu-31", 
            "frame-type": "sentence", 
            "object-type": "frame", 
            "start-pos": {
                "object-type": "absolute-pos", 
                "offset": 31
            }, 
            "text": "At this time post DE exposure , the EGFR downstream MEK/ERK signalling pathway was also unaffected ."
        }, 
        {
            "frame-id": "sent-PMC2405801-cmu-32", 
            "frame-type": "sentence", 
            "object-type": "frame", 
            "start-pos": {
                "object-type": "absolute-pos", 
                "offset": 32
            }, 
            "text": "It is recognized that certain transcription factors , which regulate cytokine production and inflammatory responses may be activated by MAPKs and their upstream signalling pathways ."
        }, 
        {
            "frame-id": "sent-PMC2405801-cmu-33", 
            "frame-type": "sentence", 
            "object-type": "frame", 
            "start-pos": {
                "object-type": "absolute-pos", 
                "offset": 33
            }, 
            "text": "This has been confirmed to take place in the human airway epithelium after DE exposure , by analyses of archived human bronchial biopsies [ 15 ] ."
        }, 
        {
            "frame-id": "sent-PMC2405801-cmu-34", 
            "frame-type": "sentence", 
            "object-type": "frame", 
            "start-pos": {
                "object-type": "absolute-pos", 
                "offset": 34
            }, 
            "text": "The nuclear expression of phosphorylated p38 MAPK was significantly upregulated , together with increased nuclear translocation of p-JNK MAPK and c-jun of the AP-1 complex ."
        }, 
        {
            "frame-id": "sent-PMC2405801-cmu-35", 
            "frame-type": "sentence", 
            "object-type": "frame", 
            "start-pos": {
                "object-type": "absolute-pos", 
                "offset": 35
            }, 
            "text": "Additionally , the nuclear expression of NF\u03baB was increased ."
        }, 
        {
            "frame-id": "sent-PMC2405801-cmu-36", 
            "frame-type": "sentence", 
            "object-type": "frame", 
            "start-pos": {
                "object-type": "absolute-pos", 
                "offset": 36
            }, 
            "text": "These transcription factors are known to control the production of a wide range of cytokines ."
        }, 
        {
            "frame-id": "sent-PMC2405801-cmu-37", 
            "frame-type": "sentence", 
            "object-type": "frame", 
            "start-pos": {
                "object-type": "absolute-pos", 
                "offset": 37
            }, 
            "text": "DE exposure has been shown to enhance the production of IL-8 and Gro-\u03b1 in the bronchial epithelium , accompanied by a pronounced neutrophil influx in the bronchial wall ."
        }, 
        {
            "frame-id": "sent-PMC2405801-cmu-38", 
            "frame-type": "sentence", 
            "object-type": "frame", 
            "start-pos": {
                "object-type": "absolute-pos", 
                "offset": 38
            }, 
            "text": "This neutrophilia was mediated by the upregulation of the vascular adhesion molecule expression of P-selectin and ICAM-1 [ 10-12 ] ."
        }, 
        {
            "frame-id": "sent-PMC2405801-cmu-39", 
            "frame-type": "sentence", 
            "object-type": "frame", 
            "start-pos": {
                "object-type": "absolute-pos", 
                "offset": 39
            }, 
            "text": "Furthermore , a DE mediated increase in the bronchial epithelial expression of IL-13 has been reported [ 9 ] ."
        }, 
        {
            "frame-id": "sent-PMC2405801-cmu-40", 
            "frame-type": "sentence", 
            "object-type": "frame", 
            "start-pos": {
                "object-type": "absolute-pos", 
                "offset": 40
            }, 
            "text": "When considering upstream signalling and regulation of these signal transduction pathways , it is clear that EGFR could have the potential to regulate , or assist in regulating , all the above mentioned events ."
        }, 
        {
            "frame-id": "sent-PMC2405801-cmu-41", 
            "frame-type": "sentence", 
            "object-type": "frame", 
            "start-pos": {
                "object-type": "absolute-pos", 
                "offset": 41
            }, 
            "text": "Therefore a critical question to address was whether activation of EGFR would occur after inhalation of diesel exhaust , which is a complex mixture of gases and particulates ."
        }, 
        {
            "frame-id": "sent-PMC2405801-cmu-42", 
            "frame-type": "sentence", 
            "object-type": "frame", 
            "start-pos": {
                "object-type": "absolute-pos", 
                "offset": 42
            }, 
            "text": "Most likely , nitrogen dioxide ( NO2 ) , a major gaseous component in DE does not play any major role in the bronchial mucosal effects of DE in humans [ 23 ] ."
        }, 
        {
            "frame-id": "sent-PMC2405801-cmu-43", 
            "frame-type": "sentence", 
            "object-type": "frame", 
            "start-pos": {
                "object-type": "absolute-pos", 
                "offset": 43
            }, 
            "text": "In contrast to DE , exposure to NO2 at levels similar or higher than employed here , has failed to elicit any bronchial mucosal inflammatory responses [ 23 ] ."
        }, 
        {
            "frame-id": "sent-PMC2405801-cmu-44", 
            "frame-type": "sentence", 
            "object-type": "frame", 
            "start-pos": {
                "object-type": "absolute-pos", 
                "offset": 44
            }, 
            "text": "Indeed , there are several indications in the literature that metal and hydrocarbon induced oxidative stress in the airways is involved in the airway response to DE ."
        }, 
        {
            "frame-id": "sent-PMC2405801-cmu-45", 
            "frame-type": "sentence", 
            "object-type": "frame", 
            "start-pos": {
                "object-type": "absolute-pos", 
                "offset": 45
            }, 
            "text": "Even though the metal content in DEP is usually not as extensive as in residual oil fly ash ( ROFA ) , it is clear that the content of transition metals may contribute to oxidative stress [ 8 ] ."
        }, 
        {
            "frame-id": "sent-PMC2405801-cmu-46", 
            "frame-type": "sentence", 
            "object-type": "frame", 
            "start-pos": {
                "object-type": "absolute-pos", 
                "offset": 46
            }, 
            "text": "Oxidative stress related to hydrocarbons has de facto been suggested to be a common denominator for many DEP-induced cellular effects ."
        }, 
        {
            "frame-id": "sent-PMC2405801-cmu-47", 
            "frame-type": "sentence", 
            "object-type": "frame", 
            "start-pos": {
                "object-type": "absolute-pos", 
                "offset": 47
            }, 
            "text": "Reactive oxygen species ( ROS ) can be produced following metabolism and bioactivation of hydrocarbons by cytochrome P-450 1A1 ( CYP1A1 ) ."
        }, 
        {
            "frame-id": "sent-PMC2405801-cmu-48", 
            "frame-type": "sentence", 
            "object-type": "frame", 
            "start-pos": {
                "object-type": "absolute-pos", 
                "offset": 48
            }, 
            "text": "The polar quinones have the capacity to generate oxidative stress by redox cycling ."
        }, 
        {
            "frame-id": "sent-PMC2405801-cmu-49", 
            "frame-type": "sentence", 
            "object-type": "frame", 
            "start-pos": {
                "object-type": "absolute-pos", 
                "offset": 49
            }, 
            "text": "Additionally , the metabolism of semiquinones by NADPH-cytrochrome P-450 reductase followed by autooxidation also results in ROS production [ 24-26 ] ."
        }, 
        {
            "frame-id": "sent-PMC2405801-cmu-50", 
            "frame-type": "sentence", 
            "object-type": "frame", 
            "start-pos": {
                "object-type": "absolute-pos", 
                "offset": 50
            }, 
            "text": "Development of oxidative stress in the airways following DE challenge has been implied by analyses of human airway lavage samples [ 8 ] ."
        }, 
        {
            "frame-id": "sent-PMC2405801-cmu-51", 
            "frame-type": "sentence", 
            "object-type": "frame", 
            "start-pos": {
                "object-type": "absolute-pos", 
                "offset": 51
            }, 
            "text": "Furthermore , genetic polymorphisms in Glutathione-S-transferases ( GSTs ) have been indicated to be critical for the defence against ROS and detoxification of DEP ."
        }, 
        {
            "frame-id": "sent-PMC2405801-cmu-52", 
            "frame-type": "sentence", 
            "object-type": "frame", 
            "start-pos": {
                "object-type": "absolute-pos", 
                "offset": 52
            }, 
            "text": "The GSTM1 and GSTP1 genotypes have been confirmed to modify the allergen response by DEP in the nose in human subjects [ 27 ] ."
        }, 
        {
            "frame-id": "sent-PMC2405801-cmu-53", 
            "frame-type": "sentence", 
            "object-type": "frame", 
            "start-pos": {
                "object-type": "absolute-pos", 
                "offset": 53
            }, 
            "text": "There are several studies indicating that EGFR is activated by metals , organic components and oxidative stress , supporting the notion that this receptor tyrosine kinase may play a major regulatory role in the inflammatory response to DE exposure [ 16,18,28 ] ."
        }, 
        {
            "frame-id": "sent-PMC2405801-cmu-54", 
            "frame-type": "sentence", 
            "object-type": "frame", 
            "start-pos": {
                "object-type": "absolute-pos", 
                "offset": 54
            }, 
            "text": "While only providing indirect evidence , two recent studies have more specifically investigated the role of EGFR after exposure to DEP in-vitro [ 29,30 ] ."
        }, 
        {
            "frame-id": "sent-PMC2405801-cmu-55", 
            "frame-type": "sentence", 
            "object-type": "frame", 
            "start-pos": {
                "object-type": "absolute-pos", 
                "offset": 55
            }, 
            "text": "In these studies , the authors were able to demonstrate that DEP triggered the secretion of amphiregulin , a ligand of EGFR , from bronchial epithelial cells , which could be blocked by ERK and EGFR tyrosine kinase inhibition as well as antioxidant supplementation ."
        }, 
        {
            "frame-id": "sent-PMC2405801-cmu-56", 
            "frame-type": "sentence", 
            "object-type": "frame", 
            "start-pos": {
                "object-type": "absolute-pos", 
                "offset": 56
            }, 
            "text": "Furthermore , DEP quinone compounds have been shown to induce contraction of smooth muscle cells , mediated by activated phospholipase A2 ."
        }, 
        {
            "frame-id": "sent-PMC2405801-cmu-57", 
            "frame-type": "sentence", 
            "object-type": "frame", 
            "start-pos": {
                "object-type": "absolute-pos", 
                "offset": 57
            }, 
            "text": "This signalling pathway could be blocked by PTK and EGFR inhibitors ."
        }, 
        {
            "frame-id": "sent-PMC2405801-cmu-58", 
            "frame-type": "sentence", 
            "object-type": "frame", 
            "start-pos": {
                "object-type": "absolute-pos", 
                "offset": 58
            }, 
            "text": "Taken together , these studies demonstrate the ability of DEP to both activate and transactivate EGFR ."
        }, 
        {
            "frame-id": "sent-PMC2405801-cmu-59", 
            "frame-type": "sentence", 
            "object-type": "frame", 
            "start-pos": {
                "object-type": "absolute-pos", 
                "offset": 59
            }, 
            "text": "EGFR has an extracellular ligand-binding domain , a membrane-spanning domain and a cytoplasmatic protein tyrosine kinase domain with a carboxyl terminal that contains tyrosine residues that undergo autophosphorylation during receptor activation [ 31-34 ] ."
        }, 
        {
            "frame-id": "sent-PMC2405801-cmu-60", 
            "frame-type": "sentence", 
            "object-type": "frame", 
            "start-pos": {
                "object-type": "absolute-pos", 
                "offset": 60
            }, 
            "text": "Three major tyrosine sites , Y1068 , Y1173 and Y1148 and two minor tyrosine sites , Y992 and Y1086 , serve as sites of autophosphorylation following ligand binding or transphosphorylation by other stimuli ( figure 2 ) ."
        }, 
        {
            "frame-id": "sent-PMC2405801-cmu-61", 
            "frame-type": "sentence", 
            "object-type": "frame", 
            "start-pos": {
                "object-type": "absolute-pos", 
                "offset": 61
            }, 
            "text": "These autophosporylation sites function as binding sites for Src homology 2 ( SH2 ) and protein tyrosine binding ( PTB ) domains of a variety of signalling proteins with enzyme activity such as phospholipase C-\u03b3 ( PLC-\u03b3 ) , signal transducers such as PI3-K and adaptor proteins such as Growth factor receptor-binding protein 2 ( Grb2 ) and Src-homology and collagen protein ( Shc ) ."
        }, 
        {
            "frame-id": "sent-PMC2405801-cmu-62", 
            "frame-type": "sentence", 
            "object-type": "frame", 
            "start-pos": {
                "object-type": "absolute-pos", 
                "offset": 62
            }, 
            "text": "These create binding sites for SH2 or protein tyrosine binding ( PTB ) domains of proteins or adaptor molecules that link EGFR activation to the downstream signalling pathway ."
        }, 
        {
            "frame-id": "sent-PMC2405801-cmu-63", 
            "frame-type": "sentence", 
            "object-type": "frame", 
            "start-pos": {
                "object-type": "absolute-pos", 
                "offset": 63
            }, 
            "text": "Following ligand binding , epidermal growth factor ( EGF ) , transforming growth factor-\u03b1 ( TGF-\u03b1 ) and amphiregulin may cause downstream activation of the Ras/MAPK pathway ."
        }, 
        {
            "frame-id": "sent-PMC2405801-cmu-64", 
            "frame-type": "sentence", 
            "object-type": "frame", 
            "start-pos": {
                "object-type": "absolute-pos", 
                "offset": 64
            }, 
            "text": "Importantly , EGFR transduces not only its own ligands , but also various stimuli , such as cytokines via cytokine receptors and/or G-protein-coupled receptor activation , as well as oxidative stress all of which result in transactivation ."
        }, 
        {
            "frame-id": "sent-PMC2405801-cmu-65", 
            "frame-type": "sentence", 
            "object-type": "frame", 
            "start-pos": {
                "object-type": "absolute-pos", 
                "offset": 65
            }, 
            "text": "The increased EGFR expression demonstrated after DE in this study is expected to be related to a ligand \u2013 activated receptor and inhibition of endocytosis and degradation of receptor which leads to increased receptor expression ."
        }, 
        {
            "frame-id": "sent-PMC2405801-cmu-66", 
            "frame-type": "sentence", 
            "object-type": "frame", 
            "start-pos": {
                "object-type": "absolute-pos", 
                "offset": 66
            }, 
            "text": "The observation of enhanced phosphorylation of Tyr 1173 is in accordance with the previously demonstrated DE-induced increase in epithelial expression of NFkB , JNK , c-jun and p38 MAPK together with cytokines under their regulation such as IL-8 and GRO-\u03b1 ."
        }, 
        {
            "frame-id": "sent-PMC2405801-cmu-67", 
            "frame-type": "sentence", 
            "object-type": "frame", 
            "start-pos": {
                "object-type": "absolute-pos", 
                "offset": 67
            }, 
            "text": "Increased phosphorylated Tyr 1173 can function as a docking site for signalling systems such as PLC-\u03b3 or PI3-K ( figure 2 , yellow box ) and exert oxidative responses following DE exposure , linking to NFkB as well as Ras activation [ 35,36 ] ."
        }, 
        {
            "frame-id": "sent-PMC2405801-cmu-68", 
            "frame-type": "sentence", 
            "object-type": "frame", 
            "start-pos": {
                "object-type": "absolute-pos", 
                "offset": 68
            }, 
            "text": "Tyr 1173 is suggested to be the primary autophosphorylated site that is involved in the PLC-\u03b3 association with EGFR [ 37 ] , and that signal transduction across membrane coupled to PI3-Kinase may be involved in the activation of PLC-\u03b3 [ 38 ] ."
        }, 
        {
            "frame-id": "sent-PMC2405801-cmu-69", 
            "frame-type": "sentence", 
            "object-type": "frame", 
            "start-pos": {
                "object-type": "absolute-pos", 
                "offset": 69
            }, 
            "text": "The autophosphorylated Tyr1173 also acts as a docking site for Shc ( Src-homology and collagen protein ) which in turn can bind to Grb2 ( Growth factor receptor-binding protein 2 ) and build Shc-Grb2-Sos complex which leads to downstream activation [ 39,40 ] ."
        }, 
        {
            "frame-id": "sent-PMC2405801-cmu-70", 
            "frame-type": "sentence", 
            "object-type": "frame", 
            "start-pos": {
                "object-type": "absolute-pos", 
                "offset": 70
            }, 
            "text": "The adaptor protein Shc binding to Grb2 , complex building and subsequence MEK kinase-1 ( MEKK1 ) activation may specifically regulate the demonstrated JNK and p38 MAPK activation ( figure 2 blue box ) ."
        }, 
        {
            "frame-id": "sent-PMC2405801-cmu-71", 
            "frame-type": "sentence", 
            "object-type": "frame", 
            "start-pos": {
                "object-type": "absolute-pos", 
                "offset": 71
            }, 
            "text": "It has been suggested that EGFR mediated JNK signalling is regulated by Shc and a transient interaction of Grb2 and MEKK1 [ 39,41 ] ."
        }, 
        {
            "frame-id": "sent-PMC2405801-cmu-72", 
            "frame-type": "sentence", 
            "object-type": "frame", 
            "start-pos": {
                "object-type": "absolute-pos", 
                "offset": 72
            }, 
            "text": "In contrast , ERK pathway induction is depending on binding of the Grb2-Sos complex to Tyr 1068 and mediated by MEK1 phosphorylation , which was not increased in the present material [ 42,43 ] ."
        }, 
        {
            "frame-id": "sent-PMC2405801-cmu-73", 
            "frame-type": "sentence", 
            "object-type": "frame", 
            "start-pos": {
                "object-type": "absolute-pos", 
                "offset": 73
            }, 
            "text": "The ERK pathway was expected to be upregulated in the present diesel challenge scenario , as were the JNK and p38 MAPK pathways ."
        }, 
        {
            "frame-id": "sent-PMC2405801-cmu-74", 
            "frame-type": "sentence", 
            "object-type": "frame", 
            "start-pos": {
                "object-type": "absolute-pos", 
                "offset": 74
            }, 
            "text": "ERK activation transduces proliferative and differentiation responses which could be in demand after diesel challenge ."
        }, 
        {
            "frame-id": "sent-PMC2405801-cmu-75", 
            "frame-type": "sentence", 
            "object-type": "frame", 
            "start-pos": {
                "object-type": "absolute-pos", 
                "offset": 75
            }, 
            "text": "The absence of ERK pathway activation contrasts with that seen in a recent study by Blanchet et al , [ 29 ] who demonstrated PM2.5 and archived DEP to cause specific ERK activation , with amphiregulin secretion , by use of different blocking agents for the MAPK pathways ."
        }, 
        {
            "frame-id": "sent-PMC2405801-cmu-76", 
            "frame-type": "sentence", 
            "object-type": "frame", 
            "start-pos": {
                "object-type": "absolute-pos", 
                "offset": 76
            }, 
            "text": "Amphiregulin is an EGFR ligand known to contribute to GM-CSF release , which can be important for sustaining a proinflammatory response ."
        }, 
        {
            "frame-id": "sent-PMC2405801-cmu-77", 
            "frame-type": "sentence", 
            "object-type": "frame", 
            "start-pos": {
                "object-type": "absolute-pos", 
                "offset": 77
            }, 
            "text": "Analyses of the present biopsy material not only failed to show any DE-induced increase in ERK activation but , as previously reported , GM-CSF expression was unaltered [ 11 ] ."
        }, 
        {
            "frame-id": "sent-PMC2405801-cmu-78", 
            "frame-type": "sentence", 
            "object-type": "frame", 
            "start-pos": {
                "object-type": "absolute-pos", 
                "offset": 78
            }, 
            "text": "The difference between this study and that of Blanchet et al , may be due to a dose threshold effect ."
        }, 
        {
            "frame-id": "sent-PMC2405801-cmu-79", 
            "frame-type": "sentence", 
            "object-type": "frame", 
            "start-pos": {
                "object-type": "absolute-pos", 
                "offset": 79
            }, 
            "text": "Another possibility is the time course of events , since in the current study bronchial mucosal biopsies were sampled at 6 hours after in-vivo DE exposure and Blanchet et al determined the in-vitro response in the 16-HBE cells after 18 hours and in absence of cooperation with other signalling involved in an in-vivo system ."
        }, 
        {
            "frame-id": "sent-PMC2405801-cmu-80", 
            "frame-type": "sentence", 
            "object-type": "frame", 
            "start-pos": {
                "object-type": "absolute-pos", 
                "offset": 80
            }, 
            "text": "The question whether the ERK pathway is activated at a later time point after in-vivo diesel exposure in humans in-vivo , will shortly be addressed in archived biopsies sampled 18 hours post exposure [ 7 ] ."
        }, 
        {
            "frame-id": "sent-PMC2405801-cmu-81", 
            "frame-type": "sentence", 
            "object-type": "frame", 
            "start-pos": {
                "object-type": "absolute-pos", 
                "offset": 81
            }, 
            "text": "Of even more importance , EGFR pathway activation after DE exposure , can also be addressed in archived biopsies from asthmatic subjects [ 12 ] , in which EGFR pathways are of major importance in terms of epithelial barrier integrity , airway remodelling and signal transduction [ 21,44 ] ."
        }, 
        {
            "frame-id": "sent-PMC2405801-cmu-82", 
            "frame-type": "sentence", 
            "object-type": "frame", 
            "start-pos": {
                "object-type": "absolute-pos", 
                "offset": 82
            }, 
            "text": "To examine the potential role of metals in DE induced EGFR activation , cellular PTK or non-receptor protein tyrosine kinase such as Src were considered ."
        }, 
        {
            "frame-id": "sent-PMC2405801-cmu-83", 
            "frame-type": "sentence", 
            "object-type": "frame", 
            "start-pos": {
                "object-type": "absolute-pos", 
                "offset": 83
            }, 
            "text": "Src can act as co-transducer of EGFR signals and has been demonstrated to be involved in the responses of Zn2+-induced Ras activation via the EGFR ."
        }, 
        {
            "frame-id": "sent-PMC2405801-cmu-84", 
            "frame-type": "sentence", 
            "object-type": "frame", 
            "start-pos": {
                "object-type": "absolute-pos", 
                "offset": 84
            }, 
            "text": "Src-dependent EGFR signalling has been reported to be mediated by phosphorylation of Tyr 845 and Tyr 1101 [ 45,46 ] ."
        }, 
        {
            "frame-id": "sent-PMC2405801-cmu-85", 
            "frame-type": "sentence", 
            "object-type": "frame", 
            "start-pos": {
                "object-type": "absolute-pos", 
                "offset": 85
            }, 
            "text": "In this study we did not find any changes either in Tyr 845 ( EGFR tyrosine ) or Tyr 416 , Src related tyrosine ( which is an autophosphorylation site on c-Src ) ."
        }, 
        {
            "frame-id": "sent-PMC2405801-cmu-86", 
            "frame-type": "sentence", 
            "object-type": "frame", 
            "start-pos": {
                "object-type": "absolute-pos", 
                "offset": 86
            }, 
            "text": "Even though a role for Src in transphosphorylating EGFR tyrosine in the time course after a DE exposure in-vivo can not completely be ruled out , the present study has not given any support for its involvement at the 6 hour post exposure sampling time ."
        }, 
        {
            "frame-id": "sent-PMC2405801-cmu-87", 
            "frame-type": "sentence", 
            "object-type": "frame", 
            "start-pos": {
                "object-type": "absolute-pos", 
                "offset": 87
            }, 
            "text": "IL-13 is a Th2 cytokine that has been implicated in allergy and asthma airway inflammation , airway remodelling and bronchial hyperresponsiveness ."
        }, 
        {
            "frame-id": "sent-PMC2405801-cmu-88", 
            "frame-type": "sentence", 
            "object-type": "frame", 
            "start-pos": {
                "object-type": "absolute-pos", 
                "offset": 88
            }, 
            "text": "Increased bronchial epithelial expression of IL-13 has previously been shown after DE exposure in healthy non-atopic subjects [ 9 ] ."
        }, 
        {
            "frame-id": "sent-PMC2405801-cmu-89", 
            "frame-type": "sentence", 
            "object-type": "frame", 
            "start-pos": {
                "object-type": "absolute-pos", 
                "offset": 89
            }, 
            "text": "This response could potentially have been mediated by EGFR downstream , such as via AP-1 ."
        }, 
        {
            "frame-id": "sent-PMC2405801-cmu-90", 
            "frame-type": "sentence", 
            "object-type": "frame", 
            "start-pos": {
                "object-type": "absolute-pos", 
                "offset": 90
            }, 
            "text": "Interestingly , IL-13 and EGFR may interact in epithelial and goblet cell regulation ."
        }, 
        {
            "frame-id": "sent-PMC2405801-cmu-91", 
            "frame-type": "sentence", 
            "object-type": "frame", 
            "start-pos": {
                "object-type": "absolute-pos", 
                "offset": 91
            }, 
            "text": "IL-13 has been shown to activate neutrophils , and may by interaction with EGFR , lead to increased goblet cell mucin production and metaplasia [ 47,48 ] ."
        }, 
        {
            "frame-id": "sent-PMC2405801-cmu-92", 
            "frame-type": "sentence", 
            "object-type": "frame", 
            "start-pos": {
                "object-type": "absolute-pos", 
                "offset": 92
            }, 
            "text": "The present findings could therefore be of particular importance in asthmatic and COPD subjects , who may experience exacerbations after exposure to particulate matter air pollution [ 1,14 ] ."
        }, 
        {
            "frame-id": "sent-PMC2405801-cmu-93", 
            "frame-type": "sentence", 
            "object-type": "frame", 
            "start-pos": {
                "object-type": "absolute-pos", 
                "offset": 93
            }, 
            "text": "Conclusion"
        }, 
        {
            "frame-id": "sent-PMC2405801-cmu-94", 
            "frame-type": "sentence", 
            "object-type": "frame", 
            "start-pos": {
                "object-type": "absolute-pos", 
                "offset": 94
            }, 
            "text": "The present investigation suggests that diesel exhaust induced bronchial epithelial inflammatory responses are mediated by the EGFR ."
        }, 
        {
            "frame-id": "sent-PMC2405801-cmu-95", 
            "frame-type": "sentence", 
            "object-type": "frame", 
            "start-pos": {
                "object-type": "absolute-pos", 
                "offset": 95
            }, 
            "text": "The enhanced EGFR expression and phosphorylation of the autophosphorylation site tyr1173 by diesel exhaust is in accordance with the previously demonstrated activation of the JNK , AP-1 , p38 MAPK and NFkB pathways and their associated downstream signalling and cytokine production ."
        }, 
        {
            "frame-id": "sent-PMC2405801-cmu-96", 
            "frame-type": "sentence", 
            "object-type": "frame", 
            "start-pos": {
                "object-type": "absolute-pos", 
                "offset": 96
            }, 
            "text": "We could not identify any effect on the MEK and ERK pathways , suggesting that at this 6 hour post exposure time point there was no proliferative/differentiating signalling in the bronchial epithelium ."
        }, 
        {
            "frame-id": "sent-PMC2405801-cmu-97", 
            "frame-type": "sentence", 
            "object-type": "frame", 
            "start-pos": {
                "object-type": "absolute-pos", 
                "offset": 97
            }, 
            "text": "The involvement of EGFR in the airway response to diesel exhaust could potentially be of even more importance in subjects with asthma and COPD in which this receptor tyrosine kinase has been indicated to play a major role in the inflammatory , proliferative and remodelling processes ."
        }, 
        {
            "frame-id": "sent-PMC2405801-cmu-98", 
            "frame-type": "sentence", 
            "object-type": "frame", 
            "start-pos": {
                "object-type": "absolute-pos", 
                "offset": 98
            }, 
            "text": "Methods"
        }, 
        {
            "frame-id": "sent-PMC2405801-cmu-99", 
            "frame-type": "sentence", 
            "object-type": "frame", 
            "start-pos": {
                "object-type": "absolute-pos", 
                "offset": 99
            }, 
            "text": "Study design"
        }, 
        {
            "frame-id": "sent-PMC2405801-cmu-100", 
            "frame-type": "sentence", 
            "object-type": "frame", 
            "start-pos": {
                "object-type": "absolute-pos", 
                "offset": 100
            }, 
            "text": "Fifteen non-atopic , non-smoking healthy subjects ( 11 males , 4 females ) mean age ; 24 years ( range 21\u201328 years ) were included ."
        }, 
        {
            "frame-id": "sent-PMC2405801-cmu-101", 
            "frame-type": "sentence", 
            "object-type": "frame", 
            "start-pos": {
                "object-type": "absolute-pos", 
                "offset": 101
            }, 
            "text": "All had normal lung function , negative skin prick tests against common airborne allergens and were free from respiratory tract infections for at least 6 weeks prior to or during the study period ."
        }, 
        {
            "frame-id": "sent-PMC2405801-cmu-102", 
            "frame-type": "sentence", 
            "object-type": "frame", 
            "start-pos": {
                "object-type": "absolute-pos", 
                "offset": 102
            }, 
            "text": "Each subject was exposed in a chamber to filtered air or DE for one hour , on two separate occasions in a single blind randomized sequence , at least 3 weeks apart , according to a previously described standard protocol [ 10,49 ] ."
        }, 
        {
            "frame-id": "sent-PMC2405801-cmu-103", 
            "frame-type": "sentence", 
            "object-type": "frame", 
            "start-pos": {
                "object-type": "absolute-pos", 
                "offset": 103
            }, 
            "text": "During DE exposure , the concentration of particulates with a mass median diameter of less than 10 \u03bcm ( PM10 ) was kept at 300 \u03bcg/m3 ."
        }, 
        {
            "frame-id": "sent-PMC2405801-cmu-104", 
            "frame-type": "sentence", 
            "object-type": "frame", 
            "start-pos": {
                "object-type": "absolute-pos", 
                "offset": 104
            }, 
            "text": "As a consequence associated pollutants were at the following concentrations : NO2 1.6 ppm , NO 4.5 ppm , CO 7.5 ppm , total hydrocarbons 4.3 ppm , formaldehyde 0.26 mg/m3 and suspended particulates 4.3 \u00d7 106 cm3 ."
        }, 
        {
            "frame-id": "sent-PMC2405801-cmu-105", 
            "frame-type": "sentence", 
            "object-type": "frame", 
            "start-pos": {
                "object-type": "absolute-pos", 
                "offset": 105
            }, 
            "text": "During exposure the subjects alternated rest and moderate exercise ( minute ventilation [ VE ] = 20 L/min/m2 ) on a bicycle ergometer at 15-minute intervals ."
        }, 
        {
            "frame-id": "sent-PMC2405801-cmu-106", 
            "frame-type": "sentence", 
            "object-type": "frame", 
            "start-pos": {
                "object-type": "absolute-pos", 
                "offset": 106
            }, 
            "text": "The study was performed according to the Declaration of Helsinki and was approved by the local ethics committee ."
        }, 
        {
            "frame-id": "sent-PMC2405801-cmu-107", 
            "frame-type": "sentence", 
            "object-type": "frame", 
            "start-pos": {
                "object-type": "absolute-pos", 
                "offset": 107
            }, 
            "text": "All subjects gave their written informed consent ."
        }, 
        {
            "frame-id": "sent-PMC2405801-cmu-108", 
            "frame-type": "sentence", 
            "object-type": "frame", 
            "start-pos": {
                "object-type": "absolute-pos", 
                "offset": 108
            }, 
            "text": "Bronchoscopy and processing of biopsies"
        }, 
        {
            "frame-id": "sent-PMC2405801-cmu-109", 
            "frame-type": "sentence", 
            "object-type": "frame", 
            "start-pos": {
                "object-type": "absolute-pos", 
                "offset": 109
            }, 
            "text": "Bronchoscopy with endobronchial biopsy sampling in alternating lungs between the two occasions was performed six hours after the end of the exposure period ."
        }, 
        {
            "frame-id": "sent-PMC2405801-cmu-110", 
            "frame-type": "sentence", 
            "object-type": "frame", 
            "start-pos": {
                "object-type": "absolute-pos", 
                "offset": 110
            }, 
            "text": "Biopsies were fixed in chilled acetone containing protease inhibitors ( 20 mM iodoacetamide and 2 mM phenyl methyl sulfonyl fluoride ) and kept at -20\u00b0C overnight ( 16\u201320 hours ) ."
        }, 
        {
            "frame-id": "sent-PMC2405801-cmu-111", 
            "frame-type": "sentence", 
            "object-type": "frame", 
            "start-pos": {
                "object-type": "absolute-pos", 
                "offset": 111
            }, 
            "text": "The day after biopsy sampling , the biopsies were processed into glycolmethacrylate ( GMA ) resin , as previously described [ 50 ] ."
        }, 
        {
            "frame-id": "sent-PMC2405801-cmu-112", 
            "frame-type": "sentence", 
            "object-type": "frame", 
            "start-pos": {
                "object-type": "absolute-pos", 
                "offset": 112
            }, 
            "text": "The GMA embedded biopsies were stored in airtight containers at -20\u00b0C until used for cutting and immunostaining with primary antibodies given in table 2 ."
        }, 
        {
            "frame-id": "sent-PMC2405801-cmu-113", 
            "frame-type": "sentence", 
            "object-type": "frame", 
            "start-pos": {
                "object-type": "absolute-pos", 
                "offset": 113
            }, 
            "text": "From each subject and exposure , two sections from one biopsy with proper morphologic structure were cut at 2 \u03bcm thickness ."
        }, 
        {
            "frame-id": "sent-PMC2405801-cmu-114", 
            "frame-type": "sentence", 
            "object-type": "frame", 
            "start-pos": {
                "object-type": "absolute-pos", 
                "offset": 114
            }, 
            "text": "IgG and tris buffere saline with 0.5 % triton-x-100 ( TBST ) with 1 % BSA was used as negative controls ( figure 1E ) ."
        }, 
        {
            "frame-id": "sent-PMC2405801-cmu-115", 
            "frame-type": "sentence", 
            "object-type": "frame", 
            "start-pos": {
                "object-type": "absolute-pos", 
                "offset": 115
            }, 
            "text": "The endogenous peroxidase were inhibited using 0.1 % sodium azide and 0.3 % hydrogen peroxide in distilled water ."
        }, 
        {
            "frame-id": "sent-PMC2405801-cmu-116", 
            "frame-type": "sentence", 
            "object-type": "frame", 
            "start-pos": {
                "object-type": "absolute-pos", 
                "offset": 116
            }, 
            "text": "After 3 \u00d7 5 minute washes in 0.1 % TBST , non-specific antibody binding were blocked with undiluted culture medium containing 10 % fetal calf serum and bovin serum albumin ( BSA ) followed by another blocking step with rabbit norma serum or swine normal serum for 30 minute each blocking step ."
        }, 
        {
            "frame-id": "sent-PMC2405801-cmu-117", 
            "frame-type": "sentence", 
            "object-type": "frame", 
            "start-pos": {
                "object-type": "absolute-pos", 
                "offset": 117
            }, 
            "text": "Primary antibody ( Table 2 ) were applied and incubated overnight , biotinylated rabbit anti mouse were used as secondary antibody on slide stained with mAb , and biotinylated swine anti rabbit antibody were applied on slides immunostained with primary rabbit antibodies ."
        }, 
        {
            "frame-id": "sent-PMC2405801-cmu-118", 
            "frame-type": "sentence", 
            "object-type": "frame", 
            "start-pos": {
                "object-type": "absolute-pos", 
                "offset": 118
            }, 
            "text": "Streptavidine-biotin horseradish-peroxidase complex followed by diaminobenzidine were used to visualize the immunoractivity [ 15 ] ."
        }, 
        {
            "frame-id": "sent-PMC2405801-cmu-119", 
            "frame-type": "sentence", 
            "object-type": "frame", 
            "start-pos": {
                "object-type": "absolute-pos", 
                "offset": 119
            }, 
            "text": "Quantification of immunostaining"
        }, 
        {
            "frame-id": "sent-PMC2405801-cmu-120", 
            "frame-type": "sentence", 
            "object-type": "frame", 
            "start-pos": {
                "object-type": "absolute-pos", 
                "offset": 120
            }, 
            "text": "The immunoreactivity was quantified using a colour video camera ( Sony DXC-950P 3-CCD three-chip power HAD ) containing 380 000 effective picture elements ( pixels ) ( Sony , Tokyo Japan ) ."
        }, 
        {
            "frame-id": "sent-PMC2405801-cmu-121", 
            "frame-type": "sentence", 
            "object-type": "frame", 
            "start-pos": {
                "object-type": "absolute-pos", 
                "offset": 121
            }, 
            "text": "The camera was connected to a LEICA imaging workstation , with highly specific PC software ( Leica Q500IW , Leica Cambridge UK ) ."
        }, 
        {
            "frame-id": "sent-PMC2405801-cmu-122", 
            "frame-type": "sentence", 
            "object-type": "frame", 
            "start-pos": {
                "object-type": "absolute-pos", 
                "offset": 122
            }, 
            "text": "Only areas with intact epithelium were used for quantification ."
        }, 
        {
            "frame-id": "sent-PMC2405801-cmu-123", 
            "frame-type": "sentence", 
            "object-type": "frame", 
            "start-pos": {
                "object-type": "absolute-pos", 
                "offset": 123
            }, 
            "text": "The immunoreactivity was determined as positive staining ( figure 1F ) , and given as percentage of the total epithelial area selected with the image system , as previously reported [ 15 ] ."
        }, 
        {
            "frame-id": "sent-PMC2405801-cmu-124", 
            "frame-type": "sentence", 
            "object-type": "frame", 
            "start-pos": {
                "object-type": "absolute-pos", 
                "offset": 124
            }, 
            "text": "Statistical analysis"
        }, 
        {
            "frame-id": "sent-PMC2405801-cmu-125", 
            "frame-type": "sentence", 
            "object-type": "frame", 
            "start-pos": {
                "object-type": "absolute-pos", 
                "offset": 125
            }, 
            "text": "Subjects acted as their own controls , and the comparison of post-air and post-DE stainings were performed with Wilcoxon 's paired rank test , using SPSS for Windows version 11 ( SPSS , Inc. , Chicago , IL , USA ) ."
        }, 
        {
            "frame-id": "sent-PMC2405801-cmu-126", 
            "frame-type": "sentence", 
            "object-type": "frame", 
            "start-pos": {
                "object-type": "absolute-pos", 
                "offset": 126
            }, 
            "text": "A p-value less than 0.05 was considered significant ."
        }, 
        {
            "frame-id": "sent-PMC2405801-cmu-127", 
            "frame-type": "sentence", 
            "object-type": "frame", 
            "start-pos": {
                "object-type": "absolute-pos", 
                "offset": 127
            }, 
            "text": "Competing interests"
        }, 
        {
            "frame-id": "sent-PMC2405801-cmu-128", 
            "frame-type": "sentence", 
            "object-type": "frame", 
            "start-pos": {
                "object-type": "absolute-pos", 
                "offset": 128
            }, 
            "text": "The authors declare that they have no competing interests ."
        }, 
        {
            "frame-id": "sent-PMC2405801-cmu-129", 
            "frame-type": "sentence", 
            "object-type": "frame", 
            "start-pos": {
                "object-type": "absolute-pos", 
                "offset": 129
            }, 
            "text": "Authors ' contributions"
        }, 
        {
            "frame-id": "sent-PMC2405801-cmu-130", 
            "frame-type": "sentence", 
            "object-type": "frame", 
            "start-pos": {
                "object-type": "absolute-pos", 
                "offset": 130
            }, 
            "text": "JP came up with the study concept , wrote the manuscript and had participated in the design , performance and analyses of the study material ."
        }, 
        {
            "frame-id": "sent-PMC2405801-cmu-131", 
            "frame-type": "sentence", 
            "object-type": "frame", 
            "start-pos": {
                "object-type": "absolute-pos", 
                "offset": 131
            }, 
            "text": "AB was participating in the design , performance and analyses in the study as well as writing the paper ."
        }, 
        {
            "frame-id": "sent-PMC2405801-cmu-132", 
            "frame-type": "sentence", 
            "object-type": "frame", 
            "start-pos": {
                "object-type": "absolute-pos", 
                "offset": 132
            }, 
            "text": "FJK participated in the design of the study , data evaluation as well as the writing the paper ."
        }, 
        {
            "frame-id": "sent-PMC2405801-cmu-133", 
            "frame-type": "sentence", 
            "object-type": "frame", 
            "start-pos": {
                "object-type": "absolute-pos", 
                "offset": 133
            }, 
            "text": "DED was involved in the data interpretation as well as writing the paper ."
        }, 
        {
            "frame-id": "sent-PMC2405801-cmu-134", 
            "frame-type": "sentence", 
            "object-type": "frame", 
            "start-pos": {
                "object-type": "absolute-pos", 
                "offset": 134
            }, 
            "text": "SJW took part in the evaluation of the study data , discussions and the writing of the paper ."
        }, 
        {
            "frame-id": "sent-PMC2405801-cmu-135", 
            "frame-type": "sentence", 
            "object-type": "frame", 
            "start-pos": {
                "object-type": "absolute-pos", 
                "offset": 135
            }, 
            "text": "STH participated in the design of the study , interpretations and finalising the manuscript ."
        }, 
        {
            "frame-id": "sent-PMC2405801-cmu-136", 
            "frame-type": "sentence", 
            "object-type": "frame", 
            "start-pos": {
                "object-type": "absolute-pos", 
                "offset": 136
            }, 
            "text": "TS contributed to the research idea , the design , performance and analyses in the study as well as writing the paper ."
        }, 
        {
            "frame-id": "sent-PMC2405801-cmu-137", 
            "frame-type": "sentence", 
            "object-type": "frame", 
            "start-pos": {
                "object-type": "absolute-pos", 
                "offset": 137
            }, 
            "text": "All authors read and approved of the paper to be published ."
        }
    ], 
    "object-meta": {
        "component": "Nicolas-NXML-Parser", 
        "component-type": "machine", 
        "doc-id": "PMC2405801", 
        "object-type": "meta-info", 
        "organization": "CMU"
    }, 
    "object-type": "frame-collection"
}
