{
    "frames": [
        {
            "frame-id": "smap-PMC2175200-cmu-1", 
            "frame-type": "sentence-map", 
            "list1-meta": {
                "component": "nxml2fries", 
                "object-type": "meta-info", 
                "organization": "UAZ"
            }, 
            "list2-meta": {
                "component": "Nicolas-NXML-Parser", 
                "object-type": "meta-info", 
                "organization": "CMU"
            }, 
            "map": [
                {
                    "from": "sent-PMC2175200-UAZ-r1-49-4", 
                    "object-type": "map-range", 
                    "to": "sent-PMC2175200-cmu-208"
                }, 
                {
                    "from": "sent-PMC2175200-UAZ-r1-52-2", 
                    "object-type": "map-range", 
                    "to": "sent-PMC2175200-cmu-218"
                }, 
                {
                    "from": "sent-PMC2175200-UAZ-r1-27-1", 
                    "object-type": "map-range", 
                    "to": "sent-PMC2175200-cmu-103"
                }, 
                {
                    "from": "sent-PMC2175200-UAZ-r1-27-3", 
                    "object-type": "map-range", 
                    "to": "sent-PMC2175200-cmu-105"
                }, 
                {
                    "from": "sent-PMC2175200-UAZ-r1-154-0", 
                    "object-type": "map-range", 
                    "to": "sent-PMC2175200-cmu-147"
                }, 
                {
                    "from": "sent-PMC2175200-UAZ-r1-48-7", 
                    "object-type": "map-range", 
                    "to": "sent-PMC2175200-cmu-200"
                }, 
                {
                    "from": "sent-PMC2175200-UAZ-r1-40-0", 
                    "object-type": "map-range", 
                    "to": "sent-PMC2175200-cmu-156"
                }, 
                {
                    "from": "sent-PMC2175200-UAZ-r1-7-4", 
                    "object-type": "map-range", 
                    "to": "sent-PMC2175200-cmu-33"
                }, 
                {
                    "from": "sent-PMC2175200-UAZ-r1-28-3", 
                    "object-type": "map-range", 
                    "to": "sent-PMC2175200-cmu-109"
                }, 
                {
                    "from": "sent-PMC2175200-UAZ-r1-52-6", 
                    "object-type": "map-range", 
                    "to": "sent-PMC2175200-cmu-224"
                }, 
                {
                    "from": "sent-PMC2175200-UAZ-r1-23-8", 
                    "object-type": "map-range", 
                    "to": "sent-PMC2175200-cmu-95"
                }, 
                {
                    "from": "sent-PMC2175200-UAZ-r1-45-3", 
                    "object-type": "map-range", 
                    "to": "sent-PMC2175200-cmu-186"
                }, 
                {
                    "from": "sent-PMC2175200-UAZ-r1-55-0", 
                    "object-type": "map-range", 
                    "to": "sent-PMC2175200-cmu-251"
                }, 
                {
                    "from": "sent-PMC2175200-UAZ-r1-7-5", 
                    "object-type": "map-range", 
                    "to": "sent-PMC2175200-cmu-35"
                }, 
                {
                    "from": "sent-PMC2175200-UAZ-r1-44-4", 
                    "object-type": "map-range", 
                    "to": "sent-PMC2175200-cmu-180"
                }, 
                {
                    "from": "sent-PMC2175200-UAZ-r1-53-4", 
                    "object-type": "map-range", 
                    "to": "sent-PMC2175200-cmu-236"
                }, 
                {
                    "from": "sent-PMC2175200-UAZ-r1-43-0", 
                    "object-type": "map-range", 
                    "to": "sent-PMC2175200-cmu-164"
                }, 
                {
                    "from": "sent-PMC2175200-UAZ-r1-37-7", 
                    "object-type": "map-range", 
                    "to": "sent-PMC2175200-cmu-130"
                }, 
                {
                    "from": "sent-PMC2175200-UAZ-r1-54-3", 
                    "object-type": "map-range", 
                    "to": "sent-PMC2175200-cmu-247"
                }, 
                {
                    "from": "sent-PMC2175200-UAZ-r1-16-10", 
                    "object-type": "map-range", 
                    "to": "sent-PMC2175200-cmu-68"
                }, 
                {
                    "from": "sent-PMC2175200-UAZ-r1-20-0", 
                    "object-type": "map-range", 
                    "to": "sent-PMC2175200-cmu-77"
                }, 
                {
                    "from": "sent-PMC2175200-UAZ-r1-53-1", 
                    "object-type": "map-range", 
                    "to": "sent-PMC2175200-cmu-232"
                }, 
                {
                    "from": "sent-PMC2175200-UAZ-r1-5-4", 
                    "object-type": "map-range", 
                    "to": "sent-PMC2175200-cmu-13"
                }, 
                {
                    "from": "sent-PMC2175200-UAZ-r1-23-3", 
                    "object-type": "map-range", 
                    "to": "sent-PMC2175200-cmu-90"
                }, 
                {
                    "from": "sent-PMC2175200-UAZ-r1-44-0", 
                    "object-type": "map-range", 
                    "to": "sent-PMC2175200-cmu-172"
                }, 
                {
                    "from": "sent-PMC2175200-UAZ-r1-44-1", 
                    "object-type": "map-range", 
                    "to": "sent-PMC2175200-cmu-174"
                }, 
                {
                    "from": "sent-PMC2175200-UAZ-r1-52-3", 
                    "object-type": "map-range", 
                    "to": "sent-PMC2175200-cmu-219"
                }, 
                {
                    "from": "sent-PMC2175200-UAZ-r1-8-1", 
                    "object-type": "map-range", 
                    "to": "sent-PMC2175200-cmu-42"
                }, 
                {
                    "from": "sent-PMC2175200-UAZ-r1-48-4", 
                    "object-type": "map-range", 
                    "to": "sent-PMC2175200-cmu-197"
                }, 
                {
                    "from": "sent-PMC2175200-UAZ-r1-56-4", 
                    "object-type": "map-range", 
                    "to": "sent-PMC2175200-cmu-259"
                }, 
                {
                    "from": "sent-PMC2175200-UAZ-r1-55-1", 
                    "object-type": "map-range", 
                    "to": "sent-PMC2175200-cmu-252"
                }, 
                {
                    "from": "sent-PMC2175200-UAZ-r1-43-3", 
                    "object-type": "map-range", 
                    "to": "sent-PMC2175200-cmu-170"
                }, 
                {
                    "from": "sent-PMC2175200-UAZ-r1-16-0", 
                    "object-type": "map-range", 
                    "to": "sent-PMC2175200-cmu-58"
                }, 
                {
                    "from": "sent-PMC2175200-UAZ-r1-16-11", 
                    "object-type": "map-range", 
                    "to": "sent-PMC2175200-cmu-69"
                }, 
                {
                    "from": "sent-PMC2175200-UAZ-r1-154-0", 
                    "object-type": "map-range", 
                    "to": "sent-PMC2175200-cmu-141"
                }, 
                {
                    "from": "sent-PMC2175200-UAZ-r1-45-1", 
                    "object-type": "map-range", 
                    "to": "sent-PMC2175200-cmu-183"
                }, 
                {
                    "from": "sent-PMC2175200-UAZ-r1-23-0", 
                    "object-type": "map-range", 
                    "to": "sent-PMC2175200-cmu-86"
                }, 
                {
                    "from": "sent-PMC2175200-UAZ-r1-57-4", 
                    "object-type": "map-range", 
                    "to": "sent-PMC2175200-cmu-271"
                }, 
                {
                    "from": "sent-PMC2175200-UAZ-r1-23-4", 
                    "object-type": "map-range", 
                    "to": "sent-PMC2175200-cmu-91"
                }, 
                {
                    "from": "sent-PMC2175200-UAZ-r1-40-3", 
                    "object-type": "map-range", 
                    "to": "sent-PMC2175200-cmu-161"
                }, 
                {
                    "from": "sent-PMC2175200-UAZ-r1-19-3", 
                    "object-type": "map-range", 
                    "to": "sent-PMC2175200-cmu-76"
                }, 
                {
                    "from": "sent-PMC2175200-UAZ-r1-37-4", 
                    "object-type": "map-range", 
                    "to": "sent-PMC2175200-cmu-127"
                }, 
                {
                    "from": "sent-PMC2175200-UAZ-r1-32-1", 
                    "object-type": "map-range", 
                    "to": "sent-PMC2175200-cmu-115"
                }, 
                {
                    "from": "sent-PMC2175200-UAZ-r1-54-2", 
                    "object-type": "map-range", 
                    "to": "sent-PMC2175200-cmu-244"
                }, 
                {
                    "from": "sent-PMC2175200-UAZ-r1-47-0", 
                    "object-type": "map-range", 
                    "to": "sent-PMC2175200-cmu-191"
                }, 
                {
                    "from": "sent-PMC2175200-UAZ-r1-38-5", 
                    "object-type": "map-range", 
                    "to": "sent-PMC2175200-cmu-137"
                }, 
                {
                    "from": "sent-PMC2175200-UAZ-r1-45-5", 
                    "object-type": "map-range", 
                    "to": "sent-PMC2175200-cmu-190"
                }, 
                {
                    "from": "sent-PMC2175200-UAZ-r1-20-2", 
                    "object-type": "map-range", 
                    "to": "sent-PMC2175200-cmu-79"
                }, 
                {
                    "from": "sent-PMC2175200-UAZ-r1-19-2", 
                    "object-type": "map-range", 
                    "to": "sent-PMC2175200-cmu-75"
                }, 
                {
                    "from": "sent-PMC2175200-UAZ-r1-45-4", 
                    "object-type": "map-range", 
                    "to": "sent-PMC2175200-cmu-188"
                }, 
                {
                    "from": "sent-PMC2175200-UAZ-r1-53-3", 
                    "object-type": "map-range", 
                    "to": "sent-PMC2175200-cmu-235"
                }, 
                {
                    "from": "sent-PMC2175200-UAZ-r1-18-0", 
                    "object-type": "map-range", 
                    "to": "sent-PMC2175200-cmu-72"
                }, 
                {
                    "from": "sent-PMC2175200-UAZ-r1-49-6", 
                    "object-type": "map-range", 
                    "to": "sent-PMC2175200-cmu-212"
                }, 
                {
                    "from": "sent-PMC2175200-UAZ-r1-42-0", 
                    "object-type": "map-range", 
                    "to": "sent-PMC2175200-cmu-163"
                }, 
                {
                    "from": "sent-PMC2175200-UAZ-r1-16-4", 
                    "object-type": "map-range", 
                    "to": "sent-PMC2175200-cmu-62"
                }, 
                {
                    "from": "sent-PMC2175200-UAZ-r1-56-0", 
                    "object-type": "map-range", 
                    "to": "sent-PMC2175200-cmu-255"
                }, 
                {
                    "from": "sent-PMC2175200-UAZ-r1-48-9", 
                    "object-type": "map-range", 
                    "to": "sent-PMC2175200-cmu-202"
                }, 
                {
                    "from": "sent-PMC2175200-UAZ-r1-5-2", 
                    "object-type": "map-range", 
                    "to": "sent-PMC2175200-cmu-8"
                }, 
                {
                    "from": "sent-PMC2175200-UAZ-r1-48-5", 
                    "object-type": "map-range", 
                    "to": "sent-PMC2175200-cmu-198"
                }, 
                {
                    "from": "sent-PMC2175200-UAZ-r1-40-4", 
                    "object-type": "map-range", 
                    "to": "sent-PMC2175200-cmu-162"
                }, 
                {
                    "from": "sent-PMC2175200-UAZ-r1-16-2", 
                    "object-type": "map-range", 
                    "to": "sent-PMC2175200-cmu-60"
                }, 
                {
                    "from": "sent-PMC2175200-UAZ-r1-5-0", 
                    "object-type": "map-range", 
                    "to": "sent-PMC2175200-cmu-2"
                }, 
                {
                    "from": "sent-PMC2175200-UAZ-r1-54-4", 
                    "object-type": "map-range", 
                    "to": "sent-PMC2175200-cmu-249"
                }, 
                {
                    "from": "sent-PMC2175200-UAZ-r1-16-6", 
                    "object-type": "map-range", 
                    "to": "sent-PMC2175200-cmu-64"
                }, 
                {
                    "from": "sent-PMC2175200-UAZ-r1-6-3", 
                    "object-type": "map-range", 
                    "to": "sent-PMC2175200-cmu-22"
                }, 
                {
                    "from": "sent-PMC2175200-UAZ-r1-39-3", 
                    "object-type": "map-range", 
                    "to": "sent-PMC2175200-cmu-149"
                }, 
                {
                    "from": "sent-PMC2175200-UAZ-r1-56-2", 
                    "object-type": "map-range", 
                    "to": "sent-PMC2175200-cmu-257"
                }, 
                {
                    "from": "sent-PMC2175200-UAZ-r1-38-2", 
                    "object-type": "map-range", 
                    "to": "sent-PMC2175200-cmu-133"
                }, 
                {
                    "from": "sent-PMC2175200-UAZ-r1-5-1", 
                    "object-type": "map-range", 
                    "to": "sent-PMC2175200-cmu-3"
                }, 
                {
                    "from": "sent-PMC2175200-UAZ-r1-49-5", 
                    "object-type": "map-range", 
                    "to": "sent-PMC2175200-cmu-210"
                }, 
                {
                    "from": "sent-PMC2175200-UAZ-r1-7-0", 
                    "object-type": "map-range", 
                    "to": "sent-PMC2175200-cmu-26"
                }, 
                {
                    "from": "sent-PMC2175200-UAZ-r1-15-0", 
                    "object-type": "map-range", 
                    "to": "sent-PMC2175200-cmu-57"
                }, 
                {
                    "from": "sent-PMC2175200-UAZ-r1-7-2", 
                    "object-type": "map-range", 
                    "to": "sent-PMC2175200-cmu-29"
                }, 
                {
                    "from": "sent-PMC2175200-UAZ-r1-32-5", 
                    "object-type": "map-range", 
                    "to": "sent-PMC2175200-cmu-119"
                }, 
                {
                    "from": "sent-PMC2175200-UAZ-r1-40-1", 
                    "object-type": "map-range", 
                    "to": "sent-PMC2175200-cmu-157"
                }, 
                {
                    "from": "sent-PMC2175200-UAZ-r1-7-3", 
                    "object-type": "map-range", 
                    "to": "sent-PMC2175200-cmu-32"
                }, 
                {
                    "from": "sent-PMC2175200-UAZ-r1-154-4", 
                    "object-type": "map-range", 
                    "to": "sent-PMC2175200-cmu-144"
                }, 
                {
                    "from": "sent-PMC2175200-UAZ-r1-57-3", 
                    "object-type": "map-range", 
                    "to": "sent-PMC2175200-cmu-270"
                }, 
                {
                    "from": "sent-PMC2175200-UAZ-r1-13-1", 
                    "object-type": "map-range", 
                    "to": "sent-PMC2175200-cmu-52"
                }, 
                {
                    "from": "sent-PMC2175200-UAZ-r1-38-3", 
                    "object-type": "map-range", 
                    "to": "sent-PMC2175200-cmu-135"
                }, 
                {
                    "from": "sent-PMC2175200-UAZ-r1-37-6", 
                    "object-type": "map-range", 
                    "to": "sent-PMC2175200-cmu-129"
                }, 
                {
                    "from": "sent-PMC2175200-UAZ-r1-39-6", 
                    "object-type": "map-range", 
                    "to": "sent-PMC2175200-cmu-155"
                }, 
                {
                    "from": "sent-PMC2175200-UAZ-r1-55-2", 
                    "object-type": "map-range", 
                    "to": "sent-PMC2175200-cmu-254"
                }, 
                {
                    "from": "sent-PMC2175200-UAZ-r1-38-4", 
                    "object-type": "map-range", 
                    "to": "sent-PMC2175200-cmu-136"
                }, 
                {
                    "from": "sent-PMC2175200-UAZ-r1-49-1", 
                    "object-type": "map-range", 
                    "to": "sent-PMC2175200-cmu-205"
                }, 
                {
                    "from": "sent-PMC2175200-UAZ-r1-13-5", 
                    "object-type": "map-range", 
                    "to": "sent-PMC2175200-cmu-56"
                }, 
                {
                    "from": "sent-PMC2175200-UAZ-r1-6-0", 
                    "object-type": "map-range", 
                    "to": "sent-PMC2175200-cmu-15"
                }, 
                {
                    "from": "sent-PMC2175200-UAZ-r1-32-4", 
                    "object-type": "map-range", 
                    "to": "sent-PMC2175200-cmu-118"
                }, 
                {
                    "from": "sent-PMC2175200-UAZ-r1-56-5", 
                    "object-type": "map-range", 
                    "to": "sent-PMC2175200-cmu-261"
                }, 
                {
                    "from": "sent-PMC2175200-UAZ-r1-38-1", 
                    "object-type": "map-range", 
                    "to": "sent-PMC2175200-cmu-132"
                }, 
                {
                    "from": "sent-PMC2175200-UAZ-r1-49-0", 
                    "object-type": "map-range", 
                    "to": "sent-PMC2175200-cmu-204"
                }, 
                {
                    "from": "sent-PMC2175200-UAZ-r1-44-3", 
                    "object-type": "map-range", 
                    "to": "sent-PMC2175200-cmu-177"
                }, 
                {
                    "from": "sent-PMC2175200-UAZ-r1-37-2", 
                    "object-type": "map-range", 
                    "to": "sent-PMC2175200-cmu-125"
                }, 
                {
                    "from": "sent-PMC2175200-UAZ-r1-39-1", 
                    "object-type": "map-range", 
                    "to": "sent-PMC2175200-cmu-146"
                }, 
                {
                    "from": "sent-PMC2175200-UAZ-r1-37-0", 
                    "object-type": "map-range", 
                    "to": "sent-PMC2175200-cmu-122"
                }, 
                {
                    "from": "sent-PMC2175200-UAZ-r1-27-0", 
                    "object-type": "map-range", 
                    "to": "sent-PMC2175200-cmu-102"
                }, 
                {
                    "from": "sent-PMC2175200-UAZ-r1-49-3", 
                    "object-type": "map-range", 
                    "to": "sent-PMC2175200-cmu-207"
                }, 
                {
                    "from": "sent-PMC2175200-UAZ-r1-53-0", 
                    "object-type": "map-range", 
                    "to": "sent-PMC2175200-cmu-231"
                }, 
                {
                    "from": "sent-PMC2175200-UAZ-r1-28-0", 
                    "object-type": "map-range", 
                    "to": "sent-PMC2175200-cmu-106"
                }, 
                {
                    "from": "sent-PMC2175200-UAZ-r1-45-2", 
                    "object-type": "map-range", 
                    "to": "sent-PMC2175200-cmu-185"
                }, 
                {
                    "from": "sent-PMC2175200-UAZ-r1-52-0", 
                    "object-type": "map-range", 
                    "to": "sent-PMC2175200-cmu-216"
                }, 
                {
                    "from": "sent-PMC2175200-UAZ-r1-57-1", 
                    "object-type": "map-range", 
                    "to": "sent-PMC2175200-cmu-264"
                }, 
                {
                    "from": "sent-PMC2175200-UAZ-r1-57-2", 
                    "object-type": "map-range", 
                    "to": "sent-PMC2175200-cmu-265"
                }, 
                {
                    "from": "sent-PMC2175200-UAZ-r1-23-2", 
                    "object-type": "map-range", 
                    "to": "sent-PMC2175200-cmu-89"
                }, 
                {
                    "from": "sent-PMC2175200-UAZ-r1-13-0", 
                    "object-type": "map-range", 
                    "to": "sent-PMC2175200-cmu-47"
                }, 
                {
                    "from": "sent-PMC2175200-UAZ-r1-37-5", 
                    "object-type": "map-range", 
                    "to": "sent-PMC2175200-cmu-128"
                }, 
                {
                    "from": "sent-PMC2175200-UAZ-r1-38-8", 
                    "object-type": "map-range", 
                    "to": "sent-PMC2175200-cmu-143"
                }, 
                {
                    "from": "sent-PMC2175200-UAZ-r1-6-1", 
                    "object-type": "map-range", 
                    "to": "sent-PMC2175200-cmu-19"
                }, 
                {
                    "from": "sent-PMC2175200-UAZ-r1-56-3", 
                    "object-type": "map-range", 
                    "to": "sent-PMC2175200-cmu-258"
                }, 
                {
                    "from": "sent-PMC2175200-UAZ-r1-52-7", 
                    "object-type": "map-range", 
                    "to": "sent-PMC2175200-cmu-227"
                }, 
                {
                    "from": "sent-PMC2175200-UAZ-r1-48-2", 
                    "object-type": "map-range", 
                    "to": "sent-PMC2175200-cmu-195"
                }, 
                {
                    "from": "sent-PMC2175200-UAZ-r1-48-10", 
                    "object-type": "map-range", 
                    "to": "sent-PMC2175200-cmu-203"
                }, 
                {
                    "from": "sent-PMC2175200-UAZ-r1-13-4", 
                    "object-type": "map-range", 
                    "to": "sent-PMC2175200-cmu-55"
                }, 
                {
                    "from": "sent-PMC2175200-UAZ-r1-23-5", 
                    "object-type": "map-range", 
                    "to": "sent-PMC2175200-cmu-92"
                }, 
                {
                    "from": "sent-PMC2175200-UAZ-r1-54-5", 
                    "object-type": "map-range", 
                    "to": "sent-PMC2175200-cmu-250"
                }, 
                {
                    "from": "sent-PMC2175200-UAZ-r1-16-7", 
                    "object-type": "map-range", 
                    "to": "sent-PMC2175200-cmu-65"
                }, 
                {
                    "from": "sent-PMC2175200-UAZ-r1-20-6", 
                    "object-type": "map-range", 
                    "to": "sent-PMC2175200-cmu-84"
                }, 
                {
                    "from": "sent-PMC2175200-UAZ-r1-45-0", 
                    "object-type": "map-range", 
                    "to": "sent-PMC2175200-cmu-181"
                }, 
                {
                    "from": "sent-PMC2175200-UAZ-r1-48-3", 
                    "object-type": "map-range", 
                    "to": "sent-PMC2175200-cmu-196"
                }, 
                {
                    "from": "sent-PMC2175200-UAZ-r1-52-8", 
                    "object-type": "map-range", 
                    "to": "sent-PMC2175200-cmu-229"
                }, 
                {
                    "from": "sent-PMC2175200-UAZ-r1-16-5", 
                    "object-type": "map-range", 
                    "to": "sent-PMC2175200-cmu-63"
                }, 
                {
                    "from": "sent-PMC2175200-UAZ-r1-38-0", 
                    "object-type": "map-range", 
                    "to": "sent-PMC2175200-cmu-131"
                }, 
                {
                    "from": "sent-PMC2175200-UAZ-r1-32-0", 
                    "object-type": "map-range", 
                    "to": "sent-PMC2175200-cmu-113"
                }, 
                {
                    "from": "sent-PMC2175200-UAZ-r1-37-1", 
                    "object-type": "map-range", 
                    "to": "sent-PMC2175200-cmu-123"
                }, 
                {
                    "from": "sent-PMC2175200-UAZ-r1-52-1", 
                    "object-type": "map-range", 
                    "to": "sent-PMC2175200-cmu-217"
                }, 
                {
                    "from": "sent-PMC2175200-UAZ-r1-36-0", 
                    "object-type": "map-range", 
                    "to": "sent-PMC2175200-cmu-121"
                }, 
                {
                    "from": "sent-PMC2175200-UAZ-r1-8-0", 
                    "object-type": "map-range", 
                    "to": "sent-PMC2175200-cmu-41"
                }, 
                {
                    "from": "sent-PMC2175200-UAZ-r1-20-5", 
                    "object-type": "map-range", 
                    "to": "sent-PMC2175200-cmu-83"
                }, 
                {
                    "from": "sent-PMC2175200-UAZ-r1-53-5", 
                    "object-type": "map-range", 
                    "to": "sent-PMC2175200-cmu-237"
                }, 
                {
                    "from": "sent-PMC2175200-UAZ-r1-52-5", 
                    "object-type": "map-range", 
                    "to": "sent-PMC2175200-cmu-223"
                }, 
                {
                    "from": "sent-PMC2175200-UAZ-r1-16-13", 
                    "object-type": "map-range", 
                    "to": "sent-PMC2175200-cmu-71"
                }, 
                {
                    "from": "sent-PMC2175200-UAZ-r1-16-12", 
                    "object-type": "map-range", 
                    "to": "sent-PMC2175200-cmu-70"
                }, 
                {
                    "from": "sent-PMC2175200-UAZ-r1-19-1", 
                    "object-type": "map-range", 
                    "to": "sent-PMC2175200-cmu-74"
                }, 
                {
                    "from": "sent-PMC2175200-UAZ-r1-23-1", 
                    "object-type": "map-range", 
                    "to": "sent-PMC2175200-cmu-88"
                }, 
                {
                    "from": "sent-PMC2175200-UAZ-r1-52-4", 
                    "object-type": "map-range", 
                    "to": "sent-PMC2175200-cmu-221"
                }, 
                {
                    "from": "sent-PMC2175200-UAZ-r1-39-4", 
                    "object-type": "map-range", 
                    "to": "sent-PMC2175200-cmu-151"
                }, 
                {
                    "from": "sent-PMC2175200-UAZ-r1-54-1", 
                    "object-type": "map-range", 
                    "to": "sent-PMC2175200-cmu-242"
                }, 
                {
                    "from": "sent-PMC2175200-UAZ-r1-48-6", 
                    "object-type": "map-range", 
                    "to": "sent-PMC2175200-cmu-199"
                }, 
                {
                    "from": "sent-PMC2175200-UAZ-r1-7-6", 
                    "object-type": "map-range", 
                    "to": "sent-PMC2175200-cmu-40"
                }, 
                {
                    "from": "sent-PMC2175200-UAZ-r1-48-0", 
                    "object-type": "map-range", 
                    "to": "sent-PMC2175200-cmu-192"
                }, 
                {
                    "from": "sent-PMC2175200-UAZ-r1-19-0", 
                    "object-type": "map-range", 
                    "to": "sent-PMC2175200-cmu-73"
                }, 
                {
                    "from": "sent-PMC2175200-UAZ-r1-49-2", 
                    "object-type": "map-range", 
                    "to": "sent-PMC2175200-cmu-206"
                }, 
                {
                    "from": "sent-PMC2175200-UAZ-r1-48-8", 
                    "object-type": "map-range", 
                    "to": "sent-PMC2175200-cmu-201"
                }, 
                {
                    "from": "sent-PMC2175200-UAZ-r1-43-4", 
                    "object-type": "map-range", 
                    "to": "sent-PMC2175200-cmu-171"
                }, 
                {
                    "from": "sent-PMC2175200-UAZ-r1-53-2", 
                    "object-type": "map-range", 
                    "to": "sent-PMC2175200-cmu-234"
                }, 
                {
                    "from": "sent-PMC2175200-UAZ-r1-32-3", 
                    "object-type": "map-range", 
                    "to": "sent-PMC2175200-cmu-117"
                }, 
                {
                    "from": "sent-PMC2175200-UAZ-r1-26-1", 
                    "object-type": "map-range", 
                    "to": "sent-PMC2175200-cmu-99"
                }, 
                {
                    "from": "sent-PMC2175200-UAZ-r1-16-9", 
                    "object-type": "map-range", 
                    "to": "sent-PMC2175200-cmu-67"
                }, 
                {
                    "from": "sent-PMC2175200-UAZ-r1-54-0", 
                    "object-type": "map-range", 
                    "to": "sent-PMC2175200-cmu-239"
                }, 
                {
                    "from": "sent-PMC2175200-UAZ-r1-16-8", 
                    "object-type": "map-range", 
                    "to": "sent-PMC2175200-cmu-66"
                }, 
                {
                    "from": "sent-PMC2175200-UAZ-r1-6-2", 
                    "object-type": "map-range", 
                    "to": "sent-PMC2175200-cmu-21"
                }, 
                {
                    "from": "sent-PMC2175200-UAZ-r1-48-1", 
                    "object-type": "map-range", 
                    "to": "sent-PMC2175200-cmu-193"
                }, 
                {
                    "from": "sent-PMC2175200-UAZ-r1-44-2", 
                    "object-type": "map-range", 
                    "to": "sent-PMC2175200-cmu-176"
                }, 
                {
                    "from": "sent-PMC2175200-UAZ-r1-26-3", 
                    "object-type": "map-range", 
                    "to": "sent-PMC2175200-cmu-101"
                }, 
                {
                    "from": "sent-PMC2175200-UAZ-r1-23-6", 
                    "object-type": "map-range", 
                    "to": "sent-PMC2175200-cmu-93"
                }, 
                {
                    "from": "sent-PMC2175200-UAZ-r1-28-1", 
                    "object-type": "map-range", 
                    "to": "sent-PMC2175200-cmu-107"
                }, 
                {
                    "from": "sent-PMC2175200-UAZ-r1-13-3", 
                    "object-type": "map-range", 
                    "to": "sent-PMC2175200-cmu-54"
                }, 
                {
                    "from": "sent-PMC2175200-UAZ-r1-7-1", 
                    "object-type": "map-range", 
                    "to": "sent-PMC2175200-cmu-27"
                }, 
                {
                    "from": "sent-PMC2175200-UAZ-r1-43-2", 
                    "object-type": "map-range", 
                    "to": "sent-PMC2175200-cmu-169"
                }, 
                {
                    "from": "sent-PMC2175200-UAZ-r1-22-0", 
                    "object-type": "map-range", 
                    "to": "sent-PMC2175200-cmu-85"
                }, 
                {
                    "from": "sent-PMC2175200-UAZ-r1-56-1", 
                    "object-type": "map-range", 
                    "to": "sent-PMC2175200-cmu-256"
                }, 
                {
                    "from": "sent-PMC2175200-UAZ-r1-43-1", 
                    "object-type": "map-range", 
                    "to": "sent-PMC2175200-cmu-166"
                }, 
                {
                    "from": "sent-PMC2175200-UAZ-r1-49-7", 
                    "object-type": "map-range", 
                    "to": "sent-PMC2175200-cmu-213"
                }, 
                {
                    "from": "sent-PMC2175200-UAZ-r1-20-1", 
                    "object-type": "map-range", 
                    "to": "sent-PMC2175200-cmu-78"
                }, 
                {
                    "from": "sent-PMC2175200-UAZ-r1-16-3", 
                    "object-type": "map-range", 
                    "to": "sent-PMC2175200-cmu-61"
                }, 
                {
                    "from": "sent-PMC2175200-UAZ-r1-53-6", 
                    "object-type": "map-range", 
                    "to": "sent-PMC2175200-cmu-238"
                }, 
                {
                    "from": "sent-PMC2175200-UAZ-r1-57-0", 
                    "object-type": "map-range", 
                    "to": "sent-PMC2175200-cmu-263"
                }, 
                {
                    "from": "sent-PMC2175200-UAZ-r1-28-2", 
                    "object-type": "map-range", 
                    "to": "sent-PMC2175200-cmu-108"
                }, 
                {
                    "from": "sent-PMC2175200-UAZ-r1-20-3", 
                    "object-type": "map-range", 
                    "to": "sent-PMC2175200-cmu-80"
                }, 
                {
                    "from": "sent-PMC2175200-UAZ-r1-37-3", 
                    "object-type": "map-range", 
                    "to": "sent-PMC2175200-cmu-126"
                }, 
                {
                    "from": "sent-PMC2175200-UAZ-r1-5-3", 
                    "object-type": "map-range", 
                    "to": "sent-PMC2175200-cmu-9"
                }, 
                {
                    "from": "sent-PMC2175200-UAZ-r1-32-2", 
                    "object-type": "map-range", 
                    "to": "sent-PMC2175200-cmu-116"
                }, 
                {
                    "from": "sent-PMC2175200-UAZ-r1-23-7", 
                    "object-type": "map-range", 
                    "to": "sent-PMC2175200-cmu-94"
                }, 
                {
                    "from": "sent-PMC2175200-UAZ-r1-16-1", 
                    "object-type": "map-range", 
                    "to": "sent-PMC2175200-cmu-59"
                }, 
                {
                    "from": "sent-PMC2175200-UAZ-r1-8-2", 
                    "object-type": "map-range", 
                    "to": "sent-PMC2175200-cmu-44"
                }, 
                {
                    "from": "sent-PMC2175200-UAZ-r1-39-5", 
                    "object-type": "map-range", 
                    "to": "sent-PMC2175200-cmu-153"
                }, 
                {
                    "from": "sent-PMC2175200-UAZ-r1-38-6", 
                    "object-type": "map-range", 
                    "to": "sent-PMC2175200-cmu-139"
                }, 
                {
                    "from": "sent-PMC2175200-UAZ-r1-27-2", 
                    "object-type": "map-range", 
                    "to": "sent-PMC2175200-cmu-104"
                }
            ], 
            "object-meta": {
                "component": "Pradeep-Matcher", 
                "object-type": "meta-info", 
                "organization": "CMU"
            }, 
            "object-type": "frame"
        }, 
        {
            "frame-id": "smap-PMC2175200-cmu-2", 
            "frame-type": "sentence-map", 
            "list1-meta": {
                "component": "MedScan", 
                "object-type": "meta-info", 
                "organization": "CMU"
            }, 
            "list2-meta": {
                "component": "Nicolas-NXML-Parser", 
                "object-type": "meta-info", 
                "organization": "CMU"
            }, 
            "map": [
                {
                    "from": "sent-PMC2175200-medscan-139", 
                    "object-type": "map-range", 
                    "to": "sent-PMC2175200-cmu-218"
                }, 
                {
                    "from": "sent-PMC2175200-medscan-92", 
                    "object-type": "map-range", 
                    "to": "sent-PMC2175200-cmu-147"
                }, 
                {
                    "from": "sent-PMC2175200-medscan-92", 
                    "object-type": "map-range", 
                    "to": "sent-PMC2175200-cmu-147"
                }, 
                {
                    "from": "sent-PMC2175200-medscan-125", 
                    "object-type": "map-range", 
                    "to": "sent-PMC2175200-cmu-200"
                }, 
                {
                    "from": "sent-PMC2175200-medscan-97", 
                    "object-type": "map-range", 
                    "to": "sent-PMC2175200-cmu-156"
                }, 
                {
                    "from": "sent-PMC2175200-medscan-13", 
                    "object-type": "map-range", 
                    "to": "sent-PMC2175200-cmu-33"
                }, 
                {
                    "from": "sent-PMC2175200-medscan-65", 
                    "object-type": "map-range", 
                    "to": "sent-PMC2175200-cmu-109"
                }, 
                {
                    "from": "sent-PMC2175200-medscan-143", 
                    "object-type": "map-range", 
                    "to": "sent-PMC2175200-cmu-224"
                }, 
                {
                    "from": "sent-PMC2175200-medscan-55", 
                    "object-type": "map-range", 
                    "to": "sent-PMC2175200-cmu-95"
                }, 
                {
                    "from": "sent-PMC2175200-medscan-115", 
                    "object-type": "map-range", 
                    "to": "sent-PMC2175200-cmu-186"
                }, 
                {
                    "from": "sent-PMC2175200-medscan-159", 
                    "object-type": "map-range", 
                    "to": "sent-PMC2175200-cmu-251"
                }, 
                {
                    "from": "sent-PMC2175200-medscan-14", 
                    "object-type": "map-range", 
                    "to": "sent-PMC2175200-cmu-35"
                }, 
                {
                    "from": "sent-PMC2175200-medscan-111", 
                    "object-type": "map-range", 
                    "to": "sent-PMC2175200-cmu-180"
                }, 
                {
                    "from": "sent-PMC2175200-medscan-150", 
                    "object-type": "map-range", 
                    "to": "sent-PMC2175200-cmu-236"
                }, 
                {
                    "from": "sent-PMC2175200-medscan-102", 
                    "object-type": "map-range", 
                    "to": "sent-PMC2175200-cmu-164"
                }, 
                {
                    "from": "sent-PMC2175200-medscan-80", 
                    "object-type": "map-range", 
                    "to": "sent-PMC2175200-cmu-130"
                }, 
                {
                    "from": "sent-PMC2175200-medscan-156", 
                    "object-type": "map-range", 
                    "to": "sent-PMC2175200-cmu-247"
                }, 
                {
                    "from": "sent-PMC2175200-medscan-33", 
                    "object-type": "map-range", 
                    "to": "sent-PMC2175200-cmu-68"
                }, 
                {
                    "from": "sent-PMC2175200-medscan-40", 
                    "object-type": "map-range", 
                    "to": "sent-PMC2175200-cmu-77"
                }, 
                {
                    "from": "sent-PMC2175200-medscan-147", 
                    "object-type": "map-range", 
                    "to": "sent-PMC2175200-cmu-232"
                }, 
                {
                    "from": "sent-PMC2175200-medscan-4", 
                    "object-type": "map-range", 
                    "to": "sent-PMC2175200-cmu-13"
                }, 
                {
                    "from": "sent-PMC2175200-medscan-50", 
                    "object-type": "map-range", 
                    "to": "sent-PMC2175200-cmu-90"
                }, 
                {
                    "from": "sent-PMC2175200-medscan-107", 
                    "object-type": "map-range", 
                    "to": "sent-PMC2175200-cmu-172"
                }, 
                {
                    "from": "sent-PMC2175200-medscan-108", 
                    "object-type": "map-range", 
                    "to": "sent-PMC2175200-cmu-174"
                }, 
                {
                    "from": "sent-PMC2175200-medscan-140", 
                    "object-type": "map-range", 
                    "to": "sent-PMC2175200-cmu-219"
                }, 
                {
                    "from": "sent-PMC2175200-medscan-17", 
                    "object-type": "map-range", 
                    "to": "sent-PMC2175200-cmu-42"
                }, 
                {
                    "from": "sent-PMC2175200-medscan-122", 
                    "object-type": "map-range", 
                    "to": "sent-PMC2175200-cmu-197"
                }, 
                {
                    "from": "sent-PMC2175200-medscan-162", 
                    "object-type": "map-range", 
                    "to": "sent-PMC2175200-cmu-252"
                }, 
                {
                    "from": "sent-PMC2175200-medscan-105", 
                    "object-type": "map-range", 
                    "to": "sent-PMC2175200-cmu-170"
                }, 
                {
                    "from": "sent-PMC2175200-medscan-24", 
                    "object-type": "map-range", 
                    "to": "sent-PMC2175200-cmu-58"
                }, 
                {
                    "from": "sent-PMC2175200-medscan-92", 
                    "object-type": "map-range", 
                    "to": "sent-PMC2175200-cmu-141"
                }, 
                {
                    "from": "sent-PMC2175200-medscan-92", 
                    "object-type": "map-range", 
                    "to": "sent-PMC2175200-cmu-141"
                }, 
                {
                    "from": "sent-PMC2175200-medscan-113", 
                    "object-type": "map-range", 
                    "to": "sent-PMC2175200-cmu-183"
                }, 
                {
                    "from": "sent-PMC2175200-medscan-47", 
                    "object-type": "map-range", 
                    "to": "sent-PMC2175200-cmu-86"
                }, 
                {
                    "from": "sent-PMC2175200-medscan-176", 
                    "object-type": "map-range", 
                    "to": "sent-PMC2175200-cmu-271"
                }, 
                {
                    "from": "sent-PMC2175200-medscan-51", 
                    "object-type": "map-range", 
                    "to": "sent-PMC2175200-cmu-91"
                }, 
                {
                    "from": "sent-PMC2175200-medscan-100", 
                    "object-type": "map-range", 
                    "to": "sent-PMC2175200-cmu-161"
                }, 
                {
                    "from": "sent-PMC2175200-medscan-39", 
                    "object-type": "map-range", 
                    "to": "sent-PMC2175200-cmu-76"
                }, 
                {
                    "from": "sent-PMC2175200-medscan-77", 
                    "object-type": "map-range", 
                    "to": "sent-PMC2175200-cmu-127"
                }, 
                {
                    "from": "sent-PMC2175200-medscan-68", 
                    "object-type": "map-range", 
                    "to": "sent-PMC2175200-cmu-115"
                }, 
                {
                    "from": "sent-PMC2175200-medscan-155", 
                    "object-type": "map-range", 
                    "to": "sent-PMC2175200-cmu-244"
                }, 
                {
                    "from": "sent-PMC2175200-medscan-86", 
                    "object-type": "map-range", 
                    "to": "sent-PMC2175200-cmu-137"
                }, 
                {
                    "from": "sent-PMC2175200-medscan-117", 
                    "object-type": "map-range", 
                    "to": "sent-PMC2175200-cmu-190"
                }, 
                {
                    "from": "sent-PMC2175200-medscan-42", 
                    "object-type": "map-range", 
                    "to": "sent-PMC2175200-cmu-79"
                }, 
                {
                    "from": "sent-PMC2175200-medscan-38", 
                    "object-type": "map-range", 
                    "to": "sent-PMC2175200-cmu-75"
                }, 
                {
                    "from": "sent-PMC2175200-medscan-116", 
                    "object-type": "map-range", 
                    "to": "sent-PMC2175200-cmu-188"
                }, 
                {
                    "from": "sent-PMC2175200-medscan-149", 
                    "object-type": "map-range", 
                    "to": "sent-PMC2175200-cmu-235"
                }, 
                {
                    "from": "sent-PMC2175200-medscan-135", 
                    "object-type": "map-range", 
                    "to": "sent-PMC2175200-cmu-212"
                }, 
                {
                    "from": "sent-PMC2175200-medscan-127", 
                    "object-type": "map-range", 
                    "to": "sent-PMC2175200-cmu-202"
                }, 
                {
                    "from": "sent-PMC2175200-medscan-2", 
                    "object-type": "map-range", 
                    "to": "sent-PMC2175200-cmu-8"
                }, 
                {
                    "from": "sent-PMC2175200-medscan-123", 
                    "object-type": "map-range", 
                    "to": "sent-PMC2175200-cmu-198"
                }, 
                {
                    "from": "sent-PMC2175200-medscan-101", 
                    "object-type": "map-range", 
                    "to": "sent-PMC2175200-cmu-162"
                }, 
                {
                    "from": "sent-PMC2175200-medscan-99", 
                    "object-type": "map-range", 
                    "to": "sent-PMC2175200-cmu-160"
                }, 
                {
                    "from": "sent-PMC2175200-medscan-26", 
                    "object-type": "map-range", 
                    "to": "sent-PMC2175200-cmu-60"
                }, 
                {
                    "from": "sent-PMC2175200-medscan-0", 
                    "object-type": "map-range", 
                    "to": "sent-PMC2175200-cmu-2"
                }, 
                {
                    "from": "sent-PMC2175200-medscan-157", 
                    "object-type": "map-range", 
                    "to": "sent-PMC2175200-cmu-249"
                }, 
                {
                    "from": "sent-PMC2175200-medscan-29", 
                    "object-type": "map-range", 
                    "to": "sent-PMC2175200-cmu-64"
                }, 
                {
                    "from": "sent-PMC2175200-medscan-44", 
                    "object-type": "map-range", 
                    "to": "sent-PMC2175200-cmu-82"
                }, 
                {
                    "from": "sent-PMC2175200-medscan-8", 
                    "object-type": "map-range", 
                    "to": "sent-PMC2175200-cmu-22"
                }, 
                {
                    "from": "sent-PMC2175200-medscan-93", 
                    "object-type": "map-range", 
                    "to": "sent-PMC2175200-cmu-149"
                }, 
                {
                    "from": "sent-PMC2175200-medscan-168", 
                    "object-type": "map-range", 
                    "to": "sent-PMC2175200-cmu-257"
                }, 
                {
                    "from": "sent-PMC2175200-medscan-83", 
                    "object-type": "map-range", 
                    "to": "sent-PMC2175200-cmu-133"
                }, 
                {
                    "from": "sent-PMC2175200-medscan-1", 
                    "object-type": "map-range", 
                    "to": "sent-PMC2175200-cmu-3"
                }, 
                {
                    "from": "sent-PMC2175200-medscan-134", 
                    "object-type": "map-range", 
                    "to": "sent-PMC2175200-cmu-210"
                }, 
                {
                    "from": "sent-PMC2175200-medscan-9", 
                    "object-type": "map-range", 
                    "to": "sent-PMC2175200-cmu-26"
                }, 
                {
                    "from": "sent-PMC2175200-medscan-11", 
                    "object-type": "map-range", 
                    "to": "sent-PMC2175200-cmu-29"
                }, 
                {
                    "from": "sent-PMC2175200-medscan-72", 
                    "object-type": "map-range", 
                    "to": "sent-PMC2175200-cmu-119"
                }, 
                {
                    "from": "sent-PMC2175200-medscan-98", 
                    "object-type": "map-range", 
                    "to": "sent-PMC2175200-cmu-157"
                }, 
                {
                    "from": "sent-PMC2175200-medscan-12", 
                    "object-type": "map-range", 
                    "to": "sent-PMC2175200-cmu-32"
                }, 
                {
                    "from": "sent-PMC2175200-medscan-90", 
                    "object-type": "map-range", 
                    "to": "sent-PMC2175200-cmu-144"
                }, 
                {
                    "from": "sent-PMC2175200-medscan-175", 
                    "object-type": "map-range", 
                    "to": "sent-PMC2175200-cmu-270"
                }, 
                {
                    "from": "sent-PMC2175200-medscan-20", 
                    "object-type": "map-range", 
                    "to": "sent-PMC2175200-cmu-52"
                }, 
                {
                    "from": "sent-PMC2175200-medscan-84", 
                    "object-type": "map-range", 
                    "to": "sent-PMC2175200-cmu-135"
                }, 
                {
                    "from": "sent-PMC2175200-medscan-79", 
                    "object-type": "map-range", 
                    "to": "sent-PMC2175200-cmu-129"
                }, 
                {
                    "from": "sent-PMC2175200-medscan-96", 
                    "object-type": "map-range", 
                    "to": "sent-PMC2175200-cmu-155"
                }, 
                {
                    "from": "sent-PMC2175200-medscan-163", 
                    "object-type": "map-range", 
                    "to": "sent-PMC2175200-cmu-254"
                }, 
                {
                    "from": "sent-PMC2175200-medscan-85", 
                    "object-type": "map-range", 
                    "to": "sent-PMC2175200-cmu-136"
                }, 
                {
                    "from": "sent-PMC2175200-medscan-130", 
                    "object-type": "map-range", 
                    "to": "sent-PMC2175200-cmu-205"
                }, 
                {
                    "from": "sent-PMC2175200-medscan-23", 
                    "object-type": "map-range", 
                    "to": "sent-PMC2175200-cmu-56"
                }, 
                {
                    "from": "sent-PMC2175200-medscan-5", 
                    "object-type": "map-range", 
                    "to": "sent-PMC2175200-cmu-15"
                }, 
                {
                    "from": "sent-PMC2175200-medscan-71", 
                    "object-type": "map-range", 
                    "to": "sent-PMC2175200-cmu-118"
                }, 
                {
                    "from": "sent-PMC2175200-medscan-171", 
                    "object-type": "map-range", 
                    "to": "sent-PMC2175200-cmu-261"
                }, 
                {
                    "from": "sent-PMC2175200-medscan-82", 
                    "object-type": "map-range", 
                    "to": "sent-PMC2175200-cmu-132"
                }, 
                {
                    "from": "sent-PMC2175200-medscan-129", 
                    "object-type": "map-range", 
                    "to": "sent-PMC2175200-cmu-204"
                }, 
                {
                    "from": "sent-PMC2175200-medscan-110", 
                    "object-type": "map-range", 
                    "to": "sent-PMC2175200-cmu-177"
                }, 
                {
                    "from": "sent-PMC2175200-medscan-75", 
                    "object-type": "map-range", 
                    "to": "sent-PMC2175200-cmu-125"
                }, 
                {
                    "from": "sent-PMC2175200-medscan-91", 
                    "object-type": "map-range", 
                    "to": "sent-PMC2175200-cmu-146"
                }, 
                {
                    "from": "sent-PMC2175200-medscan-73", 
                    "object-type": "map-range", 
                    "to": "sent-PMC2175200-cmu-122"
                }, 
                {
                    "from": "sent-PMC2175200-medscan-59", 
                    "object-type": "map-range", 
                    "to": "sent-PMC2175200-cmu-102"
                }, 
                {
                    "from": "sent-PMC2175200-medscan-132", 
                    "object-type": "map-range", 
                    "to": "sent-PMC2175200-cmu-207"
                }, 
                {
                    "from": "sent-PMC2175200-medscan-146", 
                    "object-type": "map-range", 
                    "to": "sent-PMC2175200-cmu-231"
                }, 
                {
                    "from": "sent-PMC2175200-medscan-62", 
                    "object-type": "map-range", 
                    "to": "sent-PMC2175200-cmu-106"
                }, 
                {
                    "from": "sent-PMC2175200-medscan-114", 
                    "object-type": "map-range", 
                    "to": "sent-PMC2175200-cmu-185"
                }, 
                {
                    "from": "sent-PMC2175200-medscan-137", 
                    "object-type": "map-range", 
                    "to": "sent-PMC2175200-cmu-216"
                }, 
                {
                    "from": "sent-PMC2175200-medscan-173", 
                    "object-type": "map-range", 
                    "to": "sent-PMC2175200-cmu-264"
                }, 
                {
                    "from": "sent-PMC2175200-medscan-174", 
                    "object-type": "map-range", 
                    "to": "sent-PMC2175200-cmu-265"
                }, 
                {
                    "from": "sent-PMC2175200-medscan-49", 
                    "object-type": "map-range", 
                    "to": "sent-PMC2175200-cmu-89"
                }, 
                {
                    "from": "sent-PMC2175200-medscan-19", 
                    "object-type": "map-range", 
                    "to": "sent-PMC2175200-cmu-47"
                }, 
                {
                    "from": "sent-PMC2175200-medscan-78", 
                    "object-type": "map-range", 
                    "to": "sent-PMC2175200-cmu-128"
                }, 
                {
                    "from": "sent-PMC2175200-medscan-89", 
                    "object-type": "map-range", 
                    "to": "sent-PMC2175200-cmu-143"
                }, 
                {
                    "from": "sent-PMC2175200-medscan-6", 
                    "object-type": "map-range", 
                    "to": "sent-PMC2175200-cmu-19"
                }, 
                {
                    "from": "sent-PMC2175200-medscan-169", 
                    "object-type": "map-range", 
                    "to": "sent-PMC2175200-cmu-258"
                }, 
                {
                    "from": "sent-PMC2175200-medscan-144", 
                    "object-type": "map-range", 
                    "to": "sent-PMC2175200-cmu-227"
                }, 
                {
                    "from": "sent-PMC2175200-medscan-120", 
                    "object-type": "map-range", 
                    "to": "sent-PMC2175200-cmu-195"
                }, 
                {
                    "from": "sent-PMC2175200-medscan-128", 
                    "object-type": "map-range", 
                    "to": "sent-PMC2175200-cmu-203"
                }, 
                {
                    "from": "sent-PMC2175200-medscan-22", 
                    "object-type": "map-range", 
                    "to": "sent-PMC2175200-cmu-55"
                }, 
                {
                    "from": "sent-PMC2175200-medscan-52", 
                    "object-type": "map-range", 
                    "to": "sent-PMC2175200-cmu-92"
                }, 
                {
                    "from": "sent-PMC2175200-medscan-158", 
                    "object-type": "map-range", 
                    "to": "sent-PMC2175200-cmu-250"
                }, 
                {
                    "from": "sent-PMC2175200-medscan-30", 
                    "object-type": "map-range", 
                    "to": "sent-PMC2175200-cmu-65"
                }, 
                {
                    "from": "sent-PMC2175200-medscan-46", 
                    "object-type": "map-range", 
                    "to": "sent-PMC2175200-cmu-84"
                }, 
                {
                    "from": "sent-PMC2175200-medscan-112", 
                    "object-type": "map-range", 
                    "to": "sent-PMC2175200-cmu-181"
                }, 
                {
                    "from": "sent-PMC2175200-medscan-121", 
                    "object-type": "map-range", 
                    "to": "sent-PMC2175200-cmu-196"
                }, 
                {
                    "from": "sent-PMC2175200-medscan-145", 
                    "object-type": "map-range", 
                    "to": "sent-PMC2175200-cmu-229"
                }, 
                {
                    "from": "sent-PMC2175200-medscan-28", 
                    "object-type": "map-range", 
                    "to": "sent-PMC2175200-cmu-63"
                }, 
                {
                    "from": "sent-PMC2175200-medscan-81", 
                    "object-type": "map-range", 
                    "to": "sent-PMC2175200-cmu-131"
                }, 
                {
                    "from": "sent-PMC2175200-medscan-67", 
                    "object-type": "map-range", 
                    "to": "sent-PMC2175200-cmu-113"
                }, 
                {
                    "from": "sent-PMC2175200-medscan-74", 
                    "object-type": "map-range", 
                    "to": "sent-PMC2175200-cmu-123"
                }, 
                {
                    "from": "sent-PMC2175200-medscan-138", 
                    "object-type": "map-range", 
                    "to": "sent-PMC2175200-cmu-217"
                }, 
                {
                    "from": "sent-PMC2175200-medscan-56", 
                    "object-type": "map-range", 
                    "to": "sent-PMC2175200-cmu-97"
                }, 
                {
                    "from": "sent-PMC2175200-medscan-16", 
                    "object-type": "map-range", 
                    "to": "sent-PMC2175200-cmu-41"
                }, 
                {
                    "from": "sent-PMC2175200-medscan-45", 
                    "object-type": "map-range", 
                    "to": "sent-PMC2175200-cmu-83"
                }, 
                {
                    "from": "sent-PMC2175200-medscan-151", 
                    "object-type": "map-range", 
                    "to": "sent-PMC2175200-cmu-237"
                }, 
                {
                    "from": "sent-PMC2175200-medscan-142", 
                    "object-type": "map-range", 
                    "to": "sent-PMC2175200-cmu-223"
                }, 
                {
                    "from": "sent-PMC2175200-medscan-35", 
                    "object-type": "map-range", 
                    "to": "sent-PMC2175200-cmu-70"
                }, 
                {
                    "from": "sent-PMC2175200-medscan-37", 
                    "object-type": "map-range", 
                    "to": "sent-PMC2175200-cmu-74"
                }, 
                {
                    "from": "sent-PMC2175200-medscan-48", 
                    "object-type": "map-range", 
                    "to": "sent-PMC2175200-cmu-88"
                }, 
                {
                    "from": "sent-PMC2175200-medscan-141", 
                    "object-type": "map-range", 
                    "to": "sent-PMC2175200-cmu-221"
                }, 
                {
                    "from": "sent-PMC2175200-medscan-94", 
                    "object-type": "map-range", 
                    "to": "sent-PMC2175200-cmu-151"
                }, 
                {
                    "from": "sent-PMC2175200-medscan-154", 
                    "object-type": "map-range", 
                    "to": "sent-PMC2175200-cmu-242"
                }, 
                {
                    "from": "sent-PMC2175200-medscan-124", 
                    "object-type": "map-range", 
                    "to": "sent-PMC2175200-cmu-199"
                }, 
                {
                    "from": "sent-PMC2175200-medscan-15", 
                    "object-type": "map-range", 
                    "to": "sent-PMC2175200-cmu-40"
                }, 
                {
                    "from": "sent-PMC2175200-medscan-118", 
                    "object-type": "map-range", 
                    "to": "sent-PMC2175200-cmu-192"
                }, 
                {
                    "from": "sent-PMC2175200-medscan-36", 
                    "object-type": "map-range", 
                    "to": "sent-PMC2175200-cmu-73"
                }, 
                {
                    "from": "sent-PMC2175200-medscan-131", 
                    "object-type": "map-range", 
                    "to": "sent-PMC2175200-cmu-206"
                }, 
                {
                    "from": "sent-PMC2175200-medscan-126", 
                    "object-type": "map-range", 
                    "to": "sent-PMC2175200-cmu-201"
                }, 
                {
                    "from": "sent-PMC2175200-medscan-106", 
                    "object-type": "map-range", 
                    "to": "sent-PMC2175200-cmu-171"
                }, 
                {
                    "from": "sent-PMC2175200-medscan-148", 
                    "object-type": "map-range", 
                    "to": "sent-PMC2175200-cmu-234"
                }, 
                {
                    "from": "sent-PMC2175200-medscan-70", 
                    "object-type": "map-range", 
                    "to": "sent-PMC2175200-cmu-117"
                }, 
                {
                    "from": "sent-PMC2175200-medscan-57", 
                    "object-type": "map-range", 
                    "to": "sent-PMC2175200-cmu-99"
                }, 
                {
                    "from": "sent-PMC2175200-medscan-32", 
                    "object-type": "map-range", 
                    "to": "sent-PMC2175200-cmu-67"
                }, 
                {
                    "from": "sent-PMC2175200-medscan-66", 
                    "object-type": "map-range", 
                    "to": "sent-PMC2175200-cmu-112"
                }, 
                {
                    "from": "sent-PMC2175200-medscan-153", 
                    "object-type": "map-range", 
                    "to": "sent-PMC2175200-cmu-239"
                }, 
                {
                    "from": "sent-PMC2175200-medscan-31", 
                    "object-type": "map-range", 
                    "to": "sent-PMC2175200-cmu-66"
                }, 
                {
                    "from": "sent-PMC2175200-medscan-7", 
                    "object-type": "map-range", 
                    "to": "sent-PMC2175200-cmu-21"
                }, 
                {
                    "from": "sent-PMC2175200-medscan-119", 
                    "object-type": "map-range", 
                    "to": "sent-PMC2175200-cmu-193"
                }, 
                {
                    "from": "sent-PMC2175200-medscan-109", 
                    "object-type": "map-range", 
                    "to": "sent-PMC2175200-cmu-176"
                }, 
                {
                    "from": "sent-PMC2175200-medscan-58", 
                    "object-type": "map-range", 
                    "to": "sent-PMC2175200-cmu-101"
                }, 
                {
                    "from": "sent-PMC2175200-medscan-53", 
                    "object-type": "map-range", 
                    "to": "sent-PMC2175200-cmu-93"
                }, 
                {
                    "from": "sent-PMC2175200-medscan-63", 
                    "object-type": "map-range", 
                    "to": "sent-PMC2175200-cmu-107"
                }, 
                {
                    "from": "sent-PMC2175200-medscan-21", 
                    "object-type": "map-range", 
                    "to": "sent-PMC2175200-cmu-54"
                }, 
                {
                    "from": "sent-PMC2175200-medscan-10", 
                    "object-type": "map-range", 
                    "to": "sent-PMC2175200-cmu-27"
                }, 
                {
                    "from": "sent-PMC2175200-medscan-104", 
                    "object-type": "map-range", 
                    "to": "sent-PMC2175200-cmu-169"
                }, 
                {
                    "from": "sent-PMC2175200-medscan-167", 
                    "object-type": "map-range", 
                    "to": "sent-PMC2175200-cmu-256"
                }, 
                {
                    "from": "sent-PMC2175200-medscan-103", 
                    "object-type": "map-range", 
                    "to": "sent-PMC2175200-cmu-166"
                }, 
                {
                    "from": "sent-PMC2175200-medscan-41", 
                    "object-type": "map-range", 
                    "to": "sent-PMC2175200-cmu-78"
                }, 
                {
                    "from": "sent-PMC2175200-medscan-27", 
                    "object-type": "map-range", 
                    "to": "sent-PMC2175200-cmu-61"
                }, 
                {
                    "from": "sent-PMC2175200-medscan-152", 
                    "object-type": "map-range", 
                    "to": "sent-PMC2175200-cmu-238"
                }, 
                {
                    "from": "sent-PMC2175200-medscan-172", 
                    "object-type": "map-range", 
                    "to": "sent-PMC2175200-cmu-263"
                }, 
                {
                    "from": "sent-PMC2175200-medscan-64", 
                    "object-type": "map-range", 
                    "to": "sent-PMC2175200-cmu-108"
                }, 
                {
                    "from": "sent-PMC2175200-medscan-43", 
                    "object-type": "map-range", 
                    "to": "sent-PMC2175200-cmu-80"
                }, 
                {
                    "from": "sent-PMC2175200-medscan-76", 
                    "object-type": "map-range", 
                    "to": "sent-PMC2175200-cmu-126"
                }, 
                {
                    "from": "sent-PMC2175200-medscan-69", 
                    "object-type": "map-range", 
                    "to": "sent-PMC2175200-cmu-116"
                }, 
                {
                    "from": "sent-PMC2175200-medscan-69", 
                    "object-type": "map-range", 
                    "to": "sent-PMC2175200-cmu-116"
                }, 
                {
                    "from": "sent-PMC2175200-medscan-54", 
                    "object-type": "map-range", 
                    "to": "sent-PMC2175200-cmu-94"
                }, 
                {
                    "from": "sent-PMC2175200-medscan-25", 
                    "object-type": "map-range", 
                    "to": "sent-PMC2175200-cmu-59"
                }, 
                {
                    "from": "sent-PMC2175200-medscan-18", 
                    "object-type": "map-range", 
                    "to": "sent-PMC2175200-cmu-44"
                }, 
                {
                    "from": "sent-PMC2175200-medscan-95", 
                    "object-type": "map-range", 
                    "to": "sent-PMC2175200-cmu-153"
                }, 
                {
                    "from": "sent-PMC2175200-medscan-87", 
                    "object-type": "map-range", 
                    "to": "sent-PMC2175200-cmu-139"
                }, 
                {
                    "from": "sent-PMC2175200-medscan-60", 
                    "object-type": "map-range", 
                    "to": "sent-PMC2175200-cmu-104"
                }
            ], 
            "object-meta": {
                "component": "Pradeep-Matcher", 
                "object-type": "meta-info", 
                "organization": "CMU"
            }, 
            "object-type": "frame"
        }
    ], 
    "object-meta": {
        "component": "Pradeep-Matcher", 
        "component-type": "machine", 
        "doc-id": "PMC2175200", 
        "object-type": "meta-info", 
        "organization": "CMU"
    }, 
    "object-type": "frame-collection"
}
