{
  "evidence": ["arsenic at 5 \\u00b5M increased AKT and ERK1/2","AKT or ERK1/2 by their chemical inhibitors, dominant negative molecule, or siRNAs blocked arsenic","These findings suggest that AKT and extracellular signal-regulated kinase pathways are involved in arsenic-stimulating angiogenesis in lung epithelial cells, which is consistent with previous study showing that arsenic induced ROS generation and extracellular signal-regulated kinase activation .","We showed that arsenic at 5 \\u00b5M increased AKT and ERK1/2 activation in both A549 and BEAS-2B cells , suggesting that arsenic can activate these two signaling pathways in lung epithelial and cancer cells."],
  "extracted_information": {
    "interaction_type": "increases",
    "negative_information": false,
    "participant_a": {
      "entity_text": "arsenic",
      "entity_type": "chemical",
      "identifier": "CHEBI:27563",
      "in_model": false
    },
    "participant_b": {
      "entity_text": "AKT and ERK1/2",
      "entity_type": "protein",
      "identifier": "Uniprot:P27361",
      "in_model": true
    }
  },
  "fries_provenance": [
    {
      "cmu-sentence-epistemic-status": "belief",
      "cmu-sentence-epistemic-value": 0.9,
      "component": "MedScan",
      "frame-file": "PMC3110823.cmu.medscan",
      "frame-id": "relm-PMC3110823-cmu-medscan-604",
      "passage-id": "pass-PMC3110823-UAZ-r1-47",
      "passage-number": 47,
      "passage-section-id": "s3b",
      "passage-section-name": "N/A",
      "sentence": "We showed that arsenic at 5 \\u00b5M increased AKT and ERK1/2 activation in both A549 and BEAS-2B cells , suggesting that arsenic can activate these two signaling pathways in lung epithelial and cancer cells.",
      "text": "arsenic at 5 \\u00b5M increased AKT and ERK1/2",
      "uaz-sentence": "We showed that arsenic at 5 microM increased AKT and ERK1 and 2 activation in both A549 and BEAS-2B cells          , suggesting that arsenic can activate these two signaling pathways in lung epithelial and cancer cells .",
      "uaz-sentence-start": 162
    },
    {
      "cmu-sentence-epistemic-status": "belief",
      "cmu-sentence-epistemic-value": 0.9,
      "component": "MedScan",
      "frame-file": "PMC3110823.cmu.medscan",
      "frame-id": "relm-PMC3110823-cmu-medscan-605",
      "passage-id": "pass-PMC3110823-UAZ-r1-47",
      "passage-number": 47,
      "passage-section-id": "s3b",
      "passage-section-name": "N/A",
      "sentence": "We showed that arsenic at 5 \\u00b5M increased AKT and ERK1/2 activation in both A549 and BEAS-2B cells , suggesting that arsenic can activate these two signaling pathways in lung epithelial and cancer cells.",
      "text": "arsenic at 5 \\u00b5M increased AKT and ERK1/2",
      "uaz-sentence": "We showed that arsenic at 5 microM increased AKT and ERK1 and 2 activation in both A549 and BEAS-2B cells          , suggesting that arsenic can activate these two signaling pathways in lung epithelial and cancer cells .",
      "uaz-sentence-start": 162
    },
    {
      "cmu-sentence-epistemic-status": "implication",
      "cmu-sentence-epistemic-value": 0.6,
      "component": "MedScan",
      "frame-file": "PMC3110823.cmu.medscan",
      "frame-id": "relm-PMC3110823-cmu-medscan-642",
      "passage-id": "pass-PMC3110823-UAZ-r1-81",
      "passage-number": 81,
      "passage-section-id": "s4",
      "passage-section-name": "N/A",
      "sentence": "These findings suggest that AKT and extracellular signal-regulated kinase pathways are involved in arsenic-stimulating angiogenesis in lung epithelial cells, which is consistent with previous study showing that arsenic induced ROS generation and extracellular signal-regulated kinase activation .",
      "text": "AKT or ERK1/2 by their chemical inhibitors, dominant negative molecule, or siRNAs blocked arsenic",
      "uaz-sentence": "These findings suggest that AKT and ERK pathways are involved in arsenic stimulating angiogenesis in lung epithelial cells , which is consistent with previous study showing that arsenic induced ROS generation and ERK activation    .",
      "uaz-sentence-start": 287
    }
  ],
  "model_relation": "extension",
  "pmc_id": "PMC3110823",
  "reader_type": "machine",
  "reading_complete": "2015-06-15T22:07:05Z",
  "reading_started": "2015-06-15T22:07:00Z",
  "submitter": "FRIES"
}
