{
  "evidence": ["Resveratrol can enhance antitumor activity of gemcitabine","Resveratrol can enhance antitumor activity of gemcitabine in vitro and in orthotopic mouse model of human pancreatic cancer     ."],
  "extracted_information": {
    "interaction_type": "increases_activity",
    "negative_information": false,
    "participant_a": {
      "entity_text": "Resveratrol",
      "entity_type": "chemical",
      "identifier": "CHEBI:27881",
      "in_model": true
    },
    "participant_b": {
      "entity_text": "gemcitabine",
      "entity_type": "chemical",
      "identifier": "CHEBI:5295",
      "in_model": false
    }
  },
  "fries_provenance": [
    {
      "component": "REACH",
      "frame-file": "PMC3031576.uaz.events",
      "frame-id": "evem-PMC3031576-UAZ-r1-16-5-11",
      "passage-id": "pass-PMC3031576-UAZ-r1-16",
      "passage-number": 16,
      "passage-section-id": "s1",
      "passage-section-name": "N/A",
      "sentence": "Resveratrol can enhance antitumor activity of gemcitabine in vitro and in orthotopic mouse model of human pancreatic cancer     .",
      "text": "Resveratrol can enhance antitumor activity of gemcitabine",
      "uaz-sentence": "Resveratrol can enhance antitumor activity of gemcitabine in vitro and in orthotopic mouse model of human pancreatic cancer     .",
      "uaz-sentence-start": 924
    }
  ],
  "model_relation": "extension",
  "pmc_id": "PMC3031576",
  "reader_type": "machine",
  "reading_complete": "2015-06-15T21:49:54Z",
  "reading_started": "2015-06-15T21:49:49Z",
  "submitter": "FRIES"
}
