{
  "evidence": ["interaction between syndecan-2 and neurofibromin","If interrupting the interaction between syndecan-2 and neurofibromin by adding the Jn fragment prevents PKA activation and , thus , blocks filopodia formation , it can be predicted that increasing PKA activity in Jn expressing cells should restore filopodia formation .","Interaction between syndecan and neurofibromin Jn fragments was first confirmed under mammalian cell culture conditions using coimmunoprecipitation (Fig. S1 D).","More important , the Jn fragment also inhibited filopodia formation in cultured hippocampal neurons                  , suggesting an essential role for the interaction between syndecan-2 and neurofibromin in syndecan-2-induced filopodia formation .","syndecan-2 with neurofibromin","syndecan-2-interacting domain of neurofibromin","The results of the analysis of cytoplasmic deletion mutants of syndecan-2 in filopodia and spine formation support this speculation. demonstrated that EphB2 receptor tyrosine kinase phosphorylates the tyrosine residues Y189 and Y201 in the C1 and V regions of syndecan-2, respectively."],
  "extracted_information": {
    "interaction_type": "binds",
    "negative_information": false,
    "participant_a": {
      "entity_text": "syndecan-2",
      "entity_type": "protein",
      "identifier": "Uniprot:P34741",
      "in_model": true
    },
    "participant_b": {
      "entity_text": "neurofibromin",
      "entity_type": "protein",
      "identifier": "Uniprot:P21359",
      "in_model": true
    }
  },
  "fries_provenance": [
    {
      "cmu-sentence-epistemic-status": "implication",
      "cmu-sentence-epistemic-value": 0.6,
      "component": "REACH",
      "frame-file": "PMC2064283.uaz.events",
      "frame-id": "evem-PMC2064283-UAZ-r1-46-5-17",
      "passage-id": "pass-PMC2064283-UAZ-r1-46",
      "passage-number": 46,
      "passage-section-id": "N/A",
      "passage-section-name": "N/A",
      "sentence": "More important , the Jn fragment also inhibited filopodia formation in cultured hippocampal neurons                  , suggesting an essential role for the interaction between syndecan-2 and neurofibromin in syndecan-2-induced filopodia formation .",
      "text": "interaction between syndecan-2 and neurofibromin",
      "uaz-event-epistemic-status": "hypothesis",
      "uaz-sentence": "More important , the Jn fragment also inhibited filopodia formation in cultured hippocampal neurons                  , suggesting an essential role for the interaction between syndecan-2 and neurofibromin in syndecan-2-induced filopodia formation .",
      "uaz-sentence-start": 785
    },
    {
      "cmu-sentence-epistemic-status": "implication",
      "cmu-sentence-epistemic-value": 0.6,
      "component": "REACH",
      "frame-file": "PMC2064283.uaz.events",
      "frame-id": "evem-PMC2064283-UAZ-r1-46-8-18",
      "passage-id": "pass-PMC2064283-UAZ-r1-46",
      "passage-number": 46,
      "passage-section-id": "N/A",
      "passage-section-name": "N/A",
      "sentence": "If interrupting the interaction between syndecan-2 and neurofibromin by adding the Jn fragment prevents PKA activation and , thus , blocks filopodia formation , it can be predicted that increasing PKA activity in Jn expressing cells should restore filopodia formation .",
      "text": "interaction between syndecan-2 and neurofibromin",
      "uaz-sentence": "If interrupting the interaction between syndecan-2 and neurofibromin by adding the Jn fragment prevents PKA activation and , thus , blocks filopodia formation , it can be predicted that increasing PKA activity in Jn expressing cells should restore filopodia formation .",
      "uaz-sentence-start": 1341
    },
    {
      "cmu-sentence-epistemic-status": "implication",
      "cmu-sentence-epistemic-value": 0.6,
      "component": "MedScan",
      "frame-file": "PMC2064283.cmu.medscan",
      "frame-id": "relm-PMC2064283-cmu-medscan-688",
      "passage-id": "pass-PMC2064283-UAZ-r1-46",
      "passage-number": 46,
      "passage-section-id": "N/A",
      "passage-section-name": "N/A",
      "sentence": "Interaction between syndecan and neurofibromin Jn fragments was first confirmed under mammalian cell culture conditions using coimmunoprecipitation (Fig. S1 D).",
      "text": "syndecan-2-interacting domain of neurofibromin",
      "uaz-sentence": "Interaction between syndecan and neurofibromin Jn fragments was first confirmed under mammalian cell culture conditions using coimmunoprecipitation            .",
      "uaz-sentence-start": 402
    },
    {
      "cmu-sentence-epistemic-status": "implication",
      "cmu-sentence-epistemic-value": 0.6,
      "component": "MedScan",
      "frame-file": "PMC2064283.cmu.medscan",
      "frame-id": "relm-PMC2064283-cmu-medscan-711",
      "passage-id": "pass-PMC2064283-UAZ-r1-74",
      "passage-number": 74,
      "passage-section-id": "N/A",
      "passage-section-name": "N/A",
      "sentence": "The results of the analysis of cytoplasmic deletion mutants of syndecan-2 in filopodia and spine formation support this speculation. demonstrated that EphB2 receptor tyrosine kinase phosphorylates the tyrosine residues Y189 and Y201 in the C1 and V regions of syndecan-2, respectively.",
      "text": "syndecan-2 with neurofibromin",
      "uaz-sentence": "The results of the analysis of cytoplasmic deletion mutants of syndecan-2 in filopodia and spine formation support this speculation .",
      "uaz-sentence-start": 834
    }
  ],
  "model_relation": "extension",
  "pmc_id": "PMC2064283",
  "reader_type": "machine",
  "reading_complete": "2015-06-15T19:06:34Z",
  "reading_started": "2015-06-15T19:06:29Z",
  "submitter": "FRIES"
}
