{
    "frames": [
        {
            "frame-id": "epi-PMC2747300-cmu-nicosys-415", 
            "frame-type": "epistemics", 
            "object-meta": {
                "object-type": "meta-info", 
                "organization": "CMU"
            }, 
            "object-type": "frame", 
            "sentence": "sent-PMC2747300-cmu-2", 
            "status": "belief", 
            "value": 0.9
        }, 
        {
            "frame-id": "epi-PMC2747300-cmu-nicosys-416", 
            "frame-type": "epistemics", 
            "object-meta": {
                "object-type": "meta-info", 
                "organization": "CMU"
            }, 
            "object-type": "frame", 
            "sentence": "sent-PMC2747300-cmu-8", 
            "status": "belief", 
            "value": 0.9
        }, 
        {
            "frame-id": "epi-PMC2747300-cmu-nicosys-417", 
            "frame-type": "epistemics", 
            "object-meta": {
                "object-type": "meta-info", 
                "organization": "CMU"
            }, 
            "object-type": "frame", 
            "sentence": "sent-PMC2747300-cmu-19", 
            "status": "implication", 
            "value": 0.6
        }, 
        {
            "frame-id": "epi-PMC2747300-cmu-nicosys-418", 
            "frame-type": "epistemics", 
            "object-meta": {
                "object-type": "meta-info", 
                "organization": "CMU"
            }, 
            "object-type": "frame", 
            "sentence": "sent-PMC2747300-cmu-37", 
            "status": "implication", 
            "value": 0.6
        }, 
        {
            "frame-id": "epi-PMC2747300-cmu-nicosys-419", 
            "frame-type": "epistemics", 
            "object-meta": {
                "object-type": "meta-info", 
                "organization": "CMU"
            }, 
            "object-type": "frame", 
            "sentence": "sent-PMC2747300-cmu-48", 
            "status": "belief", 
            "value": 0.9
        }, 
        {
            "frame-id": "epi-PMC2747300-cmu-nicosys-420", 
            "frame-type": "epistemics", 
            "object-meta": {
                "object-type": "meta-info", 
                "organization": "CMU"
            }, 
            "object-type": "frame", 
            "sentence": "sent-PMC2747300-cmu-53", 
            "status": "belief", 
            "value": 0.9
        }, 
        {
            "frame-id": "epi-PMC2747300-cmu-nicosys-421", 
            "frame-type": "epistemics", 
            "object-meta": {
                "object-type": "meta-info", 
                "organization": "CMU"
            }, 
            "object-type": "frame", 
            "sentence": "sent-PMC2747300-cmu-53", 
            "status": "belief", 
            "value": 0.9
        }, 
        {
            "frame-id": "epi-PMC2747300-cmu-nicosys-422", 
            "frame-type": "epistemics", 
            "object-meta": {
                "object-type": "meta-info", 
                "organization": "CMU"
            }, 
            "object-type": "frame", 
            "sentence": "sent-PMC2747300-cmu-54", 
            "status": "implication", 
            "value": 0.6
        }, 
        {
            "frame-id": "epi-PMC2747300-cmu-nicosys-423", 
            "frame-type": "epistemics", 
            "object-meta": {
                "object-type": "meta-info", 
                "organization": "CMU"
            }, 
            "object-type": "frame", 
            "sentence": "sent-PMC2747300-cmu-54", 
            "status": "implication", 
            "value": 0.6
        }, 
        {
            "frame-id": "epi-PMC2747300-cmu-nicosys-424", 
            "frame-type": "epistemics", 
            "object-meta": {
                "object-type": "meta-info", 
                "organization": "CMU"
            }, 
            "object-type": "frame", 
            "sentence": "sent-PMC2747300-cmu-56", 
            "status": "implication", 
            "value": 0.6
        }, 
        {
            "frame-id": "epi-PMC2747300-cmu-nicosys-425", 
            "frame-type": "epistemics", 
            "object-meta": {
                "object-type": "meta-info", 
                "organization": "CMU"
            }, 
            "object-type": "frame", 
            "sentence": "sent-PMC2747300-cmu-57", 
            "status": "implication", 
            "value": 0.6
        }, 
        {
            "frame-id": "epi-PMC2747300-cmu-nicosys-426", 
            "frame-type": "epistemics", 
            "object-meta": {
                "object-type": "meta-info", 
                "organization": "CMU"
            }, 
            "object-type": "frame", 
            "sentence": "sent-PMC2747300-cmu-67", 
            "status": "hypothesis", 
            "value": 0.3
        }, 
        {
            "frame-id": "epi-PMC2747300-cmu-nicosys-427", 
            "frame-type": "epistemics", 
            "object-meta": {
                "object-type": "meta-info", 
                "organization": "CMU"
            }, 
            "object-type": "frame", 
            "sentence": "sent-PMC2747300-cmu-67", 
            "status": "hypothesis", 
            "value": 0.3
        }, 
        {
            "frame-id": "epi-PMC2747300-cmu-nicosys-428", 
            "frame-type": "epistemics", 
            "object-meta": {
                "object-type": "meta-info", 
                "organization": "CMU"
            }, 
            "object-type": "frame", 
            "sentence": "sent-PMC2747300-cmu-74", 
            "status": "implication", 
            "value": 0.6
        }, 
        {
            "frame-id": "epi-PMC2747300-cmu-nicosys-429", 
            "frame-type": "epistemics", 
            "object-meta": {
                "object-type": "meta-info", 
                "organization": "CMU"
            }, 
            "object-type": "frame", 
            "sentence": "sent-PMC2747300-cmu-85", 
            "status": "implication", 
            "value": 0.6
        }, 
        {
            "frame-id": "epi-PMC2747300-cmu-nicosys-430", 
            "frame-type": "epistemics", 
            "object-meta": {
                "object-type": "meta-info", 
                "organization": "CMU"
            }, 
            "object-type": "frame", 
            "sentence": "sent-PMC2747300-cmu-86", 
            "status": "implication", 
            "value": 0.6
        }, 
        {
            "frame-id": "epi-PMC2747300-cmu-nicosys-431", 
            "frame-type": "epistemics", 
            "object-meta": {
                "object-type": "meta-info", 
                "organization": "CMU"
            }, 
            "object-type": "frame", 
            "sentence": "sent-PMC2747300-cmu-86", 
            "status": "implication", 
            "value": 0.6
        }, 
        {
            "frame-id": "epi-PMC2747300-cmu-nicosys-432", 
            "frame-type": "epistemics", 
            "object-meta": {
                "object-type": "meta-info", 
                "organization": "CMU"
            }, 
            "object-type": "frame", 
            "sentence": "sent-PMC2747300-cmu-96", 
            "status": "implication", 
            "value": 0.6
        }, 
        {
            "frame-id": "epi-PMC2747300-cmu-nicosys-433", 
            "frame-type": "epistemics", 
            "object-meta": {
                "object-type": "meta-info", 
                "organization": "CMU"
            }, 
            "object-type": "frame", 
            "sentence": "sent-PMC2747300-cmu-0", 
            "status": "implication", 
            "value": 0.6
        }, 
        {
            "frame-id": "epi-PMC2747300-cmu-nicosys-434", 
            "frame-type": "epistemics", 
            "object-meta": {
                "object-type": "meta-info", 
                "organization": "CMU"
            }, 
            "object-type": "frame", 
            "sentence": "sent-PMC2747300-cmu-1", 
            "status": "implication", 
            "value": 0.6
        }, 
        {
            "frame-id": "epi-PMC2747300-cmu-nicosys-435", 
            "frame-type": "epistemics", 
            "object-meta": {
                "object-type": "meta-info", 
                "organization": "CMU"
            }, 
            "object-type": "frame", 
            "sentence": "sent-PMC2747300-cmu-2", 
            "status": "implication", 
            "value": 0.6
        }, 
        {
            "frame-id": "epi-PMC2747300-cmu-nicosys-436", 
            "frame-type": "epistemics", 
            "object-meta": {
                "object-type": "meta-info", 
                "organization": "CMU"
            }, 
            "object-type": "frame", 
            "sentence": "sent-PMC2747300-cmu-3", 
            "status": "implication", 
            "value": 0.6
        }, 
        {
            "frame-id": "epi-PMC2747300-cmu-nicosys-437", 
            "frame-type": "epistemics", 
            "object-meta": {
                "object-type": "meta-info", 
                "organization": "CMU"
            }, 
            "object-type": "frame", 
            "sentence": "sent-PMC2747300-cmu-4", 
            "status": "implication", 
            "value": 0.6
        }, 
        {
            "frame-id": "epi-PMC2747300-cmu-nicosys-438", 
            "frame-type": "epistemics", 
            "object-meta": {
                "object-type": "meta-info", 
                "organization": "CMU"
            }, 
            "object-type": "frame", 
            "sentence": "sent-PMC2747300-cmu-5", 
            "status": "implication", 
            "value": 0.6
        }, 
        {
            "frame-id": "epi-PMC2747300-cmu-nicosys-439", 
            "frame-type": "epistemics", 
            "object-meta": {
                "object-type": "meta-info", 
                "organization": "CMU"
            }, 
            "object-type": "frame", 
            "sentence": "sent-PMC2747300-cmu-6", 
            "status": "implication", 
            "value": 0.6
        }, 
        {
            "frame-id": "epi-PMC2747300-cmu-nicosys-440", 
            "frame-type": "epistemics", 
            "object-meta": {
                "object-type": "meta-info", 
                "organization": "CMU"
            }, 
            "object-type": "frame", 
            "sentence": "sent-PMC2747300-cmu-7", 
            "status": "implication", 
            "value": 0.6
        }, 
        {
            "frame-id": "epi-PMC2747300-cmu-nicosys-441", 
            "frame-type": "epistemics", 
            "object-meta": {
                "object-type": "meta-info", 
                "organization": "CMU"
            }, 
            "object-type": "frame", 
            "sentence": "sent-PMC2747300-cmu-8", 
            "status": "implication", 
            "value": 0.6
        }, 
        {
            "frame-id": "epi-PMC2747300-cmu-nicosys-442", 
            "frame-type": "epistemics", 
            "object-meta": {
                "object-type": "meta-info", 
                "organization": "CMU"
            }, 
            "object-type": "frame", 
            "sentence": "sent-PMC2747300-cmu-9", 
            "status": "implication", 
            "value": 0.6
        }, 
        {
            "frame-id": "epi-PMC2747300-cmu-nicosys-443", 
            "frame-type": "epistemics", 
            "object-meta": {
                "object-type": "meta-info", 
                "organization": "CMU"
            }, 
            "object-type": "frame", 
            "sentence": "sent-PMC2747300-cmu-10", 
            "status": "implication", 
            "value": 0.6
        }, 
        {
            "frame-id": "epi-PMC2747300-cmu-nicosys-444", 
            "frame-type": "epistemics", 
            "object-meta": {
                "object-type": "meta-info", 
                "organization": "CMU"
            }, 
            "object-type": "frame", 
            "sentence": "sent-PMC2747300-cmu-11", 
            "status": "implication", 
            "value": 0.6
        }, 
        {
            "frame-id": "epi-PMC2747300-cmu-nicosys-445", 
            "frame-type": "epistemics", 
            "object-meta": {
                "object-type": "meta-info", 
                "organization": "CMU"
            }, 
            "object-type": "frame", 
            "sentence": "sent-PMC2747300-cmu-12", 
            "status": "implication", 
            "value": 0.6
        }, 
        {
            "frame-id": "epi-PMC2747300-cmu-nicosys-446", 
            "frame-type": "epistemics", 
            "object-meta": {
                "object-type": "meta-info", 
                "organization": "CMU"
            }, 
            "object-type": "frame", 
            "sentence": "sent-PMC2747300-cmu-13", 
            "status": "implication", 
            "value": 0.6
        }, 
        {
            "frame-id": "epi-PMC2747300-cmu-nicosys-447", 
            "frame-type": "epistemics", 
            "object-meta": {
                "object-type": "meta-info", 
                "organization": "CMU"
            }, 
            "object-type": "frame", 
            "sentence": "sent-PMC2747300-cmu-14", 
            "status": "implication", 
            "value": 0.6
        }, 
        {
            "frame-id": "epi-PMC2747300-cmu-nicosys-448", 
            "frame-type": "epistemics", 
            "object-meta": {
                "object-type": "meta-info", 
                "organization": "CMU"
            }, 
            "object-type": "frame", 
            "sentence": "sent-PMC2747300-cmu-15", 
            "status": "implication", 
            "value": 0.6
        }, 
        {
            "frame-id": "epi-PMC2747300-cmu-nicosys-449", 
            "frame-type": "epistemics", 
            "object-meta": {
                "object-type": "meta-info", 
                "organization": "CMU"
            }, 
            "object-type": "frame", 
            "sentence": "sent-PMC2747300-cmu-16", 
            "status": "implication", 
            "value": 0.6
        }, 
        {
            "frame-id": "epi-PMC2747300-cmu-nicosys-450", 
            "frame-type": "epistemics", 
            "object-meta": {
                "object-type": "meta-info", 
                "organization": "CMU"
            }, 
            "object-type": "frame", 
            "sentence": "sent-PMC2747300-cmu-17", 
            "status": "implication", 
            "value": 0.6
        }, 
        {
            "frame-id": "epi-PMC2747300-cmu-nicosys-451", 
            "frame-type": "epistemics", 
            "object-meta": {
                "object-type": "meta-info", 
                "organization": "CMU"
            }, 
            "object-type": "frame", 
            "sentence": "sent-PMC2747300-cmu-18", 
            "status": "implication", 
            "value": 0.6
        }, 
        {
            "frame-id": "epi-PMC2747300-cmu-nicosys-452", 
            "frame-type": "epistemics", 
            "object-meta": {
                "object-type": "meta-info", 
                "organization": "CMU"
            }, 
            "object-type": "frame", 
            "sentence": "sent-PMC2747300-cmu-19", 
            "status": "implication", 
            "value": 0.6
        }, 
        {
            "frame-id": "epi-PMC2747300-cmu-nicosys-453", 
            "frame-type": "epistemics", 
            "object-meta": {
                "object-type": "meta-info", 
                "organization": "CMU"
            }, 
            "object-type": "frame", 
            "sentence": "sent-PMC2747300-cmu-20", 
            "status": "implication", 
            "value": 0.6
        }, 
        {
            "frame-id": "epi-PMC2747300-cmu-nicosys-454", 
            "frame-type": "epistemics", 
            "object-meta": {
                "object-type": "meta-info", 
                "organization": "CMU"
            }, 
            "object-type": "frame", 
            "sentence": "sent-PMC2747300-cmu-21", 
            "status": "implication", 
            "value": 0.6
        }, 
        {
            "frame-id": "epi-PMC2747300-cmu-nicosys-455", 
            "frame-type": "epistemics", 
            "object-meta": {
                "object-type": "meta-info", 
                "organization": "CMU"
            }, 
            "object-type": "frame", 
            "sentence": "sent-PMC2747300-cmu-22", 
            "status": "implication", 
            "value": 0.6
        }, 
        {
            "frame-id": "epi-PMC2747300-cmu-nicosys-456", 
            "frame-type": "epistemics", 
            "object-meta": {
                "object-type": "meta-info", 
                "organization": "CMU"
            }, 
            "object-type": "frame", 
            "sentence": "sent-PMC2747300-cmu-23", 
            "status": "implication", 
            "value": 0.6
        }, 
        {
            "frame-id": "epi-PMC2747300-cmu-nicosys-457", 
            "frame-type": "epistemics", 
            "object-meta": {
                "object-type": "meta-info", 
                "organization": "CMU"
            }, 
            "object-type": "frame", 
            "sentence": "sent-PMC2747300-cmu-24", 
            "status": "implication", 
            "value": 0.6
        }, 
        {
            "frame-id": "epi-PMC2747300-cmu-nicosys-458", 
            "frame-type": "epistemics", 
            "object-meta": {
                "object-type": "meta-info", 
                "organization": "CMU"
            }, 
            "object-type": "frame", 
            "sentence": "sent-PMC2747300-cmu-25", 
            "status": "implication", 
            "value": 0.6
        }, 
        {
            "frame-id": "epi-PMC2747300-cmu-nicosys-459", 
            "frame-type": "epistemics", 
            "object-meta": {
                "object-type": "meta-info", 
                "organization": "CMU"
            }, 
            "object-type": "frame", 
            "sentence": "sent-PMC2747300-cmu-26", 
            "status": "implication", 
            "value": 0.6
        }, 
        {
            "frame-id": "epi-PMC2747300-cmu-nicosys-460", 
            "frame-type": "epistemics", 
            "object-meta": {
                "object-type": "meta-info", 
                "organization": "CMU"
            }, 
            "object-type": "frame", 
            "sentence": "sent-PMC2747300-cmu-27", 
            "status": "implication", 
            "value": 0.6
        }, 
        {
            "frame-id": "epi-PMC2747300-cmu-nicosys-461", 
            "frame-type": "epistemics", 
            "object-meta": {
                "object-type": "meta-info", 
                "organization": "CMU"
            }, 
            "object-type": "frame", 
            "sentence": "sent-PMC2747300-cmu-28", 
            "status": "implication", 
            "value": 0.6
        }, 
        {
            "frame-id": "epi-PMC2747300-cmu-nicosys-462", 
            "frame-type": "epistemics", 
            "object-meta": {
                "object-type": "meta-info", 
                "organization": "CMU"
            }, 
            "object-type": "frame", 
            "sentence": "sent-PMC2747300-cmu-29", 
            "status": "implication", 
            "value": 0.6
        }, 
        {
            "frame-id": "epi-PMC2747300-cmu-nicosys-463", 
            "frame-type": "epistemics", 
            "object-meta": {
                "object-type": "meta-info", 
                "organization": "CMU"
            }, 
            "object-type": "frame", 
            "sentence": "sent-PMC2747300-cmu-35", 
            "status": "implication", 
            "value": 0.6
        }, 
        {
            "frame-id": "epi-PMC2747300-cmu-nicosys-464", 
            "frame-type": "epistemics", 
            "object-meta": {
                "object-type": "meta-info", 
                "organization": "CMU"
            }, 
            "object-type": "frame", 
            "sentence": "sent-PMC2747300-cmu-31", 
            "status": "implication", 
            "value": 0.6
        }, 
        {
            "frame-id": "epi-PMC2747300-cmu-nicosys-465", 
            "frame-type": "epistemics", 
            "object-meta": {
                "object-type": "meta-info", 
                "organization": "CMU"
            }, 
            "object-type": "frame", 
            "sentence": "sent-PMC2747300-cmu-32", 
            "status": "implication", 
            "value": 0.6
        }, 
        {
            "frame-id": "epi-PMC2747300-cmu-nicosys-466", 
            "frame-type": "epistemics", 
            "object-meta": {
                "object-type": "meta-info", 
                "organization": "CMU"
            }, 
            "object-type": "frame", 
            "sentence": "sent-PMC2747300-cmu-33", 
            "status": "implication", 
            "value": 0.6
        }, 
        {
            "frame-id": "epi-PMC2747300-cmu-nicosys-467", 
            "frame-type": "epistemics", 
            "object-meta": {
                "object-type": "meta-info", 
                "organization": "CMU"
            }, 
            "object-type": "frame", 
            "sentence": "sent-PMC2747300-cmu-34", 
            "status": "implication", 
            "value": 0.6
        }, 
        {
            "frame-id": "epi-PMC2747300-cmu-nicosys-468", 
            "frame-type": "epistemics", 
            "object-meta": {
                "object-type": "meta-info", 
                "organization": "CMU"
            }, 
            "object-type": "frame", 
            "sentence": "sent-PMC2747300-cmu-35", 
            "status": "implication", 
            "value": 0.6
        }, 
        {
            "frame-id": "epi-PMC2747300-cmu-nicosys-469", 
            "frame-type": "epistemics", 
            "object-meta": {
                "object-type": "meta-info", 
                "organization": "CMU"
            }, 
            "object-type": "frame", 
            "sentence": "sent-PMC2747300-cmu-36", 
            "status": "implication", 
            "value": 0.6
        }, 
        {
            "frame-id": "epi-PMC2747300-cmu-nicosys-470", 
            "frame-type": "epistemics", 
            "object-meta": {
                "object-type": "meta-info", 
                "organization": "CMU"
            }, 
            "object-type": "frame", 
            "sentence": "sent-PMC2747300-cmu-37", 
            "status": "implication", 
            "value": 0.6
        }, 
        {
            "frame-id": "epi-PMC2747300-cmu-nicosys-471", 
            "frame-type": "epistemics", 
            "object-meta": {
                "object-type": "meta-info", 
                "organization": "CMU"
            }, 
            "object-type": "frame", 
            "sentence": "sent-PMC2747300-cmu-38", 
            "status": "implication", 
            "value": 0.6
        }, 
        {
            "frame-id": "epi-PMC2747300-cmu-nicosys-472", 
            "frame-type": "epistemics", 
            "object-meta": {
                "object-type": "meta-info", 
                "organization": "CMU"
            }, 
            "object-type": "frame", 
            "sentence": "sent-PMC2747300-cmu-39", 
            "status": "implication", 
            "value": 0.6
        }, 
        {
            "frame-id": "epi-PMC2747300-cmu-nicosys-473", 
            "frame-type": "epistemics", 
            "object-meta": {
                "object-type": "meta-info", 
                "organization": "CMU"
            }, 
            "object-type": "frame", 
            "sentence": "sent-PMC2747300-cmu-40", 
            "status": "implication", 
            "value": 0.6
        }, 
        {
            "frame-id": "epi-PMC2747300-cmu-nicosys-474", 
            "frame-type": "epistemics", 
            "object-meta": {
                "object-type": "meta-info", 
                "organization": "CMU"
            }, 
            "object-type": "frame", 
            "sentence": "sent-PMC2747300-cmu-41", 
            "status": "implication", 
            "value": 0.6
        }, 
        {
            "frame-id": "epi-PMC2747300-cmu-nicosys-475", 
            "frame-type": "epistemics", 
            "object-meta": {
                "object-type": "meta-info", 
                "organization": "CMU"
            }, 
            "object-type": "frame", 
            "sentence": "sent-PMC2747300-cmu-42", 
            "status": "implication", 
            "value": 0.6
        }, 
        {
            "frame-id": "epi-PMC2747300-cmu-nicosys-476", 
            "frame-type": "epistemics", 
            "object-meta": {
                "object-type": "meta-info", 
                "organization": "CMU"
            }, 
            "object-type": "frame", 
            "sentence": "sent-PMC2747300-cmu-43", 
            "status": "implication", 
            "value": 0.6
        }, 
        {
            "frame-id": "epi-PMC2747300-cmu-nicosys-477", 
            "frame-type": "epistemics", 
            "object-meta": {
                "object-type": "meta-info", 
                "organization": "CMU"
            }, 
            "object-type": "frame", 
            "sentence": "sent-PMC2747300-cmu-44", 
            "status": "implication", 
            "value": 0.6
        }, 
        {
            "frame-id": "epi-PMC2747300-cmu-nicosys-478", 
            "frame-type": "epistemics", 
            "object-meta": {
                "object-type": "meta-info", 
                "organization": "CMU"
            }, 
            "object-type": "frame", 
            "sentence": "sent-PMC2747300-cmu-45", 
            "status": "implication", 
            "value": 0.6
        }, 
        {
            "frame-id": "epi-PMC2747300-cmu-nicosys-479", 
            "frame-type": "epistemics", 
            "object-meta": {
                "object-type": "meta-info", 
                "organization": "CMU"
            }, 
            "object-type": "frame", 
            "sentence": "sent-PMC2747300-cmu-46", 
            "status": "implication", 
            "value": 0.6
        }, 
        {
            "frame-id": "epi-PMC2747300-cmu-nicosys-480", 
            "frame-type": "epistemics", 
            "object-meta": {
                "object-type": "meta-info", 
                "organization": "CMU"
            }, 
            "object-type": "frame", 
            "sentence": "sent-PMC2747300-cmu-47", 
            "status": "implication", 
            "value": 0.6
        }, 
        {
            "frame-id": "epi-PMC2747300-cmu-nicosys-481", 
            "frame-type": "epistemics", 
            "object-meta": {
                "object-type": "meta-info", 
                "organization": "CMU"
            }, 
            "object-type": "frame", 
            "sentence": "sent-PMC2747300-cmu-48", 
            "status": "implication", 
            "value": 0.6
        }, 
        {
            "frame-id": "epi-PMC2747300-cmu-nicosys-482", 
            "frame-type": "epistemics", 
            "object-meta": {
                "object-type": "meta-info", 
                "organization": "CMU"
            }, 
            "object-type": "frame", 
            "sentence": "sent-PMC2747300-cmu-49", 
            "status": "implication", 
            "value": 0.6
        }, 
        {
            "frame-id": "epi-PMC2747300-cmu-nicosys-483", 
            "frame-type": "epistemics", 
            "object-meta": {
                "object-type": "meta-info", 
                "organization": "CMU"
            }, 
            "object-type": "frame", 
            "sentence": "sent-PMC2747300-cmu-50", 
            "status": "implication", 
            "value": 0.6
        }, 
        {
            "frame-id": "epi-PMC2747300-cmu-nicosys-484", 
            "frame-type": "epistemics", 
            "object-meta": {
                "object-type": "meta-info", 
                "organization": "CMU"
            }, 
            "object-type": "frame", 
            "sentence": "sent-PMC2747300-cmu-51", 
            "status": "implication", 
            "value": 0.6
        }, 
        {
            "frame-id": "epi-PMC2747300-cmu-nicosys-485", 
            "frame-type": "epistemics", 
            "object-meta": {
                "object-type": "meta-info", 
                "organization": "CMU"
            }, 
            "object-type": "frame", 
            "sentence": "sent-PMC2747300-cmu-52", 
            "status": "implication", 
            "value": 0.6
        }, 
        {
            "frame-id": "epi-PMC2747300-cmu-nicosys-486", 
            "frame-type": "epistemics", 
            "object-meta": {
                "object-type": "meta-info", 
                "organization": "CMU"
            }, 
            "object-type": "frame", 
            "sentence": "sent-PMC2747300-cmu-53", 
            "status": "implication", 
            "value": 0.6
        }, 
        {
            "frame-id": "epi-PMC2747300-cmu-nicosys-487", 
            "frame-type": "epistemics", 
            "object-meta": {
                "object-type": "meta-info", 
                "organization": "CMU"
            }, 
            "object-type": "frame", 
            "sentence": "sent-PMC2747300-cmu-54", 
            "status": "implication", 
            "value": 0.6
        }, 
        {
            "frame-id": "epi-PMC2747300-cmu-nicosys-488", 
            "frame-type": "epistemics", 
            "object-meta": {
                "object-type": "meta-info", 
                "organization": "CMU"
            }, 
            "object-type": "frame", 
            "sentence": "sent-PMC2747300-cmu-55", 
            "status": "implication", 
            "value": 0.6
        }, 
        {
            "frame-id": "epi-PMC2747300-cmu-nicosys-489", 
            "frame-type": "epistemics", 
            "object-meta": {
                "object-type": "meta-info", 
                "organization": "CMU"
            }, 
            "object-type": "frame", 
            "sentence": "sent-PMC2747300-cmu-56", 
            "status": "implication", 
            "value": 0.6
        }, 
        {
            "frame-id": "epi-PMC2747300-cmu-nicosys-490", 
            "frame-type": "epistemics", 
            "object-meta": {
                "object-type": "meta-info", 
                "organization": "CMU"
            }, 
            "object-type": "frame", 
            "sentence": "sent-PMC2747300-cmu-57", 
            "status": "implication", 
            "value": 0.6
        }, 
        {
            "frame-id": "epi-PMC2747300-cmu-nicosys-491", 
            "frame-type": "epistemics", 
            "object-meta": {
                "object-type": "meta-info", 
                "organization": "CMU"
            }, 
            "object-type": "frame", 
            "sentence": "sent-PMC2747300-cmu-58", 
            "status": "implication", 
            "value": 0.6
        }, 
        {
            "frame-id": "epi-PMC2747300-cmu-nicosys-492", 
            "frame-type": "epistemics", 
            "object-meta": {
                "object-type": "meta-info", 
                "organization": "CMU"
            }, 
            "object-type": "frame", 
            "sentence": "sent-PMC2747300-cmu-59", 
            "status": "implication", 
            "value": 0.6
        }, 
        {
            "frame-id": "epi-PMC2747300-cmu-nicosys-493", 
            "frame-type": "epistemics", 
            "object-meta": {
                "object-type": "meta-info", 
                "organization": "CMU"
            }, 
            "object-type": "frame", 
            "sentence": "sent-PMC2747300-cmu-60", 
            "status": "implication", 
            "value": 0.6
        }, 
        {
            "frame-id": "epi-PMC2747300-cmu-nicosys-494", 
            "frame-type": "epistemics", 
            "object-meta": {
                "object-type": "meta-info", 
                "organization": "CMU"
            }, 
            "object-type": "frame", 
            "sentence": "sent-PMC2747300-cmu-61", 
            "status": "implication", 
            "value": 0.6
        }, 
        {
            "frame-id": "epi-PMC2747300-cmu-nicosys-495", 
            "frame-type": "epistemics", 
            "object-meta": {
                "object-type": "meta-info", 
                "organization": "CMU"
            }, 
            "object-type": "frame", 
            "sentence": "sent-PMC2747300-cmu-62", 
            "status": "implication", 
            "value": 0.6
        }, 
        {
            "frame-id": "epi-PMC2747300-cmu-nicosys-496", 
            "frame-type": "epistemics", 
            "object-meta": {
                "object-type": "meta-info", 
                "organization": "CMU"
            }, 
            "object-type": "frame", 
            "sentence": "sent-PMC2747300-cmu-63", 
            "status": "implication", 
            "value": 0.6
        }, 
        {
            "frame-id": "epi-PMC2747300-cmu-nicosys-497", 
            "frame-type": "epistemics", 
            "object-meta": {
                "object-type": "meta-info", 
                "organization": "CMU"
            }, 
            "object-type": "frame", 
            "sentence": "sent-PMC2747300-cmu-64", 
            "status": "implication", 
            "value": 0.6
        }, 
        {
            "frame-id": "epi-PMC2747300-cmu-nicosys-498", 
            "frame-type": "epistemics", 
            "object-meta": {
                "object-type": "meta-info", 
                "organization": "CMU"
            }, 
            "object-type": "frame", 
            "sentence": "sent-PMC2747300-cmu-65", 
            "status": "implication", 
            "value": 0.6
        }, 
        {
            "frame-id": "epi-PMC2747300-cmu-nicosys-499", 
            "frame-type": "epistemics", 
            "object-meta": {
                "object-type": "meta-info", 
                "organization": "CMU"
            }, 
            "object-type": "frame", 
            "sentence": "sent-PMC2747300-cmu-66", 
            "status": "implication", 
            "value": 0.6
        }, 
        {
            "frame-id": "epi-PMC2747300-cmu-nicosys-500", 
            "frame-type": "epistemics", 
            "object-meta": {
                "object-type": "meta-info", 
                "organization": "CMU"
            }, 
            "object-type": "frame", 
            "sentence": "sent-PMC2747300-cmu-67", 
            "status": "implication", 
            "value": 0.6
        }, 
        {
            "frame-id": "epi-PMC2747300-cmu-nicosys-501", 
            "frame-type": "epistemics", 
            "object-meta": {
                "object-type": "meta-info", 
                "organization": "CMU"
            }, 
            "object-type": "frame", 
            "sentence": "sent-PMC2747300-cmu-68", 
            "status": "implication", 
            "value": 0.6
        }, 
        {
            "frame-id": "epi-PMC2747300-cmu-nicosys-502", 
            "frame-type": "epistemics", 
            "object-meta": {
                "object-type": "meta-info", 
                "organization": "CMU"
            }, 
            "object-type": "frame", 
            "sentence": "sent-PMC2747300-cmu-69", 
            "status": "implication", 
            "value": 0.6
        }, 
        {
            "frame-id": "epi-PMC2747300-cmu-nicosys-503", 
            "frame-type": "epistemics", 
            "object-meta": {
                "object-type": "meta-info", 
                "organization": "CMU"
            }, 
            "object-type": "frame", 
            "sentence": "sent-PMC2747300-cmu-70", 
            "status": "implication", 
            "value": 0.6
        }, 
        {
            "frame-id": "epi-PMC2747300-cmu-nicosys-504", 
            "frame-type": "epistemics", 
            "object-meta": {
                "object-type": "meta-info", 
                "organization": "CMU"
            }, 
            "object-type": "frame", 
            "sentence": "sent-PMC2747300-cmu-71", 
            "status": "implication", 
            "value": 0.6
        }, 
        {
            "frame-id": "epi-PMC2747300-cmu-nicosys-505", 
            "frame-type": "epistemics", 
            "object-meta": {
                "object-type": "meta-info", 
                "organization": "CMU"
            }, 
            "object-type": "frame", 
            "sentence": "sent-PMC2747300-cmu-72", 
            "status": "implication", 
            "value": 0.6
        }, 
        {
            "frame-id": "epi-PMC2747300-cmu-nicosys-506", 
            "frame-type": "epistemics", 
            "object-meta": {
                "object-type": "meta-info", 
                "organization": "CMU"
            }, 
            "object-type": "frame", 
            "sentence": "sent-PMC2747300-cmu-73", 
            "status": "implication", 
            "value": 0.6
        }, 
        {
            "frame-id": "epi-PMC2747300-cmu-nicosys-507", 
            "frame-type": "epistemics", 
            "object-meta": {
                "object-type": "meta-info", 
                "organization": "CMU"
            }, 
            "object-type": "frame", 
            "sentence": "sent-PMC2747300-cmu-74", 
            "status": "implication", 
            "value": 0.6
        }, 
        {
            "frame-id": "epi-PMC2747300-cmu-nicosys-508", 
            "frame-type": "epistemics", 
            "object-meta": {
                "object-type": "meta-info", 
                "organization": "CMU"
            }, 
            "object-type": "frame", 
            "sentence": "sent-PMC2747300-cmu-75", 
            "status": "implication", 
            "value": 0.6
        }, 
        {
            "frame-id": "epi-PMC2747300-cmu-nicosys-509", 
            "frame-type": "epistemics", 
            "object-meta": {
                "object-type": "meta-info", 
                "organization": "CMU"
            }, 
            "object-type": "frame", 
            "sentence": "sent-PMC2747300-cmu-76", 
            "status": "implication", 
            "value": 0.6
        }, 
        {
            "frame-id": "epi-PMC2747300-cmu-nicosys-510", 
            "frame-type": "epistemics", 
            "object-meta": {
                "object-type": "meta-info", 
                "organization": "CMU"
            }, 
            "object-type": "frame", 
            "sentence": "sent-PMC2747300-cmu-77", 
            "status": "implication", 
            "value": 0.6
        }, 
        {
            "frame-id": "epi-PMC2747300-cmu-nicosys-511", 
            "frame-type": "epistemics", 
            "object-meta": {
                "object-type": "meta-info", 
                "organization": "CMU"
            }, 
            "object-type": "frame", 
            "sentence": "sent-PMC2747300-cmu-78", 
            "status": "implication", 
            "value": 0.6
        }, 
        {
            "frame-id": "epi-PMC2747300-cmu-nicosys-512", 
            "frame-type": "epistemics", 
            "object-meta": {
                "object-type": "meta-info", 
                "organization": "CMU"
            }, 
            "object-type": "frame", 
            "sentence": "sent-PMC2747300-cmu-79", 
            "status": "implication", 
            "value": 0.6
        }, 
        {
            "frame-id": "epi-PMC2747300-cmu-nicosys-513", 
            "frame-type": "epistemics", 
            "object-meta": {
                "object-type": "meta-info", 
                "organization": "CMU"
            }, 
            "object-type": "frame", 
            "sentence": "sent-PMC2747300-cmu-80", 
            "status": "implication", 
            "value": 0.6
        }, 
        {
            "frame-id": "epi-PMC2747300-cmu-nicosys-514", 
            "frame-type": "epistemics", 
            "object-meta": {
                "object-type": "meta-info", 
                "organization": "CMU"
            }, 
            "object-type": "frame", 
            "sentence": "sent-PMC2747300-cmu-81", 
            "status": "implication", 
            "value": 0.6
        }, 
        {
            "frame-id": "epi-PMC2747300-cmu-nicosys-515", 
            "frame-type": "epistemics", 
            "object-meta": {
                "object-type": "meta-info", 
                "organization": "CMU"
            }, 
            "object-type": "frame", 
            "sentence": "sent-PMC2747300-cmu-82", 
            "status": "implication", 
            "value": 0.6
        }, 
        {
            "frame-id": "epi-PMC2747300-cmu-nicosys-516", 
            "frame-type": "epistemics", 
            "object-meta": {
                "object-type": "meta-info", 
                "organization": "CMU"
            }, 
            "object-type": "frame", 
            "sentence": "sent-PMC2747300-cmu-83", 
            "status": "implication", 
            "value": 0.6
        }, 
        {
            "frame-id": "epi-PMC2747300-cmu-nicosys-517", 
            "frame-type": "epistemics", 
            "object-meta": {
                "object-type": "meta-info", 
                "organization": "CMU"
            }, 
            "object-type": "frame", 
            "sentence": "sent-PMC2747300-cmu-84", 
            "status": "implication", 
            "value": 0.6
        }, 
        {
            "frame-id": "epi-PMC2747300-cmu-nicosys-518", 
            "frame-type": "epistemics", 
            "object-meta": {
                "object-type": "meta-info", 
                "organization": "CMU"
            }, 
            "object-type": "frame", 
            "sentence": "sent-PMC2747300-cmu-85", 
            "status": "implication", 
            "value": 0.6
        }, 
        {
            "frame-id": "epi-PMC2747300-cmu-nicosys-519", 
            "frame-type": "epistemics", 
            "object-meta": {
                "object-type": "meta-info", 
                "organization": "CMU"
            }, 
            "object-type": "frame", 
            "sentence": "sent-PMC2747300-cmu-86", 
            "status": "implication", 
            "value": 0.6
        }, 
        {
            "frame-id": "epi-PMC2747300-cmu-nicosys-520", 
            "frame-type": "epistemics", 
            "object-meta": {
                "object-type": "meta-info", 
                "organization": "CMU"
            }, 
            "object-type": "frame", 
            "sentence": "sent-PMC2747300-cmu-87", 
            "status": "implication", 
            "value": 0.6
        }, 
        {
            "frame-id": "epi-PMC2747300-cmu-nicosys-521", 
            "frame-type": "epistemics", 
            "object-meta": {
                "object-type": "meta-info", 
                "organization": "CMU"
            }, 
            "object-type": "frame", 
            "sentence": "sent-PMC2747300-cmu-88", 
            "status": "implication", 
            "value": 0.6
        }, 
        {
            "frame-id": "epi-PMC2747300-cmu-nicosys-522", 
            "frame-type": "epistemics", 
            "object-meta": {
                "object-type": "meta-info", 
                "organization": "CMU"
            }, 
            "object-type": "frame", 
            "sentence": "sent-PMC2747300-cmu-89", 
            "status": "implication", 
            "value": 0.6
        }, 
        {
            "frame-id": "epi-PMC2747300-cmu-nicosys-523", 
            "frame-type": "epistemics", 
            "object-meta": {
                "object-type": "meta-info", 
                "organization": "CMU"
            }, 
            "object-type": "frame", 
            "sentence": "sent-PMC2747300-cmu-90", 
            "status": "implication", 
            "value": 0.6
        }, 
        {
            "frame-id": "epi-PMC2747300-cmu-nicosys-524", 
            "frame-type": "epistemics", 
            "object-meta": {
                "object-type": "meta-info", 
                "organization": "CMU"
            }, 
            "object-type": "frame", 
            "sentence": "sent-PMC2747300-cmu-91", 
            "status": "implication", 
            "value": 0.6
        }, 
        {
            "frame-id": "epi-PMC2747300-cmu-nicosys-525", 
            "frame-type": "epistemics", 
            "object-meta": {
                "object-type": "meta-info", 
                "organization": "CMU"
            }, 
            "object-type": "frame", 
            "sentence": "sent-PMC2747300-cmu-92", 
            "status": "implication", 
            "value": 0.6
        }, 
        {
            "frame-id": "epi-PMC2747300-cmu-nicosys-526", 
            "frame-type": "epistemics", 
            "object-meta": {
                "object-type": "meta-info", 
                "organization": "CMU"
            }, 
            "object-type": "frame", 
            "sentence": "sent-PMC2747300-cmu-93", 
            "status": "implication", 
            "value": 0.6
        }, 
        {
            "frame-id": "epi-PMC2747300-cmu-nicosys-527", 
            "frame-type": "epistemics", 
            "object-meta": {
                "object-type": "meta-info", 
                "organization": "CMU"
            }, 
            "object-type": "frame", 
            "sentence": "sent-PMC2747300-cmu-94", 
            "status": "implication", 
            "value": 0.6
        }, 
        {
            "frame-id": "epi-PMC2747300-cmu-nicosys-528", 
            "frame-type": "epistemics", 
            "object-meta": {
                "object-type": "meta-info", 
                "organization": "CMU"
            }, 
            "object-type": "frame", 
            "sentence": "sent-PMC2747300-cmu-95", 
            "status": "implication", 
            "value": 0.6
        }, 
        {
            "frame-id": "epi-PMC2747300-cmu-nicosys-529", 
            "frame-type": "epistemics", 
            "object-meta": {
                "object-type": "meta-info", 
                "organization": "CMU"
            }, 
            "object-type": "frame", 
            "sentence": "sent-PMC2747300-cmu-96", 
            "status": "implication", 
            "value": 0.6
        }, 
        {
            "frame-id": "epi-PMC2747300-cmu-nicosys-530", 
            "frame-type": "epistemics", 
            "object-meta": {
                "object-type": "meta-info", 
                "organization": "CMU"
            }, 
            "object-type": "frame", 
            "sentence": "sent-PMC2747300-cmu-97", 
            "status": "implication", 
            "value": 0.6
        }, 
        {
            "frame-id": "epi-PMC2747300-cmu-nicosys-531", 
            "frame-type": "epistemics", 
            "object-meta": {
                "object-type": "meta-info", 
                "organization": "CMU"
            }, 
            "object-type": "frame", 
            "sentence": "sent-PMC2747300-cmu-98", 
            "status": "implication", 
            "value": 0.6
        }, 
        {
            "frame-id": "epi-PMC2747300-cmu-nicosys-532", 
            "frame-type": "epistemics", 
            "object-meta": {
                "object-type": "meta-info", 
                "organization": "CMU"
            }, 
            "object-type": "frame", 
            "sentence": "sent-PMC2747300-cmu-99", 
            "status": "implication", 
            "value": 0.6
        }, 
        {
            "frame-id": "epi-PMC2747300-cmu-nicosys-533", 
            "frame-type": "epistemics", 
            "object-meta": {
                "object-type": "meta-info", 
                "organization": "CMU"
            }, 
            "object-type": "frame", 
            "sentence": "sent-PMC2747300-cmu-100", 
            "status": "implication", 
            "value": 0.6
        }, 
        {
            "frame-id": "epi-PMC2747300-cmu-nicosys-534", 
            "frame-type": "epistemics", 
            "object-meta": {
                "object-type": "meta-info", 
                "organization": "CMU"
            }, 
            "object-type": "frame", 
            "sentence": "sent-PMC2747300-cmu-101", 
            "status": "implication", 
            "value": 0.6
        }, 
        {
            "frame-id": "epi-PMC2747300-cmu-nicosys-535", 
            "frame-type": "epistemics", 
            "object-meta": {
                "object-type": "meta-info", 
                "organization": "CMU"
            }, 
            "object-type": "frame", 
            "sentence": "sent-PMC2747300-cmu-102", 
            "status": "implication", 
            "value": 0.6
        }, 
        {
            "frame-id": "epi-PMC2747300-cmu-nicosys-536", 
            "frame-type": "epistemics", 
            "object-meta": {
                "object-type": "meta-info", 
                "organization": "CMU"
            }, 
            "object-type": "frame", 
            "sentence": "sent-PMC2747300-cmu-103", 
            "status": "implication", 
            "value": 0.6
        }, 
        {
            "frame-id": "epi-PMC2747300-cmu-nicosys-537", 
            "frame-type": "epistemics", 
            "object-meta": {
                "object-type": "meta-info", 
                "organization": "CMU"
            }, 
            "object-type": "frame", 
            "sentence": "sent-PMC2747300-cmu-104", 
            "status": "implication", 
            "value": 0.6
        }, 
        {
            "frame-id": "epi-PMC2747300-cmu-nicosys-538", 
            "frame-type": "epistemics", 
            "object-meta": {
                "object-type": "meta-info", 
                "organization": "CMU"
            }, 
            "object-type": "frame", 
            "sentence": "sent-PMC2747300-cmu-105", 
            "status": "implication", 
            "value": 0.6
        }, 
        {
            "frame-id": "epi-PMC2747300-cmu-nicosys-539", 
            "frame-type": "epistemics", 
            "object-meta": {
                "object-type": "meta-info", 
                "organization": "CMU"
            }, 
            "object-type": "frame", 
            "sentence": "sent-PMC2747300-cmu-106", 
            "status": "implication", 
            "value": 0.6
        }, 
        {
            "frame-id": "epi-PMC2747300-cmu-nicosys-540", 
            "frame-type": "epistemics", 
            "object-meta": {
                "object-type": "meta-info", 
                "organization": "CMU"
            }, 
            "object-type": "frame", 
            "sentence": "sent-PMC2747300-cmu-107", 
            "status": "implication", 
            "value": 0.6
        }, 
        {
            "frame-id": "epi-PMC2747300-cmu-nicosys-541", 
            "frame-type": "epistemics", 
            "object-meta": {
                "object-type": "meta-info", 
                "organization": "CMU"
            }, 
            "object-type": "frame", 
            "sentence": "sent-PMC2747300-cmu-108", 
            "status": "implication", 
            "value": 0.6
        }, 
        {
            "frame-id": "epi-PMC2747300-cmu-nicosys-542", 
            "frame-type": "epistemics", 
            "object-meta": {
                "object-type": "meta-info", 
                "organization": "CMU"
            }, 
            "object-type": "frame", 
            "sentence": "sent-PMC2747300-cmu-109", 
            "status": "implication", 
            "value": 0.6
        }, 
        {
            "frame-id": "epi-PMC2747300-cmu-nicosys-543", 
            "frame-type": "epistemics", 
            "object-meta": {
                "object-type": "meta-info", 
                "organization": "CMU"
            }, 
            "object-type": "frame", 
            "sentence": "sent-PMC2747300-cmu-110", 
            "status": "implication", 
            "value": 0.6
        }, 
        {
            "frame-id": "epi-PMC2747300-cmu-nicosys-544", 
            "frame-type": "epistemics", 
            "object-meta": {
                "object-type": "meta-info", 
                "organization": "CMU"
            }, 
            "object-type": "frame", 
            "sentence": "sent-PMC2747300-cmu-111", 
            "status": "implication", 
            "value": 0.6
        }, 
        {
            "frame-id": "epi-PMC2747300-cmu-nicosys-545", 
            "frame-type": "epistemics", 
            "object-meta": {
                "object-type": "meta-info", 
                "organization": "CMU"
            }, 
            "object-type": "frame", 
            "sentence": "sent-PMC2747300-cmu-112", 
            "status": "implication", 
            "value": 0.6
        }, 
        {
            "frame-id": "epi-PMC2747300-cmu-nicosys-546", 
            "frame-type": "epistemics", 
            "object-meta": {
                "object-type": "meta-info", 
                "organization": "CMU"
            }, 
            "object-type": "frame", 
            "sentence": "sent-PMC2747300-cmu-113", 
            "status": "implication", 
            "value": 0.6
        }, 
        {
            "frame-id": "epi-PMC2747300-cmu-nicosys-547", 
            "frame-type": "epistemics", 
            "object-meta": {
                "object-type": "meta-info", 
                "organization": "CMU"
            }, 
            "object-type": "frame", 
            "sentence": "sent-PMC2747300-cmu-114", 
            "status": "implication", 
            "value": 0.6
        }, 
        {
            "frame-id": "epi-PMC2747300-cmu-nicosys-548", 
            "frame-type": "epistemics", 
            "object-meta": {
                "object-type": "meta-info", 
                "organization": "CMU"
            }, 
            "object-type": "frame", 
            "sentence": "sent-PMC2747300-cmu-115", 
            "status": "implication", 
            "value": 0.6
        }, 
        {
            "frame-id": "epi-PMC2747300-cmu-nicosys-549", 
            "frame-type": "epistemics", 
            "object-meta": {
                "object-type": "meta-info", 
                "organization": "CMU"
            }, 
            "object-type": "frame", 
            "sentence": "sent-PMC2747300-cmu-116", 
            "status": "implication", 
            "value": 0.6
        }, 
        {
            "frame-id": "epi-PMC2747300-cmu-nicosys-550", 
            "frame-type": "epistemics", 
            "object-meta": {
                "object-type": "meta-info", 
                "organization": "CMU"
            }, 
            "object-type": "frame", 
            "sentence": "sent-PMC2747300-cmu-98", 
            "status": "implication", 
            "value": 0.6
        }, 
        {
            "frame-id": "epi-PMC2747300-cmu-nicosys-551", 
            "frame-type": "epistemics", 
            "object-meta": {
                "object-type": "meta-info", 
                "organization": "CMU"
            }, 
            "object-type": "frame", 
            "sentence": "sent-PMC2747300-cmu-99", 
            "status": "implication", 
            "value": 0.6
        }, 
        {
            "frame-id": "epi-PMC2747300-cmu-nicosys-552", 
            "frame-type": "epistemics", 
            "object-meta": {
                "object-type": "meta-info", 
                "organization": "CMU"
            }, 
            "object-type": "frame", 
            "sentence": "sent-PMC2747300-cmu-100", 
            "status": "implication", 
            "value": 0.6
        }, 
        {
            "frame-id": "epi-PMC2747300-cmu-nicosys-553", 
            "frame-type": "epistemics", 
            "object-meta": {
                "object-type": "meta-info", 
                "organization": "CMU"
            }, 
            "object-type": "frame", 
            "sentence": "sent-PMC2747300-cmu-100", 
            "status": "implication", 
            "value": 0.6
        }, 
        {
            "frame-id": "epi-PMC2747300-cmu-nicosys-554", 
            "frame-type": "epistemics", 
            "object-meta": {
                "object-type": "meta-info", 
                "organization": "CMU"
            }, 
            "object-type": "frame", 
            "sentence": "sent-PMC2747300-cmu-105", 
            "status": "hypothesis", 
            "value": 0.3
        }, 
        {
            "frame-id": "epi-PMC2747300-cmu-nicosys-555", 
            "frame-type": "epistemics", 
            "object-meta": {
                "object-type": "meta-info", 
                "organization": "CMU"
            }, 
            "object-type": "frame", 
            "sentence": "sent-PMC2747300-cmu-106", 
            "status": "implication", 
            "value": 0.6
        }, 
        {
            "frame-id": "epi-PMC2747300-cmu-nicosys-556", 
            "frame-type": "epistemics", 
            "object-meta": {
                "object-type": "meta-info", 
                "organization": "CMU"
            }, 
            "object-type": "frame", 
            "sentence": "sent-PMC2747300-cmu-108", 
            "status": "belief", 
            "value": 0.9
        }
    ], 
    "object-meta": {
        "component": "Nicolas-System", 
        "component-type": "machine", 
        "doc-id": "PMC2747300", 
        "object-type": "meta-info", 
        "organization": "CMU"
    }, 
    "object-type": "frame-collection"
}
