{
  "evidence": ["endoplasmic reticulum/Golgi-Ras showed more potent MEK activation but was similarly characterized by a profound inhibitory activity of the wild type variant on MEK phosphorylation.","Our results with Golgi-Ras superficially appear to be in contrast to the study of Matallanas et al. (2006) that showed an impaired ability of Golgi-Ras to activate ERK and Akt.","Ras to activate ERK and Akt","Ras to activate the MAPK pathway is consistent with previous data that showed that ubiquitination of Ras resulting in enhanced Ras endocytosis attenuated Ras-dependent ERK"],
  "extracted_information": {
    "interaction_type": "increases",
    "negative_information": false,
    "participant_a": {
      "entity_text": "Ras",
      "entity_type": "protein_family",
      "identifier": "Uniprot:A0PDV5",
      "in_model": false
    },
    "participant_b": {
      "entity_text": "ERK",
      "entity_type": "protein_family",
      "identifier": "Uniprot:P29323",
      "in_model": true
    }
  },
  "fries_provenance": [
    {
      "cmu-sentence-epistemic-status": "implication",
      "cmu-sentence-epistemic-value": 0.6,
      "component": "MedScan",
      "frame-file": "PMC3776226.cmu.medscan",
      "frame-id": "relm-PMC3776226-cmu-medscan-261",
      "passage-id": "pass-PMC3776226-UAZ-r1-23",
      "passage-number": 23,
      "passage-section-id": "s0010",
      "passage-section-name": "N/A",
      "sentence": "Our results with Golgi-Ras superficially appear to be in contrast to the study of Matallanas et al. (2006) that showed an impaired ability of Golgi-Ras to activate ERK and Akt.",
      "text": "Ras to activate the MAPK pathway is consistent with previous data that showed that ubiquitination of Ras resulting in enhanced Ras endocytosis attenuated Ras-dependent ERK",
      "uaz-sentence": "Our results with Golgi-Ras superficially appear to be in contrast to the study of Matallanas et al. ( 2006 ) that showed an impaired ability of Golgi-Ras to activate ERK and Akt .",
      "uaz-sentence-start": 0
    },
    {
      "component": "MedScan",
      "frame-file": "PMC3776226.cmu.medscan",
      "frame-id": "relm-PMC3776226-cmu-medscan-262",
      "sentence": "endoplasmic reticulum/Golgi-Ras showed more potent MEK activation but was similarly characterized by a profound inhibitory activity of the wild type variant on MEK phosphorylation.",
      "text": "Ras to activate ERK and Akt"
    }
  ],
  "model_relation": "extension",
  "pmc_id": "PMC3776226",
  "reader_type": "machine",
  "reading_complete": "2015-07-02T20:40:03Z",
  "reading_started": "2015-07-02T20:39:58Z",
  "submitter": "FRIES"
}
