{
    "frames": [
        {
            "binds-constituent1": [
                "mRNA"
            ], 
            "frame-id": "imp-PMC3250952-cmu-pradsys-325", 
            "frame-type": "implication", 
            "implication-type": "binds", 
            "object-meta": {
                "object-type": "meta-info", 
                "organization": "CMU"
            }, 
            "object-type": "frame", 
            "sentence": "sent-PMC3250952-cmu-29"
        }, 
        {
            "frame-id": "imp-PMC3250952-cmu-pradsys-326", 
            "frame-type": "implication", 
            "implication-type": "binds", 
            "incubation-reagent": [
                "the OC , spiral ganglion ( SG )"
            ], 
            "object-meta": {
                "object-type": "meta-info", 
                "organization": "CMU"
            }, 
            "object-type": "frame", 
            "sentence": "sent-PMC3250952-cmu-30", 
            "transfection-molecule": [
                "HMG-CoA mRNA"
            ]
        }, 
        {
            "binds-catalysis": [
                "no toxic effect"
            ], 
            "binds-constituent1": [
                "HCs"
            ], 
            "frame-id": "imp-PMC3250952-cmu-pradsys-327", 
            "frame-type": "implication", 
            "implication-type": "binds", 
            "object-meta": {
                "object-type": "meta-info", 
                "organization": "CMU"
            }, 
            "object-type": "frame", 
            "sentence": "sent-PMC3250952-cmu-35"
        }, 
        {
            "binds-constituent2": [
                "HCs"
            ], 
            "frame-id": "imp-PMC3250952-cmu-pradsys-328", 
            "frame-type": "implication", 
            "implication-type": "binds", 
            "object-meta": {
                "object-type": "meta-info", 
                "organization": "CMU"
            }, 
            "object-type": "frame", 
            "sentence": "sent-PMC3250952-cmu-37"
        }, 
        {
            "cell-type": [
                "hair cells", 
                "hair cells"
            ], 
            "frame-id": "imp-PMC3250952-cmu-pradsys-329", 
            "frame-type": "implication", 
            "implication-type": "binds", 
            "object-meta": {
                "object-type": "meta-info", 
                "organization": "CMU"
            }, 
            "object-type": "frame", 
            "sentence": "sent-PMC3250952-cmu-39"
        }, 
        {
            "assay-molecule": [
                "HCs"
            ], 
            "frame-id": "imp-PMC3250952-cmu-pradsys-330", 
            "frame-type": "implication", 
            "implication-type": "binds", 
            "object-meta": {
                "object-type": "meta-info", 
                "organization": "CMU"
            }, 
            "object-type": "frame", 
            "sentence": "sent-PMC3250952-cmu-40"
        }, 
        {
            "binds-controller": [
                "increased OHC survival in the middle and basal cochlear turn"
            ], 
            "frame-id": "imp-PMC3250952-cmu-pradsys-331", 
            "frame-type": "implication", 
            "implication-type": "binds", 
            "object-meta": {
                "object-type": "meta-info", 
                "organization": "CMU"
            }, 
            "object-type": "frame", 
            "sentence": "sent-PMC3250952-cmu-41"
        }, 
        {
            "binds-controller": [
                "increased OHC survival in all cochlear turns"
            ], 
            "frame-id": "imp-PMC3250952-cmu-pradsys-332", 
            "frame-type": "implication", 
            "implication-type": "binds", 
            "object-meta": {
                "object-type": "meta-info", 
                "organization": "CMU"
            }, 
            "object-type": "frame", 
            "sentence": "sent-PMC3250952-cmu-42"
        }, 
        {
            "binds-catalysis": [
                "no toxic effect"
            ], 
            "binds-constituent1": [
                "Mevalonate"
            ], 
            "frame-id": "imp-PMC3250952-cmu-pradsys-333", 
            "frame-type": "implication", 
            "implication-type": "binds", 
            "object-meta": {
                "object-type": "meta-info", 
                "organization": "CMU"
            }, 
            "object-type": "frame", 
            "sentence": "sent-PMC3250952-cmu-44"
        }, 
        {
            "binds-constituent2": [
                "HCs"
            ], 
            "frame-id": "imp-PMC3250952-cmu-pradsys-334", 
            "frame-type": "implication", 
            "implication-type": "binds", 
            "object-meta": {
                "object-type": "meta-info", 
                "organization": "CMU"
            }, 
            "object-type": "frame", 
            "sentence": "sent-PMC3250952-cmu-46"
        }, 
        {
            "assay-molecule": [
                "IHCs"
            ], 
            "frame-id": "imp-PMC3250952-cmu-pradsys-335", 
            "frame-type": "implication", 
            "implication-type": "binds", 
            "object-meta": {
                "object-type": "meta-info", 
                "organization": "CMU"
            }, 
            "object-type": "frame", 
            "sentence": "sent-PMC3250952-cmu-48"
        }, 
        {
            "binds-constituent1": [
                "Mevalonate"
            ], 
            "frame-id": "imp-PMC3250952-cmu-pradsys-336", 
            "frame-type": "implication", 
            "implication-type": "binds", 
            "object-meta": {
                "object-type": "meta-info", 
                "organization": "CMU"
            }, 
            "object-type": "frame", 
            "sentence": "sent-PMC3250952-cmu-50"
        }
    ], 
    "object-meta": {
        "component": "Pradeep-System", 
        "component-type": "machine", 
        "doc-id": "PMC3250952", 
        "object-type": "meta-info", 
        "organization": "CMU"
    }, 
    "object-type": "frame-collection"
}
