{
  "evidence": ["Although the role of these elements in interleukin 1-mediated downregulation of Peroxisome proliferator-activated receptor\\u03b3 expression is still unknown, we cannot exclude the possibility that activation of these transcription factors by interleukin 1 also participates in the downregulation of Peroxisome proliferator-activated receptor\\u03b3 expression.","As shown in Figure , transfection with Egr-1 small interfering RNA reversed the suppressive effect of interleukin 1 on Peroxisome proliferator-activated receptor\\u03b3.","At 24 hours after transfection, cells were washed, reincubated for another 24 hours, and left untreated or treated with 100 pg/mL interleukin 1 for 1 or 18 hours.","Chondrocytes were incubated with cycloheximide (10 \\u03bcg/mL) for 30 minutes prior to stimulation with 100 pg/mL interleukin 1 for 18 hours, and the levels of Peroxisome proliferator-activated receptor\\u03b3 mRNA were analyzed by real-time polymerase chain reaction.","Chondrocytes were treated with 100 pg/mL interleukin 1 for the indicated time periods.","Egr-1 is required for interleukin 1-mediated suppression of Peroxisome proliferator-activated receptor\\u03b3 expression.","Furthermore, Egr-1 silencing prevented the downregulation of Peroxisome proliferator-activated receptor\\u03b3 expression by interleukin 1.","interleukin 1 on Peroxisome proliferator-activated receptor\\u03b3","interleukin 1 preceded the suppression of Peroxisome proliferator-activated receptor\\u03b3","interleukin 1-induced downregulation of Peroxisome proliferator-activated receptor\\u03b3","interleukin 1-mediated downregulation of Peroxisome proliferator-activated receptor\\u03b3","interleukin 1-mediated downregulation of Peroxisome proliferator-activated receptor\\u03b3 expression may be of relevance for other stimuli known to modulate Peroxisome proliferator-activated receptor\\u03b3","interleukin 1-mediated downregulation of Peroxisome proliferator-activated receptor\\u03b3 mRNA expression requires de novo protein synthesis.","interleukin 1-mediated suppression of Peroxisome proliferator-activated receptor\\u03b3","The involvement of Egr-1 in interleukin 1-mediated downregulation of Peroxisome proliferator-activated receptor\\u03b3 expression may be of relevance for other stimuli known to modulate Peroxisome proliferator-activated receptor\\u03b3 expression.","There are a number of potential mechanisms through which Egr-1 could mediate the downregulation of Peroxisome proliferator-activated receptor\\u03b3 expression by interleukin 1.","To further characterize the functional roles of Sp1 and Egr-1 in interleukin 1-mediated downregulation of Peroxisome proliferator-activated receptor\\u03b3 expression, we performed transient transfection experiments in which we examined the effects of Egr-1 and Sp1 on Peroxisome proliferator-activated receptor\\u03b3 promoter activity.","Total RNA was isolated and was reverse-transcribed into cDNA, and Peroxisome proliferator-activated receptor\\u03b3 mRNA was quantified by using real-time polymerase chain reaction."],
  "extracted_information": {
    "interaction_type": "decreases",
    "negative_information": false,
    "participant_a": {
      "entity_text": "interleukin 1",
      "entity_type": "protein_family",
      "identifier": "ungrounded",
      "in_model": false
    },
    "participant_b": {
      "entity_text": "Peroxisome proliferator-activated receptor\\u03b3",
      "entity_type": "protein",
      "identifier": "Uniprot:P37231",
      "in_model": true
    }
  },
  "fries_provenance": [
    {
      "component": "MedScan",
      "frame-file": "PMC3446440.cmu.medscan",
      "frame-id": "relm-PMC3446440-cmu-medscan-753",
      "sentence": "Chondrocytes were incubated with cycloheximide (10 \\u03bcg/mL) for 30 minutes prior to stimulation with 100 pg/mL interleukin 1 for 18 hours, and the levels of Peroxisome proliferator-activated receptor\\u03b3 mRNA were analyzed by real-time polymerase chain reaction.",
      "text": "interleukin 1-mediated downregulation of Peroxisome proliferator-activated receptor\\u03b3"
    },
    {
      "component": "MedScan",
      "frame-file": "PMC3446440.cmu.medscan",
      "frame-id": "relm-PMC3446440-cmu-medscan-758",
      "sentence": "interleukin 1-mediated downregulation of Peroxisome proliferator-activated receptor\\u03b3 mRNA expression requires de novo protein synthesis.",
      "text": "interleukin 1 on Peroxisome proliferator-activated receptor\\u03b3"
    },
    {
      "component": "MedScan",
      "frame-file": "PMC3446440.cmu.medscan",
      "frame-id": "relm-PMC3446440-cmu-medscan-760",
      "sentence": "Total RNA was isolated and was reverse-transcribed into cDNA, and Peroxisome proliferator-activated receptor\\u03b3 mRNA was quantified by using real-time polymerase chain reaction.",
      "text": "interleukin 1-mediated downregulation of Peroxisome proliferator-activated receptor\\u03b3"
    },
    {
      "component": "MedScan",
      "frame-file": "PMC3446440.cmu.medscan",
      "frame-id": "relm-PMC3446440-cmu-medscan-768",
      "sentence": "Chondrocytes were treated with 100 pg/mL interleukin 1 for the indicated time periods.",
      "text": "interleukin 1 preceded the suppression of Peroxisome proliferator-activated receptor\\u03b3"
    },
    {
      "cmu-sentence-epistemic-status": "implication",
      "cmu-sentence-epistemic-value": 0.6,
      "component": "MedScan",
      "frame-file": "PMC3446440.cmu.medscan",
      "frame-id": "relm-PMC3446440-cmu-medscan-776",
      "passage-id": "pass-PMC3446440-UAZ-r1-76",
      "passage-number": 76,
      "passage-section-id": "N/A",
      "passage-section-name": "N/A",
      "sentence": "To further characterize the functional roles of Sp1 and Egr-1 in interleukin 1-mediated downregulation of Peroxisome proliferator-activated receptor\\u03b3 expression, we performed transient transfection experiments in which we examined the effects of Egr-1 and Sp1 on Peroxisome proliferator-activated receptor\\u03b3 promoter activity.",
      "text": "interleukin 1-mediated downregulation of Peroxisome proliferator-activated receptor\\u03b3",
      "uaz-sentence": "To further characterize the functional roles of Sp1 and Egr-1 in IL-1-mediated downregulation of PPARgamma expression , we performed transient transfection experiments in which we examined the effects of Egr-1 and Sp1 on PPARgamma promoter activity .",
      "uaz-sentence-start": 0
    },
    {
      "cmu-sentence-epistemic-status": "implication",
      "cmu-sentence-epistemic-value": 0.6,
      "component": "MedScan",
      "frame-file": "PMC3446440.cmu.medscan",
      "frame-id": "relm-PMC3446440-cmu-medscan-780",
      "passage-id": "pass-PMC3446440-UAZ-r1-76",
      "passage-number": 76,
      "passage-section-id": "N/A",
      "passage-section-name": "N/A",
      "sentence": "To further characterize the functional roles of Sp1 and Egr-1 in interleukin 1-mediated downregulation of Peroxisome proliferator-activated receptor\\u03b3 expression, we performed transient transfection experiments in which we examined the effects of Egr-1 and Sp1 on Peroxisome proliferator-activated receptor\\u03b3 promoter activity.",
      "text": "interleukin 1-mediated downregulation of Peroxisome proliferator-activated receptor\\u03b3",
      "uaz-sentence": "To further characterize the functional roles of Sp1 and Egr-1 in IL-1-mediated downregulation of PPARgamma expression , we performed transient transfection experiments in which we examined the effects of Egr-1 and Sp1 on PPARgamma promoter activity .",
      "uaz-sentence-start": 0
    },
    {
      "component": "MedScan",
      "frame-file": "PMC3446440.cmu.medscan",
      "frame-id": "relm-PMC3446440-cmu-medscan-786",
      "sentence": "As shown in Figure , transfection with Egr-1 small interfering RNA reversed the suppressive effect of interleukin 1 on Peroxisome proliferator-activated receptor\\u03b3.",
      "text": "interleukin 1-mediated downregulation of Peroxisome proliferator-activated receptor\\u03b3"
    },
    {
      "component": "MedScan",
      "frame-file": "PMC3446440.cmu.medscan",
      "frame-id": "relm-PMC3446440-cmu-medscan-789",
      "sentence": "Egr-1 is required for interleukin 1-mediated suppression of Peroxisome proliferator-activated receptor\\u03b3 expression.",
      "text": "interleukin 1-mediated downregulation of Peroxisome proliferator-activated receptor\\u03b3"
    },
    {
      "component": "MedScan",
      "frame-file": "PMC3446440.cmu.medscan",
      "frame-id": "relm-PMC3446440-cmu-medscan-792",
      "sentence": "At 24 hours after transfection, cells were washed, reincubated for another 24 hours, and left untreated or treated with 100 pg/mL interleukin 1 for 1 or 18 hours.",
      "text": "interleukin 1-mediated suppression of Peroxisome proliferator-activated receptor\\u03b3"
    },
    {
      "cmu-sentence-epistemic-status": "implication",
      "cmu-sentence-epistemic-value": 0.6,
      "component": "MedScan",
      "frame-file": "PMC3446440.cmu.medscan",
      "frame-id": "relm-PMC3446440-cmu-medscan-797",
      "passage-id": "pass-PMC3446440-UAZ-r1-93",
      "passage-number": 93,
      "passage-section-id": "N/A",
      "passage-section-name": "discussion",
      "sentence": "Furthermore, Egr-1 silencing prevented the downregulation of Peroxisome proliferator-activated receptor\\u03b3 expression by interleukin 1.",
      "text": "interleukin 1-mediated downregulation of Peroxisome proliferator-activated receptor\\u03b3",
      "uaz-sentence": "Furthermore , Egr-1 silencing prevented the downregulation of PPARgamma expression by IL-1 .",
      "uaz-sentence-start": 510
    },
    {
      "component": "MedScan",
      "frame-file": "PMC3446440.cmu.medscan",
      "frame-id": "relm-PMC3446440-cmu-medscan-815",
      "sentence": "There are a number of potential mechanisms through which Egr-1 could mediate the downregulation of Peroxisome proliferator-activated receptor\\u03b3 expression by interleukin 1.",
      "text": "interleukin 1-induced downregulation of Peroxisome proliferator-activated receptor\\u03b3"
    },
    {
      "cmu-sentence-epistemic-status": "implication",
      "cmu-sentence-epistemic-value": 0.6,
      "component": "MedScan",
      "frame-file": "PMC3446440.cmu.medscan",
      "frame-id": "relm-PMC3446440-cmu-medscan-830",
      "passage-id": "pass-PMC3446440-UAZ-r1-99",
      "passage-number": 99,
      "passage-section-id": "N/A",
      "passage-section-name": "discussion",
      "sentence": "Although the role of these elements in interleukin 1-mediated downregulation of Peroxisome proliferator-activated receptor\\u03b3 expression is still unknown, we cannot exclude the possibility that activation of these transcription factors by interleukin 1 also participates in the downregulation of Peroxisome proliferator-activated receptor\\u03b3 expression.",
      "text": "interleukin 1-mediated downregulation of Peroxisome proliferator-activated receptor\\u03b3",
      "uaz-sentence": "Although the role of these elements in IL-1-mediated downregulation of PPARgamma expression is still unknown , we can not exclude the possibility that activation of these transcription factors by IL-1 also participates in the downregulation of PPARgamma expression .",
      "uaz-sentence-start": 2341
    },
    {
      "cmu-sentence-epistemic-status": "implication",
      "cmu-sentence-epistemic-value": 0.6,
      "component": "MedScan",
      "frame-file": "PMC3446440.cmu.medscan",
      "frame-id": "relm-PMC3446440-cmu-medscan-833",
      "passage-id": "pass-PMC3446440-UAZ-r1-100",
      "passage-number": 100,
      "passage-section-id": "N/A",
      "passage-section-name": "discussion",
      "sentence": "The involvement of Egr-1 in interleukin 1-mediated downregulation of Peroxisome proliferator-activated receptor\\u03b3 expression may be of relevance for other stimuli known to modulate Peroxisome proliferator-activated receptor\\u03b3 expression.",
      "text": "interleukin 1-mediated downregulation of Peroxisome proliferator-activated receptor\\u03b3 expression may be of relevance for other stimuli known to modulate Peroxisome proliferator-activated receptor\\u03b3",
      "uaz-sentence": "The involvement of Egr-1 in IL-1-mediated downregulation of PPARgamma expression may be of relevance for other stimuli known to modulate PPARgamma expression .",
      "uaz-sentence-start": 0
    }
  ],
  "model_relation": "extension",
  "pmc_id": "PMC3446440",
  "reader_type": "machine",
  "reading_complete": "2015-06-15T22:57:29Z",
  "reading_started": "2015-06-15T22:57:24Z",
  "submitter": "FRIES"
}
