{
  "evidence": ["BTK induced phosphorylation is mandatory for optimal nuclear localization and transcription factor function of IK","BTK induced phosphorylation is mandatory for optimal nuclear localization and transcription factor function of IK in human cells .","IK activation by BTK","The future elucidation of the structural basis of IK activation by BTK induced serine phosphorylation will require a 3-D structure determination of IK at atomic resolution before and after phosphorylation using X-ray crystallography or nuclear magnetic resonance ( NMR ) spectroscopy ."],
  "extracted_information": {
    "interaction_type": "increases_activity",
    "negative_information": false,
    "participant_a": {
      "entity_text": "BTK",
      "entity_type": "protein",
      "identifier": "Uniprot:Q06187",
      "in_model": true
    },
    "participant_b": {
      "entity_text": "IK",
      "entity_type": "protein",
      "identifier": "Uniprot:Q13123",
      "in_model": false
    }
  },
  "fries_provenance": [
    {
      "cmu-sentence-epistemic-status": "implication",
      "cmu-sentence-epistemic-value": 0.6,
      "component": "REACH",
      "frame-file": "PMC3747153.uaz.events",
      "frame-id": "evem-PMC3747153-UAZ-r1-100-4-69",
      "passage-id": "pass-PMC3747153-UAZ-r1-100",
      "passage-number": 100,
      "passage-section-id": "s4",
      "passage-section-name": "N/A",
      "sentence": "BTK induced phosphorylation is mandatory for optimal nuclear localization and transcription factor function of IK in human cells .",
      "text": "BTK induced phosphorylation is mandatory for optimal nuclear localization and transcription factor function of IK",
      "uaz-sentence": "BTK induced phosphorylation is mandatory for optimal nuclear localization and transcription factor function of IK in human cells .",
      "uaz-sentence-start": 722
    },
    {
      "cmu-sentence-epistemic-status": "implication",
      "cmu-sentence-epistemic-value": 0.6,
      "component": "REACH",
      "frame-file": "PMC3747153.uaz.events",
      "frame-id": "evem-PMC3747153-UAZ-r1-102-4-79",
      "passage-id": "pass-PMC3747153-UAZ-r1-102",
      "passage-number": 102,
      "passage-section-id": "s4",
      "passage-section-name": "N/A",
      "sentence": "The future elucidation of the structural basis of IK activation by BTK induced serine phosphorylation will require a 3-D structure determination of IK at atomic resolution before and after phosphorylation using X-ray crystallography or nuclear magnetic resonance ( NMR ) spectroscopy .",
      "text": "IK activation by BTK",
      "uaz-sentence": "The future elucidation of the structural basis of IK activation by BTK induced serine phosphorylation will require a 3-D structure determination of IK at atomic resolution before and after phosphorylation using X-ray crystallography or nuclear magnetic resonance ( NMR ) spectroscopy .",
      "uaz-sentence-start": 621
    }
  ],
  "model_relation": "extension",
  "pmc_id": "PMC3747153",
  "reader_type": "machine",
  "reading_complete": "2015-06-15T23:25:19Z",
  "reading_started": "2015-06-15T23:25:14Z",
  "submitter": "FRIES"
}
