{
  "evidence": ["BMP-7 stimulates synthesis of aggrecan ( the chief proteoglycan of cartilage ) and type II collagen                               as well as CD44 and hyaluronan synthase-2                           in bovine and human articular chondrocytes .","BMP-7 stimulates synthesis of aggrecan (the chief proteoglycan of cartilage) and type II collagen                               as well as CD44 and hyaluronan"],
  "extracted_information": {
    "interaction_type": "increases_activity",
    "negative_information": false,
    "participant_a": {
      "entity_text": "BMP-7",
      "entity_type": "protein",
      "identifier": "Uniprot:P18075",
      "in_model": true
    },
    "participant_b": {
      "entity_text": "hyaluronan",
      "entity_type": "chemical",
      "identifier": "CHEBI:24623",
      "in_model": false
    }
  },
  "fries_provenance": [
    {
      "component": "REACH",
      "frame-file": "PMC2172010.uaz.events",
      "frame-id": "evem-PMC2172010-UAZ-r1-10-1-20",
      "passage-id": "pass-PMC2172010-UAZ-r1-10",
      "passage-number": 10,
      "passage-section-id": "N/A",
      "passage-section-name": "N/A",
      "sentence": "BMP-7 stimulates synthesis of aggrecan ( the chief proteoglycan of cartilage ) and type II collagen                               as well as CD44 and hyaluronan synthase-2                           in bovine and human articular chondrocytes .",
      "text": "BMP-7 stimulates synthesis of aggrecan (the chief proteoglycan of cartilage) and type II collagen                               as well as CD44 and hyaluronan",
      "uaz-sentence": "BMP-7 stimulates synthesis of aggrecan ( the chief proteoglycan of cartilage ) and type II collagen                               as well as CD44 and hyaluronan synthase-2                           in bovine and human articular chondrocytes .",
      "uaz-sentence-start": 102
    }
  ],
  "model_relation": "extension",
  "pmc_id": "PMC2172010",
  "reader_type": "machine",
  "reading_complete": "2015-06-15T19:37:41Z",
  "reading_started": "2015-06-15T19:37:36Z",
  "submitter": "FRIES"
}
