{
    "frames": [
        {
            "end-pos": {
                "context-end": "EETs/1", 
                "object-type": "relative-pos", 
                "offset": 8, 
                "reference": "sent-PMC3382602-medscan-4"
            }, 
            "frame-id": "ment-PMC3382602-cmu-junsys-10", 
            "frame-type": "entity-mention", 
            "object-meta": {
                "component": "Jun-System", 
                "object-type": "meta-info", 
                "organization": "CMU"
            }, 
            "object-type": "frame", 
            "sentence": "sent-PMC3382602-medscan-4", 
            "start-pos": {
                "context-start": "EETs/1", 
                "object-type": "relative-pos", 
                "offset": 4, 
                "reference": "sent-PMC3382602-medscan-4"
            }, 
            "text": "EETs", 
            "xrefs": []
        }, 
        {
            "end-pos": {
                "context-end": "channels/1", 
                "object-type": "relative-pos", 
                "offset": 85, 
                "reference": "sent-PMC3382602-medscan-4"
            }, 
            "frame-id": "ment-PMC3382602-cmu-junsys-13", 
            "frame-type": "entity-mention", 
            "object-meta": {
                "component": "Jun-System", 
                "object-type": "meta-info", 
                "organization": "CMU"
            }, 
            "object-type": "frame", 
            "sentence": "sent-PMC3382602-medscan-4", 
            "start-pos": {
                "context-start": "channels/1", 
                "object-type": "relative-pos", 
                "offset": 77, 
                "reference": "sent-PMC3382602-medscan-4"
            }, 
            "text": "channels", 
            "xrefs": []
        }, 
        {
            "end-pos": {
                "context-end": "proliferation/1", 
                "object-type": "relative-pos", 
                "offset": 108, 
                "reference": "sent-PMC3382602-medscan-18"
            }, 
            "frame-id": "ment-PMC3382602-cmu-junsys-38", 
            "frame-type": "entity-mention", 
            "object-meta": {
                "component": "Jun-System", 
                "object-type": "meta-info", 
                "organization": "CMU"
            }, 
            "object-type": "frame", 
            "sentence": "sent-PMC3382602-medscan-18", 
            "start-pos": {
                "context-start": "proliferation/1", 
                "object-type": "relative-pos", 
                "offset": 95, 
                "reference": "sent-PMC3382602-medscan-18"
            }, 
            "text": "proliferation", 
            "xrefs": []
        }, 
        {
            "end-pos": {
                "context-end": "expression/1", 
                "object-type": "relative-pos", 
                "offset": 66, 
                "reference": "sent-PMC3382602-medscan-19"
            }, 
            "frame-id": "ment-PMC3382602-cmu-junsys-41", 
            "frame-type": "entity-mention", 
            "object-meta": {
                "component": "Jun-System", 
                "object-type": "meta-info", 
                "organization": "CMU"
            }, 
            "object-type": "frame", 
            "sentence": "sent-PMC3382602-medscan-19", 
            "start-pos": {
                "context-start": "expression/1", 
                "object-type": "relative-pos", 
                "offset": 56, 
                "reference": "sent-PMC3382602-medscan-19"
            }, 
            "text": "expression", 
            "xrefs": []
        }, 
        {
            "end-pos": {
                "context-end": "activity/1", 
                "object-type": "relative-pos", 
                "offset": 78, 
                "reference": "sent-PMC3382602-medscan-27"
            }, 
            "frame-id": "ment-PMC3382602-cmu-junsys-64", 
            "frame-type": "entity-mention", 
            "object-meta": {
                "component": "Jun-System", 
                "object-type": "meta-info", 
                "organization": "CMU"
            }, 
            "object-type": "frame", 
            "sentence": "sent-PMC3382602-medscan-27", 
            "start-pos": {
                "context-start": "activity/1", 
                "object-type": "relative-pos", 
                "offset": 70, 
                "reference": "sent-PMC3382602-medscan-27"
            }, 
            "text": "activity", 
            "xrefs": []
        }, 
        {
            "end-pos": {
                "context-end": "overexpression/1", 
                "object-type": "relative-pos", 
                "offset": 48, 
                "reference": "sent-PMC3382602-medscan-47"
            }, 
            "frame-id": "ment-PMC3382602-cmu-junsys-106", 
            "frame-type": "entity-mention", 
            "object-meta": {
                "component": "Jun-System", 
                "object-type": "meta-info", 
                "organization": "CMU"
            }, 
            "object-type": "frame", 
            "sentence": "sent-PMC3382602-medscan-47", 
            "start-pos": {
                "context-start": "overexpression/1", 
                "object-type": "relative-pos", 
                "offset": 34, 
                "reference": "sent-PMC3382602-medscan-47"
            }, 
            "text": "overexpression", 
            "xrefs": []
        }, 
        {
            "end-pos": {
                "object-type": "relative-pos", 
                "offset": -1, 
                "reference": "NOT LINKED"
            }, 
            "frame-id": "ment-PMC3382602-cmu-junsys-108", 
            "frame-type": "entity-mention", 
            "object-meta": {
                "component": "Jun-System", 
                "object-type": "meta-info", 
                "organization": "CMU"
            }, 
            "object-type": "frame", 
            "sentence": "NOT LINKED", 
            "start-pos": {
                "object-type": "relative-pos", 
                "offset": -1, 
                "reference": "NOT LINKED"
            }, 
            "text": "expression", 
            "xrefs": []
        }, 
        {
            "end-pos": {
                "context-end": "proliferation/1", 
                "object-type": "relative-pos", 
                "offset": 80, 
                "reference": "sent-PMC3382602-medscan-65"
            }, 
            "frame-id": "ment-PMC3382602-cmu-junsys-140", 
            "frame-type": "entity-mention", 
            "object-meta": {
                "component": "Jun-System", 
                "object-type": "meta-info", 
                "organization": "CMU"
            }, 
            "object-type": "frame", 
            "sentence": "sent-PMC3382602-medscan-65", 
            "start-pos": {
                "context-start": "proliferation/1", 
                "object-type": "relative-pos", 
                "offset": 67, 
                "reference": "sent-PMC3382602-medscan-65"
            }, 
            "text": "proliferation", 
            "xrefs": []
        }, 
        {
            "end-pos": {
                "context-end": "percentage/1", 
                "object-type": "relative-pos", 
                "offset": 54, 
                "reference": "sent-PMC3382602-medscan-67"
            }, 
            "frame-id": "ment-PMC3382602-cmu-junsys-150", 
            "frame-type": "entity-mention", 
            "object-meta": {
                "component": "Jun-System", 
                "object-type": "meta-info", 
                "organization": "CMU"
            }, 
            "object-type": "frame", 
            "sentence": "sent-PMC3382602-medscan-67", 
            "start-pos": {
                "context-start": "percentage/1", 
                "object-type": "relative-pos", 
                "offset": 44, 
                "reference": "sent-PMC3382602-medscan-67"
            }, 
            "text": "percentage", 
            "xrefs": []
        }, 
        {
            "end-pos": {
                "context-end": "cells/1", 
                "object-type": "relative-pos", 
                "offset": 131, 
                "reference": "sent-PMC3382602-medscan-68"
            }, 
            "frame-id": "ment-PMC3382602-cmu-junsys-152", 
            "frame-type": "entity-mention", 
            "object-meta": {
                "component": "Jun-System", 
                "object-type": "meta-info", 
                "organization": "CMU"
            }, 
            "object-type": "frame", 
            "sentence": "sent-PMC3382602-medscan-68", 
            "start-pos": {
                "context-start": "cells/1", 
                "object-type": "relative-pos", 
                "offset": 126, 
                "reference": "sent-PMC3382602-medscan-68"
            }, 
            "text": "cells", 
            "xrefs": []
        }, 
        {
            "end-pos": {
                "context-end": "overexpression/1", 
                "object-type": "relative-pos", 
                "offset": 21, 
                "reference": "sent-PMC3382602-medscan-86"
            }, 
            "frame-id": "ment-PMC3382602-cmu-junsys-202", 
            "frame-type": "entity-mention", 
            "object-meta": {
                "component": "Jun-System", 
                "object-type": "meta-info", 
                "organization": "CMU"
            }, 
            "object-type": "frame", 
            "sentence": "sent-PMC3382602-medscan-86", 
            "start-pos": {
                "context-start": "overexpression/1", 
                "object-type": "relative-pos", 
                "offset": 7, 
                "reference": "sent-PMC3382602-medscan-86"
            }, 
            "text": "overexpression", 
            "xrefs": []
        }, 
        {
            "end-pos": {
                "context-end": "phosphatidylinositol-3K/1", 
                "object-type": "relative-pos", 
                "offset": 111, 
                "reference": "sent-PMC3382602-medscan-89"
            }, 
            "frame-id": "ment-PMC3382602-cmu-junsys-204", 
            "frame-type": "entity-mention", 
            "object-meta": {
                "component": "Jun-System", 
                "object-type": "meta-info", 
                "organization": "CMU"
            }, 
            "object-type": "frame", 
            "sentence": "sent-PMC3382602-medscan-89", 
            "start-pos": {
                "context-start": "phosphatidylinositol-3K/1", 
                "object-type": "relative-pos", 
                "offset": 88, 
                "reference": "sent-PMC3382602-medscan-89"
            }, 
            "text": "phosphatidylinositol-3K", 
            "xrefs": []
        }, 
        {
            "end-pos": {
                "context-end": "expression/1", 
                "object-type": "relative-pos", 
                "offset": 63, 
                "reference": "sent-PMC3382602-medscan-88"
            }, 
            "frame-id": "ment-PMC3382602-cmu-junsys-207", 
            "frame-type": "entity-mention", 
            "object-meta": {
                "component": "Jun-System", 
                "object-type": "meta-info", 
                "organization": "CMU"
            }, 
            "object-type": "frame", 
            "sentence": "sent-PMC3382602-medscan-88", 
            "start-pos": {
                "context-start": "expression/1", 
                "object-type": "relative-pos", 
                "offset": 53, 
                "reference": "sent-PMC3382602-medscan-88"
            }, 
            "text": "expression", 
            "xrefs": []
        }, 
        {
            "end-pos": {
                "context-end": "phosphatidylinositol-3K/1", 
                "object-type": "relative-pos", 
                "offset": 174, 
                "reference": "sent-PMC3382602-medscan-88"
            }, 
            "frame-id": "ment-PMC3382602-cmu-junsys-212", 
            "frame-type": "entity-mention", 
            "object-meta": {
                "component": "Jun-System", 
                "object-type": "meta-info", 
                "organization": "CMU"
            }, 
            "object-type": "frame", 
            "sentence": "sent-PMC3382602-medscan-88", 
            "start-pos": {
                "context-start": "phosphatidylinositol-3K/1", 
                "object-type": "relative-pos", 
                "offset": 151, 
                "reference": "sent-PMC3382602-medscan-88"
            }, 
            "text": "phosphatidylinositol-3K", 
            "xrefs": []
        }, 
        {
            "end-pos": {
                "context-end": "pathways/1", 
                "object-type": "relative-pos", 
                "offset": 234, 
                "reference": "sent-PMC3382602-medscan-88"
            }, 
            "frame-id": "ment-PMC3382602-cmu-junsys-214", 
            "frame-type": "entity-mention", 
            "object-meta": {
                "component": "Jun-System", 
                "object-type": "meta-info", 
                "organization": "CMU"
            }, 
            "object-type": "frame", 
            "sentence": "sent-PMC3382602-medscan-88", 
            "start-pos": {
                "context-start": "pathways/1", 
                "object-type": "relative-pos", 
                "offset": 226, 
                "reference": "sent-PMC3382602-medscan-88"
            }, 
            "text": "pathways", 
            "xrefs": []
        }, 
        {
            "end-pos": {
                "context-end": "which/1", 
                "object-type": "relative-pos", 
                "offset": 241, 
                "reference": "sent-PMC3382602-medscan-88"
            }, 
            "frame-id": "ment-PMC3382602-cmu-junsys-215", 
            "frame-type": "entity-mention", 
            "object-meta": {
                "component": "Jun-System", 
                "object-type": "meta-info", 
                "organization": "CMU"
            }, 
            "object-type": "frame", 
            "sentence": "sent-PMC3382602-medscan-88", 
            "start-pos": {
                "context-start": "which/1", 
                "object-type": "relative-pos", 
                "offset": 236, 
                "reference": "sent-PMC3382602-medscan-88"
            }, 
            "text": "which", 
            "xrefs": []
        }, 
        {
            "end-pos": {
                "context-end": "overexpression/1", 
                "object-type": "relative-pos", 
                "offset": 35, 
                "reference": "sent-PMC3382602-medscan-89"
            }, 
            "frame-id": "ment-PMC3382602-cmu-junsys-218", 
            "frame-type": "entity-mention", 
            "object-meta": {
                "component": "Jun-System", 
                "object-type": "meta-info", 
                "organization": "CMU"
            }, 
            "object-type": "frame", 
            "sentence": "sent-PMC3382602-medscan-89", 
            "start-pos": {
                "context-start": "overexpression/1", 
                "object-type": "relative-pos", 
                "offset": 21, 
                "reference": "sent-PMC3382602-medscan-89"
            }, 
            "text": "overexpression", 
            "xrefs": []
        }, 
        {
            "end-pos": {
                "context-end": "phosphatidylinositol-3K/1", 
                "object-type": "relative-pos", 
                "offset": 54, 
                "reference": "sent-PMC3382602-medscan-91"
            }, 
            "frame-id": "ment-PMC3382602-cmu-junsys-220", 
            "frame-type": "entity-mention", 
            "object-meta": {
                "component": "Jun-System", 
                "object-type": "meta-info", 
                "organization": "CMU"
            }, 
            "object-type": "frame", 
            "sentence": "sent-PMC3382602-medscan-91", 
            "start-pos": {
                "context-start": "phosphatidylinositol-3K/1", 
                "object-type": "relative-pos", 
                "offset": 31, 
                "reference": "sent-PMC3382602-medscan-91"
            }, 
            "text": "phosphatidylinositol-3K", 
            "xrefs": []
        }, 
        {
            "end-pos": {
                "context-end": "expression/1", 
                "object-type": "relative-pos", 
                "offset": 35, 
                "reference": "sent-PMC3382602-medscan-89"
            }, 
            "frame-id": "ment-PMC3382602-cmu-junsys-223", 
            "frame-type": "entity-mention", 
            "object-meta": {
                "component": "Jun-System", 
                "object-type": "meta-info", 
                "organization": "CMU"
            }, 
            "object-type": "frame", 
            "sentence": "sent-PMC3382602-medscan-89", 
            "start-pos": {
                "context-start": "expression/1", 
                "object-type": "relative-pos", 
                "offset": 25, 
                "reference": "sent-PMC3382602-medscan-89"
            }, 
            "text": "expression", 
            "xrefs": []
        }, 
        {
            "end-pos": {
                "context-end": "which/1", 
                "object-type": "relative-pos", 
                "offset": 59, 
                "reference": "sent-PMC3382602-medscan-90"
            }, 
            "frame-id": "ment-PMC3382602-cmu-junsys-225", 
            "frame-type": "entity-mention", 
            "object-meta": {
                "component": "Jun-System", 
                "object-type": "meta-info", 
                "organization": "CMU"
            }, 
            "object-type": "frame", 
            "sentence": "sent-PMC3382602-medscan-90", 
            "start-pos": {
                "context-start": "which/1", 
                "object-type": "relative-pos", 
                "offset": 54, 
                "reference": "sent-PMC3382602-medscan-90"
            }, 
            "text": "which", 
            "xrefs": []
        }, 
        {
            "end-pos": {
                "context-end": "expression/1", 
                "object-type": "relative-pos", 
                "offset": 21, 
                "reference": "sent-PMC3382602-medscan-127"
            }, 
            "frame-id": "ment-PMC3382602-cmu-junsys-277", 
            "frame-type": "entity-mention", 
            "object-meta": {
                "component": "Jun-System", 
                "object-type": "meta-info", 
                "organization": "CMU"
            }, 
            "object-type": "frame", 
            "sentence": "sent-PMC3382602-medscan-127", 
            "start-pos": {
                "context-start": "expression/1", 
                "object-type": "relative-pos", 
                "offset": 11, 
                "reference": "sent-PMC3382602-medscan-127"
            }, 
            "text": "expression", 
            "xrefs": []
        }, 
        {
            "end-pos": {
                "object-type": "relative-pos", 
                "offset": -1, 
                "reference": "NOT LINKED"
            }, 
            "frame-id": "ment-PMC3382602-cmu-junsys-298", 
            "frame-type": "entity-mention", 
            "object-meta": {
                "component": "Jun-System", 
                "object-type": "meta-info", 
                "organization": "CMU"
            }, 
            "object-type": "frame", 
            "sentence": "NOT LINKED", 
            "start-pos": {
                "object-type": "relative-pos", 
                "offset": -1, 
                "reference": "NOT LINKED"
            }, 
            "text": "treatment", 
            "xrefs": []
        }, 
        {
            "end-pos": {
                "object-type": "relative-pos", 
                "offset": -1, 
                "reference": "NOT LINKED"
            }, 
            "frame-id": "ment-PMC3382602-cmu-junsys-299", 
            "frame-type": "entity-mention", 
            "object-meta": {
                "component": "Jun-System", 
                "object-type": "meta-info", 
                "organization": "CMU"
            }, 
            "object-type": "frame", 
            "sentence": "NOT LINKED", 
            "start-pos": {
                "object-type": "relative-pos", 
                "offset": -1, 
                "reference": "NOT LINKED"
            }, 
            "text": "metastasis", 
            "xrefs": []
        }, 
        {
            "end-pos": {
                "context-end": "microRNAs/1", 
                "object-type": "relative-pos", 
                "offset": 37, 
                "reference": "sent-PMC3382602-medscan-157"
            }, 
            "frame-id": "ment-PMC3382602-cmu-junsys-310", 
            "frame-type": "entity-mention", 
            "object-meta": {
                "component": "Jun-System", 
                "object-type": "meta-info", 
                "organization": "CMU"
            }, 
            "object-type": "frame", 
            "sentence": "sent-PMC3382602-medscan-157", 
            "start-pos": {
                "context-start": "microRNAs/1", 
                "object-type": "relative-pos", 
                "offset": 28, 
                "reference": "sent-PMC3382602-medscan-157"
            }, 
            "text": "microRNAs", 
            "xrefs": []
        }, 
        {
            "end-pos": {
                "context-end": "expression/1", 
                "object-type": "relative-pos", 
                "offset": 61, 
                "reference": "sent-PMC3382602-medscan-157"
            }, 
            "frame-id": "ment-PMC3382602-cmu-junsys-311", 
            "frame-type": "entity-mention", 
            "object-meta": {
                "component": "Jun-System", 
                "object-type": "meta-info", 
                "organization": "CMU"
            }, 
            "object-type": "frame", 
            "sentence": "sent-PMC3382602-medscan-157", 
            "start-pos": {
                "context-start": "expression/1", 
                "object-type": "relative-pos", 
                "offset": 51, 
                "reference": "sent-PMC3382602-medscan-157"
            }, 
            "text": "expression", 
            "xrefs": []
        }, 
        {
            "end-pos": {
                "context-end": "RAS/1", 
                "object-type": "relative-pos", 
                "offset": 151, 
                "reference": "sent-PMC3382602-medscan-161"
            }, 
            "frame-id": "ment-PMC3382602-cmu-junsys-315", 
            "frame-type": "entity-mention", 
            "object-meta": {
                "component": "Jun-System", 
                "object-type": "meta-info", 
                "organization": "CMU"
            }, 
            "object-type": "frame", 
            "sentence": "sent-PMC3382602-medscan-161", 
            "start-pos": {
                "context-start": "RAS/1", 
                "object-type": "relative-pos", 
                "offset": 148, 
                "reference": "sent-PMC3382602-medscan-161"
            }, 
            "text": "RAS", 
            "xrefs": []
        }, 
        {
            "end-pos": {
                "context-end": "study/1", 
                "object-type": "relative-pos", 
                "offset": 18, 
                "reference": "sent-PMC3382602-medscan-165"
            }, 
            "frame-id": "ment-PMC3382602-cmu-junsys-334", 
            "frame-type": "entity-mention", 
            "object-meta": {
                "component": "Jun-System", 
                "object-type": "meta-info", 
                "organization": "CMU"
            }, 
            "object-type": "frame", 
            "sentence": "sent-PMC3382602-medscan-165", 
            "start-pos": {
                "context-start": "study/1", 
                "object-type": "relative-pos", 
                "offset": 13, 
                "reference": "sent-PMC3382602-medscan-165"
            }, 
            "text": "study", 
            "xrefs": []
        }, 
        {
            "end-pos": {
                "context-end": "overexpression/1", 
                "object-type": "relative-pos", 
                "offset": 45, 
                "reference": "sent-PMC3382602-medscan-165"
            }, 
            "frame-id": "ment-PMC3382602-cmu-junsys-335", 
            "frame-type": "entity-mention", 
            "object-meta": {
                "component": "Jun-System", 
                "object-type": "meta-info", 
                "organization": "CMU"
            }, 
            "object-type": "frame", 
            "sentence": "sent-PMC3382602-medscan-165", 
            "start-pos": {
                "context-start": "overexpression/1", 
                "object-type": "relative-pos", 
                "offset": 31, 
                "reference": "sent-PMC3382602-medscan-165"
            }, 
            "text": "overexpression", 
            "xrefs": []
        }, 
        {
            "end-pos": {
                "context-end": "proliferation/1", 
                "object-type": "relative-pos", 
                "offset": 119, 
                "reference": "sent-PMC3382602-medscan-168"
            }, 
            "frame-id": "ment-PMC3382602-cmu-junsys-339", 
            "frame-type": "entity-mention", 
            "object-meta": {
                "component": "Jun-System", 
                "object-type": "meta-info", 
                "organization": "CMU"
            }, 
            "object-type": "frame", 
            "sentence": "sent-PMC3382602-medscan-168", 
            "start-pos": {
                "context-start": "proliferation/1", 
                "object-type": "relative-pos", 
                "offset": 106, 
                "reference": "sent-PMC3382602-medscan-168"
            }, 
            "text": "proliferation", 
            "xrefs": []
        }, 
        {
            "end-pos": {
                "context-end": "growth/1", 
                "object-type": "relative-pos", 
                "offset": 183, 
                "reference": "sent-PMC3382602-medscan-165"
            }, 
            "frame-id": "ment-PMC3382602-cmu-junsys-340", 
            "frame-type": "entity-mention", 
            "object-meta": {
                "component": "Jun-System", 
                "object-type": "meta-info", 
                "organization": "CMU"
            }, 
            "object-type": "frame", 
            "sentence": "sent-PMC3382602-medscan-165", 
            "start-pos": {
                "context-start": "growth/1", 
                "object-type": "relative-pos", 
                "offset": 177, 
                "reference": "sent-PMC3382602-medscan-165"
            }, 
            "text": "growth", 
            "xrefs": []
        }, 
        {
            "end-pos": {
                "context-end": "treatment/1", 
                "object-type": "relative-pos", 
                "offset": 45, 
                "reference": "sent-PMC3382602-medscan-169"
            }, 
            "frame-id": "ment-PMC3382602-cmu-junsys-349", 
            "frame-type": "entity-mention", 
            "object-meta": {
                "component": "Jun-System", 
                "object-type": "meta-info", 
                "organization": "CMU"
            }, 
            "object-type": "frame", 
            "sentence": "sent-PMC3382602-medscan-169", 
            "start-pos": {
                "context-start": "treatment/1", 
                "object-type": "relative-pos", 
                "offset": 36, 
                "reference": "sent-PMC3382602-medscan-169"
            }, 
            "text": "treatment", 
            "xrefs": []
        }, 
        {
            "end-pos": {
                "context-end": "growth/1", 
                "object-type": "relative-pos", 
                "offset": 82, 
                "reference": "sent-PMC3382602-medscan-169"
            }, 
            "frame-id": "ment-PMC3382602-cmu-junsys-350", 
            "frame-type": "entity-mention", 
            "object-meta": {
                "component": "Jun-System", 
                "object-type": "meta-info", 
                "organization": "CMU"
            }, 
            "object-type": "frame", 
            "sentence": "sent-PMC3382602-medscan-169", 
            "start-pos": {
                "context-start": "growth/1", 
                "object-type": "relative-pos", 
                "offset": 76, 
                "reference": "sent-PMC3382602-medscan-169"
            }, 
            "text": "growth", 
            "xrefs": []
        }, 
        {
            "end-pos": {
                "context-end": "which/1", 
                "object-type": "relative-pos", 
                "offset": 93, 
                "reference": "sent-PMC3382602-medscan-179"
            }, 
            "frame-id": "ment-PMC3382602-cmu-junsys-381", 
            "frame-type": "entity-mention", 
            "object-meta": {
                "component": "Jun-System", 
                "object-type": "meta-info", 
                "organization": "CMU"
            }, 
            "object-type": "frame", 
            "sentence": "sent-PMC3382602-medscan-179", 
            "start-pos": {
                "context-start": "which/1", 
                "object-type": "relative-pos", 
                "offset": 88, 
                "reference": "sent-PMC3382602-medscan-179"
            }, 
            "text": "which", 
            "xrefs": []
        }, 
        {
            "end-pos": {
                "context-end": "mutant/1", 
                "object-type": "relative-pos", 
                "offset": 36, 
                "reference": "sent-PMC3382602-medscan-197"
            }, 
            "frame-id": "ment-PMC3382602-cmu-junsys-408", 
            "frame-type": "entity-mention", 
            "object-meta": {
                "component": "Jun-System", 
                "object-type": "meta-info", 
                "organization": "CMU"
            }, 
            "object-type": "frame", 
            "sentence": "sent-PMC3382602-medscan-197", 
            "start-pos": {
                "context-start": "mutant/1", 
                "object-type": "relative-pos", 
                "offset": 30, 
                "reference": "sent-PMC3382602-medscan-197"
            }, 
            "text": "mutant", 
            "xrefs": []
        }, 
        {
            "end-pos": {
                "object-type": "relative-pos", 
                "offset": -1, 
                "reference": "NOT LINKED"
            }, 
            "frame-id": "ment-PMC3382602-cmu-junsys-409", 
            "frame-type": "entity-mention", 
            "object-meta": {
                "component": "Jun-System", 
                "object-type": "meta-info", 
                "organization": "CMU"
            }, 
            "object-type": "frame", 
            "sentence": "NOT LINKED", 
            "start-pos": {
                "object-type": "relative-pos", 
                "offset": -1, 
                "reference": "NOT LINKED"
            }, 
            "text": "which", 
            "xrefs": []
        }, 
        {
            "end-pos": {
                "context-end": "plasmids/1", 
                "object-type": "relative-pos", 
                "offset": 35, 
                "reference": "sent-PMC3382602-medscan-198"
            }, 
            "frame-id": "ment-PMC3382602-cmu-junsys-412", 
            "frame-type": "entity-mention", 
            "object-meta": {
                "component": "Jun-System", 
                "object-type": "meta-info", 
                "organization": "CMU"
            }, 
            "object-type": "frame", 
            "sentence": "sent-PMC3382602-medscan-198", 
            "start-pos": {
                "context-start": "plasmids/1", 
                "object-type": "relative-pos", 
                "offset": 27, 
                "reference": "sent-PMC3382602-medscan-198"
            }, 
            "text": "plasmids", 
            "xrefs": []
        }, 
        {
            "end-pos": {
                "object-type": "relative-pos", 
                "offset": -1, 
                "reference": "NOT LINKED"
            }, 
            "frame-id": "ment-PMC3382602-cmu-junsys-413", 
            "frame-type": "entity-mention", 
            "object-meta": {
                "component": "Jun-System", 
                "object-type": "meta-info", 
                "organization": "CMU"
            }, 
            "object-type": "frame", 
            "sentence": "NOT LINKED", 
            "start-pos": {
                "object-type": "relative-pos", 
                "offset": -1, 
                "reference": "NOT LINKED"
            }, 
            "text": "which", 
            "xrefs": []
        }, 
        {
            "end-pos": {
                "context-end": "construct/1", 
                "object-type": "relative-pos", 
                "offset": 12, 
                "reference": "sent-PMC3382602-medscan-202"
            }, 
            "frame-id": "ment-PMC3382602-cmu-junsys-414", 
            "frame-type": "entity-mention", 
            "object-meta": {
                "component": "Jun-System", 
                "object-type": "meta-info", 
                "organization": "CMU"
            }, 
            "object-type": "frame", 
            "sentence": "sent-PMC3382602-medscan-202", 
            "start-pos": {
                "context-start": "construct/1", 
                "object-type": "relative-pos", 
                "offset": 3, 
                "reference": "sent-PMC3382602-medscan-202"
            }, 
            "text": "construct", 
            "xrefs": []
        }, 
        {
            "end-pos": {
                "object-type": "relative-pos", 
                "offset": -1, 
                "reference": "NOT LINKED"
            }, 
            "frame-id": "ment-PMC3382602-cmu-junsys-415", 
            "frame-type": "entity-mention", 
            "object-meta": {
                "component": "Jun-System", 
                "object-type": "meta-info", 
                "organization": "CMU"
            }, 
            "object-type": "frame", 
            "sentence": "NOT LINKED", 
            "start-pos": {
                "object-type": "relative-pos", 
                "offset": -1, 
                "reference": "NOT LINKED"
            }, 
            "text": "which", 
            "xrefs": []
        }, 
        {
            "arguments": [
                {
                    "arg": "ment-PMC3382602-cmu-junsys-10", 
                    "object-type": "argument", 
                    "type": "arg0"
                }, 
                {
                    "arg": "ment-PMC3382602-cmu-junsys-13", 
                    "object-type": "argument", 
                    "type": "arg1"
                }
            ], 
            "context": "EETs released from the endothelium activated calcium-sensitive potassium channels", 
            "end-pos": {
                "context-end": "activated/1", 
                "object-type": "relative-pos", 
                "offset": 48, 
                "reference": "sent-PMC3382602-medscan-4"
            }, 
            "frame-id": "eve-PMC3382602-cmu-junsys-516", 
            "frame-type": "event-mention", 
            "object-meta": {
                "component": "Jun-System", 
                "object-type": "meta-info", 
                "organization": "CMU"
            }, 
            "object-type": "frame", 
            "sentence": "sent-PMC3382602-medscan-4", 
            "start-pos": {
                "context-start": "activated/1", 
                "object-type": "relative-pos", 
                "offset": 39, 
                "reference": "sent-PMC3382602-medscan-4"
            }, 
            "text": "activated", 
            "type": "activate"
        }, 
        {
            "arguments": [
                {
                    "arg": "ment-PMC3382602-cmu-medscan-36", 
                    "object-type": "argument", 
                    "type": "arg0"
                }, 
                {
                    "arg": "ment-PMC3382602-cmu-junsys-38", 
                    "object-type": "argument", 
                    "type": "arg1"
                }
            ], 
            "context": "MicroRNA-101 is downregulated in bladder transitional cell carcinoma tissues and inhibits cell proliferation", 
            "end-pos": {
                "context-end": "inhibits/1", 
                "object-type": "relative-pos", 
                "offset": 89, 
                "reference": "sent-PMC3382602-medscan-18"
            }, 
            "frame-id": "eve-PMC3382602-cmu-junsys-517", 
            "frame-type": "event-mention", 
            "object-meta": {
                "component": "Jun-System", 
                "object-type": "meta-info", 
                "organization": "CMU"
            }, 
            "object-type": "frame", 
            "sentence": "sent-PMC3382602-medscan-18", 
            "start-pos": {
                "context-start": "inhibits/1", 
                "object-type": "relative-pos", 
                "offset": 81, 
                "reference": "sent-PMC3382602-medscan-18"
            }, 
            "text": "inhibits", 
            "type": "inhibit"
        }, 
        {
            "arguments": [
                {
                    "arg": "ment-PMC3382602-cmu-medscan-40", 
                    "object-type": "argument", 
                    "type": "arg0"
                }, 
                {
                    "arg": "ment-PMC3382602-cmu-junsys-41", 
                    "object-type": "argument", 
                    "type": "arg1"
                }
            ], 
            "context": "miRNA-let-7a inhibits the expression", 
            "end-pos": {
                "context-end": "inhibits/1", 
                "object-type": "relative-pos", 
                "offset": 51, 
                "reference": "sent-PMC3382602-medscan-19"
            }, 
            "frame-id": "eve-PMC3382602-cmu-junsys-518", 
            "frame-type": "event-mention", 
            "object-meta": {
                "component": "Jun-System", 
                "object-type": "meta-info", 
                "organization": "CMU"
            }, 
            "object-type": "frame", 
            "sentence": "sent-PMC3382602-medscan-19", 
            "start-pos": {
                "context-start": "inhibits/1", 
                "object-type": "relative-pos", 
                "offset": 43, 
                "reference": "sent-PMC3382602-medscan-19"
            }, 
            "text": "inhibits", 
            "type": "inhibit"
        }, 
        {
            "arguments": [
                {
                    "arg": "ment-PMC3382602-cmu-junsys-64", 
                    "object-type": "argument", 
                    "type": "arg1"
                }
            ], 
            "context": "downregulation of the pMIR reporter activity", 
            "end-pos": {
                "context-end": "downregulation/1", 
                "object-type": "relative-pos", 
                "offset": 48, 
                "reference": "sent-PMC3382602-medscan-27"
            }, 
            "frame-id": "eve-PMC3382602-cmu-junsys-519", 
            "frame-type": "event-mention", 
            "object-meta": {
                "component": "Jun-System", 
                "object-type": "meta-info", 
                "organization": "CMU"
            }, 
            "object-type": "frame", 
            "sentence": "sent-PMC3382602-medscan-27", 
            "start-pos": {
                "context-start": "downregulation/1", 
                "object-type": "relative-pos", 
                "offset": 34, 
                "reference": "sent-PMC3382602-medscan-27"
            }, 
            "text": "downregulation", 
            "type": "downregulation"
        }, 
        {
            "arguments": [
                {
                    "arg": "ment-PMC3382602-cmu-junsys-106", 
                    "object-type": "argument", 
                    "type": "arg0"
                }, 
                {
                    "arg": "ment-PMC3382602-cmu-junsys-108", 
                    "object-type": "argument", 
                    "type": "arg1"
                }
            ], 
            "context": "overexpression of let-7b significantly downregulated the expression", 
            "end-pos": {
                "context-end": "downregulated/1", 
                "object-type": "relative-pos", 
                "offset": 86, 
                "reference": "sent-PMC3382602-medscan-47"
            }, 
            "frame-id": "eve-PMC3382602-cmu-junsys-520", 
            "frame-type": "event-mention", 
            "object-meta": {
                "component": "Jun-System", 
                "object-type": "meta-info", 
                "organization": "CMU"
            }, 
            "object-type": "frame", 
            "sentence": "sent-PMC3382602-medscan-47", 
            "start-pos": {
                "context-start": "downregulated/1", 
                "object-type": "relative-pos", 
                "offset": 73, 
                "reference": "sent-PMC3382602-medscan-47"
            }, 
            "text": "downregulated", 
            "type": "downregulate"
        }, 
        {
            "arguments": [
                {
                    "arg": "ment-PMC3382602-cmu-medscan-113", 
                    "object-type": "argument", 
                    "type": "arg1"
                }
            ], 
            "context": "inhibition of let-7b", 
            "end-pos": {
                "object-type": "relative-pos", 
                "offset": -1, 
                "reference": "NOT LINKED"
            }, 
            "frame-id": "eve-PMC3382602-cmu-junsys-521", 
            "frame-type": "event-mention", 
            "object-meta": {
                "component": "Jun-System", 
                "object-type": "meta-info", 
                "organization": "CMU"
            }, 
            "object-type": "frame", 
            "sentence": "NOT LINKED", 
            "start-pos": {
                "object-type": "relative-pos", 
                "offset": -1, 
                "reference": "NOT LINKED"
            }, 
            "text": "inhibition", 
            "type": "inhibit"
        }, 
        {
            "arguments": [
                {
                    "arg": "ment-PMC3382602-cmu-junsys-140", 
                    "object-type": "argument", 
                    "type": "arg1"
                }
            ], 
            "context": "inhibition of cell proliferation", 
            "end-pos": {
                "context-end": "inhibition/1", 
                "object-type": "relative-pos", 
                "offset": 43, 
                "reference": "sent-PMC3382602-medscan-64"
            }, 
            "frame-id": "eve-PMC3382602-cmu-junsys-522", 
            "frame-type": "event-mention", 
            "object-meta": {
                "component": "Jun-System", 
                "object-type": "meta-info", 
                "organization": "CMU"
            }, 
            "object-type": "frame", 
            "sentence": "sent-PMC3382602-medscan-64", 
            "start-pos": {
                "context-start": "inhibition/1", 
                "object-type": "relative-pos", 
                "offset": 33, 
                "reference": "sent-PMC3382602-medscan-64"
            }, 
            "text": "inhibition", 
            "type": "inhibit"
        }, 
        {
            "arguments": [
                {
                    "arg": "ment-PMC3382602-cmu-medscan-149", 
                    "object-type": "argument", 
                    "type": "arg0"
                }, 
                {
                    "arg": "ment-PMC3382602-cmu-junsys-150", 
                    "object-type": "argument", 
                    "type": "arg1"
                }
            ], 
            "context": "let-7b decreased the percentage", 
            "end-pos": {
                "context-end": "decreased/1", 
                "object-type": "relative-pos", 
                "offset": 39, 
                "reference": "sent-PMC3382602-medscan-67"
            }, 
            "frame-id": "eve-PMC3382602-cmu-junsys-523", 
            "frame-type": "event-mention", 
            "object-meta": {
                "component": "Jun-System", 
                "object-type": "meta-info", 
                "organization": "CMU"
            }, 
            "object-type": "frame", 
            "sentence": "sent-PMC3382602-medscan-67", 
            "start-pos": {
                "context-start": "decreased/1", 
                "object-type": "relative-pos", 
                "offset": 30, 
                "reference": "sent-PMC3382602-medscan-67"
            }, 
            "text": "decreased", 
            "type": "decrease"
        }, 
        {
            "arguments": [
                {
                    "arg": "ment-PMC3382602-cmu-medscan-149", 
                    "object-type": "argument", 
                    "type": "arg0"
                }, 
                {
                    "arg": "ment-PMC3382602-cmu-junsys-152", 
                    "object-type": "argument", 
                    "type": "arg1"
                }
            ], 
            "context": "let-7b decreased the percentage of EDU-positive cells and increased the apoptotic cells", 
            "end-pos": {
                "context-end": "increased/1", 
                "object-type": "relative-pos", 
                "offset": 90, 
                "reference": "sent-PMC3382602-medscan-67"
            }, 
            "frame-id": "eve-PMC3382602-cmu-junsys-524", 
            "frame-type": "event-mention", 
            "object-meta": {
                "component": "Jun-System", 
                "object-type": "meta-info", 
                "organization": "CMU"
            }, 
            "object-type": "frame", 
            "sentence": "sent-PMC3382602-medscan-67", 
            "start-pos": {
                "context-start": "increased/1", 
                "object-type": "relative-pos", 
                "offset": 81, 
                "reference": "sent-PMC3382602-medscan-67"
            }, 
            "text": "increased", 
            "type": "increase"
        }, 
        {
            "arguments": [
                {
                    "arg": "ment-PMC3382602-cmu-junsys-202", 
                    "object-type": "argument", 
                    "type": "arg0"
                }, 
                {
                    "arg": "ment-PMC3382602-cmu-junsys-204", 
                    "object-type": "argument", 
                    "type": "arg1"
                }
            ], 
            "context": "overexpression in MDA-MB-435 cells significantly downregulated phosphatidylinositol-3K", 
            "end-pos": {
                "object-type": "relative-pos", 
                "offset": -1, 
                "reference": "NOT LINKED"
            }, 
            "frame-id": "eve-PMC3382602-cmu-junsys-525", 
            "frame-type": "event-mention", 
            "object-meta": {
                "component": "Jun-System", 
                "object-type": "meta-info", 
                "organization": "CMU"
            }, 
            "object-type": "frame", 
            "sentence": "NOT LINKED", 
            "start-pos": {
                "object-type": "relative-pos", 
                "offset": -1, 
                "reference": "NOT LINKED"
            }, 
            "text": "downregulated", 
            "type": "downregulate"
        }, 
        {
            "arguments": [
                {
                    "arg": "ment-PMC3382602-cmu-junsys-202", 
                    "object-type": "argument", 
                    "type": "arg0"
                }, 
                {
                    "arg": "ment-PMC3382602-cmu-junsys-207", 
                    "object-type": "argument", 
                    "type": "arg1"
                }
            ], 
            "context": "overexpression in MDA-MB-435 cells significantly downregulated phosphatidylinositol-3K, pAkt, and pERK but increased Bax and nm-23 expression", 
            "end-pos": {
                "object-type": "relative-pos", 
                "offset": -1, 
                "reference": "sent-PMC3382602-medscan-86"
            }, 
            "frame-id": "eve-PMC3382602-cmu-junsys-526", 
            "frame-type": "event-mention", 
            "object-meta": {
                "component": "Jun-System", 
                "object-type": "meta-info", 
                "organization": "CMU"
            }, 
            "object-type": "frame", 
            "sentence": "sent-PMC3382602-medscan-86", 
            "start-pos": {
                "object-type": "relative-pos", 
                "offset": -1, 
                "reference": "sent-PMC3382602-medscan-86"
            }, 
            "text": "increased", 
            "type": "increase"
        }, 
        {
            "arguments": [
                {
                    "arg": "ment-PMC3382602-cmu-junsys-212", 
                    "object-type": "argument", 
                    "type": "arg1"
                }
            ], 
            "context": "activation of the phosphatidylinositol-3K", 
            "end-pos": {
                "context-end": "activation/1", 
                "object-type": "relative-pos", 
                "offset": 143, 
                "reference": "sent-PMC3382602-medscan-88"
            }, 
            "frame-id": "eve-PMC3382602-cmu-junsys-527", 
            "frame-type": "event-mention", 
            "object-meta": {
                "component": "Jun-System", 
                "object-type": "meta-info", 
                "organization": "CMU"
            }, 
            "object-type": "frame", 
            "sentence": "sent-PMC3382602-medscan-88", 
            "start-pos": {
                "context-start": "activation/1", 
                "object-type": "relative-pos", 
                "offset": 133, 
                "reference": "sent-PMC3382602-medscan-88"
            }, 
            "text": "activation", 
            "type": "activate"
        }, 
        {
            "arguments": [
                {
                    "arg": "ment-PMC3382602-cmu-junsys-218", 
                    "object-type": "argument", 
                    "type": "arg0"
                }, 
                {
                    "arg": "ment-PMC3382602-cmu-junsys-220", 
                    "object-type": "argument", 
                    "type": "arg1"
                }
            ], 
            "context": "overexpression in MDA-MB-435 cells significantly downregulated the phosphatidylinositol-3K", 
            "end-pos": {
                "context-end": "downregulated/1", 
                "object-type": "relative-pos", 
                "offset": 83, 
                "reference": "sent-PMC3382602-medscan-89"
            }, 
            "frame-id": "eve-PMC3382602-cmu-junsys-528", 
            "frame-type": "event-mention", 
            "object-meta": {
                "component": "Jun-System", 
                "object-type": "meta-info", 
                "organization": "CMU"
            }, 
            "object-type": "frame", 
            "sentence": "sent-PMC3382602-medscan-89", 
            "start-pos": {
                "context-start": "downregulated/1", 
                "object-type": "relative-pos", 
                "offset": 70, 
                "reference": "sent-PMC3382602-medscan-89"
            }, 
            "text": "downregulated", 
            "type": "downregulate"
        }, 
        {
            "arguments": [
                {
                    "arg": "ment-PMC3382602-cmu-junsys-218", 
                    "object-type": "argument", 
                    "type": "arg0"
                }, 
                {
                    "arg": "ment-PMC3382602-cmu-junsys-223", 
                    "object-type": "argument", 
                    "type": "arg1"
                }
            ], 
            "context": "overexpression in MDA-MB-435 cells significantly downregulated the phosphatidylinositol-3K, pAkt, pERK pathways but increased Bax and nm-23 expression", 
            "end-pos": {
                "object-type": "relative-pos", 
                "offset": -1, 
                "reference": "sent-PMC3382602-medscan-89"
            }, 
            "frame-id": "eve-PMC3382602-cmu-junsys-529", 
            "frame-type": "event-mention", 
            "object-meta": {
                "component": "Jun-System", 
                "object-type": "meta-info", 
                "organization": "CMU"
            }, 
            "object-type": "frame", 
            "sentence": "sent-PMC3382602-medscan-89", 
            "start-pos": {
                "object-type": "relative-pos", 
                "offset": -1, 
                "reference": "sent-PMC3382602-medscan-89"
            }, 
            "text": "increased", 
            "type": "increase"
        }, 
        {
            "arguments": [
                {
                    "arg": "ment-PMC3382602-cmu-medscan-276", 
                    "object-type": "argument", 
                    "type": "arg0"
                }, 
                {
                    "arg": "ment-PMC3382602-cmu-junsys-277", 
                    "object-type": "argument", 
                    "type": "arg1"
                }
            ], 
            "context": "let-7b can inhibit the expression", 
            "end-pos": {
                "context-end": "inhibit/1", 
                "object-type": "relative-pos", 
                "offset": 45, 
                "reference": "sent-PMC3382602-medscan-124"
            }, 
            "frame-id": "eve-PMC3382602-cmu-junsys-530", 
            "frame-type": "event-mention", 
            "object-meta": {
                "component": "Jun-System", 
                "object-type": "meta-info", 
                "organization": "CMU"
            }, 
            "object-type": "frame", 
            "sentence": "sent-PMC3382602-medscan-124", 
            "start-pos": {
                "context-start": "inhibit/1", 
                "object-type": "relative-pos", 
                "offset": 38, 
                "reference": "sent-PMC3382602-medscan-124"
            }, 
            "text": "inhibit", 
            "type": "inhibit"
        }, 
        {
            "arguments": [
                {
                    "arg": "ment-PMC3382602-cmu-junsys-298", 
                    "object-type": "argument", 
                    "type": "arg0"
                }, 
                {
                    "arg": "ment-PMC3382602-cmu-junsys-299", 
                    "object-type": "argument", 
                    "type": "arg1"
                }
            ], 
            "context": "treatment can inhibit tumor metastasis", 
            "end-pos": {
                "object-type": "relative-pos", 
                "offset": -1, 
                "reference": "NOT LINKED"
            }, 
            "frame-id": "eve-PMC3382602-cmu-junsys-531", 
            "frame-type": "event-mention", 
            "object-meta": {
                "component": "Jun-System", 
                "object-type": "meta-info", 
                "organization": "CMU"
            }, 
            "object-type": "frame", 
            "sentence": "NOT LINKED", 
            "start-pos": {
                "object-type": "relative-pos", 
                "offset": -1, 
                "reference": "NOT LINKED"
            }, 
            "text": "inhibit", 
            "type": "inhibit"
        }, 
        {
            "arguments": [
                {
                    "arg": "ment-PMC3382602-cmu-junsys-310", 
                    "object-type": "argument", 
                    "type": "arg0"
                }, 
                {
                    "arg": "ment-PMC3382602-cmu-junsys-311", 
                    "object-type": "argument", 
                    "type": "arg1"
                }
            ], 
            "context": "microRNAs regulate the expression", 
            "end-pos": {
                "context-end": "regulate/1", 
                "object-type": "relative-pos", 
                "offset": 46, 
                "reference": "sent-PMC3382602-medscan-157"
            }, 
            "frame-id": "eve-PMC3382602-cmu-junsys-532", 
            "frame-type": "event-mention", 
            "object-meta": {
                "component": "Jun-System", 
                "object-type": "meta-info", 
                "organization": "CMU"
            }, 
            "object-type": "frame", 
            "sentence": "sent-PMC3382602-medscan-157", 
            "start-pos": {
                "context-start": "regulate/1", 
                "object-type": "relative-pos", 
                "offset": 38, 
                "reference": "sent-PMC3382602-medscan-157"
            }, 
            "text": "regulate", 
            "type": "regulate"
        }, 
        {
            "arguments": [
                {
                    "arg": "ment-PMC3382602-cmu-medscan-314", 
                    "object-type": "argument", 
                    "type": "arg0"
                }, 
                {
                    "arg": "ment-PMC3382602-cmu-junsys-315", 
                    "object-type": "argument", 
                    "type": "arg1"
                }
            ], 
            "context": "let-7 regulates RAS", 
            "end-pos": {
                "context-end": "regulates/1", 
                "object-type": "relative-pos", 
                "offset": 45, 
                "reference": "sent-PMC3382602-medscan-158"
            }, 
            "frame-id": "eve-PMC3382602-cmu-junsys-533", 
            "frame-type": "event-mention", 
            "object-meta": {
                "component": "Jun-System", 
                "object-type": "meta-info", 
                "organization": "CMU"
            }, 
            "object-type": "frame", 
            "sentence": "sent-PMC3382602-medscan-158", 
            "start-pos": {
                "context-start": "regulates/1", 
                "object-type": "relative-pos", 
                "offset": 36, 
                "reference": "sent-PMC3382602-medscan-158"
            }, 
            "text": "regulates", 
            "type": "regulate"
        }, 
        {
            "arguments": [
                {
                    "arg": "ment-PMC3382602-cmu-junsys-335", 
                    "object-type": "argument", 
                    "type": "arg0"
                }, 
                {
                    "arg": "ment-PMC3382602-cmu-medscan-337", 
                    "object-type": "argument", 
                    "type": "arg1"
                }
            ], 
            "context": "overexpression of CYP2J2 or additing exogenous EETs decreased apoptosis", 
            "end-pos": {
                "context-end": "decreased/1", 
                "object-type": "relative-pos", 
                "offset": 92, 
                "reference": "sent-PMC3382602-medscan-165"
            }, 
            "frame-id": "eve-PMC3382602-cmu-junsys-534", 
            "frame-type": "event-mention", 
            "object-meta": {
                "component": "Jun-System", 
                "object-type": "meta-info", 
                "organization": "CMU"
            }, 
            "object-type": "frame", 
            "sentence": "sent-PMC3382602-medscan-165", 
            "start-pos": {
                "context-start": "decreased/1", 
                "object-type": "relative-pos", 
                "offset": 83, 
                "reference": "sent-PMC3382602-medscan-165"
            }, 
            "text": "decreased", 
            "type": "decrease"
        }, 
        {
            "arguments": [
                {
                    "arg": "ment-PMC3382602-cmu-junsys-335", 
                    "object-type": "argument", 
                    "type": "arg0"
                }, 
                {
                    "arg": "ment-PMC3382602-cmu-junsys-339", 
                    "object-type": "argument", 
                    "type": "arg1"
                }
            ], 
            "context": "overexpression of CYP2J2 or additing exogenous EETs decreased apoptosis and increased cell proliferation", 
            "end-pos": {
                "context-end": "increased/1", 
                "object-type": "relative-pos", 
                "offset": 116, 
                "reference": "sent-PMC3382602-medscan-165"
            }, 
            "frame-id": "eve-PMC3382602-cmu-junsys-535", 
            "frame-type": "event-mention", 
            "object-meta": {
                "component": "Jun-System", 
                "object-type": "meta-info", 
                "organization": "CMU"
            }, 
            "object-type": "frame", 
            "sentence": "sent-PMC3382602-medscan-165", 
            "start-pos": {
                "context-start": "increased/1", 
                "object-type": "relative-pos", 
                "offset": 107, 
                "reference": "sent-PMC3382602-medscan-165"
            }, 
            "text": "increased", 
            "type": "increase"
        }, 
        {
            "arguments": [
                {
                    "arg": "ment-PMC3382602-cmu-junsys-334", 
                    "object-type": "argument", 
                    "type": "arg0"
                }, 
                {
                    "arg": "ment-PMC3382602-cmu-junsys-340", 
                    "object-type": "argument", 
                    "type": "arg1"
                }
            ], 
            "context": "study showed that overexpression of CYP2J2 or additing exogenous EETs decreased apoptosis and increased cell proliferation in cancer cell lines and increased tumor growth", 
            "end-pos": {
                "context-end": "increased/1", 
                "object-type": "relative-pos", 
                "offset": 116, 
                "reference": "sent-PMC3382602-medscan-165"
            }, 
            "frame-id": "eve-PMC3382602-cmu-junsys-536", 
            "frame-type": "event-mention", 
            "object-meta": {
                "component": "Jun-System", 
                "object-type": "meta-info", 
                "organization": "CMU"
            }, 
            "object-type": "frame", 
            "sentence": "sent-PMC3382602-medscan-165", 
            "start-pos": {
                "context-start": "increased/1", 
                "object-type": "relative-pos", 
                "offset": 107, 
                "reference": "sent-PMC3382602-medscan-165"
            }, 
            "text": "increased", 
            "type": "increase"
        }, 
        {
            "arguments": [
                {
                    "arg": "ment-PMC3382602-cmu-junsys-349", 
                    "object-type": "argument", 
                    "type": "arg0"
                }, 
                {
                    "arg": "ment-PMC3382602-cmu-junsys-350", 
                    "object-type": "argument", 
                    "type": "arg1"
                }
            ], 
            "context": "treatment significantly inhibited tumor growth", 
            "end-pos": {
                "context-end": "inhibited/1", 
                "object-type": "relative-pos", 
                "offset": 69, 
                "reference": "sent-PMC3382602-medscan-169"
            }, 
            "frame-id": "eve-PMC3382602-cmu-junsys-537", 
            "frame-type": "event-mention", 
            "object-meta": {
                "component": "Jun-System", 
                "object-type": "meta-info", 
                "organization": "CMU"
            }, 
            "object-type": "frame", 
            "sentence": "sent-PMC3382602-medscan-169", 
            "start-pos": {
                "context-start": "inhibited/1", 
                "object-type": "relative-pos", 
                "offset": 60, 
                "reference": "sent-PMC3382602-medscan-169"
            }, 
            "text": "inhibited", 
            "type": "inhibit"
        }, 
        {
            "arguments": [
                {
                    "arg": "ment-PMC3382602-cmu-medscan-351", 
                    "object-type": "argument", 
                    "type": "arg1"
                }
            ], 
            "context": "downregulation of CYP2J2", 
            "end-pos": {
                "context-end": "downregulation/1", 
                "object-type": "relative-pos", 
                "offset": 23, 
                "reference": "sent-PMC3382602-medscan-170"
            }, 
            "frame-id": "eve-PMC3382602-cmu-junsys-538", 
            "frame-type": "event-mention", 
            "object-meta": {
                "component": "Jun-System", 
                "object-type": "meta-info", 
                "organization": "CMU"
            }, 
            "object-type": "frame", 
            "sentence": "sent-PMC3382602-medscan-170", 
            "start-pos": {
                "context-start": "downregulation/1", 
                "object-type": "relative-pos", 
                "offset": 9, 
                "reference": "sent-PMC3382602-medscan-170"
            }, 
            "text": "downregulation", 
            "type": "downregulation"
        }, 
        {
            "arguments": [
                {
                    "arg": "ment-PMC3382602-cmu-medscan-361", 
                    "object-type": "argument", 
                    "type": "arg0"
                }, 
                {
                    "arg": "ment-PMC3382602-cmu-medscan-362", 
                    "object-type": "argument", 
                    "type": "arg1"
                }
            ], 
            "context": "let-7b could inhibit the proliferation", 
            "end-pos": {
                "context-end": "inhibit/1", 
                "object-type": "relative-pos", 
                "offset": 39, 
                "reference": "sent-PMC3382602-medscan-173"
            }, 
            "frame-id": "eve-PMC3382602-cmu-junsys-539", 
            "frame-type": "event-mention", 
            "object-meta": {
                "component": "Jun-System", 
                "object-type": "meta-info", 
                "organization": "CMU"
            }, 
            "object-type": "frame", 
            "sentence": "sent-PMC3382602-medscan-173", 
            "start-pos": {
                "context-start": "inhibit/1", 
                "object-type": "relative-pos", 
                "offset": 32, 
                "reference": "sent-PMC3382602-medscan-173"
            }, 
            "text": "inhibit", 
            "type": "inhibit"
        }, 
        {
            "frame-id": "ent-PMC3382602-cmu-junsys-541", 
            "frame-type": "entity", 
            "members": [
                "ment-PMC3382602-cmu-junsys-214", 
                "ment-PMC3382602-cmu-junsys-215"
            ], 
            "object-meta": {
                "component": "Jun-System", 
                "object-type": "meta-info", 
                "organization": "CMU"
            }, 
            "object-type": "frame"
        }, 
        {
            "frame-id": "ent-PMC3382602-cmu-junsys-542", 
            "frame-type": "entity", 
            "members": [
                "ment-PMC3382602-cmu-medscan-224", 
                "ment-PMC3382602-cmu-junsys-225"
            ], 
            "object-meta": {
                "component": "Jun-System", 
                "object-type": "meta-info", 
                "organization": "CMU"
            }, 
            "object-type": "frame"
        }, 
        {
            "frame-id": "ent-PMC3382602-cmu-junsys-543", 
            "frame-type": "entity", 
            "members": [
                "ment-PMC3382602-cmu-medscan-380", 
                "ment-PMC3382602-cmu-junsys-381"
            ], 
            "object-meta": {
                "component": "Jun-System", 
                "object-type": "meta-info", 
                "organization": "CMU"
            }, 
            "object-type": "frame"
        }, 
        {
            "frame-id": "ent-PMC3382602-cmu-junsys-544", 
            "frame-type": "entity", 
            "members": [
                "ment-PMC3382602-cmu-junsys-408", 
                "ment-PMC3382602-cmu-junsys-409"
            ], 
            "object-meta": {
                "component": "Jun-System", 
                "object-type": "meta-info", 
                "organization": "CMU"
            }, 
            "object-type": "frame"
        }, 
        {
            "frame-id": "ent-PMC3382602-cmu-junsys-545", 
            "frame-type": "entity", 
            "members": [
                "ment-PMC3382602-cmu-junsys-412", 
                "ment-PMC3382602-cmu-junsys-413"
            ], 
            "object-meta": {
                "component": "Jun-System", 
                "object-type": "meta-info", 
                "organization": "CMU"
            }, 
            "object-type": "frame"
        }, 
        {
            "frame-id": "ent-PMC3382602-cmu-junsys-546", 
            "frame-type": "entity", 
            "members": [
                "ment-PMC3382602-cmu-junsys-414", 
                "ment-PMC3382602-cmu-junsys-415"
            ], 
            "object-meta": {
                "component": "Jun-System", 
                "object-type": "meta-info", 
                "organization": "CMU"
            }, 
            "object-type": "frame"
        }, 
        {
            "frame-type": "event", 
            "object-meta": {
                "component": "Jun-System", 
                "object-type": "meta-info", 
                "organization": "CMU"
            }, 
            "object-type": "frame"
        }, 
        {
            "frame-type": "event", 
            "object-meta": {
                "component": "Jun-System", 
                "object-type": "meta-info", 
                "organization": "CMU"
            }, 
            "object-type": "frame"
        }
    ], 
    "object-meta": {
        "component": "Jun-System", 
        "component-type": "machine", 
        "doc-id": "PMC3382602", 
        "object-type": "meta-info", 
        "organization": "CMU"
    }, 
    "object-type": "frame-collection"
}
