{
  "evidence": ["Erk1/2 phosphorylation","Our data demonstrate that in the absence of EphrinB1 , Erk1 and 2 phosphorylation is greatly attenuated             suggesting not only that EphrinB1 is a good therapeutic target , but that blocking EphrinB1 together with ErbB2 may efficiently inhibit complex signaling ."],
  "extracted_information": {
    "interaction_type": "adds_modification",
    "negative_information": false,
    "modifications": [
      {
        "modification_type": "phosphorylation"
      }
    ],
    "participant_b": {
      "entity_text": "Erk1",
      "entity_type": "protein",
      "identifier": "Uniprot:P27361",
      "in_model": true
    }
  },
  "fries_provenance": [
    {
      "cmu-sentence-epistemic-status": "implication",
      "cmu-sentence-epistemic-value": 0.6,
      "component": "REACH",
      "frame-file": "PMC3261204.uaz.events",
      "frame-id": "evem-PMC3261204-UAZ-r1-67-2-108",
      "passage-id": "pass-PMC3261204-UAZ-r1-67",
      "passage-number": 67,
      "passage-section-id": "s3",
      "passage-section-name": "N/A",
      "sentence": "Our data demonstrate that in the absence of EphrinB1 , Erk1 and 2 phosphorylation is greatly attenuated             suggesting not only that EphrinB1 is a good therapeutic target , but that blocking EphrinB1 together with ErbB2 may efficiently inhibit complex signaling .",
      "text": "Erk1/2 phosphorylation",
      "uaz-event-epistemic-status": "hypothesis",
      "uaz-sentence": "Our data demonstrate that in the absence of EphrinB1 , Erk1 and 2 phosphorylation is greatly attenuated             suggesting not only that EphrinB1 is a good therapeutic target , but that blocking EphrinB1 together with ErbB2 may efficiently inhibit complex signaling .",
      "uaz-sentence-start": 361
    }
  ],
  "model_relation": "extension",
  "pmc_id": "PMC3261204",
  "reader_type": "machine",
  "reading_complete": "2015-06-15T22:33:55Z",
  "reading_started": "2015-06-15T22:33:50Z",
  "submitter": "FRIES"
}
