{
  "evidence": ["EphrinB1 or Erk1/2 phosphorylation","The finding that wildtype ErbB2 associates with EphrinB1 but does not correlate with EphrinB1 or Erk1 and 2 phosphorylation , suggests that in the absence of ErbB2 activation , Src either does not associate with the complex or remains in an inactive form ."],
  "extracted_information": {
    "interaction_type": "adds_modification",
    "negative_information": false,
    "modifications": [
      {
        "modification_type": "phosphorylation"
      }
    ],
    "participant_b": {
      "entity_text": "EphrinB1",
      "entity_type": "protein",
      "identifier": "Uniprot:P98172",
      "in_model": true
    }
  },
  "fries_provenance": [
    {
      "cmu-sentence-epistemic-status": "implication",
      "cmu-sentence-epistemic-value": 0.6,
      "component": "REACH",
      "frame-file": "PMC3261204.uaz.events",
      "frame-id": "evem-PMC3261204-UAZ-r1-63-0-101",
      "passage-id": "pass-PMC3261204-UAZ-r1-63",
      "passage-number": 63,
      "passage-section-id": "s3",
      "passage-section-name": "N/A",
      "sentence": "The finding that wildtype ErbB2 associates with EphrinB1 but does not correlate with EphrinB1 or Erk1 and 2 phosphorylation , suggests that in the absence of ErbB2 activation , Src either does not associate with the complex or remains in an inactive form .",
      "text": "EphrinB1 or Erk1/2 phosphorylation",
      "uaz-sentence": "The finding that wildtype ErbB2 associates with EphrinB1 but does not correlate with EphrinB1 or Erk1 and 2 phosphorylation , suggests that in the absence of ErbB2 activation , Src either does not associate with the complex or remains in an inactive form .",
      "uaz-sentence-start": 0
    }
  ],
  "model_relation": "extension",
  "pmc_id": "PMC3261204",
  "reader_type": "machine",
  "reading_complete": "2015-06-15T22:33:55Z",
  "reading_started": "2015-06-15T22:33:50Z",
  "submitter": "FRIES"
}
