{
    "frames": [
        {
            "end-pos": {
                "context-end": "Drosophila/1", 
                "object-type": "relative-pos", 
                "offset": 10, 
                "reference": "sent-PMC1401512-medscan-2"
            }, 
            "frame-id": "ment-PMC1401512-cmu-junsys-3", 
            "frame-type": "entity-mention", 
            "object-meta": {
                "component": "Jun-System", 
                "object-type": "meta-info", 
                "organization": "CMU"
            }, 
            "object-type": "frame", 
            "sentence": "sent-PMC1401512-medscan-2", 
            "start-pos": {
                "context-start": "Drosophila/1", 
                "object-type": "relative-pos", 
                "offset": 0, 
                "reference": "sent-PMC1401512-medscan-2"
            }, 
            "text": "Drosophila", 
            "xrefs": []
        }, 
        {
            "end-pos": {
                "context-end": "formation/1", 
                "object-type": "relative-pos", 
                "offset": 140, 
                "reference": "sent-PMC1401512-medscan-2"
            }, 
            "frame-id": "ment-PMC1401512-cmu-junsys-8", 
            "frame-type": "entity-mention", 
            "object-meta": {
                "component": "Jun-System", 
                "object-type": "meta-info", 
                "organization": "CMU"
            }, 
            "object-type": "frame", 
            "sentence": "sent-PMC1401512-medscan-2", 
            "start-pos": {
                "context-start": "formation/1", 
                "object-type": "relative-pos", 
                "offset": 131, 
                "reference": "sent-PMC1401512-medscan-2"
            }, 
            "text": "formation", 
            "xrefs": []
        }, 
        {
            "end-pos": {
                "context-end": "expression/1", 
                "object-type": "relative-pos", 
                "offset": 50, 
                "reference": "sent-PMC1401512-medscan-5"
            }, 
            "frame-id": "ment-PMC1401512-cmu-junsys-12", 
            "frame-type": "entity-mention", 
            "object-meta": {
                "component": "Jun-System", 
                "object-type": "meta-info", 
                "organization": "CMU"
            }, 
            "object-type": "frame", 
            "sentence": "sent-PMC1401512-medscan-5", 
            "start-pos": {
                "context-start": "expression/1", 
                "object-type": "relative-pos", 
                "offset": 40, 
                "reference": "sent-PMC1401512-medscan-5"
            }, 
            "text": "expression", 
            "xrefs": []
        }, 
        {
            "end-pos": {
                "context-end": "genes/1", 
                "object-type": "relative-pos", 
                "offset": 101, 
                "reference": "sent-PMC1401512-medscan-5"
            }, 
            "frame-id": "ment-PMC1401512-cmu-junsys-13", 
            "frame-type": "entity-mention", 
            "object-meta": {
                "component": "Jun-System", 
                "object-type": "meta-info", 
                "organization": "CMU"
            }, 
            "object-type": "frame", 
            "sentence": "sent-PMC1401512-medscan-5", 
            "start-pos": {
                "context-start": "genes/1", 
                "object-type": "relative-pos", 
                "offset": 96, 
                "reference": "sent-PMC1401512-medscan-5"
            }, 
            "text": "genes", 
            "xrefs": []
        }, 
        {
            "end-pos": {
                "context-end": "which/1", 
                "object-type": "relative-pos", 
                "offset": 108, 
                "reference": "sent-PMC1401512-medscan-5"
            }, 
            "frame-id": "ment-PMC1401512-cmu-junsys-14", 
            "frame-type": "entity-mention", 
            "object-meta": {
                "component": "Jun-System", 
                "object-type": "meta-info", 
                "organization": "CMU"
            }, 
            "object-type": "frame", 
            "sentence": "sent-PMC1401512-medscan-5", 
            "start-pos": {
                "context-start": "which/1", 
                "object-type": "relative-pos", 
                "offset": 103, 
                "reference": "sent-PMC1401512-medscan-5"
            }, 
            "text": "which", 
            "xrefs": []
        }, 
        {
            "end-pos": {
                "context-end": "expression/1", 
                "object-type": "relative-pos", 
                "offset": 50, 
                "reference": "sent-PMC1401512-medscan-5"
            }, 
            "frame-id": "ment-PMC1401512-cmu-junsys-17", 
            "frame-type": "entity-mention", 
            "object-meta": {
                "component": "Jun-System", 
                "object-type": "meta-info", 
                "organization": "CMU"
            }, 
            "object-type": "frame", 
            "sentence": "sent-PMC1401512-medscan-5", 
            "start-pos": {
                "context-start": "expression/1", 
                "object-type": "relative-pos", 
                "offset": 40, 
                "reference": "sent-PMC1401512-medscan-5"
            }, 
            "text": "expression", 
            "xrefs": []
        }, 
        {
            "end-pos": {
                "context-end": "gene/1", 
                "object-type": "relative-pos", 
                "offset": 100, 
                "reference": "sent-PMC1401512-medscan-5"
            }, 
            "frame-id": "ment-PMC1401512-cmu-junsys-19", 
            "frame-type": "entity-mention", 
            "object-meta": {
                "component": "Jun-System", 
                "object-type": "meta-info", 
                "organization": "CMU"
            }, 
            "object-type": "frame", 
            "sentence": "sent-PMC1401512-medscan-5", 
            "start-pos": {
                "context-start": "gene/1", 
                "object-type": "relative-pos", 
                "offset": 96, 
                "reference": "sent-PMC1401512-medscan-5"
            }, 
            "text": "gene", 
            "xrefs": []
        }, 
        {
            "end-pos": {
                "context-end": "which/1", 
                "object-type": "relative-pos", 
                "offset": 108, 
                "reference": "sent-PMC1401512-medscan-5"
            }, 
            "frame-id": "ment-PMC1401512-cmu-junsys-20", 
            "frame-type": "entity-mention", 
            "object-meta": {
                "component": "Jun-System", 
                "object-type": "meta-info", 
                "organization": "CMU"
            }, 
            "object-type": "frame", 
            "sentence": "sent-PMC1401512-medscan-5", 
            "start-pos": {
                "context-start": "which/1", 
                "object-type": "relative-pos", 
                "offset": 103, 
                "reference": "sent-PMC1401512-medscan-5"
            }, 
            "text": "which", 
            "xrefs": []
        }, 
        {
            "end-pos": {
                "context-end": "Drosophila/1", 
                "object-type": "relative-pos", 
                "offset": 25, 
                "reference": "sent-PMC1401512-medscan-6"
            }, 
            "frame-id": "ment-PMC1401512-cmu-junsys-22", 
            "frame-type": "entity-mention", 
            "object-meta": {
                "component": "Jun-System", 
                "object-type": "meta-info", 
                "organization": "CMU"
            }, 
            "object-type": "frame", 
            "sentence": "sent-PMC1401512-medscan-6", 
            "start-pos": {
                "context-start": "Drosophila/1", 
                "object-type": "relative-pos", 
                "offset": 15, 
                "reference": "sent-PMC1401512-medscan-6"
            }, 
            "text": "Drosophila", 
            "xrefs": []
        }, 
        {
            "end-pos": {
                "context-end": "expression/1", 
                "object-type": "relative-pos", 
                "offset": 73, 
                "reference": "sent-PMC1401512-medscan-6"
            }, 
            "frame-id": "ment-PMC1401512-cmu-junsys-24", 
            "frame-type": "entity-mention", 
            "object-meta": {
                "component": "Jun-System", 
                "object-type": "meta-info", 
                "organization": "CMU"
            }, 
            "object-type": "frame", 
            "sentence": "sent-PMC1401512-medscan-6", 
            "start-pos": {
                "context-start": "expression/1", 
                "object-type": "relative-pos", 
                "offset": 63, 
                "reference": "sent-PMC1401512-medscan-6"
            }, 
            "text": "expression", 
            "xrefs": []
        }, 
        {
            "end-pos": {
                "context-end": "activity/1", 
                "object-type": "relative-pos", 
                "offset": 40, 
                "reference": "sent-PMC1401512-medscan-11"
            }, 
            "frame-id": "ment-PMC1401512-cmu-junsys-37", 
            "frame-type": "entity-mention", 
            "object-meta": {
                "component": "Jun-System", 
                "object-type": "meta-info", 
                "organization": "CMU"
            }, 
            "object-type": "frame", 
            "sentence": "sent-PMC1401512-medscan-11", 
            "start-pos": {
                "context-start": "activity/1", 
                "object-type": "relative-pos", 
                "offset": 32, 
                "reference": "sent-PMC1401512-medscan-11"
            }, 
            "text": "activity", 
            "xrefs": []
        }, 
        {
            "end-pos": {
                "context-end": "that/1", 
                "object-type": "relative-pos", 
                "offset": 123, 
                "reference": "sent-PMC1401512-medscan-12"
            }, 
            "frame-id": "ment-PMC1401512-cmu-junsys-38", 
            "frame-type": "entity-mention", 
            "object-meta": {
                "component": "Jun-System", 
                "object-type": "meta-info", 
                "organization": "CMU"
            }, 
            "object-type": "frame", 
            "sentence": "sent-PMC1401512-medscan-12", 
            "start-pos": {
                "context-start": "that/1", 
                "object-type": "relative-pos", 
                "offset": 119, 
                "reference": "sent-PMC1401512-medscan-12"
            }, 
            "text": "that", 
            "xrefs": []
        }, 
        {
            "end-pos": {
                "context-end": "variety/1", 
                "object-type": "relative-pos", 
                "offset": 143, 
                "reference": "sent-PMC1401512-medscan-12"
            }, 
            "frame-id": "ment-PMC1401512-cmu-junsys-39", 
            "frame-type": "entity-mention", 
            "object-meta": {
                "component": "Jun-System", 
                "object-type": "meta-info", 
                "organization": "CMU"
            }, 
            "object-type": "frame", 
            "sentence": "sent-PMC1401512-medscan-12", 
            "start-pos": {
                "context-start": "variety/1", 
                "object-type": "relative-pos", 
                "offset": 136, 
                "reference": "sent-PMC1401512-medscan-12"
            }, 
            "text": "variety", 
            "xrefs": []
        }, 
        {
            "end-pos": {
                "context-end": "machinery/1", 
                "object-type": "relative-pos", 
                "offset": 208, 
                "reference": "sent-PMC1401512-medscan-14"
            }, 
            "frame-id": "ment-PMC1401512-cmu-junsys-44", 
            "frame-type": "entity-mention", 
            "object-meta": {
                "component": "Jun-System", 
                "object-type": "meta-info", 
                "organization": "CMU"
            }, 
            "object-type": "frame", 
            "sentence": "sent-PMC1401512-medscan-14", 
            "start-pos": {
                "context-start": "machinery/1", 
                "object-type": "relative-pos", 
                "offset": 199, 
                "reference": "sent-PMC1401512-medscan-14"
            }, 
            "text": "machinery", 
            "xrefs": []
        }, 
        {
            "end-pos": {
                "context-end": "activity/1", 
                "object-type": "relative-pos", 
                "offset": 100, 
                "reference": "sent-PMC1401512-medscan-23"
            }, 
            "frame-id": "ment-PMC1401512-cmu-junsys-73", 
            "frame-type": "entity-mention", 
            "object-meta": {
                "component": "Jun-System", 
                "object-type": "meta-info", 
                "organization": "CMU"
            }, 
            "object-type": "frame", 
            "sentence": "sent-PMC1401512-medscan-23", 
            "start-pos": {
                "context-start": "activity/1", 
                "object-type": "relative-pos", 
                "offset": 92, 
                "reference": "sent-PMC1401512-medscan-23"
            }, 
            "text": "activity", 
            "xrefs": []
        }, 
        {
            "end-pos": {
                "context-end": "understanding/1", 
                "object-type": "relative-pos", 
                "offset": 111, 
                "reference": "sent-PMC1401512-medscan-27"
            }, 
            "frame-id": "ment-PMC1401512-cmu-junsys-80", 
            "frame-type": "entity-mention", 
            "object-meta": {
                "component": "Jun-System", 
                "object-type": "meta-info", 
                "organization": "CMU"
            }, 
            "object-type": "frame", 
            "sentence": "sent-PMC1401512-medscan-27", 
            "start-pos": {
                "context-start": "understanding/1", 
                "object-type": "relative-pos", 
                "offset": 98, 
                "reference": "sent-PMC1401512-medscan-27"
            }, 
            "text": "understanding", 
            "xrefs": []
        }, 
        {
            "end-pos": {
                "context-end": "how/1", 
                "object-type": "relative-pos", 
                "offset": 118, 
                "reference": "sent-PMC1401512-medscan-27"
            }, 
            "frame-id": "ment-PMC1401512-cmu-junsys-81", 
            "frame-type": "entity-mention", 
            "object-meta": {
                "component": "Jun-System", 
                "object-type": "meta-info", 
                "organization": "CMU"
            }, 
            "object-type": "frame", 
            "sentence": "sent-PMC1401512-medscan-27", 
            "start-pos": {
                "context-start": "how/1", 
                "object-type": "relative-pos", 
                "offset": 115, 
                "reference": "sent-PMC1401512-medscan-27"
            }, 
            "text": "how", 
            "xrefs": []
        }, 
        {
            "end-pos": {
                "context-end": "activation/1", 
                "object-type": "relative-pos", 
                "offset": 278, 
                "reference": "sent-PMC1401512-medscan-27"
            }, 
            "frame-id": "ment-PMC1401512-cmu-junsys-86", 
            "frame-type": "entity-mention", 
            "object-meta": {
                "component": "Jun-System", 
                "object-type": "meta-info", 
                "organization": "CMU"
            }, 
            "object-type": "frame", 
            "sentence": "sent-PMC1401512-medscan-27", 
            "start-pos": {
                "context-start": "activation/1", 
                "object-type": "relative-pos", 
                "offset": 268, 
                "reference": "sent-PMC1401512-medscan-27"
            }, 
            "text": "activation", 
            "xrefs": []
        }, 
        {
            "end-pos": {
                "context-end": "pathway/1", 
                "object-type": "relative-pos", 
                "offset": 79, 
                "reference": "sent-PMC1401512-medscan-71"
            }, 
            "frame-id": "ment-PMC1401512-cmu-junsys-158", 
            "frame-type": "entity-mention", 
            "object-meta": {
                "component": "Jun-System", 
                "object-type": "meta-info", 
                "organization": "CMU"
            }, 
            "object-type": "frame", 
            "sentence": "sent-PMC1401512-medscan-71", 
            "start-pos": {
                "context-start": "pathway/1", 
                "object-type": "relative-pos", 
                "offset": 72, 
                "reference": "sent-PMC1401512-medscan-71"
            }, 
            "text": "pathway", 
            "xrefs": []
        }, 
        {
            "end-pos": {
                "context-end": "which/1", 
                "object-type": "relative-pos", 
                "offset": 142, 
                "reference": "sent-PMC1401512-medscan-71"
            }, 
            "frame-id": "ment-PMC1401512-cmu-junsys-161", 
            "frame-type": "entity-mention", 
            "object-meta": {
                "component": "Jun-System", 
                "object-type": "meta-info", 
                "organization": "CMU"
            }, 
            "object-type": "frame", 
            "sentence": "sent-PMC1401512-medscan-71", 
            "start-pos": {
                "context-start": "which/1", 
                "object-type": "relative-pos", 
                "offset": 137, 
                "reference": "sent-PMC1401512-medscan-71"
            }, 
            "text": "which", 
            "xrefs": []
        }, 
        {
            "end-pos": {
                "context-end": "activity/1", 
                "object-type": "relative-pos", 
                "offset": 187, 
                "reference": "sent-PMC1401512-medscan-73"
            }, 
            "frame-id": "ment-PMC1401512-cmu-junsys-172", 
            "frame-type": "entity-mention", 
            "object-meta": {
                "component": "Jun-System", 
                "object-type": "meta-info", 
                "organization": "CMU"
            }, 
            "object-type": "frame", 
            "sentence": "sent-PMC1401512-medscan-73", 
            "start-pos": {
                "context-start": "activity/1", 
                "object-type": "relative-pos", 
                "offset": 179, 
                "reference": "sent-PMC1401512-medscan-73"
            }, 
            "text": "activity", 
            "xrefs": []
        }, 
        {
            "end-pos": {
                "context-end": "which/1", 
                "object-type": "relative-pos", 
                "offset": 94, 
                "reference": "sent-PMC1401512-medscan-80"
            }, 
            "frame-id": "ment-PMC1401512-cmu-junsys-193", 
            "frame-type": "entity-mention", 
            "object-meta": {
                "component": "Jun-System", 
                "object-type": "meta-info", 
                "organization": "CMU"
            }, 
            "object-type": "frame", 
            "sentence": "sent-PMC1401512-medscan-80", 
            "start-pos": {
                "context-start": "which/1", 
                "object-type": "relative-pos", 
                "offset": 89, 
                "reference": "sent-PMC1401512-medscan-80"
            }, 
            "text": "which", 
            "xrefs": []
        }, 
        {
            "end-pos": {
                "context-end": "deacetylation/1", 
                "object-type": "relative-pos", 
                "offset": 62, 
                "reference": "sent-PMC1401512-medscan-84"
            }, 
            "frame-id": "ment-PMC1401512-cmu-junsys-206", 
            "frame-type": "entity-mention", 
            "object-meta": {
                "component": "Jun-System", 
                "object-type": "meta-info", 
                "organization": "CMU"
            }, 
            "object-type": "frame", 
            "sentence": "sent-PMC1401512-medscan-84", 
            "start-pos": {
                "context-start": "deacetylation/1", 
                "object-type": "relative-pos", 
                "offset": 49, 
                "reference": "sent-PMC1401512-medscan-84"
            }, 
            "text": "deacetylation", 
            "xrefs": []
        }, 
        {
            "end-pos": {
                "context-end": "understanding/1", 
                "object-type": "relative-pos", 
                "offset": 109, 
                "reference": "sent-PMC1401512-medscan-95"
            }, 
            "frame-id": "ment-PMC1401512-cmu-junsys-235", 
            "frame-type": "entity-mention", 
            "object-meta": {
                "component": "Jun-System", 
                "object-type": "meta-info", 
                "organization": "CMU"
            }, 
            "object-type": "frame", 
            "sentence": "sent-PMC1401512-medscan-95", 
            "start-pos": {
                "context-start": "understanding/1", 
                "object-type": "relative-pos", 
                "offset": 96, 
                "reference": "sent-PMC1401512-medscan-95"
            }, 
            "text": "understanding", 
            "xrefs": []
        }, 
        {
            "end-pos": {
                "context-end": "how/1", 
                "object-type": "relative-pos", 
                "offset": 116, 
                "reference": "sent-PMC1401512-medscan-95"
            }, 
            "frame-id": "ment-PMC1401512-cmu-junsys-236", 
            "frame-type": "entity-mention", 
            "object-meta": {
                "component": "Jun-System", 
                "object-type": "meta-info", 
                "organization": "CMU"
            }, 
            "object-type": "frame", 
            "sentence": "sent-PMC1401512-medscan-95", 
            "start-pos": {
                "context-start": "how/1", 
                "object-type": "relative-pos", 
                "offset": 113, 
                "reference": "sent-PMC1401512-medscan-95"
            }, 
            "text": "how", 
            "xrefs": []
        }, 
        {
            "end-pos": {
                "context-end": "acetylation/1", 
                "object-type": "relative-pos", 
                "offset": 228, 
                "reference": "sent-PMC1401512-medscan-95"
            }, 
            "frame-id": "ment-PMC1401512-cmu-junsys-240", 
            "frame-type": "entity-mention", 
            "object-meta": {
                "component": "Jun-System", 
                "object-type": "meta-info", 
                "organization": "CMU"
            }, 
            "object-type": "frame", 
            "sentence": "sent-PMC1401512-medscan-95", 
            "start-pos": {
                "context-start": "acetylation/1", 
                "object-type": "relative-pos", 
                "offset": 217, 
                "reference": "sent-PMC1401512-medscan-95"
            }, 
            "text": "acetylation", 
            "xrefs": []
        }, 
        {
            "end-pos": {
                "context-end": "HDAC3/1", 
                "object-type": "relative-pos", 
                "offset": 115, 
                "reference": "sent-PMC1401512-medscan-121"
            }, 
            "frame-id": "ment-PMC1401512-cmu-junsys-289", 
            "frame-type": "entity-mention", 
            "object-meta": {
                "component": "Jun-System", 
                "object-type": "meta-info", 
                "organization": "CMU"
            }, 
            "object-type": "frame", 
            "sentence": "sent-PMC1401512-medscan-121", 
            "start-pos": {
                "context-start": "HDAC3/1", 
                "object-type": "relative-pos", 
                "offset": 110, 
                "reference": "sent-PMC1401512-medscan-121"
            }, 
            "text": "HDAC3", 
            "xrefs": []
        }, 
        {
            "end-pos": {
                "context-end": "activity/1", 
                "object-type": "relative-pos", 
                "offset": 37, 
                "reference": "sent-PMC1401512-medscan-122"
            }, 
            "frame-id": "ment-PMC1401512-cmu-junsys-292", 
            "frame-type": "entity-mention", 
            "object-meta": {
                "component": "Jun-System", 
                "object-type": "meta-info", 
                "organization": "CMU"
            }, 
            "object-type": "frame", 
            "sentence": "sent-PMC1401512-medscan-122", 
            "start-pos": {
                "context-start": "activity/1", 
                "object-type": "relative-pos", 
                "offset": 29, 
                "reference": "sent-PMC1401512-medscan-122"
            }, 
            "text": "activity", 
            "xrefs": []
        }, 
        {
            "end-pos": {
                "context-end": "acetylation/1", 
                "object-type": "relative-pos", 
                "offset": 36, 
                "reference": "sent-PMC1401512-medscan-129"
            }, 
            "frame-id": "ment-PMC1401512-cmu-junsys-311", 
            "frame-type": "entity-mention", 
            "object-meta": {
                "component": "Jun-System", 
                "object-type": "meta-info", 
                "organization": "CMU"
            }, 
            "object-type": "frame", 
            "sentence": "sent-PMC1401512-medscan-129", 
            "start-pos": {
                "context-start": "acetylation/1", 
                "object-type": "relative-pos", 
                "offset": 25, 
                "reference": "sent-PMC1401512-medscan-129"
            }, 
            "text": "acetylation", 
            "xrefs": []
        }, 
        {
            "end-pos": {
                "context-end": "stability/1", 
                "object-type": "relative-pos", 
                "offset": 75, 
                "reference": "sent-PMC1401512-medscan-129"
            }, 
            "frame-id": "ment-PMC1401512-cmu-junsys-313", 
            "frame-type": "entity-mention", 
            "object-meta": {
                "component": "Jun-System", 
                "object-type": "meta-info", 
                "organization": "CMU"
            }, 
            "object-type": "frame", 
            "sentence": "sent-PMC1401512-medscan-129", 
            "start-pos": {
                "context-start": "stability/1", 
                "object-type": "relative-pos", 
                "offset": 66, 
                "reference": "sent-PMC1401512-medscan-129"
            }, 
            "text": "stability", 
            "xrefs": []
        }, 
        {
            "end-pos": {
                "object-type": "relative-pos", 
                "offset": -1, 
                "reference": "NOT LINKED"
            }, 
            "frame-id": "ment-PMC1401512-cmu-junsys-327", 
            "frame-type": "entity-mention", 
            "object-meta": {
                "component": "Jun-System", 
                "object-type": "meta-info", 
                "organization": "CMU"
            }, 
            "object-type": "frame", 
            "sentence": "NOT LINKED", 
            "start-pos": {
                "object-type": "relative-pos", 
                "offset": -1, 
                "reference": "NOT LINKED"
            }, 
            "text": "which", 
            "xrefs": []
        }, 
        {
            "end-pos": {
                "context-end": "expression/1", 
                "object-type": "relative-pos", 
                "offset": 142, 
                "reference": "sent-PMC1401512-medscan-133"
            }, 
            "frame-id": "ment-PMC1401512-cmu-junsys-333", 
            "frame-type": "entity-mention", 
            "object-meta": {
                "component": "Jun-System", 
                "object-type": "meta-info", 
                "organization": "CMU"
            }, 
            "object-type": "frame", 
            "sentence": "sent-PMC1401512-medscan-133", 
            "start-pos": {
                "context-start": "expression/1", 
                "object-type": "relative-pos", 
                "offset": 132, 
                "reference": "sent-PMC1401512-medscan-133"
            }, 
            "text": "expression", 
            "xrefs": []
        }, 
        {
            "end-pos": {
                "context-end": "expression/1", 
                "object-type": "relative-pos", 
                "offset": 93, 
                "reference": "sent-PMC1401512-medscan-140"
            }, 
            "frame-id": "ment-PMC1401512-cmu-junsys-359", 
            "frame-type": "entity-mention", 
            "object-meta": {
                "component": "Jun-System", 
                "object-type": "meta-info", 
                "organization": "CMU"
            }, 
            "object-type": "frame", 
            "sentence": "sent-PMC1401512-medscan-140", 
            "start-pos": {
                "context-start": "expression/1", 
                "object-type": "relative-pos", 
                "offset": 83, 
                "reference": "sent-PMC1401512-medscan-140"
            }, 
            "text": "expression", 
            "xrefs": []
        }, 
        {
            "end-pos": {
                "context-end": "activity/1", 
                "object-type": "relative-pos", 
                "offset": 49, 
                "reference": "sent-PMC1401512-medscan-143"
            }, 
            "frame-id": "ment-PMC1401512-cmu-junsys-365", 
            "frame-type": "entity-mention", 
            "object-meta": {
                "component": "Jun-System", 
                "object-type": "meta-info", 
                "organization": "CMU"
            }, 
            "object-type": "frame", 
            "sentence": "sent-PMC1401512-medscan-143", 
            "start-pos": {
                "context-start": "activity/1", 
                "object-type": "relative-pos", 
                "offset": 41, 
                "reference": "sent-PMC1401512-medscan-143"
            }, 
            "text": "activity", 
            "xrefs": []
        }, 
        {
            "end-pos": {
                "context-end": "activity/1", 
                "object-type": "relative-pos", 
                "offset": 49, 
                "reference": "sent-PMC1401512-medscan-143"
            }, 
            "frame-id": "ment-PMC1401512-cmu-junsys-367", 
            "frame-type": "entity-mention", 
            "object-meta": {
                "component": "Jun-System", 
                "object-type": "meta-info", 
                "organization": "CMU"
            }, 
            "object-type": "frame", 
            "sentence": "sent-PMC1401512-medscan-143", 
            "start-pos": {
                "context-start": "activity/1", 
                "object-type": "relative-pos", 
                "offset": 41, 
                "reference": "sent-PMC1401512-medscan-143"
            }, 
            "text": "activity", 
            "xrefs": []
        }, 
        {
            "end-pos": {
                "context-end": "promoter/1", 
                "object-type": "relative-pos", 
                "offset": 88, 
                "reference": "sent-PMC1401512-medscan-146"
            }, 
            "frame-id": "ment-PMC1401512-cmu-junsys-378", 
            "frame-type": "entity-mention", 
            "object-meta": {
                "component": "Jun-System", 
                "object-type": "meta-info", 
                "organization": "CMU"
            }, 
            "object-type": "frame", 
            "sentence": "sent-PMC1401512-medscan-146", 
            "start-pos": {
                "context-start": "promoter/1", 
                "object-type": "relative-pos", 
                "offset": 80, 
                "reference": "sent-PMC1401512-medscan-146"
            }, 
            "text": "promoter", 
            "xrefs": []
        }, 
        {
            "end-pos": {
                "context-end": "layer/1", 
                "object-type": "relative-pos", 
                "offset": 126, 
                "reference": "sent-PMC1401512-medscan-148"
            }, 
            "frame-id": "ment-PMC1401512-cmu-junsys-384", 
            "frame-type": "entity-mention", 
            "object-meta": {
                "component": "Jun-System", 
                "object-type": "meta-info", 
                "organization": "CMU"
            }, 
            "object-type": "frame", 
            "sentence": "sent-PMC1401512-medscan-148", 
            "start-pos": {
                "context-start": "layer/1", 
                "object-type": "relative-pos", 
                "offset": 121, 
                "reference": "sent-PMC1401512-medscan-148"
            }, 
            "text": "layer", 
            "xrefs": []
        }, 
        {
            "end-pos": {
                "context-end": "which/1", 
                "object-type": "relative-pos", 
                "offset": 46, 
                "reference": "sent-PMC1401512-medscan-149"
            }, 
            "frame-id": "ment-PMC1401512-cmu-junsys-385", 
            "frame-type": "entity-mention", 
            "object-meta": {
                "component": "Jun-System", 
                "object-type": "meta-info", 
                "organization": "CMU"
            }, 
            "object-type": "frame", 
            "sentence": "sent-PMC1401512-medscan-149", 
            "start-pos": {
                "context-start": "which/1", 
                "object-type": "relative-pos", 
                "offset": 41, 
                "reference": "sent-PMC1401512-medscan-149"
            }, 
            "text": "which", 
            "xrefs": []
        }, 
        {
            "end-pos": {
                "context-end": "expression/1", 
                "object-type": "relative-pos", 
                "offset": 39, 
                "reference": "sent-PMC1401512-medscan-149"
            }, 
            "frame-id": "ment-PMC1401512-cmu-junsys-392", 
            "frame-type": "entity-mention", 
            "object-meta": {
                "component": "Jun-System", 
                "object-type": "meta-info", 
                "organization": "CMU"
            }, 
            "object-type": "frame", 
            "sentence": "sent-PMC1401512-medscan-149", 
            "start-pos": {
                "context-start": "expression/1", 
                "object-type": "relative-pos", 
                "offset": 29, 
                "reference": "sent-PMC1401512-medscan-149"
            }, 
            "text": "expression", 
            "xrefs": []
        }, 
        {
            "end-pos": {
                "context-end": "which/1", 
                "object-type": "relative-pos", 
                "offset": 46, 
                "reference": "sent-PMC1401512-medscan-149"
            }, 
            "frame-id": "ment-PMC1401512-cmu-junsys-393", 
            "frame-type": "entity-mention", 
            "object-meta": {
                "component": "Jun-System", 
                "object-type": "meta-info", 
                "organization": "CMU"
            }, 
            "object-type": "frame", 
            "sentence": "sent-PMC1401512-medscan-149", 
            "start-pos": {
                "context-start": "which/1", 
                "object-type": "relative-pos", 
                "offset": 41, 
                "reference": "sent-PMC1401512-medscan-149"
            }, 
            "text": "which", 
            "xrefs": []
        }, 
        {
            "end-pos": {
                "context-end": "that/1", 
                "object-type": "relative-pos", 
                "offset": 47, 
                "reference": "sent-PMC1401512-medscan-150"
            }, 
            "frame-id": "ment-PMC1401512-cmu-junsys-400", 
            "frame-type": "entity-mention", 
            "object-meta": {
                "component": "Jun-System", 
                "object-type": "meta-info", 
                "organization": "CMU"
            }, 
            "object-type": "frame", 
            "sentence": "sent-PMC1401512-medscan-150", 
            "start-pos": {
                "context-start": "that/1", 
                "object-type": "relative-pos", 
                "offset": 43, 
                "reference": "sent-PMC1401512-medscan-150"
            }, 
            "text": "that", 
            "xrefs": []
        }, 
        {
            "end-pos": {
                "context-end": "activity/1", 
                "object-type": "relative-pos", 
                "offset": 109, 
                "reference": "sent-PMC1401512-medscan-150"
            }, 
            "frame-id": "ment-PMC1401512-cmu-junsys-402", 
            "frame-type": "entity-mention", 
            "object-meta": {
                "component": "Jun-System", 
                "object-type": "meta-info", 
                "organization": "CMU"
            }, 
            "object-type": "frame", 
            "sentence": "sent-PMC1401512-medscan-150", 
            "start-pos": {
                "context-start": "activity/1", 
                "object-type": "relative-pos", 
                "offset": 101, 
                "reference": "sent-PMC1401512-medscan-150"
            }, 
            "text": "activity", 
            "xrefs": []
        }, 
        {
            "end-pos": {
                "context-end": "acetylation/1", 
                "object-type": "relative-pos", 
                "offset": 19, 
                "reference": "sent-PMC1401512-medscan-155"
            }, 
            "frame-id": "ment-PMC1401512-cmu-junsys-413", 
            "frame-type": "entity-mention", 
            "object-meta": {
                "component": "Jun-System", 
                "object-type": "meta-info", 
                "organization": "CMU"
            }, 
            "object-type": "frame", 
            "sentence": "sent-PMC1401512-medscan-155", 
            "start-pos": {
                "context-start": "acetylation/1", 
                "object-type": "relative-pos", 
                "offset": 8, 
                "reference": "sent-PMC1401512-medscan-155"
            }, 
            "text": "acetylation", 
            "xrefs": []
        }, 
        {
            "end-pos": {
                "context-end": "variety/1", 
                "object-type": "relative-pos", 
                "offset": 39, 
                "reference": "sent-PMC1401512-medscan-155"
            }, 
            "frame-id": "ment-PMC1401512-cmu-junsys-414", 
            "frame-type": "entity-mention", 
            "object-meta": {
                "component": "Jun-System", 
                "object-type": "meta-info", 
                "organization": "CMU"
            }, 
            "object-type": "frame", 
            "sentence": "sent-PMC1401512-medscan-155", 
            "start-pos": {
                "context-start": "variety/1", 
                "object-type": "relative-pos", 
                "offset": 32, 
                "reference": "sent-PMC1401512-medscan-155"
            }, 
            "text": "variety", 
            "xrefs": []
        }, 
        {
            "end-pos": {
                "context-end": "which/1", 
                "object-type": "relative-pos", 
                "offset": 182, 
                "reference": "sent-PMC1401512-medscan-160"
            }, 
            "frame-id": "ment-PMC1401512-cmu-junsys-429", 
            "frame-type": "entity-mention", 
            "object-meta": {
                "component": "Jun-System", 
                "object-type": "meta-info", 
                "organization": "CMU"
            }, 
            "object-type": "frame", 
            "sentence": "sent-PMC1401512-medscan-160", 
            "start-pos": {
                "context-start": "which/1", 
                "object-type": "relative-pos", 
                "offset": 177, 
                "reference": "sent-PMC1401512-medscan-160"
            }, 
            "text": "which", 
            "xrefs": []
        }, 
        {
            "end-pos": {
                "context-end": "shuttling/1", 
                "object-type": "relative-pos", 
                "offset": 55, 
                "reference": "sent-PMC1401512-medscan-161"
            }, 
            "frame-id": "ment-PMC1401512-cmu-junsys-433", 
            "frame-type": "entity-mention", 
            "object-meta": {
                "component": "Jun-System", 
                "object-type": "meta-info", 
                "organization": "CMU"
            }, 
            "object-type": "frame", 
            "sentence": "sent-PMC1401512-medscan-161", 
            "start-pos": {
                "context-start": "shuttling/1", 
                "object-type": "relative-pos", 
                "offset": 46, 
                "reference": "sent-PMC1401512-medscan-161"
            }, 
            "text": "shuttling", 
            "xrefs": []
        }, 
        {
            "end-pos": {
                "context-end": "activity/1", 
                "object-type": "relative-pos", 
                "offset": 122, 
                "reference": "sent-PMC1401512-medscan-161"
            }, 
            "frame-id": "ment-PMC1401512-cmu-junsys-436", 
            "frame-type": "entity-mention", 
            "object-meta": {
                "component": "Jun-System", 
                "object-type": "meta-info", 
                "organization": "CMU"
            }, 
            "object-type": "frame", 
            "sentence": "sent-PMC1401512-medscan-161", 
            "start-pos": {
                "context-start": "activity/1", 
                "object-type": "relative-pos", 
                "offset": 114, 
                "reference": "sent-PMC1401512-medscan-161"
            }, 
            "text": "activity", 
            "xrefs": []
        }, 
        {
            "end-pos": {
                "context-end": "expression/1", 
                "object-type": "relative-pos", 
                "offset": 112, 
                "reference": "sent-PMC1401512-medscan-164"
            }, 
            "frame-id": "ment-PMC1401512-cmu-junsys-447", 
            "frame-type": "entity-mention", 
            "object-meta": {
                "component": "Jun-System", 
                "object-type": "meta-info", 
                "organization": "CMU"
            }, 
            "object-type": "frame", 
            "sentence": "sent-PMC1401512-medscan-164", 
            "start-pos": {
                "context-start": "expression/1", 
                "object-type": "relative-pos", 
                "offset": 102, 
                "reference": "sent-PMC1401512-medscan-164"
            }, 
            "text": "expression", 
            "xrefs": []
        }, 
        {
            "end-pos": {
                "context-end": "that/1", 
                "object-type": "relative-pos", 
                "offset": 40, 
                "reference": "sent-PMC1401512-medscan-173"
            }, 
            "frame-id": "ment-PMC1401512-cmu-junsys-486", 
            "frame-type": "entity-mention", 
            "object-meta": {
                "component": "Jun-System", 
                "object-type": "meta-info", 
                "organization": "CMU"
            }, 
            "object-type": "frame", 
            "sentence": "sent-PMC1401512-medscan-173", 
            "start-pos": {
                "context-start": "that/1", 
                "object-type": "relative-pos", 
                "offset": 36, 
                "reference": "sent-PMC1401512-medscan-173"
            }, 
            "text": "that", 
            "xrefs": []
        }, 
        {
            "end-pos": {
                "context-end": "acetyltransferase/1", 
                "object-type": "relative-pos", 
                "offset": 145, 
                "reference": "sent-PMC1401512-medscan-174"
            }, 
            "frame-id": "ment-PMC1401512-cmu-junsys-488", 
            "frame-type": "entity-mention", 
            "object-meta": {
                "component": "Jun-System", 
                "object-type": "meta-info", 
                "organization": "CMU"
            }, 
            "object-type": "frame", 
            "sentence": "sent-PMC1401512-medscan-174", 
            "start-pos": {
                "context-start": "acetyltransferase/1", 
                "object-type": "relative-pos", 
                "offset": 128, 
                "reference": "sent-PMC1401512-medscan-174"
            }, 
            "text": "acetyltransferase", 
            "xrefs": []
        }, 
        {
            "end-pos": {
                "object-type": "relative-pos", 
                "offset": -1, 
                "reference": "NOT LINKED"
            }, 
            "frame-id": "ment-PMC1401512-cmu-junsys-493", 
            "frame-type": "entity-mention", 
            "object-meta": {
                "component": "Jun-System", 
                "object-type": "meta-info", 
                "organization": "CMU"
            }, 
            "object-type": "frame", 
            "sentence": "NOT LINKED", 
            "start-pos": {
                "object-type": "relative-pos", 
                "offset": -1, 
                "reference": "NOT LINKED"
            }, 
            "text": "activity", 
            "xrefs": []
        }, 
        {
            "arguments": [
                {
                    "arg": "ment-PMC1401512-cmu-junsys-3", 
                    "object-type": "argument", 
                    "type": "arg0"
                }, 
                {
                    "arg": "ment-PMC1401512-cmu-medscan-5", 
                    "object-type": "argument", 
                    "type": "arg1"
                }
            ], 
            "context": "Drosophila GCM1 regulates the differentiation", 
            "end-pos": {
                "context-end": "regulates/1", 
                "object-type": "relative-pos", 
                "offset": 25, 
                "reference": "sent-PMC1401512-medscan-2"
            }, 
            "frame-id": "eve-PMC1401512-cmu-junsys-495", 
            "frame-type": "event-mention", 
            "object-meta": {
                "component": "Jun-System", 
                "object-type": "meta-info", 
                "organization": "CMU"
            }, 
            "object-type": "frame", 
            "sentence": "sent-PMC1401512-medscan-2", 
            "start-pos": {
                "context-start": "regulates/1", 
                "object-type": "relative-pos", 
                "offset": 16, 
                "reference": "sent-PMC1401512-medscan-2"
            }, 
            "text": "regulates", 
            "type": "regulate"
        }, 
        {
            "arguments": [
                {
                    "arg": "ment-PMC1401512-cmu-medscan-7", 
                    "object-type": "argument", 
                    "type": "arg0"
                }, 
                {
                    "arg": "ment-PMC1401512-cmu-junsys-8", 
                    "object-type": "argument", 
                    "type": "arg1"
                }
            ], 
            "context": "GCMa and b regulate the formation", 
            "end-pos": {
                "context-end": "regulate/2", 
                "object-type": "relative-pos", 
                "offset": 126, 
                "reference": "sent-PMC1401512-medscan-2"
            }, 
            "frame-id": "eve-PMC1401512-cmu-junsys-496", 
            "frame-type": "event-mention", 
            "object-meta": {
                "component": "Jun-System", 
                "object-type": "meta-info", 
                "organization": "CMU"
            }, 
            "object-type": "frame", 
            "sentence": "sent-PMC1401512-medscan-2", 
            "start-pos": {
                "context-start": "regulate/2", 
                "object-type": "relative-pos", 
                "offset": 118, 
                "reference": "sent-PMC1401512-medscan-2"
            }, 
            "text": "regulate", 
            "type": "regulate"
        }, 
        {
            "arguments": [
                {
                    "arg": "ment-PMC1401512-cmu-junsys-13", 
                    "object-type": "argument", 
                    "type": "arg0"
                }, 
                {
                    "arg": "ment-PMC1401512-cmu-junsys-12", 
                    "object-type": "argument", 
                    "type": "arg1"
                }
            ], 
            "context": "regulates expression of repo (reverse polarity) and pnt (pointed) genes", 
            "end-pos": {
                "object-type": "relative-pos", 
                "offset": -1, 
                "reference": "sent-PMC1401512-medscan-5"
            }, 
            "frame-id": "eve-PMC1401512-cmu-junsys-497", 
            "frame-type": "event-mention", 
            "object-meta": {
                "component": "Jun-System", 
                "object-type": "meta-info", 
                "organization": "CMU"
            }, 
            "object-type": "frame", 
            "sentence": "sent-PMC1401512-medscan-5", 
            "start-pos": {
                "object-type": "relative-pos", 
                "offset": -1, 
                "reference": "sent-PMC1401512-medscan-5"
            }, 
            "text": "regulates", 
            "type": "regulate"
        }, 
        {
            "arguments": [
                {
                    "arg": "ment-PMC1401512-cmu-medscan-16", 
                    "object-type": "argument", 
                    "type": "arg0"
                }, 
                {
                    "arg": "ment-PMC1401512-cmu-junsys-17", 
                    "object-type": "argument", 
                    "type": "arg1"
                }
            ], 
            "context": "GCMa regulates expression", 
            "end-pos": {
                "context-end": "regulates/2", 
                "object-type": "relative-pos", 
                "offset": 191, 
                "reference": "sent-PMC1401512-medscan-5"
            }, 
            "frame-id": "eve-PMC1401512-cmu-junsys-498", 
            "frame-type": "event-mention", 
            "object-meta": {
                "component": "Jun-System", 
                "object-type": "meta-info", 
                "organization": "CMU"
            }, 
            "object-type": "frame", 
            "sentence": "sent-PMC1401512-medscan-5", 
            "start-pos": {
                "context-start": "regulates/2", 
                "object-type": "relative-pos", 
                "offset": 182, 
                "reference": "sent-PMC1401512-medscan-5"
            }, 
            "text": "regulates", 
            "type": "regulate"
        }, 
        {
            "arguments": [
                {
                    "arg": "ment-PMC1401512-cmu-junsys-22", 
                    "object-type": "argument", 
                    "type": "arg0"
                }, 
                {
                    "arg": "ment-PMC1401512-cmu-junsys-24", 
                    "object-type": "argument", 
                    "type": "arg1"
                }
            ], 
            "context": "Drosophila GCM1 can positively regulate its own expression", 
            "end-pos": {
                "context-end": "regulate/1", 
                "object-type": "relative-pos", 
                "offset": 54, 
                "reference": "sent-PMC1401512-medscan-6"
            }, 
            "frame-id": "eve-PMC1401512-cmu-junsys-499", 
            "frame-type": "event-mention", 
            "object-meta": {
                "component": "Jun-System", 
                "object-type": "meta-info", 
                "organization": "CMU"
            }, 
            "object-type": "frame", 
            "sentence": "sent-PMC1401512-medscan-6", 
            "start-pos": {
                "context-start": "regulate/1", 
                "object-type": "relative-pos", 
                "offset": 46, 
                "reference": "sent-PMC1401512-medscan-6"
            }, 
            "text": "regulate", 
            "type": "regulate"
        }, 
        {
            "arguments": [
                {
                    "arg": "ment-PMC1401512-cmu-junsys-37", 
                    "object-type": "argument", 
                    "type": "arg1"
                }
            ], 
            "context": "regulation of GCMa/1 activity", 
            "end-pos": {
                "context-end": "regulation/1", 
                "object-type": "relative-pos", 
                "offset": 21, 
                "reference": "sent-PMC1401512-medscan-11"
            }, 
            "frame-id": "eve-PMC1401512-cmu-junsys-500", 
            "frame-type": "event-mention", 
            "object-meta": {
                "component": "Jun-System", 
                "object-type": "meta-info", 
                "organization": "CMU"
            }, 
            "object-type": "frame", 
            "sentence": "sent-PMC1401512-medscan-11", 
            "start-pos": {
                "context-start": "regulation/1", 
                "object-type": "relative-pos", 
                "offset": 11, 
                "reference": "sent-PMC1401512-medscan-11"
            }, 
            "text": "regulation", 
            "type": "regulate"
        }, 
        {
            "arguments": [
                {
                    "arg": "ment-PMC1401512-cmu-junsys-38", 
                    "object-type": "argument", 
                    "type": "arg0"
                }, 
                {
                    "arg": "ment-PMC1401512-cmu-junsys-39", 
                    "object-type": "argument", 
                    "type": "arg1"
                }
            ], 
            "context": "that regulates a variety", 
            "end-pos": {
                "context-end": "regulates/1", 
                "object-type": "relative-pos", 
                "offset": 133, 
                "reference": "sent-PMC1401512-medscan-12"
            }, 
            "frame-id": "eve-PMC1401512-cmu-junsys-501", 
            "frame-type": "event-mention", 
            "object-meta": {
                "component": "Jun-System", 
                "object-type": "meta-info", 
                "organization": "CMU"
            }, 
            "object-type": "frame", 
            "sentence": "sent-PMC1401512-medscan-12", 
            "start-pos": {
                "context-start": "regulates/1", 
                "object-type": "relative-pos", 
                "offset": 124, 
                "reference": "sent-PMC1401512-medscan-12"
            }, 
            "text": "regulates", 
            "type": "regulate"
        }, 
        {
            "arguments": [
                {
                    "arg": "ment-PMC1401512-cmu-junsys-44", 
                    "object-type": "argument", 
                    "type": "arg1"
                }
            ], 
            "context": "regulation of transcriptional machinery", 
            "end-pos": {
                "context-end": "regulation/1", 
                "object-type": "relative-pos", 
                "offset": 179, 
                "reference": "sent-PMC1401512-medscan-14"
            }, 
            "frame-id": "eve-PMC1401512-cmu-junsys-502", 
            "frame-type": "event-mention", 
            "object-meta": {
                "component": "Jun-System", 
                "object-type": "meta-info", 
                "organization": "CMU"
            }, 
            "object-type": "frame", 
            "sentence": "sent-PMC1401512-medscan-14", 
            "start-pos": {
                "context-start": "regulation/1", 
                "object-type": "relative-pos", 
                "offset": 169, 
                "reference": "sent-PMC1401512-medscan-14"
            }, 
            "text": "regulation", 
            "type": "regulate"
        }, 
        {
            "arguments": [
                {
                    "arg": "ment-PMC1401512-cmu-junsys-73", 
                    "object-type": "argument", 
                    "type": "arg1"
                }
            ], 
            "context": "regulation of GCMa activity", 
            "end-pos": {
                "object-type": "relative-pos", 
                "offset": -1, 
                "reference": "NOT LINKED"
            }, 
            "frame-id": "eve-PMC1401512-cmu-junsys-503", 
            "frame-type": "event-mention", 
            "object-meta": {
                "component": "Jun-System", 
                "object-type": "meta-info", 
                "organization": "CMU"
            }, 
            "object-type": "frame", 
            "sentence": "NOT LINKED", 
            "start-pos": {
                "object-type": "relative-pos", 
                "offset": -1, 
                "reference": "NOT LINKED"
            }, 
            "text": "regulation", 
            "type": "regulate"
        }, 
        {
            "arguments": [
                {
                    "arg": "ment-PMC1401512-cmu-junsys-86", 
                    "object-type": "argument", 
                    "type": "arg1"
                }
            ], 
            "context": "regulation of GCMa-mediated transcriptional activation", 
            "end-pos": {
                "context-end": "regulation/1", 
                "object-type": "relative-pos", 
                "offset": 234, 
                "reference": "sent-PMC1401512-medscan-27"
            }, 
            "frame-id": "eve-PMC1401512-cmu-junsys-504", 
            "frame-type": "event-mention", 
            "object-meta": {
                "component": "Jun-System", 
                "object-type": "meta-info", 
                "organization": "CMU"
            }, 
            "object-type": "frame", 
            "sentence": "sent-PMC1401512-medscan-27", 
            "start-pos": {
                "context-start": "regulation/1", 
                "object-type": "relative-pos", 
                "offset": 224, 
                "reference": "sent-PMC1401512-medscan-27"
            }, 
            "text": "regulation", 
            "type": "regulate"
        }, 
        {
            "arguments": [
                {
                    "arg": "ment-PMC1401512-cmu-junsys-158", 
                    "object-type": "argument", 
                    "type": "arg1"
                }
            ], 
            "context": "activation of the cAMP/PKA signaling pathway", 
            "end-pos": {
                "context-end": "activation/1", 
                "object-type": "relative-pos", 
                "offset": 45, 
                "reference": "sent-PMC1401512-medscan-71"
            }, 
            "frame-id": "eve-PMC1401512-cmu-junsys-505", 
            "frame-type": "event-mention", 
            "object-meta": {
                "component": "Jun-System", 
                "object-type": "meta-info", 
                "organization": "CMU"
            }, 
            "object-type": "frame", 
            "sentence": "sent-PMC1401512-medscan-71", 
            "start-pos": {
                "context-start": "activation/1", 
                "object-type": "relative-pos", 
                "offset": 35, 
                "reference": "sent-PMC1401512-medscan-71"
            }, 
            "text": "activation", 
            "type": "activate"
        }, 
        {
            "arguments": [
                {
                    "arg": "ment-PMC1401512-cmu-junsys-172", 
                    "object-type": "argument", 
                    "type": "arg1"
                }
            ], 
            "context": "regulation of GCMa activity", 
            "end-pos": {
                "context-end": "regulation/1", 
                "object-type": "relative-pos", 
                "offset": 170, 
                "reference": "sent-PMC1401512-medscan-73"
            }, 
            "frame-id": "eve-PMC1401512-cmu-junsys-506", 
            "frame-type": "event-mention", 
            "object-meta": {
                "component": "Jun-System", 
                "object-type": "meta-info", 
                "organization": "CMU"
            }, 
            "object-type": "frame", 
            "sentence": "sent-PMC1401512-medscan-73", 
            "start-pos": {
                "context-start": "regulation/1", 
                "object-type": "relative-pos", 
                "offset": 160, 
                "reference": "sent-PMC1401512-medscan-73"
            }, 
            "text": "regulation", 
            "type": "regulate"
        }, 
        {
            "arguments": [
                {
                    "arg": "ment-PMC1401512-cmu-junsys-206", 
                    "object-type": "argument", 
                    "type": "arg1"
                }
            ], 
            "context": "inhibition of GCMa deacetylation", 
            "end-pos": {
                "context-end": "inhibition/1", 
                "object-type": "relative-pos", 
                "offset": 39, 
                "reference": "sent-PMC1401512-medscan-83"
            }, 
            "frame-id": "eve-PMC1401512-cmu-junsys-507", 
            "frame-type": "event-mention", 
            "object-meta": {
                "component": "Jun-System", 
                "object-type": "meta-info", 
                "organization": "CMU"
            }, 
            "object-type": "frame", 
            "sentence": "sent-PMC1401512-medscan-83", 
            "start-pos": {
                "context-start": "inhibition/1", 
                "object-type": "relative-pos", 
                "offset": 29, 
                "reference": "sent-PMC1401512-medscan-83"
            }, 
            "text": "inhibition", 
            "type": "inhibit"
        }, 
        {
            "arguments": [
                {
                    "arg": "ment-PMC1401512-cmu-junsys-240", 
                    "object-type": "argument", 
                    "type": "arg1"
                }
            ], 
            "context": "regulation of CBP-mediated GCMa acetylation", 
            "end-pos": {
                "context-end": "regulation/1", 
                "object-type": "relative-pos", 
                "offset": 195, 
                "reference": "sent-PMC1401512-medscan-95"
            }, 
            "frame-id": "eve-PMC1401512-cmu-junsys-508", 
            "frame-type": "event-mention", 
            "object-meta": {
                "component": "Jun-System", 
                "object-type": "meta-info", 
                "organization": "CMU"
            }, 
            "object-type": "frame", 
            "sentence": "sent-PMC1401512-medscan-95", 
            "start-pos": {
                "context-start": "regulation/1", 
                "object-type": "relative-pos", 
                "offset": 185, 
                "reference": "sent-PMC1401512-medscan-95"
            }, 
            "text": "regulation", 
            "type": "regulate"
        }, 
        {
            "arguments": [
                {
                    "arg": "ment-PMC1401512-cmu-junsys-289", 
                    "object-type": "argument", 
                    "type": "arg0"
                }, 
                {
                    "arg": "ment-PMC1401512-cmu-junsys-292", 
                    "object-type": "argument", 
                    "type": "arg1"
                }
            ], 
            "context": "HDAC3 and 4 also regulates CBP-enhanced GCMa transcriptional activity", 
            "end-pos": {
                "context-end": "regulates/1", 
                "object-type": "relative-pos", 
                "offset": 49, 
                "reference": "sent-PMC1401512-medscan-120"
            }, 
            "frame-id": "eve-PMC1401512-cmu-junsys-509", 
            "frame-type": "event-mention", 
            "object-meta": {
                "component": "Jun-System", 
                "object-type": "meta-info", 
                "organization": "CMU"
            }, 
            "object-type": "frame", 
            "sentence": "sent-PMC1401512-medscan-120", 
            "start-pos": {
                "context-start": "regulates/1", 
                "object-type": "relative-pos", 
                "offset": 40, 
                "reference": "sent-PMC1401512-medscan-120"
            }, 
            "text": "regulates", 
            "type": "regulate"
        }, 
        {
            "arguments": [
                {
                    "arg": "ment-PMC1401512-cmu-medscan-309", 
                    "object-type": "argument", 
                    "type": "arg1"
                }
            ], 
            "context": "GCMa transcriptional activation", 
            "end-pos": {
                "context-end": "activation/1", 
                "object-type": "relative-pos", 
                "offset": 251, 
                "reference": "sent-PMC1401512-medscan-128"
            }, 
            "frame-id": "eve-PMC1401512-cmu-junsys-510", 
            "frame-type": "event-mention", 
            "object-meta": {
                "component": "Jun-System", 
                "object-type": "meta-info", 
                "organization": "CMU"
            }, 
            "object-type": "frame", 
            "sentence": "sent-PMC1401512-medscan-128", 
            "start-pos": {
                "context-start": "activation/1", 
                "object-type": "relative-pos", 
                "offset": 241, 
                "reference": "sent-PMC1401512-medscan-128"
            }, 
            "text": "activation", 
            "type": "activate"
        }, 
        {
            "arguments": [
                {
                    "arg": "ment-PMC1401512-cmu-junsys-311", 
                    "object-type": "argument", 
                    "type": "arg0"
                }, 
                {
                    "arg": "ment-PMC1401512-cmu-junsys-313", 
                    "object-type": "argument", 
                    "type": "arg1"
                }
            ], 
            "context": "acetylation of GCMa by CBP increases the stability", 
            "end-pos": {
                "context-end": "increases/1", 
                "object-type": "relative-pos", 
                "offset": 61, 
                "reference": "sent-PMC1401512-medscan-129"
            }, 
            "frame-id": "eve-PMC1401512-cmu-junsys-511", 
            "frame-type": "event-mention", 
            "object-meta": {
                "component": "Jun-System", 
                "object-type": "meta-info", 
                "organization": "CMU"
            }, 
            "object-type": "frame", 
            "sentence": "sent-PMC1401512-medscan-129", 
            "start-pos": {
                "context-start": "increases/1", 
                "object-type": "relative-pos", 
                "offset": 52, 
                "reference": "sent-PMC1401512-medscan-129"
            }, 
            "text": "increases", 
            "type": "increase"
        }, 
        {
            "arguments": [
                {
                    "arg": "ment-PMC1401512-cmu-medscan-329", 
                    "object-type": "argument", 
                    "type": "arg1"
                }
            ], 
            "context": "GCMa transcriptional activation", 
            "end-pos": {
                "context-end": "activation/1", 
                "object-type": "relative-pos", 
                "offset": 201, 
                "reference": "sent-PMC1401512-medscan-132"
            }, 
            "frame-id": "eve-PMC1401512-cmu-junsys-512", 
            "frame-type": "event-mention", 
            "object-meta": {
                "component": "Jun-System", 
                "object-type": "meta-info", 
                "organization": "CMU"
            }, 
            "object-type": "frame", 
            "sentence": "sent-PMC1401512-medscan-132", 
            "start-pos": {
                "context-start": "activation/1", 
                "object-type": "relative-pos", 
                "offset": 191, 
                "reference": "sent-PMC1401512-medscan-132"
            }, 
            "text": "activation", 
            "type": "activate"
        }, 
        {
            "arguments": [
                {
                    "arg": "ment-PMC1401512-cmu-junsys-333", 
                    "object-type": "argument", 
                    "type": "arg1"
                }
            ], 
            "context": "regulation of sycnytin gene expression", 
            "end-pos": {
                "context-end": "regulation/1", 
                "object-type": "relative-pos", 
                "offset": 114, 
                "reference": "sent-PMC1401512-medscan-133"
            }, 
            "frame-id": "eve-PMC1401512-cmu-junsys-513", 
            "frame-type": "event-mention", 
            "object-meta": {
                "component": "Jun-System", 
                "object-type": "meta-info", 
                "organization": "CMU"
            }, 
            "object-type": "frame", 
            "sentence": "sent-PMC1401512-medscan-133", 
            "start-pos": {
                "context-start": "regulation/1", 
                "object-type": "relative-pos", 
                "offset": 104, 
                "reference": "sent-PMC1401512-medscan-133"
            }, 
            "text": "regulation", 
            "type": "regulate"
        }, 
        {
            "arguments": [
                {
                    "arg": "ment-PMC1401512-cmu-junsys-359", 
                    "object-type": "argument", 
                    "type": "arg1"
                }
            ], 
            "context": "regulation of sycnytin gene expression", 
            "end-pos": {
                "context-end": "regulation/1", 
                "object-type": "relative-pos", 
                "offset": 65, 
                "reference": "sent-PMC1401512-medscan-140"
            }, 
            "frame-id": "eve-PMC1401512-cmu-junsys-514", 
            "frame-type": "event-mention", 
            "object-meta": {
                "component": "Jun-System", 
                "object-type": "meta-info", 
                "organization": "CMU"
            }, 
            "object-type": "frame", 
            "sentence": "sent-PMC1401512-medscan-140", 
            "start-pos": {
                "context-start": "regulation/1", 
                "object-type": "relative-pos", 
                "offset": 55, 
                "reference": "sent-PMC1401512-medscan-140"
            }, 
            "text": "regulation", 
            "type": "regulate"
        }, 
        {
            "arguments": [
                {
                    "arg": "ment-PMC1401512-cmu-junsys-365", 
                    "object-type": "argument", 
                    "type": "arg1"
                }
            ], 
            "context": "inhibition of HDAC activity", 
            "end-pos": {
                "context-end": "inhibition/1", 
                "object-type": "relative-pos", 
                "offset": 151, 
                "reference": "sent-PMC1401512-medscan-142"
            }, 
            "frame-id": "eve-PMC1401512-cmu-junsys-515", 
            "frame-type": "event-mention", 
            "object-meta": {
                "component": "Jun-System", 
                "object-type": "meta-info", 
                "organization": "CMU"
            }, 
            "object-type": "frame", 
            "sentence": "sent-PMC1401512-medscan-142", 
            "start-pos": {
                "context-start": "inhibition/1", 
                "object-type": "relative-pos", 
                "offset": 141, 
                "reference": "sent-PMC1401512-medscan-142"
            }, 
            "text": "inhibition", 
            "type": "inhibit"
        }, 
        {
            "arguments": [
                {
                    "arg": "eve-PMC1401512-cmu-junsys-515", 
                    "object-type": "argument", 
                    "type": "arg0"
                }, 
                {
                    "arg": "ment-PMC1401512-cmu-junsys-367", 
                    "object-type": "argument", 
                    "type": "arg1"
                }
            ], 
            "context": "inhibition of HDAC activity can upregulate syncytin promoter activity", 
            "end-pos": {
                "context-end": "upregulate/1", 
                "object-type": "relative-pos", 
                "offset": 183, 
                "reference": "sent-PMC1401512-medscan-142"
            }, 
            "frame-id": "eve-PMC1401512-cmu-junsys-516", 
            "frame-type": "event-mention", 
            "object-meta": {
                "component": "Jun-System", 
                "object-type": "meta-info", 
                "organization": "CMU"
            }, 
            "object-type": "frame", 
            "sentence": "sent-PMC1401512-medscan-142", 
            "start-pos": {
                "context-start": "upregulate/1", 
                "object-type": "relative-pos", 
                "offset": 173, 
                "reference": "sent-PMC1401512-medscan-142"
            }, 
            "text": "upregulate", 
            "type": "upregulate"
        }, 
        {
            "arguments": [
                {
                    "arg": "ment-PMC1401512-cmu-junsys-378", 
                    "object-type": "argument", 
                    "type": "arg1"
                }
            ], 
            "context": "activation of syncytin promoter", 
            "end-pos": {
                "context-end": "activation/1", 
                "object-type": "relative-pos", 
                "offset": 48, 
                "reference": "sent-PMC1401512-medscan-145"
            }, 
            "frame-id": "eve-PMC1401512-cmu-junsys-517", 
            "frame-type": "event-mention", 
            "object-meta": {
                "component": "Jun-System", 
                "object-type": "meta-info", 
                "organization": "CMU"
            }, 
            "object-type": "frame", 
            "sentence": "sent-PMC1401512-medscan-145", 
            "start-pos": {
                "context-start": "activation/1", 
                "object-type": "relative-pos", 
                "offset": 38, 
                "reference": "sent-PMC1401512-medscan-145"
            }, 
            "text": "activation", 
            "type": "activate"
        }, 
        {
            "arguments": [
                {
                    "arg": "ment-PMC1401512-cmu-medscan-390", 
                    "object-type": "argument", 
                    "type": "arg0"
                }, 
                {
                    "arg": "ment-PMC1401512-cmu-junsys-392", 
                    "object-type": "argument", 
                    "type": "arg1"
                }
            ], 
            "context": "GCMa regulates syncytin gene expression", 
            "end-pos": {
                "context-end": "regulates/1", 
                "object-type": "relative-pos", 
                "offset": 14, 
                "reference": "sent-PMC1401512-medscan-149"
            }, 
            "frame-id": "eve-PMC1401512-cmu-junsys-518", 
            "frame-type": "event-mention", 
            "object-meta": {
                "component": "Jun-System", 
                "object-type": "meta-info", 
                "organization": "CMU"
            }, 
            "object-type": "frame", 
            "sentence": "sent-PMC1401512-medscan-149", 
            "start-pos": {
                "context-start": "regulates/1", 
                "object-type": "relative-pos", 
                "offset": 5, 
                "reference": "sent-PMC1401512-medscan-149"
            }, 
            "text": "regulates", 
            "type": "regulate"
        }, 
        {
            "arguments": [
                {
                    "arg": "ment-PMC1401512-cmu-junsys-400", 
                    "object-type": "argument", 
                    "type": "arg0"
                }, 
                {
                    "arg": "ment-PMC1401512-cmu-junsys-402", 
                    "object-type": "argument", 
                    "type": "arg1"
                }
            ], 
            "context": "that negatively regulates GCMa activity", 
            "end-pos": {
                "context-end": "regulates/1", 
                "object-type": "relative-pos", 
                "offset": 95, 
                "reference": "sent-PMC1401512-medscan-150"
            }, 
            "frame-id": "eve-PMC1401512-cmu-junsys-519", 
            "frame-type": "event-mention", 
            "object-meta": {
                "component": "Jun-System", 
                "object-type": "meta-info", 
                "organization": "CMU"
            }, 
            "object-type": "frame", 
            "sentence": "sent-PMC1401512-medscan-150", 
            "start-pos": {
                "context-start": "regulates/1", 
                "object-type": "relative-pos", 
                "offset": 86, 
                "reference": "sent-PMC1401512-medscan-150"
            }, 
            "text": "regulates", 
            "type": "regulate"
        }, 
        {
            "arguments": [
                {
                    "arg": "ment-PMC1401512-cmu-junsys-413", 
                    "object-type": "argument", 
                    "type": "arg0"
                }, 
                {
                    "arg": "ment-PMC1401512-cmu-junsys-414", 
                    "object-type": "argument", 
                    "type": "arg1"
                }
            ], 
            "context": "acetylation regulates a variety", 
            "end-pos": {
                "context-end": "regulates/1", 
                "object-type": "relative-pos", 
                "offset": 29, 
                "reference": "sent-PMC1401512-medscan-155"
            }, 
            "frame-id": "eve-PMC1401512-cmu-junsys-520", 
            "frame-type": "event-mention", 
            "object-meta": {
                "component": "Jun-System", 
                "object-type": "meta-info", 
                "organization": "CMU"
            }, 
            "object-type": "frame", 
            "sentence": "sent-PMC1401512-medscan-155", 
            "start-pos": {
                "context-start": "regulates/1", 
                "object-type": "relative-pos", 
                "offset": 20, 
                "reference": "sent-PMC1401512-medscan-155"
            }, 
            "text": "regulates", 
            "type": "regulate"
        }, 
        {
            "arguments": [
                {
                    "arg": "ment-PMC1401512-cmu-junsys-433", 
                    "object-type": "argument", 
                    "type": "arg0"
                }, 
                {
                    "arg": "ment-PMC1401512-cmu-junsys-436", 
                    "object-type": "argument", 
                    "type": "arg1"
                }
            ], 
            "context": "shuttling of HDAC4 and 5 takes place in placenta and regulates GCMa activity", 
            "end-pos": {
                "context-end": "regulates/1", 
                "object-type": "relative-pos", 
                "offset": 108, 
                "reference": "sent-PMC1401512-medscan-161"
            }, 
            "frame-id": "eve-PMC1401512-cmu-junsys-521", 
            "frame-type": "event-mention", 
            "object-meta": {
                "component": "Jun-System", 
                "object-type": "meta-info", 
                "organization": "CMU"
            }, 
            "object-type": "frame", 
            "sentence": "sent-PMC1401512-medscan-161", 
            "start-pos": {
                "context-start": "regulates/1", 
                "object-type": "relative-pos", 
                "offset": 99, 
                "reference": "sent-PMC1401512-medscan-161"
            }, 
            "text": "regulates", 
            "type": "regulate"
        }, 
        {
            "arguments": [
                {
                    "arg": "ment-PMC1401512-cmu-medscan-445", 
                    "object-type": "argument", 
                    "type": "arg0"
                }, 
                {
                    "arg": "ment-PMC1401512-cmu-junsys-447", 
                    "object-type": "argument", 
                    "type": "arg1"
                }
            ], 
            "context": "GCMa regulates syncytin gene expression", 
            "end-pos": {
                "context-end": "regulates/1", 
                "object-type": "relative-pos", 
                "offset": 87, 
                "reference": "sent-PMC1401512-medscan-164"
            }, 
            "frame-id": "eve-PMC1401512-cmu-junsys-522", 
            "frame-type": "event-mention", 
            "object-meta": {
                "component": "Jun-System", 
                "object-type": "meta-info", 
                "organization": "CMU"
            }, 
            "object-type": "frame", 
            "sentence": "sent-PMC1401512-medscan-164", 
            "start-pos": {
                "context-start": "regulates/1", 
                "object-type": "relative-pos", 
                "offset": 78, 
                "reference": "sent-PMC1401512-medscan-164"
            }, 
            "text": "regulates", 
            "type": "regulate"
        }, 
        {
            "arguments": [
                {
                    "arg": "ment-PMC1401512-cmu-junsys-488", 
                    "object-type": "argument", 
                    "type": "arg0"
                }, 
                {
                    "arg": "ment-PMC1401512-cmu-junsys-486", 
                    "object-type": "argument", 
                    "type": "arg1"
                }
            ], 
            "context": "that CBP histone acetyltransferase upregulates", 
            "end-pos": {
                "context-end": "upregulates/1", 
                "object-type": "relative-pos", 
                "offset": 82, 
                "reference": "sent-PMC1401512-medscan-173"
            }, 
            "frame-id": "eve-PMC1401512-cmu-junsys-523", 
            "frame-type": "event-mention", 
            "object-meta": {
                "component": "Jun-System", 
                "object-type": "meta-info", 
                "organization": "CMU"
            }, 
            "object-type": "frame", 
            "sentence": "sent-PMC1401512-medscan-173", 
            "start-pos": {
                "context-start": "upregulates/1", 
                "object-type": "relative-pos", 
                "offset": 71, 
                "reference": "sent-PMC1401512-medscan-173"
            }, 
            "text": "upregulates", 
            "type": "upregulate"
        }, 
        {
            "arguments": [
                {
                    "arg": "ment-PMC1401512-cmu-junsys-493", 
                    "object-type": "argument", 
                    "type": "arg1"
                }
            ], 
            "context": "regulation of GCMa activity", 
            "end-pos": {
                "object-type": "relative-pos", 
                "offset": -1, 
                "reference": "NOT LINKED"
            }, 
            "frame-id": "eve-PMC1401512-cmu-junsys-524", 
            "frame-type": "event-mention", 
            "object-meta": {
                "component": "Jun-System", 
                "object-type": "meta-info", 
                "organization": "CMU"
            }, 
            "object-type": "frame", 
            "sentence": "NOT LINKED", 
            "start-pos": {
                "object-type": "relative-pos", 
                "offset": -1, 
                "reference": "NOT LINKED"
            }, 
            "text": "regulation", 
            "type": "regulate"
        }, 
        {
            "frame-id": "ent-PMC1401512-cmu-junsys-526", 
            "frame-type": "entity", 
            "members": [
                "ment-PMC1401512-cmu-junsys-13", 
                "ment-PMC1401512-cmu-junsys-14"
            ], 
            "object-meta": {
                "component": "Jun-System", 
                "object-type": "meta-info", 
                "organization": "CMU"
            }, 
            "object-type": "frame"
        }, 
        {
            "frame-id": "ent-PMC1401512-cmu-junsys-527", 
            "frame-type": "entity", 
            "members": [
                "ment-PMC1401512-cmu-junsys-19", 
                "ment-PMC1401512-cmu-junsys-20"
            ], 
            "object-meta": {
                "component": "Jun-System", 
                "object-type": "meta-info", 
                "organization": "CMU"
            }, 
            "object-type": "frame"
        }, 
        {
            "frame-id": "ent-PMC1401512-cmu-junsys-528", 
            "frame-type": "entity", 
            "members": [
                "ment-PMC1401512-cmu-junsys-80", 
                "ment-PMC1401512-cmu-junsys-81"
            ], 
            "object-meta": {
                "component": "Jun-System", 
                "object-type": "meta-info", 
                "organization": "CMU"
            }, 
            "object-type": "frame"
        }, 
        {
            "frame-id": "ent-PMC1401512-cmu-junsys-529", 
            "frame-type": "entity", 
            "members": [
                "ment-PMC1401512-cmu-medscan-160", 
                "ment-PMC1401512-cmu-junsys-161"
            ], 
            "object-meta": {
                "component": "Jun-System", 
                "object-type": "meta-info", 
                "organization": "CMU"
            }, 
            "object-type": "frame"
        }, 
        {
            "frame-id": "ent-PMC1401512-cmu-junsys-530", 
            "frame-type": "entity", 
            "members": [
                "ment-PMC1401512-cmu-medscan-192", 
                "ment-PMC1401512-cmu-junsys-193"
            ], 
            "object-meta": {
                "component": "Jun-System", 
                "object-type": "meta-info", 
                "organization": "CMU"
            }, 
            "object-type": "frame"
        }, 
        {
            "frame-id": "ent-PMC1401512-cmu-junsys-531", 
            "frame-type": "entity", 
            "members": [
                "ment-PMC1401512-cmu-junsys-235", 
                "ment-PMC1401512-cmu-junsys-236"
            ], 
            "object-meta": {
                "component": "Jun-System", 
                "object-type": "meta-info", 
                "organization": "CMU"
            }, 
            "object-type": "frame"
        }, 
        {
            "frame-id": "ent-PMC1401512-cmu-junsys-532", 
            "frame-type": "entity", 
            "members": [
                "ment-PMC1401512-cmu-medscan-326", 
                "ment-PMC1401512-cmu-junsys-327"
            ], 
            "object-meta": {
                "component": "Jun-System", 
                "object-type": "meta-info", 
                "organization": "CMU"
            }, 
            "object-type": "frame"
        }, 
        {
            "frame-id": "ent-PMC1401512-cmu-junsys-533", 
            "frame-type": "entity", 
            "members": [
                "ment-PMC1401512-cmu-junsys-384", 
                "ment-PMC1401512-cmu-junsys-385"
            ], 
            "object-meta": {
                "component": "Jun-System", 
                "object-type": "meta-info", 
                "organization": "CMU"
            }, 
            "object-type": "frame"
        }, 
        {
            "frame-id": "ent-PMC1401512-cmu-junsys-534", 
            "frame-type": "entity", 
            "members": [
                "ment-PMC1401512-cmu-junsys-392", 
                "ment-PMC1401512-cmu-junsys-393"
            ], 
            "object-meta": {
                "component": "Jun-System", 
                "object-type": "meta-info", 
                "organization": "CMU"
            }, 
            "object-type": "frame"
        }, 
        {
            "frame-id": "ent-PMC1401512-cmu-junsys-535", 
            "frame-type": "entity", 
            "members": [
                "ment-PMC1401512-cmu-medscan-428", 
                "ment-PMC1401512-cmu-junsys-429"
            ], 
            "object-meta": {
                "component": "Jun-System", 
                "object-type": "meta-info", 
                "organization": "CMU"
            }, 
            "object-type": "frame"
        }, 
        {
            "frame-type": "event", 
            "object-meta": {
                "component": "Jun-System", 
                "object-type": "meta-info", 
                "organization": "CMU"
            }, 
            "object-type": "frame"
        }
    ], 
    "object-meta": {
        "component": "Jun-System", 
        "component-type": "machine", 
        "doc-id": "PMC1401512", 
        "object-type": "meta-info", 
        "organization": "CMU"
    }, 
    "object-type": "frame-collection"
}
