{
  "evidence": ["All arrows, 0.15 \\u00b5M cytosolic Cdc42 bound to guanine nucleotide dissociation inhibitor, but for dotted, 0.25 \\u00b5M.","Cdc42 bound to guanine nucleotide dissociation inhibitor","guanine nucleotide dissociation inhibitor bound to Cdc42","Three different types of primary responses were considered upon glucose stimulus (to start at 60 seconds): increase in guanine nucleotide dissociation inhibitor phosphorylation rate pG (cross), combined with the increase in Rac and plasma membrane association rate konM (star), and increase in Rac and granular membrane association rate konGr (circles)."],
  "extracted_information": {
    "interaction_type": "binds",
    "negative_information": false,
    "participant_a": {
      "entity_text": "guanine nucleotide dissociation inhibitor",
      "entity_type": "protein_family",
      "identifier": "GO:0005092",
      "in_model": false
    },
    "participant_b": {
      "entity_text": "Cdc42",
      "entity_type": "protein",
      "identifier": "Uniprot:P60953",
      "in_model": true
    }
  },
  "fries_provenance": [
    {
      "component": "MedScan",
      "frame-file": "PMC3542069.cmu.medscan",
      "frame-id": "relm-PMC3542069-cmu-medscan-783",
      "sentence": "All arrows, 0.15 \\u00b5M cytosolic Cdc42 bound to guanine nucleotide dissociation inhibitor, but for dotted, 0.25 \\u00b5M.",
      "text": "guanine nucleotide dissociation inhibitor bound to Cdc42"
    },
    {
      "component": "MedScan",
      "frame-file": "PMC3542069.cmu.medscan",
      "frame-id": "relm-PMC3542069-cmu-medscan-784",
      "sentence": "All arrows, 0.15 \\u00b5M cytosolic Cdc42 bound to guanine nucleotide dissociation inhibitor, but for dotted, 0.25 \\u00b5M.",
      "text": "guanine nucleotide dissociation inhibitor bound to Cdc42"
    },
    {
      "component": "MedScan",
      "frame-file": "PMC3542069.cmu.medscan",
      "frame-id": "relm-PMC3542069-cmu-medscan-785",
      "sentence": "All arrows, 0.15 \\u00b5M cytosolic Cdc42 bound to guanine nucleotide dissociation inhibitor, but for dotted, 0.25 \\u00b5M.",
      "text": "Cdc42 bound to guanine nucleotide dissociation inhibitor"
    },
    {
      "component": "MedScan",
      "frame-file": "PMC3542069.cmu.medscan",
      "frame-id": "relm-PMC3542069-cmu-medscan-788",
      "sentence": "Three different types of primary responses were considered upon glucose stimulus (to start at 60 seconds): increase in guanine nucleotide dissociation inhibitor phosphorylation rate pG (cross), combined with the increase in Rac and plasma membrane association rate konM (star), and increase in Rac and granular membrane association rate konGr (circles).",
      "text": "guanine nucleotide dissociation inhibitor bound to Cdc42"
    }
  ],
  "model_relation": "extension",
  "pmc_id": "PMC3542069",
  "reader_type": "machine",
  "reading_complete": "2015-07-02T21:31:05Z",
  "reading_started": "2015-07-02T21:31:00Z",
  "submitter": "FRIES"
}
