{
  "evidence": ["Both RANTES and (a coreceptor .)-RANTES, like other chemokines and similar to members of the large cytokine family, can trigger early signaling events such as receptor dimerization, followed by recruitment of tyrosine kinases that phosphorylate both the receptor and the STAT transcription factors.","tyrosine kinases that phosphorylate both the receptor and the STAT transcription factors"],
  "extracted_information": {
    "interaction_type": "adds_modification",
    "negative_information": false,
    "modifications": [
      {
        "modification_type": "phosphorylation"
      }
    ],
    "participant_a": {
      "entity_text": "tyrosine kinases",
      "entity_type": "protein_family",
      "identifier": "GO:0004713",
      "in_model": true
    },
    "participant_b": {
      "entity_text": "STAT transcription factors",
      "entity_type": "protein_family",
      "identifier": "ungrounded",
      "in_model": false
    }
  },
  "fries_provenance": [
    {
      "component": "MedScan",
      "frame-file": "PMC2132943.cmu.medscan",
      "frame-id": "relm-PMC2132943-cmu-medscan-731",
      "sentence": "Both RANTES and (a coreceptor .)-RANTES, like other chemokines and similar to members of the large cytokine family, can trigger early signaling events such as receptor dimerization, followed by recruitment of tyrosine kinases that phosphorylate both the receptor and the STAT transcription factors.",
      "text": "tyrosine kinases that phosphorylate both the receptor and the STAT transcription factors"
    }
  ],
  "model_relation": "extension",
  "pmc_id": "PMC2132943",
  "reader_type": "machine",
  "reading_complete": "2015-06-15T19:19:55Z",
  "reading_started": "2015-06-15T19:19:50Z",
  "submitter": "FRIES"
}
