{
  "evidence": ["Future experiments will be aimed at clarifying whether pentamidine reduces ATM kinase activity directly.","pentamidine could inhibit hMRE11 nuclease","pentamidine on ATM kinase activity might occur via repression of hMRE11 nuclease","pentamidine reduced both hMRE11 nuclease and ATM kinase","Thus, pentamidine could inhibit hMRE11 nuclease activity in vitro.","Thus, pentamidine reduced both hMRE11 nuclease and ATM kinase activities in vitro."],
  "extracted_information": {
    "interaction_type": "decreases",
    "negative_information": false,
    "participant_a": {
      "entity_text": "pentamidine",
      "entity_type": "chemical",
      "identifier": "CHEBI:45081",
      "in_model": false
    },
    "participant_b": {
      "entity_text": "hMRE11 nuclease",
      "entity_type": "protein_family",
      "identifier": "Uniprot:P81204",
      "in_model": true
    }
  },
  "fries_provenance": [
    {
      "cmu-sentence-epistemic-status": "belief",
      "cmu-sentence-epistemic-value": 0.9,
      "component": "MedScan",
      "frame-file": "PMC2831819.cmu.medscan",
      "frame-id": "relm-PMC2831819-cmu-medscan-641",
      "passage-id": "pass-PMC2831819-UAZ-r1-21",
      "passage-number": 21,
      "passage-section-id": "N/A",
      "passage-section-name": "N/A",
      "sentence": "Thus, pentamidine could inhibit hMRE11 nuclease activity in vitro.",
      "text": "pentamidine could inhibit hMRE11 nuclease",
      "uaz-sentence": "Thus , pentamidine could inhibit hMRE11 nuclease activity in vitro .",
      "uaz-sentence-start": 528
    },
    {
      "cmu-sentence-epistemic-status": "belief",
      "cmu-sentence-epistemic-value": 0.9,
      "component": "MedScan",
      "frame-file": "PMC2831819.cmu.medscan",
      "frame-id": "relm-PMC2831819-cmu-medscan-645",
      "passage-id": "pass-PMC2831819-UAZ-r1-21",
      "passage-number": 21,
      "passage-section-id": "N/A",
      "passage-section-name": "N/A",
      "sentence": "Thus, pentamidine reduced both hMRE11 nuclease and ATM kinase activities in vitro.",
      "text": "pentamidine reduced both hMRE11 nuclease and ATM kinase",
      "uaz-sentence": "Thus , pentamidine reduced both hMRE11 nuclease and ATM kinase activities in vitro .",
      "uaz-sentence-start": 1077
    },
    {
      "cmu-sentence-epistemic-status": "belief",
      "cmu-sentence-epistemic-value": 0.9,
      "component": "MedScan",
      "frame-file": "PMC2831819.cmu.medscan",
      "frame-id": "relm-PMC2831819-cmu-medscan-673",
      "passage-id": "pass-PMC2831819-UAZ-r1-47",
      "passage-number": 47,
      "passage-section-id": "N/A",
      "passage-section-name": "N/A",
      "sentence": "Future experiments will be aimed at clarifying whether pentamidine reduces ATM kinase activity directly.",
      "text": "pentamidine on ATM kinase activity might occur via repression of hMRE11 nuclease",
      "uaz-sentence": "Future experiments will be aimed at clarifying whether pentamidine reduces ATM kinase activity directly .",
      "uaz-sentence-start": 1156
    }
  ],
  "model_relation": "extension",
  "pmc_id": "PMC2831819",
  "reader_type": "machine",
  "reading_complete": "2015-06-15T21:08:45Z",
  "reading_started": "2015-06-15T21:08:40Z",
  "submitter": "FRIES"
}
