{
  "evidence": ["MyoD regulates the transcription of miR-1/miR-206","MyoD-induced miR-1 and miR-206","Therefore , these results suggest that part of down regulation of Pax3 may be mediated by MyoD induced miR-1 and miR-206 during wild-type satellite cell activation .","These results strongly suggest that MyoD regulates the transcription of miR-1/miR-206 expression, which in turn directly suppresses Pax3 expression in myoblasts."],
  "extracted_information": {
    "interaction_type": "increases_activity",
    "negative_information": false,
    "participant_a": {
      "entity_text": "MyoD",
      "entity_type": "protein",
      "identifier": "Uniprot:P15172",
      "in_model": true
    },
    "participant_b": {
      "entity_text": "miR-206",
      "entity_type": "protein",
      "identifier": "NCBI:406989",
      "in_model": false
    }
  },
  "fries_provenance": [
    {
      "cmu-sentence-epistemic-status": "implication",
      "cmu-sentence-epistemic-value": 0.6,
      "component": "REACH",
      "frame-file": "PMC2958479.uaz.events",
      "frame-id": "evem-PMC2958479-UAZ-r1-57-6-58",
      "passage-id": "pass-PMC2958479-UAZ-r1-57",
      "passage-number": 57,
      "passage-section-id": "N/A",
      "passage-section-name": "results",
      "sentence": "Therefore , these results suggest that part of down regulation of Pax3 may be mediated by MyoD induced miR-1 and miR-206 during wild-type satellite cell activation .",
      "text": "MyoD-induced miR-1 and miR-206",
      "uaz-event-epistemic-status": "hypothesis",
      "uaz-sentence": "Therefore , these results suggest that part of down regulation of Pax3 may be mediated by MyoD induced miR-1 and miR-206 during wild-type satellite cell activation .",
      "uaz-sentence-start": 768
    },
    {
      "cmu-sentence-epistemic-status": "implication",
      "cmu-sentence-epistemic-value": 0.6,
      "component": "MedScan",
      "frame-file": "PMC2958479.cmu.medscan",
      "frame-id": "relm-PMC2958479-cmu-medscan-1127",
      "passage-id": "pass-PMC2958479-UAZ-r1-45",
      "passage-number": 45,
      "passage-section-id": "N/A",
      "passage-section-name": "N/A",
      "sentence": "These results strongly suggest that MyoD regulates the transcription of miR-1/miR-206 expression, which in turn directly suppresses Pax3 expression in myoblasts.",
      "text": "MyoD regulates the transcription of miR-1/miR-206",
      "uaz-sentence": "These results strongly suggest that MyoD regulates the transcription of miR-1 / miR-206 expression , which in turn directly suppresses Pax3 expression in myoblasts .",
      "uaz-sentence-start": 1673
    }
  ],
  "model_relation": "extension",
  "pmc_id": "PMC2958479",
  "reader_type": "machine",
  "reading_complete": "2015-06-15T21:33:50Z",
  "reading_started": "2015-06-15T21:33:45Z",
  "submitter": "FRIES"
}
