{
    "frames": [
        {
            "frame-id": "smap-PMC2173613-cmu-1", 
            "frame-type": "sentence-map", 
            "list1-meta": {
                "component": "nxml2fries", 
                "object-type": "meta-info", 
                "organization": "UAZ"
            }, 
            "list2-meta": {
                "component": "Nicolas-NXML-Parser", 
                "object-type": "meta-info", 
                "organization": "CMU"
            }, 
            "map": [
                {
                    "from": "sent-PMC2173613-UAZ-r1-59-7", 
                    "object-type": "map-range", 
                    "to": "sent-PMC2173613-cmu-193"
                }, 
                {
                    "from": "sent-PMC2173613-UAZ-r1-52-5", 
                    "object-type": "map-range", 
                    "to": "sent-PMC2173613-cmu-168"
                }, 
                {
                    "from": "sent-PMC2173613-UAZ-r1-80-8", 
                    "object-type": "map-range", 
                    "to": "sent-PMC2173613-cmu-250"
                }, 
                {
                    "from": "sent-PMC2173613-UAZ-r1-77-1", 
                    "object-type": "map-range", 
                    "to": "sent-PMC2173613-cmu-239"
                }, 
                {
                    "from": "sent-PMC2173613-UAZ-r1-90-2", 
                    "object-type": "map-range", 
                    "to": "sent-PMC2173613-cmu-277"
                }, 
                {
                    "from": "sent-PMC2173613-UAZ-r1-10-4", 
                    "object-type": "map-range", 
                    "to": "sent-PMC2173613-cmu-19"
                }, 
                {
                    "from": "sent-PMC2173613-UAZ-r1-49-0", 
                    "object-type": "map-range", 
                    "to": "sent-PMC2173613-cmu-142"
                }, 
                {
                    "from": "sent-PMC2173613-UAZ-r1-15-12", 
                    "object-type": "map-range", 
                    "to": "sent-PMC2173613-cmu-36"
                }, 
                {
                    "from": "sent-PMC2173613-UAZ-r1-87-7", 
                    "object-type": "map-range", 
                    "to": "sent-PMC2173613-cmu-272"
                }, 
                {
                    "from": "sent-PMC2173613-UAZ-r1-65-2", 
                    "object-type": "map-range", 
                    "to": "sent-PMC2173613-cmu-205"
                }, 
                {
                    "from": "sent-PMC2173613-UAZ-r1-20-0", 
                    "object-type": "map-range", 
                    "to": "sent-PMC2173613-cmu-44"
                }, 
                {
                    "from": "sent-PMC2173613-UAZ-r1-19-0", 
                    "object-type": "map-range", 
                    "to": "sent-PMC2173613-cmu-43"
                }, 
                {
                    "from": "sent-PMC2173613-UAZ-r1-15-10", 
                    "object-type": "map-range", 
                    "to": "sent-PMC2173613-cmu-34"
                }, 
                {
                    "from": "sent-PMC2173613-UAZ-r1-54-2", 
                    "object-type": "map-range", 
                    "to": "sent-PMC2173613-cmu-180"
                }, 
                {
                    "from": "sent-PMC2173613-UAZ-r1-28-3", 
                    "object-type": "map-range", 
                    "to": "sent-PMC2173613-cmu-77"
                }, 
                {
                    "from": "sent-PMC2173613-UAZ-r1-52-7", 
                    "object-type": "map-range", 
                    "to": "sent-PMC2173613-cmu-170"
                }, 
                {
                    "from": "sent-PMC2173613-UAZ-r1-8-4", 
                    "object-type": "map-range", 
                    "to": "sent-PMC2173613-cmu-6"
                }, 
                {
                    "from": "sent-PMC2173613-UAZ-r1-80-2", 
                    "object-type": "map-range", 
                    "to": "sent-PMC2173613-cmu-244"
                }, 
                {
                    "from": "sent-PMC2173613-UAZ-r1-31-5", 
                    "object-type": "map-range", 
                    "to": "sent-PMC2173613-cmu-32"
                }, 
                {
                    "from": "sent-PMC2173613-UAZ-r1-39-1", 
                    "object-type": "map-range", 
                    "to": "sent-PMC2173613-cmu-108"
                }, 
                {
                    "from": "sent-PMC2173613-UAZ-r1-15-2", 
                    "object-type": "map-range", 
                    "to": "sent-PMC2173613-cmu-25"
                }, 
                {
                    "from": "sent-PMC2173613-UAZ-r1-15-0", 
                    "object-type": "map-range", 
                    "to": "sent-PMC2173613-cmu-23"
                }, 
                {
                    "from": "sent-PMC2173613-UAZ-r1-15-15", 
                    "object-type": "map-range", 
                    "to": "sent-PMC2173613-cmu-40"
                }, 
                {
                    "from": "sent-PMC2173613-UAZ-r1-52-3", 
                    "object-type": "map-range", 
                    "to": "sent-PMC2173613-cmu-166"
                }, 
                {
                    "from": "sent-PMC2173613-UAZ-r1-9-4", 
                    "object-type": "map-range", 
                    "to": "sent-PMC2173613-cmu-12"
                }, 
                {
                    "from": "sent-PMC2173613-UAZ-r1-36-2", 
                    "object-type": "map-range", 
                    "to": "sent-PMC2173613-cmu-97"
                }, 
                {
                    "from": "sent-PMC2173613-UAZ-r1-80-5", 
                    "object-type": "map-range", 
                    "to": "sent-PMC2173613-cmu-247"
                }, 
                {
                    "from": "sent-PMC2173613-UAZ-r1-66-1", 
                    "object-type": "map-range", 
                    "to": "sent-PMC2173613-cmu-208"
                }, 
                {
                    "from": "sent-PMC2173613-UAZ-r1-67-2", 
                    "object-type": "map-range", 
                    "to": "sent-PMC2173613-cmu-218"
                }, 
                {
                    "from": "sent-PMC2173613-UAZ-r1-51-5", 
                    "object-type": "map-range", 
                    "to": "sent-PMC2173613-cmu-158"
                }, 
                {
                    "from": "sent-PMC2173613-UAZ-r1-74-5", 
                    "object-type": "map-range", 
                    "to": "sent-PMC2173613-cmu-235"
                }, 
                {
                    "from": "sent-PMC2173613-UAZ-r1-53-0", 
                    "object-type": "map-range", 
                    "to": "sent-PMC2173613-cmu-171"
                }, 
                {
                    "from": "sent-PMC2173613-UAZ-r1-15-11", 
                    "object-type": "map-range", 
                    "to": "sent-PMC2173613-cmu-35"
                }, 
                {
                    "from": "sent-PMC2173613-UAZ-r1-59-10", 
                    "object-type": "map-range", 
                    "to": "sent-PMC2173613-cmu-197"
                }, 
                {
                    "from": "sent-PMC2173613-UAZ-r1-74-3", 
                    "object-type": "map-range", 
                    "to": "sent-PMC2173613-cmu-233"
                }, 
                {
                    "from": "sent-PMC2173613-UAZ-r1-59-6", 
                    "object-type": "map-range", 
                    "to": "sent-PMC2173613-cmu-192"
                }, 
                {
                    "from": "sent-PMC2173613-UAZ-r1-84-1", 
                    "object-type": "map-range", 
                    "to": "sent-PMC2173613-cmu-259"
                }, 
                {
                    "from": "sent-PMC2173613-UAZ-r1-84-3", 
                    "object-type": "map-range", 
                    "to": "sent-PMC2173613-cmu-261"
                }, 
                {
                    "from": "sent-PMC2173613-UAZ-r1-62-0", 
                    "object-type": "map-range", 
                    "to": "sent-PMC2173613-cmu-201"
                }, 
                {
                    "from": "sent-PMC2173613-UAZ-r1-87-5", 
                    "object-type": "map-range", 
                    "to": "sent-PMC2173613-cmu-270"
                }, 
                {
                    "from": "sent-PMC2173613-UAZ-r1-84-0", 
                    "object-type": "map-range", 
                    "to": "sent-PMC2173613-cmu-257"
                }, 
                {
                    "from": "sent-PMC2173613-UAZ-r1-74-4", 
                    "object-type": "map-range", 
                    "to": "sent-PMC2173613-cmu-234"
                }, 
                {
                    "from": "sent-PMC2173613-UAZ-r1-59-8", 
                    "object-type": "map-range", 
                    "to": "sent-PMC2173613-cmu-196"
                }, 
                {
                    "from": "sent-PMC2173613-UAZ-r1-54-5", 
                    "object-type": "map-range", 
                    "to": "sent-PMC2173613-cmu-183"
                }, 
                {
                    "from": "sent-PMC2173613-UAZ-r1-80-0", 
                    "object-type": "map-range", 
                    "to": "sent-PMC2173613-cmu-242"
                }, 
                {
                    "from": "sent-PMC2173613-UAZ-r1-52-1", 
                    "object-type": "map-range", 
                    "to": "sent-PMC2173613-cmu-164"
                }, 
                {
                    "from": "sent-PMC2173613-UAZ-r1-50-7", 
                    "object-type": "map-range", 
                    "to": "sent-PMC2173613-cmu-151"
                }, 
                {
                    "from": "sent-PMC2173613-UAZ-r1-52-0", 
                    "object-type": "map-range", 
                    "to": "sent-PMC2173613-cmu-163"
                }, 
                {
                    "from": "sent-PMC2173613-UAZ-r1-44-3", 
                    "object-type": "map-range", 
                    "to": "sent-PMC2173613-cmu-132"
                }, 
                {
                    "from": "sent-PMC2173613-UAZ-r1-15-7", 
                    "object-type": "map-range", 
                    "to": "sent-PMC2173613-cmu-31"
                }, 
                {
                    "from": "sent-PMC2173613-UAZ-r1-66-4", 
                    "object-type": "map-range", 
                    "to": "sent-PMC2173613-cmu-211"
                }, 
                {
                    "from": "sent-PMC2173613-UAZ-r1-80-1", 
                    "object-type": "map-range", 
                    "to": "sent-PMC2173613-cmu-243"
                }, 
                {
                    "from": "sent-PMC2173613-UAZ-r1-83-0", 
                    "object-type": "map-range", 
                    "to": "sent-PMC2173613-cmu-253"
                }, 
                {
                    "from": "sent-PMC2173613-UAZ-r1-21-11", 
                    "object-type": "map-range", 
                    "to": "sent-PMC2173613-cmu-69"
                }, 
                {
                    "from": "sent-PMC2173613-UAZ-r1-14-0", 
                    "object-type": "map-range", 
                    "to": "sent-PMC2173613-cmu-22"
                }, 
                {
                    "from": "sent-PMC2173613-UAZ-r1-87-8", 
                    "object-type": "map-range", 
                    "to": "sent-PMC2173613-cmu-273"
                }, 
                {
                    "from": "sent-PMC2173613-UAZ-r1-67-1", 
                    "object-type": "map-range", 
                    "to": "sent-PMC2173613-cmu-217"
                }, 
                {
                    "from": "sent-PMC2173613-UAZ-r1-84-2", 
                    "object-type": "map-range", 
                    "to": "sent-PMC2173613-cmu-260"
                }, 
                {
                    "from": "sent-PMC2173613-UAZ-r1-44-4", 
                    "object-type": "map-range", 
                    "to": "sent-PMC2173613-cmu-134"
                }, 
                {
                    "from": "sent-PMC2173613-UAZ-r1-50-0", 
                    "object-type": "map-range", 
                    "to": "sent-PMC2173613-cmu-143"
                }, 
                {
                    "from": "sent-PMC2173613-UAZ-r1-21-3", 
                    "object-type": "map-range", 
                    "to": "sent-PMC2173613-cmu-53"
                }, 
                {
                    "from": "sent-PMC2173613-UAZ-r1-39-3", 
                    "object-type": "map-range", 
                    "to": "sent-PMC2173613-cmu-111"
                }, 
                {
                    "from": "sent-PMC2173613-UAZ-r1-44-6", 
                    "object-type": "map-range", 
                    "to": "sent-PMC2173613-cmu-138"
                }, 
                {
                    "from": "sent-PMC2173613-UAZ-r1-79-0", 
                    "object-type": "map-range", 
                    "to": "sent-PMC2173613-cmu-241"
                }, 
                {
                    "from": "sent-PMC2173613-UAZ-r1-70-4", 
                    "object-type": "map-range", 
                    "to": "sent-PMC2173613-cmu-227"
                }, 
                {
                    "from": "sent-PMC2173613-UAZ-r1-53-1", 
                    "object-type": "map-range", 
                    "to": "sent-PMC2173613-cmu-172"
                }, 
                {
                    "from": "sent-PMC2173613-UAZ-r1-44-1", 
                    "object-type": "map-range", 
                    "to": "sent-PMC2173613-cmu-130"
                }, 
                {
                    "from": "sent-PMC2173613-UAZ-r1-8-0", 
                    "object-type": "map-range", 
                    "to": "sent-PMC2173613-cmu-2"
                }, 
                {
                    "from": "sent-PMC2173613-UAZ-r1-87-1", 
                    "object-type": "map-range", 
                    "to": "sent-PMC2173613-cmu-266"
                }, 
                {
                    "from": "sent-PMC2173613-UAZ-r1-15-14", 
                    "object-type": "map-range", 
                    "to": "sent-PMC2173613-cmu-39"
                }, 
                {
                    "from": "sent-PMC2173613-UAZ-r1-21-12", 
                    "object-type": "map-range", 
                    "to": "sent-PMC2173613-cmu-72"
                }, 
                {
                    "from": "sent-PMC2173613-UAZ-r1-67-4", 
                    "object-type": "map-range", 
                    "to": "sent-PMC2173613-cmu-220"
                }, 
                {
                    "from": "sent-PMC2173613-UAZ-r1-51-2", 
                    "object-type": "map-range", 
                    "to": "sent-PMC2173613-cmu-155"
                }, 
                {
                    "from": "sent-PMC2173613-UAZ-r1-31-3", 
                    "object-type": "map-range", 
                    "to": "sent-PMC2173613-cmu-89"
                }, 
                {
                    "from": "sent-PMC2173613-UAZ-r1-39-0", 
                    "object-type": "map-range", 
                    "to": "sent-PMC2173613-cmu-107"
                }, 
                {
                    "from": "sent-PMC2173613-UAZ-r1-51-6", 
                    "object-type": "map-range", 
                    "to": "sent-PMC2173613-cmu-159"
                }, 
                {
                    "from": "sent-PMC2173613-UAZ-r1-66-8", 
                    "object-type": "map-range", 
                    "to": "sent-PMC2173613-cmu-215"
                }, 
                {
                    "from": "sent-PMC2173613-UAZ-r1-27-0", 
                    "object-type": "map-range", 
                    "to": "sent-PMC2173613-cmu-73"
                }, 
                {
                    "from": "sent-PMC2173613-UAZ-r1-52-6", 
                    "object-type": "map-range", 
                    "to": "sent-PMC2173613-cmu-169"
                }, 
                {
                    "from": "sent-PMC2173613-UAZ-r1-21-11", 
                    "object-type": "map-range", 
                    "to": "sent-PMC2173613-cmu-188"
                }, 
                {
                    "from": "sent-PMC2173613-UAZ-r1-21-8", 
                    "object-type": "map-range", 
                    "to": "sent-PMC2173613-cmu-64"
                }, 
                {
                    "from": "sent-PMC2173613-UAZ-r1-31-2", 
                    "object-type": "map-range", 
                    "to": "sent-PMC2173613-cmu-88"
                }, 
                {
                    "from": "sent-PMC2173613-UAZ-r1-84-4", 
                    "object-type": "map-range", 
                    "to": "sent-PMC2173613-cmu-262"
                }, 
                {
                    "from": "sent-PMC2173613-UAZ-r1-59-3", 
                    "object-type": "map-range", 
                    "to": "sent-PMC2173613-cmu-189"
                }, 
                {
                    "from": "sent-PMC2173613-UAZ-r1-43-0", 
                    "object-type": "map-range", 
                    "to": "sent-PMC2173613-cmu-128"
                }, 
                {
                    "from": "sent-PMC2173613-UAZ-r1-70-3", 
                    "object-type": "map-range", 
                    "to": "sent-PMC2173613-cmu-226"
                }, 
                {
                    "from": "sent-PMC2173613-UAZ-r1-44-5", 
                    "object-type": "map-range", 
                    "to": "sent-PMC2173613-cmu-136"
                }, 
                {
                    "from": "sent-PMC2173613-UAZ-r1-66-7", 
                    "object-type": "map-range", 
                    "to": "sent-PMC2173613-cmu-214"
                }, 
                {
                    "from": "sent-PMC2173613-UAZ-r1-80-4", 
                    "object-type": "map-range", 
                    "to": "sent-PMC2173613-cmu-246"
                }, 
                {
                    "from": "sent-PMC2173613-UAZ-r1-53-5", 
                    "object-type": "map-range", 
                    "to": "sent-PMC2173613-cmu-176"
                }, 
                {
                    "from": "sent-PMC2173613-UAZ-r1-51-7", 
                    "object-type": "map-range", 
                    "to": "sent-PMC2173613-cmu-160"
                }, 
                {
                    "from": "sent-PMC2173613-UAZ-r1-65-1", 
                    "object-type": "map-range", 
                    "to": "sent-PMC2173613-cmu-204"
                }, 
                {
                    "from": "sent-PMC2173613-UAZ-r1-31-5", 
                    "object-type": "map-range", 
                    "to": "sent-PMC2173613-cmu-92"
                }, 
                {
                    "from": "sent-PMC2173613-UAZ-r1-8-1", 
                    "object-type": "map-range", 
                    "to": "sent-PMC2173613-cmu-3"
                }, 
                {
                    "from": "sent-PMC2173613-UAZ-r1-65-0", 
                    "object-type": "map-range", 
                    "to": "sent-PMC2173613-cmu-203"
                }, 
                {
                    "from": "sent-PMC2173613-UAZ-r1-39-5", 
                    "object-type": "map-range", 
                    "to": "sent-PMC2173613-cmu-114"
                }, 
                {
                    "from": "sent-PMC2173613-UAZ-r1-10-5", 
                    "object-type": "map-range", 
                    "to": "sent-PMC2173613-cmu-20"
                }, 
                {
                    "from": "sent-PMC2173613-UAZ-r1-9-5", 
                    "object-type": "map-range", 
                    "to": "sent-PMC2173613-cmu-13"
                }, 
                {
                    "from": "sent-PMC2173613-UAZ-r1-28-4", 
                    "object-type": "map-range", 
                    "to": "sent-PMC2173613-cmu-79"
                }, 
                {
                    "from": "sent-PMC2173613-UAZ-r1-90-4", 
                    "object-type": "map-range", 
                    "to": "sent-PMC2173613-cmu-279"
                }, 
                {
                    "from": "sent-PMC2173613-UAZ-r1-21-10", 
                    "object-type": "map-range", 
                    "to": "sent-PMC2173613-cmu-68"
                }, 
                {
                    "from": "sent-PMC2173613-UAZ-r1-15-3", 
                    "object-type": "map-range", 
                    "to": "sent-PMC2173613-cmu-26"
                }, 
                {
                    "from": "sent-PMC2173613-UAZ-r1-52-2", 
                    "object-type": "map-range", 
                    "to": "sent-PMC2173613-cmu-165"
                }, 
                {
                    "from": "sent-PMC2173613-UAZ-r1-59-4", 
                    "object-type": "map-range", 
                    "to": "sent-PMC2173613-cmu-190"
                }, 
                {
                    "from": "sent-PMC2173613-UAZ-r1-15-1", 
                    "object-type": "map-range", 
                    "to": "sent-PMC2173613-cmu-24"
                }, 
                {
                    "from": "sent-PMC2173613-UAZ-r1-10-3", 
                    "object-type": "map-range", 
                    "to": "sent-PMC2173613-cmu-18"
                }, 
                {
                    "from": "sent-PMC2173613-UAZ-r1-66-3", 
                    "object-type": "map-range", 
                    "to": "sent-PMC2173613-cmu-210"
                }, 
                {
                    "from": "sent-PMC2173613-UAZ-r1-39-9", 
                    "object-type": "map-range", 
                    "to": "sent-PMC2173613-cmu-123"
                }, 
                {
                    "from": "sent-PMC2173613-UAZ-r1-36-6", 
                    "object-type": "map-range", 
                    "to": "sent-PMC2173613-cmu-104"
                }, 
                {
                    "from": "sent-PMC2173613-UAZ-r1-9-3", 
                    "object-type": "map-range", 
                    "to": "sent-PMC2173613-cmu-11"
                }, 
                {
                    "from": "sent-PMC2173613-UAZ-r1-77-0", 
                    "object-type": "map-range", 
                    "to": "sent-PMC2173613-cmu-238"
                }, 
                {
                    "from": "sent-PMC2173613-UAZ-r1-65-3", 
                    "object-type": "map-range", 
                    "to": "sent-PMC2173613-cmu-206"
                }, 
                {
                    "from": "sent-PMC2173613-UAZ-r1-77-2", 
                    "object-type": "map-range", 
                    "to": "sent-PMC2173613-cmu-240"
                }, 
                {
                    "from": "sent-PMC2173613-UAZ-r1-51-3", 
                    "object-type": "map-range", 
                    "to": "sent-PMC2173613-cmu-156"
                }, 
                {
                    "from": "sent-PMC2173613-UAZ-r1-69-0", 
                    "object-type": "map-range", 
                    "to": "sent-PMC2173613-cmu-222"
                }, 
                {
                    "from": "sent-PMC2173613-UAZ-r1-87-4", 
                    "object-type": "map-range", 
                    "to": "sent-PMC2173613-cmu-269"
                }, 
                {
                    "from": "sent-PMC2173613-UAZ-r1-28-6", 
                    "object-type": "map-range", 
                    "to": "sent-PMC2173613-cmu-83"
                }, 
                {
                    "from": "sent-PMC2173613-UAZ-r1-21-2", 
                    "object-type": "map-range", 
                    "to": "sent-PMC2173613-cmu-51"
                }, 
                {
                    "from": "sent-PMC2173613-UAZ-r1-74-2", 
                    "object-type": "map-range", 
                    "to": "sent-PMC2173613-cmu-232"
                }, 
                {
                    "from": "sent-PMC2173613-UAZ-r1-9-6", 
                    "object-type": "map-range", 
                    "to": "sent-PMC2173613-cmu-14"
                }, 
                {
                    "from": "sent-PMC2173613-UAZ-r1-52-4", 
                    "object-type": "map-range", 
                    "to": "sent-PMC2173613-cmu-167"
                }, 
                {
                    "from": "sent-PMC2173613-UAZ-r1-31-4", 
                    "object-type": "map-range", 
                    "to": "sent-PMC2173613-cmu-91"
                }, 
                {
                    "from": "sent-PMC2173613-UAZ-r1-44-7", 
                    "object-type": "map-range", 
                    "to": "sent-PMC2173613-cmu-139"
                }, 
                {
                    "from": "sent-PMC2173613-UAZ-r1-36-7", 
                    "object-type": "map-range", 
                    "to": "sent-PMC2173613-cmu-106"
                }, 
                {
                    "from": "sent-PMC2173613-UAZ-r1-39-8", 
                    "object-type": "map-range", 
                    "to": "sent-PMC2173613-cmu-120"
                }, 
                {
                    "from": "sent-PMC2173613-UAZ-r1-67-3", 
                    "object-type": "map-range", 
                    "to": "sent-PMC2173613-cmu-219"
                }, 
                {
                    "from": "sent-PMC2173613-UAZ-r1-36-0", 
                    "object-type": "map-range", 
                    "to": "sent-PMC2173613-cmu-94"
                }, 
                {
                    "from": "sent-PMC2173613-UAZ-r1-90-1", 
                    "object-type": "map-range", 
                    "to": "sent-PMC2173613-cmu-276"
                }, 
                {
                    "from": "sent-PMC2173613-UAZ-r1-53-4", 
                    "object-type": "map-range", 
                    "to": "sent-PMC2173613-cmu-175"
                }, 
                {
                    "from": "sent-PMC2173613-UAZ-r1-90-3", 
                    "object-type": "map-range", 
                    "to": "sent-PMC2173613-cmu-278"
                }, 
                {
                    "from": "sent-PMC2173613-UAZ-r1-39-6", 
                    "object-type": "map-range", 
                    "to": "sent-PMC2173613-cmu-116"
                }, 
                {
                    "from": "sent-PMC2173613-UAZ-r1-70-2", 
                    "object-type": "map-range", 
                    "to": "sent-PMC2173613-cmu-225"
                }, 
                {
                    "from": "sent-PMC2173613-UAZ-r1-21-0", 
                    "object-type": "map-range", 
                    "to": "sent-PMC2173613-cmu-48"
                }, 
                {
                    "from": "sent-PMC2173613-UAZ-r1-10-2", 
                    "object-type": "map-range", 
                    "to": "sent-PMC2173613-cmu-17"
                }, 
                {
                    "from": "sent-PMC2173613-UAZ-r1-83-2", 
                    "object-type": "map-range", 
                    "to": "sent-PMC2173613-cmu-255"
                }, 
                {
                    "from": "sent-PMC2173613-UAZ-r1-58-0", 
                    "object-type": "map-range", 
                    "to": "sent-PMC2173613-cmu-185"
                }, 
                {
                    "from": "sent-PMC2173613-UAZ-r1-39-2", 
                    "object-type": "map-range", 
                    "to": "sent-PMC2173613-cmu-110"
                }, 
                {
                    "from": "sent-PMC2173613-UAZ-r1-59-1", 
                    "object-type": "map-range", 
                    "to": "sent-PMC2173613-cmu-187"
                }, 
                {
                    "from": "sent-PMC2173613-UAZ-r1-28-2", 
                    "object-type": "map-range", 
                    "to": "sent-PMC2173613-cmu-76"
                }, 
                {
                    "from": "sent-PMC2173613-UAZ-r1-50-2", 
                    "object-type": "map-range", 
                    "to": "sent-PMC2173613-cmu-146"
                }, 
                {
                    "from": "sent-PMC2173613-UAZ-r1-51-1", 
                    "object-type": "map-range", 
                    "to": "sent-PMC2173613-cmu-154"
                }, 
                {
                    "from": "sent-PMC2173613-UAZ-r1-53-3", 
                    "object-type": "map-range", 
                    "to": "sent-PMC2173613-cmu-174"
                }, 
                {
                    "from": "sent-PMC2173613-UAZ-r1-53-6", 
                    "object-type": "map-range", 
                    "to": "sent-PMC2173613-cmu-177"
                }, 
                {
                    "from": "sent-PMC2173613-UAZ-r1-84-5", 
                    "object-type": "map-range", 
                    "to": "sent-PMC2173613-cmu-263"
                }, 
                {
                    "from": "sent-PMC2173613-UAZ-r1-8-5", 
                    "object-type": "map-range", 
                    "to": "sent-PMC2173613-cmu-7"
                }, 
                {
                    "from": "sent-PMC2173613-UAZ-r1-51-8", 
                    "object-type": "map-range", 
                    "to": "sent-PMC2173613-cmu-161"
                }, 
                {
                    "from": "sent-PMC2173613-UAZ-r1-21-7", 
                    "object-type": "map-range", 
                    "to": "sent-PMC2173613-cmu-63"
                }, 
                {
                    "from": "sent-PMC2173613-UAZ-r1-72-0", 
                    "object-type": "map-range", 
                    "to": "sent-PMC2173613-cmu-228"
                }, 
                {
                    "from": "sent-PMC2173613-UAZ-r1-53-2", 
                    "object-type": "map-range", 
                    "to": "sent-PMC2173613-cmu-173"
                }, 
                {
                    "from": "sent-PMC2173613-UAZ-r1-51-0", 
                    "object-type": "map-range", 
                    "to": "sent-PMC2173613-cmu-152"
                }, 
                {
                    "from": "sent-PMC2173613-UAZ-r1-74-0", 
                    "object-type": "map-range", 
                    "to": "sent-PMC2173613-cmu-230"
                }, 
                {
                    "from": "sent-PMC2173613-UAZ-r1-54-3", 
                    "object-type": "map-range", 
                    "to": "sent-PMC2173613-cmu-181"
                }, 
                {
                    "from": "sent-PMC2173613-UAZ-r1-8-2", 
                    "object-type": "map-range", 
                    "to": "sent-PMC2173613-cmu-4"
                }, 
                {
                    "from": "sent-PMC2173613-UAZ-r1-35-0", 
                    "object-type": "map-range", 
                    "to": "sent-PMC2173613-cmu-93"
                }, 
                {
                    "from": "sent-PMC2173613-UAZ-r1-15-9", 
                    "object-type": "map-range", 
                    "to": "sent-PMC2173613-cmu-33"
                }, 
                {
                    "from": "sent-PMC2173613-UAZ-r1-50-6", 
                    "object-type": "map-range", 
                    "to": "sent-PMC2173613-cmu-150"
                }, 
                {
                    "from": "sent-PMC2173613-UAZ-r1-21-4", 
                    "object-type": "map-range", 
                    "to": "sent-PMC2173613-cmu-54"
                }, 
                {
                    "from": "sent-PMC2173613-UAZ-r1-50-5", 
                    "object-type": "map-range", 
                    "to": "sent-PMC2173613-cmu-149"
                }, 
                {
                    "from": "sent-PMC2173613-UAZ-r1-67-0", 
                    "object-type": "map-range", 
                    "to": "sent-PMC2173613-cmu-216"
                }, 
                {
                    "from": "sent-PMC2173613-UAZ-r1-10-0", 
                    "object-type": "map-range", 
                    "to": "sent-PMC2173613-cmu-15"
                }, 
                {
                    "from": "sent-PMC2173613-UAZ-r1-74-6", 
                    "object-type": "map-range", 
                    "to": "sent-PMC2173613-cmu-236"
                }, 
                {
                    "from": "sent-PMC2173613-UAZ-r1-20-1", 
                    "object-type": "map-range", 
                    "to": "sent-PMC2173613-cmu-45"
                }, 
                {
                    "from": "sent-PMC2173613-UAZ-r1-50-4", 
                    "object-type": "map-range", 
                    "to": "sent-PMC2173613-cmu-148"
                }, 
                {
                    "from": "sent-PMC2173613-UAZ-r1-28-5", 
                    "object-type": "map-range", 
                    "to": "sent-PMC2173613-cmu-81"
                }, 
                {
                    "from": "sent-PMC2173613-UAZ-r1-39-10", 
                    "object-type": "map-range", 
                    "to": "sent-PMC2173613-cmu-127"
                }, 
                {
                    "from": "sent-PMC2173613-UAZ-r1-83-3", 
                    "object-type": "map-range", 
                    "to": "sent-PMC2173613-cmu-256"
                }, 
                {
                    "from": "sent-PMC2173613-UAZ-r1-15-13", 
                    "object-type": "map-range", 
                    "to": "sent-PMC2173613-cmu-38"
                }, 
                {
                    "from": "sent-PMC2173613-UAZ-r1-21-9", 
                    "object-type": "map-range", 
                    "to": "sent-PMC2173613-cmu-66"
                }, 
                {
                    "from": "sent-PMC2173613-UAZ-r1-21-1", 
                    "object-type": "map-range", 
                    "to": "sent-PMC2173613-cmu-49"
                }, 
                {
                    "from": "sent-PMC2173613-UAZ-r1-80-3", 
                    "object-type": "map-range", 
                    "to": "sent-PMC2173613-cmu-245"
                }, 
                {
                    "from": "sent-PMC2173613-UAZ-r1-21-5", 
                    "object-type": "map-range", 
                    "to": "sent-PMC2173613-cmu-57"
                }, 
                {
                    "from": "sent-PMC2173613-UAZ-r1-15-5", 
                    "object-type": "map-range", 
                    "to": "sent-PMC2173613-cmu-29"
                }, 
                {
                    "from": "sent-PMC2173613-UAZ-r1-28-0", 
                    "object-type": "map-range", 
                    "to": "sent-PMC2173613-cmu-74"
                }, 
                {
                    "from": "sent-PMC2173613-UAZ-r1-44-0", 
                    "object-type": "map-range", 
                    "to": "sent-PMC2173613-cmu-129"
                }, 
                {
                    "from": "sent-PMC2173613-UAZ-r1-15-6", 
                    "object-type": "map-range", 
                    "to": "sent-PMC2173613-cmu-30"
                }, 
                {
                    "from": "sent-PMC2173613-UAZ-r1-50-1", 
                    "object-type": "map-range", 
                    "to": "sent-PMC2173613-cmu-144"
                }, 
                {
                    "from": "sent-PMC2173613-UAZ-r1-87-2", 
                    "object-type": "map-range", 
                    "to": "sent-PMC2173613-cmu-267"
                }, 
                {
                    "from": "sent-PMC2173613-UAZ-r1-67-5", 
                    "object-type": "map-range", 
                    "to": "sent-PMC2173613-cmu-221"
                }, 
                {
                    "from": "sent-PMC2173613-UAZ-r1-80-6", 
                    "object-type": "map-range", 
                    "to": "sent-PMC2173613-cmu-248"
                }, 
                {
                    "from": "sent-PMC2173613-UAZ-r1-59-0", 
                    "object-type": "map-range", 
                    "to": "sent-PMC2173613-cmu-186"
                }, 
                {
                    "from": "sent-PMC2173613-UAZ-r1-66-0", 
                    "object-type": "map-range", 
                    "to": "sent-PMC2173613-cmu-207"
                }, 
                {
                    "from": "sent-PMC2173613-UAZ-r1-50-3", 
                    "object-type": "map-range", 
                    "to": "sent-PMC2173613-cmu-147"
                }, 
                {
                    "from": "sent-PMC2173613-UAZ-r1-54-4", 
                    "object-type": "map-range", 
                    "to": "sent-PMC2173613-cmu-182"
                }, 
                {
                    "from": "sent-PMC2173613-UAZ-r1-31-1", 
                    "object-type": "map-range", 
                    "to": "sent-PMC2173613-cmu-86"
                }, 
                {
                    "from": "sent-PMC2173613-UAZ-r1-51-4", 
                    "object-type": "map-range", 
                    "to": "sent-PMC2173613-cmu-157"
                }, 
                {
                    "from": "sent-PMC2173613-UAZ-r1-28-1", 
                    "object-type": "map-range", 
                    "to": "sent-PMC2173613-cmu-140"
                }, 
                {
                    "from": "sent-PMC2173613-UAZ-r1-8-3", 
                    "object-type": "map-range", 
                    "to": "sent-PMC2173613-cmu-5"
                }, 
                {
                    "from": "sent-PMC2173613-UAZ-r1-28-1", 
                    "object-type": "map-range", 
                    "to": "sent-PMC2173613-cmu-75"
                }, 
                {
                    "from": "sent-PMC2173613-UAZ-r1-36-5", 
                    "object-type": "map-range", 
                    "to": "sent-PMC2173613-cmu-103"
                }, 
                {
                    "from": "sent-PMC2173613-UAZ-r1-87-3", 
                    "object-type": "map-range", 
                    "to": "sent-PMC2173613-cmu-268"
                }, 
                {
                    "from": "sent-PMC2173613-UAZ-r1-54-1", 
                    "object-type": "map-range", 
                    "to": "sent-PMC2173613-cmu-179"
                }, 
                {
                    "from": "sent-PMC2173613-UAZ-r1-54-0", 
                    "object-type": "map-range", 
                    "to": "sent-PMC2173613-cmu-178"
                }, 
                {
                    "from": "sent-PMC2173613-UAZ-r1-31-0", 
                    "object-type": "map-range", 
                    "to": "sent-PMC2173613-cmu-85"
                }, 
                {
                    "from": "sent-PMC2173613-UAZ-r1-87-0", 
                    "object-type": "map-range", 
                    "to": "sent-PMC2173613-cmu-265"
                }, 
                {
                    "from": "sent-PMC2173613-UAZ-r1-39-7", 
                    "object-type": "map-range", 
                    "to": "sent-PMC2173613-cmu-118"
                }, 
                {
                    "from": "sent-PMC2173613-UAZ-r1-44-2", 
                    "object-type": "map-range", 
                    "to": "sent-PMC2173613-cmu-131"
                }, 
                {
                    "from": "sent-PMC2173613-UAZ-r1-83-1", 
                    "object-type": "map-range", 
                    "to": "sent-PMC2173613-cmu-254"
                }, 
                {
                    "from": "sent-PMC2173613-UAZ-r1-66-6", 
                    "object-type": "map-range", 
                    "to": "sent-PMC2173613-cmu-213"
                }, 
                {
                    "from": "sent-PMC2173613-UAZ-r1-39-4", 
                    "object-type": "map-range", 
                    "to": "sent-PMC2173613-cmu-112"
                }, 
                {
                    "from": "sent-PMC2173613-UAZ-r1-73-0", 
                    "object-type": "map-range", 
                    "to": "sent-PMC2173613-cmu-229"
                }, 
                {
                    "from": "sent-PMC2173613-UAZ-r1-15-16", 
                    "object-type": "map-range", 
                    "to": "sent-PMC2173613-cmu-42"
                }
            ], 
            "object-meta": {
                "component": "Pradeep-Matcher", 
                "object-type": "meta-info", 
                "organization": "CMU"
            }, 
            "object-type": "frame"
        }, 
        {
            "frame-id": "smap-PMC2173613-cmu-2", 
            "frame-type": "sentence-map", 
            "list1-meta": {
                "component": "MedScan", 
                "object-type": "meta-info", 
                "organization": "CMU"
            }, 
            "list2-meta": {
                "component": "Nicolas-NXML-Parser", 
                "object-type": "meta-info", 
                "organization": "CMU"
            }, 
            "map": [
                {
                    "from": "sent-PMC2173613-medscan-193", 
                    "object-type": "map-range", 
                    "to": "sent-PMC2173613-cmu-193"
                }, 
                {
                    "from": "sent-PMC2173613-medscan-171", 
                    "object-type": "map-range", 
                    "to": "sent-PMC2173613-cmu-168"
                }, 
                {
                    "from": "sent-PMC2173613-medscan-243", 
                    "object-type": "map-range", 
                    "to": "sent-PMC2173613-cmu-250"
                }, 
                {
                    "from": "sent-PMC2173613-medscan-233", 
                    "object-type": "map-range", 
                    "to": "sent-PMC2173613-cmu-239"
                }, 
                {
                    "from": "sent-PMC2173613-medscan-268", 
                    "object-type": "map-range", 
                    "to": "sent-PMC2173613-cmu-277"
                }, 
                {
                    "from": "sent-PMC2173613-medscan-17", 
                    "object-type": "map-range", 
                    "to": "sent-PMC2173613-cmu-19"
                }, 
                {
                    "from": "sent-PMC2173613-medscan-148", 
                    "object-type": "map-range", 
                    "to": "sent-PMC2173613-cmu-142"
                }, 
                {
                    "from": "sent-PMC2173613-medscan-29", 
                    "object-type": "map-range", 
                    "to": "sent-PMC2173613-cmu-36"
                }, 
                {
                    "from": "sent-PMC2173613-medscan-264", 
                    "object-type": "map-range", 
                    "to": "sent-PMC2173613-cmu-272"
                }, 
                {
                    "from": "sent-PMC2173613-medscan-206", 
                    "object-type": "map-range", 
                    "to": "sent-PMC2173613-cmu-205"
                }, 
                {
                    "from": "sent-PMC2173613-medscan-42", 
                    "object-type": "map-range", 
                    "to": "sent-PMC2173613-cmu-44"
                }, 
                {
                    "from": "sent-PMC2173613-medscan-27", 
                    "object-type": "map-range", 
                    "to": "sent-PMC2173613-cmu-34"
                }, 
                {
                    "from": "sent-PMC2173613-medscan-183", 
                    "object-type": "map-range", 
                    "to": "sent-PMC2173613-cmu-180"
                }, 
                {
                    "from": "sent-PMC2173613-medscan-173", 
                    "object-type": "map-range", 
                    "to": "sent-PMC2173613-cmu-170"
                }, 
                {
                    "from": "sent-PMC2173613-medscan-4", 
                    "object-type": "map-range", 
                    "to": "sent-PMC2173613-cmu-6"
                }, 
                {
                    "from": "sent-PMC2173613-medscan-237", 
                    "object-type": "map-range", 
                    "to": "sent-PMC2173613-cmu-244"
                }, 
                {
                    "from": "sent-PMC2173613-medscan-25", 
                    "object-type": "map-range", 
                    "to": "sent-PMC2173613-cmu-32"
                }, 
                {
                    "from": "sent-PMC2173613-medscan-112", 
                    "object-type": "map-range", 
                    "to": "sent-PMC2173613-cmu-108"
                }, 
                {
                    "from": "sent-PMC2173613-medscan-19", 
                    "object-type": "map-range", 
                    "to": "sent-PMC2173613-cmu-23"
                }, 
                {
                    "from": "sent-PMC2173613-medscan-32", 
                    "object-type": "map-range", 
                    "to": "sent-PMC2173613-cmu-40"
                }, 
                {
                    "from": "sent-PMC2173613-medscan-169", 
                    "object-type": "map-range", 
                    "to": "sent-PMC2173613-cmu-166"
                }, 
                {
                    "from": "sent-PMC2173613-medscan-10", 
                    "object-type": "map-range", 
                    "to": "sent-PMC2173613-cmu-12"
                }, 
                {
                    "from": "sent-PMC2173613-medscan-99", 
                    "object-type": "map-range", 
                    "to": "sent-PMC2173613-cmu-97"
                }, 
                {
                    "from": "sent-PMC2173613-medscan-240", 
                    "object-type": "map-range", 
                    "to": "sent-PMC2173613-cmu-247"
                }, 
                {
                    "from": "sent-PMC2173613-medscan-209", 
                    "object-type": "map-range", 
                    "to": "sent-PMC2173613-cmu-208"
                }, 
                {
                    "from": "sent-PMC2173613-medscan-217", 
                    "object-type": "map-range", 
                    "to": "sent-PMC2173613-cmu-218"
                }, 
                {
                    "from": "sent-PMC2173613-medscan-162", 
                    "object-type": "map-range", 
                    "to": "sent-PMC2173613-cmu-158"
                }, 
                {
                    "from": "sent-PMC2173613-medscan-230", 
                    "object-type": "map-range", 
                    "to": "sent-PMC2173613-cmu-235"
                }, 
                {
                    "from": "sent-PMC2173613-medscan-174", 
                    "object-type": "map-range", 
                    "to": "sent-PMC2173613-cmu-171"
                }, 
                {
                    "from": "sent-PMC2173613-medscan-28", 
                    "object-type": "map-range", 
                    "to": "sent-PMC2173613-cmu-35"
                }, 
                {
                    "from": "sent-PMC2173613-medscan-200", 
                    "object-type": "map-range", 
                    "to": "sent-PMC2173613-cmu-197"
                }, 
                {
                    "from": "sent-PMC2173613-medscan-192", 
                    "object-type": "map-range", 
                    "to": "sent-PMC2173613-cmu-192"
                }, 
                {
                    "from": "sent-PMC2173613-medscan-221", 
                    "object-type": "map-range", 
                    "to": "sent-PMC2173613-cmu-224"
                }, 
                {
                    "from": "sent-PMC2173613-medscan-250", 
                    "object-type": "map-range", 
                    "to": "sent-PMC2173613-cmu-259"
                }, 
                {
                    "from": "sent-PMC2173613-medscan-252", 
                    "object-type": "map-range", 
                    "to": "sent-PMC2173613-cmu-261"
                }, 
                {
                    "from": "sent-PMC2173613-medscan-203", 
                    "object-type": "map-range", 
                    "to": "sent-PMC2173613-cmu-201"
                }, 
                {
                    "from": "sent-PMC2173613-medscan-262", 
                    "object-type": "map-range", 
                    "to": "sent-PMC2173613-cmu-270"
                }, 
                {
                    "from": "sent-PMC2173613-medscan-249", 
                    "object-type": "map-range", 
                    "to": "sent-PMC2173613-cmu-257"
                }, 
                {
                    "from": "sent-PMC2173613-medscan-197", 
                    "object-type": "map-range", 
                    "to": "sent-PMC2173613-cmu-196"
                }, 
                {
                    "from": "sent-PMC2173613-medscan-186", 
                    "object-type": "map-range", 
                    "to": "sent-PMC2173613-cmu-183"
                }, 
                {
                    "from": "sent-PMC2173613-medscan-235", 
                    "object-type": "map-range", 
                    "to": "sent-PMC2173613-cmu-242"
                }, 
                {
                    "from": "sent-PMC2173613-medscan-167", 
                    "object-type": "map-range", 
                    "to": "sent-PMC2173613-cmu-164"
                }, 
                {
                    "from": "sent-PMC2173613-medscan-156", 
                    "object-type": "map-range", 
                    "to": "sent-PMC2173613-cmu-151"
                }, 
                {
                    "from": "sent-PMC2173613-medscan-166", 
                    "object-type": "map-range", 
                    "to": "sent-PMC2173613-cmu-163"
                }, 
                {
                    "from": "sent-PMC2173613-medscan-132", 
                    "object-type": "map-range", 
                    "to": "sent-PMC2173613-cmu-132"
                }, 
                {
                    "from": "sent-PMC2173613-medscan-24", 
                    "object-type": "map-range", 
                    "to": "sent-PMC2173613-cmu-31"
                }, 
                {
                    "from": "sent-PMC2173613-medscan-212", 
                    "object-type": "map-range", 
                    "to": "sent-PMC2173613-cmu-211"
                }, 
                {
                    "from": "sent-PMC2173613-medscan-236", 
                    "object-type": "map-range", 
                    "to": "sent-PMC2173613-cmu-243"
                }, 
                {
                    "from": "sent-PMC2173613-medscan-188", 
                    "object-type": "map-range", 
                    "to": "sent-PMC2173613-cmu-69"
                }, 
                {
                    "from": "sent-PMC2173613-medscan-188", 
                    "object-type": "map-range", 
                    "to": "sent-PMC2173613-cmu-69"
                }, 
                {
                    "from": "sent-PMC2173613-medscan-265", 
                    "object-type": "map-range", 
                    "to": "sent-PMC2173613-cmu-273"
                }, 
                {
                    "from": "sent-PMC2173613-medscan-216", 
                    "object-type": "map-range", 
                    "to": "sent-PMC2173613-cmu-217"
                }, 
                {
                    "from": "sent-PMC2173613-medscan-251", 
                    "object-type": "map-range", 
                    "to": "sent-PMC2173613-cmu-260"
                }, 
                {
                    "from": "sent-PMC2173613-medscan-133", 
                    "object-type": "map-range", 
                    "to": "sent-PMC2173613-cmu-134"
                }, 
                {
                    "from": "sent-PMC2173613-medscan-149", 
                    "object-type": "map-range", 
                    "to": "sent-PMC2173613-cmu-143"
                }, 
                {
                    "from": "sent-PMC2173613-medscan-47", 
                    "object-type": "map-range", 
                    "to": "sent-PMC2173613-cmu-53"
                }, 
                {
                    "from": "sent-PMC2173613-medscan-114", 
                    "object-type": "map-range", 
                    "to": "sent-PMC2173613-cmu-111"
                }, 
                {
                    "from": "sent-PMC2173613-medscan-135", 
                    "object-type": "map-range", 
                    "to": "sent-PMC2173613-cmu-138"
                }, 
                {
                    "from": "sent-PMC2173613-medscan-224", 
                    "object-type": "map-range", 
                    "to": "sent-PMC2173613-cmu-227"
                }, 
                {
                    "from": "sent-PMC2173613-medscan-175", 
                    "object-type": "map-range", 
                    "to": "sent-PMC2173613-cmu-172"
                }, 
                {
                    "from": "sent-PMC2173613-medscan-0", 
                    "object-type": "map-range", 
                    "to": "sent-PMC2173613-cmu-2"
                }, 
                {
                    "from": "sent-PMC2173613-medscan-258", 
                    "object-type": "map-range", 
                    "to": "sent-PMC2173613-cmu-266"
                }, 
                {
                    "from": "sent-PMC2173613-medscan-31", 
                    "object-type": "map-range", 
                    "to": "sent-PMC2173613-cmu-39"
                }, 
                {
                    "from": "sent-PMC2173613-medscan-8", 
                    "object-type": "map-range", 
                    "to": "sent-PMC2173613-cmu-10"
                }, 
                {
                    "from": "sent-PMC2173613-medscan-56", 
                    "object-type": "map-range", 
                    "to": "sent-PMC2173613-cmu-72"
                }, 
                {
                    "from": "sent-PMC2173613-medscan-219", 
                    "object-type": "map-range", 
                    "to": "sent-PMC2173613-cmu-220"
                }, 
                {
                    "from": "sent-PMC2173613-medscan-159", 
                    "object-type": "map-range", 
                    "to": "sent-PMC2173613-cmu-155"
                }, 
                {
                    "from": "sent-PMC2173613-medscan-89", 
                    "object-type": "map-range", 
                    "to": "sent-PMC2173613-cmu-89"
                }, 
                {
                    "from": "sent-PMC2173613-medscan-111", 
                    "object-type": "map-range", 
                    "to": "sent-PMC2173613-cmu-107"
                }, 
                {
                    "from": "sent-PMC2173613-medscan-163", 
                    "object-type": "map-range", 
                    "to": "sent-PMC2173613-cmu-159"
                }, 
                {
                    "from": "sent-PMC2173613-medscan-172", 
                    "object-type": "map-range", 
                    "to": "sent-PMC2173613-cmu-169"
                }, 
                {
                    "from": "sent-PMC2173613-medscan-188", 
                    "object-type": "map-range", 
                    "to": "sent-PMC2173613-cmu-188"
                }, 
                {
                    "from": "sent-PMC2173613-medscan-52", 
                    "object-type": "map-range", 
                    "to": "sent-PMC2173613-cmu-64"
                }, 
                {
                    "from": "sent-PMC2173613-medscan-201", 
                    "object-type": "map-range", 
                    "to": "sent-PMC2173613-cmu-198"
                }, 
                {
                    "from": "sent-PMC2173613-medscan-88", 
                    "object-type": "map-range", 
                    "to": "sent-PMC2173613-cmu-88"
                }, 
                {
                    "from": "sent-PMC2173613-medscan-254", 
                    "object-type": "map-range", 
                    "to": "sent-PMC2173613-cmu-262"
                }, 
                {
                    "from": "sent-PMC2173613-medscan-189", 
                    "object-type": "map-range", 
                    "to": "sent-PMC2173613-cmu-189"
                }, 
                {
                    "from": "sent-PMC2173613-medscan-223", 
                    "object-type": "map-range", 
                    "to": "sent-PMC2173613-cmu-226"
                }, 
                {
                    "from": "sent-PMC2173613-medscan-134", 
                    "object-type": "map-range", 
                    "to": "sent-PMC2173613-cmu-136"
                }, 
                {
                    "from": "sent-PMC2173613-medscan-219", 
                    "object-type": "map-range", 
                    "to": "sent-PMC2173613-cmu-214"
                }, 
                {
                    "from": "sent-PMC2173613-medscan-219", 
                    "object-type": "map-range", 
                    "to": "sent-PMC2173613-cmu-214"
                }, 
                {
                    "from": "sent-PMC2173613-medscan-239", 
                    "object-type": "map-range", 
                    "to": "sent-PMC2173613-cmu-246"
                }, 
                {
                    "from": "sent-PMC2173613-medscan-179", 
                    "object-type": "map-range", 
                    "to": "sent-PMC2173613-cmu-176"
                }, 
                {
                    "from": "sent-PMC2173613-medscan-195", 
                    "object-type": "map-range", 
                    "to": "sent-PMC2173613-cmu-195"
                }, 
                {
                    "from": "sent-PMC2173613-medscan-164", 
                    "object-type": "map-range", 
                    "to": "sent-PMC2173613-cmu-160"
                }, 
                {
                    "from": "sent-PMC2173613-medscan-205", 
                    "object-type": "map-range", 
                    "to": "sent-PMC2173613-cmu-204"
                }, 
                {
                    "from": "sent-PMC2173613-medscan-91", 
                    "object-type": "map-range", 
                    "to": "sent-PMC2173613-cmu-92"
                }, 
                {
                    "from": "sent-PMC2173613-medscan-1", 
                    "object-type": "map-range", 
                    "to": "sent-PMC2173613-cmu-3"
                }, 
                {
                    "from": "sent-PMC2173613-medscan-204", 
                    "object-type": "map-range", 
                    "to": "sent-PMC2173613-cmu-203"
                }, 
                {
                    "from": "sent-PMC2173613-medscan-116", 
                    "object-type": "map-range", 
                    "to": "sent-PMC2173613-cmu-114"
                }, 
                {
                    "from": "sent-PMC2173613-medscan-18", 
                    "object-type": "map-range", 
                    "to": "sent-PMC2173613-cmu-20"
                }, 
                {
                    "from": "sent-PMC2173613-medscan-11", 
                    "object-type": "map-range", 
                    "to": "sent-PMC2173613-cmu-13"
                }, 
                {
                    "from": "sent-PMC2173613-medscan-74", 
                    "object-type": "map-range", 
                    "to": "sent-PMC2173613-cmu-79"
                }, 
                {
                    "from": "sent-PMC2173613-medscan-270", 
                    "object-type": "map-range", 
                    "to": "sent-PMC2173613-cmu-279"
                }, 
                {
                    "from": "sent-PMC2173613-medscan-20", 
                    "object-type": "map-range", 
                    "to": "sent-PMC2173613-cmu-26"
                }, 
                {
                    "from": "sent-PMC2173613-medscan-168", 
                    "object-type": "map-range", 
                    "to": "sent-PMC2173613-cmu-165"
                }, 
                {
                    "from": "sent-PMC2173613-medscan-190", 
                    "object-type": "map-range", 
                    "to": "sent-PMC2173613-cmu-190"
                }, 
                {
                    "from": "sent-PMC2173613-medscan-16", 
                    "object-type": "map-range", 
                    "to": "sent-PMC2173613-cmu-18"
                }, 
                {
                    "from": "sent-PMC2173613-medscan-211", 
                    "object-type": "map-range", 
                    "to": "sent-PMC2173613-cmu-210"
                }, 
                {
                    "from": "sent-PMC2173613-medscan-120", 
                    "object-type": "map-range", 
                    "to": "sent-PMC2173613-cmu-123"
                }, 
                {
                    "from": "sent-PMC2173613-medscan-103", 
                    "object-type": "map-range", 
                    "to": "sent-PMC2173613-cmu-104"
                }, 
                {
                    "from": "sent-PMC2173613-medscan-9", 
                    "object-type": "map-range", 
                    "to": "sent-PMC2173613-cmu-11"
                }, 
                {
                    "from": "sent-PMC2173613-medscan-232", 
                    "object-type": "map-range", 
                    "to": "sent-PMC2173613-cmu-238"
                }, 
                {
                    "from": "sent-PMC2173613-medscan-207", 
                    "object-type": "map-range", 
                    "to": "sent-PMC2173613-cmu-206"
                }, 
                {
                    "from": "sent-PMC2173613-medscan-234", 
                    "object-type": "map-range", 
                    "to": "sent-PMC2173613-cmu-240"
                }, 
                {
                    "from": "sent-PMC2173613-medscan-244", 
                    "object-type": "map-range", 
                    "to": "sent-PMC2173613-cmu-251"
                }, 
                {
                    "from": "sent-PMC2173613-medscan-7", 
                    "object-type": "map-range", 
                    "to": "sent-PMC2173613-cmu-9"
                }, 
                {
                    "from": "sent-PMC2173613-medscan-160", 
                    "object-type": "map-range", 
                    "to": "sent-PMC2173613-cmu-156"
                }, 
                {
                    "from": "sent-PMC2173613-medscan-261", 
                    "object-type": "map-range", 
                    "to": "sent-PMC2173613-cmu-269"
                }, 
                {
                    "from": "sent-PMC2173613-medscan-194", 
                    "object-type": "map-range", 
                    "to": "sent-PMC2173613-cmu-194"
                }, 
                {
                    "from": "sent-PMC2173613-medscan-76", 
                    "object-type": "map-range", 
                    "to": "sent-PMC2173613-cmu-83"
                }, 
                {
                    "from": "sent-PMC2173613-medscan-46", 
                    "object-type": "map-range", 
                    "to": "sent-PMC2173613-cmu-51"
                }, 
                {
                    "from": "sent-PMC2173613-medscan-227", 
                    "object-type": "map-range", 
                    "to": "sent-PMC2173613-cmu-232"
                }, 
                {
                    "from": "sent-PMC2173613-medscan-12", 
                    "object-type": "map-range", 
                    "to": "sent-PMC2173613-cmu-14"
                }, 
                {
                    "from": "sent-PMC2173613-medscan-170", 
                    "object-type": "map-range", 
                    "to": "sent-PMC2173613-cmu-167"
                }, 
                {
                    "from": "sent-PMC2173613-medscan-90", 
                    "object-type": "map-range", 
                    "to": "sent-PMC2173613-cmu-91"
                }, 
                {
                    "from": "sent-PMC2173613-medscan-136", 
                    "object-type": "map-range", 
                    "to": "sent-PMC2173613-cmu-139"
                }, 
                {
                    "from": "sent-PMC2173613-medscan-104", 
                    "object-type": "map-range", 
                    "to": "sent-PMC2173613-cmu-106"
                }, 
                {
                    "from": "sent-PMC2173613-medscan-119", 
                    "object-type": "map-range", 
                    "to": "sent-PMC2173613-cmu-120"
                }, 
                {
                    "from": "sent-PMC2173613-medscan-218", 
                    "object-type": "map-range", 
                    "to": "sent-PMC2173613-cmu-219"
                }, 
                {
                    "from": "sent-PMC2173613-medscan-97", 
                    "object-type": "map-range", 
                    "to": "sent-PMC2173613-cmu-94"
                }, 
                {
                    "from": "sent-PMC2173613-medscan-178", 
                    "object-type": "map-range", 
                    "to": "sent-PMC2173613-cmu-175"
                }, 
                {
                    "from": "sent-PMC2173613-medscan-117", 
                    "object-type": "map-range", 
                    "to": "sent-PMC2173613-cmu-116"
                }, 
                {
                    "from": "sent-PMC2173613-medscan-222", 
                    "object-type": "map-range", 
                    "to": "sent-PMC2173613-cmu-225"
                }, 
                {
                    "from": "sent-PMC2173613-medscan-242", 
                    "object-type": "map-range", 
                    "to": "sent-PMC2173613-cmu-249"
                }, 
                {
                    "from": "sent-PMC2173613-medscan-44", 
                    "object-type": "map-range", 
                    "to": "sent-PMC2173613-cmu-48"
                }, 
                {
                    "from": "sent-PMC2173613-medscan-210", 
                    "object-type": "map-range", 
                    "to": "sent-PMC2173613-cmu-209"
                }, 
                {
                    "from": "sent-PMC2173613-medscan-15", 
                    "object-type": "map-range", 
                    "to": "sent-PMC2173613-cmu-17"
                }, 
                {
                    "from": "sent-PMC2173613-medscan-247", 
                    "object-type": "map-range", 
                    "to": "sent-PMC2173613-cmu-255"
                }, 
                {
                    "from": "sent-PMC2173613-medscan-113", 
                    "object-type": "map-range", 
                    "to": "sent-PMC2173613-cmu-110"
                }, 
                {
                    "from": "sent-PMC2173613-medscan-109", 
                    "object-type": "map-range", 
                    "to": "sent-PMC2173613-cmu-8"
                }, 
                {
                    "from": "sent-PMC2173613-medscan-109", 
                    "object-type": "map-range", 
                    "to": "sent-PMC2173613-cmu-8"
                }, 
                {
                    "from": "sent-PMC2173613-medscan-151", 
                    "object-type": "map-range", 
                    "to": "sent-PMC2173613-cmu-146"
                }, 
                {
                    "from": "sent-PMC2173613-medscan-158", 
                    "object-type": "map-range", 
                    "to": "sent-PMC2173613-cmu-154"
                }, 
                {
                    "from": "sent-PMC2173613-medscan-177", 
                    "object-type": "map-range", 
                    "to": "sent-PMC2173613-cmu-174"
                }, 
                {
                    "from": "sent-PMC2173613-medscan-180", 
                    "object-type": "map-range", 
                    "to": "sent-PMC2173613-cmu-177"
                }, 
                {
                    "from": "sent-PMC2173613-medscan-255", 
                    "object-type": "map-range", 
                    "to": "sent-PMC2173613-cmu-263"
                }, 
                {
                    "from": "sent-PMC2173613-medscan-5", 
                    "object-type": "map-range", 
                    "to": "sent-PMC2173613-cmu-7"
                }, 
                {
                    "from": "sent-PMC2173613-medscan-51", 
                    "object-type": "map-range", 
                    "to": "sent-PMC2173613-cmu-63"
                }, 
                {
                    "from": "sent-PMC2173613-medscan-51", 
                    "object-type": "map-range", 
                    "to": "sent-PMC2173613-cmu-63"
                }, 
                {
                    "from": "sent-PMC2173613-medscan-176", 
                    "object-type": "map-range", 
                    "to": "sent-PMC2173613-cmu-173"
                }, 
                {
                    "from": "sent-PMC2173613-medscan-157", 
                    "object-type": "map-range", 
                    "to": "sent-PMC2173613-cmu-152"
                }, 
                {
                    "from": "sent-PMC2173613-medscan-226", 
                    "object-type": "map-range", 
                    "to": "sent-PMC2173613-cmu-230"
                }, 
                {
                    "from": "sent-PMC2173613-medscan-73", 
                    "object-type": "map-range", 
                    "to": "sent-PMC2173613-cmu-4"
                }, 
                {
                    "from": "sent-PMC2173613-medscan-73", 
                    "object-type": "map-range", 
                    "to": "sent-PMC2173613-cmu-4"
                }, 
                {
                    "from": "sent-PMC2173613-medscan-26", 
                    "object-type": "map-range", 
                    "to": "sent-PMC2173613-cmu-33"
                }, 
                {
                    "from": "sent-PMC2173613-medscan-155", 
                    "object-type": "map-range", 
                    "to": "sent-PMC2173613-cmu-150"
                }, 
                {
                    "from": "sent-PMC2173613-medscan-48", 
                    "object-type": "map-range", 
                    "to": "sent-PMC2173613-cmu-54"
                }, 
                {
                    "from": "sent-PMC2173613-medscan-154", 
                    "object-type": "map-range", 
                    "to": "sent-PMC2173613-cmu-149"
                }, 
                {
                    "from": "sent-PMC2173613-medscan-215", 
                    "object-type": "map-range", 
                    "to": "sent-PMC2173613-cmu-216"
                }, 
                {
                    "from": "sent-PMC2173613-medscan-13", 
                    "object-type": "map-range", 
                    "to": "sent-PMC2173613-cmu-15"
                }, 
                {
                    "from": "sent-PMC2173613-medscan-231", 
                    "object-type": "map-range", 
                    "to": "sent-PMC2173613-cmu-236"
                }, 
                {
                    "from": "sent-PMC2173613-medscan-43", 
                    "object-type": "map-range", 
                    "to": "sent-PMC2173613-cmu-45"
                }, 
                {
                    "from": "sent-PMC2173613-medscan-153", 
                    "object-type": "map-range", 
                    "to": "sent-PMC2173613-cmu-148"
                }, 
                {
                    "from": "sent-PMC2173613-medscan-121", 
                    "object-type": "map-range", 
                    "to": "sent-PMC2173613-cmu-127"
                }, 
                {
                    "from": "sent-PMC2173613-medscan-248", 
                    "object-type": "map-range", 
                    "to": "sent-PMC2173613-cmu-256"
                }, 
                {
                    "from": "sent-PMC2173613-medscan-30", 
                    "object-type": "map-range", 
                    "to": "sent-PMC2173613-cmu-38"
                }, 
                {
                    "from": "sent-PMC2173613-medscan-53", 
                    "object-type": "map-range", 
                    "to": "sent-PMC2173613-cmu-66"
                }, 
                {
                    "from": "sent-PMC2173613-medscan-45", 
                    "object-type": "map-range", 
                    "to": "sent-PMC2173613-cmu-49"
                }, 
                {
                    "from": "sent-PMC2173613-medscan-238", 
                    "object-type": "map-range", 
                    "to": "sent-PMC2173613-cmu-245"
                }, 
                {
                    "from": "sent-PMC2173613-medscan-49", 
                    "object-type": "map-range", 
                    "to": "sent-PMC2173613-cmu-57"
                }, 
                {
                    "from": "sent-PMC2173613-medscan-22", 
                    "object-type": "map-range", 
                    "to": "sent-PMC2173613-cmu-29"
                }, 
                {
                    "from": "sent-PMC2173613-medscan-70", 
                    "object-type": "map-range", 
                    "to": "sent-PMC2173613-cmu-74"
                }, 
                {
                    "from": "sent-PMC2173613-medscan-129", 
                    "object-type": "map-range", 
                    "to": "sent-PMC2173613-cmu-129"
                }, 
                {
                    "from": "sent-PMC2173613-medscan-23", 
                    "object-type": "map-range", 
                    "to": "sent-PMC2173613-cmu-30"
                }, 
                {
                    "from": "sent-PMC2173613-medscan-150", 
                    "object-type": "map-range", 
                    "to": "sent-PMC2173613-cmu-144"
                }, 
                {
                    "from": "sent-PMC2173613-medscan-241", 
                    "object-type": "map-range", 
                    "to": "sent-PMC2173613-cmu-248"
                }, 
                {
                    "from": "sent-PMC2173613-medscan-208", 
                    "object-type": "map-range", 
                    "to": "sent-PMC2173613-cmu-207"
                }, 
                {
                    "from": "sent-PMC2173613-medscan-152", 
                    "object-type": "map-range", 
                    "to": "sent-PMC2173613-cmu-147"
                }, 
                {
                    "from": "sent-PMC2173613-medscan-185", 
                    "object-type": "map-range", 
                    "to": "sent-PMC2173613-cmu-182"
                }, 
                {
                    "from": "sent-PMC2173613-medscan-87", 
                    "object-type": "map-range", 
                    "to": "sent-PMC2173613-cmu-86"
                }, 
                {
                    "from": "sent-PMC2173613-medscan-71", 
                    "object-type": "map-range", 
                    "to": "sent-PMC2173613-cmu-140"
                }, 
                {
                    "from": "sent-PMC2173613-medscan-71", 
                    "object-type": "map-range", 
                    "to": "sent-PMC2173613-cmu-140"
                }, 
                {
                    "from": "sent-PMC2173613-medscan-71", 
                    "object-type": "map-range", 
                    "to": "sent-PMC2173613-cmu-75"
                }, 
                {
                    "from": "sent-PMC2173613-medscan-71", 
                    "object-type": "map-range", 
                    "to": "sent-PMC2173613-cmu-75"
                }, 
                {
                    "from": "sent-PMC2173613-medscan-102", 
                    "object-type": "map-range", 
                    "to": "sent-PMC2173613-cmu-103"
                }, 
                {
                    "from": "sent-PMC2173613-medscan-260", 
                    "object-type": "map-range", 
                    "to": "sent-PMC2173613-cmu-268"
                }, 
                {
                    "from": "sent-PMC2173613-medscan-182", 
                    "object-type": "map-range", 
                    "to": "sent-PMC2173613-cmu-179"
                }, 
                {
                    "from": "sent-PMC2173613-medscan-181", 
                    "object-type": "map-range", 
                    "to": "sent-PMC2173613-cmu-178"
                }, 
                {
                    "from": "sent-PMC2173613-medscan-86", 
                    "object-type": "map-range", 
                    "to": "sent-PMC2173613-cmu-85"
                }, 
                {
                    "from": "sent-PMC2173613-medscan-256", 
                    "object-type": "map-range", 
                    "to": "sent-PMC2173613-cmu-265"
                }, 
                {
                    "from": "sent-PMC2173613-medscan-118", 
                    "object-type": "map-range", 
                    "to": "sent-PMC2173613-cmu-118"
                }, 
                {
                    "from": "sent-PMC2173613-medscan-131", 
                    "object-type": "map-range", 
                    "to": "sent-PMC2173613-cmu-131"
                }, 
                {
                    "from": "sent-PMC2173613-medscan-246", 
                    "object-type": "map-range", 
                    "to": "sent-PMC2173613-cmu-254"
                }, 
                {
                    "from": "sent-PMC2173613-medscan-213", 
                    "object-type": "map-range", 
                    "to": "sent-PMC2173613-cmu-213"
                }, 
                {
                    "from": "sent-PMC2173613-medscan-115", 
                    "object-type": "map-range", 
                    "to": "sent-PMC2173613-cmu-112"
                }, 
                {
                    "from": "sent-PMC2173613-medscan-225", 
                    "object-type": "map-range", 
                    "to": "sent-PMC2173613-cmu-229"
                }, 
                {
                    "from": "sent-PMC2173613-medscan-33", 
                    "object-type": "map-range", 
                    "to": "sent-PMC2173613-cmu-42"
                }
            ], 
            "object-meta": {
                "component": "Pradeep-Matcher", 
                "object-type": "meta-info", 
                "organization": "CMU"
            }, 
            "object-type": "frame"
        }
    ], 
    "object-meta": {
        "component": "Pradeep-Matcher", 
        "component-type": "machine", 
        "doc-id": "PMC2173613", 
        "object-type": "meta-info", 
        "organization": "CMU"
    }, 
    "object-type": "frame-collection"
}
