{
  "evidence": ["activating transcription factor 2 (ATF2) are phosphorylated","Both c-Jun and activating transcription factor 2 ( ATF2 ) are phosphorylated by JNKs after NGF deprivation in sympathetic neurons          , although , in the case of ATF2 , the increase in phosphorylation ( at threonine 71 ) is more transient     ."],
  "extracted_information": {
    "interaction_type": "adds_modification",
    "negative_information": false,
    "modifications": [
      {
        "modification_type": "phosphorylation"
      }
    ],
    "participant_b": {
      "entity_text": "activating transcription factor 2",
      "entity_type": "protein",
      "identifier": "Uniprot:P15336",
      "in_model": true
    }
  },
  "fries_provenance": [
    {
      "cmu-sentence-epistemic-status": "implication",
      "cmu-sentence-epistemic-value": 0.6,
      "component": "REACH",
      "frame-file": "PMC2685101.uaz.events",
      "frame-id": "evem-PMC2685101-UAZ-r1-74-1-49",
      "passage-id": "pass-PMC2685101-UAZ-r1-74",
      "passage-number": 74,
      "passage-section-id": "N/A",
      "passage-section-name": "N/A",
      "sentence": "Both c-Jun and activating transcription factor 2 ( ATF2 ) are phosphorylated by JNKs after NGF deprivation in sympathetic neurons          , although , in the case of ATF2 , the increase in phosphorylation ( at threonine 71 ) is more transient     .",
      "text": "activating transcription factor 2 (ATF2) are phosphorylated",
      "uaz-sentence": "Both c-Jun and activating transcription factor 2 ( ATF2 ) are phosphorylated by JNKs after NGF deprivation in sympathetic neurons          , although , in the case of ATF2 , the increase in phosphorylation ( at threonine 71 ) is more transient     .",
      "uaz-sentence-start": 100
    }
  ],
  "model_relation": "extension",
  "pmc_id": "PMC2685101",
  "reader_type": "machine",
  "reading_complete": "2015-06-15T20:43:23Z",
  "reading_started": "2015-06-15T20:43:18Z",
  "submitter": "FRIES"
}
