{
  "frames":[
    {
      "frame-id":"evem-PMC3041734-UAZ-r1-6-1-1",
      "text":"D-galactose can induce caspase",
      "arguments":[
        {
          "text":"caspase",
          "argument-type":"entity",
          "object-type":"argument",
          "index":0,
          "argument-label":"controlled",
          "arg":"ment-PMC3041734-UAZ-r1-6-1-48"
        },
        {
          "text":"D-galactose",
          "argument-type":"entity",
          "object-type":"argument",
          "index":0,
          "argument-label":"controller",
          "arg":"ment-PMC3041734-UAZ-r1-6-1-47"
        }
      ],
      "type":"activation",
      "frame-type":"event-mention",
      "subtype":"positive-activation",
      "end-pos":{
        "reference":"pass-PMC3041734-UAZ-r1-6",
        "offset":274,
        "object-type":"relative-pos"
      },
      "object-type":"frame",
      "start-pos":{
        "reference":"pass-PMC3041734-UAZ-r1-6",
        "offset":244,
        "object-type":"relative-pos"
      },
      "sentence":"sent-PMC3041734-UAZ-r1-6-1",
      "found-by":"Positive_activation_syntax_1_verb",
      "object-meta":{
        "component":"REACH",
        "object-type":"meta-info"
      },
      "verbose-text":"D-galactose can induce caspase mediated apoptosis , inflammation and oxidative damage in the nervous system      and sodium nitrite ( NaNO2 ) injection may cause ischemia and hypoxia in many organs in animals     ."
    },
    {
      "frame-id":"evem-PMC3041734-UAZ-r1-60-1-2",
      "text":"D-galactose and NaNO2 induced significant decrease of SOD",
      "arguments":[
        {
          "text":"SOD",
          "argument-type":"entity",
          "object-type":"argument",
          "index":0,
          "argument-label":"controlled",
          "arg":"ment-PMC3041734-UAZ-r1-60-1-233"
        },
        {
          "text":"D-galactose",
          "argument-type":"entity",
          "object-type":"argument",
          "index":0,
          "argument-label":"controller",
          "arg":"ment-PMC3041734-UAZ-r1-60-1-232"
        }
      ],
      "type":"activation",
      "frame-type":"event-mention",
      "subtype":"negative-activation",
      "end-pos":{
        "reference":"pass-PMC3041734-UAZ-r1-60",
        "offset":243,
        "object-type":"relative-pos"
      },
      "object-type":"frame",
      "start-pos":{
        "reference":"pass-PMC3041734-UAZ-r1-60",
        "offset":186,
        "object-type":"relative-pos"
      },
      "sentence":"sent-PMC3041734-UAZ-r1-60-1",
      "found-by":"Positive_activation_syntax_1_verb",
      "object-meta":{
        "component":"REACH",
        "object-type":"meta-info"
      },
      "verbose-text":"The results show that chronic injection of D-galactose and NaNO2 induced significant decrease of SOD and catalase activities and increase of the MDA level ."
    },
    {
      "frame-id":"evem-PMC3041734-UAZ-r1-60-1-3",
      "text":"D-galactose and NaNO2 induced significant decrease of SOD and catalase",
      "arguments":[
        {
          "text":"catalase",
          "argument-type":"entity",
          "object-type":"argument",
          "index":0,
          "argument-label":"controlled",
          "arg":"ment-PMC3041734-UAZ-r1-60-1-234"
        },
        {
          "text":"D-galactose",
          "argument-type":"entity",
          "object-type":"argument",
          "index":0,
          "argument-label":"controller",
          "arg":"ment-PMC3041734-UAZ-r1-60-1-232"
        }
      ],
      "type":"activation",
      "frame-type":"event-mention",
      "subtype":"negative-activation",
      "end-pos":{
        "reference":"pass-PMC3041734-UAZ-r1-60",
        "offset":256,
        "object-type":"relative-pos"
      },
      "object-type":"frame",
      "start-pos":{
        "reference":"pass-PMC3041734-UAZ-r1-60",
        "offset":186,
        "object-type":"relative-pos"
      },
      "sentence":"sent-PMC3041734-UAZ-r1-60-1",
      "found-by":"Positive_activation_syntax_1_verb",
      "object-meta":{
        "component":"REACH",
        "object-type":"meta-info"
      },
      "verbose-text":"The results show that chronic injection of D-galactose and NaNO2 induced significant decrease of SOD and catalase activities and increase of the MDA level ."
    },
    {
      "frame-id":"evem-PMC3041734-UAZ-r1-60-1-4",
      "text":"D-galactose and NaNO2 induced significant decrease of SOD and catalase activities and increase of the MDA",
      "arguments":[
        {
          "text":"MDA",
          "argument-type":"entity",
          "object-type":"argument",
          "index":0,
          "argument-label":"controlled",
          "arg":"ment-PMC3041734-UAZ-r1-60-1-235"
        },
        {
          "text":"D-galactose",
          "argument-type":"entity",
          "object-type":"argument",
          "index":0,
          "argument-label":"controller",
          "arg":"ment-PMC3041734-UAZ-r1-60-1-232"
        }
      ],
      "type":"activation",
      "frame-type":"event-mention",
      "subtype":"positive-activation",
      "end-pos":{
        "reference":"pass-PMC3041734-UAZ-r1-60",
        "offset":291,
        "object-type":"relative-pos"
      },
      "object-type":"frame",
      "start-pos":{
        "reference":"pass-PMC3041734-UAZ-r1-60",
        "offset":186,
        "object-type":"relative-pos"
      },
      "sentence":"sent-PMC3041734-UAZ-r1-60-1",
      "found-by":"Positive_activation_syntax_1_verb",
      "object-meta":{
        "component":"REACH",
        "object-type":"meta-info"
      },
      "verbose-text":"The results show that chronic injection of D-galactose and NaNO2 induced significant decrease of SOD and catalase activities and increase of the MDA level ."
    },
    {
      "is-hypothesis":true,
      "frame-id":"evem-PMC3041734-UAZ-r1-70-0-5",
      "text":"LPS-induced Cox-2",
      "arguments":[
        {
          "text":"Cox-2",
          "argument-type":"entity",
          "object-type":"argument",
          "index":0,
          "argument-label":"controlled",
          "arg":"ment-PMC3041734-UAZ-r1-70-0-271"
        },
        {
          "text":"LPS",
          "argument-type":"entity",
          "object-type":"argument",
          "index":0,
          "argument-label":"controller",
          "arg":"ment-PMC3041734-UAZ-r1-70-0-270"
        }
      ],
      "type":"activation",
      "frame-type":"event-mention",
      "subtype":"positive-activation",
      "end-pos":{
        "reference":"pass-PMC3041734-UAZ-r1-70",
        "offset":56,
        "object-type":"relative-pos"
      },
      "object-type":"frame",
      "start-pos":{
        "reference":"pass-PMC3041734-UAZ-r1-70",
        "offset":39,
        "object-type":"relative-pos"
      },
      "sentence":"sent-PMC3041734-UAZ-r1-70-0",
      "found-by":"Positive_activation_syntax_1_verb",
      "object-meta":{
        "component":"REACH",
        "object-type":"meta-info"
      },
      "verbose-text":"To investigate whether SBG can inhibit LPS induced Cox-2 and iNOS expression , Raw 264.7 and microglia BV2 cells were pretreated for 30 min with 100 ug and ml and 200 ug and ml concentrations of SBG and subsequently treated with 0.5 ug and ml LPS ."
    },
    {
      "is-hypothesis":true,
      "frame-id":"evem-PMC3041734-UAZ-r1-70-0-6",
      "text":"LPS-induced Cox-2 and iNOS",
      "arguments":[
        {
          "text":"iNOS",
          "argument-type":"entity",
          "object-type":"argument",
          "index":0,
          "argument-label":"controlled",
          "arg":"ment-PMC3041734-UAZ-r1-70-0-272"
        },
        {
          "text":"LPS",
          "argument-type":"entity",
          "object-type":"argument",
          "index":0,
          "argument-label":"controller",
          "arg":"ment-PMC3041734-UAZ-r1-70-0-270"
        }
      ],
      "type":"activation",
      "frame-type":"event-mention",
      "subtype":"positive-activation",
      "end-pos":{
        "reference":"pass-PMC3041734-UAZ-r1-70",
        "offset":65,
        "object-type":"relative-pos"
      },
      "object-type":"frame",
      "start-pos":{
        "reference":"pass-PMC3041734-UAZ-r1-70",
        "offset":39,
        "object-type":"relative-pos"
      },
      "sentence":"sent-PMC3041734-UAZ-r1-70-0",
      "found-by":"Positive_activation_syntax_1_verb",
      "object-meta":{
        "component":"REACH",
        "object-type":"meta-info"
      },
      "verbose-text":"To investigate whether SBG can inhibit LPS induced Cox-2 and iNOS expression , Raw 264.7 and microglia BV2 cells were pretreated for 30 min with 100 ug and ml and 200 ug and ml concentrations of SBG and subsequently treated with 0.5 ug and ml LPS ."
    },
    {
      "is-hypothesis":true,
      "frame-id":"evem-PMC3041734-UAZ-r1-70-0-7",
      "text":"SBG can inhibit LPS",
      "arguments":[
        {
          "text":"LPS",
          "argument-type":"entity",
          "object-type":"argument",
          "index":0,
          "argument-label":"controlled",
          "arg":"ment-PMC3041734-UAZ-r1-70-0-270"
        },
        {
          "text":"SBG",
          "argument-type":"entity",
          "object-type":"argument",
          "index":0,
          "argument-label":"controller",
          "arg":"ment-PMC3041734-UAZ-r1-70-0-269"
        }
      ],
      "type":"activation",
      "frame-type":"event-mention",
      "subtype":"negative-activation",
      "end-pos":{
        "reference":"pass-PMC3041734-UAZ-r1-70",
        "offset":42,
        "object-type":"relative-pos"
      },
      "object-type":"frame",
      "start-pos":{
        "reference":"pass-PMC3041734-UAZ-r1-70",
        "offset":23,
        "object-type":"relative-pos"
      },
      "sentence":"sent-PMC3041734-UAZ-r1-70-0",
      "found-by":"Negative_activation_syntax_1_verb",
      "object-meta":{
        "component":"REACH",
        "object-type":"meta-info"
      },
      "verbose-text":"To investigate whether SBG can inhibit LPS induced Cox-2 and iNOS expression , Raw 264.7 and microglia BV2 cells were pretreated for 30 min with 100 ug and ml and 200 ug and ml concentrations of SBG and subsequently treated with 0.5 ug and ml LPS ."
    },
    {
      "frame-id":"evem-PMC3041734-UAZ-r1-72-0-8",
      "text":"SBG on LPS induced expression of COX-2",
      "arguments":[
        {
          "text":"COX-2",
          "argument-type":"entity",
          "object-type":"argument",
          "index":0,
          "argument-label":"controlled",
          "arg":"ment-PMC3041734-UAZ-r1-72-0-290"
        },
        {
          "text":"SBG",
          "argument-type":"entity",
          "object-type":"argument",
          "index":0,
          "argument-label":"controller",
          "arg":"ment-PMC3041734-UAZ-r1-72-0-288"
        }
      ],
      "type":"activation",
      "frame-type":"event-mention",
      "subtype":"positive-activation",
      "end-pos":{
        "reference":"pass-PMC3041734-UAZ-r1-72",
        "offset":52,
        "object-type":"relative-pos"
      },
      "object-type":"frame",
      "start-pos":{
        "reference":"pass-PMC3041734-UAZ-r1-72",
        "offset":14,
        "object-type":"relative-pos"
      },
      "sentence":"sent-PMC3041734-UAZ-r1-72-0",
      "found-by":"Positive_activation_syntax_1_verb",
      "object-meta":{
        "component":"REACH",
        "object-type":"meta-info"
      },
      "verbose-text":"The effect of SBG on LPS induced expression of COX-2 and iNOS protein with the Raw 264.7 cells and BV2 cells ."
    },
    {
      "frame-id":"evem-PMC3041734-UAZ-r1-72-0-9",
      "text":"SBG on LPS induced expression of COX-2 and iNOS",
      "arguments":[
        {
          "text":"iNOS",
          "argument-type":"entity",
          "object-type":"argument",
          "index":0,
          "argument-label":"controlled",
          "arg":"ment-PMC3041734-UAZ-r1-72-0-291"
        },
        {
          "text":"SBG",
          "argument-type":"entity",
          "object-type":"argument",
          "index":0,
          "argument-label":"controller",
          "arg":"ment-PMC3041734-UAZ-r1-72-0-288"
        }
      ],
      "type":"activation",
      "frame-type":"event-mention",
      "subtype":"positive-activation",
      "end-pos":{
        "reference":"pass-PMC3041734-UAZ-r1-72",
        "offset":61,
        "object-type":"relative-pos"
      },
      "object-type":"frame",
      "start-pos":{
        "reference":"pass-PMC3041734-UAZ-r1-72",
        "offset":14,
        "object-type":"relative-pos"
      },
      "sentence":"sent-PMC3041734-UAZ-r1-72-0",
      "found-by":"Positive_activation_syntax_1_verb",
      "object-meta":{
        "component":"REACH",
        "object-type":"meta-info"
      },
      "verbose-text":"The effect of SBG on LPS induced expression of COX-2 and iNOS protein with the Raw 264.7 cells and BV2 cells ."
    },
    {
      "frame-id":"evem-PMC3041734-UAZ-r1-77-1-10",
      "text":"caspase-3 inhibitions and increase of bcl-2",
      "arguments":[
        {
          "text":"bcl-2",
          "argument-type":"entity",
          "object-type":"argument",
          "index":0,
          "argument-label":"controlled",
          "arg":"ment-PMC3041734-UAZ-r1-77-1-322"
        },
        {
          "text":"caspase-3",
          "argument-type":"entity",
          "object-type":"argument",
          "index":0,
          "argument-label":"controller",
          "arg":"ment-PMC3041734-UAZ-r1-77-1-321"
        }
      ],
      "type":"activation",
      "frame-type":"event-mention",
      "subtype":"negative-activation",
      "end-pos":{
        "reference":"pass-PMC3041734-UAZ-r1-77",
        "offset":301,
        "object-type":"relative-pos"
      },
      "object-type":"frame",
      "start-pos":{
        "reference":"pass-PMC3041734-UAZ-r1-77",
        "offset":258,
        "object-type":"relative-pos"
      },
      "sentence":"sent-PMC3041734-UAZ-r1-77-1",
      "found-by":"Negative_activation_syntax_3_noun",
      "object-meta":{
        "component":"REACH",
        "object-type":"meta-info"
      },
      "verbose-text":"In Raw 264.7 cells , we showed dose dependent strong cleaved caspase-3 inhibitions and increase of bcl-2 / bax protein expression ratio ( Figure    ."
    },
    {
      "frame-id":"evem-PMC3041734-UAZ-r1-87-4-11",
      "text":"D-galactose can induce oxidative damage",
      "arguments":[
        {
          "text":"damage",
          "argument-type":"entity",
          "object-type":"argument",
          "index":0,
          "argument-label":"controlled",
          "arg":"ment-PMC3041734-UAZ-r1-87-4-394"
        },
        {
          "text":"D-galactose",
          "argument-type":"entity",
          "object-type":"argument",
          "index":0,
          "argument-label":"controller",
          "arg":"ment-PMC3041734-UAZ-r1-87-4-393"
        }
      ],
      "type":"activation",
      "frame-type":"event-mention",
      "subtype":"positive-activation",
      "end-pos":{
        "reference":"pass-PMC3041734-UAZ-r1-87",
        "offset":633,
        "object-type":"relative-pos"
      },
      "object-type":"frame",
      "start-pos":{
        "reference":"pass-PMC3041734-UAZ-r1-87",
        "offset":594,
        "object-type":"relative-pos"
      },
      "sentence":"sent-PMC3041734-UAZ-r1-87-4",
      "found-by":"Positive_activation_syntax_1_verb",
      "object-meta":{
        "component":"REACH",
        "object-type":"meta-info"
      },
      "verbose-text":"Some articles have reported that administration of D-galactose can induce oxidative damage , inflammation , caspase mediated apoptosis and cognition impairment and abnormal biochemistry markers such as SOD , catalase and MDA in the nervous system        ."
    },
    {
      "frame-id":"evem-PMC3041734-UAZ-r1-89-0-12",
      "text":"D-galactose combined with NaNO2 also induced neuronal damage",
      "arguments":[
        {
          "text":"damage",
          "argument-type":"entity",
          "object-type":"argument",
          "index":0,
          "argument-label":"controlled",
          "arg":"ment-PMC3041734-UAZ-r1-89-0-414"
        },
        {
          "text":"D-galactose",
          "argument-type":"entity",
          "object-type":"argument",
          "index":0,
          "argument-label":"controller",
          "arg":"ment-PMC3041734-UAZ-r1-89-0-412"
        }
      ],
      "type":"activation",
      "frame-type":"event-mention",
      "subtype":"positive-activation",
      "end-pos":{
        "reference":"pass-PMC3041734-UAZ-r1-89",
        "offset":60,
        "object-type":"relative-pos"
      },
      "object-type":"frame",
      "start-pos":{
        "reference":"pass-PMC3041734-UAZ-r1-89",
        "offset":0,
        "object-type":"relative-pos"
      },
      "sentence":"sent-PMC3041734-UAZ-r1-89-0",
      "found-by":"Positive_activation_syntax_1_verb",
      "object-meta":{
        "component":"REACH",
        "object-type":"meta-info"
      },
      "verbose-text":"D-galactose combined with NaNO2 also induced neuronal damage in the mouse hippocampus ."
    },
    {
      "frame-id":"evem-PMC3041734-UAZ-r1-92-1-13",
      "text":"SBG increased the activity of SOD",
      "arguments":[
        {
          "text":"SOD",
          "argument-type":"entity",
          "object-type":"argument",
          "index":0,
          "argument-label":"controlled",
          "arg":"ment-PMC3041734-UAZ-r1-92-1-469"
        },
        {
          "text":"SBG",
          "argument-type":"entity",
          "object-type":"argument",
          "index":0,
          "argument-label":"controller",
          "arg":"ment-PMC3041734-UAZ-r1-92-1-468"
        }
      ],
      "type":"activation",
      "frame-type":"event-mention",
      "subtype":"positive-activation",
      "end-pos":{
        "reference":"pass-PMC3041734-UAZ-r1-92",
        "offset":181,
        "object-type":"relative-pos"
      },
      "object-type":"frame",
      "start-pos":{
        "reference":"pass-PMC3041734-UAZ-r1-92",
        "offset":148,
        "object-type":"relative-pos"
      },
      "sentence":"sent-PMC3041734-UAZ-r1-92-1",
      "found-by":"Positive_activation_syntax_1_verb",
      "object-meta":{
        "component":"REACH",
        "object-type":"meta-info"
      },
      "verbose-text":"SBG increased the activity of SOD and catalase and decreased the expression of iNOS and COX-2 and MDA content ."
    },
    {
      "frame-id":"evem-PMC3041734-UAZ-r1-92-1-14",
      "text":"SBG increased the activity of SOD and catalase",
      "arguments":[
        {
          "text":"catalase",
          "argument-type":"entity",
          "object-type":"argument",
          "index":0,
          "argument-label":"controlled",
          "arg":"ment-PMC3041734-UAZ-r1-92-1-470"
        },
        {
          "text":"SBG",
          "argument-type":"entity",
          "object-type":"argument",
          "index":0,
          "argument-label":"controller",
          "arg":"ment-PMC3041734-UAZ-r1-92-1-468"
        }
      ],
      "type":"activation",
      "frame-type":"event-mention",
      "subtype":"positive-activation",
      "end-pos":{
        "reference":"pass-PMC3041734-UAZ-r1-92",
        "offset":194,
        "object-type":"relative-pos"
      },
      "object-type":"frame",
      "start-pos":{
        "reference":"pass-PMC3041734-UAZ-r1-92",
        "offset":148,
        "object-type":"relative-pos"
      },
      "sentence":"sent-PMC3041734-UAZ-r1-92-1",
      "found-by":"Positive_activation_syntax_1_verb",
      "object-meta":{
        "component":"REACH",
        "object-type":"meta-info"
      },
      "verbose-text":"SBG increased the activity of SOD and catalase and decreased the expression of iNOS and COX-2 and MDA content ."
    },
    {
      "frame-id":"evem-PMC3041734-UAZ-r1-92-1-15",
      "text":"SBG increased the activity of SOD and catalase and decreased the expression of iNOS",
      "arguments":[
        {
          "text":"iNOS",
          "argument-type":"entity",
          "object-type":"argument",
          "index":0,
          "argument-label":"controlled",
          "arg":"ment-PMC3041734-UAZ-r1-92-1-471"
        },
        {
          "text":"SBG",
          "argument-type":"entity",
          "object-type":"argument",
          "index":0,
          "argument-label":"controller",
          "arg":"ment-PMC3041734-UAZ-r1-92-1-468"
        }
      ],
      "type":"activation",
      "frame-type":"event-mention",
      "subtype":"negative-activation",
      "end-pos":{
        "reference":"pass-PMC3041734-UAZ-r1-92",
        "offset":231,
        "object-type":"relative-pos"
      },
      "object-type":"frame",
      "start-pos":{
        "reference":"pass-PMC3041734-UAZ-r1-92",
        "offset":148,
        "object-type":"relative-pos"
      },
      "sentence":"sent-PMC3041734-UAZ-r1-92-1",
      "found-by":"Negative_activation_syntax_1_verb",
      "object-meta":{
        "component":"REACH",
        "object-type":"meta-info"
      },
      "verbose-text":"SBG increased the activity of SOD and catalase and decreased the expression of iNOS and COX-2 and MDA content ."
    },
    {
      "frame-id":"evem-PMC3041734-UAZ-r1-92-1-16",
      "text":"SBG increased the activity of SOD and catalase and decreased the expression of iNOS and COX-2",
      "arguments":[
        {
          "text":"COX-2",
          "argument-type":"entity",
          "object-type":"argument",
          "index":0,
          "argument-label":"controlled",
          "arg":"ment-PMC3041734-UAZ-r1-92-1-472"
        },
        {
          "text":"SBG",
          "argument-type":"entity",
          "object-type":"argument",
          "index":0,
          "argument-label":"controller",
          "arg":"ment-PMC3041734-UAZ-r1-92-1-468"
        }
      ],
      "type":"activation",
      "frame-type":"event-mention",
      "subtype":"negative-activation",
      "end-pos":{
        "reference":"pass-PMC3041734-UAZ-r1-92",
        "offset":241,
        "object-type":"relative-pos"
      },
      "object-type":"frame",
      "start-pos":{
        "reference":"pass-PMC3041734-UAZ-r1-92",
        "offset":148,
        "object-type":"relative-pos"
      },
      "sentence":"sent-PMC3041734-UAZ-r1-92-1",
      "found-by":"Negative_activation_syntax_1_verb",
      "object-meta":{
        "component":"REACH",
        "object-type":"meta-info"
      },
      "verbose-text":"SBG increased the activity of SOD and catalase and decreased the expression of iNOS and COX-2 and MDA content ."
    },
    {
      "frame-id":"evem-PMC3041734-UAZ-r1-92-1-17",
      "text":"SBG increased the activity of SOD and catalase and decreased the expression of iNOS and COX-2 and MDA",
      "arguments":[
        {
          "text":"MDA",
          "argument-type":"entity",
          "object-type":"argument",
          "index":0,
          "argument-label":"controlled",
          "arg":"ment-PMC3041734-UAZ-r1-92-1-473"
        },
        {
          "text":"SBG",
          "argument-type":"entity",
          "object-type":"argument",
          "index":0,
          "argument-label":"controller",
          "arg":"ment-PMC3041734-UAZ-r1-92-1-468"
        }
      ],
      "type":"activation",
      "frame-type":"event-mention",
      "subtype":"negative-activation",
      "end-pos":{
        "reference":"pass-PMC3041734-UAZ-r1-92",
        "offset":249,
        "object-type":"relative-pos"
      },
      "object-type":"frame",
      "start-pos":{
        "reference":"pass-PMC3041734-UAZ-r1-92",
        "offset":148,
        "object-type":"relative-pos"
      },
      "sentence":"sent-PMC3041734-UAZ-r1-92-1",
      "found-by":"Negative_activation_syntax_1_verb",
      "object-meta":{
        "component":"REACH",
        "object-type":"meta-info"
      },
      "verbose-text":"SBG increased the activity of SOD and catalase and decreased the expression of iNOS and COX-2 and MDA content ."
    }
  ],
  "object-type":"frame-collection",
  "object-meta":{
    "processing-end":"2015-06-14T21:21:59Z",
    "doc-id":"PMC3041734",
    "component-type":"machine",
    "component":"REACH",
    "processing-start":"2015-06-14T21:18:50Z",
    "object-type":"meta-info",
    "organization":"UAZ"
  }
}
