{
    "frames": [
        {
            "binds-constituent1": [
                "CTNNBL1"
            ], 
            "frame-id": "imp-PMC3885797-cmu-pradsys-97", 
            "frame-type": "implication", 
            "implication-type": "binds", 
            "object-meta": {
                "object-type": "meta-info", 
                "organization": "CMU"
            }, 
            "object-type": "frame", 
            "sentence": "sent-PMC3885797-cmu-29"
        }, 
        {
            "binds-constituent1": [
                "CTNNBL1\u039476", 
                "CTNNBL1"
            ], 
            "frame-id": "imp-PMC3885797-cmu-pradsys-98", 
            "frame-type": "implication", 
            "implication-type": "binds", 
            "object-meta": {
                "object-type": "meta-info", 
                "organization": "CMU"
            }, 
            "object-type": "frame", 
            "sentence": "sent-PMC3885797-cmu-31"
        }, 
        {
            "binds-constituent2": [
                "CTNNBL1"
            ], 
            "binds-site": [
                "the same overall structure of"
            ], 
            "frame-id": "imp-PMC3885797-cmu-pradsys-99", 
            "frame-type": "implication", 
            "implication-type": "binds", 
            "object-meta": {
                "object-type": "meta-info", 
                "organization": "CMU"
            }, 
            "object-type": "frame", 
            "sentence": "sent-PMC3885797-cmu-32"
        }, 
        {
            "binds-constituent2": [
                "CTNNBL1"
            ], 
            "binds-site": [
                "the N-terminal ( 76 ) amino acids in the structure of full length"
            ], 
            "frame-id": "imp-PMC3885797-cmu-pradsys-100", 
            "frame-type": "implication", 
            "implication-type": "binds", 
            "object-meta": {
                "object-type": "meta-info", 
                "organization": "CMU"
            }, 
            "object-type": "frame", 
            "sentence": "sent-PMC3885797-cmu-33"
        }, 
        {
            "binds-constituent1": [
                "CTNNBL1\u039476"
            ], 
            "frame-id": "imp-PMC3885797-cmu-pradsys-101", 
            "frame-type": "implication", 
            "implication-type": "binds", 
            "m-val": [
                "a superhelical coiled coil composed"
            ], 
            "object-meta": {
                "object-type": "meta-info", 
                "organization": "CMU"
            }, 
            "object-type": "frame", 
            "sentence": "sent-PMC3885797-cmu-34"
        }, 
        {
            "binds-site": [
                "the CTD display higher B-factors for solvent-exposed residues , implying greater flexibility ("
            ], 
            "frame-id": "imp-PMC3885797-cmu-pradsys-102", 
            "frame-type": "implication", 
            "implication-type": "binds", 
            "object-meta": {
                "object-type": "meta-info", 
                "organization": "CMU"
            }, 
            "object-type": "frame", 
            "sentence": "sent-PMC3885797-cmu-39"
        }, 
        {
            "binds-constituent1": [
                "CTNNBL1"
            ], 
            "binds-site": [
                "Whilst showing no amino acid sequence"
            ], 
            "frame-id": "imp-PMC3885797-cmu-pradsys-103", 
            "frame-type": "implication", 
            "implication-type": "binds", 
            "object-meta": {
                "object-type": "meta-info", 
                "organization": "CMU"
            }, 
            "object-type": "frame", 
            "sentence": "sent-PMC3885797-cmu-45"
        }, 
        {
            "binds-constituent1": [
                "CTNNBL1"
            ], 
            "binds-site": [
                "the armadillo domain of"
            ], 
            "frame-id": "imp-PMC3885797-cmu-pradsys-104", 
            "frame-type": "implication", 
            "implication-type": "binds", 
            "object-meta": {
                "object-type": "meta-info", 
                "organization": "CMU"
            }, 
            "object-type": "frame", 
            "sentence": "sent-PMC3885797-cmu-46"
        }, 
        {
            "binds-site": [
                "the ARM domain is a region ( PRE-ARM domain )"
            ], 
            "frame-id": "imp-PMC3885797-cmu-pradsys-105", 
            "frame-type": "implication", 
            "implication-type": "binds", 
            "object-meta": {
                "object-type": "meta-info", 
                "organization": "CMU"
            }, 
            "object-type": "frame", 
            "sentence": "sent-PMC3885797-cmu-47"
        }, 
        {
            "binds-controller": [
                "modified armadillo repeat ( with the insertion of an extra C-terminal helix ) and a HEAT-like repeat"
            ], 
            "frame-id": "imp-PMC3885797-cmu-pradsys-106", 
            "frame-type": "implication", 
            "implication-type": "binds", 
            "object-meta": {
                "object-type": "meta-info", 
                "organization": "CMU"
            }, 
            "object-type": "frame", 
            "sentence": "sent-PMC3885797-cmu-49", 
            "transfection-molecule": [
                "the remaining four helices of the PRE-ARM domain ( residues Y134 to E178 )"
            ]
        }, 
        {
            "binds-controller": [
                "HEAT"
            ], 
            "binds-site": [
                "the CTNNBL1\u039476"
            ], 
            "frame-id": "imp-PMC3885797-cmu-pradsys-107", 
            "frame-type": "implication", 
            "implication-type": "binds", 
            "object-meta": {
                "object-type": "meta-info", 
                "organization": "CMU"
            }, 
            "object-type": "frame", 
            "sentence": "sent-PMC3885797-cmu-56"
        }, 
        {
            "binds-site": [
                "Another feature of HEAT repeats"
            ], 
            "frame-id": "imp-PMC3885797-cmu-pradsys-108", 
            "frame-type": "implication", 
            "implication-type": "binds", 
            "object-meta": {
                "object-type": "meta-info", 
                "organization": "CMU"
            }, 
            "object-type": "frame", 
            "sentence": "sent-PMC3885797-cmu-59"
        }, 
        {
            "binds-constituent1": [
                "N96", 
                "S113", 
                "R100"
            ], 
            "frame-id": "imp-PMC3885797-cmu-pradsys-109", 
            "frame-type": "implication", 
            "implication-type": "binds", 
            "object-meta": {
                "object-type": "meta-info", 
                "organization": "CMU"
            }, 
            "object-type": "frame", 
            "sentence": "sent-PMC3885797-cmu-60"
        }, 
        {
            "binds-constituent1": [
                "HEAT"
            ], 
            "binds-constituent2": [
                "CTNNBL1"
            ], 
            "binds-site": [
                "the pre-ARM domain of"
            ], 
            "frame-id": "imp-PMC3885797-cmu-pradsys-110", 
            "frame-type": "implication", 
            "implication-type": "binds", 
            "object-meta": {
                "object-type": "meta-info", 
                "organization": "CMU"
            }, 
            "object-type": "frame", 
            "sentence": "sent-PMC3885797-cmu-61"
        }, 
        {
            "binds-constituent1": [
                "CTNNBL1"
            ], 
            "binds-site": [
                "The HEAT-like region of"
            ], 
            "frame-id": "imp-PMC3885797-cmu-pradsys-111", 
            "frame-type": "implication", 
            "implication-type": "binds", 
            "object-meta": {
                "object-type": "meta-info", 
                "organization": "CMU"
            }, 
            "object-type": "frame", 
            "sentence": "sent-PMC3885797-cmu-62"
        }, 
        {
            "binds-constituent1": [
                "CTNNBL1"
            ], 
            "frame-id": "imp-PMC3885797-cmu-pradsys-112", 
            "frame-type": "implication", 
            "implication-type": "binds", 
            "object-meta": {
                "object-type": "meta-info", 
                "organization": "CMU"
            }, 
            "object-type": "frame", 
            "sentence": "sent-PMC3885797-cmu-63"
        }, 
        {
            "binds-constituent1": [
                "125\u2013179", 
                "CTNNBL1"
            ], 
            "binds-controller": [
                "own"
            ], 
            "binds-site": [
                "to the armadillo domain of"
            ], 
            "frame-id": "imp-PMC3885797-cmu-pradsys-113", 
            "frame-type": "implication", 
            "implication-type": "binds", 
            "object-meta": {
                "object-type": "meta-info", 
                "organization": "CMU"
            }, 
            "object-type": "frame", 
            "sentence": "sent-PMC3885797-cmu-66"
        }, 
        {
            "binds-constituent1": [
                "the CTNNBL1 PRE-ARM domain that"
            ], 
            "frame-id": "imp-PMC3885797-cmu-pradsys-114", 
            "frame-type": "implication", 
            "implication-type": "binds", 
            "object-meta": {
                "object-type": "meta-info", 
                "organization": "CMU"
            }, 
            "object-type": "frame", 
            "sentence": "sent-PMC3885797-cmu-69", 
            "transfection-molecule": [
                "CTNNBL1 ( Fig"
            ]
        }, 
        {
            "frame-id": "imp-PMC3885797-cmu-pradsys-115", 
            "frame-type": "implication", 
            "implication-type": "binds", 
            "object-meta": {
                "object-type": "meta-info", 
                "organization": "CMU"
            }, 
            "object-type": "frame", 
            "sentence": "sent-PMC3885797-cmu-71", 
            "transfection-molecule": [
                "M130", 
                "L136"
            ]
        }, 
        {
            "binds-constituent1": [
                "CTNNBL1"
            ], 
            "binds-site": [
                "The C-terminal domain of"
            ], 
            "frame-id": "imp-PMC3885797-cmu-pradsys-116", 
            "frame-type": "implication", 
            "implication-type": "binds", 
            "object-meta": {
                "object-type": "meta-info", 
                "organization": "CMU"
            }, 
            "object-type": "frame", 
            "sentence": "sent-PMC3885797-cmu-73"
        }, 
        {
            "binds-constituent1": [
                "helix"
            ], 
            "binds-site": [
                "the HEAT/ARM solenoid by a rigid extended 34 aa"
            ], 
            "frame-id": "imp-PMC3885797-cmu-pradsys-117", 
            "frame-type": "implication", 
            "implication-type": "binds", 
            "object-meta": {
                "object-type": "meta-info", 
                "organization": "CMU"
            }, 
            "object-type": "frame", 
            "sentence": "sent-PMC3885797-cmu-74"
        }, 
        {
            "frame-id": "imp-PMC3885797-cmu-pradsys-118", 
            "frame-type": "implication", 
            "implication-type": "binds", 
            "object-meta": {
                "object-type": "meta-info", 
                "organization": "CMU"
            }, 
            "object-type": "frame", 
            "sentence": "sent-PMC3885797-cmu-77", 
            "transfection-molecule": [
                "2", 
                "5"
            ]
        }, 
        {
            "binds-site": [
                "The wider distal part of the coiled-coil"
            ], 
            "frame-id": "imp-PMC3885797-cmu-pradsys-119", 
            "frame-type": "implication", 
            "implication-type": "binds", 
            "object-meta": {
                "object-type": "meta-info", 
                "organization": "CMU"
            }, 
            "object-type": "frame", 
            "sentence": "sent-PMC3885797-cmu-80"
        }, 
        {
            "frame-id": "imp-PMC3885797-cmu-pradsys-120", 
            "frame-type": "implication", 
            "implication-type": "binds", 
            "incubation-reagent": [
                "in fission yeast Schizosaccharomycespombe ( residues D462 , E464 , E465 in S. pombe and D476 , E479"
            ], 
            "object-meta": {
                "object-type": "meta-info", 
                "organization": "CMU"
            }, 
            "object-type": "frame", 
            "sentence": "sent-PMC3885797-cmu-81"
        }, 
        {
            "binds-constituent1": [
                "the CTD form an additional flexible armadillo-like"
            ], 
            "frame-id": "imp-PMC3885797-cmu-pradsys-121", 
            "frame-type": "implication", 
            "implication-type": "binds", 
            "object-meta": {
                "object-type": "meta-info", 
                "organization": "CMU"
            }, 
            "object-type": "frame", 
            "sentence": "sent-PMC3885797-cmu-82"
        }, 
        {
            "binds-constituent2": [
                "CTD"
            ], 
            "frame-id": "imp-PMC3885797-cmu-pradsys-122", 
            "frame-type": "implication", 
            "implication-type": "binds", 
            "object-meta": {
                "object-type": "meta-info", 
                "organization": "CMU"
            }, 
            "object-type": "frame", 
            "sentence": "sent-PMC3885797-cmu-83"
        }, 
        {
            "binds-constituent1": [
                "CTD"
            ], 
            "frame-id": "imp-PMC3885797-cmu-pradsys-123", 
            "frame-type": "implication", 
            "implication-type": "binds", 
            "object-meta": {
                "object-type": "meta-info", 
                "organization": "CMU"
            }, 
            "object-type": "frame", 
            "sentence": "sent-PMC3885797-cmu-85"
        }, 
        {
            "binds-constituent1": [
                "CTNNBL1"
            ], 
            "frame-id": "imp-PMC3885797-cmu-pradsys-124", 
            "frame-type": "implication", 
            "implication-type": "binds", 
            "object-meta": {
                "object-type": "meta-info", 
                "organization": "CMU"
            }, 
            "object-type": "frame", 
            "sentence": "sent-PMC3885797-cmu-86"
        }, 
        {
            "frame-id": "imp-PMC3885797-cmu-pradsys-125", 
            "frame-type": "implication", 
            "implication-type": "binds", 
            "object-meta": {
                "object-type": "meta-info", 
                "organization": "CMU"
            }, 
            "object-type": "frame", 
            "sentence": "sent-PMC3885797-cmu-92", 
            "transfection-molecule": [
                "3"
            ]
        }, 
        {
            "binds-constituent1": [
                "ARM"
            ], 
            "frame-id": "imp-PMC3885797-cmu-pradsys-126", 
            "frame-type": "implication", 
            "implication-type": "binds", 
            "object-meta": {
                "object-type": "meta-info", 
                "organization": "CMU"
            }, 
            "object-type": "frame", 
            "sentence": "sent-PMC3885797-cmu-94"
        }, 
        {
            "binds-controller": [
                "ARM"
            ], 
            "frame-id": "imp-PMC3885797-cmu-pradsys-127", 
            "frame-type": "implication", 
            "implication-type": "binds", 
            "object-meta": {
                "object-type": "meta-info", 
                "organization": "CMU"
            }, 
            "object-type": "frame", 
            "sentence": "sent-PMC3885797-cmu-96"
        }, 
        {
            "binds-site": [
                "the \u03b1L region of the"
            ], 
            "frame-id": "imp-PMC3885797-cmu-pradsys-128", 
            "frame-type": "implication", 
            "implication-type": "binds", 
            "object-meta": {
                "object-type": "meta-info", 
                "organization": "CMU"
            }, 
            "object-type": "frame", 
            "sentence": "sent-PMC3885797-cmu-100", 
            "transfection-molecule": [
                "2"
            ]
        }, 
        {
            "binds-constituent1": [
                "NLS"
            ], 
            "binds-site": [
                "the CTNNBL1 core ARM domain"
            ], 
            "frame-id": "imp-PMC3885797-cmu-pradsys-129", 
            "frame-type": "implication", 
            "implication-type": "binds", 
            "object-meta": {
                "object-type": "meta-info", 
                "organization": "CMU"
            }, 
            "object-type": "frame", 
            "sentence": "sent-PMC3885797-cmu-104"
        }, 
        {
            "binds-site": [
                "The compact core of CTNNBL1 ARM domain"
            ], 
            "frame-id": "imp-PMC3885797-cmu-pradsys-130", 
            "frame-type": "implication", 
            "implication-type": "binds", 
            "object-meta": {
                "object-type": "meta-info", 
                "organization": "CMU"
            }, 
            "object-type": "frame", 
            "sentence": "sent-PMC3885797-cmu-105"
        }, 
        {
            "binds-constituent2": [
                "the monopartite SV40 large T antigen or Myc NLSs"
            ], 
            "frame-id": "imp-PMC3885797-cmu-pradsys-131", 
            "frame-type": "implication", 
            "implication-type": "binds", 
            "object-meta": {
                "object-type": "meta-info", 
                "organization": "CMU"
            }, 
            "object-type": "frame", 
            "sentence": "sent-PMC3885797-cmu-107"
        }, 
        {
            "binds-constituent1": [
                "CTNNBL1"
            ], 
            "frame-id": "imp-PMC3885797-cmu-pradsys-132", 
            "frame-type": "implication", 
            "implication-type": "binds", 
            "incubation-reagent": [
                "the SV40 NLS or to NLS4 of CDC5L ( Fig"
            ], 
            "object-meta": {
                "object-type": "meta-info", 
                "organization": "CMU"
            }, 
            "object-type": "frame", 
            "sentence": "sent-PMC3885797-cmu-108", 
            "transfection-molecule": [
                "Prp31 NLS"
            ]
        }, 
        {
            "binds-constituent2": [
                "CTNNBL1"
            ], 
            "binds-site": [
                "the C-terminal wing-like region of"
            ], 
            "frame-id": "imp-PMC3885797-cmu-pradsys-133", 
            "frame-type": "implication", 
            "implication-type": "binds", 
            "m-val": [
                "did not affect NLS binding"
            ], 
            "object-meta": {
                "object-type": "meta-info", 
                "organization": "CMU"
            }, 
            "object-type": "frame", 
            "sentence": "sent-PMC3885797-cmu-113"
        }, 
        {
            "frame-id": "imp-PMC3885797-cmu-pradsys-134", 
            "frame-type": "implication", 
            "implication-type": "binds", 
            "incubation-reagent": [
                "Circular dichroism ( CD ) spectroscopy"
            ], 
            "object-meta": {
                "object-type": "meta-info", 
                "organization": "CMU"
            }, 
            "object-type": "frame", 
            "sentence": "sent-PMC3885797-cmu-114"
        }, 
        {
            "binds-controller": [
                "NLS recognition groove"
            ], 
            "frame-id": "imp-PMC3885797-cmu-pradsys-135", 
            "frame-type": "implication", 
            "implication-type": "binds", 
            "object-meta": {
                "object-type": "meta-info", 
                "organization": "CMU"
            }, 
            "object-type": "frame", 
            "sentence": "sent-PMC3885797-cmu-115"
        }
    ], 
    "object-meta": {
        "component": "Pradeep-System", 
        "component-type": "machine", 
        "doc-id": "PMC3885797", 
        "object-type": "meta-info", 
        "organization": "CMU"
    }, 
    "object-type": "frame-collection"
}
