{
    "frames": [
        {
            "end-pos": {
                "context-end": "coupling/1", 
                "object-type": "relative-pos", 
                "offset": 90, 
                "reference": "sent-PMC3024879-medscan-6"
            }, 
            "frame-id": "ment-PMC3024879-cmu-junsys-14", 
            "frame-type": "entity-mention", 
            "object-meta": {
                "component": "Jun-System", 
                "object-type": "meta-info", 
                "organization": "CMU"
            }, 
            "object-type": "frame", 
            "sentence": "sent-PMC3024879-medscan-6", 
            "start-pos": {
                "context-start": "coupling/1", 
                "object-type": "relative-pos", 
                "offset": 82, 
                "reference": "sent-PMC3024879-medscan-6"
            }, 
            "text": "coupling", 
            "xrefs": []
        }, 
        {
            "end-pos": {
                "context-end": "signal/1", 
                "object-type": "relative-pos", 
                "offset": 32, 
                "reference": "sent-PMC3024879-medscan-11"
            }, 
            "frame-id": "ment-PMC3024879-cmu-junsys-26", 
            "frame-type": "entity-mention", 
            "object-meta": {
                "component": "Jun-System", 
                "object-type": "meta-info", 
                "organization": "CMU"
            }, 
            "object-type": "frame", 
            "sentence": "sent-PMC3024879-medscan-11", 
            "start-pos": {
                "context-start": "signal/1", 
                "object-type": "relative-pos", 
                "offset": 26, 
                "reference": "sent-PMC3024879-medscan-11"
            }, 
            "text": "signal", 
            "xrefs": []
        }, 
        {
            "end-pos": {
                "context-end": "kinase/1", 
                "object-type": "relative-pos", 
                "offset": 164, 
                "reference": "sent-PMC3024879-medscan-11"
            }, 
            "frame-id": "ment-PMC3024879-cmu-junsys-30", 
            "frame-type": "entity-mention", 
            "object-meta": {
                "component": "Jun-System", 
                "object-type": "meta-info", 
                "organization": "CMU"
            }, 
            "object-type": "frame", 
            "sentence": "sent-PMC3024879-medscan-11", 
            "start-pos": {
                "context-start": "kinase/1", 
                "object-type": "relative-pos", 
                "offset": 158, 
                "reference": "sent-PMC3024879-medscan-11"
            }, 
            "text": "kinase", 
            "xrefs": []
        }, 
        {
            "end-pos": {
                "context-end": "which/1", 
                "object-type": "relative-pos", 
                "offset": 170, 
                "reference": "sent-PMC3024879-medscan-11"
            }, 
            "frame-id": "ment-PMC3024879-cmu-junsys-31", 
            "frame-type": "entity-mention", 
            "object-meta": {
                "component": "Jun-System", 
                "object-type": "meta-info", 
                "organization": "CMU"
            }, 
            "object-type": "frame", 
            "sentence": "sent-PMC3024879-medscan-11", 
            "start-pos": {
                "context-start": "which/1", 
                "object-type": "relative-pos", 
                "offset": 165, 
                "reference": "sent-PMC3024879-medscan-11"
            }, 
            "text": "which", 
            "xrefs": []
        }, 
        {
            "end-pos": {
                "context-end": "lines/1", 
                "object-type": "relative-pos", 
                "offset": 45, 
                "reference": "sent-PMC3024879-medscan-13"
            }, 
            "frame-id": "ment-PMC3024879-cmu-junsys-35", 
            "frame-type": "entity-mention", 
            "object-meta": {
                "component": "Jun-System", 
                "object-type": "meta-info", 
                "organization": "CMU"
            }, 
            "object-type": "frame", 
            "sentence": "sent-PMC3024879-medscan-13", 
            "start-pos": {
                "context-start": "lines/1", 
                "object-type": "relative-pos", 
                "offset": 40, 
                "reference": "sent-PMC3024879-medscan-13"
            }, 
            "text": "lines", 
            "xrefs": []
        }, 
        {
            "end-pos": {
                "context-end": "which/1", 
                "object-type": "relative-pos", 
                "offset": 51, 
                "reference": "sent-PMC3024879-medscan-13"
            }, 
            "frame-id": "ment-PMC3024879-cmu-junsys-36", 
            "frame-type": "entity-mention", 
            "object-meta": {
                "component": "Jun-System", 
                "object-type": "meta-info", 
                "organization": "CMU"
            }, 
            "object-type": "frame", 
            "sentence": "sent-PMC3024879-medscan-13", 
            "start-pos": {
                "context-start": "which/1", 
                "object-type": "relative-pos", 
                "offset": 46, 
                "reference": "sent-PMC3024879-medscan-13"
            }, 
            "text": "which", 
            "xrefs": []
        }, 
        {
            "end-pos": {
                "context-end": "procedures/1", 
                "object-type": "relative-pos", 
                "offset": 173, 
                "reference": "sent-PMC3024879-medscan-14"
            }, 
            "frame-id": "ment-PMC3024879-cmu-junsys-40", 
            "frame-type": "entity-mention", 
            "object-meta": {
                "component": "Jun-System", 
                "object-type": "meta-info", 
                "organization": "CMU"
            }, 
            "object-type": "frame", 
            "sentence": "sent-PMC3024879-medscan-14", 
            "start-pos": {
                "context-start": "procedures/1", 
                "object-type": "relative-pos", 
                "offset": 163, 
                "reference": "sent-PMC3024879-medscan-14"
            }, 
            "text": "procedures", 
            "xrefs": []
        }, 
        {
            "end-pos": {
                "context-end": "which/1", 
                "object-type": "relative-pos", 
                "offset": 180, 
                "reference": "sent-PMC3024879-medscan-14"
            }, 
            "frame-id": "ment-PMC3024879-cmu-junsys-41", 
            "frame-type": "entity-mention", 
            "object-meta": {
                "component": "Jun-System", 
                "object-type": "meta-info", 
                "organization": "CMU"
            }, 
            "object-type": "frame", 
            "sentence": "sent-PMC3024879-medscan-14", 
            "start-pos": {
                "context-start": "which/1", 
                "object-type": "relative-pos", 
                "offset": 175, 
                "reference": "sent-PMC3024879-medscan-14"
            }, 
            "text": "which", 
            "xrefs": []
        }, 
        {
            "end-pos": {
                "context-end": "which/1", 
                "object-type": "relative-pos", 
                "offset": 67, 
                "reference": "sent-PMC3024879-medscan-21"
            }, 
            "frame-id": "ment-PMC3024879-cmu-junsys-55", 
            "frame-type": "entity-mention", 
            "object-meta": {
                "component": "Jun-System", 
                "object-type": "meta-info", 
                "organization": "CMU"
            }, 
            "object-type": "frame", 
            "sentence": "sent-PMC3024879-medscan-21", 
            "start-pos": {
                "context-start": "which/1", 
                "object-type": "relative-pos", 
                "offset": 62, 
                "reference": "sent-PMC3024879-medscan-21"
            }, 
            "text": "which", 
            "xrefs": []
        }, 
        {
            "end-pos": {
                "context-end": "conditions/1", 
                "object-type": "relative-pos", 
                "offset": 108, 
                "reference": "sent-PMC3024879-medscan-21"
            }, 
            "frame-id": "ment-PMC3024879-cmu-junsys-56", 
            "frame-type": "entity-mention", 
            "object-meta": {
                "component": "Jun-System", 
                "object-type": "meta-info", 
                "organization": "CMU"
            }, 
            "object-type": "frame", 
            "sentence": "sent-PMC3024879-medscan-21", 
            "start-pos": {
                "context-start": "conditions/1", 
                "object-type": "relative-pos", 
                "offset": 98, 
                "reference": "sent-PMC3024879-medscan-21"
            }, 
            "text": "conditions", 
            "xrefs": []
        }, 
        {
            "end-pos": {
                "context-end": "which/1", 
                "object-type": "relative-pos", 
                "offset": 67, 
                "reference": "sent-PMC3024879-medscan-21"
            }, 
            "frame-id": "ment-PMC3024879-cmu-junsys-57", 
            "frame-type": "entity-mention", 
            "object-meta": {
                "component": "Jun-System", 
                "object-type": "meta-info", 
                "organization": "CMU"
            }, 
            "object-type": "frame", 
            "sentence": "sent-PMC3024879-medscan-21", 
            "start-pos": {
                "context-start": "which/1", 
                "object-type": "relative-pos", 
                "offset": 62, 
                "reference": "sent-PMC3024879-medscan-21"
            }, 
            "text": "which", 
            "xrefs": []
        }, 
        {
            "end-pos": {
                "context-end": "which/1", 
                "object-type": "relative-pos", 
                "offset": 100, 
                "reference": "sent-PMC3024879-medscan-25"
            }, 
            "frame-id": "ment-PMC3024879-cmu-junsys-65", 
            "frame-type": "entity-mention", 
            "object-meta": {
                "component": "Jun-System", 
                "object-type": "meta-info", 
                "organization": "CMU"
            }, 
            "object-type": "frame", 
            "sentence": "sent-PMC3024879-medscan-25", 
            "start-pos": {
                "context-start": "which/1", 
                "object-type": "relative-pos", 
                "offset": 95, 
                "reference": "sent-PMC3024879-medscan-25"
            }, 
            "text": "which", 
            "xrefs": []
        }, 
        {
            "end-pos": {
                "context-end": "conditions/1", 
                "object-type": "relative-pos", 
                "offset": 27, 
                "reference": "sent-PMC3024879-medscan-33"
            }, 
            "frame-id": "ment-PMC3024879-cmu-junsys-79", 
            "frame-type": "entity-mention", 
            "object-meta": {
                "component": "Jun-System", 
                "object-type": "meta-info", 
                "organization": "CMU"
            }, 
            "object-type": "frame", 
            "sentence": "sent-PMC3024879-medscan-33", 
            "start-pos": {
                "context-start": "conditions/1", 
                "object-type": "relative-pos", 
                "offset": 17, 
                "reference": "sent-PMC3024879-medscan-33"
            }, 
            "text": "conditions", 
            "xrefs": []
        }, 
        {
            "end-pos": {
                "context-end": "which/1", 
                "object-type": "relative-pos", 
                "offset": 39, 
                "reference": "sent-PMC3024879-medscan-33"
            }, 
            "frame-id": "ment-PMC3024879-cmu-junsys-80", 
            "frame-type": "entity-mention", 
            "object-meta": {
                "component": "Jun-System", 
                "object-type": "meta-info", 
                "organization": "CMU"
            }, 
            "object-type": "frame", 
            "sentence": "sent-PMC3024879-medscan-33", 
            "start-pos": {
                "context-start": "which/1", 
                "object-type": "relative-pos", 
                "offset": 34, 
                "reference": "sent-PMC3024879-medscan-33"
            }, 
            "text": "which", 
            "xrefs": []
        }, 
        {
            "end-pos": {
                "context-end": "pathways/1", 
                "object-type": "relative-pos", 
                "offset": 294, 
                "reference": "sent-PMC3024879-medscan-37"
            }, 
            "frame-id": "ment-PMC3024879-cmu-junsys-88", 
            "frame-type": "entity-mention", 
            "object-meta": {
                "component": "Jun-System", 
                "object-type": "meta-info", 
                "organization": "CMU"
            }, 
            "object-type": "frame", 
            "sentence": "sent-PMC3024879-medscan-37", 
            "start-pos": {
                "context-start": "pathways/1", 
                "object-type": "relative-pos", 
                "offset": 286, 
                "reference": "sent-PMC3024879-medscan-37"
            }, 
            "text": "pathways", 
            "xrefs": []
        }, 
        {
            "end-pos": {
                "context-end": "which/1", 
                "object-type": "relative-pos", 
                "offset": 300, 
                "reference": "sent-PMC3024879-medscan-37"
            }, 
            "frame-id": "ment-PMC3024879-cmu-junsys-89", 
            "frame-type": "entity-mention", 
            "object-meta": {
                "component": "Jun-System", 
                "object-type": "meta-info", 
                "organization": "CMU"
            }, 
            "object-type": "frame", 
            "sentence": "sent-PMC3024879-medscan-37", 
            "start-pos": {
                "context-start": "which/1", 
                "object-type": "relative-pos", 
                "offset": 295, 
                "reference": "sent-PMC3024879-medscan-37"
            }, 
            "text": "which", 
            "xrefs": []
        }, 
        {
            "end-pos": {
                "context-end": "which/1", 
                "object-type": "relative-pos", 
                "offset": 176, 
                "reference": "sent-PMC3024879-medscan-38"
            }, 
            "frame-id": "ment-PMC3024879-cmu-junsys-94", 
            "frame-type": "entity-mention", 
            "object-meta": {
                "component": "Jun-System", 
                "object-type": "meta-info", 
                "organization": "CMU"
            }, 
            "object-type": "frame", 
            "sentence": "sent-PMC3024879-medscan-38", 
            "start-pos": {
                "context-start": "which/1", 
                "object-type": "relative-pos", 
                "offset": 171, 
                "reference": "sent-PMC3024879-medscan-38"
            }, 
            "text": "which", 
            "xrefs": []
        }, 
        {
            "end-pos": {
                "context-end": "proliferation/1", 
                "object-type": "relative-pos", 
                "offset": 266, 
                "reference": "sent-PMC3024879-medscan-38"
            }, 
            "frame-id": "ment-PMC3024879-cmu-junsys-96", 
            "frame-type": "entity-mention", 
            "object-meta": {
                "component": "Jun-System", 
                "object-type": "meta-info", 
                "organization": "CMU"
            }, 
            "object-type": "frame", 
            "sentence": "sent-PMC3024879-medscan-38", 
            "start-pos": {
                "context-start": "proliferation/1", 
                "object-type": "relative-pos", 
                "offset": 253, 
                "reference": "sent-PMC3024879-medscan-38"
            }, 
            "text": "proliferation", 
            "xrefs": []
        }, 
        {
            "end-pos": {
                "context-end": "Proteins/1", 
                "object-type": "relative-pos", 
                "offset": 8, 
                "reference": "sent-PMC3024879-medscan-62"
            }, 
            "frame-id": "ment-PMC3024879-cmu-junsys-135", 
            "frame-type": "entity-mention", 
            "object-meta": {
                "component": "Jun-System", 
                "object-type": "meta-info", 
                "organization": "CMU"
            }, 
            "object-type": "frame", 
            "sentence": "sent-PMC3024879-medscan-62", 
            "start-pos": {
                "context-start": "Proteins/1", 
                "object-type": "relative-pos", 
                "offset": 0, 
                "reference": "sent-PMC3024879-medscan-62"
            }, 
            "text": "Proteins", 
            "xrefs": []
        }, 
        {
            "arguments": [
                {
                    "arg": "ment-PMC3024879-cmu-medscan-0", 
                    "object-type": "argument", 
                    "type": "arg1"
                }
            ], 
            "context": "apoptosis regulation", 
            "end-pos": {
                "context-end": "regulation/1", 
                "object-type": "relative-pos", 
                "offset": 197, 
                "reference": "sent-PMC3024879-medscan-0"
            }, 
            "frame-id": "eve-PMC3024879-cmu-junsys-137", 
            "frame-type": "event-mention", 
            "object-meta": {
                "component": "Jun-System", 
                "object-type": "meta-info", 
                "organization": "CMU"
            }, 
            "object-type": "frame", 
            "sentence": "sent-PMC3024879-medscan-0", 
            "start-pos": {
                "context-start": "regulation/1", 
                "object-type": "relative-pos", 
                "offset": 187, 
                "reference": "sent-PMC3024879-medscan-0"
            }, 
            "text": "regulation", 
            "type": "regulate"
        }, 
        {
            "arguments": [
                {
                    "arg": "ment-PMC3024879-cmu-junsys-14", 
                    "object-type": "argument", 
                    "type": "arg1"
                }
            ], 
            "context": "coupling ephrin A activation", 
            "end-pos": {
                "context-end": "activation/1", 
                "object-type": "relative-pos", 
                "offset": 110, 
                "reference": "sent-PMC3024879-medscan-6"
            }, 
            "frame-id": "eve-PMC3024879-cmu-junsys-138", 
            "frame-type": "event-mention", 
            "object-meta": {
                "component": "Jun-System", 
                "object-type": "meta-info", 
                "organization": "CMU"
            }, 
            "object-type": "frame", 
            "sentence": "sent-PMC3024879-medscan-6", 
            "start-pos": {
                "context-start": "activation/1", 
                "object-type": "relative-pos", 
                "offset": 100, 
                "reference": "sent-PMC3024879-medscan-6"
            }, 
            "text": "activation", 
            "type": "activate"
        }, 
        {
            "arguments": [
                {
                    "arg": "ment-PMC3024879-cmu-junsys-26", 
                    "object-type": "argument", 
                    "type": "arg1"
                }
            ], 
            "context": "signal transduction activation", 
            "end-pos": {
                "context-end": "activation/1", 
                "object-type": "relative-pos", 
                "offset": 56, 
                "reference": "sent-PMC3024879-medscan-11"
            }, 
            "frame-id": "eve-PMC3024879-cmu-junsys-139", 
            "frame-type": "event-mention", 
            "object-meta": {
                "component": "Jun-System", 
                "object-type": "meta-info", 
                "organization": "CMU"
            }, 
            "object-type": "frame", 
            "sentence": "sent-PMC3024879-medscan-11", 
            "start-pos": {
                "context-start": "activation/1", 
                "object-type": "relative-pos", 
                "offset": 46, 
                "reference": "sent-PMC3024879-medscan-11"
            }, 
            "text": "activation", 
            "type": "activate"
        }, 
        {
            "arguments": [
                {
                    "arg": "ment-PMC3024879-cmu-junsys-30", 
                    "object-type": "argument", 
                    "type": "arg1"
                }
            ], 
            "context": "phosphorylation of Fyn kinase", 
            "end-pos": {
                "context-end": "phosphorylation/2", 
                "object-type": "relative-pos", 
                "offset": 150, 
                "reference": "sent-PMC3024879-medscan-11"
            }, 
            "frame-id": "eve-PMC3024879-cmu-junsys-140", 
            "frame-type": "event-mention", 
            "object-meta": {
                "component": "Jun-System", 
                "object-type": "meta-info", 
                "organization": "CMU"
            }, 
            "object-type": "frame", 
            "sentence": "sent-PMC3024879-medscan-11", 
            "start-pos": {
                "context-start": "phosphorylation/2", 
                "object-type": "relative-pos", 
                "offset": 135, 
                "reference": "sent-PMC3024879-medscan-11"
            }, 
            "text": "phosphorylation", 
            "type": "phosphorylation"
        }, 
        {
            "arguments": [
                {
                    "arg": "ment-PMC3024879-cmu-junsys-96", 
                    "object-type": "argument", 
                    "type": "arg1"
                }
            ], 
            "context": "regulation of cell proliferation", 
            "end-pos": {
                "context-end": "regulation/1", 
                "object-type": "relative-pos", 
                "offset": 244, 
                "reference": "sent-PMC3024879-medscan-38"
            }, 
            "frame-id": "eve-PMC3024879-cmu-junsys-141", 
            "frame-type": "event-mention", 
            "object-meta": {
                "component": "Jun-System", 
                "object-type": "meta-info", 
                "organization": "CMU"
            }, 
            "object-type": "frame", 
            "sentence": "sent-PMC3024879-medscan-38", 
            "start-pos": {
                "context-start": "regulation/1", 
                "object-type": "relative-pos", 
                "offset": 234, 
                "reference": "sent-PMC3024879-medscan-38"
            }, 
            "text": "regulation", 
            "type": "regulate"
        }, 
        {
            "arguments": [
                {
                    "arg": "ment-PMC3024879-cmu-junsys-135", 
                    "object-type": "argument", 
                    "type": "arg0"
                }
            ], 
            "context": "Proteins bound", 
            "end-pos": {
                "context-end": "bound/1", 
                "object-type": "relative-pos", 
                "offset": 14, 
                "reference": "sent-PMC3024879-medscan-62"
            }, 
            "frame-id": "eve-PMC3024879-cmu-junsys-142", 
            "frame-type": "event-mention", 
            "object-meta": {
                "component": "Jun-System", 
                "object-type": "meta-info", 
                "organization": "CMU"
            }, 
            "object-type": "frame", 
            "sentence": "sent-PMC3024879-medscan-62", 
            "start-pos": {
                "context-start": "bound/1", 
                "object-type": "relative-pos", 
                "offset": 9, 
                "reference": "sent-PMC3024879-medscan-62"
            }, 
            "text": "bound", 
            "type": "bind"
        }, 
        {
            "frame-id": "ent-PMC3024879-cmu-junsys-144", 
            "frame-type": "entity", 
            "members": [
                "ment-PMC3024879-cmu-medscan-29", 
                "ment-PMC3024879-cmu-junsys-31"
            ], 
            "object-meta": {
                "component": "Jun-System", 
                "object-type": "meta-info", 
                "organization": "CMU"
            }, 
            "object-type": "frame"
        }, 
        {
            "frame-id": "ent-PMC3024879-cmu-junsys-145", 
            "frame-type": "entity", 
            "members": [
                "ment-PMC3024879-cmu-junsys-35", 
                "ment-PMC3024879-cmu-junsys-36"
            ], 
            "object-meta": {
                "component": "Jun-System", 
                "object-type": "meta-info", 
                "organization": "CMU"
            }, 
            "object-type": "frame"
        }, 
        {
            "frame-id": "ent-PMC3024879-cmu-junsys-146", 
            "frame-type": "entity", 
            "members": [
                "ment-PMC3024879-cmu-junsys-40", 
                "ment-PMC3024879-cmu-junsys-41"
            ], 
            "object-meta": {
                "component": "Jun-System", 
                "object-type": "meta-info", 
                "organization": "CMU"
            }, 
            "object-type": "frame"
        }, 
        {
            "frame-id": "ent-PMC3024879-cmu-junsys-147", 
            "frame-type": "entity", 
            "members": [
                "ment-PMC3024879-cmu-medscan-54", 
                "ment-PMC3024879-cmu-junsys-55"
            ], 
            "object-meta": {
                "component": "Jun-System", 
                "object-type": "meta-info", 
                "organization": "CMU"
            }, 
            "object-type": "frame"
        }, 
        {
            "frame-id": "ent-PMC3024879-cmu-junsys-148", 
            "frame-type": "entity", 
            "members": [
                "ment-PMC3024879-cmu-junsys-56", 
                "ment-PMC3024879-cmu-junsys-57"
            ], 
            "object-meta": {
                "component": "Jun-System", 
                "object-type": "meta-info", 
                "organization": "CMU"
            }, 
            "object-type": "frame"
        }, 
        {
            "frame-id": "ent-PMC3024879-cmu-junsys-149", 
            "frame-type": "entity", 
            "members": [
                "ment-PMC3024879-cmu-medscan-64", 
                "ment-PMC3024879-cmu-junsys-65"
            ], 
            "object-meta": {
                "component": "Jun-System", 
                "object-type": "meta-info", 
                "organization": "CMU"
            }, 
            "object-type": "frame"
        }, 
        {
            "frame-id": "ent-PMC3024879-cmu-junsys-150", 
            "frame-type": "entity", 
            "members": [
                "ment-PMC3024879-cmu-junsys-79", 
                "ment-PMC3024879-cmu-junsys-80"
            ], 
            "object-meta": {
                "component": "Jun-System", 
                "object-type": "meta-info", 
                "organization": "CMU"
            }, 
            "object-type": "frame"
        }, 
        {
            "frame-id": "ent-PMC3024879-cmu-junsys-151", 
            "frame-type": "entity", 
            "members": [
                "ment-PMC3024879-cmu-junsys-88", 
                "ment-PMC3024879-cmu-junsys-89"
            ], 
            "object-meta": {
                "component": "Jun-System", 
                "object-type": "meta-info", 
                "organization": "CMU"
            }, 
            "object-type": "frame"
        }, 
        {
            "frame-id": "ent-PMC3024879-cmu-junsys-152", 
            "frame-type": "entity", 
            "members": [
                "ment-PMC3024879-cmu-medscan-93", 
                "ment-PMC3024879-cmu-junsys-94"
            ], 
            "object-meta": {
                "component": "Jun-System", 
                "object-type": "meta-info", 
                "organization": "CMU"
            }, 
            "object-type": "frame"
        }
    ], 
    "object-meta": {
        "component": "Jun-System", 
        "component-type": "machine", 
        "doc-id": "PMC3024879", 
        "object-type": "meta-info", 
        "organization": "CMU"
    }, 
    "object-type": "frame-collection"
}
