{
  "evidence": ["superoxide dismutase 2 expression is upregulated following Libby six-mix and crocidolite","The fact that superoxide dismutase 2 expression is upregulated following Libby six-mix and crocidolite or chrysotile asbestos exposures [ , ], likely represents activation of a defense mechanism to counteract oxidative stress induced by these fibers, specifically through the dismutation of O2\\u2022- to H2O2."],
  "extracted_information": {
    "interaction_type": "increases_activity",
    "negative_information": false,
    "participant_a": {
      "entity_text": "crocidolite",
      "entity_type": "chemical",
      "identifier": "CHEBI:46666",
      "in_model": false
    },
    "participant_b": {
      "entity_text": "superoxide dismutase 2",
      "entity_type": "protein",
      "identifier": "Uniprot:F5GYZ5",
      "in_model": true
    }
  },
  "fries_provenance": [
    {
      "component": "MedScan",
      "frame-file": "PMC2945990.cmu.medscan",
      "frame-id": "relm-PMC2945990-cmu-medscan-355",
      "sentence": "The fact that superoxide dismutase 2 expression is upregulated following Libby six-mix and crocidolite or chrysotile asbestos exposures [ , ], likely represents activation of a defense mechanism to counteract oxidative stress induced by these fibers, specifically through the dismutation of O2\\u2022- to H2O2.",
      "text": "superoxide dismutase 2 expression is upregulated following Libby six-mix and crocidolite"
    }
  ],
  "model_relation": "extension",
  "pmc_id": "PMC2945990",
  "reader_type": "machine",
  "reading_complete": "2015-06-15T21:31:10Z",
  "reading_started": "2015-06-15T21:31:05Z",
  "submitter": "FRIES"
}
