{
  "evidence": ["\\u03b1v\\u03b23 antagonists, LM609 or RGDfV, can block the late-acting and sustained ERK","\\u03b1v\\u03b23 ligation on the surface of angiogenic vascular cells promotes a late-acting sustained ERK","\\u03b1v\\u03b23 ligation selectively influences the late/sustained ERK","Expression of integrin \\u03b1v\\u03b23 is increased on endothelial cells after exposure to bFGF in vitro ( ; ; ) and angiogenic blood vessels in vivo ( ,b, 1995).","Thus, a simple increase in \\u03b1v\\u03b23 expression on vascular cells could account for this late/sustained ERK signal.","To evaluate the specificity of \\u03b1v\\u03b23 in the activation of ERK in these tissues, chorioallantoic membranes exposed to bFGF for either 2 or 20 h were treated with function-blocking monoclonal antibodies to either \\u03b1v\\u03b23 (LM609) or chick integrin \\u03b21 (CSAT; ). 2 h after exposure of cells to bFGF, neither integrin antibody impacted the ERK phosphorylation in these tissues (Fig. C) as measured by immunoprecipitation of ERK followed by immunoblotting with an antiphosphotyrosine antibody."],
  "extracted_information": {
    "interaction_type": "increases",
    "negative_information": false,
    "participant_a": {
      "entity_text": "\\u03b1v\\u03b23",
      "entity_type": "complex",
      "identifier": "GO:0034683",
      "in_model": false
    },
    "participant_b": {
      "entity_text": "ERK",
      "entity_type": "protein_family",
      "identifier": "Uniprot:P29323",
      "in_model": true
    }
  },
  "fries_provenance": [
    {
      "cmu-sentence-epistemic-status": "implication",
      "cmu-sentence-epistemic-value": 0.6,
      "component": "MedScan",
      "frame-file": "PMC2132684.cmu.medscan",
      "frame-id": "relm-PMC2132684-cmu-medscan-538",
      "passage-id": "pass-PMC2132684-UAZ-r1-49",
      "passage-number": 49,
      "passage-section-id": "N/A",
      "passage-section-name": "N/A",
      "sentence": "To evaluate the specificity of \\u03b1v\\u03b23 in the activation of ERK in these tissues, chorioallantoic membranes exposed to bFGF for either 2 or 20 h were treated with function-blocking monoclonal antibodies to either \\u03b1v\\u03b23 (LM609) or chick integrin \\u03b21 (CSAT; ). 2 h after exposure of cells to bFGF, neither integrin antibody impacted the ERK phosphorylation in these tissues (Fig. C) as measured by immunoprecipitation of ERK followed by immunoblotting with an antiphosphotyrosine antibody.",
      "text": "\\u03b1v\\u03b23 ligation selectively influences the late/sustained ERK",
      "uaz-sentence": "To evaluate the specificity of alphavbeta3 in the activation of ERK in these tissues , CAMs exposed to bFGF for either 2 or 20 h were treated with function blocking monoclonal antibodies to either alphavbeta3 ( LM609 ) or chick integrin beta1 ( CSAT ;                   .",
      "uaz-sentence-start": 0
    },
    {
      "cmu-sentence-epistemic-status": "implication",
      "cmu-sentence-epistemic-value": 0.6,
      "component": "MedScan",
      "frame-file": "PMC2132684.cmu.medscan",
      "frame-id": "relm-PMC2132684-cmu-medscan-542",
      "passage-id": "pass-PMC2132684-UAZ-r1-52",
      "passage-number": 52,
      "passage-section-id": "N/A",
      "passage-section-name": "N/A",
      "sentence": "Thus, a simple increase in \\u03b1v\\u03b23 expression on vascular cells could account for this late/sustained ERK signal.",
      "text": "\\u03b1v\\u03b23 antagonists, LM609 or RGDfV, can block the late-acting and sustained ERK",
      "uaz-sentence": "Thus , a simple increase in alphavbeta3 expression on vascular cells could account for this late and sustained ERK signal .",
      "uaz-sentence-start": 428
    },
    {
      "cmu-sentence-epistemic-status": "implication",
      "cmu-sentence-epistemic-value": 0.6,
      "component": "MedScan",
      "frame-file": "PMC2132684.cmu.medscan",
      "frame-id": "relm-PMC2132684-cmu-medscan-554",
      "passage-id": "pass-PMC2132684-UAZ-r1-62",
      "passage-number": 62,
      "passage-section-id": "Discussion",
      "passage-section-name": "N/A",
      "sentence": "Expression of integrin \\u03b1v\\u03b23 is increased on endothelial cells after exposure to bFGF in vitro ( ; ; ) and angiogenic blood vessels in vivo ( ,b, 1995).",
      "text": "\\u03b1v\\u03b23 ligation on the surface of angiogenic vascular cells promotes a late-acting sustained ERK",
      "uaz-sentence": "Expression of integrin alphavbeta3 is increased on endothelial cells after exposure to bFGF in vitro                                                                      and angiogenic blood vessels in vivo                               .",
      "uaz-sentence-start": 0
    }
  ],
  "model_relation": "extension",
  "pmc_id": "PMC2132684",
  "reader_type": "machine",
  "reading_complete": "2015-06-15T19:18:43Z",
  "reading_started": "2015-06-15T19:18:38Z",
  "submitter": "FRIES"
}
