{
  "evidence": ["( A ) Effect of increasing concentrations of the EGFR inhibitor erlotinib ( 0-10 muM ) on the viability of IL-3 independent Ba and F3 subclones expressing EGFR ectodomain mutants ( R108K , T263P , A289V , G598V , and EGFRvIII ) , the EGFR kinase domain mutants ( L858R and L861Q ) , or the erlotinib resistant EGFR double mutant L858R T790M ( LTM ) .","EGFR inhibitor erlotinib"],
  "extracted_information": {
    "interaction_type": "decreases_activity",
    "negative_information": false,
    "participant_a": {
      "features": [
        {
          "feature_type": "mutation",
          "from_base": "R",
          "site": 108,
          "to_base": "K"
        }
      ],
      "entity_text": "erlotinib",
      "entity_type": "chemical",
      "identifier": "CHEBI:114785",
      "in_model": false
    },
    "participant_b": {
      "entity_text": "EGFR",
      "entity_type": "protein",
      "identifier": "Uniprot:P00533",
      "in_model": true
    }
  },
  "fries_provenance": [
    {
      "component": "REACH",
      "frame-file": "PMC1702556.uaz.events",
      "frame-id": "evem-PMC1702556-UAZ-r1-248-0-13",
      "passage-id": "pass-PMC1702556-UAZ-r1-248",
      "passage-number": 248,
      "passage-section-id": "fig-4",
      "passage-section-name": "fig-4",
      "sentence": "( A ) Effect of increasing concentrations of the EGFR inhibitor erlotinib ( 0-10 muM ) on the viability of IL-3 independent Ba and F3 subclones expressing EGFR ectodomain mutants ( R108K , T263P , A289V , G598V , and EGFRvIII ) , the EGFR kinase domain mutants ( L858R and L861Q ) , or the erlotinib resistant EGFR double mutant L858R T790M ( LTM ) .",
      "text": "EGFR inhibitor erlotinib",
      "uaz-sentence": "( A ) Effect of increasing concentrations of the EGFR inhibitor erlotinib ( 0-10 muM ) on the viability of IL-3 independent Ba and F3 subclones expressing EGFR ectodomain mutants ( R108K , T263P , A289V , G598V , and EGFRvIII ) , the EGFR kinase domain mutants ( L858R and L861Q ) , or the erlotinib resistant EGFR double mutant L858R T790M ( LTM ) .",
      "uaz-sentence-start": 0
    }
  ],
  "model_relation": "extension",
  "pmc_id": "PMC1702556",
  "reader_type": "machine",
  "reading_complete": "2015-06-15T18:56:46Z",
  "reading_started": "2015-06-15T18:56:41Z",
  "submitter": "FRIES"
}
