{
  "evidence": ["A combination of MG132 and trichostatin A dramatically reduced androgen receptor ubiquitylation to near basal levels ( , compare lanes 1 and 3), indicating that deacetylase activity is important for androgen receptor ubiquitylation in vivo.","trichostatin A dramatically reduced androgen receptor"],
  "extracted_information": {
    "interaction_type": "decreases",
    "negative_information": false,
    "participant_a": {
      "entity_text": "trichostatin A",
      "entity_type": "chemical",
      "identifier": "PubChem:444732",
      "in_model": false
    },
    "participant_b": {
      "entity_text": "androgen receptor",
      "entity_type": "protein",
      "identifier": "Uniprot:P10275",
      "in_model": true
    }
  },
  "fries_provenance": [
    {
      "cmu-sentence-epistemic-status": "implication",
      "cmu-sentence-epistemic-value": 0.6,
      "component": "MedScan",
      "frame-file": "PMC546130.cmu.medscan",
      "frame-id": "relm-PMC546130-cmu-medscan-818",
      "passage-id": "pass-PMC546130-UAZ-r1-58",
      "passage-number": 58,
      "passage-section-id": "N/A",
      "passage-section-name": "N/A",
      "sentence": "A combination of MG132 and trichostatin A dramatically reduced androgen receptor ubiquitylation to near basal levels ( , compare lanes 1 and 3), indicating that deacetylase activity is important for androgen receptor ubiquitylation in vivo.",
      "text": "trichostatin A dramatically reduced androgen receptor",
      "uaz-sentence": "A combination of MG132 and TSA dramatically reduced AR ubiquitylation to near basal levels                                   , indicating that deacetylase activity is important for AR ubiquitylation in vivo .",
      "uaz-sentence-start": 803
    }
  ],
  "model_relation": "extension",
  "pmc_id": "PMC546130",
  "reader_type": "machine",
  "reading_complete": "2015-06-16T00:02:34Z",
  "reading_started": "2015-06-16T00:02:29Z",
  "submitter": "FRIES"
}
