{
  "evidence": ["JNK1 or JNK2 totally blocks arsenite-induced DNA fragmentation, caspase-3","Our further studies show that the coordination of JNK1 and JNK2 is required for the apoptotic responses caused by arsenite in MEFs because knockout of either JNK1 or JNK2 totally blocks arsenite induced DNA fragmentation , caspase-3 activation and PARP cleavage     , and such arsenite induced cell apoptosis is mediated through IKK/p50/GADD45alpha / MKK4 and JNK axis     ."],
  "extracted_information": {
    "interaction_type": "decreases_activity",
    "negative_information": false,
    "participant_a": {
      "entity_text": "JNK1",
      "entity_type": "protein",
      "identifier": "Uniprot:P45983",
      "in_model": true
    },
    "participant_b": {
      "entity_text": "caspase-3",
      "entity_type": "protein",
      "identifier": "Uniprot:P42574",
      "in_model": false
    }
  },
  "fries_provenance": [
    {
      "cmu-sentence-epistemic-status": "belief",
      "cmu-sentence-epistemic-value": 0.9,
      "component": "REACH",
      "frame-file": "PMC3594291.uaz.events",
      "frame-id": "evem-PMC3594291-UAZ-r1-69-4-100",
      "passage-id": "pass-PMC3594291-UAZ-r1-69",
      "passage-number": 69,
      "passage-section-id": "s4",
      "passage-section-name": "N/A",
      "sentence": "Our further studies show that the coordination of JNK1 and JNK2 is required for the apoptotic responses caused by arsenite in MEFs because knockout of either JNK1 or JNK2 totally blocks arsenite induced DNA fragmentation , caspase-3 activation and PARP cleavage     , and such arsenite induced cell apoptosis is mediated through IKK/p50/GADD45alpha / MKK4 and JNK axis     .",
      "text": "JNK1 or JNK2 totally blocks arsenite-induced DNA fragmentation, caspase-3",
      "uaz-sentence": "Our further studies show that the coordination of JNK1 and JNK2 is required for the apoptotic responses caused by arsenite in MEFs because knockout of either JNK1 or JNK2 totally blocks arsenite induced DNA fragmentation , caspase-3 activation and PARP cleavage     , and such arsenite induced cell apoptosis is mediated through IKK/p50/GADD45alpha / MKK4 and JNK axis     .",
      "uaz-sentence-start": 636
    }
  ],
  "model_relation": "extension",
  "pmc_id": "PMC3594291",
  "reader_type": "machine",
  "reading_complete": "2015-06-15T23:15:34Z",
  "reading_started": "2015-06-15T23:15:29Z",
  "submitter": "FRIES"
}
