{
  "evidence": ["estrogen receptor\\u03b1 binding , which is also required for TIP60","estrogen receptor\\u03b1 may facilitate TIP60 occupancy, especially since TIP60","Next we explored the role of TIP60 acetyltransferase activity in transcriptional activation by estrogen receptor\\u03b1.","The correlation between estrogen receptor\\u03b1 and TIP60 occupancy on estrogen receptor\\u03b1 target genes suggested that estrogen receptor\\u03b1 may facilitate TIP60 occupancy, especially since TIP60 contains a C-terminal NR box motif (LXXLL, where L is leucine and X is any amino acid) required for TIP60 binding to androgen receptor and enhancement of steroid hormone-stimulated expression of transient reporter genes ."],
  "extracted_information": {
    "interaction_type": "increases",
    "negative_information": false,
    "participant_a": {
      "entity_text": "estrogen receptor\\u03b1",
      "entity_type": "protein",
      "identifier": "Uniprot:F6SD09",
      "in_model": true
    },
    "participant_b": {
      "entity_text": "TIP60",
      "entity_type": "protein",
      "identifier": "Uniprot:Q92993",
      "in_model": false
    }
  },
  "fries_provenance": [
    {
      "cmu-sentence-epistemic-status": "implication",
      "cmu-sentence-epistemic-value": 0.6,
      "component": "MedScan",
      "frame-file": "PMC3230772.cmu.medscan",
      "frame-id": "relm-PMC3230772-cmu-medscan-499",
      "passage-id": "pass-PMC3230772-UAZ-r1-18",
      "passage-number": 18,
      "passage-section-id": "S5",
      "passage-section-name": "N/A",
      "sentence": "The correlation between estrogen receptor\\u03b1 and TIP60 occupancy on estrogen receptor\\u03b1 target genes suggested that estrogen receptor\\u03b1 may facilitate TIP60 occupancy, especially since TIP60 contains a C-terminal NR box motif (LXXLL, where L is leucine and X is any amino acid) required for TIP60 binding to androgen receptor and enhancement of steroid hormone-stimulated expression of transient reporter genes .",
      "text": "estrogen receptor\\u03b1 may facilitate TIP60 occupancy, especially since TIP60",
      "uaz-sentence": "The correlation between ERalpha and TIP60 occupancy on ERalpha target genes suggested that ERalpha may facilitate TIP60 occupancy , especially since TIP60 contains a C-terminal NR box motif ( LXXLL , where L is leucine and X is any amino acid ) required for TIP60 binding to androgen receptor and enhancement of steroid hormone stimulated expression of transient reporter genes  .",
      "uaz-sentence-start": 0
    },
    {
      "cmu-sentence-epistemic-status": "implication",
      "cmu-sentence-epistemic-value": 0.6,
      "component": "MedScan",
      "frame-file": "PMC3230772.cmu.medscan",
      "frame-id": "relm-PMC3230772-cmu-medscan-516",
      "passage-id": "pass-PMC3230772-UAZ-r1-35",
      "passage-number": 35,
      "passage-section-id": "S9",
      "passage-section-name": "N/A",
      "sentence": "Next we explored the role of TIP60 acetyltransferase activity in transcriptional activation by estrogen receptor\\u03b1.",
      "text": "estrogen receptor\\u03b1 binding , which is also required for TIP60",
      "uaz-sentence": "Next we explored the role of TIP60 acetyltransferase activity in transcriptional activation by ERalpha .",
      "uaz-sentence-start": 0
    }
  ],
  "model_relation": "extension",
  "pmc_id": "PMC3230772",
  "reader_type": "machine",
  "reading_complete": "2015-06-15T22:28:43Z",
  "reading_started": "2015-06-15T22:28:38Z",
  "submitter": "FRIES"
}
