{
  "evidence": ["activation of JAK3 by menadione","menadione, a drug that activated the tyrosine kinase Janus kinase 3","The finding that JAK3 silencing mirrored the effect of inhibiting JAK3 lends further support to the notion that activation of JAK3 by menadione prevents the assembly of HuR containing SGs .","Unexpectedly , the accumulation of HuR in SGs was blocked by treatment with menadione , a drug that activated the tyrosine kinase Janus kinase 3 ( JAK3 ) ."],
  "extracted_information": {
    "interaction_type": "increases_activity",
    "negative_information": false,
    "participant_a": {
      "entity_text": "menadione",
      "entity_type": "chemical",
      "identifier": "CHEBI:28869",
      "in_model": false
    },
    "participant_b": {
      "entity_text": "Janus kinase 3",
      "entity_type": "protein",
      "identifier": "Uniprot:P52333",
      "in_model": true
    }
  },
  "fries_provenance": [
    {
      "component": "REACH",
      "frame-file": "PMC3902907.uaz.events",
      "frame-id": "evem-PMC3902907-UAZ-r1-10-2-8",
      "passage-id": "pass-PMC3902907-UAZ-r1-10",
      "passage-number": 10,
      "passage-section-id": "N/A",
      "passage-section-name": "N/A",
      "sentence": "Unexpectedly , the accumulation of HuR in SGs was blocked by treatment with menadione , a drug that activated the tyrosine kinase Janus kinase 3 ( JAK3 ) .",
      "text": "menadione, a drug that activated the tyrosine kinase Janus kinase 3",
      "uaz-sentence": "Unexpectedly , the accumulation of HuR in SGs was blocked by treatment with menadione , a drug that activated the tyrosine kinase Janus kinase 3 ( JAK3 ) .",
      "uaz-sentence-start": 427
    },
    {
      "cmu-sentence-epistemic-status": "implication",
      "cmu-sentence-epistemic-value": 0.6,
      "component": "REACH",
      "frame-file": "PMC3902907.uaz.events",
      "frame-id": "evem-PMC3902907-UAZ-r1-44-6-22",
      "passage-id": "pass-PMC3902907-UAZ-r1-44",
      "passage-number": 44,
      "passage-section-id": "N/A",
      "passage-section-name": "N/A",
      "sentence": "The finding that JAK3 silencing mirrored the effect of inhibiting JAK3 lends further support to the notion that activation of JAK3 by menadione prevents the assembly of HuR containing SGs .",
      "text": "activation of JAK3 by menadione",
      "uaz-sentence": "The finding that JAK3 silencing mirrored the effect of inhibiting JAK3 lends further support to the notion that activation of JAK3 by menadione prevents the assembly of HuR containing SGs .",
      "uaz-sentence-start": 1124
    }
  ],
  "model_relation": "extension",
  "pmc_id": "PMC3902907",
  "reader_type": "machine",
  "reading_complete": "2015-06-15T23:39:13Z",
  "reading_started": "2015-06-15T23:39:08Z",
  "submitter": "FRIES"
}
