{
    "frames": [
        {
            "cell-type": [
                "untransduced cells or cells"
            ], 
            "frame-id": "imp-PMC2731218-cmu-pradsys-696", 
            "frame-type": "implication", 
            "implication-type": "binds", 
            "object-meta": {
                "object-type": "meta-info", 
                "organization": "CMU"
            }, 
            "object-type": "frame", 
            "sentence": "sent-PMC2731218-cmu-24"
        }, 
        {
            "assay-molecule": [
                "BIO"
            ], 
            "binds-constituent2": [
                "Axin1"
            ], 
            "cell-type": [
                "uninfected cells"
            ], 
            "frame-id": "imp-PMC2731218-cmu-pradsys-697", 
            "frame-type": "implication", 
            "implication-type": "binds", 
            "object-meta": {
                "object-type": "meta-info", 
                "organization": "CMU"
            }, 
            "object-type": "frame", 
            "sentence": "sent-PMC2731218-cmu-25"
        }, 
        {
            "entity": [
                "calling criteria"
            ], 
            "frame-id": "imp-PMC2731218-cmu-pradsys-698", 
            "frame-type": "implication", 
            "implication-type": "binds", 
            "object-meta": {
                "object-type": "meta-info", 
                "organization": "CMU"
            }, 
            "object-type": "frame", 
            "sentence": "sent-PMC2731218-cmu-28", 
            "transfection-molecule": [
                "a normalized mean fold-change of greater than 3"
            ]
        }, 
        {
            "binds-site": [
                "the \u03b2-catenin destruction complex ( two"
            ], 
            "frame-id": "imp-PMC2731218-cmu-pradsys-699", 
            "frame-type": "implication", 
            "implication-type": "binds", 
            "object-meta": {
                "object-type": "meta-info", 
                "organization": "CMU"
            }, 
            "object-type": "frame", 
            "sentence": "sent-PMC2731218-cmu-30", 
            "transfection-molecule": [
                "CK1\u03b1 shRNA )"
            ]
        }, 
        {
            "binds-constituent1": [
                "DHFR", 
                "DHFR"
            ], 
            "frame-id": "imp-PMC2731218-cmu-pradsys-700", 
            "frame-type": "implication", 
            "implication-type": "binds", 
            "object-meta": {
                "object-type": "meta-info", 
                "organization": "CMU"
            }, 
            "object-type": "frame", 
            "sentence": "sent-PMC2731218-cmu-33"
        }, 
        {
            "binds-controller": [
                "DHFR shRNA"
            ], 
            "frame-id": "imp-PMC2731218-cmu-pradsys-701", 
            "frame-type": "implication", 
            "implication-type": "binds", 
            "object-meta": {
                "object-type": "meta-info", 
                "organization": "CMU"
            }, 
            "object-type": "frame", 
            "sentence": "sent-PMC2731218-cmu-34"
        }, 
        {
            "frame-id": "imp-PMC2731218-cmu-pradsys-702", 
            "frame-type": "implication", 
            "implication-type": "binds", 
            "object-meta": {
                "object-type": "meta-info", 
                "organization": "CMU"
            }, 
            "object-type": "frame", 
            "sentence": "sent-PMC2731218-cmu-37", 
            "transfection-molecule": [
                "3", 
                "the DHFR mRNA levels in the vector alone ( U6-term ) control sample"
            ]
        }, 
        {
            "frame-id": "imp-PMC2731218-cmu-pradsys-703", 
            "frame-type": "implication", 
            "implication-type": "binds", 
            "incubation-reagent": [
                "unrelated GSK inhibitor ( GSK inhibitor VIII , Calbiochem )"
            ], 
            "object-meta": {
                "object-type": "meta-info", 
                "organization": "CMU"
            }, 
            "object-type": "frame", 
            "sentence": "sent-PMC2731218-cmu-43"
        }, 
        {
            "assay-molecule": [
                "Wnt-3a"
            ], 
            "binds-controller": [
                "increased phosphorylation of an inhibitory residue ( Ser-9 ) on GSK3\u03b2"
            ], 
            "frame-id": "imp-PMC2731218-cmu-pradsys-704", 
            "frame-type": "implication", 
            "implication-type": "binds", 
            "incubation-reagent": [
                "BIO or GSK3 inhibitor VIII"
            ], 
            "object-meta": {
                "object-type": "meta-info", 
                "organization": "CMU"
            }, 
            "object-type": "frame", 
            "sentence": "sent-PMC2731218-cmu-44"
        }, 
        {
            "binds-constituent1": [
                "BIO"
            ], 
            "cell-type": [
                "RKO-BAR cells with DHFR shRNA and control viruses"
            ], 
            "frame-id": "imp-PMC2731218-cmu-pradsys-705", 
            "frame-type": "implication", 
            "implication-type": "binds", 
            "object-meta": {
                "object-type": "meta-info", 
                "organization": "CMU"
            }, 
            "object-type": "frame", 
            "sentence": "sent-PMC2731218-cmu-48"
        }, 
        {
            "binds-constituent1": [
                "BIO"
            ], 
            "frame-id": "imp-PMC2731218-cmu-pradsys-706", 
            "frame-type": "implication", 
            "implication-type": "binds", 
            "ip-molecule": [
                "specific"
            ], 
            "object-meta": {
                "object-type": "meta-info", 
                "organization": "CMU"
            }, 
            "object-type": "frame", 
            "sentence": "sent-PMC2731218-cmu-50"
        }, 
        {
            "binds-constituent1": [
                "DHFR"
            ], 
            "frame-id": "imp-PMC2731218-cmu-pradsys-707", 
            "frame-type": "implication", 
            "implication-type": "binds", 
            "object-meta": {
                "object-type": "meta-info", 
                "organization": "CMU"
            }, 
            "object-type": "frame", 
            "sentence": "sent-PMC2731218-cmu-51"
        }, 
        {
            "frame-id": "imp-PMC2731218-cmu-pradsys-708", 
            "frame-type": "implication", 
            "implication-type": "binds", 
            "m-val": [
                "no effect"
            ], 
            "object-meta": {
                "object-type": "meta-info", 
                "organization": "CMU"
            }, 
            "object-type": "frame", 
            "sentence": "sent-PMC2731218-cmu-52"
        }, 
        {
            "binds-constituent1": [
                "GSK3"
            ], 
            "binds-constituent2": [
                "DHFR"
            ], 
            "frame-id": "imp-PMC2731218-cmu-pradsys-709", 
            "frame-type": "implication", 
            "implication-type": "binds", 
            "object-meta": {
                "object-type": "meta-info", 
                "organization": "CMU"
            }, 
            "object-type": "frame", 
            "sentence": "sent-PMC2731218-cmu-54"
        }, 
        {
            "assay-molecule": [
                "BAR"
            ], 
            "binds-constituent1": [
                "BIO"
            ], 
            "frame-id": "imp-PMC2731218-cmu-pradsys-710", 
            "frame-type": "implication", 
            "implication-type": "binds", 
            "object-meta": {
                "object-type": "meta-info", 
                "organization": "CMU"
            }, 
            "object-type": "frame", 
            "sentence": "sent-PMC2731218-cmu-55"
        }, 
        {
            "binds-constituent1": [
                "SAM", 
                "GSK3\u03b2"
            ], 
            "binds-site": [
                "blocked methotrexate enhancement of BIO-induced \u03b2-catenin protein accumulation"
            ], 
            "frame-id": "imp-PMC2731218-cmu-pradsys-711", 
            "frame-type": "implication", 
            "implication-type": "binds", 
            "object-meta": {
                "object-type": "meta-info", 
                "organization": "CMU"
            }, 
            "object-type": "frame", 
            "sentence": "sent-PMC2731218-cmu-56"
        }, 
        {
            "frame-id": "imp-PMC2731218-cmu-pradsys-712", 
            "frame-type": "implication", 
            "implication-type": "binds", 
            "object-meta": {
                "object-type": "meta-info", 
                "organization": "CMU"
            }, 
            "object-type": "frame", 
            "sentence": "sent-PMC2731218-cmu-57", 
            "transfection-molecule": [
                "DHFR alone"
            ]
        }, 
        {
            "frame-id": "imp-PMC2731218-cmu-pradsys-713", 
            "frame-type": "implication", 
            "implication-type": "binds", 
            "object-meta": {
                "object-type": "meta-info", 
                "organization": "CMU"
            }, 
            "object-type": "frame", 
            "sentence": "sent-PMC2731218-cmu-58", 
            "transfection-molecule": [
                "the transcript levels of GSK3"
            ]
        }, 
        {
            "assay-molecule": [
                "DHFR"
            ], 
            "frame-id": "imp-PMC2731218-cmu-pradsys-714", 
            "frame-type": "implication", 
            "implication-type": "binds", 
            "object-meta": {
                "object-type": "meta-info", 
                "organization": "CMU"
            }, 
            "object-type": "frame", 
            "sentence": "sent-PMC2731218-cmu-59"
        }, 
        {
            "binds-controller": [
                "GSK3", 
                "DHFR inhibition"
            ], 
            "frame-id": "imp-PMC2731218-cmu-pradsys-715", 
            "frame-type": "implication", 
            "implication-type": "binds", 
            "object-meta": {
                "object-type": "meta-info", 
                "organization": "CMU"
            }, 
            "object-type": "frame", 
            "sentence": "sent-PMC2731218-cmu-60"
        }, 
        {
            "frame-id": "imp-PMC2731218-cmu-pradsys-716", 
            "frame-type": "implication", 
            "implication-type": "binds", 
            "object-meta": {
                "object-type": "meta-info", 
                "organization": "CMU"
            }, 
            "object-type": "frame", 
            "sentence": "sent-PMC2731218-cmu-62", 
            "transfection-molecule": [
                "\u03b2-catenin protein levels"
            ]
        }, 
        {
            "assay-molecule": [
                "BIO"
            ], 
            "frame-id": "imp-PMC2731218-cmu-pradsys-717", 
            "frame-type": "implication", 
            "implication-type": "binds", 
            "object-meta": {
                "object-type": "meta-info", 
                "organization": "CMU"
            }, 
            "object-type": "frame", 
            "sentence": "sent-PMC2731218-cmu-63"
        }, 
        {
            "binds-controller": [
                "growth factor stimulation of receptor tyrosine kinases and subsequent activation of PI3K signaling"
            ], 
            "frame-id": "imp-PMC2731218-cmu-pradsys-718", 
            "frame-type": "implication", 
            "implication-type": "binds", 
            "object-meta": {
                "object-type": "meta-info", 
                "organization": "CMU"
            }, 
            "object-type": "frame", 
            "sentence": "sent-PMC2731218-cmu-67"
        }, 
        {
            "assay-molecule": [
                "GSK3\u03b2"
            ], 
            "frame-id": "imp-PMC2731218-cmu-pradsys-719", 
            "frame-type": "implication", 
            "implication-type": "binds", 
            "object-meta": {
                "object-type": "meta-info", 
                "organization": "CMU"
            }, 
            "object-type": "frame", 
            "sentence": "sent-PMC2731218-cmu-68"
        }, 
        {
            "binds-constituent1": [
                "a second PI3K inhibitor , LY294002"
            ], 
            "frame-id": "imp-PMC2731218-cmu-pradsys-720", 
            "frame-type": "implication", 
            "implication-type": "binds", 
            "object-meta": {
                "object-type": "meta-info", 
                "organization": "CMU"
            }, 
            "object-type": "frame", 
            "sentence": "sent-PMC2731218-cmu-70"
        }, 
        {
            "assay-molecule": [
                "BIO"
            ], 
            "binds-constituent1": [
                "DHFR"
            ], 
            "frame-id": "imp-PMC2731218-cmu-pradsys-721", 
            "frame-type": "implication", 
            "implication-type": "binds", 
            "object-meta": {
                "object-type": "meta-info", 
                "organization": "CMU"
            }, 
            "object-type": "frame", 
            "sentence": "sent-PMC2731218-cmu-71"
        }, 
        {
            "entity": [
                "Preliminary gene expression profiling experiments"
            ], 
            "frame-id": "imp-PMC2731218-cmu-pradsys-722", 
            "frame-type": "implication", 
            "implication-type": "binds", 
            "object-meta": {
                "object-type": "meta-info", 
                "organization": "CMU"
            }, 
            "object-type": "frame", 
            "sentence": "sent-PMC2731218-cmu-72"
        }, 
        {
            "binds-constituent1": [
                "PI3K"
            ], 
            "frame-id": "imp-PMC2731218-cmu-pradsys-723", 
            "frame-type": "implication", 
            "implication-type": "binds", 
            "object-meta": {
                "object-type": "meta-info", 
                "organization": "CMU"
            }, 
            "object-type": "frame", 
            "sentence": "sent-PMC2731218-cmu-73"
        }, 
        {
            "binds-site": [
                "GSK3 promotes pro-inflammatory signaling downstream of Toll-like receptor ("
            ], 
            "frame-id": "imp-PMC2731218-cmu-pradsys-724", 
            "frame-type": "implication", 
            "implication-type": "binds", 
            "object-meta": {
                "object-type": "meta-info", 
                "organization": "CMU"
            }, 
            "object-type": "frame", 
            "sentence": "sent-PMC2731218-cmu-75"
        }, 
        {
            "cell-type": [
                "mononuclear cells"
            ], 
            "frame-id": "imp-PMC2731218-cmu-pradsys-725", 
            "frame-type": "implication", 
            "implication-type": "binds", 
            "object-meta": {
                "object-type": "meta-info", 
                "organization": "CMU"
            }, 
            "object-type": "frame", 
            "sentence": "sent-PMC2731218-cmu-77"
        }, 
        {
            "binds-constituent1": [
                "BIO"
            ], 
            "binds-controller": [
                "LPS stimulation"
            ], 
            "frame-id": "imp-PMC2731218-cmu-pradsys-726", 
            "frame-type": "implication", 
            "implication-type": "binds", 
            "object-meta": {
                "object-type": "meta-info", 
                "organization": "CMU"
            }, 
            "object-type": "frame", 
            "sentence": "sent-PMC2731218-cmu-79"
        }, 
        {
            "binds-constituent2": [
                "IL-10"
            ], 
            "cell-type": [
                "RKO cells"
            ], 
            "frame-id": "imp-PMC2731218-cmu-pradsys-727", 
            "frame-type": "implication", 
            "implication-type": "binds", 
            "object-meta": {
                "object-type": "meta-info", 
                "organization": "CMU"
            }, 
            "object-type": "frame", 
            "sentence": "sent-PMC2731218-cmu-80"
        }
    ], 
    "object-meta": {
        "component": "Pradeep-System", 
        "component-type": "machine", 
        "doc-id": "PMC2731218", 
        "object-type": "meta-info", 
        "organization": "CMU"
    }, 
    "object-type": "frame-collection"
}
