{
    "frames": [
        {
            "frame-id": "sent-PMC324401-cmu-0", 
            "frame-type": "sentence", 
            "object-type": "frame", 
            "start-pos": {
                "object-type": "absolute-pos", 
                "offset": 0
            }, 
            "text": "XML Paper ( id '324401 ' ) : 'Protection against acute adriamycin-induced cardiotoxicity by garlic : Role of endogenous antioxidants and inhibition of TNF-\u03b1 expression '"
        }, 
        {
            "frame-id": "sent-PMC324401-cmu-1", 
            "frame-type": "sentence", 
            "object-type": "frame", 
            "start-pos": {
                "object-type": "absolute-pos", 
                "offset": 1
            }, 
            "text": "Background"
        }, 
        {
            "frame-id": "sent-PMC324401-cmu-2", 
            "frame-type": "sentence", 
            "object-type": "frame", 
            "start-pos": {
                "object-type": "absolute-pos", 
                "offset": 2
            }, 
            "text": "Adriamycin , an anthracycline antibiotic , is widely used in the treatment of a variety of human malignancies , including breast cancer , small cell carcinoma of the lung and acute leukemia 's [ 1 ] ."
        }, 
        {
            "frame-id": "sent-PMC324401-cmu-3", 
            "frame-type": "sentence", 
            "object-type": "frame", 
            "start-pos": {
                "object-type": "absolute-pos", 
                "offset": 3
            }, 
            "text": "Like most of the anticancer drugs , adriamycin also causes various toxic effects , the commonest of which is the dose-dependent cardiotoxicity which leads to acute and chronic heart failure [ 2 ] ."
        }, 
        {
            "frame-id": "sent-PMC324401-cmu-4", 
            "frame-type": "sentence", 
            "object-type": "frame", 
            "start-pos": {
                "object-type": "absolute-pos", 
                "offset": 4
            }, 
            "text": "Cellular damage induced by adriamycin is mediated by the formation of an iron-anthracycline complex that generates free radicals , which , in turn , causes severe damage to the plasma membrane and interferes with the cytoskeletal structure [ 3 ] ."
        }, 
        {
            "frame-id": "sent-PMC324401-cmu-5", 
            "frame-type": "sentence", 
            "object-type": "frame", 
            "start-pos": {
                "object-type": "absolute-pos", 
                "offset": 5
            }, 
            "text": "Due to the presence of a less developed antioxidant defense mechanism , heart is particularly vulnerable to injury by anthracycline-induced reactive oxygen species [ 4 ] ."
        }, 
        {
            "frame-id": "sent-PMC324401-cmu-6", 
            "frame-type": "sentence", 
            "object-type": "frame", 
            "start-pos": {
                "object-type": "absolute-pos", 
                "offset": 6
            }, 
            "text": "Considerable efforts have been made on using antioxidants and iron-chelators to protect the heart against adriamycin toxicity ."
        }, 
        {
            "frame-id": "sent-PMC324401-cmu-7", 
            "frame-type": "sentence", 
            "object-type": "frame", 
            "start-pos": {
                "object-type": "absolute-pos", 
                "offset": 7
            }, 
            "text": "Initial attempts to use traditional antioxidants , like N-acetylcystiene [ 5 ] , tocopherol [ 6 ] in the prevention of adriamycin-induced cardiotoxicity were not very successful ."
        }, 
        {
            "frame-id": "sent-PMC324401-cmu-8", 
            "frame-type": "sentence", 
            "object-type": "frame", 
            "start-pos": {
                "object-type": "absolute-pos", 
                "offset": 8
            }, 
            "text": "Dexrazoxane , the only drug presently approved by FDA to prevent adriamycin-induced cardiotoxicity , is an iron chelator and possesses potent antioxidant properties ."
        }, 
        {
            "frame-id": "sent-PMC324401-cmu-9", 
            "frame-type": "sentence", 
            "object-type": "frame", 
            "start-pos": {
                "object-type": "absolute-pos", 
                "offset": 9
            }, 
            "text": "But , due to the high incidence of dexrazoxane-induced myelosuppression , its use has also been limited to some advanced stages of malignant disorders [ 7 ] ."
        }, 
        {
            "frame-id": "sent-PMC324401-cmu-10", 
            "frame-type": "sentence", 
            "object-type": "frame", 
            "start-pos": {
                "object-type": "absolute-pos", 
                "offset": 10
            }, 
            "text": "Therapeutic strategies , designed to augment cellular endogenous defense systems have been identified as a promising approach to combat oxidative stress-associated disease conditions [ 8,9 ] ."
        }, 
        {
            "frame-id": "sent-PMC324401-cmu-11", 
            "frame-type": "sentence", 
            "object-type": "frame", 
            "start-pos": {
                "object-type": "absolute-pos", 
                "offset": 11
            }, 
            "text": "In this respect , probucol , a lipid-lowering agent , which augments endogenous antioxidants , has been shown to offer protection [ 10 ] in preventing adriamycin induced cardiotoxicity ."
        }, 
        {
            "frame-id": "sent-PMC324401-cmu-12", 
            "frame-type": "sentence", 
            "object-type": "frame", 
            "start-pos": {
                "object-type": "absolute-pos", 
                "offset": 12
            }, 
            "text": "Garlic , well known for its medicinal use since ancient times , has been reported to have antioxidant properties in vitro [ 11 ] ."
        }, 
        {
            "frame-id": "sent-PMC324401-cmu-13", 
            "frame-type": "sentence", 
            "object-type": "frame", 
            "start-pos": {
                "object-type": "absolute-pos", 
                "offset": 13
            }, 
            "text": "Recently , it has been shown that chronic intake of garlic enhanced SOD and catalase in rat heart and shown protection against oxidative stress induced by ischemic reperfusion injury [ 12,13 ] ."
        }, 
        {
            "frame-id": "sent-PMC324401-cmu-14", 
            "frame-type": "sentence", 
            "object-type": "frame", 
            "start-pos": {
                "object-type": "absolute-pos", 
                "offset": 14
            }, 
            "text": "Oxidative stress-induced cardiotoxicity is mostly mediated through expression of different cytokines , especially TNF-\u03b1 [ 14,15 ] ."
        }, 
        {
            "frame-id": "sent-PMC324401-cmu-15", 
            "frame-type": "sentence", 
            "object-type": "frame", 
            "start-pos": {
                "object-type": "absolute-pos", 
                "offset": 15
            }, 
            "text": "TNF-\u03b1 has been implicated in the pathogenesis of heart failure of varied etiology [ 14 ] ."
        }, 
        {
            "frame-id": "sent-PMC324401-cmu-16", 
            "frame-type": "sentence", 
            "object-type": "frame", 
            "start-pos": {
                "object-type": "absolute-pos", 
                "offset": 16
            }, 
            "text": "Modulation of TNF-\u03b1 expression constitutes an attractive therapeutic option in such conditions ."
        }, 
        {
            "frame-id": "sent-PMC324401-cmu-17", 
            "frame-type": "sentence", 
            "object-type": "frame", 
            "start-pos": {
                "object-type": "absolute-pos", 
                "offset": 17
            }, 
            "text": "Substances , which can inhibit TNF-\u03b1 expression in oxidative stress-induced cardiotoxicity , have potential therapeutic value ."
        }, 
        {
            "frame-id": "sent-PMC324401-cmu-18", 
            "frame-type": "sentence", 
            "object-type": "frame", 
            "start-pos": {
                "object-type": "absolute-pos", 
                "offset": 18
            }, 
            "text": "In view of these facts the present study was designed to test the hypothesis whether a nutritional strategy like chronic garlic administration could prevent adriamycin-induced acute cardiotoxicity , in terms of oxidative stress , expression of myocardial TNF-\u03b1 and tissue injury ."
        }, 
        {
            "frame-id": "sent-PMC324401-cmu-19", 
            "frame-type": "sentence", 
            "object-type": "frame", 
            "start-pos": {
                "object-type": "absolute-pos", 
                "offset": 19
            }, 
            "text": "Results"
        }, 
        {
            "frame-id": "sent-PMC324401-cmu-20", 
            "frame-type": "sentence", 
            "object-type": "frame", 
            "start-pos": {
                "object-type": "absolute-pos", 
                "offset": 20
            }, 
            "text": "Biochemical parameters : ( Table-1 )"
        }, 
        {
            "frame-id": "sent-PMC324401-cmu-21", 
            "frame-type": "sentence", 
            "object-type": "frame", 
            "start-pos": {
                "object-type": "absolute-pos", 
                "offset": 21
            }, 
            "text": "Myocardial TBARS"
        }, 
        {
            "frame-id": "sent-PMC324401-cmu-22", 
            "frame-type": "sentence", 
            "object-type": "frame", 
            "start-pos": {
                "object-type": "absolute-pos", 
                "offset": 22
            }, 
            "text": "There was significant ( p < 0.01 ) increase in myocardial TBARS in the ADR group ( 328.72 \u00b1 34.76 nmol/gm wt ) when compared to the control ( CTR ) group ( 203.03 \u00b1 11.52 nmol/gm wt ) ."
        }, 
        {
            "frame-id": "sent-PMC324401-cmu-23", 
            "frame-type": "sentence", 
            "object-type": "frame", 
            "start-pos": {
                "object-type": "absolute-pos", 
                "offset": 23
            }, 
            "text": "Significant decrease in the level of myocardial TBARS was observed in PRO+ADR ( p < 0.001 ) , G-250+ADR ( p < 0.001 ) and G-500+ADR ( p < 0.02 ) groups ( 145.16 \u00b1 13.13 ; 103.40 \u00b1 17.24 & 276.54 \u00b1 19.60 nmol/gm wt respectively ) in comparison to the ADR group ."
        }, 
        {
            "frame-id": "sent-PMC324401-cmu-24", 
            "frame-type": "sentence", 
            "object-type": "frame", 
            "start-pos": {
                "object-type": "absolute-pos", 
                "offset": 24
            }, 
            "text": "Myocardial GSH"
        }, 
        {
            "frame-id": "sent-PMC324401-cmu-25", 
            "frame-type": "sentence", 
            "object-type": "frame", 
            "start-pos": {
                "object-type": "absolute-pos", 
                "offset": 25
            }, 
            "text": "Significant ( p < 0.001 ) increase in myocardial GSH was observed in the ADR group ( 688.02 \u00b1 12.17 \u03bcg/gm wt . )"
        }, 
        {
            "frame-id": "sent-PMC324401-cmu-26", 
            "frame-type": "sentence", 
            "object-type": "frame", 
            "start-pos": {
                "object-type": "absolute-pos", 
                "offset": 26
            }, 
            "text": "in comparison to the control ( CTR ) group ( 479.17 \u00b1 40.76 \u03bcg/gm wt . ) ."
        }, 
        {
            "frame-id": "sent-PMC324401-cmu-27", 
            "frame-type": "sentence", 
            "object-type": "frame", 
            "start-pos": {
                "object-type": "absolute-pos", 
                "offset": 27
            }, 
            "text": "In the groups PRO+ADR ( p < 0.001 ) , G-250+ADR ( p < 0.001 ) and G-500+ADR ( p < 0.01 ) , there were significant decrease of myocardial GSH ( 507.46 \u00b1 17.40 ; 447.59 \u00b1 18.55 & 629.52 \u00b1 11.37 \u03bcg/gm wt ."
        }, 
        {
            "frame-id": "sent-PMC324401-cmu-28", 
            "frame-type": "sentence", 
            "object-type": "frame", 
            "start-pos": {
                "object-type": "absolute-pos", 
                "offset": 28
            }, 
            "text": "respectively ) when compared to ADR group ."
        }, 
        {
            "frame-id": "sent-PMC324401-cmu-29", 
            "frame-type": "sentence", 
            "object-type": "frame", 
            "start-pos": {
                "object-type": "absolute-pos", 
                "offset": 29
            }, 
            "text": "Myocardial Catalase"
        }, 
        {
            "frame-id": "sent-PMC324401-cmu-30", 
            "frame-type": "sentence", 
            "object-type": "frame", 
            "start-pos": {
                "object-type": "absolute-pos", 
                "offset": 30
            }, 
            "text": "In the ADR group ( 13.81 \u00b1 3.70 U/mg protein ) there was a significant ( p < 0.001 ) decrease in myocardial catalase compared to control ( CTR ) group ( 49.49 \u00b1 2.91 U/mg protein ) ."
        }, 
        {
            "frame-id": "sent-PMC324401-cmu-31", 
            "frame-type": "sentence", 
            "object-type": "frame", 
            "start-pos": {
                "object-type": "absolute-pos", 
                "offset": 31
            }, 
            "text": "In the group PRO+ADR ( 14.76 \u00b1 1.99 U/mg protein ) , there was no significant increase in the level of myocardial catalase compared to ADR group ."
        }, 
        {
            "frame-id": "sent-PMC324401-cmu-32", 
            "frame-type": "sentence", 
            "object-type": "frame", 
            "start-pos": {
                "object-type": "absolute-pos", 
                "offset": 32
            }, 
            "text": "However , significant ( p < 0.001 ) increase in myocardial catalase level was seen only in group G-250+ADR ( 25.12 \u00b1 3.33 U/mg protein ) but not in group G-500+ADR ( 15.41 \u00b1 3.21 U/mg protein ) ."
        }, 
        {
            "frame-id": "sent-PMC324401-cmu-33", 
            "frame-type": "sentence", 
            "object-type": "frame", 
            "start-pos": {
                "object-type": "absolute-pos", 
                "offset": 33
            }, 
            "text": "Myocardial SOD"
        }, 
        {
            "frame-id": "sent-PMC324401-cmu-34", 
            "frame-type": "sentence", 
            "object-type": "frame", 
            "start-pos": {
                "object-type": "absolute-pos", 
                "offset": 34
            }, 
            "text": "In ADR group ( 4.54 \u00b1 0.53 U/mg protein ) , there was a significant ( p < 0.05 ) reduction of myocardial SOD level when compared to control ( CTR ) group ( 6.88 \u00b1 0.79 U/mg protein ) ."
        }, 
        {
            "frame-id": "sent-PMC324401-cmu-35", 
            "frame-type": "sentence", 
            "object-type": "frame", 
            "start-pos": {
                "object-type": "absolute-pos", 
                "offset": 35
            }, 
            "text": "There were no increase in the level of myocardial SOD in PRO+ADR and G-250+ADR groups ( 6.21 \u00b1 0.79 & 6.08 \u00b1 1.72 U/mg protein respectively ) when compared to ADR group ."
        }, 
        {
            "frame-id": "sent-PMC324401-cmu-36", 
            "frame-type": "sentence", 
            "object-type": "frame", 
            "start-pos": {
                "object-type": "absolute-pos", 
                "offset": 36
            }, 
            "text": "But significant ( p < 0.02 ) increase in SOD was observed in G-500+ADR group ( 7.61 \u00b1 0.93 U/mg protein ) ."
        }, 
        {
            "frame-id": "sent-PMC324401-cmu-37", 
            "frame-type": "sentence", 
            "object-type": "frame", 
            "start-pos": {
                "object-type": "absolute-pos", 
                "offset": 37
            }, 
            "text": "Myocardial GPx"
        }, 
        {
            "frame-id": "sent-PMC324401-cmu-38", 
            "frame-type": "sentence", 
            "object-type": "frame", 
            "start-pos": {
                "object-type": "absolute-pos", 
                "offset": 38
            }, 
            "text": "Significant ( p < 0.05 ) reduction of GPx activity was observed in ADR group ( 0.083 \u00b1 0.002 U/mg protein ) when compared to control ( CTR ) group ( 0.193 \u00b1 0.04 U/mg protein ) ."
        }, 
        {
            "frame-id": "sent-PMC324401-cmu-39", 
            "frame-type": "sentence", 
            "object-type": "frame", 
            "start-pos": {
                "object-type": "absolute-pos", 
                "offset": 39
            }, 
            "text": "Increased of the GPx activity were observed in all three groups , PRO+ADR ( p < 0.05 ) , G-250+ADR ( p < 0.05 ) and G-500+ADR ( p < 0.001 ) ( 0.158 \u00b1 0.03 ; 0.149 \u00b1 0.03 & 0.177 \u00b1 0.01 U/mg protein respectively ) ."
        }, 
        {
            "frame-id": "sent-PMC324401-cmu-40", 
            "frame-type": "sentence", 
            "object-type": "frame", 
            "start-pos": {
                "object-type": "absolute-pos", 
                "offset": 40
            }, 
            "text": "Heart weight : body weight ratio : ( Table-2 )"
        }, 
        {
            "frame-id": "sent-PMC324401-cmu-41", 
            "frame-type": "sentence", 
            "object-type": "frame", 
            "start-pos": {
                "object-type": "absolute-pos", 
                "offset": 41
            }, 
            "text": "There was a significant ( p < 0.05 ) decrease in the heart weight : body weight ratio in the group ADR ( 5.78 \u00b1 0.20 , 1 \u00d7 10-3 ) compared to group CTR ( 6.25 \u00b1 0.18 , 1 \u00d7 10-3 ) ."
        }, 
        {
            "frame-id": "sent-PMC324401-cmu-42", 
            "frame-type": "sentence", 
            "object-type": "frame", 
            "start-pos": {
                "object-type": "absolute-pos", 
                "offset": 42
            }, 
            "text": "There was no significant fall in the heart weight : body weight ratio in PRO+ADR , G-250+ADR and G-500+ADR groups ( 6.15 \u00b1 0.17 ; 6.13 \u00b1 0.12 & 6.29 \u00b1 0.13 , 1 \u00d7 10-3 ) compared to group ADR ."
        }, 
        {
            "frame-id": "sent-PMC324401-cmu-43", 
            "frame-type": "sentence", 
            "object-type": "frame", 
            "start-pos": {
                "object-type": "absolute-pos", 
                "offset": 43
            }, 
            "text": "Histopathological changes"
        }, 
        {
            "frame-id": "sent-PMC324401-cmu-44", 
            "frame-type": "sentence", 
            "object-type": "frame", 
            "start-pos": {
                "object-type": "absolute-pos", 
                "offset": 44
            }, 
            "text": "Marked tissue injury with subendocardial loss of muscles and accumulation of acute inflammatory cells surrounded by mild edema was seen in ADR group ( Fig ."
        }, 
        {
            "frame-id": "sent-PMC324401-cmu-45", 
            "frame-type": "sentence", 
            "object-type": "frame", 
            "start-pos": {
                "object-type": "absolute-pos", 
                "offset": 45
            }, 
            "text": "1A ) ."
        }, 
        {
            "frame-id": "sent-PMC324401-cmu-46", 
            "frame-type": "sentence", 
            "object-type": "frame", 
            "start-pos": {
                "object-type": "absolute-pos", 
                "offset": 46
            }, 
            "text": "In the PRO+ADR group ( Fig ."
        }, 
        {
            "frame-id": "sent-PMC324401-cmu-47", 
            "frame-type": "sentence", 
            "object-type": "frame", 
            "start-pos": {
                "object-type": "absolute-pos", 
                "offset": 47
            }, 
            "text": "1B ) , only focal necrosis of muscle fiber with moderate edema was noted ."
        }, 
        {
            "frame-id": "sent-PMC324401-cmu-48", 
            "frame-type": "sentence", 
            "object-type": "frame", 
            "start-pos": {
                "object-type": "absolute-pos", 
                "offset": 48
            }, 
            "text": "Multiple necrotic foci with marked edema was seen in group G-250+ADR ( Fig ."
        }, 
        {
            "frame-id": "sent-PMC324401-cmu-49", 
            "frame-type": "sentence", 
            "object-type": "frame", 
            "start-pos": {
                "object-type": "absolute-pos", 
                "offset": 49
            }, 
            "text": "1C ) , which was less in G-500+ADR group ( Fig ."
        }, 
        {
            "frame-id": "sent-PMC324401-cmu-50", 
            "frame-type": "sentence", 
            "object-type": "frame", 
            "start-pos": {
                "object-type": "absolute-pos", 
                "offset": 50
            }, 
            "text": "1D ) ."
        }, 
        {
            "frame-id": "sent-PMC324401-cmu-51", 
            "frame-type": "sentence", 
            "object-type": "frame", 
            "start-pos": {
                "object-type": "absolute-pos", 
                "offset": 51
            }, 
            "text": "Myocardial TNF-\u03b1 expressions : Table 3"
        }, 
        {
            "frame-id": "sent-PMC324401-cmu-52", 
            "frame-type": "sentence", 
            "object-type": "frame", 
            "start-pos": {
                "object-type": "absolute-pos", 
                "offset": 52
            }, 
            "text": "There was no expression of TNF-\u03b1 in any region of the untreated control ( CTR ) rat hearts ( score : 0 , Fig ."
        }, 
        {
            "frame-id": "sent-PMC324401-cmu-53", 
            "frame-type": "sentence", 
            "object-type": "frame", 
            "start-pos": {
                "object-type": "absolute-pos", 
                "offset": 53
            }, 
            "text": "2A ) ) ."
        }, 
        {
            "frame-id": "sent-PMC324401-cmu-54", 
            "frame-type": "sentence", 
            "object-type": "frame", 
            "start-pos": {
                "object-type": "absolute-pos", 
                "offset": 54
            }, 
            "text": "Intense ( score : 4 , Fig ."
        }, 
        {
            "frame-id": "sent-PMC324401-cmu-55", 
            "frame-type": "sentence", 
            "object-type": "frame", 
            "start-pos": {
                "object-type": "absolute-pos", 
                "offset": 55
            }, 
            "text": "2B ) TNF-\u03b1 expression was seen in the subendocardial region , myocardium and the blood vessels in the adriamycin treated rat hearts ( ADR group ) ."
        }, 
        {
            "frame-id": "sent-PMC324401-cmu-56", 
            "frame-type": "sentence", 
            "object-type": "frame", 
            "start-pos": {
                "object-type": "absolute-pos", 
                "offset": 56
            }, 
            "text": "Probucol treatment ( group PRO+ADR ) caused a reduction of TNF-\u03b1 expression ( score : 1.6 , Fig ."
        }, 
        {
            "frame-id": "sent-PMC324401-cmu-57", 
            "frame-type": "sentence", 
            "object-type": "frame", 
            "start-pos": {
                "object-type": "absolute-pos", 
                "offset": 57
            }, 
            "text": "2E ) in the myocardium , endothelial region and blood vessels ."
        }, 
        {
            "frame-id": "sent-PMC324401-cmu-58", 
            "frame-type": "sentence", 
            "object-type": "frame", 
            "start-pos": {
                "object-type": "absolute-pos", 
                "offset": 58
            }, 
            "text": "Similarly , in G-250+ADR and G-500+ADR groups , there was less expression ( score : 2.8 , Fig ."
        }, 
        {
            "frame-id": "sent-PMC324401-cmu-59", 
            "frame-type": "sentence", 
            "object-type": "frame", 
            "start-pos": {
                "object-type": "absolute-pos", 
                "offset": 59
            }, 
            "text": "2C and 2.9 , Fig ."
        }, 
        {
            "frame-id": "sent-PMC324401-cmu-60", 
            "frame-type": "sentence", 
            "object-type": "frame", 
            "start-pos": {
                "object-type": "absolute-pos", 
                "offset": 60
            }, 
            "text": "2D ) of TNF-\u03b1 in the myocardium , blood vessels and subendocardial region compared to ADR group ."
        }, 
        {
            "frame-id": "sent-PMC324401-cmu-61", 
            "frame-type": "sentence", 
            "object-type": "frame", 
            "start-pos": {
                "object-type": "absolute-pos", 
                "offset": 61
            }, 
            "text": "However , in the group G-500+ADR , there was least TNF-\u03b1 expression in the myocardium ."
        }, 
        {
            "frame-id": "sent-PMC324401-cmu-62", 
            "frame-type": "sentence", 
            "object-type": "frame", 
            "start-pos": {
                "object-type": "absolute-pos", 
                "offset": 62
            }, 
            "text": "Discussion"
        }, 
        {
            "frame-id": "sent-PMC324401-cmu-63", 
            "frame-type": "sentence", 
            "object-type": "frame", 
            "start-pos": {
                "object-type": "absolute-pos", 
                "offset": 63
            }, 
            "text": "Adriamycin is converted into its semiquinone form in the cardiac myocyte by myocardial CYP450 and flavin monoxygenases ."
        }, 
        {
            "frame-id": "sent-PMC324401-cmu-64", 
            "frame-type": "sentence", 
            "object-type": "frame", 
            "start-pos": {
                "object-type": "absolute-pos", 
                "offset": 64
            }, 
            "text": "The semiquinone form is a toxic , short-lived metabolite and interacts with molecular oxygen and initiates a cascade of reaction , producing reactive oxygen species ( ROS ) [ 24 ] ."
        }, 
        {
            "frame-id": "sent-PMC324401-cmu-65", 
            "frame-type": "sentence", 
            "object-type": "frame", 
            "start-pos": {
                "object-type": "absolute-pos", 
                "offset": 65
            }, 
            "text": "Another reported mechanism of adriamycin-induced oxidative stress is the formation of an anthracycline-iron ( Fe2+ ) free radical complex [ 25 ] ."
        }, 
        {
            "frame-id": "sent-PMC324401-cmu-66", 
            "frame-type": "sentence", 
            "object-type": "frame", 
            "start-pos": {
                "object-type": "absolute-pos", 
                "offset": 66
            }, 
            "text": "The latter reacts with hydrogen peroxide to produce hydroxyl ( OH\u2022 ) radical ."
        }, 
        {
            "frame-id": "sent-PMC324401-cmu-67", 
            "frame-type": "sentence", 
            "object-type": "frame", 
            "start-pos": {
                "object-type": "absolute-pos", 
                "offset": 67
            }, 
            "text": "ROS react with lipids , protein and other cellular constituents to cause damage to mitochondria and cell membranes of the heart muscle cells ."
        }, 
        {
            "frame-id": "sent-PMC324401-cmu-68", 
            "frame-type": "sentence", 
            "object-type": "frame", 
            "start-pos": {
                "object-type": "absolute-pos", 
                "offset": 68
            }, 
            "text": "In the present study , a single dose ( 30 mg/kg ) of adriamycin caused a significant increase in myocardial TBARS and decrease in myocardial SOD , catalase and GPx activity indicating an increase in oxidative stress ."
        }, 
        {
            "frame-id": "sent-PMC324401-cmu-69", 
            "frame-type": "sentence", 
            "object-type": "frame", 
            "start-pos": {
                "object-type": "absolute-pos", 
                "offset": 69
            }, 
            "text": "The increase in myocardial GSH appears to be paradoxical , the mechanism of which although not clear may be postulated ."
        }, 
        {
            "frame-id": "sent-PMC324401-cmu-70", 
            "frame-type": "sentence", 
            "object-type": "frame", 
            "start-pos": {
                "object-type": "absolute-pos", 
                "offset": 70
            }, 
            "text": "Due to reduced GPx activity myocardial GSH can not be adequately oxidized to GSSG , as part of its antioxidant activity ."
        }, 
        {
            "frame-id": "sent-PMC324401-cmu-71", 
            "frame-type": "sentence", 
            "object-type": "frame", 
            "start-pos": {
                "object-type": "absolute-pos", 
                "offset": 71
            }, 
            "text": "As a result of which the level of GSH rises due to `` trapping '' of glutathione in its reduced form ."
        }, 
        {
            "frame-id": "sent-PMC324401-cmu-72", 
            "frame-type": "sentence", 
            "object-type": "frame", 
            "start-pos": {
                "object-type": "absolute-pos", 
                "offset": 72
            }, 
            "text": "Adriamycin also caused a significant decrease in heart weight / body weight ratio , which indicate loss of myofibrils and cytoplasmic vacuolisation in myocytes [ 26 ] ."
        }, 
        {
            "frame-id": "sent-PMC324401-cmu-73", 
            "frame-type": "sentence", 
            "object-type": "frame", 
            "start-pos": {
                "object-type": "absolute-pos", 
                "offset": 73
            }, 
            "text": "Histopathological studies revealed loss of myofibrils , subendocardial myocytolysis and vacuolization in the adriamycin treated rat hearts ."
        }, 
        {
            "frame-id": "sent-PMC324401-cmu-74", 
            "frame-type": "sentence", 
            "object-type": "frame", 
            "start-pos": {
                "object-type": "absolute-pos", 
                "offset": 74
            }, 
            "text": "Similar observations have also been made in earlier studies on acute adriamycin-induced cardiotoxicity [ 27,28 ] ."
        }, 
        {
            "frame-id": "sent-PMC324401-cmu-75", 
            "frame-type": "sentence", 
            "object-type": "frame", 
            "start-pos": {
                "object-type": "absolute-pos", 
                "offset": 75
            }, 
            "text": "Increase in SOD and catalase activities in rat heart following chronic garlic intake , as reported earlier by our group [ 12 ] , has a special significance , in relation to cellular defense against oxidative stress ."
        }, 
        {
            "frame-id": "sent-PMC324401-cmu-76", 
            "frame-type": "sentence", 
            "object-type": "frame", 
            "start-pos": {
                "object-type": "absolute-pos", 
                "offset": 76
            }, 
            "text": "Previously , aged garlic extract has been reported to prevent ADR-induced cardiotoxicity through its direct antioxidant effect [ 29 ] ."
        }, 
        {
            "frame-id": "sent-PMC324401-cmu-77", 
            "frame-type": "sentence", 
            "object-type": "frame", 
            "start-pos": {
                "object-type": "absolute-pos", 
                "offset": 77
            }, 
            "text": "In this regard , mechanism of cardioprotection by garlic in the present study is novel ."
        }, 
        {
            "frame-id": "sent-PMC324401-cmu-78", 
            "frame-type": "sentence", 
            "object-type": "frame", 
            "start-pos": {
                "object-type": "absolute-pos", 
                "offset": 78
            }, 
            "text": "The most abundant reactive oxygen species ( ROS ) generated in living cells are superoxide anion and its derivatives , particularly highly reactive and damaging hydroxyl radical , which induces peroxidation of cell membrane lipid [ 30 ] ."
        }, 
        {
            "frame-id": "sent-PMC324401-cmu-79", 
            "frame-type": "sentence", 
            "object-type": "frame", 
            "start-pos": {
                "object-type": "absolute-pos", 
                "offset": 79
            }, 
            "text": "Lipid peroxidation is known to induce cellular damage and is responsible for ROS induced organ damage [ 31 ] ."
        }, 
        {
            "frame-id": "sent-PMC324401-cmu-80", 
            "frame-type": "sentence", 
            "object-type": "frame", 
            "start-pos": {
                "object-type": "absolute-pos", 
                "offset": 80
            }, 
            "text": "In this respect , any increase in SOD activity of the organ appears to be beneficial in the event of increased free radical generation ."
        }, 
        {
            "frame-id": "sent-PMC324401-cmu-81", 
            "frame-type": "sentence", 
            "object-type": "frame", 
            "start-pos": {
                "object-type": "absolute-pos", 
                "offset": 81
            }, 
            "text": "However , it has been reported that a rise in SOD activity , without a concomitant rise in the activity of catalase and/or GPx might be detrimental [ 32 ] ."
        }, 
        {
            "frame-id": "sent-PMC324401-cmu-82", 
            "frame-type": "sentence", 
            "object-type": "frame", 
            "start-pos": {
                "object-type": "absolute-pos", 
                "offset": 82
            }, 
            "text": "It is due to the fact that SOD generates hydrogen peroxide as a metabolite , which is cytotoxic and has to be scavenged by catalase or GPx ."
        }, 
        {
            "frame-id": "sent-PMC324401-cmu-83", 
            "frame-type": "sentence", 
            "object-type": "frame", 
            "start-pos": {
                "object-type": "absolute-pos", 
                "offset": 83
            }, 
            "text": "Thus a simultaneous increase in catalase and/or GPx activity is essential for an overall beneficial effect of increase in SOD activity ."
        }, 
        {
            "frame-id": "sent-PMC324401-cmu-84", 
            "frame-type": "sentence", 
            "object-type": "frame", 
            "start-pos": {
                "object-type": "absolute-pos", 
                "offset": 84
            }, 
            "text": "Inhibition of adriamycin-induced oxidative stress and tissue injury might be attributed to the increase in both myocardial SOD and catalase activities , following chronic garlic administration ."
        }, 
        {
            "frame-id": "sent-PMC324401-cmu-85", 
            "frame-type": "sentence", 
            "object-type": "frame", 
            "start-pos": {
                "object-type": "absolute-pos", 
                "offset": 85
            }, 
            "text": "Increase in lipid peroxidation following acute adriamycin administration , was significantly prevented by both the doses of garlic and this effect was comparable with that of probucol treatment ."
        }, 
        {
            "frame-id": "sent-PMC324401-cmu-86", 
            "frame-type": "sentence", 
            "object-type": "frame", 
            "start-pos": {
                "object-type": "absolute-pos", 
                "offset": 86
            }, 
            "text": "The improvement in myocardial TBARS was much less with the higher dose than with the lower dose ."
        }, 
        {
            "frame-id": "sent-PMC324401-cmu-87", 
            "frame-type": "sentence", 
            "object-type": "frame", 
            "start-pos": {
                "object-type": "absolute-pos", 
                "offset": 87
            }, 
            "text": "This can be explained by the fact that basal TBARS value was higher after chronic garlic treatment in 500 mg/kg dose than 250 mg/kg dose [ 12 ] ."
        }, 
        {
            "frame-id": "sent-PMC324401-cmu-88", 
            "frame-type": "sentence", 
            "object-type": "frame", 
            "start-pos": {
                "object-type": "absolute-pos", 
                "offset": 88
            }, 
            "text": "The paradoxical rise in the level of reduced glutathione in adriamycin-induced cardiotoxicity was blunted in garlic as well as probucol treated hearts ."
        }, 
        {
            "frame-id": "sent-PMC324401-cmu-89", 
            "frame-type": "sentence", 
            "object-type": "frame", 
            "start-pos": {
                "object-type": "absolute-pos", 
                "offset": 89
            }, 
            "text": "This supports our hypothesis ( as mentioned before ) of `` trapping '' of glutathione in its reduced form ( GSH ) in ADR treated rat heart , which was postulated to occur due to reduction in GPx activity ."
        }, 
        {
            "frame-id": "sent-PMC324401-cmu-90", 
            "frame-type": "sentence", 
            "object-type": "frame", 
            "start-pos": {
                "object-type": "absolute-pos", 
                "offset": 90
            }, 
            "text": "Rise in GSH level was absent in garlic and ADR-treated rat hearts due to prevention of reduction in myocardial GPx activity ."
        }, 
        {
            "frame-id": "sent-PMC324401-cmu-91", 
            "frame-type": "sentence", 
            "object-type": "frame", 
            "start-pos": {
                "object-type": "absolute-pos", 
                "offset": 91
            }, 
            "text": "Significant preservation of myocardial catalase and GPx activities was seen with 250 mg/kg dose of garlic , whereas significant preservation of myocardial SOD and GPx activities was seen in 500 mg/kg garlic treated group ."
        }, 
        {
            "frame-id": "sent-PMC324401-cmu-92", 
            "frame-type": "sentence", 
            "object-type": "frame", 
            "start-pos": {
                "object-type": "absolute-pos", 
                "offset": 92
            }, 
            "text": "Although myocardial protection was observed in garlic ( 250 and 500 mg/kg ) and probucol treated groups , 500 mg/kg dose of garlic seems to be better as evident from the histopathological studies supporting the earlier statement of the significance of simultaneous increase in SOD and GPx activity in mitigating oxidative stress ."
        }, 
        {
            "frame-id": "sent-PMC324401-cmu-93", 
            "frame-type": "sentence", 
            "object-type": "frame", 
            "start-pos": {
                "object-type": "absolute-pos", 
                "offset": 93
            }, 
            "text": "Expression of various cytokines , especially that of TNF-\u03b1 is enhanced in various pathophysiological states , associated with increased oxidative stress [ 14,15 ] , which in turn promotes the induction of various other cytotoxic substances on endothelial cells and myocytes ."
        }, 
        {
            "frame-id": "sent-PMC324401-cmu-94", 
            "frame-type": "sentence", 
            "object-type": "frame", 
            "start-pos": {
                "object-type": "absolute-pos", 
                "offset": 94
            }, 
            "text": "This has profound pathological significance , in terms of development of cardiomyopathy , myocyte apoptosis , transmural myocarditis and biventricular fibrosis as well as overall functional deterioration of heart [ 33,34 ] ."
        }, 
        {
            "frame-id": "sent-PMC324401-cmu-95", 
            "frame-type": "sentence", 
            "object-type": "frame", 
            "start-pos": {
                "object-type": "absolute-pos", 
                "offset": 95
            }, 
            "text": "Adriamycin , in our study , caused marked TNF-\u03b1 expression in the subendocardial region , myocardial cells and intramyocardial vessel wall ."
        }, 
        {
            "frame-id": "sent-PMC324401-cmu-96", 
            "frame-type": "sentence", 
            "object-type": "frame", 
            "start-pos": {
                "object-type": "absolute-pos", 
                "offset": 96
            }, 
            "text": "It is possible that increased oxidative stress following adriamycin administration caused expression of TNF-\u03b1 ."
        }, 
        {
            "frame-id": "sent-PMC324401-cmu-97", 
            "frame-type": "sentence", 
            "object-type": "frame", 
            "start-pos": {
                "object-type": "absolute-pos", 
                "offset": 97
            }, 
            "text": "Oxidative stress is known to activate P38-mitogen activated protein ( MAP ) kinase and nuclear factor kappa B and thus play a role in the sequence of signaling events involved in myocardial TNF-\u03b1 production [ 35,36 ] ."
        }, 
        {
            "frame-id": "sent-PMC324401-cmu-98", 
            "frame-type": "sentence", 
            "object-type": "frame", 
            "start-pos": {
                "object-type": "absolute-pos", 
                "offset": 98
            }, 
            "text": "To the best of our knowledge , expression of TNF-\u03b1 in heart of ADR-treated rat is reported for the first time in the present study ."
        }, 
        {
            "frame-id": "sent-PMC324401-cmu-99", 
            "frame-type": "sentence", 
            "object-type": "frame", 
            "start-pos": {
                "object-type": "absolute-pos", 
                "offset": 99
            }, 
            "text": "Probucol , as well as 250 mg/kg and 500 mg/kg of garlic treatment reduced the myocardial expression of TNF-\u03b1 , following adriamycin administration which was associated with reduced myocyte injury , an effect which might be attributed to reduction in oxidative stress ."
        }, 
        {
            "frame-id": "sent-PMC324401-cmu-100", 
            "frame-type": "sentence", 
            "object-type": "frame", 
            "start-pos": {
                "object-type": "absolute-pos", 
                "offset": 100
            }, 
            "text": "Conclusions"
        }, 
        {
            "frame-id": "sent-PMC324401-cmu-101", 
            "frame-type": "sentence", 
            "object-type": "frame", 
            "start-pos": {
                "object-type": "absolute-pos", 
                "offset": 101
            }, 
            "text": "It is concluded that garlic protects adriamycin-induced acute cardiotoxicity by preservation of endogenous antioxidant , reduction of lipid peroxidation and TNF-\u03b1 expression in rat heart ."
        }, 
        {
            "frame-id": "sent-PMC324401-cmu-102", 
            "frame-type": "sentence", 
            "object-type": "frame", 
            "start-pos": {
                "object-type": "absolute-pos", 
                "offset": 102
            }, 
            "text": "The study reveals the role of nutritional factors in preventing adriamycin-induced cardiotoxicity ."
        }, 
        {
            "frame-id": "sent-PMC324401-cmu-103", 
            "frame-type": "sentence", 
            "object-type": "frame", 
            "start-pos": {
                "object-type": "absolute-pos", 
                "offset": 103
            }, 
            "text": "Methods"
        }, 
        {
            "frame-id": "sent-PMC324401-cmu-104", 
            "frame-type": "sentence", 
            "object-type": "frame", 
            "start-pos": {
                "object-type": "absolute-pos", 
                "offset": 104
            }, 
            "text": "Animals"
        }, 
        {
            "frame-id": "sent-PMC324401-cmu-105", 
            "frame-type": "sentence", 
            "object-type": "frame", 
            "start-pos": {
                "object-type": "absolute-pos", 
                "offset": 105
            }, 
            "text": "The study has been approved by the Animal Care Ethics Committee of Institute ."
        }, 
        {
            "frame-id": "sent-PMC324401-cmu-106", 
            "frame-type": "sentence", 
            "object-type": "frame", 
            "start-pos": {
                "object-type": "absolute-pos", 
                "offset": 106
            }, 
            "text": "Laboratory bred Wistar albino rats of both sexes weighing between 150 gm and 200 gm , maintained under standard laboratory conditions of 22 \u00b1 2\u00b0C , relative humidity 50 \u00b1 15 % and photo period ( 12 hr dark/12 hr light ) were used for the experiment ."
        }, 
        {
            "frame-id": "sent-PMC324401-cmu-107", 
            "frame-type": "sentence", 
            "object-type": "frame", 
            "start-pos": {
                "object-type": "absolute-pos", 
                "offset": 107
            }, 
            "text": "Commercial pellet diet and water were provided ad lib ."
        }, 
        {
            "frame-id": "sent-PMC324401-cmu-108", 
            "frame-type": "sentence", 
            "object-type": "frame", 
            "start-pos": {
                "object-type": "absolute-pos", 
                "offset": 108
            }, 
            "text": "Commercial pellet diet ( Hindustan Lever , India ) contains protein : 24 % , fat:5 % , fiber:4 % , carbohydrate:55 % , calcium:0.6 % , phosphorous : 0.3 % , moisture:10 % and ash:9 % w/w ."
        }, 
        {
            "frame-id": "sent-PMC324401-cmu-109", 
            "frame-type": "sentence", 
            "object-type": "frame", 
            "start-pos": {
                "object-type": "absolute-pos", 
                "offset": 109
            }, 
            "text": "Chemicals"
        }, 
        {
            "frame-id": "sent-PMC324401-cmu-110", 
            "frame-type": "sentence", 
            "object-type": "frame", 
            "start-pos": {
                "object-type": "absolute-pos", 
                "offset": 110
            }, 
            "text": "Garlic was obtained from the local market ."
        }, 
        {
            "frame-id": "sent-PMC324401-cmu-111", 
            "frame-type": "sentence", 
            "object-type": "frame", 
            "start-pos": {
                "object-type": "absolute-pos", 
                "offset": 111
            }, 
            "text": "Adriamycin was obtained from Dabur India Ltd. and probucol from Sigma Chemicals Co. , USA ."
        }, 
        {
            "frame-id": "sent-PMC324401-cmu-112", 
            "frame-type": "sentence", 
            "object-type": "frame", 
            "start-pos": {
                "object-type": "absolute-pos", 
                "offset": 112
            }, 
            "text": "All chemicals were of analytical grade and chemicals required for sensitive biochemical assays were obtained from Sigma Chemical Co. , USA ."
        }, 
        {
            "frame-id": "sent-PMC324401-cmu-113", 
            "frame-type": "sentence", 
            "object-type": "frame", 
            "start-pos": {
                "object-type": "absolute-pos", 
                "offset": 113
            }, 
            "text": "Double distilled water was used in all biochemical assays ."
        }, 
        {
            "frame-id": "sent-PMC324401-cmu-114", 
            "frame-type": "sentence", 
            "object-type": "frame", 
            "start-pos": {
                "object-type": "absolute-pos", 
                "offset": 114
            }, 
            "text": "Garlic homogenate preparation and doses"
        }, 
        {
            "frame-id": "sent-PMC324401-cmu-115", 
            "frame-type": "sentence", 
            "object-type": "frame", 
            "start-pos": {
                "object-type": "absolute-pos", 
                "offset": 115
            }, 
            "text": "Garlic cloves were peeled , sliced , ground into a paste and then made a homogenate in distilled water ."
        }, 
        {
            "frame-id": "sent-PMC324401-cmu-116", 
            "frame-type": "sentence", 
            "object-type": "frame", 
            "start-pos": {
                "object-type": "absolute-pos", 
                "offset": 116
            }, 
            "text": "Two doses of garlic homogenate , 250 mg/kg ( 0.1 gm/ml ) and 500 mg mg/kg ( 0.2 gm/ml ) were fed daily to the rats within 30 minutes of its preparation for a continuous period of 30 days ."
        }, 
        {
            "frame-id": "sent-PMC324401-cmu-117", 
            "frame-type": "sentence", 
            "object-type": "frame", 
            "start-pos": {
                "object-type": "absolute-pos", 
                "offset": 117
            }, 
            "text": "A control group of rats were fed only with standard rat feed and double distilled water ( the vehicle for the extracts ) and was maintained for the same period ."
        }, 
        {
            "frame-id": "sent-PMC324401-cmu-118", 
            "frame-type": "sentence", 
            "object-type": "frame", 
            "start-pos": {
                "object-type": "absolute-pos", 
                "offset": 118
            }, 
            "text": "Experimental protocol"
        }, 
        {
            "frame-id": "sent-PMC324401-cmu-119", 
            "frame-type": "sentence", 
            "object-type": "frame", 
            "start-pos": {
                "object-type": "absolute-pos", 
                "offset": 119
            }, 
            "text": "Rats were divided into five groups containing eight rat per group ."
        }, 
        {
            "frame-id": "sent-PMC324401-cmu-120", 
            "frame-type": "sentence", 
            "object-type": "frame", 
            "start-pos": {
                "object-type": "absolute-pos", 
                "offset": 120
            }, 
            "text": "In the control group ( CTR ) , rats were fed with double distilled water ."
        }, 
        {
            "frame-id": "sent-PMC324401-cmu-121", 
            "frame-type": "sentence", 
            "object-type": "frame", 
            "start-pos": {
                "object-type": "absolute-pos", 
                "offset": 121
            }, 
            "text": "In the group ADR , adriamycin ( 30 mg/kg single dose ) was administered intraperitoneally ."
        }, 
        {
            "frame-id": "sent-PMC324401-cmu-122", 
            "frame-type": "sentence", 
            "object-type": "frame", 
            "start-pos": {
                "object-type": "absolute-pos", 
                "offset": 122
            }, 
            "text": "Probucol ( cumulative dose , 120 mg/kg body weight divided in 12 equal injection over a period of 30 days ) was administered intraperitoneally followed by adriamycin ( 30 mg/kg single dose ) challenge in group PRO+ADR ."
        }, 
        {
            "frame-id": "sent-PMC324401-cmu-123", 
            "frame-type": "sentence", 
            "object-type": "frame", 
            "start-pos": {
                "object-type": "absolute-pos", 
                "offset": 123
            }, 
            "text": "In case of groups G-250+ADR and G-500+ADR , adriamycin ( 30 mg/kg single dose ) was administered intraperitoneally in the rats treated with 250 mg/kg and 500 mg/kg garlic homogenate , respectively , after completion of their 30 days treatment ."
        }, 
        {
            "frame-id": "sent-PMC324401-cmu-124", 
            "frame-type": "sentence", 
            "object-type": "frame", 
            "start-pos": {
                "object-type": "absolute-pos", 
                "offset": 124
            }, 
            "text": "After 24 hours of adriamycin administration the rats were heparinised ( 375 units/200 gms , i.p ) [ 16 ] , sacrificed half an hour later with anaesthetic ether and hearts , harvested for the following procedures ."
        }, 
        {
            "frame-id": "sent-PMC324401-cmu-125", 
            "frame-type": "sentence", 
            "object-type": "frame", 
            "start-pos": {
                "object-type": "absolute-pos", 
                "offset": 125
            }, 
            "text": "Biochemical parameters"
        }, 
        {
            "frame-id": "sent-PMC324401-cmu-126", 
            "frame-type": "sentence", 
            "object-type": "frame", 
            "start-pos": {
                "object-type": "absolute-pos", 
                "offset": 126
            }, 
            "text": "Myocardial lipid peroxidation [ 17 ]"
        }, 
        {
            "frame-id": "sent-PMC324401-cmu-127", 
            "frame-type": "sentence", 
            "object-type": "frame", 
            "start-pos": {
                "object-type": "absolute-pos", 
                "offset": 127
            }, 
            "text": "Heart was homogenized in 10 % trichloroacetic acid in 4\u00b0C ."
        }, 
        {
            "frame-id": "sent-PMC324401-cmu-128", 
            "frame-type": "sentence", 
            "object-type": "frame", 
            "start-pos": {
                "object-type": "absolute-pos", 
                "offset": 128
            }, 
            "text": "A 0.2 ml homogenate was pipetted into a test tube , followed by the addition of 0.2 ml of 8.1 % sodium dodecyl sulphate ( SDS ) , 1.5 ml of 30 % acetic acid ( pH-3.5 ) and 1.5 ml of 0.8 % TBA ."
        }, 
        {
            "frame-id": "sent-PMC324401-cmu-129", 
            "frame-type": "sentence", 
            "object-type": "frame", 
            "start-pos": {
                "object-type": "absolute-pos", 
                "offset": 129
            }, 
            "text": "Tubes were boiled for 60 min ."
        }, 
        {
            "frame-id": "sent-PMC324401-cmu-130", 
            "frame-type": "sentence", 
            "object-type": "frame", 
            "start-pos": {
                "object-type": "absolute-pos", 
                "offset": 130
            }, 
            "text": "at 95\u00b0C and then cooled on ice ."
        }, 
        {
            "frame-id": "sent-PMC324401-cmu-131", 
            "frame-type": "sentence", 
            "object-type": "frame", 
            "start-pos": {
                "object-type": "absolute-pos", 
                "offset": 131
            }, 
            "text": "1.0 ml double distilled water and 5.0 ml of n-butanol : pyridine ( 15:1 v/v ) mixture were added to the tubes and centrifuged at 4000 \u00d7 g for 10 minutes ."
        }, 
        {
            "frame-id": "sent-PMC324401-cmu-132", 
            "frame-type": "sentence", 
            "object-type": "frame", 
            "start-pos": {
                "object-type": "absolute-pos", 
                "offset": 132
            }, 
            "text": "The absorbance of the developed colour in organic layer was measured at 532 nm ."
        }, 
        {
            "frame-id": "sent-PMC324401-cmu-133", 
            "frame-type": "sentence", 
            "object-type": "frame", 
            "start-pos": {
                "object-type": "absolute-pos", 
                "offset": 133
            }, 
            "text": "Commercially available 1,1,3,3-tetraethoxypropane ( Sigma ) was used as a standard for MDA ."
        }, 
        {
            "frame-id": "sent-PMC324401-cmu-134", 
            "frame-type": "sentence", 
            "object-type": "frame", 
            "start-pos": {
                "object-type": "absolute-pos", 
                "offset": 134
            }, 
            "text": "TBARS are expressed as nmol/gm wet wt ."
        }, 
        {
            "frame-id": "sent-PMC324401-cmu-135", 
            "frame-type": "sentence", 
            "object-type": "frame", 
            "start-pos": {
                "object-type": "absolute-pos", 
                "offset": 135
            }, 
            "text": "Myocardial GSH [ 18 ]"
        }, 
        {
            "frame-id": "sent-PMC324401-cmu-136", 
            "frame-type": "sentence", 
            "object-type": "frame", 
            "start-pos": {
                "object-type": "absolute-pos", 
                "offset": 136
            }, 
            "text": "Heart was homogenized with 10 % TCA and centrifuged at 3000 \u00d7 g for 10 minutes ."
        }, 
        {
            "frame-id": "sent-PMC324401-cmu-137", 
            "frame-type": "sentence", 
            "object-type": "frame", 
            "start-pos": {
                "object-type": "absolute-pos", 
                "offset": 137
            }, 
            "text": "The reaction mixture contained 0.1 ml of supernatant , 2.0 ml of 0.3 M phosphate buffer ( pH-8.4 ) , 0.4 ml of double distilled water and 0.5 ml of DTNB [ 5,5 dithiobis ( 2-nitrobenzoic acid ) ] ."
        }, 
        {
            "frame-id": "sent-PMC324401-cmu-138", 
            "frame-type": "sentence", 
            "object-type": "frame", 
            "start-pos": {
                "object-type": "absolute-pos", 
                "offset": 138
            }, 
            "text": "The reaction mixture was incubated for 10 minutes and the absorbance was measured at 412 nm ."
        }, 
        {
            "frame-id": "sent-PMC324401-cmu-139", 
            "frame-type": "sentence", 
            "object-type": "frame", 
            "start-pos": {
                "object-type": "absolute-pos", 
                "offset": 139
            }, 
            "text": "The level of GSH was determined from the standard curve with commercially available GSH ( Sigma chemical ) ."
        }, 
        {
            "frame-id": "sent-PMC324401-cmu-140", 
            "frame-type": "sentence", 
            "object-type": "frame", 
            "start-pos": {
                "object-type": "absolute-pos", 
                "offset": 140
            }, 
            "text": "GSH are expressed as \u03bc mole per gm wet weight ."
        }, 
        {
            "frame-id": "sent-PMC324401-cmu-141", 
            "frame-type": "sentence", 
            "object-type": "frame", 
            "start-pos": {
                "object-type": "absolute-pos", 
                "offset": 141
            }, 
            "text": "Myocardial catalase [ 19 ]"
        }, 
        {
            "frame-id": "sent-PMC324401-cmu-142", 
            "frame-type": "sentence", 
            "object-type": "frame", 
            "start-pos": {
                "object-type": "absolute-pos", 
                "offset": 142
            }, 
            "text": "Heart was homogenized at 4\u00b0C ( 1:10 ) in 50 mmole/l potassium phosphate buffer ( pH-7.4 ) and centrifuged at 3000 \u00d7 g for 10 minutes ."
        }, 
        {
            "frame-id": "sent-PMC324401-cmu-143", 
            "frame-type": "sentence", 
            "object-type": "frame", 
            "start-pos": {
                "object-type": "absolute-pos", 
                "offset": 143
            }, 
            "text": "Supernatant ( 50 \u03bcl ) was added to a 3.0 ml cubette that contained 1.95 ml of 50 mM phosphate buffer ( pH-7.0 ) ."
        }, 
        {
            "frame-id": "sent-PMC324401-cmu-144", 
            "frame-type": "sentence", 
            "object-type": "frame", 
            "start-pos": {
                "object-type": "absolute-pos", 
                "offset": 144
            }, 
            "text": "1.0 ml of 30 mM hydrogen peroxide was added to it and changes in absorbance were followed for 30 sec ."
        }, 
        {
            "frame-id": "sent-PMC324401-cmu-145", 
            "frame-type": "sentence", 
            "object-type": "frame", 
            "start-pos": {
                "object-type": "absolute-pos", 
                "offset": 145
            }, 
            "text": "at 240 nm at an interval of 15 sec ."
        }, 
        {
            "frame-id": "sent-PMC324401-cmu-146", 
            "frame-type": "sentence", 
            "object-type": "frame", 
            "start-pos": {
                "object-type": "absolute-pos", 
                "offset": 146
            }, 
            "text": "Catalase activity was expressed as units per mg protein ."
        }, 
        {
            "frame-id": "sent-PMC324401-cmu-147", 
            "frame-type": "sentence", 
            "object-type": "frame", 
            "start-pos": {
                "object-type": "absolute-pos", 
                "offset": 147
            }, 
            "text": "Myocardial SOD [ 20 ]"
        }, 
        {
            "frame-id": "sent-PMC324401-cmu-148", 
            "frame-type": "sentence", 
            "object-type": "frame", 
            "start-pos": {
                "object-type": "absolute-pos", 
                "offset": 148
            }, 
            "text": "Hearts was homogenised in 0.25 M tris sucrose buffer and centifuged at 10,000 \u00d7 g for 15 minutes at 4\u00b0C ."
        }, 
        {
            "frame-id": "sent-PMC324401-cmu-149", 
            "frame-type": "sentence", 
            "object-type": "frame", 
            "start-pos": {
                "object-type": "absolute-pos", 
                "offset": 149
            }, 
            "text": "The supernatant was fractionated by 50 % ammonium sulphate and dialysed overnight ."
        }, 
        {
            "frame-id": "sent-PMC324401-cmu-150", 
            "frame-type": "sentence", 
            "object-type": "frame", 
            "start-pos": {
                "object-type": "absolute-pos", 
                "offset": 150
            }, 
            "text": "Aliquots of the supernatant ( 100 \u03bcl ) was added to sodium pyrophosphate buffer ( pH-8.3 ) followed by addition of 0.1 ml of 186 \u03bcM phenazine methosulphate , 0.3 ml of 300 mM nitroblue tetrazolium and 0.2 ml of 780 \u03bcM NADH ."
        }, 
        {
            "frame-id": "sent-PMC324401-cmu-151", 
            "frame-type": "sentence", 
            "object-type": "frame", 
            "start-pos": {
                "object-type": "absolute-pos", 
                "offset": 151
            }, 
            "text": "Reaction mixture was incubated for 90 second at 30\u00b0C and the reaction stopped by adding 1.0 ml of acetic acid ."
        }, 
        {
            "frame-id": "sent-PMC324401-cmu-152", 
            "frame-type": "sentence", 
            "object-type": "frame", 
            "start-pos": {
                "object-type": "absolute-pos", 
                "offset": 152
            }, 
            "text": "4.0 ml of n-butanol was then added and centrifuged at 3000 \u00d7 g for 10 minutes ."
        }, 
        {
            "frame-id": "sent-PMC324401-cmu-153", 
            "frame-type": "sentence", 
            "object-type": "frame", 
            "start-pos": {
                "object-type": "absolute-pos", 
                "offset": 153
            }, 
            "text": "The absorbance of organic layer was measured at 560 nm ."
        }, 
        {
            "frame-id": "sent-PMC324401-cmu-154", 
            "frame-type": "sentence", 
            "object-type": "frame", 
            "start-pos": {
                "object-type": "absolute-pos", 
                "offset": 154
            }, 
            "text": "SOD is expressed as units per mg protein ."
        }, 
        {
            "frame-id": "sent-PMC324401-cmu-155", 
            "frame-type": "sentence", 
            "object-type": "frame", 
            "start-pos": {
                "object-type": "absolute-pos", 
                "offset": 155
            }, 
            "text": "Myocardial GPx [ 21 ]"
        }, 
        {
            "frame-id": "sent-PMC324401-cmu-156", 
            "frame-type": "sentence", 
            "object-type": "frame", 
            "start-pos": {
                "object-type": "absolute-pos", 
                "offset": 156
            }, 
            "text": "Heart was homogenized at 4\u00b0C in 0.25 M phosphate buffer saline ( pH-7.0 ) ."
        }, 
        {
            "frame-id": "sent-PMC324401-cmu-157", 
            "frame-type": "sentence", 
            "object-type": "frame", 
            "start-pos": {
                "object-type": "absolute-pos", 
                "offset": 157
            }, 
            "text": "Homogenate was centrifuged at 15,000 \u00d7 g for 60 min ."
        }, 
        {
            "frame-id": "sent-PMC324401-cmu-158", 
            "frame-type": "sentence", 
            "object-type": "frame", 
            "start-pos": {
                "object-type": "absolute-pos", 
                "offset": 158
            }, 
            "text": "at 4\u00b0C and supernatant was assayed for the GPx activity ."
        }, 
        {
            "frame-id": "sent-PMC324401-cmu-159", 
            "frame-type": "sentence", 
            "object-type": "frame", 
            "start-pos": {
                "object-type": "absolute-pos", 
                "offset": 159
            }, 
            "text": "GPx activity was assayed in a 1.0 ml cubette containing 400 \u03bcl of 0.25 M potassium phosphate buffer ( pH-7.0 ) , 200 \u03bcl of sample , 100 \u03bcl of 10 mM GSH , 100 \u03bcl 2.5 mM NADPH and 100 \u03bcl of glutathione reductase ( 6 U/ml ) ."
        }, 
        {
            "frame-id": "sent-PMC324401-cmu-160", 
            "frame-type": "sentence", 
            "object-type": "frame", 
            "start-pos": {
                "object-type": "absolute-pos", 
                "offset": 160
            }, 
            "text": "The reaction was started by adding 100 \u03bcl of 12 mM hydrogen peroxide and changes of absorbance at 366 nm at 1 min interval for 5 min ."
        }, 
        {
            "frame-id": "sent-PMC324401-cmu-161", 
            "frame-type": "sentence", 
            "object-type": "frame", 
            "start-pos": {
                "object-type": "absolute-pos", 
                "offset": 161
            }, 
            "text": "were measured ."
        }, 
        {
            "frame-id": "sent-PMC324401-cmu-162", 
            "frame-type": "sentence", 
            "object-type": "frame", 
            "start-pos": {
                "object-type": "absolute-pos", 
                "offset": 162
            }, 
            "text": "GPx activity are expressed as units per mg protein ."
        }, 
        {
            "frame-id": "sent-PMC324401-cmu-163", 
            "frame-type": "sentence", 
            "object-type": "frame", 
            "start-pos": {
                "object-type": "absolute-pos", 
                "offset": 163
            }, 
            "text": "Protein concentration is measured by Bradford method ."
        }, 
        {
            "frame-id": "sent-PMC324401-cmu-164", 
            "frame-type": "sentence", 
            "object-type": "frame", 
            "start-pos": {
                "object-type": "absolute-pos", 
                "offset": 164
            }, 
            "text": "Histopathological studies"
        }, 
        {
            "frame-id": "sent-PMC324401-cmu-165", 
            "frame-type": "sentence", 
            "object-type": "frame", 
            "start-pos": {
                "object-type": "absolute-pos", 
                "offset": 165
            }, 
            "text": "Hearts were fixed in 10 % formalin , processed and embedded in paraffin ."
        }, 
        {
            "frame-id": "sent-PMC324401-cmu-166", 
            "frame-type": "sentence", 
            "object-type": "frame", 
            "start-pos": {
                "object-type": "absolute-pos", 
                "offset": 166
            }, 
            "text": "3 \u03bcm ."
        }, 
        {
            "frame-id": "sent-PMC324401-cmu-167", 
            "frame-type": "sentence", 
            "object-type": "frame", 
            "start-pos": {
                "object-type": "absolute-pos", 
                "offset": 167
            }, 
            "text": "thick paraffin sections were cut on glass slides and stained with hematoxylin and eosin ( H & E ) , periodic acid Schiff ( PAS ) reagent and examined by light microscope to assess gross myocyte injury ( adriamycin-induced ) and the effects of the interventions ."
        }, 
        {
            "frame-id": "sent-PMC324401-cmu-168", 
            "frame-type": "sentence", 
            "object-type": "frame", 
            "start-pos": {
                "object-type": "absolute-pos", 
                "offset": 168
            }, 
            "text": "Estimation of heart : body weight ratio"
        }, 
        {
            "frame-id": "sent-PMC324401-cmu-169", 
            "frame-type": "sentence", 
            "object-type": "frame", 
            "start-pos": {
                "object-type": "absolute-pos", 
                "offset": 169
            }, 
            "text": "In each group , rats were taken for the estimation of heart weight : body weight ratio [ 22 ] ."
        }, 
        {
            "frame-id": "sent-PMC324401-cmu-170", 
            "frame-type": "sentence", 
            "object-type": "frame", 
            "start-pos": {
                "object-type": "absolute-pos", 
                "offset": 170
            }, 
            "text": "Body weight was the weight on the day of sacrifice ."
        }, 
        {
            "frame-id": "sent-PMC324401-cmu-171", 
            "frame-type": "sentence", 
            "object-type": "frame", 
            "start-pos": {
                "object-type": "absolute-pos", 
                "offset": 171
            }, 
            "text": "Heart weight was measured after keeping the heart in cold saline and squeezing out the blood ."
        }, 
        {
            "frame-id": "sent-PMC324401-cmu-172", 
            "frame-type": "sentence", 
            "object-type": "frame", 
            "start-pos": {
                "object-type": "absolute-pos", 
                "offset": 172
            }, 
            "text": "Immunocytochemistry"
        }, 
        {
            "frame-id": "sent-PMC324401-cmu-173", 
            "frame-type": "sentence", 
            "object-type": "frame", 
            "start-pos": {
                "object-type": "absolute-pos", 
                "offset": 173
            }, 
            "text": "Rats were sacrificed and hearts perfused with 10 % formalin and finally stored in 10 % formalin at 4\u00b0C for paraffin sectioning ( N = 3 ) ."
        }, 
        {
            "frame-id": "sent-PMC324401-cmu-174", 
            "frame-type": "sentence", 
            "object-type": "frame", 
            "start-pos": {
                "object-type": "absolute-pos", 
                "offset": 174
            }, 
            "text": "Five-micron-thick paraffin-embedded sections were used for immuno-staining using an immuno-enzymatic staining kit ( DACCA PAP kit , system 40 ; DAKO ) ."
        }, 
        {
            "frame-id": "sent-PMC324401-cmu-175", 
            "frame-type": "sentence", 
            "object-type": "frame", 
            "start-pos": {
                "object-type": "absolute-pos", 
                "offset": 175
            }, 
            "text": "After deparafinization and hydration through two changes of xylene and graded alcohol for 10 minutes in each solution , tissue sections were incubated in a humidified chamber with proteinase K ( 20 ug/ml ; Sigma ) for 15 minutes at 23\u00b0C and washed in distilled water ."
        }, 
        {
            "frame-id": "sent-PMC324401-cmu-176", 
            "frame-type": "sentence", 
            "object-type": "frame", 
            "start-pos": {
                "object-type": "absolute-pos", 
                "offset": 176
            }, 
            "text": "After washing in Tris-buffered saline ( TBS ; 0.05 mole/L Tris , pH 7.4 , 0.15 mol/L NaCl ) , endogenous peroxidase activity was blocked by incubating for 5 minutes at 23\u00b0C in 3 % H2O2 in TBS , washed in TBS ( four times for 2 minutes each ) , and incubated for 40 minutes at 23\u00b0C with blocking solution ( 0.5 % Tween 20 plus 0.5 % BSA plus 10 % normal goat serum , pre immune ) to block nonspecific binding ."
        }, 
        {
            "frame-id": "sent-PMC324401-cmu-177", 
            "frame-type": "sentence", 
            "object-type": "frame", 
            "start-pos": {
                "object-type": "absolute-pos", 
                "offset": 177
            }, 
            "text": "The sections were then incubated at 23\u00b0C for 1 hour with rabbit anti-mouse TNF-\u03b1 ( 2.0 ug/ml ) ( Santa Cruz Biotechnology , Inc. ) , washed in TBST ( TBS plus 0.5 % Tween 20 ) three times for 5 minutes each , incubated at 23\u00b0C for an additional 20 minutes with secondary antibody ( goat anti-rabbit ; DAKO ) ."
        }, 
        {
            "frame-id": "sent-PMC324401-cmu-178", 
            "frame-type": "sentence", 
            "object-type": "frame", 
            "start-pos": {
                "object-type": "absolute-pos", 
                "offset": 178
            }, 
            "text": "After washing in TBST 3 times for 5 minutes each , the sections were incubated for 20 minutes at 23\u00b0C with soluble horseradish peroxidase/rabbit anti-horseradish peroxidase complex prediluted in TBS ."
        }, 
        {
            "frame-id": "sent-PMC324401-cmu-179", 
            "frame-type": "sentence", 
            "object-type": "frame", 
            "start-pos": {
                "object-type": "absolute-pos", 
                "offset": 179
            }, 
            "text": "The sections were then incubated with 3,3'-diaminobezidine tetrahydrochloride ( DAKO liquid DAB ) as the substrate ."
        }, 
        {
            "frame-id": "sent-PMC324401-cmu-180", 
            "frame-type": "sentence", 
            "object-type": "frame", 
            "start-pos": {
                "object-type": "absolute-pos", 
                "offset": 180
            }, 
            "text": "Counter staining was then performed with Mayer 's hematoxylin ( Fluka , Rankonkoma ."
        }, 
        {
            "frame-id": "sent-PMC324401-cmu-181", 
            "frame-type": "sentence", 
            "object-type": "frame", 
            "start-pos": {
                "object-type": "absolute-pos", 
                "offset": 181
            }, 
            "text": "NY ) ."
        }, 
        {
            "frame-id": "sent-PMC324401-cmu-182", 
            "frame-type": "sentence", 
            "object-type": "frame", 
            "start-pos": {
                "object-type": "absolute-pos", 
                "offset": 182
            }, 
            "text": "After dehydration , cover slips were mounted on slides in Permount ( Sigma ) ."
        }, 
        {
            "frame-id": "sent-PMC324401-cmu-183", 
            "frame-type": "sentence", 
            "object-type": "frame", 
            "start-pos": {
                "object-type": "absolute-pos", 
                "offset": 183
            }, 
            "text": "Omission of primary antibody and use of rabbit pre immune serum in place of primary antibody after neutralization with its peptide antigen ( Santa Cruz Biotechnology ) served as controls ."
        }, 
        {
            "frame-id": "sent-PMC324401-cmu-184", 
            "frame-type": "sentence", 
            "object-type": "frame", 
            "start-pos": {
                "object-type": "absolute-pos", 
                "offset": 184
            }, 
            "text": "Immunocytochemical staining was evaluated by light microscopy ."
        }, 
        {
            "frame-id": "sent-PMC324401-cmu-185", 
            "frame-type": "sentence", 
            "object-type": "frame", 
            "start-pos": {
                "object-type": "absolute-pos", 
                "offset": 185
            }, 
            "text": "Staining was assessed semiquantitatively as the percentage of positively stained cells [ 23 ] according to the following scale : 0 \u2013 no staining present ."
        }, 
        {
            "frame-id": "sent-PMC324401-cmu-186", 
            "frame-type": "sentence", 
            "object-type": "frame", 
            "start-pos": {
                "object-type": "absolute-pos", 
                "offset": 186
            }, 
            "text": "1 \u2013 Very light ( 1 \u2013 10 % ) 2 \u2013 Light ( 10 \u2013 30 % ) 3 \u2013 Moderate ( 30 \u2013 70 % ) 4 \u2013 Intense ( 70 \u2013 100 % )"
        }, 
        {
            "frame-id": "sent-PMC324401-cmu-187", 
            "frame-type": "sentence", 
            "object-type": "frame", 
            "start-pos": {
                "object-type": "absolute-pos", 
                "offset": 187
            }, 
            "text": "Five independent observers blinded to the groups studied scored the sections and the average data presented a consensus value of all observations ."
        }, 
        {
            "frame-id": "sent-PMC324401-cmu-188", 
            "frame-type": "sentence", 
            "object-type": "frame", 
            "start-pos": {
                "object-type": "absolute-pos", 
                "offset": 188
            }, 
            "text": "Statistical Analysis"
        }, 
        {
            "frame-id": "sent-PMC324401-cmu-189", 
            "frame-type": "sentence", 
            "object-type": "frame", 
            "start-pos": {
                "object-type": "absolute-pos", 
                "offset": 189
            }, 
            "text": "All values are expressed as mean \u00b1 SEM ."
        }, 
        {
            "frame-id": "sent-PMC324401-cmu-190", 
            "frame-type": "sentence", 
            "object-type": "frame", 
            "start-pos": {
                "object-type": "absolute-pos", 
                "offset": 190
            }, 
            "text": "One way ANOVA was applied to test for significance of biochemical data of different groups and Student 's t-test was applied to test for heart weight : body weight ratio ."
        }, 
        {
            "frame-id": "sent-PMC324401-cmu-191", 
            "frame-type": "sentence", 
            "object-type": "frame", 
            "start-pos": {
                "object-type": "absolute-pos", 
                "offset": 191
            }, 
            "text": "Significance was set at p < 0.05 ."
        }, 
        {
            "frame-id": "sent-PMC324401-cmu-192", 
            "frame-type": "sentence", 
            "object-type": "frame", 
            "start-pos": {
                "object-type": "absolute-pos", 
                "offset": 192
            }, 
            "text": "Authors ' contributions"
        }, 
        {
            "frame-id": "sent-PMC324401-cmu-193", 
            "frame-type": "sentence", 
            "object-type": "frame", 
            "start-pos": {
                "object-type": "absolute-pos", 
                "offset": 193
            }, 
            "text": "Author SM , SKB & MM carried out the animal experimentation , biochemical estimation , immunocytochemistry and statistical analysis of results ."
        }, 
        {
            "frame-id": "sent-PMC324401-cmu-194", 
            "frame-type": "sentence", 
            "object-type": "frame", 
            "start-pos": {
                "object-type": "absolute-pos", 
                "offset": 194
            }, 
            "text": "Author AKD carried out the light microscopic and immunocytochemistry study ."
        }, 
        {
            "frame-id": "sent-PMC324401-cmu-195", 
            "frame-type": "sentence", 
            "object-type": "frame", 
            "start-pos": {
                "object-type": "absolute-pos", 
                "offset": 195
            }, 
            "text": "Author KKT helped in designing and discussion of the results of the study ."
        }, 
        {
            "frame-id": "sent-PMC324401-cmu-196", 
            "frame-type": "sentence", 
            "object-type": "frame", 
            "start-pos": {
                "object-type": "absolute-pos", 
                "offset": 196
            }, 
            "text": "Author SKM conceived the study , and participated in its design , coordination and drafted the manuscript ."
        }
    ], 
    "object-meta": {
        "component": "Nicolas-NXML-Parser", 
        "component-type": "machine", 
        "doc-id": "PMC324401", 
        "object-type": "meta-info", 
        "organization": "CMU"
    }, 
    "object-type": "frame-collection"
}
