{
  "evidence": ["Ca2+ mobilization raises the possibility that cytoplasmic Ca2+ may stimulate the phosphatase calcineurin to activate cytoplasmic NFAT","Dephosphorylated NFAT translocates into the nucleus, where it binds DNA in an obligatory cooperative interaction with other transcription factors including Fos, Jun, GATA, and C/EBP."],
  "extracted_information": {
    "interaction_type": "increases",
    "negative_information": false,
    "participant_a": {
      "entity_text": "Ca2+",
      "entity_type": "chemical",
      "identifier": "PubChem:271",
      "in_model": true
    },
    "participant_b": {
      "entity_text": "NFAT",
      "entity_type": "protein_family",
      "identifier": "ungrounded",
      "in_model": false
    }
  },
  "fries_provenance": [
    {
      "cmu-sentence-epistemic-status": "implication",
      "cmu-sentence-epistemic-value": 0.6,
      "component": "MedScan",
      "frame-file": "PMC1761701.cmu.medscan",
      "frame-id": "relm-PMC1761701-cmu-medscan-975",
      "passage-id": "pass-PMC1761701-UAZ-r1-46",
      "passage-number": 46,
      "passage-section-id": "N/A",
      "passage-section-name": "N/A",
      "sentence": "Dephosphorylated NFAT translocates into the nucleus, where it binds DNA in an obligatory cooperative interaction with other transcription factors including Fos, Jun, GATA, and C/EBP.",
      "text": "Ca2+ mobilization raises the possibility that cytoplasmic Ca2+ may stimulate the phosphatase calcineurin to activate cytoplasmic NFAT",
      "uaz-sentence": "Dephosphorylated NFAT translocates into the nucleus , where it binds DNA in an obligatory cooperative interaction with other transcription factors including Fos , Jun , GATA , and C and EBP .",
      "uaz-sentence-start": 264
    }
  ],
  "model_relation": "extension",
  "pmc_id": "PMC1761701",
  "reader_type": "machine",
  "reading_complete": "2015-06-15T18:56:56Z",
  "reading_started": "2015-06-15T18:56:51Z",
  "submitter": "FRIES"
}
