{
  "evidence": ["CCI-779 can block P-gp and MRP1 efflux pump and consequently increased doxorubicin","We have studied whether CCI-779 can block P-gp and MRP1 efflux pump and consequently increased doxorubicin sensitivity in these P-gp1 and MRP1 overexpressing cells ."],
  "extracted_information": {
    "interaction_type": "increases_activity",
    "negative_information": false,
    "participant_a": {
      "entity_text": "CCI-779",
      "entity_type": "chemical",
      "identifier": "CHEBI:775133",
      "in_model": false
    },
    "participant_b": {
      "entity_text": "doxorubicin",
      "entity_type": "chemical",
      "identifier": "CHEBI:64816",
      "in_model": true
    }
  },
  "fries_provenance": [
    {
      "cmu-sentence-epistemic-status": "implication",
      "cmu-sentence-epistemic-value": 0.6,
      "component": "REACH",
      "frame-file": "PMC1181826.uaz.events",
      "frame-id": "evem-PMC1181826-UAZ-r1-65-1-26",
      "passage-id": "pass-PMC1181826-UAZ-r1-65",
      "passage-number": 65,
      "passage-section-id": "N/A",
      "passage-section-name": "N/A",
      "sentence": "We have studied whether CCI-779 can block P-gp and MRP1 efflux pump and consequently increased doxorubicin sensitivity in these P-gp1 and MRP1 overexpressing cells .",
      "text": "CCI-779 can block P-gp and MRP1 efflux pump and consequently increased doxorubicin",
      "uaz-event-epistemic-status": "hypothesis",
      "uaz-sentence": "We have studied whether CCI-779 can block P-gp and MRP1 efflux pump and consequently increased doxorubicin sensitivity in these P-gp1 and MRP1 overexpressing cells .",
      "uaz-sentence-start": 106
    }
  ],
  "model_relation": "extension",
  "pmc_id": "PMC1181826",
  "reader_type": "machine",
  "reading_complete": "2015-06-15T18:38:48Z",
  "reading_started": "2015-06-15T18:38:43Z",
  "submitter": "FRIES"
}
