{
    "frames": [
        {
            "cell-type": [
                "cancerous cells"
            ], 
            "frame-id": "imp-PMC3310874-cmu-pradsys-775", 
            "frame-type": "implication", 
            "implication-type": "binds", 
            "object-meta": {
                "object-type": "meta-info", 
                "organization": "CMU"
            }, 
            "object-type": "frame", 
            "sentence": "sent-PMC3310874-cmu-79"
        }, 
        {
            "binds-constituent1": [
                "MUC1"
            ], 
            "binds-controller": [
                "MUC1"
            ], 
            "frame-id": "imp-PMC3310874-cmu-pradsys-776", 
            "frame-type": "implication", 
            "implication-type": "binds", 
            "m-comp": [
                "an immortalized human bronchial epithelial cell line that is sensitive to carcinogen-induced transformation"
            ], 
            "object-meta": {
                "object-type": "meta-info", 
                "organization": "CMU"
            }, 
            "object-type": "frame", 
            "sentence": "sent-PMC3310874-cmu-80"
        }, 
        {
            "assay-molecule": [
                "BPDE"
            ], 
            "frame-id": "imp-PMC3310874-cmu-pradsys-777", 
            "frame-type": "implication", 
            "implication-type": "binds", 
            "object-meta": {
                "object-type": "meta-info", 
                "organization": "CMU"
            }, 
            "object-type": "frame", 
            "sentence": "sent-PMC3310874-cmu-81"
        }, 
        {
            "frame-id": "imp-PMC3310874-cmu-pradsys-778", 
            "frame-type": "implication", 
            "implication-type": "binds", 
            "m-val": [
                "did not affect"
            ], 
            "object-meta": {
                "object-type": "meta-info", 
                "organization": "CMU"
            }, 
            "object-type": "frame", 
            "sentence": "sent-PMC3310874-cmu-83"
        }, 
        {
            "binds-constituent1": [
                "MUC1"
            ], 
            "binds-constituent2": [
                "the MUC1 messenger RNA"
            ], 
            "cell-type": [
                "BEAS-2B cells with a MUC1 shRNA"
            ], 
            "frame-id": "imp-PMC3310874-cmu-pradsys-779", 
            "frame-type": "implication", 
            "implication-type": "binds", 
            "object-meta": {
                "object-type": "meta-info", 
                "organization": "CMU"
            }, 
            "object-type": "frame", 
            "sentence": "sent-PMC3310874-cmu-85"
        }, 
        {
            "binds-constituent2": [
                "MUC1 shRNA"
            ], 
            "frame-id": "imp-PMC3310874-cmu-pradsys-780", 
            "frame-type": "implication", 
            "implication-type": "binds", 
            "object-meta": {
                "object-type": "meta-info", 
                "organization": "CMU"
            }, 
            "object-type": "frame", 
            "process": [
                "transfected"
            ], 
            "sentence": "sent-PMC3310874-cmu-86"
        }, 
        {
            "binds-constituent1": [
                "MUC1"
            ], 
            "frame-id": "imp-PMC3310874-cmu-pradsys-781", 
            "frame-type": "implication", 
            "implication-type": "binds", 
            "object-meta": {
                "object-type": "meta-info", 
                "organization": "CMU"
            }, 
            "object-type": "frame", 
            "sentence": "sent-PMC3310874-cmu-88"
        }, 
        {
            "binds-constituent1": [
                "BPDE"
            ], 
            "frame-id": "imp-PMC3310874-cmu-pradsys-782", 
            "frame-type": "implication", 
            "implication-type": "binds", 
            "object-meta": {
                "object-type": "meta-info", 
                "organization": "CMU"
            }, 
            "object-type": "frame", 
            "sentence": "sent-PMC3310874-cmu-89"
        }, 
        {
            "binds-constituent1": [
                "MUC1", 
                "EGFR"
            ], 
            "binds-site": [
                "potentiates BPDE-induced bronchial epithelial cell transformation"
            ], 
            "cell-type": [
                "epithelial cells"
            ], 
            "frame-id": "imp-PMC3310874-cmu-pradsys-783", 
            "frame-type": "implication", 
            "implication-type": "binds", 
            "ip-molecule": [
                "EGFR"
            ], 
            "object-meta": {
                "object-type": "meta-info", 
                "organization": "CMU"
            }, 
            "object-type": "frame", 
            "sentence": "sent-PMC3310874-cmu-90"
        }, 
        {
            "binds-constituent1": [
                "EGFR"
            ], 
            "cell-type": [
                "BEAS-2B cells"
            ], 
            "frame-id": "imp-PMC3310874-cmu-pradsys-784", 
            "frame-type": "implication", 
            "implication-type": "binds", 
            "ip-molecule": [
                "EGFR"
            ], 
            "object-meta": {
                "object-type": "meta-info", 
                "organization": "CMU"
            }, 
            "object-type": "frame", 
            "process": [
                "detected"
            ], 
            "sentence": "sent-PMC3310874-cmu-91"
        }, 
        {
            "binds-constituent2": [
                "EGFR"
            ], 
            "frame-id": "imp-PMC3310874-cmu-pradsys-785", 
            "frame-type": "implication", 
            "implication-type": "binds", 
            "object-meta": {
                "object-type": "meta-info", 
                "organization": "CMU"
            }, 
            "object-type": "frame", 
            "sentence": "sent-PMC3310874-cmu-92"
        }, 
        {
            "assay-molecule": [
                "EGFR"
            ], 
            "binds-constituent2": [
                "BPDE"
            ], 
            "frame-id": "imp-PMC3310874-cmu-pradsys-786", 
            "frame-type": "implication", 
            "implication-type": "binds", 
            "incubation-reagent": [
                "Akt and ERK"
            ], 
            "object-meta": {
                "object-type": "meta-info", 
                "organization": "CMU"
            }, 
            "object-type": "frame", 
            "sentence": "sent-PMC3310874-cmu-94"
        }, 
        {
            "assay-molecule": [
                "EGFR"
            ], 
            "frame-id": "imp-PMC3310874-cmu-pradsys-787", 
            "frame-type": "implication", 
            "implication-type": "binds", 
            "object-meta": {
                "object-type": "meta-info", 
                "organization": "CMU"
            }, 
            "object-type": "frame", 
            "sentence": "sent-PMC3310874-cmu-96"
        }, 
        {
            "assay-molecule": [
                "EGFR"
            ], 
            "binds-constituent1": [
                "Akt", 
                "EGFR"
            ], 
            "binds-constituent2": [
                "ERK", 
                "EGFR"
            ], 
            "frame-id": "imp-PMC3310874-cmu-pradsys-788", 
            "frame-type": "implication", 
            "implication-type": "binds", 
            "ip-molecule": [
                "EGFR"
            ], 
            "object-meta": {
                "object-type": "meta-info", 
                "organization": "CMU"
            }, 
            "object-type": "frame", 
            "sentence": "sent-PMC3310874-cmu-98"
        }, 
        {
            "binds-catalysis": [
                "a marginal effect"
            ], 
            "binds-constituent1": [
                "Akt", 
                "EGFR"
            ], 
            "binds-constituent2": [
                "the EGFR siRNA"
            ], 
            "binds-controller": [
                "control siRNA"
            ], 
            "frame-id": "imp-PMC3310874-cmu-pradsys-789", 
            "frame-type": "implication", 
            "implication-type": "binds", 
            "object-meta": {
                "object-type": "meta-info", 
                "organization": "CMU"
            }, 
            "object-type": "frame", 
            "sentence": "sent-PMC3310874-cmu-99"
        }, 
        {
            "binds-constituent1": [
                "EGFR"
            ], 
            "frame-id": "imp-PMC3310874-cmu-pradsys-790", 
            "frame-type": "implication", 
            "implication-type": "binds", 
            "ip-molecule": [
                "EGFR"
            ], 
            "object-meta": {
                "object-type": "meta-info", 
                "organization": "CMU"
            }, 
            "object-type": "frame", 
            "sentence": "sent-PMC3310874-cmu-101"
        }, 
        {
            "binds-controller": [
                "EGFR siRNA nor the EGFR inhibitor inhibited the expression of MUC1 ( Figs"
            ], 
            "frame-id": "imp-PMC3310874-cmu-pradsys-791", 
            "frame-type": "implication", 
            "implication-type": "binds", 
            "object-meta": {
                "object-type": "meta-info", 
                "organization": "CMU"
            }, 
            "object-type": "frame", 
            "sentence": "sent-PMC3310874-cmu-103"
        }, 
        {
            "binds-constituent1": [
                "MUC1"
            ], 
            "binds-constituent2": [
                "EGFR"
            ], 
            "frame-id": "imp-PMC3310874-cmu-pradsys-792", 
            "frame-type": "implication", 
            "implication-type": "binds", 
            "object-meta": {
                "object-type": "meta-info", 
                "organization": "CMU"
            }, 
            "object-type": "frame", 
            "sentence": "sent-PMC3310874-cmu-104"
        }, 
        {
            "assay-molecule": [
                "EGFR"
            ], 
            "binds-constituent1": [
                "BPDE"
            ], 
            "cell-type": [
                "epithelial cells"
            ], 
            "frame-id": "imp-PMC3310874-cmu-pradsys-793", 
            "frame-type": "implication", 
            "implication-type": "binds", 
            "object-meta": {
                "object-type": "meta-info", 
                "organization": "CMU"
            }, 
            "object-type": "frame", 
            "sentence": "sent-PMC3310874-cmu-105"
        }, 
        {
            "binds-constituent2": [
                "HBEC-2"
            ], 
            "frame-id": "imp-PMC3310874-cmu-pradsys-794", 
            "frame-type": "implication", 
            "implication-type": "binds", 
            "ip-molecule": [
                "EGFR"
            ], 
            "object-meta": {
                "object-type": "meta-info", 
                "organization": "CMU"
            }, 
            "object-type": "frame", 
            "sentence": "sent-PMC3310874-cmu-106"
        }, 
        {
            "assay-molecule": [
                "BPDE", 
                "EGFR"
            ], 
            "binds-constituent2": [
                "ERK"
            ], 
            "frame-id": "imp-PMC3310874-cmu-pradsys-795", 
            "frame-type": "implication", 
            "implication-type": "binds", 
            "object-meta": {
                "object-type": "meta-info", 
                "organization": "CMU"
            }, 
            "object-type": "frame", 
            "sentence": "sent-PMC3310874-cmu-107"
        }, 
        {
            "binds-constituent2": [
                "EGFR"
            ], 
            "frame-id": "imp-PMC3310874-cmu-pradsys-796", 
            "frame-type": "implication", 
            "implication-type": "binds", 
            "object-meta": {
                "object-type": "meta-info", 
                "organization": "CMU"
            }, 
            "object-type": "frame", 
            "sentence": "sent-PMC3310874-cmu-108"
        }, 
        {
            "binds-constituent1": [
                "Akt"
            ], 
            "binds-constituent2": [
                "ERK"
            ], 
            "frame-id": "imp-PMC3310874-cmu-pradsys-797", 
            "frame-type": "implication", 
            "implication-type": "binds", 
            "object-meta": {
                "object-type": "meta-info", 
                "organization": "CMU"
            }, 
            "object-type": "frame", 
            "sentence": "sent-PMC3310874-cmu-110"
        }, 
        {
            "binds-constituent2": [
                "MUC1"
            ], 
            "binds-site": [
                "the expression level of"
            ], 
            "frame-id": "imp-PMC3310874-cmu-pradsys-798", 
            "frame-type": "implication", 
            "implication-type": "binds", 
            "object-meta": {
                "object-type": "meta-info", 
                "organization": "CMU"
            }, 
            "object-type": "frame", 
            "sentence": "sent-PMC3310874-cmu-112"
        }, 
        {
            "binds-controller": [
                "activated EGFR", 
                "MUC1 expression ( Fig"
            ], 
            "frame-id": "imp-PMC3310874-cmu-pradsys-799", 
            "frame-type": "implication", 
            "implication-type": "binds", 
            "object-meta": {
                "object-type": "meta-info", 
                "organization": "CMU"
            }, 
            "object-type": "frame", 
            "sentence": "sent-PMC3310874-cmu-114"
        }, 
        {
            "assay-molecule": [
                "EGFR"
            ], 
            "binds-constituent1": [
                "BPDE"
            ], 
            "cell-type": [
                "HBEC-2 cells"
            ], 
            "frame-id": "imp-PMC3310874-cmu-pradsys-800", 
            "frame-type": "implication", 
            "implication-type": "binds", 
            "object-meta": {
                "object-type": "meta-info", 
                "organization": "CMU"
            }, 
            "object-type": "frame", 
            "sentence": "sent-PMC3310874-cmu-116"
        }, 
        {
            "binds-constituent1": [
                "EGFR"
            ], 
            "cell-type": [
                "precancerous cells"
            ], 
            "frame-id": "imp-PMC3310874-cmu-pradsys-801", 
            "frame-type": "implication", 
            "implication-type": "binds", 
            "object-meta": {
                "object-type": "meta-info", 
                "organization": "CMU"
            }, 
            "object-type": "frame", 
            "sentence": "sent-PMC3310874-cmu-117"
        }, 
        {
            "assay-molecule": [
                "EGFR"
            ], 
            "frame-id": "imp-PMC3310874-cmu-pradsys-802", 
            "frame-type": "implication", 
            "implication-type": "binds", 
            "object-meta": {
                "object-type": "meta-info", 
                "organization": "CMU"
            }, 
            "object-type": "frame", 
            "sentence": "sent-PMC3310874-cmu-120", 
            "transfection-molecule": [
                "MUC1 overexpression ( Fig"
            ]
        }, 
        {
            "binds-constituent1": [
                "MUC1"
            ], 
            "frame-id": "imp-PMC3310874-cmu-pradsys-803", 
            "frame-type": "implication", 
            "implication-type": "binds", 
            "ip-molecule": [
                "EGFR"
            ], 
            "object-meta": {
                "object-type": "meta-info", 
                "organization": "CMU"
            }, 
            "object-type": "frame", 
            "sentence": "sent-PMC3310874-cmu-122"
        }, 
        {
            "binds-constituent2": [
                "ERK"
            ], 
            "frame-id": "imp-PMC3310874-cmu-pradsys-804", 
            "frame-type": "implication", 
            "implication-type": "binds", 
            "object-meta": {
                "object-type": "meta-info", 
                "organization": "CMU"
            }, 
            "object-type": "frame", 
            "sentence": "sent-PMC3310874-cmu-124"
        }, 
        {
            "binds-site": [
                "the EGFR inhibitor"
            ], 
            "frame-id": "imp-PMC3310874-cmu-pradsys-805", 
            "frame-type": "implication", 
            "implication-type": "binds", 
            "object-meta": {
                "object-type": "meta-info", 
                "organization": "CMU"
            }, 
            "object-type": "frame", 
            "sentence": "sent-PMC3310874-cmu-127"
        }, 
        {
            "binds-site": [
                "the PI3 kinase ( PI3K ) /Akt inhibitor LY294002"
            ], 
            "frame-id": "imp-PMC3310874-cmu-pradsys-806", 
            "frame-type": "implication", 
            "implication-type": "binds", 
            "object-meta": {
                "object-type": "meta-info", 
                "organization": "CMU"
            }, 
            "object-type": "frame", 
            "sentence": "sent-PMC3310874-cmu-128"
        }, 
        {
            "binds-controller": [
                "MEK/ERK inhibitor U0126"
            ], 
            "frame-id": "imp-PMC3310874-cmu-pradsys-807", 
            "frame-type": "implication", 
            "implication-type": "binds", 
            "object-meta": {
                "object-type": "meta-info", 
                "organization": "CMU"
            }, 
            "object-type": "frame", 
            "sentence": "sent-PMC3310874-cmu-129"
        }, 
        {
            "frame-id": "imp-PMC3310874-cmu-pradsys-808", 
            "frame-type": "implication", 
            "implication-type": "binds", 
            "incubation-reagent": [
                "4A"
            ], 
            "object-meta": {
                "object-type": "meta-info", 
                "organization": "CMU"
            }, 
            "object-type": "frame", 
            "sentence": "sent-PMC3310874-cmu-131"
        }, 
        {
            "assay-molecule": [
                "EGFR"
            ], 
            "frame-id": "imp-PMC3310874-cmu-pradsys-809", 
            "frame-type": "implication", 
            "implication-type": "binds", 
            "object-meta": {
                "object-type": "meta-info", 
                "organization": "CMU"
            }, 
            "object-type": "frame", 
            "sentence": "sent-PMC3310874-cmu-135"
        }, 
        {
            "assay-molecule": [
                "BPDE"
            ], 
            "cell-type": [
                "BEAS-2B cells"
            ], 
            "frame-id": "imp-PMC3310874-cmu-pradsys-810", 
            "frame-type": "implication", 
            "implication-type": "binds", 
            "object-meta": {
                "object-type": "meta-info", 
                "organization": "CMU"
            }, 
            "object-type": "frame", 
            "sentence": "sent-PMC3310874-cmu-136"
        }, 
        {
            "assay-molecule": [
                "EGFR"
            ], 
            "binds-constituent2": [
                "Akt"
            ], 
            "frame-id": "imp-PMC3310874-cmu-pradsys-811", 
            "frame-type": "implication", 
            "implication-type": "binds", 
            "object-meta": {
                "object-type": "meta-info", 
                "organization": "CMU"
            }, 
            "object-type": "frame", 
            "sentence": "sent-PMC3310874-cmu-137"
        }, 
        {
            "binds-constituent1": [
                "ERK"
            ], 
            "frame-id": "imp-PMC3310874-cmu-pradsys-812", 
            "frame-type": "implication", 
            "implication-type": "binds", 
            "object-meta": {
                "object-type": "meta-info", 
                "organization": "CMU"
            }, 
            "object-type": "frame", 
            "sentence": "sent-PMC3310874-cmu-140"
        }, 
        {
            "assay-molecule": [
                "EGFR"
            ], 
            "binds-constituent2": [
                "ERK"
            ], 
            "frame-id": "imp-PMC3310874-cmu-pradsys-813", 
            "frame-type": "implication", 
            "implication-type": "binds", 
            "object-meta": {
                "object-type": "meta-info", 
                "organization": "CMU"
            }, 
            "object-type": "frame", 
            "sentence": "sent-PMC3310874-cmu-141"
        }, 
        {
            "binds-constituent1": [
                "MUC1"
            ], 
            "frame-id": "imp-PMC3310874-cmu-pradsys-814", 
            "frame-type": "implication", 
            "implication-type": "binds", 
            "ip-molecule": [
                "EGFR"
            ], 
            "object-meta": {
                "object-type": "meta-info", 
                "organization": "CMU"
            }, 
            "object-type": "frame", 
            "sentence": "sent-PMC3310874-cmu-142"
        }, 
        {
            "binds-constituent1": [
                "MUC1 overexpression"
            ], 
            "frame-id": "imp-PMC3310874-cmu-pradsys-815", 
            "frame-type": "implication", 
            "implication-type": "binds", 
            "object-meta": {
                "object-type": "meta-info", 
                "organization": "CMU"
            }, 
            "object-type": "frame", 
            "sentence": "sent-PMC3310874-cmu-143", 
            "transfection-molecule": [
                "Because BPDE stimulated EGFR-mediated Akt"
            ]
        }, 
        {
            "binds-constituent1": [
                "MUC1", 
                "EGFR", 
                "MUC1"
            ], 
            "cell-type": [
                "epithelial cells"
            ], 
            "frame-id": "imp-PMC3310874-cmu-pradsys-816", 
            "frame-type": "implication", 
            "implication-type": "binds", 
            "object-meta": {
                "object-type": "meta-info", 
                "organization": "CMU"
            }, 
            "object-type": "frame", 
            "sentence": "sent-PMC3310874-cmu-144"
        }, 
        {
            "cell-type": [
                "BEAS-2B cells with stable MUC1 knockdown"
            ], 
            "frame-id": "imp-PMC3310874-cmu-pradsys-817", 
            "frame-type": "implication", 
            "implication-type": "binds", 
            "object-meta": {
                "object-type": "meta-info", 
                "organization": "CMU"
            }, 
            "object-type": "frame", 
            "process": [
                "transfected"
            ], 
            "sentence": "sent-PMC3310874-cmu-145", 
            "transfection-molecule": [
                "negative shRNA vector with respect to BPDE-induced EGFR , Akt"
            ]
        }, 
        {
            "assay-molecule": [
                "EGFR"
            ], 
            "cell-type": [
                "control cells , MUC1 knockdown completely attenuated"
            ], 
            "frame-id": "imp-PMC3310874-cmu-pradsys-818", 
            "frame-type": "implication", 
            "implication-type": "binds", 
            "object-meta": {
                "object-type": "meta-info", 
                "organization": "CMU"
            }, 
            "object-type": "frame", 
            "sentence": "sent-PMC3310874-cmu-146"
        }, 
        {
            "assay-molecule": [
                "EGFR"
            ], 
            "binds-controller": [
                "MUC1"
            ], 
            "cell-type": [
                "epithelial cells"
            ], 
            "frame-id": "imp-PMC3310874-cmu-pradsys-819", 
            "frame-type": "implication", 
            "implication-type": "binds", 
            "object-meta": {
                "object-type": "meta-info", 
                "organization": "CMU"
            }, 
            "object-type": "frame", 
            "sentence": "sent-PMC3310874-cmu-148"
        }, 
        {
            "binds-constituent1": [
                "cells"
            ], 
            "binds-site": [
                "the MUC1 knockdown"
            ], 
            "frame-id": "imp-PMC3310874-cmu-pradsys-820", 
            "frame-type": "implication", 
            "implication-type": "binds", 
            "object-meta": {
                "object-type": "meta-info", 
                "organization": "CMU"
            }, 
            "object-type": "frame", 
            "sentence": "sent-PMC3310874-cmu-149"
        }, 
        {
            "cell-type": [
                "MUC1 knockdown cells"
            ], 
            "frame-id": "imp-PMC3310874-cmu-pradsys-821", 
            "frame-type": "implication", 
            "implication-type": "binds", 
            "ip-molecule": [
                "EGFR"
            ], 
            "object-meta": {
                "object-type": "meta-info", 
                "organization": "CMU"
            }, 
            "object-type": "frame", 
            "sentence": "sent-PMC3310874-cmu-151"
        }, 
        {
            "binds-controller": [
                "MUC1 knockdown ( Fig"
            ], 
            "entity": [
                "the EGFR message RNA expression levels"
            ], 
            "frame-id": "imp-PMC3310874-cmu-pradsys-822", 
            "frame-type": "implication", 
            "implication-type": "binds", 
            "object-meta": {
                "object-type": "meta-info", 
                "organization": "CMU"
            }, 
            "object-type": "frame", 
            "sentence": "sent-PMC3310874-cmu-153"
        }, 
        {
            "binds-constituent2": [
                "EGFR"
            ], 
            "frame-id": "imp-PMC3310874-cmu-pradsys-823", 
            "frame-type": "implication", 
            "implication-type": "binds", 
            "object-meta": {
                "object-type": "meta-info", 
                "organization": "CMU"
            }, 
            "object-type": "frame", 
            "sentence": "sent-PMC3310874-cmu-155"
        }, 
        {
            "binds-constituent2": [
                "EGFR"
            ], 
            "cell-type": [
                "MUC1-suppressed cells"
            ], 
            "frame-id": "imp-PMC3310874-cmu-pradsys-824", 
            "frame-type": "implication", 
            "implication-type": "binds", 
            "object-meta": {
                "object-type": "meta-info", 
                "organization": "CMU"
            }, 
            "object-type": "frame", 
            "sentence": "sent-PMC3310874-cmu-157", 
            "transfection-molecule": [
                "the negative control shRNA transfected cells ( \u223c145 min ) ( Fig"
            ]
        }, 
        {
            "frame-id": "imp-PMC3310874-cmu-pradsys-825", 
            "frame-type": "implication", 
            "implication-type": "binds", 
            "ip-molecule": [
                "EGFR"
            ], 
            "object-meta": {
                "object-type": "meta-info", 
                "organization": "CMU"
            }, 
            "object-type": "frame", 
            "sentence": "sent-PMC3310874-cmu-159"
        }, 
        {
            "binds-site": [
                "the EGFR expression difference between the MUC1 knockdown"
            ], 
            "frame-id": "imp-PMC3310874-cmu-pradsys-826", 
            "frame-type": "implication", 
            "implication-type": "binds", 
            "object-meta": {
                "object-type": "meta-info", 
                "organization": "CMU"
            }, 
            "object-type": "frame", 
            "sentence": "sent-PMC3310874-cmu-160"
        }, 
        {
            "assay-molecule": [
                "EGFR"
            ], 
            "binds-site": [
                "decreased EGFR protein stability"
            ], 
            "cell-type": [
                "MUC1-suppressed cells"
            ], 
            "frame-id": "imp-PMC3310874-cmu-pradsys-827", 
            "frame-type": "implication", 
            "implication-type": "binds", 
            "object-meta": {
                "object-type": "meta-info", 
                "organization": "CMU"
            }, 
            "object-type": "frame", 
            "sentence": "sent-PMC3310874-cmu-162"
        }, 
        {
            "binds-constituent1": [
                "Akt"
            ], 
            "binds-controller": [
                "MUC1", 
                "MUC1"
            ], 
            "frame-id": "imp-PMC3310874-cmu-pradsys-828", 
            "frame-type": "implication", 
            "implication-type": "binds", 
            "object-meta": {
                "object-type": "meta-info", 
                "organization": "CMU"
            }, 
            "object-type": "frame", 
            "sentence": "sent-PMC3310874-cmu-164"
        }, 
        {
            "binds-constituent1": [
                "BPDE"
            ], 
            "cell-type": [
                "BEAS-2B cells with stable MUC1 knockdown and control cells"
            ], 
            "frame-id": "imp-PMC3310874-cmu-pradsys-829", 
            "frame-type": "implication", 
            "implication-type": "binds", 
            "object-meta": {
                "object-type": "meta-info", 
                "organization": "CMU"
            }, 
            "object-type": "frame", 
            "process": [
                "transfected"
            ], 
            "sentence": "sent-PMC3310874-cmu-165"
        }, 
        {
            "binds-constituent2": [
                "MUC1"
            ], 
            "frame-id": "imp-PMC3310874-cmu-pradsys-830", 
            "frame-type": "implication", 
            "implication-type": "binds", 
            "object-meta": {
                "object-type": "meta-info", 
                "organization": "CMU"
            }, 
            "object-type": "frame", 
            "sentence": "sent-PMC3310874-cmu-166"
        }, 
        {
            "binds-constituent1": [
                "Akt"
            ], 
            "binds-constituent2": [
                "ERK"
            ], 
            "binds-site": [
                "the MUC1 knockdown cells BPDE-induced activation of EGFR-mediated"
            ], 
            "frame-id": "imp-PMC3310874-cmu-pradsys-831", 
            "frame-type": "implication", 
            "implication-type": "binds", 
            "object-meta": {
                "object-type": "meta-info", 
                "organization": "CMU"
            }, 
            "object-type": "frame", 
            "sentence": "sent-PMC3310874-cmu-168"
        }, 
        {
            "frame-id": "imp-PMC3310874-cmu-pradsys-832", 
            "frame-type": "implication", 
            "implication-type": "binds", 
            "object-meta": {
                "object-type": "meta-info", 
                "organization": "CMU"
            }, 
            "object-type": "frame", 
            "sentence": "sent-PMC3310874-cmu-169", 
            "transfection-molecule": [
                "BPDE induced transformation ( Figs"
            ]
        }, 
        {
            "binds-constituent1": [
                "MUC1"
            ], 
            "frame-id": "imp-PMC3310874-cmu-pradsys-833", 
            "frame-type": "implication", 
            "implication-type": "binds", 
            "object-meta": {
                "object-type": "meta-info", 
                "organization": "CMU"
            }, 
            "object-type": "frame", 
            "sentence": "sent-PMC3310874-cmu-170"
        }
    ], 
    "object-meta": {
        "component": "Pradeep-System", 
        "component-type": "machine", 
        "doc-id": "PMC3310874", 
        "object-type": "meta-info", 
        "organization": "CMU"
    }, 
    "object-type": "frame-collection"
}
