{
  "evidence": ["phosphorylation of ER-alpha Ser167","We identified that patients with primary breast tumors with high phosphorylation of ER-alpha Ser167 , or high expression of PRA or PRB , significantly responded to endocrine therapy , whereas phosphorylation of ER-alpha Ser118 and expression of ER-beta1 and ER-betacx and beta2 did not influence response ."],
  "extracted_information": {
    "interaction_type": "adds_modification",
    "negative_information": false,
    "modifications": [
      {
        "modification_type": "phosphorylation",
        "site": 167
      }
    ],
    "participant_b": {
      "entity_text": "ER-alpha",
      "entity_type": "protein",
      "identifier": "Uniprot:P03372",
      "in_model": true
    }
  },
  "fries_provenance": [
    {
      "cmu-sentence-epistemic-status": "implication",
      "cmu-sentence-epistemic-value": 0.6,
      "component": "REACH",
      "frame-file": "PMC1242143.uaz.events",
      "frame-id": "evem-PMC1242143-UAZ-r1-81-1-116",
      "passage-id": "pass-PMC1242143-UAZ-r1-81",
      "passage-number": 81,
      "passage-section-id": "N/A",
      "passage-section-name": "N/A",
      "sentence": "We identified that patients with primary breast tumors with high phosphorylation of ER-alpha Ser167 , or high expression of PRA or PRB , significantly responded to endocrine therapy , whereas phosphorylation of ER-alpha Ser118 and expression of ER-beta1 and ER-betacx and beta2 did not influence response .",
      "text": "phosphorylation of ER-alpha Ser167",
      "uaz-sentence": "We identified that patients with primary breast tumors with high phosphorylation of ER-alpha Ser167 , or high expression of PRA or PRB , significantly responded to endocrine therapy , whereas phosphorylation of ER-alpha Ser118 and expression of ER-beta1 and ER-betacx and beta2 did not influence response .",
      "uaz-sentence-start": 160
    }
  ],
  "model_relation": "extension",
  "pmc_id": "PMC1242143",
  "reader_type": "machine",
  "reading_complete": "2015-06-15T18:44:54Z",
  "reading_started": "2015-06-15T18:44:49Z",
  "submitter": "FRIES"
}
